ITEM: TIMESTEP
0
ITEM: NUMBER OF ATOMS
200
ITEM: BOX BOUNDS pp pp pp
-2.0000000000000000e+01 2.0000000000000000e+01
-2.0000000000000000e+01 2.0000000000000000e+01
-2.0000000000000000e+01 2.0000000000000000e+01
ITEM: ATOMS id mol type x y z ix iy iz c_quat[1] c_quat[2] c_quat[3] c_quat[4]
1 1 1 1.253540e+01 1.560148e+01 1.913558e+01 -1 -1 0 -2.639541e-01 9.087784e-01 -1.971551e-01 2.560859e-01
2 1 2 1.189187e+01 1.474114e+01 1.833187e+01 -1 -1 0 -1.284531e-01 1.574295e-01 -9.564511e-01 2.095638e-01
3 1 1 1.195296e+01 1.431126e+01 1.817733e+01 -1 -1 0 2.371711e-01 2.034127e-01 9.221661e-01 -2.279973e-01
4 1 3 1.187489e+01 1.386564e+01 1.791288e+01 -1 -1 0 2.641175e-01 4.322023e-01 8.396607e-01 -1.959922e-01
5 1 1 1.172099e+01 1.348962e+01 1.758521e+01 -1 -1 0 2.802820e-01 6.992206e-01 6.424401e-01 -1.407239e-01
6 1 2 1.143751e+01 1.336958e+01 1.717965e+01 -1 -1 0 2.153907e-01 8.951744e-01 3.819663e-01 -7.982092e-02
7 1 4 1.130542e+01 1.345832e+01 1.665784e+01 -1 -1 0 1.450110e-01 9.778372e-01 1.509753e-01 3.564751e-03
8 1 1 1.133522e+01 1.351731e+01 1.610153e+01 -1 -1 0 -7.683173e-02 -9.857213e-01 4.325719e-02 -1.434546e-01
9 1 1 1.164455e+01 1.358749e+01 1.565822e+01 -1 -1 0 -4.844848e-02 -8.910003e-01 3.633380e-01 -2.678742e-01
10 1 4 1.201760e+01 1.366438e+01 1.543438e+01 -1 -1 0 1.108981e-01 -6.994552e-01 6.711041e-01 -2.192790e-01
11 1 1 1.248486e+01 1.350553e+01 1.521113e+01 -1 -1 0 1.810422e-01 -5.369440e-01 7.606280e-01 -3.167963e-01
12 1 1 1.287098e+01 1.325839e+01 1.508659e+01 -1 -1 0 -2.906989e-01 2.850891e-01 -8.376979e-01 3.639788e-01
13 1 3 1.315296e+01 1.284132e+01 1.504753e+01 -1 -1 0 -3.679204e-01 -1.328904e-02 -8.443974e-01 3.891672e-01
14 1 4 1.342347e+01 1.233233e+01 1.486992e+01 -1 -1 0 -2.918118e-01 -2.459435e-01 -8.730891e-01 3.034353e-01
15 1 4 1.326970e+01 1.185839e+01 1.468301e+01 -1 -1 0 4.152614e-01 5.376955e-01 7.068163e-01 -1.971097e-01
16 1 2 1.324894e+01 1.152809e+01 1.428349e+01 -1 -1 0 3.510795e-01 7.569483e-01 5.511003e-01 -7.804420e-03
17 1 1 1.326063e+01 1.144546e+01 1.372365e+01 -1 -1 0 -2.809553e-01 -8.884037e-01 -3.132986e-01 -1.834313e-01
18 1 2 1.341147e+01 1.147786e+01 1.315399e+01 -1 -1 0 -2.219430e-01 -9.090586e-01 -9.369198e-02 -3.399642e-01
19 1 3 1.384456e+01 1.155942e+01 1.275090e+01 -1 -1 0 -8.630692e-02 -8.678071e-01 1.028716e-01 -4.784135e-01
20 1 1 1.427383e+01 1.172773e+01 1.255024e+01 -1 -1 0 4.610796e-02 -7.950007e-01 4.060556e-01 -4.482932e-01
21 1 4 1.481821e+01 1.185135e+01 1.254371e+01 -1 -1 0 -3.415302e-01 5.958678e-01 -5.056744e-01 5.221035e-01
22 1 1 1.540401e+01 1.180731e+01 1.269955e+01 -1 -1 0 -3.743810e-01 4.809286e-01 -7.137412e-01 3.451377e-01
23 1 4 1.581796e+01 1.155827e+01 1.273491e+01 -1 -1 0 -4.805435e-01 2.339169e-01 -8.117814e-01 2.353121e-01
24 1 3 1.626882e+01 1.112478e+01 1.262499e+01 -1 -1 0 -4.945012e-01 -5.708862e-02 -8.598363e-01 1.135383e-01
25 1 3 1.651965e+01 1.074759e+01 1.236755e+01 -1 -1 0 -4.459625e-01 -3.468391e-01 -8.242028e-01 3.885556e-02
26 1 4 1.669544e+01 1.047478e+01 1.194959e+01 -1 -1 0 -4.056571e-01 -5.495563e-01 -7.120501e-01 -1.625266e-01
27 1 4 1.680725e+01 1.041747e+01 1.138296e+01 -1 -1 0 -2.569462e-01 -7.602529e-01 -5.064320e-01 -3.154691e-01
28 1 1 1.697761e+01 1.049647e+01 1.090701e+01 -1 -1 0 -1.082438e-01 -8.810712e-01 -3.029288e-01 -3.467434e-01
29 1 1 1.722145e+01 1.071363e+01 1.046806e+01 -1 -1 0 5.913828e-02 -8.939235e-01 -1.308924e-01 -4.245829e-01
30 1 4 1.755685e+01 1.104840e+01 1.030964e+01 -1 -1 0 -1.976964e-01 8.664046e-01 -1.897862e-01 4.174211e-01
31 1 4 1.804349e+01 1.131364e+01 1.024185e+01 -1 -1 0 -3.120239e-01 7.658217e-01 -3.775010e-01 4.167149e-01
32 1 3 1.851694e+01 1.143400e+01 1.031112e+01 -1 -1 0 -4.689684e-01 5.845020e-01 -5.789992e-01 3.212257e-01
33 1 3 1.899912e+01 1.150774e+01 1.029981e+01 -1 -1 0 -5.212092e-01 4.051919e-01 -6.767678e-01 3.258005e-01
34 1 1 1.946833e+01 1.127676e+01 1.034310e+01 -1 -1 0 -5.532126e-01 1.688627e-01 -8.024100e-01 1.468995e-01
35 1 2 1.992719e+01 1.101846e+01 1.024033e+01 -1 -1 0 -4.943879e-01 -1.095528e-01 -8.613991e-01 3.962824e-02
36 1 2 -1.987173e+01 1.065841e+01 9.902992e+00 0 -1 0 -4.845949e-01 -3.843609e-01 -7.790982e-01 -1.021792e-01
37 1 1 -1.969000e+01 1.046150e+01 9.427881e+00 0 -1 0 -3.970442e-01 -6.435829e-01 -5.893216e-01 -2.843536e-01
38 1 1 -1.942504e+01 1.045837e+01 8.966545e+00 0 -1 0 -2.958120e-01 -7.700324e-01 -3.780278e-01 -4.202862e-01
39 1 4 -1.906278e+01 1.062071e+01 8.548824e+00 0 -1 0 5.498106e-02 8.027752e-01 3.249567e-01 4.969227e-01
40 1 4 -1.869419e+01 1.092291e+01 8.220103e+00 0 -1 0 -1.297645e-01 7.963027e-01 1.690164e-01 5.661242e-01
41 1 2 -1.836204e+01 1.134033e+01 8.254524e+00 0 -1 0 -3.454802e-01 7.722442e-01 -1.638221e-01 5.073901e-01
42 1 4 -1.795026e+01 1.154527e+01 8.425263e+00 0 -1 0 -5.530464e-01 6.224650e-01 -3.873011e-01 3.958218e-01
43 1 3 -1.748523e+01 1.171924e+01 8.633103e+00 0 -1 0 -6.146417e-01 4.741037e-01 -5.277580e-01 3.448373e-01
44 1 2 -1.702502e+01 1.163524e+01 8.854206e+00 0 -1 0 -6.544726e-01 2.900933e-01 -6.579861e-01 2.335933e-01
45 1 1 -1.657954e+01 1.130783e+01 8.953935e+00 0 -1 0 -6.892893e-01 -4.139469e-02 -7.230330e-01 -1.974821e-02
46 1 3 -1.603465e+01 1.104256e+01 8.787506e+00 0 -1 0 -5.941097e-01 -1.552451e-01 -7.834881e-01 -9.528433e-02
47 1 4 -1.565714e+01 1.078549e+01 8.439536e+00 0 -1 0 -5.108192e-01 -4.167903e-01 -6.930459e-01 -2.916111e-01
48 1 1 -1.538279e+01 1.069790e+01 8.051057e+00 0 -1 0 3.819577e-01 6.395173e-01 4.916224e-01 4.510359e-01
49 1 4 -1.506724e+01 1.085631e+01 7.639462e+00 0 -1 0 2.255834e-01 7.609216e-01 2.989985e-01 5.298211e-01
50 1 4 -1.462333e+01 1.109380e+01 7.435861e+00 0 -1 0 1.329905e-02 7.326116e-01 2.298310e-01 6.405319e-01
51 1 4 -1.429873e+01 1.146180e+01 7.354264e+00 0 -1 0 -2.082352e-01 7.371833e-01 1.981240e-02 6.425001e-01
52 1 1 -1.399017e+01 1.188056e+01 7.434726e+00 0 -1 0 -3.608242e-01 6.922910e-01 -1.878837e-01 5.960191e-01
53 1 3 -1.365662e+01 1.219265e+01 7.620153e+00 0 -1 0 -5.675923e-01 5.853709e-01 -2.956240e-01 4.977814e-01
54 1 4 -1.324282e+01 1.226104e+01 7.967656e+00 0 -1 0 -6.841389e-01 4.250958e-01 -5.368055e-01 2.511720e-01
55 1 4 -1.263302e+01 1.223174e+01 7.915432e+00 0 -1 0 -5.752488e-01 3.140835e-01 -7.109352e-01 2.549735e-01
56 1 4 -1.221746e+01 1.192000e+01 8.064696e+00 0 -1 0 -6.547307e-01 3.786216e-02 -7.443903e-01 1.256074e-01
57 1 1 -1.187334e+01 1.164480e+01 8.018993e+00 0 -1 0 -6.814881e-01 -2.317390e-01 -6.889795e-01 -8.472458e-02
58 1 1 -1.146950e+01 1.146299e+01 7.828879e+00 0 -1 0 -5.750474e-01 -4.525616e-01 -6.337526e-01 -2.507310e-01
59 1 3 -1.082738e+01 1.157061e+01 7.634548e+00 0 -1 0 4.044711e-01 4.268944e-01 6.818947e-01 4.349527e-01
60 1 4 -1.052468e+01 1.179595e+01 7.216125e+00 0 -1 0 9.611999e-02 6.251347e-01 4.692180e-01 6.162808e-01
61 1 2 -1.023845e+01 1.219220e+01 7.023398e+00 0 -1 0 -8.398981e-02 6.195559e-01 3.755434e-01 6.841515e-01
62 1 3 -9.934244e+00 1.272148e+01 6.985554e+00 0 -1 0 -2.836645e-01 6.101426e-01 2.132581e-01 7.083654e-01
63 1 2 -9.818626e+00 1.319886e+01 7.141124e+00 0 -1 0 -5.417166e-01 5.824280e-01 6.946338e-02 6.020761e-01
64 1 4 -9.545576e+00 1.357620e+01 7.483946e+00 0 -1 0 -7.405992e-01 4.719156e-01 -1.602434e-01 4.507001e-01
65 1 2 -9.366042e+00 1.377116e+01 7.922821e+00 0 -1 0 -8.447900e-01 3.415601e-01 -3.176436e-01 2.622387e-01
66 1 1 -8.865208e+00 1.371068e+01 8.338618e+00 0 -1 0 -8.334425e-01 2.558245e-01 -4.892121e-01 2.447284e-02
67 1 2 -8.387533e+00 1.362458e+01 8.569848e+00 0 -1 0 -7.542189e-01 1.503625e-01 -5.872397e-01 -2.523779e-01
68 1 1 -7.876445e+00 1.354120e+01 8.555286e+00 0 -1 0 -6.647380e-01 -8.119538e-02 -5.688501e-01 -4.774309e-01
69 1 1 -7.379284e+00 1.364535e+01 8.424715e+00 0 -1 0 -4.449710e-01 -2.796667e-01 -6.025919e-01 -6.005584e-01
70 1 2 -6.970401e+00 1.394161e+01 8.246641e+00 0 -1 0 2.944355e-01 3.484857e-01 5.510660e-01 6.987072e-01
71 1 3 -6.677746e+00 1.431532e+01 8.039384e+00 0 -1 0 5.232245e-02 4.683322e-01 5.103221e-01 7.193738e-01
72 1 4 -6.391705e+00 1.472740e+01 7.881811e+00 0 -1 0 -1.329567e-01 4.923634e-01 4.561433e-01 7.292695e-01
73 1 1 -6.467072e+00 1.526821e+01 7.845890e+00 0 -1 0 -3.374196e-01 7.011477e-01 1.729406e-01 6.038472e-01
74 1 1 -6.289092e+00 1.575201e+01 8.021735e+00 0 -1 0 -5.287902e-01 6.170914e-01 1.073948e-01 5.727526e-01
75 1 3 -6.189149e+00 1.615348e+01 8.363873e+00 0 -1 0 -6.859844e-01 6.027359e-01 -2.049908e-01 3.522976e-01
76 1 1 -5.864530e+00 1.636111e+01 8.698338e+00 0 -1 0 -7.991349e-01 4.385271e-01 -3.271690e-01 2.490740e-01
77 1 4 -5.536925e+00 1.631129e+01 9.116511e+00 0 -1 0 -8.375341e-01 3.175474e-01 -4.442811e-01 1.773817e-02
78 1 1 -5.068987e+00 1.631990e+01 9.354090e+00 0 -1 0 -7.990593e-01 1.458260e-01 -5.656444e-01 -1.424272e-01
79 1 4 -4.536468e+00 1.619269e+01 9.449916e+00 0 -1 0 -6.756883e-01 -1.557868e-02 -5.753860e-01 -4.605797e-01
80 1 2 -4.045645e+00 1.634388e+01 9.401777e+00 0 -1 0 5.007289e-01 1.560528e-01 5.750519e-01 6.278801e-01
81 1 4 -3.624203e+00 1.661695e+01 9.278757e+00 0 -1 0 2.219446e-01 3.125429e-01 5.400686e-01 7.492553e-01
82 1 4 -3.324532e+00 1.708165e+01 9.162034e+00 0 -1 0 -2.396712e-02 3.847174e-01 4.712948e-01 7.932839e-01
83 1 4 -3.240689e+00 1.763427e+01 9.129137e+00 0 -1 0 -3.099327e-01 4.551074e-01 3.866589e-01 7.398067e-01
84 1 4 -3.264763e+00 1.818957e+01 9.337204e+00 0 -1 0 -5.635647e-01 4.181529e-01 2.385614e-01 6.712908e-01
85 1 1 -3.377115e+00 1.854461e+01 9.817626e+00 0 -1 0 -7.693607e-01 4.669769e-01 -3.289129e-02 4.346663e-01
86 1 1 -3.303686e+00 1.865452e+01 1.036278e+01 0 -1 0 -8.495679e-01 4.584187e-01 -1.956302e-01 1.726718e-01
87 1 3 -3.079978e+00 1.873525e+01 1.082270e+01 0 -1 0 -8.912765e-01 3.137112e-01 -3.265035e-01 -2.463386e-02
88 1 2 -2.673511e+00 1.884386e+01 1.120939e+01 0 -1 0 -8.759179e-01 1.523849e-01 -4.472875e-01 -9.736795e-02
89 1 2 -2.159089e+00 1.876640e+01 1.136645e+01 0 -1 0 7.567000e-01 -1.264474e-02 5.182089e-01 3.983777e-01
90 1 3 -1.676824e+00 1.881847e+01 1.140971e+01 0 -1 0 6.098470e-01 8.732909e-02 4.925648e-01 6.146871e-01
91 1 3 -1.218665e+00 1.901268e+01 1.131570e+01 0 -1 0 4.197900e-01 2.731209e-01 5.240806e-01 6.888548e-01
92 1 2 -8.384643e-01 1.924749e+01 1.109170e+01 0 -1 0 1.893051e-01 3.980684e-01 4.549263e-01 7.737876e-01
93 1 1 -6.281914e-01 1.969862e+01 1.100066e+01 0 -1 0 -9.497111e-02 5.116969e-01 3.385379e-01 7.839252e-01
94 1 2 -4.726476e-01 -1.978636e+01 1.106567e+01 0 0 0 -3.773926e-01 5.365827e-01 2.050053e-01 7.263792e-01
95 1 3 -3.280615e-01 -1.942635e+01 1.138417e+01 0 0 0 -5.876378e-01 5.155176e-01 -8.176667e-03 6.235837e-01
96 1 2 -4.690181e-02 -1.914027e+01 1.182737e+01 0 0 0 -6.985599e-01 4.919292e-01 -2.391354e-01 4.613394e-01
97 1 2 1.364765e-01 -1.905490e+01 1.235235e+01 0 0 0 -8.103736e-01 3.884751e-01 -3.383632e-01 2.790915e-01
98 1 4 4.874382e-01 -1.912945e+01 1.275437e+01 0 0 0 8.837794e-01 -1.438461e-01 4.312964e-01 -1.105697e-01
99 1 2 8.471739e-01 -1.930401e+01 1.301161e+01 0 0 0 8.671458e-01 1.340400e-01 4.586279e-01 1.405414e-01
100 1 1 1.308663e+00 -1.965007e+01 1.311504e+01 0 0 0 -7.723050e-01 -2.424182e-01 -4.540094e-01 -3.723626e-01
101 2 4 1.772596e+00 -1.873202e+01 1.259066e+01 0 0 0 -2.934826e-01 -4.774477e-01 8.168058e-01 1.368937e-01
102 2 3 1.475878e+00 -1.902006e+01 1.205212e+01 0 0 0 -4.304530e-01 -2.122612e-01 8.772823e-01 -5.586024e-03
103 2 1 1.201522e+00 -1.942995e+01 1.184377e+01 0 0 0 -4.735548e-01 -2.517663e-02 8.567090e-01 -2.028836e-01
104 2 3 8.851275e-01 -1.982218e+01 1.182284e+01 0 0 0 -3.830321e-01 2.045568e-01 7.989093e-01 -4.161573e-01
105 2 3 5.453940e-01 1.984236e+01 1.191585e+01 0 -1 0 -2.832480e-01 4.304886e-01 6.643323e-01 -5.413988e-01
106 2 2 1.397058e-03 1.960451e+01 1.197738e+01 0 -1 0 -2.644553e-01 5.395473e-01 4.819509e-01 -6.377110e-01
107 2 3 -5.462295e-01 1.965543e+01 1.211626e+01 0 -1 0 -1.171568e-01 7.362486e-01 2.559414e-01 -6.153912e-01
108 2 4 -1.073322e+00 1.993005e+01 1.203948e+01 0 -1 0 8.376249e-02 8.208255e-01 -5.702632e-02 -5.621186e-01
109 2 3 -1.472643e+00 -1.996505e+01 1.171867e+01 0 0 0 2.639020e-01 8.154746e-01 -3.344134e-01 -3.918222e-01
110 2 2 -1.740167e+00 -1.991681e+01 1.124407e+01 0 0 0 -3.615936e-01 -7.155147e-01 5.545103e-01 2.231750e-01
111 2 2 -1.982506e+00 1.990174e+01 1.081658e+01 0 -1 0 -4.276429e-01 -6.587626e-01 6.173475e-01 4.511698e-02
112 2 3 -2.131307e+00 1.948990e+01 1.042713e+01 0 -1 0 -4.999840e-01 -5.202104e-01 6.874370e-01 -8.262863e-02
113 2 3 -2.126349e+00 1.905525e+01 1.019156e+01 0 -1 0 -4.561031e-01 -3.612912e-01 7.593107e-01 -2.913518e-01
114 2 2 -2.074757e+00 1.850931e+01 1.018406e+01 0 -1 0 -2.913642e-01 -1.438448e-02 8.381579e-01 -4.608593e-01
115 2 4 -2.242147e+00 1.800886e+01 1.018466e+01 0 -1 0 -2.211874e-01 2.059428e-01 7.873532e-01 -5.373441e-01
116 2 4 -2.731756e+00 1.773771e+01 1.035821e+01 0 -1 0 1.972225e-02 5.050802e-01 6.336950e-01 -5.856072e-01
117 2 1 -3.233554e+00 1.752131e+01 1.035460e+01 0 -1 0 1.172929e-01 7.220662e-01 4.248654e-01 -5.332468e-01
118 2 1 -3.741998e+00 1.754797e+01 1.020099e+01 0 -1 0 8.914216e-02 8.272250e-01 1.579215e-01 -5.318019e-01
119 2 1 -4.176222e+00 1.749393e+01 9.856344e+00 0 -1 0 3.126633e-01 8.713139e-01 -2.592218e-02 -3.773351e-01
120 2 1 -4.515797e+00 1.746430e+01 9.476921e+00 0 -1 0 4.355799e-01 8.399211e-01 -2.505025e-01 -2.050637e-01
121 2 3 -4.609459e+00 1.729142e+01 9.005222e+00 0 -1 0 -4.530590e-01 -7.281554e-01 5.119046e-01 4.980965e-02
122 2 1 -4.616725e+00 1.698992e+01 8.550413e+00 0 -1 0 -4.609089e-01 -5.208958e-01 7.079422e-01 -1.226721e-01
123 2 4 -4.655720e+00 1.650005e+01 8.249738e+00 0 -1 0 -4.721397e-01 -3.423528e-01 7.673210e-01 -2.666407e-01
124 2 1 -4.809334e+00 1.596209e+01 8.202634e+00 0 -1 0 -4.614376e-01 -2.476427e-02 8.144470e-01 -3.509105e-01
125 2 4 -5.125004e+00 1.550934e+01 8.342147e+00 0 -1 0 -4.032196e-01 2.188497e-01 7.117405e-01 -5.319250e-01
126 2 2 -5.409534e+00 1.526905e+01 8.672285e+00 0 -1 0 -1.699244e-01 3.980668e-01 5.817104e-01 -6.886810e-01
127 2 4 -5.847668e+00 1.518955e+01 8.954655e+00 0 -1 0 5.158635e-02 5.553479e-01 4.443900e-01 -7.010314e-01
128 2 4 -6.342858e+00 1.504073e+01 9.043525e+00 0 -1 0 1.481760e-01 6.844273e-01 2.750765e-01 -6.587382e-01
129 2 1 -6.871562e+00 1.498806e+01 8.953278e+00 0 -1 0 2.858291e-01 7.607184e-01 1.270672e-01 -5.687382e-01
130 2 2 -7.349461e+00 1.497990e+01 8.829542e+00 0 -1 0 3.542986e-01 7.894085e-01 -8.023998e-02 -4.948417e-01
131 2 3 -7.688120e+00 1.490950e+01 8.451324e+00 0 -1 0 4.525008e-01 7.556708e-01 -3.410527e-01 -3.284625e-01
132 2 4 -7.871118e+00 1.467611e+01 8.033628e+00 0 -1 0 -4.925513e-01 -6.789319e-01 5.380246e-01 8.351227e-02
133 2 4 -7.924030e+00 1.430256e+01 7.673808e+00 0 -1 0 -5.264499e-01 -4.323919e-01 7.214756e-01 -1.239384e-01
134 2 3 -8.099982e+00 1.385023e+01 7.424192e+00 0 -1 0 -5.503518e-01 -2.935909e-01 7.437166e-01 -2.404223e-01
135 2 4 -8.193859e+00 1.334055e+01 7.387490e+00 0 -1 0 4.501975e-01 3.709285e-03 -7.769894e-01 4.399953e-01
136 2 3 -8.489569e+00 1.290030e+01 7.581392e+00 0 -1 0 2.868193e-01 -2.463029e-01 -7.265219e-01 5.737905e-01
137 2 1 -8.974640e+00 1.257146e+01 7.747599e+00 0 -1 0 -2.635414e-01 4.304408e-01 6.285173e-01 -5.918045e-01
138 2 3 -9.404424e+00 1.242056e+01 7.958178e+00 0 -1 0 -1.531914e-01 5.312181e-01 4.518946e-01 -7.000935e-01
139 2 2 -9.862801e+00 1.245235e+01 8.178150e+00 0 -1 0 3.544725e-02 6.228037e-01 2.810760e-01 -7.292841e-01
140 2 3 -1.040582e+01 1.253453e+01 8.145176e+00 0 -1 0 2.348209e-01 7.189871e-01 4.543657e-02 -6.525735e-01
141 2 1 -1.084814e+01 1.267319e+01 7.945421e+00 0 -1 0 3.717493e-01 7.397573e-01 -2.286980e-01 -5.121120e-01
142 2 2 -1.120685e+01 1.272100e+01 7.557974e+00 0 -1 0 4.897987e-01 6.595037e-01 -4.508804e-01 -3.490829e-01
143 2 4 -1.147359e+01 1.249763e+01 7.191915e+00 0 -1 0 -5.321116e-01 -4.829472e-01 6.707747e-01 1.835226e-01
144 2 4 -1.188927e+01 1.214710e+01 6.934081e+00 0 -1 0 6.833027e-01 2.126207e-01 -6.975919e-01 -3.543070e-02
145 2 1 -1.223889e+01 1.165993e+01 6.827046e+00 0 -1 0 6.739590e-01 1.948362e-02 -7.192743e-01 1.674638e-01
146 2 1 -1.279058e+01 1.141421e+01 7.043177e+00 0 -1 0 7.466969e-01 -1.178298e-01 -5.761698e-01 3.107864e-01
147 2 1 -1.298117e+01 1.120864e+01 7.455883e+00 0 -1 0 6.055185e-01 -1.954324e-01 -4.888268e-01 5.968265e-01
148 2 2 -1.319827e+01 1.105035e+01 7.877294e+00 0 -1 0 4.397037e-01 -3.005052e-01 -3.716879e-01 7.603982e-01
149 2 4 -1.358803e+01 1.112073e+01 8.294306e+00 0 -1 0 -1.502876e-01 5.143915e-01 2.701897e-01 -7.998829e-01
150 2 1 -1.404864e+01 1.119229e+01 8.465972e+00 0 -1 0 -3.844780e-02 6.127120e-01 1.262822e-01 -7.792038e-01
151 2 1 -1.449614e+01 1.142971e+01 8.555434e+00 0 -1 0 -6.813738e-03 6.508721e-01 -8.664985e-02 -7.541955e-01
152 2 1 -1.487563e+01 1.178856e+01 8.416787e+00 0 -1 0 2.890278e-01 6.211491e-01 -3.288351e-01 -6.500032e-01
153 2 4 -1.533446e+01 1.189330e+01 8.207060e+00 0 -1 0 4.987190e-01 4.991342e-01 -4.620855e-01 -5.372349e-01
154 2 1 -1.584274e+01 1.183995e+01 7.865077e+00 0 -1 0 6.724091e-01 3.278938e-01 -5.584563e-01 -3.584386e-01
155 2 2 -1.632273e+01 1.163925e+01 7.716707e+00 0 -1 0 7.524112e-01 2.308451e-01 -6.013612e-01 -1.376688e-01
156 2 4 -1.668712e+01 1.129947e+01 7.798119e+00 0 -1 0 7.456236e-01 1.478164e-01 -6.182280e-01 1.999744e-01
157 2 3 -1.695330e+01 1.083893e+01 7.954737e+00 0 -1 0 6.764577e-01 -1.383752e-01 -6.052584e-01 3.961308e-01
158 2 2 -1.724766e+01 1.054570e+01 8.219842e+00 0 -1 0 6.078516e-01 -2.553880e-01 -5.277903e-01 5.354726e-01
159 2 1 -1.753465e+01 1.047410e+01 8.627853e+00 0 -1 0 4.648850e-01 -3.881324e-01 -3.741481e-01 7.023164e-01
160 2 3 -1.790841e+01 1.051193e+01 9.008092e+00 0 -1 0 -3.119815e-01 4.820004e-01 2.242139e-01 -7.874460e-01
161 2 1 -1.823638e+01 1.084897e+01 9.344218e+00 0 -1 0 -6.173151e-02 5.329698e-01 7.649003e-02 -8.404057e-01
162 2 1 -1.863681e+01 1.117569e+01 9.481260e+00 0 -1 0 1.755422e-01 5.435843e-01 -2.023820e-01 -7.954512e-01
163 2 4 -1.907563e+01 1.147712e+01 9.536290e+00 0 -1 0 3.492535e-01 5.139847e-01 -3.507067e-01 -7.006044e-01
164 2 4 -1.954352e+01 1.162904e+01 9.290663e+00 0 -1 0 5.287617e-01 3.884119e-01 -5.338744e-01 -5.334093e-01
165 2 3 1.990790e+01 1.155997e+01 9.143950e+00 -1 -1 0 7.207265e-01 2.020263e-01 -5.537161e-01 -3.648797e-01
166 2 3 1.943251e+01 1.126685e+01 9.191837e+00 -1 -1 0 8.121123e-01 1.340561e-01 -5.504218e-01 -1.397798e-01
167 2 4 1.903688e+01 1.091971e+01 9.317452e+00 -1 -1 0 8.419161e-01 1.006962e-01 -4.969825e-01 1.845154e-01
168 2 2 1.884670e+01 1.048770e+01 9.634107e+00 -1 -1 0 7.511033e-01 -1.390590e-01 -4.754174e-01 4.364455e-01
169 2 2 1.871900e+01 1.031543e+01 1.009051e+01 -1 -1 0 5.819902e-01 -2.149185e-01 -3.936400e-01 6.783399e-01
170 2 1 1.845895e+01 1.023822e+01 1.058013e+01 -1 -1 0 4.537882e-01 -2.968282e-01 -2.201231e-01 8.108730e-01
171 2 1 1.825384e+01 1.048984e+01 1.108873e+01 -1 -1 0 -2.038642e-01 3.916149e-01 7.475106e-02 -8.941417e-01
172 2 4 1.796005e+01 1.084524e+01 1.137936e+01 -1 -1 0 4.239661e-02 4.444588e-01 -1.258852e-01 -8.858961e-01
173 2 4 1.761818e+01 1.126309e+01 1.159162e+01 -1 -1 0 2.479769e-01 4.333660e-01 -2.986127e-01 -8.133461e-01
174 2 1 1.708640e+01 1.154701e+01 1.156847e+01 -1 -1 0 4.990871e-01 3.774116e-01 -3.433031e-01 -7.004395e-01
175 2 1 1.659889e+01 1.158420e+01 1.150755e+01 -1 -1 0 6.523329e-01 3.121160e-01 -5.075366e-01 -4.684571e-01
176 2 2 1.610943e+01 1.137382e+01 1.149332e+01 -1 -1 0 8.043773e-01 1.601518e-01 -5.543334e-01 -1.415733e-01
177 2 2 1.573074e+01 1.105886e+01 1.161488e+01 -1 -1 0 8.048232e-01 7.922201e-03 -5.830295e-01 1.107857e-01
178 2 1 1.533264e+01 1.084464e+01 1.192285e+01 -1 -1 0 8.208782e-01 -1.760091e-01 -4.822580e-01 2.502140e-01
179 2 4 1.499304e+01 1.072381e+01 1.241376e+01 -1 -1 0 7.845156e-01 -2.856472e-01 -3.350950e-01 4.366376e-01
180 2 1 1.485986e+01 1.074078e+01 1.289938e+01 -1 -1 0 5.385558e-01 -3.895669e-01 -1.948036e-01 7.212813e-01
181 2 4 1.476171e+01 1.097802e+01 1.334272e+01 -1 -1 0 -3.194091e-01 4.115681e-01 6.238362e-02 -8.512919e-01
182 2 2 1.444464e+01 1.133117e+01 1.370847e+01 -1 -1 0 -6.745761e-02 4.715647e-01 -1.268269e-01 -8.700524e-01
183 2 3 1.439257e+01 1.178082e+01 1.385774e+01 -1 -1 0 -1.893701e-02 3.616616e-01 -3.734447e-01 -8.540382e-01
184 2 4 1.414849e+01 1.224522e+01 1.384588e+01 -1 -1 0 2.745230e-01 2.195269e-01 -4.891998e-01 -7.982034e-01
185 2 3 1.367146e+01 1.254937e+01 1.384200e+01 -1 -1 0 5.274730e-01 1.212418e-01 -4.969253e-01 -6.783346e-01
186 2 1 1.313877e+01 1.261169e+01 1.374866e+01 -1 -1 0 7.335372e-01 3.930751e-02 -5.250983e-01 -4.297090e-01
187 2 1 1.262482e+01 1.255118e+01 1.400388e+01 -1 -1 0 8.697704e-01 -2.379503e-01 -4.017250e-01 -1.596754e-01
188 2 2 1.228644e+01 1.240546e+01 1.440946e+01 -1 -1 0 9.035016e-01 -2.468162e-01 -3.315194e-01 1.134083e-01
189 2 4 1.212002e+01 1.239155e+01 1.484621e+01 -1 -1 0 8.772142e-01 -2.134097e-01 -1.448736e-01 4.049237e-01
190 2 4 1.216257e+01 1.234198e+01 1.537001e+01 -1 -1 0 -7.781225e-01 2.376101e-01 5.106540e-02 -5.791884e-01
191 2 1 1.217603e+01 1.252251e+01 1.586397e+01 -1 -1 0 -6.088868e-01 2.455582e-01 -4.632372e-02 -7.528693e-01
192 2 4 1.234160e+01 1.282331e+01 1.623030e+01 -1 -1 0 -4.592477e-01 1.845004e-01 -1.709019e-01 -8.519646e-01
193 2 4 1.244623e+01 1.330972e+01 1.646249e+01 -1 -1 0 -1.554193e-01 1.556597e-01 -3.148306e-01 -9.233074e-01
194 2 1 1.241169e+01 1.383692e+01 1.652239e+01 -1 -1 0 1.272452e-01 -3.420352e-02 -3.562483e-01 -9.250545e-01
195 2 3 1.221821e+01 1.425872e+01 1.677058e+01 -1 -1 0 4.458030e-01 -2.439407e-02 -2.504000e-01 -8.590485e-01
196 2 4 1.183739e+01 1.451896e+01 1.694757e+01 -1 -1 0 6.758798e-01 3.196828e-02 -3.696998e-01 -6.367783e-01
197 2 2 1.139354e+01 1.462659e+01 1.714139e+01 -1 -1 0 8.665920e-01 -1.426994e-01 -3.237466e-01 -3.519136e-01
198 2 4 1.096071e+01 1.459129e+01 1.756355e+01 -1 -1 0 9.491883e-01 -1.285474e-01 -2.690996e-01 -1.005119e-01
199 2 3 1.077082e+01 1.439820e+01 1.799618e+01 -1 -1 0 -9.448460e-01 1.251444e-01 2.081517e-01 -2.197219e-01
200 2 4 1.074577e+01 1.437478e+01 1.850888e+01 -1 -1 0 7.741509e-01 -3.098161e-01 -1.090336e-01 5.411248e-01
