ITEM: TIMESTEP
133000000
ITEM: NUMBER OF ATOMS
200
ITEM: BOX BOUNDS pp pp pp
-2.0000000000000000e+01 2.0000000000000000e+01
-2.0000000000000000e+01 2.0000000000000000e+01
-2.0000000000000000e+01 2.0000000000000000e+01
ITEM: ATOMS id mol type x y z ix iy iz c_quat[1] c_quat[2] c_quat[3] c_quat[4]
1 1 1 -4.068448e+00 5.742348e+00 -1.799323e+00 0 -1 0 7.601647e-01 4.732506e-01 -3.433356e-01 -2.833797e-01
2 1 2 -4.355928e+00 5.064939e+00 -2.024780e+00 0 -1 0 -6.687891e-01 8.854914e-02 -4.528673e-01 5.829163e-01
3 1 1 -4.476633e+00 4.737633e+00 -1.640253e+00 0 -1 0 -8.802117e-01 -3.397090e-02 -3.750561e-01 2.888013e-01
4 1 3 -5.137439e+00 5.820657e+00 -1.580245e+00 0 -1 0 4.800084e-01 2.613417e-01 6.393865e-01 5.408118e-01
5 1 1 -5.074129e+00 5.842840e+00 -3.692410e-01 0 -1 0 9.193661e-01 -3.837681e-01 -1.067381e-02 -8.587229e-02
6 1 2 -5.486258e+00 5.883840e+00 -4.459167e-01 0 -1 0 -8.398911e-01 -1.389687e-01 -1.157216e-01 -5.117413e-01
7 1 4 -5.719692e+00 5.772765e+00 8.530762e-01 0 -1 0 -2.026878e-01 -5.144378e-01 6.724445e-01 -4.920263e-01
8 1 1 -5.437469e+00 5.364734e+00 9.520834e-01 0 -1 0 6.421593e-02 -1.742473e-01 8.554448e-01 -4.834546e-01
9 1 1 -5.398526e+00 4.756703e+00 5.872529e-01 0 -1 0 -3.434589e-03 3.561701e-02 -9.154318e-01 4.008794e-01
10 1 4 -5.489619e+00 4.291141e+00 4.968620e-01 0 -1 0 1.966766e-01 3.785465e-01 8.502713e-01 -3.083175e-01
11 1 1 -4.393883e+00 4.262814e+00 5.808861e-01 0 -1 0 2.115342e-01 9.285862e-01 2.737700e-01 -1.342793e-01
12 1 1 -3.957725e+00 3.832926e+00 1.729271e+00 0 -1 0 -7.985214e-01 3.642154e-01 4.323295e-01 2.068865e-01
13 1 3 -4.328580e+00 3.864423e+00 2.048696e+00 0 -1 0 8.418096e-01 -4.215455e-01 -3.225197e-01 9.816842e-02
14 1 4 -4.250589e+00 3.776270e+00 2.249692e+00 0 -1 0 -3.698678e-01 2.216714e-01 3.624334e-01 -8.262576e-01
15 1 4 -4.158288e+00 2.931284e+00 3.204674e+00 0 -1 0 -5.931418e-01 5.781440e-01 -1.520487e-01 5.392713e-01
16 1 2 -3.981452e+00 3.115692e+00 3.677891e+00 0 -1 0 -7.130898e-01 5.088773e-01 -3.727111e-01 3.059956e-01
17 1 1 -3.636032e+00 3.180197e+00 4.041808e+00 0 -1 0 7.828771e-01 -3.257105e-01 5.287795e-01 3.752766e-02
18 1 2 -3.229816e+00 3.218754e+00 4.136326e+00 0 -1 0 -6.987093e-01 2.475762e-02 -4.739159e-01 -5.353467e-01
19 1 3 -2.851883e+00 3.540119e+00 4.153271e+00 0 -1 0 3.025030e-01 2.354480e-01 4.496555e-01 8.067628e-01
20 1 1 -2.650227e+00 4.126475e+00 4.642351e+00 0 -1 0 -8.494916e-02 -3.476880e-02 2.937719e-01 -9.514583e-01
21 1 4 -2.629872e+00 3.927196e+00 5.121049e+00 0 -1 0 1.239901e-01 -7.358706e-02 -3.010329e-01 9.426508e-01
22 1 1 -2.153152e+00 2.837333e+00 5.574972e+00 0 -1 0 7.878785e-01 1.220940e-01 -2.511600e-01 -5.488709e-01
23 1 4 -2.020662e+00 3.783336e+00 6.305901e+00 0 -1 0 -7.641642e-01 5.454842e-01 2.988466e-02 3.429388e-01
24 1 3 -1.801150e+00 3.852924e+00 6.775558e+00 0 -1 0 8.504485e-01 -4.702545e-01 2.264550e-01 -6.569736e-02
25 1 3 -1.997478e+00 3.428664e+00 7.161627e+00 0 -1 0 -6.486971e-01 -2.839492e-01 5.395442e-01 4.554745e-01
26 1 4 -1.802459e+00 4.304248e+00 8.030716e+00 0 -1 0 2.522087e-01 1.394551e-01 3.084259e-02 9.570746e-01
27 1 4 -1.710631e+00 4.732811e+00 8.603083e+00 0 -1 0 4.069756e-01 -2.330957e-01 -6.774823e-01 5.666172e-01
28 1 1 -2.068075e+00 4.534064e+00 8.866604e+00 0 -1 0 -2.044239e-01 4.399288e-01 4.619921e-01 -7.424532e-01
29 1 1 -2.516625e+00 4.676649e+00 9.135215e+00 0 -1 0 2.625562e-01 5.296107e-01 2.069247e-01 -7.795889e-01
30 1 4 -3.026676e+00 4.450235e+00 9.505618e+00 0 -1 0 -2.826375e-01 -6.315611e-01 -1.939022e-01 6.954484e-01
31 1 4 -3.601549e+00 3.404547e+00 9.947168e+00 0 -1 0 8.567932e-01 2.687019e-02 2.252179e-01 -4.630986e-01
32 1 3 -3.671691e+00 3.049171e+00 1.029728e+01 0 -1 0 9.815610e-01 6.505979e-02 1.751400e-01 4.038827e-02
33 1 3 -4.058144e+00 3.209360e+00 1.121041e+01 0 -1 0 4.815163e-01 5.971987e-01 -6.286550e-01 1.276269e-01
34 1 1 -4.471235e+00 4.289336e+00 1.211344e+01 0 -1 0 3.120933e-01 -1.401557e-01 -5.398075e-01 7.691307e-01
35 1 2 -3.650898e+00 4.268211e+00 1.123036e+01 0 -1 0 5.495027e-03 7.455039e-01 -6.287715e-01 -2.209981e-01
36 1 2 -3.798026e+00 5.336907e+00 1.149532e+01 0 -1 0 -3.395609e-01 -8.051865e-01 3.547871e-01 -3.324142e-01
37 1 1 -4.829142e+00 5.500467e+00 1.200418e+01 0 -1 0 2.931934e-02 -7.143824e-01 -5.526685e-01 -4.282005e-01
38 1 1 -5.308844e+00 4.974646e+00 1.262760e+01 0 -1 0 -5.803161e-01 6.977206e-01 4.148149e-01 6.593788e-02
39 1 4 -5.242995e+00 4.120705e+00 1.283468e+01 0 -1 0 5.767182e-01 -5.069405e-01 6.374994e-01 -6.326059e-02
40 1 4 -5.466158e+00 5.188949e+00 1.376228e+01 0 -1 0 5.844997e-01 -5.162477e-01 -6.052404e-01 1.597888e-01
41 1 2 -5.859228e+00 5.194252e+00 1.395026e+01 0 -1 0 -4.414550e-01 6.707471e-01 3.944030e-01 -4.468356e-01
42 1 4 -6.284876e+00 5.510557e+00 1.410000e+01 0 -1 0 -2.754972e-01 7.989606e-01 6.236235e-02 -5.309182e-01
43 1 3 -6.503156e+00 6.027122e+00 1.404459e+01 0 -1 0 -2.264729e-01 7.814684e-01 -2.443780e-01 -5.275381e-01
44 1 2 -6.528247e+00 6.439677e+00 1.380088e+01 0 -1 0 -2.957365e-02 6.622561e-01 -5.025719e-01 -5.549448e-01
45 1 1 -6.797880e+00 6.829578e+00 1.337951e+01 0 -1 0 1.943589e-01 5.470964e-01 -6.308618e-01 -5.147073e-01
46 1 3 -7.046228e+00 6.964747e+00 1.292551e+01 0 -1 0 -2.949319e-01 -3.626458e-01 8.171053e-01 3.374049e-01
47 1 4 -7.323275e+00 6.834738e+00 1.250478e+01 0 -1 0 -4.157512e-01 -1.156696e-01 8.901690e-01 1.461872e-01
48 1 1 -7.716863e+00 6.621920e+00 1.221470e+01 0 -1 0 4.861655e-01 -9.696695e-02 -8.684484e-01 -6.158907e-03
49 1 4 -8.102286e+00 6.325818e+00 1.203717e+01 0 -1 0 4.381461e-01 -2.813052e-01 -8.134118e-01 2.593389e-01
50 1 4 -8.603674e+00 6.167716e+00 1.223097e+01 0 -1 0 3.910248e-01 -4.806192e-01 -6.428791e-01 4.503457e-01
51 1 4 -9.087257e+00 6.232270e+00 1.241792e+01 0 -1 0 4.037723e-01 -5.555594e-01 -4.332529e-01 5.836211e-01
52 1 1 -9.444635e+00 6.418096e+00 1.267339e+01 0 -1 0 1.349518e-01 -6.088001e-01 -2.091506e-01 7.532639e-01
53 1 3 -1.002353e+01 6.437178e+00 1.270780e+01 0 -1 0 -8.321443e-02 7.302194e-01 1.997372e-01 -6.480432e-01
54 1 4 -1.051163e+01 6.747548e+00 1.264092e+01 0 -1 0 -1.964364e-01 -8.126297e-01 9.047657e-03 5.486018e-01
55 1 4 -1.096146e+01 6.934082e+00 1.241517e+01 0 -1 0 -3.307040e-01 -7.524004e-01 2.861938e-01 4.925663e-01
56 1 4 -1.128881e+01 6.983747e+00 1.201810e+01 0 -1 0 4.691378e-01 6.342512e-01 -5.110572e-01 -3.412560e-01
57 1 1 -1.159787e+01 6.733741e+00 1.159475e+01 0 -1 0 5.089634e-01 6.020202e-01 -6.147040e-01 -2.582538e-02
58 1 1 -1.177363e+01 6.286405e+00 1.129634e+01 0 -1 0 -5.408943e-01 -3.794093e-01 7.324463e-01 -1.643298e-01
59 1 3 -1.172847e+01 5.773518e+00 1.115921e+01 0 -1 0 4.541205e-01 2.444504e-01 -7.844061e-01 3.445659e-01
60 1 4 -1.180820e+01 5.226302e+00 1.121145e+01 0 -1 0 3.840095e-01 8.277167e-02 -7.344712e-01 5.533874e-01
61 1 2 -1.203121e+01 4.794236e+00 1.142751e+01 0 -1 0 1.503480e-01 -2.659364e-01 -7.509588e-01 5.854350e-01
62 1 3 -1.244082e+01 4.369105e+00 1.156838e+01 0 -1 0 1.703339e-01 -4.519219e-01 -6.141037e-01 6.242032e-01
63 1 2 -1.289428e+01 4.346211e+00 1.180923e+01 0 -1 0 -1.127896e-01 -5.886428e-01 -3.341379e-01 7.274132e-01
64 1 4 -1.334349e+01 4.160061e+00 1.185062e+01 0 -1 0 -2.078905e-02 -6.565248e-01 -1.729146e-01 7.339234e-01
65 1 2 -1.387948e+01 4.286698e+00 1.174020e+01 0 -1 0 -2.520782e-01 -7.379003e-01 9.565569e-02 6.187162e-01
66 1 1 -1.435066e+01 4.354333e+00 1.150784e+01 0 -1 0 -4.465995e-01 -6.954821e-01 2.903524e-01 4.822334e-01
67 1 2 -1.464684e+01 4.372460e+00 1.116426e+01 0 -1 0 -5.089897e-01 -6.161138e-01 5.159368e-01 3.084518e-01
68 1 1 -1.495040e+01 4.103122e+00 1.070788e+01 0 -1 0 -5.743793e-01 -4.601801e-01 6.676324e-01 1.122039e-01
69 1 1 -1.531005e+01 3.738514e+00 1.048817e+01 0 -1 0 -6.871694e-01 -2.528537e-01 6.806674e-01 -2.356140e-02
70 1 2 -1.593107e+01 5.091968e+00 1.065742e+01 0 -1 0 -1.660925e-01 8.144246e-01 3.152718e-01 -4.579623e-01
71 1 3 -1.630167e+01 5.344547e+00 1.043011e+01 0 -1 0 8.334765e-02 8.904230e-01 -6.440155e-02 -4.427782e-01
72 1 4 -1.654651e+01 5.619138e+00 1.013138e+01 0 -1 0 1.437749e-01 7.771004e-01 -4.042753e-01 -4.604403e-01
73 1 1 -1.682038e+01 5.760218e+00 9.646662e+00 0 -1 0 3.637475e-01 5.547470e-01 -6.627509e-01 -3.474258e-01
74 1 1 -1.721400e+01 5.750775e+00 9.279194e+00 0 -1 0 4.917161e-01 3.872877e-01 -7.525689e-01 -2.046057e-01
75 1 3 -1.744589e+01 5.432987e+00 8.977710e+00 0 -1 0 5.544411e-01 7.289855e-02 -8.289090e-01 1.381088e-02
76 1 1 -1.787400e+01 5.022638e+00 8.959174e+00 0 -1 0 5.607944e-01 -1.833724e-01 -7.536329e-01 2.896924e-01
77 1 4 -1.857073e+01 5.404235e+00 7.664556e+00 0 -1 0 -7.958246e-02 -4.791209e-01 -7.293407e-01 -4.818422e-01
78 1 1 -1.804095e+01 4.099670e+00 7.561091e+00 0 -1 0 -2.816423e-01 -6.202437e-01 6.786532e-01 2.746001e-01
79 1 4 -1.814838e+01 3.888893e+00 7.112679e+00 0 -1 0 3.537528e-01 1.434282e-01 -9.114138e-01 -1.536626e-01
80 1 2 -1.832130e+01 4.157088e+00 6.959809e+00 0 -1 0 7.812829e-01 5.587766e-01 -1.965930e-01 1.967660e-01
81 1 4 -1.897839e+01 3.900882e+00 6.686458e+00 0 -1 0 -6.846439e-02 -1.245617e-01 -3.304327e-01 -9.330655e-01
82 1 4 -1.935515e+01 3.324813e+00 6.127458e+00 0 -1 0 9.102651e-02 -3.988514e-01 3.836306e-01 8.279247e-01
83 1 4 1.979682e+01 2.528691e+00 6.678352e+00 -1 -1 0 3.801517e-01 1.176617e-01 4.051789e-01 -8.230860e-01
84 1 4 -1.967603e+01 2.504136e+00 5.755555e+00 0 -1 0 -6.454429e-01 -6.566005e-01 3.562222e-01 1.593268e-01
85 1 1 -1.975235e+01 2.101532e+00 5.446862e+00 0 -1 0 -6.559763e-01 -5.324353e-01 5.275021e-01 -8.915845e-02
86 1 1 -1.991033e+01 1.569243e+00 5.395139e+00 0 -1 0 -6.383174e-01 -3.610195e-01 5.485773e-01 -4.015952e-01
87 1 3 -1.996775e+01 1.058850e+00 5.616647e+00 0 -1 0 -6.136265e-01 -1.560352e-01 5.190670e-01 -5.741820e-01
88 1 2 -1.981394e+01 7.018170e-01 5.958969e+00 0 -1 0 -3.659542e-01 -8.127432e-02 5.202774e-01 -7.673222e-01
89 1 2 -1.966376e+01 5.730238e-01 6.271376e+00 0 -1 0 -1.413424e-01 1.169548e-02 -4.895162e-01 8.603833e-01
90 1 3 -1.981481e+01 2.411866e-01 6.679189e+00 0 -1 0 4.855497e-01 2.405632e-01 5.625091e-01 -6.244633e-01
91 1 3 -1.989417e+01 -1.932884e-01 6.900526e+00 0 -1 0 -7.310814e-01 -4.181411e-01 -3.939239e-01 3.681059e-01
92 1 2 1.942323e+01 -6.923737e-01 7.395693e+00 -1 -1 0 -6.307688e-01 -9.038242e-02 4.604980e-01 6.179833e-01
93 1 1 1.946890e+01 -1.053017e+00 8.393150e+00 -1 -1 0 7.271202e-01 -3.742932e-01 -1.324393e-02 -5.753481e-01
94 1 2 1.952754e+01 -1.042717e+00 8.812752e+00 -1 -1 0 -9.162311e-01 3.349425e-01 -2.084858e-01 6.976891e-02
95 1 3 1.847218e+01 -1.447928e-01 9.472498e+00 -1 -1 0 3.590421e-01 -8.103325e-01 -3.713933e-01 -2.766171e-01
96 1 2 1.848565e+01 3.639566e-01 9.381047e+00 -1 -1 0 -3.440810e-01 9.214538e-01 -1.057473e-01 1.461119e-01
97 1 2 1.876361e+01 7.475713e-01 9.120082e+00 -1 -1 0 -3.712769e-01 8.399659e-01 -3.531963e-01 1.785026e-01
98 1 4 1.736485e+01 1.169617e+00 8.663352e+00 -1 -1 0 3.615379e-01 -4.422282e-01 -7.978453e-01 -1.927887e-01
99 1 2 1.741277e+01 1.271648e+00 9.261098e+00 -1 -1 0 -7.103973e-01 1.208762e-01 6.815082e-02 6.899855e-01
100 1 1 1.762037e+01 2.252129e+00 8.376966e+00 -1 -1 0 -5.312016e-01 -7.032271e-01 -6.141771e-02 -4.685343e-01
101 2 4 -1.464310e+01 9.791028e+00 -1.642228e+01 0 -1 1 1.812082e-01 -3.267158e-01 6.072977e-01 -7.011490e-01
102 2 3 -1.508832e+01 9.001937e+00 -1.711864e+01 0 -1 1 2.499989e-01 -2.177846e-01 9.433789e-01 1.033199e-02
103 2 1 -1.487733e+01 8.754424e+00 -1.750401e+01 0 -1 1 -2.205462e-01 -1.727606e-01 -9.546184e-01 -1.010781e-01
104 2 3 -1.484023e+01 8.700866e+00 -1.796233e+01 0 -1 1 1.680064e-01 5.076328e-01 8.264489e-01 1.762523e-01
105 2 3 -1.488213e+01 8.729133e+00 -1.839916e+01 0 -1 1 8.006095e-02 7.969111e-01 5.596286e-01 2.129292e-01
106 2 2 -1.571753e+01 8.376889e+00 -1.895882e+01 0 -1 1 4.331297e-01 5.148162e-01 7.007877e-01 -2.371912e-01
107 2 3 -1.511995e+01 8.160577e+00 -1.875167e+01 0 -1 1 9.094517e-02 3.404209e-01 -8.262202e-02 9.322104e-01
108 2 4 -1.514886e+01 7.191956e+00 -1.879528e+01 0 -1 1 -6.165641e-01 -2.063013e-01 5.156486e-01 -5.580278e-01
109 2 3 -1.548798e+01 6.984152e+00 -1.999437e+01 0 -1 1 4.283914e-01 -1.089004e-01 1.317514e-01 8.872785e-01
110 2 2 -1.620582e+01 7.058066e+00 1.982784e+01 0 -1 0 -3.067629e-03 -2.975609e-01 1.620763e-01 -9.408397e-01
111 2 2 -1.540523e+01 6.296397e+00 1.957976e+01 0 -1 0 -4.750891e-02 -4.493238e-01 7.475606e-01 -4.868307e-01
112 2 3 -1.519551e+01 5.756021e+00 1.943027e+01 0 -1 0 -3.701411e-02 -2.540907e-01 7.787454e-01 -5.723840e-01
113 2 3 -1.505656e+01 5.034017e+00 1.848398e+01 0 -1 0 3.460274e-01 -4.900396e-01 7.922913e-01 -1.113584e-01
114 2 2 -1.540042e+01 5.722894e+00 1.792848e+01 0 -1 0 8.748068e-01 3.508586e-01 -1.773895e-02 -3.336114e-01
115 2 4 -1.598723e+01 6.681815e+00 1.863119e+01 0 -1 0 2.894052e-01 4.555298e-01 -3.422393e-01 7.691616e-01
116 2 4 -1.692694e+01 5.915586e+00 1.836264e+01 0 -1 0 -4.384962e-01 3.169030e-01 7.770783e-01 -3.216254e-01
117 2 1 -1.733815e+01 5.658914e+00 1.842629e+01 0 -1 0 -3.044439e-01 5.385728e-01 5.716242e-01 -5.389797e-01
118 2 1 -1.695084e+01 4.639248e+00 1.749655e+01 0 -1 0 -6.843017e-01 -3.700840e-01 6.176203e-01 1.153870e-01
119 2 1 -1.724313e+01 4.299718e+00 1.735379e+01 0 -1 0 -6.671094e-01 -1.265853e-01 7.098596e-01 -1.871915e-01
120 2 1 -1.754711e+01 3.896037e+00 1.755635e+01 0 -1 0 -4.768350e-01 3.126850e-01 7.006222e-01 -4.289349e-01
121 2 3 -1.706558e+01 2.943636e+00 1.662521e+01 0 -1 0 -5.353970e-01 -3.669061e-01 3.869332e-01 6.549906e-01
122 2 1 -1.645670e+01 3.103365e+00 1.654599e+01 0 -1 0 5.819017e-01 -8.043190e-01 8.937957e-03 -1.199228e-01
123 2 4 -1.717722e+01 2.731697e+00 1.554190e+01 0 -1 0 -1.759982e-01 5.773513e-01 -6.946944e-01 -3.912669e-01
124 2 1 -1.696812e+01 3.012969e+00 1.513960e+01 0 -1 0 3.660123e-02 -3.300103e-01 8.602907e-01 3.868507e-01
125 2 4 -1.614957e+01 3.040269e+00 1.459042e+01 0 -1 0 -6.705453e-01 -6.467407e-01 3.586065e-01 5.913364e-02
126 2 2 -1.616027e+01 2.630835e+00 1.435620e+01 0 -1 0 -6.003946e-01 -4.508352e-01 6.352140e-01 -1.810450e-01
127 2 4 -1.617274e+01 3.386792e+00 1.327499e+01 0 -1 0 2.665076e-01 8.701507e-02 5.112980e-01 8.123893e-01
128 2 4 -1.596901e+01 4.072193e+00 1.283559e+01 0 -1 0 -1.035869e-01 7.130364e-01 5.467858e-02 -6.912736e-01
129 2 1 -1.681113e+01 4.082488e+00 1.280709e+01 0 -1 0 2.588176e-01 1.525113e-01 9.363222e-01 1.818092e-01
130 2 2 -1.671040e+01 4.081610e+00 1.234298e+01 0 -1 0 2.827713e-02 6.330461e-01 7.112399e-01 3.042876e-01
131 2 3 -1.579655e+01 3.236677e+00 1.146607e+01 0 -1 0 -7.928163e-01 1.561752e-01 -5.799841e-01 -1.032962e-01
132 2 4 -1.523708e+01 3.369775e+00 1.163835e+01 0 -1 0 6.880349e-01 1.582736e-02 7.038217e-01 1.760468e-01
133 2 4 -1.478039e+01 3.225603e+00 1.150935e+01 0 -1 0 5.806332e-01 2.880125e-01 7.054593e-01 2.867770e-01
134 2 3 -1.430010e+01 3.205021e+00 1.125322e+01 0 -1 0 4.174790e-01 3.694179e-01 6.195067e-01 5.526782e-01
135 2 4 -1.389162e+01 3.408634e+00 1.097613e+01 0 -1 0 -2.104687e-01 -4.904402e-01 -5.145104e-01 -6.711560e-01
136 2 3 -1.356223e+01 3.791484e+00 1.070551e+01 0 -1 0 3.816268e-02 -5.865472e-01 -4.486026e-01 -6.732471e-01
137 2 1 -1.340882e+01 4.267463e+00 1.067742e+01 0 -1 0 -3.758242e-01 5.717832e-01 3.399186e-01 6.451942e-01
138 2 3 -1.317550e+01 4.854019e+00 1.069403e+01 0 -1 0 -4.750974e-01 5.738696e-01 7.674819e-02 6.626204e-01
139 2 2 -1.314780e+01 5.177701e+00 1.110017e+01 0 -1 0 -7.140498e-01 5.450887e-01 -3.803829e-02 4.376805e-01
140 2 3 -1.301870e+01 5.445005e+00 1.152061e+01 0 -1 0 -8.209946e-01 4.776497e-01 -1.844641e-01 2.525701e-01
141 2 1 -1.263929e+01 5.674517e+00 1.193986e+01 0 -1 0 -8.193336e-01 4.279680e-01 -3.712093e-01 8.797410e-02
142 2 2 -1.220230e+01 5.704279e+00 1.222598e+01 0 -1 0 -7.846486e-01 2.685015e-01 -5.075964e-01 -2.336225e-01
143 2 4 -1.179485e+01 5.897326e+00 1.245579e+01 0 -1 0 6.937558e-01 -1.604897e-01 6.479515e-01 2.703789e-01
144 2 4 -1.135709e+01 5.781140e+00 1.233251e+01 0 -1 0 -6.066415e-01 -2.185628e-01 -6.059182e-01 -4.659180e-01
145 2 1 -1.083358e+01 5.875708e+00 1.199339e+01 0 -1 0 4.181951e-01 3.380047e-01 6.293515e-01 5.610548e-01
146 2 1 -1.054680e+01 6.067963e+00 1.169226e+01 0 -1 0 -1.827681e-01 -5.539681e-01 -4.552042e-01 -6.726844e-01
147 2 1 -1.029489e+01 6.421802e+00 1.153512e+01 0 -1 0 -5.033478e-02 6.888848e-01 2.967327e-01 6.594345e-01
148 2 2 -9.909346e+00 6.785737e+00 1.156338e+01 0 -1 0 1.685393e-01 -6.552704e-01 4.193175e-02 -7.351578e-01
149 2 4 -9.596295e+00 7.084290e+00 1.174862e+01 0 -1 0 -4.039218e-01 6.113892e-01 -2.227790e-01 6.429773e-01
150 2 1 -9.134577e+00 7.328259e+00 1.205497e+01 0 -1 0 -5.343141e-01 4.785394e-01 -2.547806e-01 6.485333e-01
151 2 1 -8.734612e+00 7.351242e+00 1.246315e+01 0 -1 0 -6.525114e-01 2.415735e-01 -4.039157e-01 5.939050e-01
152 2 1 -8.552622e+00 7.115432e+00 1.289895e+01 0 -1 0 -8.007795e-01 6.948350e-02 -4.890196e-01 3.387979e-01
153 2 4 -8.425580e+00 6.759800e+00 1.318991e+01 0 -1 0 -8.715508e-01 -1.837272e-01 -4.333111e-01 1.374224e-01
154 2 1 -8.111266e+00 6.306137e+00 1.323331e+01 0 -1 0 -8.337192e-01 -3.543050e-01 -4.099126e-01 -1.065452e-01
155 2 2 -7.659820e+00 5.986962e+00 1.321940e+01 0 -1 0 -7.338206e-01 -4.440877e-01 -4.195832e-01 -2.970578e-01
156 2 4 -7.190848e+00 5.785971e+00 1.299931e+01 0 -1 0 -5.932571e-01 -6.008275e-01 -2.361736e-01 -4.809099e-01
157 2 3 -6.650778e+00 5.708131e+00 1.287982e+01 0 -1 0 -3.477589e-01 -6.065512e-01 -2.629164e-02 -7.144705e-01
158 2 2 -6.138443e+00 5.764220e+00 1.295757e+01 0 -1 0 -1.561810e-01 -5.352122e-01 5.271703e-02 -8.284783e-01
159 2 1 -5.730311e+00 6.014869e+00 1.316094e+01 0 -1 0 1.355873e-01 -4.926168e-01 2.132648e-01 -8.327442e-01
160 2 3 -5.434631e+00 6.251353e+00 1.360187e+01 0 -1 0 3.972376e-01 -4.493522e-01 4.025797e-01 -6.915305e-01
161 2 1 -4.625779e+00 6.172539e+00 1.378106e+01 0 -1 0 -1.194974e-02 -7.178105e-01 6.936993e-01 5.819523e-02
162 2 1 -4.628765e+00 6.895784e+00 1.425284e+01 0 -1 0 5.538489e-01 -5.683437e-01 2.568871e-01 -5.515848e-01
163 2 4 -3.740957e+00 7.024190e+00 1.442429e+01 0 -1 0 -3.339962e-01 9.295277e-01 -1.561004e-01 -7.580363e-03
164 2 4 -3.497032e+00 7.370307e+00 1.415779e+01 0 -1 0 -2.749129e-01 7.980831e-01 -5.354077e-01 -2.872092e-02
165 2 3 -3.063775e+00 7.550703e+00 1.396786e+01 0 -1 0 -2.834572e-01 4.997155e-01 -7.894065e-01 -2.162726e-01
166 2 3 -2.806506e+00 7.623845e+00 1.350000e+01 0 -1 0 7.608588e-02 -2.083057e-01 9.321633e-01 2.861666e-01
167 2 4 -1.854829e+00 7.491772e+00 1.341734e+01 0 -1 0 8.393244e-02 -5.364257e-01 8.080719e-01 2.285226e-01
168 2 2 -2.045339e+00 7.740375e+00 1.283766e+01 0 -1 0 7.544707e-02 4.499906e-01 -8.806266e-01 -1.277222e-01
169 2 2 -2.039727e+00 7.575802e+00 1.240855e+01 0 -1 0 -1.541580e-01 -1.550911e-01 9.709878e-01 9.677150e-02
170 2 1 -1.421472e+00 8.024881e+00 1.196296e+01 0 -1 0 -1.449497e-01 -6.388025e-01 -4.155988e-01 6.310298e-01
171 2 1 -2.826357e-01 8.040392e+00 1.209273e+01 0 -1 0 4.261870e-01 2.534401e-01 9.845028e-02 8.628095e-01
172 2 4 -1.492637e-01 6.715977e+00 1.129744e+01 0 -1 0 -2.374075e-01 -6.626221e-01 6.827758e-01 1.959256e-01
173 2 4 -1.154585e+00 7.278124e+00 1.114850e+01 0 -1 0 -6.315379e-02 -4.978898e-02 3.034056e-01 -9.494618e-01
174 2 1 -3.197138e-01 6.248290e+00 1.056475e+01 0 -1 0 2.196276e-01 2.949283e-01 -8.826719e-01 -2.926966e-01
175 2 1 -6.432052e-01 6.248660e+00 1.015572e+01 0 -1 0 -3.583205e-01 6.022840e-02 9.280765e-01 8.156527e-02
176 2 2 -1.574610e+00 6.704041e+00 9.672733e+00 0 -1 0 1.155029e-01 -3.174334e-01 -7.601127e-01 -5.550890e-01
177 2 2 -8.908033e-01 6.424141e+00 8.789695e+00 0 -1 0 1.031711e-01 -1.925092e-01 8.393916e-01 4.977124e-01
178 2 1 -2.759495e-01 6.542248e+00 8.437238e+00 0 -1 0 -7.345294e-01 -5.653439e-01 3.188189e-01 -1.980083e-01
179 2 4 -1.439508e-01 6.075328e+00 8.321515e+00 0 -1 0 -6.233908e-01 -2.732495e-01 6.328607e-01 -3.690609e-01
180 2 1 -2.929338e-01 5.714528e+00 8.538666e+00 0 -1 0 4.033543e-01 -5.684007e-02 -6.632709e-01 6.278107e-01
181 2 4 2.148919e-02 4.582066e+00 7.464111e+00 0 -1 0 1.552515e-01 -3.028382e-01 9.313945e-01 1.291910e-01
182 2 2 9.406387e-02 3.831473e+00 7.897885e+00 0 -1 0 5.340077e-01 1.728992e-01 -7.591840e-01 -3.295168e-01
183 2 3 3.305365e-01 4.005404e+00 8.474021e+00 0 -1 0 3.128249e-01 -2.927383e-01 -4.040868e-01 8.081824e-01
184 2 4 4.760775e-01 4.108803e+00 8.476488e+00 0 -1 0 7.522165e-02 -1.368212e-01 -6.829166e-01 -7.136152e-01
185 2 3 1.175816e+00 3.677673e+00 9.221551e+00 0 -1 0 3.957008e-01 -7.286802e-01 -4.588293e-01 -3.192519e-01
186 2 1 1.934816e+00 2.464099e+00 8.787230e+00 0 -1 0 3.251598e-01 -4.344158e-01 7.846315e-01 -2.998458e-01
187 2 1 2.288993e+00 2.189334e+00 8.600004e+00 0 -1 0 3.521675e-01 -6.318143e-03 9.259313e-01 -1.363428e-01
188 2 2 2.470913e+00 1.863831e+00 8.225252e+00 0 -1 0 3.285767e-01 3.347064e-01 8.825307e-01 3.388880e-02
189 2 4 2.467613e+00 1.713377e+00 7.716287e+00 0 -1 0 -2.984198e-01 -6.696792e-01 -6.697890e-01 -1.177202e-01
190 2 4 2.469356e+00 1.083940e+00 8.173640e+00 0 -1 0 1.431753e-01 6.765051e-01 -4.807082e-01 -5.392228e-01
191 2 1 1.855509e+00 4.375615e-01 8.876718e+00 0 -1 0 5.143969e-01 1.494389e-01 -3.837579e-01 -7.521926e-01
192 2 4 1.852221e+00 1.572172e-01 9.430162e+00 0 -1 0 -6.561420e-01 -3.397990e-01 -2.723734e-01 6.163011e-01
193 2 4 1.550882e+00 -1.981692e-01 9.364133e+00 0 -1 0 8.871967e-01 3.427941e-01 -5.682425e-02 -3.035542e-01
194 2 1 1.287402e+00 -6.243946e-01 9.940180e+00 0 -1 0 2.154106e-01 -5.662593e-02 -8.769366e-01 4.258803e-01
195 2 3 7.154745e-01 1.536204e-01 9.160607e+00 0 -1 0 7.157509e-02 -6.199782e-01 -3.817907e-01 6.817183e-01
196 2 4 2.199381e-01 1.813079e-01 9.191311e+00 0 -1 0 2.413986e-01 7.230118e-01 1.330964e-01 -6.334555e-01
197 2 2 -2.033694e-01 1.282298e-01 9.074913e+00 0 -1 0 7.278040e-01 5.188776e-01 -1.656904e-01 -4.166702e-01
198 2 4 -5.410326e-01 -2.348058e-01 8.898579e+00 0 -1 0 -8.081370e-01 -4.471679e-01 3.780803e-01 6.333093e-02
199 2 3 -1.652698e+00 -4.169124e-01 9.074486e+00 0 -1 0 1.806112e-01 5.954552e-02 4.744194e-01 -8.595116e-01
200 2 4 -1.863914e+00 -8.394310e-01 9.414793e+00 0 -1 0 5.267453e-01 1.264329e-01 8.054145e-01 -2.405444e-01
