ITEM: TIMESTEP
153000000
ITEM: NUMBER OF ATOMS
200
ITEM: BOX BOUNDS pp pp pp
-2.0000000000000000e+01 2.0000000000000000e+01
-2.0000000000000000e+01 2.0000000000000000e+01
-2.0000000000000000e+01 2.0000000000000000e+01
ITEM: ATOMS id mol type x y z ix iy iz c_quat[1] c_quat[2] c_quat[3] c_quat[4]
1 1 1 -7.107090e+00 -2.595029e+00 5.471835e+00 0 -1 0 7.660015e-01 -6.085865e-01 -6.348207e-04 2.070356e-01
2 1 2 -7.227185e+00 -2.223227e+00 5.810827e+00 0 -1 0 -5.162016e-01 6.723934e-01 -2.166838e-01 -4.842222e-01
3 1 1 -7.255136e+00 -1.772111e+00 5.765271e+00 0 -1 0 2.516677e-01 -5.448556e-01 4.719146e-01 6.458269e-01
4 1 3 -7.503663e+00 -1.330590e+00 6.426240e+00 0 -1 0 -5.788036e-01 -7.942171e-01 -1.227167e-01 -1.383694e-01
5 1 1 -7.881539e+00 -8.223812e-01 6.234296e+00 0 -1 0 -3.824399e-01 4.381684e-01 3.254326e-01 -7.455480e-01
6 1 2 -7.873810e+00 -1.281928e+00 4.958694e+00 0 -1 0 -4.781518e-01 3.707122e-01 -6.502273e-01 -4.595082e-01
7 1 4 -8.338751e+00 -1.167000e+00 4.847790e+00 0 -1 0 4.796226e-01 6.015530e-01 -6.304995e-01 -1.027938e-01
8 1 1 -8.380971e+00 -1.457272e+00 4.517377e+00 0 -1 0 4.290143e-01 3.866952e-01 -8.020113e-01 1.522875e-01
9 1 1 -9.026833e+00 -1.739572e+00 3.918051e+00 0 -1 0 -7.658927e-01 -1.014311e-01 5.931667e-01 2.264364e-01
10 1 4 -9.461869e+00 -1.933354e+00 4.029768e+00 0 -1 0 -7.751627e-01 1.939426e-01 5.872986e-01 -1.288002e-01
11 1 1 -9.775690e+00 -2.038782e+00 3.644815e+00 0 -1 0 -8.146846e-01 -9.323006e-03 -8.472756e-02 -5.736056e-01
12 1 1 -1.083604e+01 -2.005087e+00 3.702502e+00 0 -1 0 7.388862e-02 3.398302e-01 -7.805467e-01 -5.194254e-01
13 1 3 -1.119424e+01 -1.787415e+00 3.311752e+00 0 -1 0 -4.282819e-01 -3.310931e-03 7.799717e-01 4.562980e-01
14 1 4 -1.175193e+01 -1.792266e+00 3.261438e+00 0 -1 0 7.032878e-01 -1.376613e-01 -6.366896e-01 -2.847140e-01
15 1 4 -1.160461e+01 -1.204265e+00 3.083225e+00 0 -1 0 7.012972e-01 2.490034e-01 4.526738e-01 -4.911883e-01
16 1 2 -1.107207e+01 -3.963352e-01 3.468484e+00 0 -1 0 4.020394e-01 -6.522532e-01 4.332463e-01 -4.745816e-01
17 1 1 -1.131548e+01 5.282955e-01 2.164834e+00 0 -1 0 -2.768702e-01 -6.985719e-01 -8.010107e-02 6.549229e-01
18 1 2 -1.051182e+01 7.680430e-01 2.290091e+00 0 -1 0 -3.185777e-01 6.681582e-01 -5.704417e-01 -3.559062e-01
19 1 3 -1.120201e+01 1.039608e+00 3.761000e+00 0 -1 0 5.842373e-01 -3.890729e-01 -6.979421e-01 1.420065e-01
20 1 1 -1.167087e+01 1.261311e+00 3.879083e+00 0 -1 0 -4.334596e-01 7.236941e-01 4.194241e-01 -3.353551e-01
21 1 4 -1.201892e+01 1.733020e+00 3.917530e+00 0 -1 0 -2.907751e-01 7.871321e-01 7.144476e-02 -5.392295e-01
22 1 1 -1.219948e+01 2.192377e+00 3.857518e+00 0 -1 0 -9.050913e-02 7.238503e-01 -2.269409e-01 -6.452494e-01
23 1 4 -1.124969e+01 2.224783e+00 4.532110e+00 0 -1 0 8.910533e-01 -9.034565e-03 1.689222e-02 4.534944e-01
24 1 3 -1.101469e+01 2.959715e+00 4.499819e+00 0 -1 0 2.399286e-01 -6.239384e-01 -1.478535e-01 7.288857e-01
25 1 3 -1.102975e+01 2.504669e+00 4.867552e+00 0 -1 0 -1.716137e-01 1.145335e-01 -6.478935e-01 -7.332563e-01
26 1 4 -1.127554e+01 2.775053e+00 5.918222e+00 0 -1 0 -1.659422e-01 -6.990674e-02 9.621582e-01 -2.045184e-01
27 1 4 -1.059384e+01 2.612442e+00 6.706498e+00 0 -1 0 5.207445e-01 -8.081291e-01 1.328219e-01 -2.410620e-01
28 1 1 -1.028856e+01 2.940137e+00 6.847571e+00 0 -1 0 5.801193e-01 -6.274281e-01 5.187958e-01 2.542751e-02
29 1 1 -9.781726e+00 3.001151e+00 6.814220e+00 0 -1 0 -5.657800e-01 2.339151e-01 -7.540331e-01 -2.379303e-01
30 1 4 -1.008968e+01 3.879133e+00 7.501420e+00 0 -1 0 -4.273959e-01 -6.508283e-01 -6.240449e-01 -6.575089e-02
31 1 4 -9.402612e+00 3.797259e+00 8.289285e+00 0 -1 0 -4.317895e-01 -6.322697e-01 6.423598e-01 3.415783e-02
32 1 3 -9.063766e+00 3.328636e+00 8.408968e+00 0 -1 0 8.569835e-01 -1.264490e-01 4.248121e-01 -2.629157e-01
33 1 3 -8.884952e+00 3.354139e+00 7.409888e+00 0 -1 0 -5.520819e-03 -2.969423e-01 6.884911e-01 6.616455e-01
34 1 1 -9.046755e+00 3.553877e+00 7.037089e+00 0 -1 0 2.733826e-01 -1.309762e-01 -8.024535e-01 -5.139801e-01
35 1 2 -7.588057e+00 3.723818e+00 7.259587e+00 0 -1 0 6.821592e-01 -4.914334e-01 1.392047e-01 5.232342e-01
36 1 2 -7.516508e+00 4.118307e+00 7.585390e+00 0 -1 0 -3.063970e-01 4.116778e-01 -3.595596e-01 -7.793325e-01
37 1 1 -7.762565e+00 4.658422e+00 7.657517e+00 0 -1 0 -7.841511e-02 -3.554530e-01 4.383155e-01 8.218173e-01
38 1 1 -8.118552e+00 5.048254e+00 7.634498e+00 0 -1 0 -3.993723e-01 -3.103759e-01 4.934732e-01 7.075682e-01
39 1 4 -6.900433e+00 5.648173e+00 7.991598e+00 0 -1 0 9.405992e-01 3.246399e-02 -2.121529e-01 2.630787e-01
40 1 4 -7.687550e+00 5.657717e+00 8.592092e+00 0 -1 0 9.235109e-01 -1.172613e-01 -9.897718e-02 -3.515408e-01
41 1 2 -8.029267e+00 7.186422e+00 8.363998e+00 0 -1 0 -2.416911e-01 9.323856e-01 2.245650e-01 -1.476926e-01
42 1 4 -8.168543e+00 7.670562e+00 8.131648e+00 0 -1 0 -1.369752e-01 9.620631e-01 -1.542193e-01 -1.785741e-01
43 1 3 -8.110193e+00 8.110041e+00 7.836269e+00 0 -1 0 -8.320863e-02 8.782403e-01 -4.064028e-01 -2.379222e-01
44 1 2 -8.006236e+00 8.359063e+00 7.381952e+00 0 -1 0 -1.842040e-02 7.215200e-01 -6.694261e-01 -1.758925e-01
45 1 1 -7.826099e+00 8.438680e+00 6.921383e+00 0 -1 0 4.370282e-02 4.548976e-01 -8.725306e-01 -1.727674e-01
46 1 3 -7.863809e+00 8.330040e+00 6.373496e+00 0 -1 0 -1.877912e-01 -2.116224e-01 9.571673e-01 6.149116e-02
47 1 4 -8.111699e+00 8.117749e+00 5.880172e+00 0 -1 0 -3.289264e-01 8.016405e-02 9.409284e-01 -5.911918e-03
48 1 1 -8.525361e+00 7.835362e+00 5.575281e+00 0 -1 0 3.616863e-01 -3.252192e-01 -8.735602e-01 1.755369e-02
49 1 4 -9.034164e+00 7.761839e+00 5.400428e+00 0 -1 0 4.036221e-01 -5.315364e-01 -7.297097e-01 1.486001e-01
50 1 4 -9.606673e+00 7.804275e+00 5.418212e+00 0 -1 0 4.101733e-01 -6.776281e-01 -4.816584e-01 3.749443e-01
51 1 4 -1.007652e+01 8.109445e+00 5.433391e+00 0 -1 0 4.173205e-01 -7.632267e-01 -2.557678e-01 4.217955e-01
52 1 1 -1.041122e+01 8.548013e+00 5.416227e+00 0 -1 0 3.131103e-01 -8.405037e-01 -4.404272e-02 4.399724e-01
53 1 3 -1.060525e+01 8.983108e+00 5.395407e+00 0 -1 0 -2.010249e-01 7.922051e-01 -2.697718e-01 -5.091396e-01
54 1 4 -1.063811e+01 9.439252e+00 5.010170e+00 0 -1 0 -9.972423e-03 -6.718886e-01 4.915535e-01 5.539327e-01
55 1 4 -1.084570e+01 9.806913e+00 4.508947e+00 0 -1 0 -3.017383e-01 -5.124215e-01 6.076832e-01 5.264022e-01
56 1 4 -1.115908e+01 9.879596e+00 4.160450e+00 0 -1 0 4.629036e-01 2.618728e-01 -7.979030e-01 -2.837140e-01
57 1 1 -1.163812e+01 9.833389e+00 3.833330e+00 0 -1 0 6.151680e-01 1.071230e-01 -7.677504e-01 -1.437094e-01
58 1 1 -1.198172e+01 9.521276e+00 3.726347e+00 0 -1 0 -6.100661e-01 1.440003e-01 7.612498e-01 -1.660784e-01
59 1 3 -1.243963e+01 9.073576e+00 3.704358e+00 0 -1 0 5.862832e-01 -1.712554e-01 -7.026017e-01 3.650952e-01
60 1 4 -1.281104e+01 8.877988e+00 3.973930e+00 0 -1 0 3.839667e-01 -4.875794e-01 -6.101633e-01 4.924801e-01
61 1 2 -1.338431e+01 8.884133e+00 4.006940e+00 0 -1 0 3.793334e-01 -6.357459e-01 -4.190040e-01 5.257080e-01
62 1 3 -1.388346e+01 9.096502e+00 4.247943e+00 0 -1 0 2.187222e-01 -7.520425e-01 -1.677196e-01 5.987177e-01
63 1 2 -1.415567e+01 9.443399e+00 4.261092e+00 0 -1 0 1.749864e-01 6.871675e-01 -1.464272e-01 -6.897388e-01
64 1 4 -1.433388e+01 9.438647e+00 5.012576e+00 0 -1 0 -8.348768e-01 -2.763966e-01 4.290038e-01 -2.062558e-01
65 1 2 -1.387987e+01 1.002596e+01 5.524706e+00 0 -1 0 -4.716761e-01 -7.483183e-01 2.463371e-01 -3.960549e-01
66 1 1 -1.429325e+01 9.691598e+00 6.538439e+00 0 -1 0 -4.908785e-01 4.911207e-01 -2.255757e-01 6.833406e-01
67 1 2 -1.407435e+01 9.816095e+00 6.907316e+00 0 -1 0 7.176623e-01 -4.292503e-01 3.737450e-01 -4.012727e-01
68 1 1 -1.375813e+01 9.601418e+00 7.256112e+00 0 -1 0 -8.485079e-01 1.625601e-01 -5.011458e-01 4.961348e-02
69 1 1 -1.328080e+01 9.566627e+00 7.411985e+00 0 -1 0 7.570218e-01 -5.107250e-03 5.893805e-01 2.819974e-01
70 1 2 -1.272058e+01 9.599772e+00 7.470743e+00 0 -1 0 6.229321e-01 2.147258e-01 6.134699e-01 4.353196e-01
71 1 3 -1.266677e+01 9.125576e+00 8.697504e+00 0 -1 0 -6.220564e-01 7.236773e-01 2.551222e-01 -1.557229e-01
72 1 4 -1.264803e+01 8.849503e+00 8.426049e+00 0 -1 0 -4.591854e-01 -4.584221e-01 -6.941488e-01 3.116977e-01
73 1 1 -1.137474e+01 8.378474e+00 8.721965e+00 0 -1 0 -6.000339e-01 -5.396121e-01 5.310628e-01 2.583610e-01
74 1 1 -1.092821e+01 9.315600e+00 8.178873e+00 0 -1 0 4.501224e-02 -5.991953e-01 3.587202e-01 7.143240e-01
75 1 3 -1.100527e+01 9.669180e+00 9.036980e+00 0 -1 0 -8.928490e-01 3.224161e-02 4.189523e-01 -1.620497e-01
76 1 1 -1.119692e+01 1.088465e+01 8.886676e+00 0 -1 0 2.459237e-01 -8.890738e-01 -1.983514e-01 -3.312493e-01
77 1 4 -1.097100e+01 1.114573e+01 8.702969e+00 0 -1 0 -2.155041e-01 8.624626e-01 -4.489447e-01 -9.035981e-02
78 1 1 -1.066863e+01 1.132127e+01 8.346679e+00 0 -1 0 -2.282905e-01 6.082340e-01 -7.477651e-01 -1.370480e-01
79 1 4 -1.137954e+01 1.242839e+01 9.172987e+00 0 -1 0 1.299108e-01 -5.561926e-01 -6.378632e-01 -5.166270e-01
80 1 2 -1.152351e+01 1.276375e+01 8.952912e+00 0 -1 0 2.569336e-01 -8.253331e-01 -3.805636e-01 -3.286058e-01
81 1 4 -1.169562e+01 1.315261e+01 8.724099e+00 0 -1 0 3.956233e-01 -8.946093e-01 -1.044343e-01 -1.795827e-01
82 1 4 -1.259960e+01 1.330884e+01 7.914690e+00 0 -1 0 3.789903e-03 -7.392626e-01 -4.647953e-01 -4.872800e-01
83 1 4 -1.278875e+01 1.244142e+01 7.151901e+00 0 -1 0 5.328303e-01 6.023697e-01 -4.957348e-01 -3.278563e-01
84 1 4 -1.308124e+01 1.214943e+01 6.849084e+00 0 -1 0 -5.514735e-01 -4.491302e-01 7.022873e-01 -3.084773e-02
85 1 1 -1.395964e+01 1.275239e+01 6.490211e+00 0 -1 0 4.248307e-01 -2.920117e-01 -1.975682e-01 8.337954e-01
86 1 1 -1.408542e+01 1.282202e+01 6.980799e+00 0 -1 0 1.877489e-01 -4.158412e-01 -4.273337e-02 8.888196e-01
87 1 3 -1.447097e+01 1.316197e+01 7.162501e+00 0 -1 0 -1.493833e-01 -4.498906e-01 1.540325e-01 8.669239e-01
88 1 2 -1.419665e+01 1.382418e+01 8.104569e+00 0 -1 0 2.264082e-01 -8.735482e-01 1.434049e-01 -4.063102e-01
89 1 2 -1.368725e+01 1.452663e+01 7.904954e+00 0 -1 0 4.450030e-01 5.705330e-01 -2.495939e-01 6.435584e-01
90 1 3 -1.376055e+01 1.390244e+01 6.843275e+00 0 -1 0 5.368602e-01 6.163833e-01 -5.714680e-01 -7.264375e-02
91 1 3 -1.482643e+01 1.408920e+01 6.551183e+00 0 -1 0 2.716194e-01 2.263243e-01 -9.259580e-01 -1.326728e-01
92 1 2 -1.504279e+01 1.393137e+01 6.160035e+00 0 -1 0 3.406829e-01 -2.989265e-02 -9.364595e-01 7.800751e-02
93 1 1 -1.452113e+01 1.325103e+01 5.627130e+00 0 -1 0 -4.641201e-01 3.209153e-01 -6.590410e-01 4.972634e-01
94 1 2 -1.470670e+01 1.348312e+01 5.300551e+00 0 -1 0 -2.441384e-01 -4.946966e-01 4.313762e-01 -7.138531e-01
95 1 3 -1.465058e+01 1.310232e+01 4.241454e+00 0 -1 0 -2.167787e-01 -9.728204e-01 8.111758e-02 -6.885451e-03
96 1 2 -1.450284e+01 1.307227e+01 3.755639e+00 0 -1 0 -3.096787e-01 -8.343302e-01 4.365150e-01 -1.320865e-01
97 1 2 -1.564433e+01 1.369105e+01 3.824062e+00 0 -1 0 -2.997584e-01 7.268580e-01 1.207840e-01 -6.059981e-01
98 1 4 -1.620623e+01 1.372891e+01 3.118907e+00 0 -1 0 -6.482842e-01 7.553591e-02 -4.617419e-01 -6.006799e-01
99 1 2 -1.749073e+01 1.314038e+01 3.851463e+00 0 -1 0 -5.196821e-01 1.255869e-01 5.356234e-01 6.536559e-01
100 1 1 -1.735568e+01 1.417717e+01 3.832682e+00 0 -1 0 2.059659e-01 -2.419453e-01 -3.940286e-01 -8.624279e-01
101 2 4 1.945051e+01 8.855478e-01 1.208820e+01 -1 -1 0 -2.589533e-03 3.721248e-01 -8.972828e-01 -2.374868e-01
102 2 3 1.879899e+01 1.727973e+00 1.168065e+01 -1 -1 0 5.290590e-02 -5.769749e-02 3.429470e-03 9.969254e-01
103 2 1 1.899099e+01 1.551142e+00 1.087663e+01 -1 -1 0 3.809818e-01 9.394713e-02 -1.387324e-01 -9.092745e-01
104 2 3 1.905478e+01 1.092121e+00 1.060879e+01 -1 -1 0 -4.291319e-01 2.828891e-01 5.633789e-01 6.468569e-01
105 2 3 1.978300e+01 1.397028e+00 9.707884e+00 -1 -1 0 8.243535e-02 -5.040112e-01 8.153115e-01 2.728447e-01
106 2 2 1.984612e+01 1.419018e+00 9.237420e+00 -1 -1 0 -5.371009e-02 -1.543526e-01 9.628140e-01 2.151270e-01
107 2 3 1.962456e+01 2.751969e+00 9.267536e+00 -1 -1 0 -1.758974e-01 -5.633535e-01 2.584767e-02 -8.068611e-01
108 2 4 -2.007326e+01 2.908546e+00 9.523941e+00 0 -1 0 3.255178e-01 -5.055639e-01 4.032899e-01 -6.897830e-01
109 2 3 -1.921013e+01 2.445870e+00 8.705815e+00 0 -1 0 9.471884e-01 -5.669612e-02 -1.517752e-01 -2.767380e-01
110 2 2 -1.856083e+01 3.353787e+00 8.583022e+00 0 -1 0 9.395692e-02 8.617031e-01 3.962768e-01 3.026624e-01
111 2 2 -1.819798e+01 3.284234e+00 8.427159e+00 0 -1 0 -1.021327e-01 5.377740e-01 8.285149e-01 -1.180299e-01
112 2 3 -1.827365e+01 3.723571e+00 7.715826e+00 0 -1 0 1.452329e-01 4.987142e-01 1.755451e-01 8.362867e-01
113 2 3 -1.788690e+01 3.978764e+00 7.935000e+00 0 -1 0 -1.523026e-01 5.120251e-01 1.411011e-01 8.335015e-01
114 2 2 -1.646954e+01 4.350726e+00 7.754551e+00 0 -1 0 1.782420e-01 9.717784e-01 -6.665688e-02 1.394037e-01
115 2 4 -1.659501e+01 4.474879e+00 6.682990e+00 0 -1 0 9.870388e-03 -5.890568e-01 9.973894e-02 8.018521e-01
116 2 4 -1.684794e+01 4.880917e+00 7.091310e+00 0 -1 0 3.202605e-01 -8.872240e-02 4.506815e-01 -8.285214e-01
117 2 1 -1.681891e+01 5.219917e+00 7.276748e+00 0 -1 0 1.478284e-01 -3.872682e-01 7.510078e-01 -5.139625e-01
118 2 1 -1.583153e+01 5.434129e+00 7.502614e+00 0 -1 0 4.867709e-01 5.930306e-01 -6.288527e-01 1.261469e-01
119 2 1 -1.677542e+01 6.167727e+00 8.084775e+00 0 -1 0 -5.273586e-01 4.514868e-01 -5.079906e-02 7.179638e-01
120 2 1 -1.669679e+01 6.614191e+00 6.968329e+00 0 -1 0 1.155772e-01 -1.031026e-02 -8.834475e-01 -4.539340e-01
121 2 3 -1.721393e+01 7.012853e+00 6.388988e+00 0 -1 0 5.078351e-02 -1.634234e-01 -7.461694e-01 -6.433856e-01
122 2 1 -1.736655e+01 7.452907e+00 6.132654e+00 0 -1 0 -3.335725e-01 5.292468e-01 5.083272e-01 5.918029e-01
123 2 4 -1.757558e+01 7.928202e+00 6.001512e+00 0 -1 0 5.633603e-01 -6.111437e-01 -3.817252e-01 -4.042455e-01
124 2 1 -1.703862e+01 8.992651e+00 5.167868e+00 0 -1 0 -4.599243e-01 -4.668977e-01 -5.167178e-02 -7.535292e-01
125 2 4 -1.748416e+01 7.909195e+00 4.894598e+00 0 -1 0 7.882268e-02 -3.780575e-01 -8.538117e-01 3.490919e-01
126 2 2 -1.723886e+01 7.838199e+00 4.169882e+00 0 -1 0 3.885317e-01 -2.372380e-01 -4.278739e-01 -7.808234e-01
127 2 4 -1.746191e+01 8.301110e+00 4.265270e+00 0 -1 0 -6.198602e-01 2.792731e-01 3.816359e-01 6.262060e-01
128 2 4 -1.637698e+01 8.306075e+00 3.166023e+00 0 -1 0 3.228032e-01 -6.839131e-01 6.056057e-01 2.475937e-01
129 2 1 -1.606771e+01 8.480081e+00 2.864687e+00 0 -1 0 3.392254e-01 -3.159046e-01 8.332504e-01 3.013704e-01
130 2 2 -1.632926e+01 8.727572e+00 2.754963e+00 0 -1 0 -3.473719e-01 7.421693e-01 -5.716416e-01 4.175355e-02
131 2 3 -1.592545e+01 8.916154e+00 2.504014e+00 0 -1 0 -2.806986e-01 4.571395e-01 -8.404996e-01 -7.610704e-02
132 2 4 -1.564499e+01 8.934384e+00 2.069261e+00 0 -1 0 -1.403667e-01 -4.533375e-02 -9.496041e-01 -2.765755e-01
133 2 4 -1.563351e+01 8.943672e+00 1.556754e+00 0 -1 0 4.363006e-02 4.175835e-01 8.367348e-01 3.515613e-01
134 2 3 -1.500722e+01 8.269066e+00 1.946569e+00 0 -1 0 -3.936989e-01 8.789488e-02 6.259950e-01 -6.673873e-01
135 2 4 -1.391705e+01 8.247138e+00 1.558858e+00 0 -1 0 -7.433476e-01 4.092397e-01 -4.621840e-01 -2.575717e-01
136 2 3 -1.423516e+01 7.896144e+00 1.767463e+00 0 -1 0 -5.811026e-01 -6.823311e-01 -2.119015e-01 3.896688e-01
137 2 1 -1.331079e+01 8.391741e+00 2.933816e+00 0 -1 0 -6.863591e-01 5.446438e-01 2.608339e-01 -4.052653e-01
138 2 3 -1.408906e+01 9.182886e+00 3.181763e+00 0 -1 0 7.879414e-02 -7.178715e-01 -2.006161e-01 -6.619707e-01
139 2 2 -1.368504e+01 9.606995e+00 3.213751e+00 0 -1 0 -2.308543e-01 6.223731e-01 3.739846e-02 7.469668e-01
140 2 3 -1.337005e+01 9.939836e+00 3.508427e+00 0 -1 0 -5.404805e-01 5.140469e-01 -1.828406e-01 6.404732e-01
141 2 1 -1.304532e+01 1.003616e+01 4.077281e+00 0 -1 0 -6.610061e-01 3.827148e-01 -3.679725e-01 5.302797e-01
142 2 2 -1.270955e+01 9.839707e+00 4.528887e+00 0 -1 0 -7.610320e-01 2.255802e-01 -5.236070e-01 3.094827e-01
143 2 4 -1.242753e+01 9.621531e+00 4.788987e+00 0 -1 0 8.462192e-01 -2.001850e-02 5.315527e-01 -3.104934e-02
144 2 4 -1.194588e+01 9.380110e+00 4.924187e+00 0 -1 0 -7.495219e-01 -2.336578e-01 -6.191061e-01 -1.812629e-02
145 2 1 -1.166987e+01 8.948702e+00 4.695446e+00 0 -1 0 6.920305e-01 4.527000e-01 4.852505e-01 2.840570e-01
146 2 1 -1.124809e+01 8.736857e+00 4.525764e+00 0 -1 0 -5.426349e-01 -6.132810e-01 -4.793170e-01 -3.157356e-01
147 2 1 -1.086156e+01 8.586647e+00 4.179393e+00 0 -1 0 4.230233e-01 6.708817e-01 1.255930e-01 5.959828e-01
148 2 2 -1.025091e+01 8.705637e+00 4.231218e+00 0 -1 0 -2.169551e-01 -5.920371e-01 6.323167e-02 -7.735789e-01
149 2 4 -9.774432e+00 8.780349e+00 4.485197e+00 0 -1 0 -2.205744e-03 4.323197e-01 -2.014366e-01 8.789301e-01
150 2 1 -9.424489e+00 8.899480e+00 4.808199e+00 0 -1 0 -2.936184e-01 3.626694e-01 -2.553521e-01 8.467907e-01
151 2 1 -9.223586e+00 8.914380e+00 5.336824e+00 0 -1 0 -5.402957e-01 2.098949e-01 -2.458805e-01 7.768960e-01
152 2 1 -9.100570e+00 8.843102e+00 5.878561e+00 0 -1 0 -6.406771e-01 5.673887e-03 -2.499049e-01 7.259809e-01
153 2 4 -9.171452e+00 8.564654e+00 6.304075e+00 0 -1 0 -8.792346e-01 -2.768123e-02 -3.194665e-01 3.523087e-01
154 2 1 -9.084908e+00 8.139294e+00 6.569533e+00 0 -1 0 -9.409058e-01 -2.075917e-01 -2.643920e-01 -4.121725e-02
155 2 2 -8.838425e+00 7.744586e+00 6.781039e+00 0 -1 0 -8.922866e-01 -3.105194e-01 -3.116500e-01 -1.013740e-01
156 2 4 -8.492690e+00 7.414632e+00 6.880130e+00 0 -1 0 -7.887299e-01 -3.773584e-01 -1.986549e-01 -4.427663e-01
157 2 3 -8.042071e+00 7.210152e+00 7.044570e+00 0 -1 0 -6.114408e-01 -3.673062e-01 -1.826793e-01 -6.766496e-01
158 2 2 -7.496644e+00 7.292045e+00 7.236625e+00 0 -1 0 -3.362582e-01 -3.653412e-01 -8.271421e-02 -8.640686e-01
159 2 1 -7.110096e+00 7.395051e+00 7.611505e+00 0 -1 0 5.808832e-02 2.474643e-01 4.074910e-04 9.671541e-01
160 2 3 -6.908399e+00 7.627670e+00 8.071516e+00 0 -1 0 -2.582872e-01 1.433139e-01 -3.696999e-02 9.546633e-01
161 2 1 -6.672888e+00 8.618900e+00 8.101581e+00 0 -1 0 2.597956e-01 6.882846e-01 8.094400e-02 6.724721e-01
162 2 1 -6.199552e+00 8.778582e+00 8.226262e+00 0 -1 0 8.813798e-01 7.180799e-02 1.909496e-01 4.260887e-01
163 2 4 -5.773598e+00 8.806724e+00 8.510154e+00 0 -1 0 -4.646861e-01 -1.261823e-02 -1.854521e-02 -8.851913e-01
164 2 4 -5.539625e+00 8.258365e+00 7.450245e+00 0 -1 0 -6.655690e-01 -5.621918e-01 -4.155924e-01 2.612304e-01
165 2 3 -5.236973e+00 8.626587e+00 6.814129e+00 0 -1 0 -2.975691e-01 -8.234986e-01 -1.686369e-01 4.526194e-01
166 2 3 -4.957325e+00 8.393845e+00 7.316036e+00 0 -1 0 2.436842e-01 5.039016e-01 7.804123e-01 -2.786717e-01
167 2 4 -3.946259e+00 8.389482e+00 7.733669e+00 0 -1 0 6.267923e-02 -4.609815e-01 8.768473e-01 -1.212689e-01
168 2 2 -4.600918e+00 9.336623e+00 8.447688e+00 0 -1 0 -1.154335e-02 6.933339e-01 6.072064e-01 3.878855e-01
169 2 2 -4.800875e+00 8.941342e+00 9.127462e+00 0 -1 0 1.075193e-01 -2.188930e-01 -2.468499e-01 -9.378649e-01
170 2 1 -4.836028e+00 9.386088e+00 9.339331e+00 0 -1 0 2.847578e-01 -9.386187e-02 -4.177169e-01 -8.576803e-01
171 2 1 -5.210731e+00 9.784821e+00 9.426902e+00 0 -1 0 -5.851941e-01 1.614597e-01 3.734109e-01 7.014578e-01
172 2 4 -4.401880e+00 1.099937e+01 9.390795e+00 0 -1 0 5.488421e-01 -7.479498e-01 3.131813e-02 3.719713e-01
173 2 4 -4.492341e+00 1.154808e+01 9.467648e+00 0 -1 0 -3.630719e-01 7.187437e-01 -3.427790e-01 -4.838273e-01
174 2 1 -5.695768e+00 1.131114e+01 9.422173e+00 0 -1 0 4.404971e-01 -1.060819e-01 7.968667e-01 -3.996404e-01
175 2 1 -5.154149e+00 1.190735e+01 9.404332e+00 0 -1 0 1.266602e-01 2.121256e-01 -9.689990e-01 -9.152592e-04
176 2 2 -4.909537e+00 1.268067e+01 9.222736e+00 0 -1 0 -7.358799e-02 -6.771138e-01 7.275196e-01 8.256505e-02
177 2 2 -5.747721e+00 1.345281e+01 9.822841e+00 0 -1 0 4.191183e-01 -1.323848e-01 -8.640025e-01 -2.455885e-01
178 2 1 -4.673575e+00 1.423075e+01 1.036906e+01 0 -1 0 6.585098e-01 5.576254e-01 -1.415186e-01 4.851713e-01
179 2 4 -4.565364e+00 1.455328e+01 1.029714e+01 0 -1 0 2.220440e-01 -2.729710e-01 4.442521e-01 8.239074e-01
180 2 1 -4.481607e+00 1.445136e+01 1.143092e+01 0 -1 0 5.126046e-01 1.366408e-02 -5.080034e-02 8.570118e-01
181 2 4 -3.430493e+00 1.414988e+01 1.170048e+01 0 -1 0 -4.760293e-01 -5.574441e-01 3.234785e-01 -5.983426e-01
182 2 2 -2.797651e+00 1.448601e+01 1.194594e+01 0 -1 0 -5.132424e-01 -6.245368e-01 1.813181e-01 -5.600534e-01
183 2 3 -2.369113e+00 1.426592e+01 1.210007e+01 0 -1 0 2.012955e-01 4.190969e-01 -4.243533e-01 7.770213e-01
184 2 4 -2.276762e+00 1.339146e+01 1.165679e+01 0 -1 0 -3.921318e-01 4.003536e-01 -5.453272e-01 -6.233521e-01
185 2 3 -1.644692e+00 1.406818e+01 1.257404e+01 0 -1 0 -4.973334e-01 8.666271e-01 -2.783451e-02 2.902179e-02
186 2 1 -1.481265e+00 1.359089e+01 1.287381e+01 0 -1 0 -1.280825e-01 3.055238e-01 -9.094130e-01 2.514321e-01
187 2 1 -1.228425e+00 1.353148e+01 1.338149e+01 0 -1 0 3.224072e-01 4.344740e-01 -7.997127e-01 -2.602798e-01
188 2 2 -1.142933e+00 1.426516e+01 1.380269e+01 0 -1 0 -2.605865e-01 -6.526787e-01 6.709860e-01 2.363959e-01
189 2 4 -1.128914e+00 1.500480e+01 1.410629e+01 0 -1 0 1.662872e-01 4.529498e-01 -3.648276e-01 -7.962951e-01
190 2 4 -5.817823e-01 1.591200e+01 1.444481e+01 0 -1 0 -6.005332e-01 -5.120302e-01 -4.951725e-01 -3.633032e-01
191 2 1 -1.227995e-01 1.579089e+01 1.419277e+01 0 -1 0 4.469047e-01 6.885174e-01 7.107756e-02 5.667168e-01
192 2 4 -7.937245e-02 1.613493e+01 1.343769e+01 0 -1 0 -3.473650e-01 -2.283284e-01 -6.044992e-01 -6.795472e-01
193 2 4 2.276273e-01 1.657102e+01 1.325111e+01 0 -1 0 8.717705e-02 2.920602e-01 4.969404e-01 8.124970e-01
194 2 1 3.501265e-01 1.704728e+01 1.326872e+01 0 -1 0 2.291358e-01 -5.169396e-01 -2.241067e-01 -7.937546e-01
195 2 3 2.676324e-01 1.682963e+01 1.240093e+01 0 -1 0 4.495532e-01 -1.147839e-01 -7.793707e-01 -4.210795e-01
196 2 4 1.363385e+00 1.647165e+01 1.176884e+01 0 -1 0 -2.326293e-03 6.704253e-01 -4.640547e-01 -5.789453e-01
197 2 2 2.762226e-02 1.619008e+01 1.183157e+01 0 -1 0 3.238741e-01 1.497134e-01 -2.856436e-01 -8.894376e-01
198 2 4 -3.614274e-01 1.640280e+01 1.202464e+01 0 -1 0 6.189948e-01 1.054034e-01 -3.960930e-01 -6.699596e-01
199 2 3 2.470181e-01 1.709635e+01 1.138026e+01 0 -1 0 -3.056187e-01 -6.626256e-01 -2.604921e-01 -6.321933e-01
200 2 4 -4.591431e-02 1.730275e+01 1.201848e+01 0 -1 0 -5.566672e-01 4.504396e-01 6.746037e-01 1.792644e-01
