ITEM: TIMESTEP
128000000
ITEM: NUMBER OF ATOMS
200
ITEM: BOX BOUNDS pp pp pp
-2.0000000000000000e+01 2.0000000000000000e+01
-2.0000000000000000e+01 2.0000000000000000e+01
-2.0000000000000000e+01 2.0000000000000000e+01
ITEM: ATOMS id mol type x y z ix iy iz c_quat[1] c_quat[2] c_quat[3] c_quat[4]
1 1 1 -6.836507e+00 1.314195e+01 6.898868e+00 0 -1 0 4.420415e-01 -7.041021e-01 4.414664e-01 -3.375602e-01
2 1 2 -6.391436e+00 1.322062e+01 6.978455e+00 0 -1 0 -4.905583e-01 4.330305e-01 -7.513470e-01 8.552697e-02
3 1 1 -5.909653e+00 1.301385e+01 6.771700e+00 0 -1 0 3.841554e-01 -1.592013e-01 9.070690e-01 6.561606e-02
4 1 3 -4.833301e+00 1.371466e+01 7.330320e+00 0 -1 0 -5.375450e-01 4.346923e-01 2.244313e-01 -6.868177e-01
5 1 1 -5.296813e+00 1.386555e+01 7.726339e+00 0 -1 0 3.992493e-01 -5.206105e-01 -1.178065e-01 7.454437e-01
6 1 2 -5.712688e+00 1.416634e+01 7.857879e+00 0 -1 0 7.904763e-02 -6.099121e-01 1.029623e-01 7.817656e-01
7 1 4 -5.591022e+00 1.293773e+01 8.621953e+00 0 -1 0 4.209400e-01 -3.090792e-01 8.526744e-01 -1.502769e-02
8 1 1 -4.728442e+00 1.387360e+01 8.716265e+00 0 -1 0 6.086985e-01 -6.692600e-01 3.679912e-01 2.148480e-01
9 1 1 -4.503755e+00 1.321004e+01 9.087934e+00 0 -1 0 6.516996e-01 3.446522e-01 -5.571627e-01 3.821938e-01
10 1 4 -3.887723e+00 1.367213e+01 8.746192e+00 0 -1 0 -8.143069e-02 9.038833e-01 1.643074e-01 -3.864804e-01
11 1 1 -3.529362e+00 1.350688e+01 9.309085e+00 0 -1 0 4.920250e-01 -5.133271e-01 -2.318157e-03 -7.031368e-01
12 1 1 -2.858874e+00 1.406161e+01 1.000067e+01 0 -1 0 6.661032e-01 -6.989459e-01 -1.778391e-01 -1.901431e-01
13 1 3 -2.862177e+00 1.508834e+01 9.787630e+00 0 -1 0 1.272817e-01 8.890256e-01 2.605129e-01 -3.543527e-01
14 1 4 -3.236782e+00 1.381474e+01 1.075360e+01 0 -1 0 7.278287e-01 -1.496107e-01 1.882346e-01 -6.422225e-01
15 1 4 -3.176478e+00 1.381477e+01 1.126167e+01 0 -1 0 8.100889e-01 1.415084e-02 2.718775e-01 -5.192671e-01
16 1 2 -2.528395e+00 1.455593e+01 1.211902e+01 0 -1 0 -2.712943e-01 -3.850141e-01 7.070890e-01 -5.274359e-01
17 1 1 -2.393963e+00 1.399895e+01 1.211702e+01 0 -1 0 -2.016455e-01 -1.750062e-01 7.175449e-01 -6.433049e-01
18 1 2 -2.170422e+00 1.317106e+01 1.181387e+01 0 -1 0 -7.561944e-01 -2.797690e-01 -3.069714e-01 5.056361e-01
19 1 3 -1.462198e+00 1.287197e+01 1.135943e+01 0 -1 0 -8.097833e-01 -2.230518e-01 -3.499384e-01 -4.147794e-01
20 1 1 -2.406221e+00 1.196817e+01 1.234486e+01 0 -1 0 8.157576e-01 -7.253165e-02 -4.478548e-01 -3.587546e-01
21 1 4 -2.366213e+00 1.200733e+01 1.247244e+01 0 -1 0 5.410800e-01 -3.959980e-01 6.943660e-01 2.612929e-01
22 1 1 -2.265277e+00 1.164431e+01 1.342265e+01 0 -1 0 -2.571254e-01 4.409967e-02 9.426149e-01 -2.083719e-01
23 1 4 -2.661575e+00 1.131097e+01 1.328273e+01 0 -1 0 2.423208e-01 -3.895152e-01 -8.084226e-01 3.687971e-01
24 1 3 -1.413678e+00 1.088844e+01 1.258500e+01 0 -1 0 8.395387e-01 -4.897794e-01 -1.174282e-02 2.348467e-01
25 1 3 -8.808356e-01 1.056472e+01 1.247935e+01 0 -1 0 8.396028e-01 -3.101817e-01 -3.834660e-01 2.276141e-01
26 1 4 -7.958189e-01 1.028901e+01 1.300517e+01 0 -1 0 -7.910972e-01 7.523328e-03 2.479502e-01 -5.591326e-01
27 1 4 -2.234078e+00 1.001419e+01 1.274246e+01 0 -1 0 5.444320e-01 2.749396e-01 4.365368e-01 -6.613906e-01
28 1 1 -2.438417e+00 9.528896e+00 1.276500e+01 0 -1 0 -7.969974e-01 -4.089553e-01 -3.126840e-01 3.158788e-01
29 1 1 -2.512710e+00 9.160786e+00 1.265037e+01 0 -1 0 -8.588853e-01 -4.976927e-01 1.013232e-01 -6.596625e-02
30 1 4 -2.308548e+00 8.685319e+00 1.266730e+01 0 -1 0 7.479602e-01 3.077046e-01 -3.553256e-01 4.686332e-01
31 1 4 -2.948696e+00 7.870164e+00 1.224964e+01 0 -1 0 -2.639791e-01 -4.717824e-01 7.947861e-01 -2.757742e-01
32 1 3 -2.824579e+00 7.459810e+00 1.202066e+01 0 -1 0 -1.236145e-01 -1.451320e-01 9.284803e-01 -3.187170e-01
33 1 3 -2.161009e+00 7.549228e+00 1.142970e+01 0 -1 0 -5.047517e-02 8.634736e-01 1.637221e-01 -4.744055e-01
34 1 1 -2.244244e+00 7.258932e+00 1.115018e+01 0 -1 0 -1.524708e-01 7.513596e-01 6.325738e-01 -1.098259e-01
35 1 2 -2.619731e+00 7.398967e+00 1.094680e+01 0 -1 0 -8.587390e-04 9.561512e-01 2.140360e-01 -1.999066e-01
36 1 2 -2.830456e+00 7.573464e+00 1.050321e+01 0 -1 0 -1.540202e-01 -9.395080e-01 2.216913e-01 2.108446e-01
37 1 1 -2.808541e+00 7.565198e+00 9.892595e+00 0 -1 0 4.599830e-01 6.709147e-01 -5.753421e-01 -8.526740e-02
38 1 1 -4.327743e+00 7.943386e+00 1.020412e+01 0 -1 0 -3.260687e-02 9.609953e-03 9.081895e-01 -4.171766e-01
39 1 4 -4.424201e+00 7.488713e+00 1.010868e+01 0 -1 0 -1.413049e-01 -3.341332e-01 -8.436667e-01 3.957454e-01
40 1 4 -3.381731e+00 7.098190e+00 1.001851e+01 0 -1 0 -1.357916e-01 -9.776564e-01 2.591051e-02 1.583580e-01
41 1 2 -3.787463e+00 5.911839e+00 1.067959e+01 0 -1 0 -2.305490e-01 6.813567e-01 -4.803583e-01 5.018526e-01
42 1 4 -4.791361e+00 5.760850e+00 1.046072e+01 0 -1 0 -6.647869e-01 -2.609058e-01 2.977377e-01 6.335130e-01
43 1 3 -5.316930e+00 5.698201e+00 1.057668e+01 0 -1 0 -7.287200e-01 -3.806308e-01 4.251814e-01 3.785607e-01
44 1 2 -5.778608e+00 5.414994e+00 1.052580e+01 0 -1 0 -8.270344e-01 -2.733409e-01 4.630945e-01 1.638362e-01
45 1 1 -6.034303e+00 4.959192e+00 1.049350e+01 0 -1 0 -8.042170e-01 -1.448563e-01 5.557561e-01 -1.529275e-01
46 1 3 -6.292649e+00 4.608237e+00 1.071357e+01 0 -1 0 7.872850e-01 5.063662e-02 -5.171807e-01 3.318771e-01
47 1 4 -6.506809e+00 4.284457e+00 1.106404e+01 0 -1 0 6.816217e-01 -1.835710e-01 -4.128877e-01 5.755148e-01
48 1 1 -6.697797e+00 4.262803e+00 1.158981e+01 0 -1 0 -4.667727e-01 3.447675e-01 3.521171e-01 -7.343516e-01
49 1 4 -6.976844e+00 4.328611e+00 1.200541e+01 0 -1 0 -3.030908e-01 4.064371e-01 1.932655e-01 -8.399960e-01
50 1 4 -7.321649e+00 4.542404e+00 1.233403e+01 0 -1 0 -5.598732e-02 4.566742e-01 7.127787e-02 -8.850048e-01
51 1 4 -7.642313e+00 4.831186e+00 1.260381e+01 0 -1 0 1.432908e-01 4.421889e-01 -1.152094e-01 -8.778745e-01
52 1 1 -8.080708e+00 5.049335e+00 1.270873e+01 0 -1 0 2.781588e-01 4.338023e-01 -3.202381e-01 -7.949156e-01
53 1 3 -8.553350e+00 5.216989e+00 1.261705e+01 0 -1 0 -4.475017e-01 -3.639105e-01 4.971464e-01 6.481951e-01
54 1 4 -9.035461e+00 5.187457e+00 1.229078e+01 0 -1 0 5.798606e-01 1.756549e-01 -6.288828e-01 -4.872510e-01
55 1 4 -9.515220e+00 5.289502e+00 1.217678e+01 0 -1 0 7.400368e-01 6.384510e-02 -6.139351e-01 -2.671198e-01
56 1 4 -9.986735e+00 5.114505e+00 1.232844e+01 0 -1 0 -7.973651e-01 -4.168603e-02 5.930453e-01 -1.037709e-01
57 1 1 -1.027568e+01 4.773795e+00 1.257145e+01 0 -1 0 -7.801331e-01 1.622419e-01 5.360238e-01 -2.788340e-01
58 1 1 -1.064733e+01 4.571737e+00 1.303429e+01 0 -1 0 5.484229e-01 -4.101276e-01 -5.075469e-01 5.228994e-01
59 1 3 -1.105927e+01 4.582422e+00 1.342814e+01 0 -1 0 -4.704743e-01 5.141366e-01 3.235774e-01 -6.400118e-01
60 1 4 -1.150107e+01 4.805434e+00 1.368056e+01 0 -1 0 -3.722825e-01 5.974710e-01 1.515387e-01 -6.938805e-01
61 1 2 -1.184771e+01 5.151517e+00 1.390892e+01 0 -1 0 -2.133899e-01 6.395661e-01 -3.722902e-02 -7.375866e-01
62 1 3 -1.223595e+01 5.505090e+00 1.393168e+01 0 -1 0 2.713427e-02 6.706860e-01 -1.942127e-01 -7.153499e-01
63 1 2 -1.267989e+01 5.798673e+00 1.379870e+01 0 -1 0 1.675767e-01 6.618698e-01 -4.353334e-01 -5.867974e-01
64 1 4 -1.312914e+01 5.833347e+00 1.346704e+01 0 -1 0 5.315792e-01 4.641818e-01 -6.031589e-01 -3.716962e-01
65 1 2 -1.350181e+01 5.696760e+00 1.322479e+01 0 -1 0 5.943331e-01 3.241305e-01 -7.162765e-01 -1.692796e-01
66 1 1 -1.377116e+01 5.301885e+00 1.296091e+01 0 -1 0 5.324498e-01 1.987381e-01 -8.144786e-01 1.167261e-01
67 1 2 -1.410224e+01 4.869144e+00 1.284959e+01 0 -1 0 5.549358e-01 -9.986269e-02 -7.716139e-01 2.944242e-01
68 1 1 -1.457212e+01 4.610483e+00 1.298706e+01 0 -1 0 5.863441e-01 -2.463205e-01 -6.130976e-01 4.686557e-01
69 1 1 -1.497681e+01 4.444172e+00 1.329625e+01 0 -1 0 3.997226e-01 -4.691528e-01 -5.111427e-01 5.990415e-01
70 1 2 -1.549546e+01 4.456990e+00 1.350667e+01 0 -1 0 -2.701951e-01 6.546796e-01 3.657629e-01 -6.038268e-01
71 1 3 -1.595717e+01 4.645880e+00 1.371293e+01 0 -1 0 8.964865e-02 -7.275610e-01 -1.579967e-01 6.615551e-01
72 1 4 -1.632457e+01 4.968899e+00 1.375283e+01 0 -1 0 -7.051783e-03 7.230088e-01 -1.738741e-01 -6.685629e-01
73 1 1 -1.672114e+01 5.322153e+00 1.364084e+01 0 -1 0 -1.254196e-01 -6.745040e-01 4.259497e-01 5.898144e-01
74 1 1 -1.700511e+01 5.517270e+00 1.323658e+01 0 -1 0 3.532585e-01 5.082688e-01 -5.977982e-01 -5.094199e-01
75 1 3 -1.729836e+01 5.529912e+00 1.279194e+01 0 -1 0 -4.725869e-01 -2.965929e-01 7.940169e-01 2.413119e-01
76 1 1 -1.738434e+01 5.955256e+00 1.256359e+01 0 -1 0 -6.626911e-01 6.971707e-01 -2.691157e-01 -4.868580e-02
77 1 4 -1.845416e+01 6.794593e+00 1.211188e+01 0 -1 0 -3.325239e-01 6.139822e-01 5.188561e-01 -4.931958e-01
78 1 1 -1.849154e+01 6.928398e+00 1.155217e+01 0 -1 0 -3.533707e-01 -7.621612e-01 2.217816e-01 -4.950276e-01
79 1 4 -1.958046e+01 6.709627e+00 1.085544e+01 0 -1 0 -1.870033e-01 -6.052966e-01 5.575101e-01 5.364964e-01
80 1 2 -1.973260e+01 6.557222e+00 1.125173e+01 0 -1 0 5.137813e-01 -5.923429e-01 -4.741418e-01 4.004351e-01
81 1 4 2.008721e+01 5.527017e+00 1.155965e+01 -1 -1 0 -3.516862e-01 -1.164596e-02 -8.564786e-01 3.776580e-01
82 1 4 -1.959809e+01 5.902944e+00 1.110627e+01 0 -1 0 3.165376e-01 5.720352e-01 -7.795454e-02 7.526638e-01
83 1 4 -1.966169e+01 4.973000e+00 1.006125e+01 0 -1 0 -3.715828e-01 -7.345846e-01 5.477098e-01 1.494177e-01
84 1 4 -1.984602e+01 4.728197e+00 9.614070e+00 0 -1 0 -4.897552e-01 -4.642414e-01 7.378877e-01 1.189700e-02
85 1 1 1.973152e+01 4.506469e+00 9.515771e+00 -1 -1 0 -5.821202e-01 -5.749469e-01 5.729707e-01 4.771523e-02
86 1 1 1.969616e+01 4.059763e+00 9.360802e+00 -1 -1 0 3.661460e-01 3.683019e-01 -7.841356e-01 3.397384e-01
87 1 3 1.968114e+01 3.626951e+00 9.272043e+00 -1 -1 0 -9.670806e-02 1.504953e-01 8.810485e-01 -4.378952e-01
88 1 2 -1.893257e+01 3.689526e+00 9.646621e+00 0 -1 0 -7.685452e-01 -3.202445e-01 4.897914e-01 -2.586234e-01
89 1 2 -1.903679e+01 3.240821e+00 9.943302e+00 0 -1 0 7.201888e-01 1.729803e-01 -4.478116e-01 5.008698e-01
90 1 3 -1.854688e+01 2.754707e+00 1.030825e+01 0 -1 0 8.964874e-01 -4.317736e-01 3.652706e-02 9.245409e-02
91 1 3 -1.851762e+01 2.579938e+00 1.031291e+01 0 -1 0 -6.195527e-01 -1.796704e-01 -4.980642e-01 -5.794869e-01
92 1 2 -1.778846e+01 2.645243e+00 1.037994e+01 0 -1 0 5.573721e-01 7.718796e-01 1.335680e-01 -2.751322e-01
93 1 1 -1.708029e+01 1.742590e+00 1.079705e+01 0 -1 0 2.870005e-01 6.944756e-01 -6.208259e-01 -2.234042e-01
94 1 2 -1.805674e+01 1.434124e+00 1.016820e+01 0 -1 0 -1.156656e-02 -1.127422e-01 8.606750e-01 4.963808e-01
95 1 3 -1.819177e+01 1.774393e+00 9.515213e+00 0 -1 0 2.381404e-01 6.530481e-01 4.121825e-01 -5.890016e-01
96 1 2 -1.709632e+01 9.855124e-01 1.036273e+01 0 -1 0 -5.887038e-01 7.949779e-01 -1.410045e-01 3.944330e-02
97 1 2 -1.790919e+01 5.149622e-01 9.346051e+00 0 -1 0 1.666349e-01 -4.511547e-02 -6.369919e-01 -7.512914e-01
98 1 4 -1.733410e+01 -5.605542e-01 9.114903e+00 0 -1 0 -8.791289e-01 -1.016109e-01 -4.645872e-01 -3.108643e-02
99 1 2 -1.726292e+01 -4.433160e-01 1.019846e+01 0 -1 0 7.022232e-01 3.425371e-01 -1.542753e-01 6.047727e-01
100 1 1 -1.828692e+01 -6.737319e-01 9.671978e+00 0 -1 0 -3.647294e-01 2.360863e-01 -3.962248e-01 -8.088520e-01
101 2 4 -1.089608e+01 1.476936e+00 1.598344e+01 0 -1 0 -7.119217e-01 -1.237806e-01 5.930366e-01 3.551809e-01
102 2 3 -1.103635e+01 1.703371e+00 1.586203e+01 0 -1 0 3.524744e-01 -6.651328e-02 -1.645949e-01 9.188287e-01
103 2 1 -1.184205e+01 9.678514e-01 1.599172e+01 0 -1 0 -2.661365e-01 4.498516e-01 -5.074025e-01 6.850896e-01
104 2 3 -1.227532e+01 1.106110e+00 1.528404e+01 0 -1 0 2.576819e-01 7.744966e-01 4.526306e-01 3.589993e-01
105 2 3 -1.224497e+01 2.504204e-01 1.557302e+01 0 -1 0 1.086235e-01 2.049587e-01 5.230502e-01 -8.201288e-01
106 2 2 -1.266156e+01 -1.698446e-01 1.574457e+01 0 -1 0 -2.977165e-01 -4.324211e-01 -4.384987e-01 7.294490e-01
107 2 3 -1.302927e+01 -4.317975e-01 1.576714e+01 0 -1 0 5.672157e-01 6.147687e-01 1.947839e-01 -5.122354e-01
108 2 4 -1.272505e+01 -4.422650e-01 1.652796e+01 0 -1 0 5.504585e-01 7.062277e-01 2.399928e-01 3.750219e-01
109 2 3 -1.366650e+01 -6.650723e-01 1.766452e+01 0 -1 0 -4.236073e-01 2.063352e-01 3.703475e-02 8.812554e-01
110 2 2 -1.400163e+01 -6.791266e-02 1.731235e+01 0 -1 0 -4.937401e-01 3.023672e-02 -8.727645e-02 8.646903e-01
111 2 2 -1.466844e+01 7.872963e-02 1.714663e+01 0 -1 0 1.972235e-01 -5.262890e-01 -5.763667e-01 -5.932320e-01
112 2 3 -1.516426e+01 3.978042e-02 1.779251e+01 0 -1 0 -2.709101e-01 5.198256e-01 -2.062849e-01 7.834766e-01
113 2 3 -1.498857e+01 -9.595155e-01 1.783135e+01 0 -1 0 8.985578e-01 -4.127601e-01 -9.135523e-03 -1.487935e-01
114 2 2 -1.518840e+01 -1.534123e+00 1.739090e+01 0 -1 0 9.142266e-01 2.731622e-01 -2.091397e-01 2.140856e-01
115 2 4 -1.611611e+01 -4.434362e-01 1.785512e+01 0 -1 0 1.880878e-01 -8.969459e-01 -2.312604e-01 -3.265419e-01
116 2 4 -1.615438e+01 -5.442109e-01 1.775367e+01 0 -1 0 7.553138e-01 -2.985061e-01 2.415179e-01 -5.310973e-01
117 2 1 -1.635189e+01 4.479889e-01 1.744541e+01 0 -1 0 -5.385225e-01 1.792524e-01 7.019607e-01 -4.302479e-01
118 2 1 -1.595073e+01 8.505278e-01 1.681589e+01 0 -1 0 -7.834962e-01 6.130026e-01 -1.010386e-01 -1.235625e-02
119 2 1 -1.562326e+01 9.364595e-01 1.575054e+01 0 -1 0 -2.836623e-01 -9.562382e-01 -1.992243e-03 -7.169563e-02
120 2 1 -1.696527e+01 3.663989e-01 1.507131e+01 0 -1 0 -5.813031e-01 -3.158383e-01 -2.875293e-01 6.925748e-01
121 2 3 -1.666929e+01 7.944596e-01 1.491786e+01 0 -1 0 2.630900e-01 -1.701530e-01 -9.037929e-01 2.915304e-01
122 2 1 -1.615787e+01 1.576097e+00 1.381259e+01 0 -1 0 1.484355e-01 5.766244e-02 5.125480e-01 8.437633e-01
123 2 4 -1.603873e+01 2.094107e+00 1.370276e+01 0 -1 0 1.591512e-01 -2.796433e-01 -3.296602e-01 -8.875780e-01
124 2 1 -1.606926e+01 2.531783e+00 1.398915e+01 0 -1 0 5.498105e-01 -3.838131e-01 -8.510594e-02 -7.369890e-01
125 2 4 -1.623504e+01 3.422415e+00 1.338174e+01 0 -1 0 2.862324e-01 -8.250750e-01 -4.645146e-01 1.467938e-01
126 2 2 -1.652325e+01 3.783492e+00 1.327113e+01 0 -1 0 2.766929e-01 -9.140598e-01 -4.773905e-02 2.926717e-01
127 2 4 -1.732179e+01 4.363399e+00 1.297899e+01 0 -1 0 -4.975198e-01 -6.186059e-01 -3.064637e-01 -5.252436e-01
128 2 4 -1.679474e+01 4.491160e+00 1.278496e+01 0 -1 0 -2.912813e-01 -7.002644e-01 -2.308134e-01 -6.095163e-01
129 2 1 -1.629717e+01 4.724242e+00 1.258835e+01 0 -1 0 -2.069363e-02 -7.274240e-01 -3.822247e-02 -6.848103e-01
130 2 2 -1.585325e+01 4.957895e+00 1.254482e+01 0 -1 0 2.297597e-01 -6.409380e-01 -5.406492e-02 -7.304013e-01
131 2 3 -1.561219e+01 5.373864e+00 1.276126e+01 0 -1 0 4.550849e-01 -6.084065e-01 1.401829e-01 -6.348922e-01
132 2 4 -1.525736e+01 5.581358e+00 1.310124e+01 0 -1 0 -6.573030e-01 4.811899e-01 -3.013150e-01 4.955989e-01
133 2 4 -1.490659e+01 5.585414e+00 1.356344e+01 0 -1 0 -7.311139e-01 3.364335e-01 -4.320703e-01 4.069401e-01
134 2 3 -1.446063e+01 5.425832e+00 1.384831e+01 0 -1 0 -7.797803e-01 1.214554e-01 -5.545749e-01 2.638902e-01
135 2 4 -1.410161e+01 5.028199e+00 1.406456e+01 0 -1 0 7.800678e-01 9.996960e-02 6.108454e-01 9.147731e-02
136 2 3 -1.366323e+01 4.783169e+00 1.393438e+01 0 -1 0 7.114857e-01 3.343065e-01 4.978911e-01 3.662400e-01
137 2 1 -1.320258e+01 4.690367e+00 1.379656e+01 0 -1 0 -5.484649e-01 -4.424180e-01 -5.755969e-01 -4.148986e-01
138 2 3 -1.278756e+01 4.767434e+00 1.327696e+01 0 -1 0 -3.622798e-01 -6.611625e-01 -4.825692e-01 -4.458076e-01
139 2 2 -1.233862e+01 4.985143e+00 1.291153e+01 0 -1 0 -2.013776e-01 -7.030068e-01 -1.652583e-01 -6.617539e-01
140 2 3 -1.197681e+01 5.352170e+00 1.277723e+01 0 -1 0 9.540126e-02 -7.404441e-01 2.583787e-02 -6.648109e-01
141 2 1 -1.151496e+01 5.663215e+00 1.280094e+01 0 -1 0 3.248667e-01 -6.460522e-01 2.163399e-01 -6.559537e-01
142 2 2 -1.118180e+01 5.802023e+00 1.307516e+01 0 -1 0 5.762501e-01 -5.477234e-01 3.906861e-01 -4.640036e-01
143 2 4 -1.063123e+01 5.715107e+00 1.326646e+01 0 -1 0 -5.596260e-01 4.004727e-01 -5.760155e-01 4.411877e-01
144 2 4 -1.003900e+01 5.599835e+00 1.339027e+01 0 -1 0 5.575081e-01 -2.630157e-01 6.885619e-01 -3.819555e-01
145 2 1 -9.669965e+00 5.234243e+00 1.346268e+01 0 -1 0 -6.034244e-01 -5.434276e-02 -7.868546e-01 1.174128e-01
146 2 1 -9.349267e+00 4.790901e+00 1.327306e+01 0 -1 0 5.587605e-01 3.288471e-01 7.565800e-01 -8.504722e-02
147 2 1 -9.171913e+00 4.304583e+00 1.301097e+01 0 -1 0 -5.135968e-01 -5.080938e-01 -6.818293e-01 -1.147507e-01
148 2 2 -8.945650e+00 4.132263e+00 1.253683e+01 0 -1 0 4.136122e-01 6.990527e-01 4.915617e-01 3.140339e-01
149 2 4 -8.621489e+00 4.152891e+00 1.212263e+01 0 -1 0 -1.803789e-01 -8.406605e-01 -3.376002e-01 -3.831181e-01
150 2 1 -8.360658e+00 4.412033e+00 1.167872e+01 0 -1 0 -2.695125e-02 -8.547312e-01 -2.742679e-01 -4.398696e-01
151 2 1 -7.979511e+00 4.725783e+00 1.134117e+01 0 -1 0 1.142802e-01 -8.759942e-01 -5.778652e-03 -4.685519e-01
152 2 1 -7.567067e+00 5.096536e+00 1.136304e+01 0 -1 0 2.761319e-01 -8.432959e-01 2.393525e-01 -3.940985e-01
153 2 4 -7.072924e+00 5.361230e+00 1.131503e+01 0 -1 0 3.825613e-01 -6.983562e-01 4.446160e-01 -4.101977e-01
154 2 1 -6.587784e+00 5.420283e+00 1.145479e+01 0 -1 0 5.145013e-01 -5.045455e-01 6.286131e-01 -2.925198e-01
155 2 2 -6.096253e+00 5.209511e+00 1.167227e+01 0 -1 0 6.057606e-01 -2.536330e-01 7.347165e-01 -1.700471e-01
156 2 4 -5.574940e+00 5.083760e+00 1.159070e+01 0 -1 0 5.310041e-01 -6.468253e-02 8.405657e-01 -8.544095e-02
157 2 3 -5.173693e+00 4.838745e+00 1.141580e+01 0 -1 0 4.556966e-01 1.706693e-01 8.684215e-01 9.516652e-02
158 2 2 -4.813307e+00 4.672123e+00 1.109016e+01 0 -1 0 3.151787e-01 3.405948e-01 8.763131e-01 1.293556e-01
159 2 1 -4.820887e+00 4.593617e+00 1.048814e+01 0 -1 0 2.816664e-01 6.745301e-01 6.037485e-01 3.180581e-01
160 2 3 -3.723684e+00 4.135080e+00 1.058376e+01 0 -1 0 4.930691e-01 5.696770e-01 -6.390328e-01 -1.548809e-01
161 2 1 -3.258687e+00 5.141903e+00 1.054266e+01 0 -1 0 9.430843e-02 8.776859e-01 4.228043e-01 2.049631e-01
162 2 1 -3.271714e+00 3.817486e+00 9.892377e+00 0 -1 0 5.664657e-01 3.269386e-01 7.535312e-01 6.647180e-02
163 2 4 -3.342355e+00 2.778092e+00 1.014678e+01 0 -1 0 -5.087990e-01 -4.288866e-01 6.774926e-01 3.133429e-01
164 2 4 -3.819600e+00 3.024801e+00 1.027642e+01 0 -1 0 3.400719e-01 6.235401e-01 4.563742e-01 5.359771e-01
165 2 3 -3.504697e+00 2.202397e+00 1.048368e+01 0 -1 0 -5.601408e-01 -7.351837e-01 -1.611257e-01 3.461008e-01
166 2 3 -2.641555e+00 1.792091e+00 1.080575e+01 0 -1 0 -1.224218e-01 9.819939e-01 -1.438291e-01 -3.743204e-03
167 2 4 -2.894024e+00 1.612390e+00 9.939437e+00 0 -1 0 4.874704e-01 -6.404156e-01 1.892577e-01 5.625139e-01
168 2 2 -3.560709e+00 1.176038e+00 1.025036e+01 0 -1 0 -4.426344e-01 -8.868271e-01 3.969038e-02 1.266379e-01
169 2 2 -4.664043e+00 1.246031e+00 1.115121e+01 0 -1 0 1.619408e-01 -3.612672e-01 -4.080934e-01 8.226305e-01
170 2 1 -5.126920e+00 1.213958e+00 1.147609e+01 0 -1 0 -6.742534e-02 5.711030e-01 3.600466e-01 -7.346167e-01
171 2 1 -4.509355e+00 8.080292e-01 1.215889e+01 0 -1 0 -6.584342e-01 4.887627e-01 -5.714165e-01 3.253745e-02
172 2 4 -3.948043e+00 7.960046e-01 1.227321e+01 0 -1 0 7.006578e-01 -2.294380e-01 6.294119e-01 2.455147e-01
173 2 4 -3.489151e+00 6.981001e-01 1.228824e+01 0 -1 0 -6.785068e-01 -1.844159e-01 -5.081245e-01 -4.974221e-01
174 2 1 -2.996843e+00 7.710219e-01 1.209535e+01 0 -1 0 -4.350617e-01 -4.333549e-01 -3.978804e-01 -6.816275e-01
175 2 1 -3.018295e+00 -2.360045e-01 1.289460e+01 0 -1 0 -4.197010e-01 4.183654e-01 4.782979e-01 6.481147e-01
176 2 2 -2.167779e+00 -6.363893e-01 1.370012e+01 0 -1 0 -6.655205e-01 -3.708045e-01 5.995545e-01 -2.451955e-01
177 2 2 -1.886682e+00 -1.039736e+00 1.366609e+01 0 -1 0 4.735806e-01 6.521233e-01 -3.488773e-01 4.782691e-01
178 2 1 -1.475975e+00 -1.345636e+00 1.367018e+01 0 -1 0 -2.672014e-01 -3.871483e-01 6.791091e-01 -5.634984e-01
179 2 4 -1.110212e+00 -1.218985e-01 1.310951e+01 0 -1 0 3.865580e-01 2.645081e-01 3.677704e-01 8.033389e-01
180 2 1 -9.319673e-01 -9.352620e-01 1.421490e+01 0 -1 0 -6.113832e-01 6.089010e-01 4.756265e-01 -1.709664e-01
181 2 4 -4.709284e-01 -9.538950e-01 1.300474e+01 0 -1 0 5.552466e-01 5.651355e-01 5.628454e-01 -2.356443e-01
182 2 2 -8.703268e-02 -1.466412e-01 1.360268e+01 0 -1 0 -1.212119e-02 -3.917515e-01 -5.046265e-01 7.692437e-01
183 2 3 1.053845e+00 -3.429294e-01 1.290179e+01 0 -1 0 -2.414527e-01 -7.266377e-01 2.198288e-01 6.044614e-01
184 2 4 7.359101e-01 -1.877784e-01 1.257504e+01 0 -1 0 -4.401847e-01 -5.310727e-01 5.323901e-01 4.906730e-01
185 2 3 3.700542e-01 -2.042548e-01 1.227515e+01 0 -1 0 5.768736e-01 3.485259e-01 -6.492353e-01 -3.524771e-01
186 2 1 4.426120e-01 6.700668e-01 1.207792e+01 0 -1 0 -2.650734e-01 5.116723e-01 -7.483951e-01 -3.283783e-01
187 2 1 9.802570e-01 8.429323e-01 1.244699e+01 0 -1 0 8.382367e-02 -5.553788e-01 6.975774e-01 4.448750e-01
188 2 2 1.376102e+00 1.558162e+00 1.346961e+01 0 -1 0 -1.557327e-01 9.264073e-01 9.116600e-02 -3.304626e-01
189 2 4 1.175048e+00 1.946409e+00 1.323703e+01 0 -1 0 2.098883e-01 -8.756447e-01 2.795602e-01 3.332256e-01
190 2 4 7.792681e-01 1.954688e+00 1.345948e+01 0 -1 0 -7.668401e-01 4.810874e-01 -3.724898e-01 2.043590e-01
191 2 1 4.158164e-01 1.630762e+00 1.428286e+01 0 -1 0 1.394659e-01 2.866290e-01 -9.311638e-01 1.769945e-01
192 2 4 2.442779e-01 2.151780e+00 1.391392e+01 0 -1 0 -9.246236e-01 -2.156704e-01 1.468134e-01 -2.774947e-01
193 2 4 -6.640486e-01 1.905253e+00 1.417541e+01 0 -1 0 -3.984621e-01 -5.258577e-01 6.520905e-01 3.734696e-01
194 2 1 1.616630e-01 2.037281e+00 1.511707e+01 0 -1 0 -7.780689e-01 -1.697077e-01 3.702489e-01 -4.782509e-01
195 2 3 -4.183903e-01 1.866877e+00 1.538022e+01 0 -1 0 -2.867626e-01 -1.617940e-01 7.600664e-02 9.411763e-01
196 2 4 -8.688336e-01 2.116941e+00 1.562043e+01 0 -1 0 -6.904016e-01 -3.821321e-02 2.070720e-01 6.921030e-01
197 2 2 -1.271981e+00 1.999843e+00 1.597146e+01 0 -1 0 9.146335e-01 1.127423e-02 -2.555280e-01 -3.130877e-01
198 2 4 -8.368487e-01 3.036637e+00 1.689233e+01 0 -1 0 1.397552e-01 -7.372703e-01 3.280066e-01 -5.738578e-01
199 2 3 -1.169615e+00 3.915168e+00 1.636417e+01 0 -1 0 -3.081897e-02 7.045563e-01 1.140969e-01 6.997374e-01
200 2 4 -1.512207e+00 3.982200e+00 1.698817e+01 0 -1 0 4.476283e-02 6.373003e-01 -3.376093e-01 6.912775e-01
