ITEM: TIMESTEP
180000000
ITEM: NUMBER OF ATOMS
200
ITEM: BOX BOUNDS pp pp pp
-2.0000000000000000e+01 2.0000000000000000e+01
-2.0000000000000000e+01 2.0000000000000000e+01
-2.0000000000000000e+01 2.0000000000000000e+01
ITEM: ATOMS id mol type x y z ix iy iz c_quat[1] c_quat[2] c_quat[3] c_quat[4]
1 1 1 -8.074353e+00 1.056490e+01 -2.615536e+00 0 -1 0 9.805534e-01 -1.930103e-01 3.169713e-02 -1.604002e-02
2 1 2 -8.919238e+00 1.123721e+01 -1.978982e+00 0 -1 0 -6.053536e-01 3.097649e-01 1.989797e-01 7.056910e-01
3 1 1 -9.121303e+00 1.143806e+01 -1.662727e+00 0 -1 0 -8.382854e-01 4.299555e-01 1.140590e-01 3.152878e-01
4 1 3 -9.150067e+00 1.239418e+01 -1.740268e+00 0 -1 0 2.166618e-01 3.441161e-01 4.636541e-01 -7.871891e-01
5 1 1 -8.706314e+00 1.281000e+01 -1.385238e+00 0 -1 0 5.178496e-03 -1.367893e-01 7.799779e-01 -6.106524e-01
6 1 2 -9.045041e+00 1.300892e+01 -9.694027e-01 0 -1 0 -8.216113e-02 4.082030e-01 9.070740e-01 6.193955e-02
7 1 4 -8.178160e+00 1.300904e+01 -3.318160e-01 0 -1 0 6.729439e-01 -3.582427e-01 -4.095812e-02 -6.458569e-01
8 1 1 -6.832766e+00 1.378174e+01 -4.678279e-01 0 -1 0 7.384854e-01 -3.157565e-01 -3.007698e-02 5.950063e-01
9 1 1 -6.736429e+00 1.406252e+01 -3.938975e-02 0 -1 0 2.757777e-01 -2.805073e-01 3.779915e-02 9.186041e-01
10 1 4 -6.399254e+00 1.461494e+01 4.456667e-02 0 -1 0 -1.422165e-01 8.335573e-01 4.983804e-01 1.912424e-01
11 1 1 -5.845167e+00 1.428068e+01 -1.657511e-01 0 -1 0 -8.887990e-01 -5.955795e-02 -1.993740e-01 4.083371e-01
12 1 1 -5.105870e+00 1.412581e+01 4.270314e-02 0 -1 0 -8.712366e-01 -4.625049e-01 -1.532647e-01 -5.954865e-02
13 1 3 -4.838709e+00 1.367337e+01 1.356086e-01 0 -1 0 -7.965100e-01 -4.200183e-01 -4.284640e-02 -4.328055e-01
14 1 4 -5.681153e+00 1.333123e+01 4.968781e-01 0 -1 0 1.179355e-01 -9.651412e-02 5.454214e-01 8.241916e-01
15 1 4 -6.015847e+00 1.258740e+01 1.473362e+00 0 -1 0 5.845578e-01 1.113639e-01 1.158931e-01 -7.952730e-01
16 1 2 -6.297218e+00 1.232396e+01 1.789932e+00 0 -1 0 8.973642e-01 1.707398e-01 4.265189e-02 -4.046804e-01
17 1 1 -6.304827e+00 1.221059e+01 2.450291e+00 0 -1 0 -8.806829e-01 -3.252489e-01 -1.903221e-01 2.870335e-01
18 1 2 -5.539183e+00 1.243195e+01 3.654439e+00 0 -1 0 -4.856708e-01 -4.288013e-01 5.822759e-01 -4.911294e-01
19 1 3 -4.978871e+00 1.242559e+01 4.047309e+00 0 -1 0 -8.651916e-01 -2.518110e-01 1.540361e-01 -4.053488e-01
20 1 1 -4.929750e+00 1.261931e+01 3.466030e+00 0 -1 0 2.918217e-01 -3.137282e-01 -7.976280e-02 9.000292e-01
21 1 4 -4.514681e+00 1.124091e+01 4.081629e+00 0 -1 0 -4.150964e-01 -1.090620e-01 8.619723e-01 -2.698224e-01
22 1 1 -4.931157e+00 1.073994e+01 4.643219e+00 0 -1 0 -8.316789e-01 3.052985e-01 3.390826e-01 3.164270e-01
23 1 4 -5.659065e+00 1.149020e+01 4.891761e+00 0 -1 0 -7.241905e-02 -5.636569e-01 -5.212324e-01 -6.366814e-01
24 1 3 -4.783670e+00 1.115983e+01 5.314311e+00 0 -1 0 -9.593873e-01 1.209120e-01 -2.533147e-01 2.807032e-02
25 1 3 -4.680575e+00 1.221710e+01 6.001090e+00 0 -1 0 8.964597e-01 -2.700036e-01 -1.711665e-01 3.068552e-01
26 1 4 -4.721819e+00 1.253744e+01 6.567991e+00 0 -1 0 -7.316837e-01 4.568691e-01 -2.702686e-02 -5.051525e-01
27 1 4 -4.908773e+00 1.269004e+01 7.613572e+00 0 -1 0 -7.872206e-01 3.750211e-01 2.842907e-01 -3.985244e-01
28 1 1 -6.001050e+00 1.285690e+01 7.560946e+00 0 -1 0 1.847445e-01 2.252611e-01 4.052466e-01 8.665461e-01
29 1 1 -6.164870e+00 1.154964e+01 7.509051e+00 0 -1 0 -4.592554e-01 -3.754268e-01 4.199160e-01 6.868841e-01
30 1 4 -6.734517e+00 1.167196e+01 7.422995e+00 0 -1 0 -7.064467e-01 -1.477800e-01 4.193773e-01 5.506513e-01
31 1 4 -7.292844e+00 1.178643e+01 7.640231e+00 0 -1 0 5.971690e-01 3.952190e-01 -3.706916e-01 -5.914211e-01
32 1 3 -7.996481e+00 1.181544e+01 8.531757e+00 0 -1 0 4.573750e-01 -2.020821e-01 -7.871031e-01 3.611642e-01
33 1 3 -8.585366e+00 1.093659e+01 8.157926e+00 0 -1 0 1.132533e-01 1.608816e-01 -9.405543e-01 2.768544e-01
34 1 1 -9.057726e+00 1.114740e+01 7.693754e+00 0 -1 0 6.479289e-01 -3.689265e-01 -6.619421e-01 -7.690250e-02
35 1 2 -9.947977e+00 1.108734e+01 7.642129e+00 0 -1 0 -2.607063e-01 5.297891e-01 8.052743e-01 5.375073e-02
36 1 2 -1.032035e+01 1.132950e+01 7.288685e+00 0 -1 0 3.614682e-01 -8.333783e-01 -4.137554e-01 6.023121e-02
37 1 1 -9.931328e+00 1.146544e+01 6.733707e+00 0 -1 0 -2.144368e-01 6.660846e-01 1.647244e-01 6.951360e-01
38 1 1 -8.837353e+00 1.138518e+01 6.468045e+00 0 -1 0 2.453692e-03 -7.619966e-01 5.970825e-01 -2.506944e-01
39 1 4 -9.412564e+00 1.249861e+01 5.871199e+00 0 -1 0 6.262695e-02 2.570198e-01 3.033993e-01 -9.154057e-01
40 1 4 -9.684378e+00 1.249665e+01 6.260596e+00 0 -1 0 5.120592e-01 3.745382e-01 2.068610e-01 -7.447986e-01
41 1 2 -1.011950e+01 1.232571e+01 6.324705e+00 0 -1 0 -6.796220e-01 -4.984570e-01 6.928512e-02 5.337173e-01
42 1 4 -1.061445e+01 1.334085e+01 6.287579e+00 0 -1 0 3.989503e-01 6.913364e-01 3.246092e-01 -5.074658e-01
43 1 3 -1.099840e+01 1.306332e+01 6.137935e+00 0 -1 0 -5.699097e-01 -7.756940e-01 -1.168232e-01 2.446511e-01
44 1 2 -1.120849e+01 1.336533e+01 7.532535e+00 0 -1 0 2.512791e-01 -8.596647e-01 -4.321152e-01 1.054128e-01
45 1 1 -1.193690e+01 1.341437e+01 7.760834e+00 0 -1 0 4.771977e-01 -3.379370e-01 -4.254510e-01 6.907043e-01
46 1 3 -1.216360e+01 1.348710e+01 8.143893e+00 0 -1 0 -2.491824e-01 3.258779e-01 1.559752e-01 -8.985452e-01
47 1 4 -1.249201e+01 1.373738e+01 8.395693e+00 0 -1 0 7.400520e-02 3.707799e-01 -1.272118e-01 -9.169856e-01
48 1 1 -1.241634e+01 1.352209e+01 8.963986e+00 0 -1 0 7.417781e-01 2.228476e-01 6.285529e-01 7.089042e-02
49 1 4 -1.260822e+01 1.475376e+01 8.888140e+00 0 -1 0 -2.040707e-01 2.904431e-01 -1.639613e-01 -9.203883e-01
50 1 4 -1.280856e+01 1.524502e+01 9.065291e+00 0 -1 0 1.825747e-01 2.725704e-01 -3.215670e-01 -8.882379e-01
51 1 4 -1.322605e+01 1.555871e+01 9.136773e+00 0 -1 0 5.217116e-01 1.499629e-01 -3.807162e-01 -7.485876e-01
52 1 1 -1.372079e+01 1.571902e+01 9.406754e+00 0 -1 0 7.061209e-01 2.014111e-01 -3.133514e-01 -6.021941e-01
53 1 3 -1.416732e+01 1.559271e+01 9.510199e+00 0 -1 0 -8.013790e-01 -2.643581e-01 4.503753e-01 2.916653e-01
54 1 4 -1.465887e+01 1.524586e+01 9.677799e+00 0 -1 0 9.262723e-01 8.868689e-02 -3.612478e-01 -6.045042e-02
55 1 4 -1.487183e+01 1.482403e+01 9.995797e+00 0 -1 0 8.959590e-01 -2.615332e-02 -3.407190e-01 2.836970e-01
56 1 4 -1.509355e+01 1.463442e+01 1.055073e+01 0 -1 0 -8.700095e-01 5.258883e-02 1.810968e-01 -4.555457e-01
57 1 1 -1.494700e+01 1.453558e+01 1.105288e+01 0 -1 0 -6.410737e-01 1.631023e-01 1.611779e-01 -7.324233e-01
58 1 1 -1.504094e+01 1.462166e+01 1.148888e+01 0 -1 0 4.141513e-01 -2.317677e-01 -6.693276e-02 8.776574e-01
59 1 3 -1.510396e+01 1.499887e+01 1.192537e+01 0 -1 0 -1.550244e-01 2.665854e-01 -8.368605e-02 -9.475739e-01
60 1 4 -1.525881e+01 1.534259e+01 1.227111e+01 0 -1 0 1.125421e-01 3.006536e-01 -1.894522e-01 -9.279276e-01
61 1 2 -1.560776e+01 1.574452e+01 1.242662e+01 0 -1 0 2.067400e-01 3.603452e-01 -3.337254e-01 -8.461899e-01
62 1 3 -1.598164e+01 1.608007e+01 1.233191e+01 0 -1 0 -4.443500e-01 -2.860509e-01 4.912089e-01 6.924173e-01
63 1 2 -1.647645e+01 1.611527e+01 1.235412e+01 0 -1 0 7.089642e-01 1.556499e-01 -5.540411e-01 -4.076535e-01
64 1 4 -1.701581e+01 1.602563e+01 1.239180e+01 0 -1 0 -8.178719e-01 -4.299006e-02 5.219963e-01 2.382377e-01
65 1 2 -1.737516e+01 1.579188e+01 1.256056e+01 0 -1 0 -8.319877e-01 1.338595e-01 5.190142e-01 -1.431868e-01
66 1 1 -1.765425e+01 1.558450e+01 1.298445e+01 0 -1 0 5.981705e-01 -3.610970e-01 -4.239396e-01 5.762606e-01
67 1 2 -1.795397e+01 1.579148e+01 1.331068e+01 0 -1 0 2.084061e-01 -5.582145e-01 -1.771452e-01 7.833154e-01
68 1 1 -1.836240e+01 1.560841e+01 1.450411e+01 0 -1 0 1.570683e-01 -2.331456e-01 3.396703e-01 -8.975504e-01
69 1 1 -1.820628e+01 1.521957e+01 1.485943e+01 0 -1 0 -1.267497e-01 1.197252e-01 -3.878320e-01 9.050893e-01
70 1 2 -1.807896e+01 1.516973e+01 1.535282e+01 0 -1 0 4.142657e-01 -3.672537e-02 3.882066e-01 -8.223933e-01
71 1 3 -1.826727e+01 1.478756e+01 1.568521e+01 0 -1 0 7.793491e-01 7.360661e-02 3.726122e-01 -4.983545e-01
72 1 4 -1.797666e+01 1.442120e+01 1.600686e+01 0 -1 0 7.066324e-01 2.657003e-01 5.276375e-01 -3.894516e-01
73 1 1 -1.759694e+01 1.409707e+01 1.703056e+01 0 -1 0 3.255093e-01 -1.934838e-01 5.854576e-01 -7.168313e-01
74 1 1 -1.670756e+01 1.329309e+01 1.703932e+01 0 -1 0 -8.360571e-01 5.202785e-01 -7.123700e-02 1.588838e-01
75 1 3 -1.637592e+01 1.333339e+01 1.638914e+01 0 -1 0 -7.558922e-01 -5.434454e-02 -5.864456e-01 2.859288e-01
76 1 1 -1.497730e+01 1.386809e+01 1.666606e+01 0 -1 0 8.955095e-01 -1.860813e-01 -8.635316e-02 3.949425e-01
77 1 4 -1.519250e+01 1.348393e+01 1.681845e+01 0 -1 0 2.861825e-01 -2.329076e-01 3.357664e-01 -8.666687e-01
78 1 1 -1.443643e+01 1.364525e+01 1.576046e+01 0 -1 0 1.081504e-01 7.740430e-01 5.449722e-01 -3.035890e-01
79 1 4 -1.374154e+01 1.284324e+01 1.536003e+01 0 -1 0 -1.527548e-01 -9.403722e-01 -9.975986e-03 3.037540e-01
80 1 2 -1.464138e+01 1.261598e+01 1.629257e+01 0 -1 0 8.806070e-02 5.415067e-01 5.634995e-01 -6.176439e-01
81 1 4 -1.505257e+01 1.220708e+01 1.613904e+01 0 -1 0 5.036621e-02 7.231290e-01 4.301692e-01 -5.380540e-01
82 1 4 -1.520741e+01 1.149507e+01 1.702924e+01 0 -1 0 -2.121054e-01 -3.138992e-01 -7.255004e-01 5.745675e-01
83 1 4 -1.547956e+01 1.108765e+01 1.707695e+01 0 -1 0 4.959846e-01 5.509012e-01 4.898924e-01 -4.588164e-01
84 1 4 -1.567083e+01 1.053779e+01 1.696461e+01 0 -1 0 -4.231161e-01 -7.201655e-01 -3.763460e-01 4.008717e-01
85 1 1 -1.609866e+01 1.025977e+01 1.747622e+01 0 -1 0 2.058230e-02 6.383980e-01 5.349066e-02 7.675696e-01
86 1 1 -1.606974e+01 9.490635e+00 1.782089e+01 0 -1 0 -2.053277e-01 2.610220e-01 8.337004e-01 4.411936e-01
87 1 3 -1.564033e+01 8.900247e+00 1.787142e+01 0 -1 0 -9.009232e-01 1.112018e-01 2.704455e-01 -3.206723e-01
88 1 2 -1.575247e+01 8.910709e+00 1.839930e+01 0 -1 0 -8.794252e-01 1.160441e-01 1.496068e-01 -4.367640e-01
89 1 2 -1.574339e+01 8.966180e+00 1.900816e+01 0 -1 0 -6.762075e-01 3.197457e-01 7.900608e-02 -6.589872e-01
90 1 3 -1.584017e+01 9.245377e+00 1.956320e+01 0 -1 0 8.146373e-01 -4.160545e-01 -4.018347e-01 4.235184e-02
91 1 3 -1.608102e+01 9.445127e+00 1.998563e+01 0 -1 0 -7.561261e-01 5.387977e-01 1.175505e-01 -3.523525e-01
92 1 2 -1.620332e+01 9.849792e+00 -1.967312e+01 0 -1 1 5.088679e-01 -5.235611e-01 1.203618e-01 6.726443e-01
93 1 1 -1.736963e+01 9.630543e+00 -1.905435e+01 0 -1 1 -8.119228e-04 -3.764956e-01 -8.960107e-01 -2.354043e-01
94 1 2 -1.643747e+01 9.481309e+00 -1.900307e+01 0 -1 1 8.185240e-02 -1.115378e-01 8.900330e-01 4.343971e-01
95 1 3 -1.621176e+01 9.806369e+00 -1.836539e+01 0 -1 1 -6.537985e-01 -4.533690e-01 4.305118e-01 4.262202e-01
96 1 2 -1.657419e+01 1.049086e+01 -1.745351e+01 0 -1 1 -5.271618e-01 2.558190e-01 -4.368463e-01 6.825118e-01
97 1 2 -1.636144e+01 1.118859e+01 -1.753930e+01 0 -1 1 -6.490025e-01 6.147908e-01 -4.167725e-01 -1.647079e-01
98 1 4 -1.627771e+01 1.205697e+01 -1.731328e+01 0 -1 1 -3.634905e-01 5.467184e-03 -1.852081e-01 -9.129856e-01
99 1 2 -1.608228e+01 1.249382e+01 -1.699195e+01 0 -1 1 2.232249e-01 7.968037e-02 3.813126e-01 8.935449e-01
100 1 1 -1.582056e+01 1.210592e+01 -1.767497e+01 0 -1 1 6.533731e-01 2.050613e-01 6.432170e-01 -3.425278e-01
101 2 4 -1.526506e+01 -1.714340e+01 2.459752e+00 0 0 0 -6.802795e-01 2.353336e-01 5.621353e-01 -4.072368e-01
102 2 3 -1.483203e+01 -1.712954e+01 2.876526e+00 0 0 0 -3.642194e-01 8.632748e-01 3.411274e-01 7.571625e-02
103 2 1 -1.593277e+01 -1.776226e+01 2.757809e+00 0 0 0 5.796992e-01 2.817944e-01 5.912527e-01 -4.847277e-01
104 2 3 -1.668486e+01 -1.742877e+01 3.178215e+00 0 0 0 2.373700e-01 2.175397e-01 7.284313e-02 -9.439417e-01
105 2 3 -1.698515e+01 -1.732633e+01 3.448823e+00 0 0 0 -6.913869e-01 -1.545921e-01 5.676635e-02 7.034650e-01
106 2 2 -1.735726e+01 -1.755466e+01 3.718652e+00 0 0 0 9.273256e-01 1.486412e-01 -1.168045e-01 -3.230013e-01
107 2 3 -1.692871e+01 -1.713808e+01 4.737655e+00 0 0 0 -8.191216e-01 3.181206e-01 9.710087e-02 -4.673442e-01
108 2 4 -1.698328e+01 -1.695565e+01 5.158051e+00 0 0 0 -5.187847e-01 3.558651e-01 -7.443418e-02 -7.737454e-01
109 2 3 -1.738528e+01 -1.690108e+01 5.777057e+00 0 0 0 -5.709105e-04 1.727687e-01 -9.186744e-02 -9.806687e-01
110 2 2 -1.796541e+01 -1.691790e+01 6.054108e+00 0 0 0 -1.785795e-01 1.045036e-01 9.779088e-01 -2.971223e-02
111 2 2 -1.706235e+01 -1.719786e+01 6.529527e+00 0 0 0 -8.281944e-01 -4.381279e-01 3.378062e-01 -8.958252e-02
112 2 3 -1.701784e+01 -1.705732e+01 7.172832e+00 0 0 0 4.465202e-01 -6.107712e-01 -3.522930e-01 -5.508792e-01
113 2 3 -1.664012e+01 -1.696512e+01 7.574275e+00 0 0 0 4.477706e-01 -1.045985e-02 -8.907876e-01 7.674336e-02
114 2 2 -1.659270e+01 -1.574107e+01 8.015314e+00 0 0 0 -1.005843e-01 -7.220789e-02 4.500741e-01 -8.843654e-01
115 2 4 -1.653521e+01 -1.588877e+01 8.513337e+00 0 0 0 -3.221287e-01 -9.363702e-02 -4.781951e-01 8.116617e-01
116 2 4 -1.670101e+01 -1.630713e+01 8.914824e+00 0 0 0 4.495035e-01 2.820384e-01 4.337427e-01 -7.281952e-01
117 2 1 -1.577701e+01 -1.693320e+01 9.940848e+00 0 0 0 7.576443e-01 2.180603e-01 -5.980555e-01 1.440638e-01
118 2 1 -1.588709e+01 -1.736301e+01 1.009564e+01 0 0 0 -5.069172e-01 1.336281e-01 6.743365e-01 -5.200469e-01
119 2 1 -1.535576e+01 -1.836528e+01 9.820078e+00 0 0 0 6.091811e-01 -3.956102e-01 6.510300e-01 -2.203429e-01
120 2 1 -1.497289e+01 -1.760121e+01 8.704771e+00 0 0 0 -8.463486e-01 -2.928860e-01 -2.591446e-01 -3.616017e-01
121 2 3 -1.438657e+01 -1.803832e+01 9.341330e+00 0 0 0 3.267342e-01 6.670025e-01 -2.611309e-01 6.165737e-01
122 2 1 -1.389373e+01 -1.815630e+01 9.396190e+00 0 0 0 3.623861e-02 5.567207e-01 -4.673023e-01 6.858407e-01
123 2 4 -1.367742e+01 -1.885496e+01 8.923016e+00 0 0 0 -9.682338e-02 9.144643e-01 -3.413755e-01 1.945329e-01
124 2 1 -1.391961e+01 -1.953802e+01 9.514016e+00 0 0 0 4.713425e-01 -4.383729e-01 2.302296e-01 -7.298354e-01
125 2 4 -1.373781e+01 -1.946065e+01 9.939745e+00 0 0 0 7.323210e-01 -2.258340e-01 3.127079e-01 -5.611762e-01
126 2 2 -1.377584e+01 -1.961039e+01 1.042963e+01 0 0 0 -8.010286e-01 -2.095364e-01 3.604349e-01 4.295745e-01
127 2 4 -1.411888e+01 -1.982537e+01 1.074236e+01 0 0 0 9.177457e-01 -2.119292e-01 -3.358999e-01 2.410298e-04
128 2 4 -1.431557e+01 -1.993388e+01 1.115988e+01 0 0 0 8.255415e-01 -2.942325e-01 -2.535625e-01 4.094075e-01
129 2 1 -1.445150e+01 -1.973393e+01 1.162638e+01 0 0 0 -4.759326e-01 5.683226e-01 5.789455e-03 -6.711662e-01
130 2 2 -1.493522e+01 1.951896e+01 1.202198e+01 0 -1 0 -8.455730e-01 -5.167669e-01 7.662824e-02 1.099383e-01
131 2 3 -1.605914e+01 1.897283e+01 1.226723e+01 0 -1 0 -6.479447e-01 -3.207138e-01 -1.687180e-01 6.699586e-01
132 2 4 -1.616130e+01 1.841782e+01 1.272527e+01 0 -1 0 -8.303144e-01 -2.845942e-01 -2.061511e-01 4.325342e-01
133 2 4 -1.627157e+01 1.794021e+01 1.280730e+01 0 -1 0 9.192712e-01 3.899215e-01 3.014777e-02 -4.464013e-02
134 2 3 -1.598521e+01 1.740840e+01 1.308494e+01 0 -1 0 9.095201e-01 3.136831e-01 4.655592e-02 2.687166e-01
135 2 4 -1.711823e+01 1.654928e+01 1.338108e+01 0 -1 0 -2.731655e-01 3.114023e-01 -7.306395e-01 5.427478e-01
136 2 3 -1.683518e+01 1.607392e+01 1.349918e+01 0 -1 0 4.558632e-01 -3.427701e-02 8.033769e-01 -3.815750e-01
137 2 1 -1.671262e+01 1.548672e+01 1.346064e+01 0 -1 0 5.359116e-01 3.100892e-01 7.829735e-01 -5.996583e-02
138 2 3 -1.654427e+01 1.514193e+01 1.299216e+01 0 -1 0 4.906912e-01 5.281710e-01 6.823408e-01 1.211141e-01
139 2 2 -1.648228e+01 1.492951e+01 1.254381e+01 0 -1 0 3.184268e-01 7.476031e-01 5.672201e-01 1.339978e-01
140 2 3 -1.635729e+01 1.485096e+01 1.208629e+01 0 -1 0 -1.927906e-01 -8.652104e-01 -4.137740e-01 -2.074461e-01
141 2 1 -1.626659e+01 1.498977e+01 1.167836e+01 0 -1 0 -4.521578e-02 -9.568396e-01 -1.144501e-01 -2.632768e-01
142 2 2 -1.606236e+01 1.520349e+01 1.127100e+01 0 -1 0 1.237654e-01 -9.338406e-01 4.721229e-02 -3.322571e-01
143 2 4 -1.571554e+01 1.549799e+01 1.113723e+01 0 -1 0 -2.603182e-01 8.544082e-01 -3.432350e-01 2.905352e-01
144 2 4 -1.515372e+01 1.568673e+01 1.092807e+01 0 -1 0 2.992385e-01 -7.369279e-01 4.645963e-01 -3.892863e-01
145 2 1 -1.461840e+01 1.568399e+01 1.088439e+01 0 -1 0 -3.350161e-01 5.232884e-01 -7.534441e-01 2.150709e-01
146 2 1 -1.419283e+01 1.547940e+01 1.066124e+01 0 -1 0 3.573661e-01 -2.301718e-01 8.934314e-01 -1.452264e-01
147 2 1 -1.382190e+01 1.520280e+01 1.056319e+01 0 -1 0 -3.734387e-01 -1.039198e-02 -9.269846e-01 3.369118e-02
148 2 2 -1.367244e+01 1.484684e+01 1.026670e+01 0 -1 0 4.080609e-01 4.101649e-01 8.155015e-01 1.443447e-02
149 2 4 -1.357680e+01 1.455939e+01 9.814920e+00 0 -1 0 -3.051027e-01 -6.084523e-01 -7.305304e-01 -5.498614e-02
150 2 1 -1.374961e+01 1.442353e+01 9.263227e+00 0 -1 0 -1.666139e-01 -7.887812e-01 -5.881630e-01 -6.425199e-02
151 2 1 -1.375434e+01 1.453516e+01 8.743457e+00 0 -1 0 -2.090396e-01 -9.124606e-01 -2.585653e-01 -2.384577e-01
152 2 1 -1.348500e+01 1.469670e+01 8.318236e+00 0 -1 0 -1.823738e-02 -9.215045e-01 8.977499e-02 -3.774088e-01
153 2 4 -1.307172e+01 1.483359e+01 8.220841e+00 0 -1 0 2.474748e-01 -7.595079e-01 5.381930e-01 -2.687977e-01
154 2 1 -1.255600e+01 1.480761e+01 8.124149e+00 0 -1 0 3.137431e-01 -3.885548e-01 8.618915e-01 -8.794018e-02
155 2 2 -1.153520e+01 1.544441e+01 7.933716e+00 0 -1 0 -5.131080e-01 7.100161e-01 -4.220210e-01 -2.334428e-01
156 2 4 -1.112907e+01 1.577055e+01 7.807263e+00 0 -1 0 4.070159e-01 -4.758614e-01 6.574594e-01 4.190956e-01
157 2 3 -1.087612e+01 1.602885e+01 7.491049e+00 0 -1 0 1.500661e-01 5.615715e-03 7.949306e-01 5.878214e-01
158 2 2 -1.093990e+01 1.642442e+01 8.180921e+00 0 -1 0 -4.973805e-01 -3.184835e-01 -8.031174e-01 -7.863447e-02
159 2 1 -1.032738e+01 1.664068e+01 9.260006e+00 0 -1 0 8.363903e-02 4.612562e-02 -2.161413e-01 9.716789e-01
160 2 3 -1.040799e+01 1.728222e+01 9.488784e+00 0 -1 0 1.358178e-01 7.753491e-01 4.827628e-01 3.838326e-01
161 2 1 -1.021631e+01 1.769494e+01 9.102544e+00 0 -1 0 1.382493e-01 -8.589287e-01 -2.338784e-01 -4.340848e-01
162 2 1 -9.236403e+00 1.743505e+01 8.587763e+00 0 -1 0 5.527559e-01 -2.948060e-01 3.086023e-01 7.157618e-01
163 2 4 -9.103799e+00 1.790582e+01 8.777948e+00 0 -1 0 -3.704916e-01 1.444824e-01 -5.184392e-01 -7.570215e-01
164 2 4 -8.582519e+00 1.772339e+01 1.014197e+01 0 -1 0 5.011740e-01 1.555118e-01 -3.258520e-01 7.864230e-01
165 2 3 -8.462670e+00 1.755792e+01 1.058117e+01 0 -1 0 9.965322e-02 6.014097e-02 -3.307783e-01 9.365031e-01
166 2 3 -7.737366e+00 1.622091e+01 1.034608e+01 0 -1 0 5.868676e-01 6.182700e-01 -5.021528e-01 -1.455028e-01
167 2 4 -8.003886e+00 1.597052e+01 1.055946e+01 0 -1 0 4.455247e-01 8.556087e-01 -1.190586e-01 -2.350884e-01
168 2 2 -8.839362e+00 1.547619e+01 1.148486e+01 0 -1 0 2.656878e-02 -1.679901e-01 -8.725105e-01 -4.580380e-01
169 2 2 -8.616963e+00 1.654463e+01 1.241166e+01 0 -1 0 8.923901e-02 -7.383886e-01 -1.094301e-01 -6.594268e-01
170 2 1 -7.892727e+00 1.575347e+01 1.282771e+01 0 -1 0 -8.988473e-01 -1.961310e-01 2.487368e-01 -3.028797e-01
171 2 1 -7.766261e+00 1.542601e+01 1.362323e+01 0 -1 0 -7.537782e-01 1.764353e-01 5.925793e-01 -2.225731e-01
172 2 4 -7.404863e+00 1.504522e+01 1.339248e+01 0 -1 0 -5.997845e-01 7.623419e-02 6.101218e-01 -5.120529e-01
173 2 4 -8.081187e+00 1.446611e+01 1.295882e+01 0 -1 0 -4.425221e-02 -5.940489e-01 -7.671806e-01 2.378689e-01
174 2 1 -7.746414e+00 1.397333e+01 1.305457e+01 0 -1 0 6.127252e-01 6.828407e-01 3.500642e-01 1.890805e-01
175 2 1 -7.454537e+00 1.379139e+01 1.273181e+01 0 -1 0 -5.527581e-01 -7.198057e-01 1.120943e-01 -4.046890e-01
176 2 2 -7.039288e+00 1.345932e+01 1.267361e+01 0 -1 0 -3.727646e-01 -4.652162e-01 4.298745e-01 -6.781065e-01
177 2 2 -6.711676e+00 1.312289e+01 1.287382e+01 0 -1 0 -1.227167e-01 -2.487338e-01 6.404659e-01 -7.161533e-01
178 2 1 -6.683414e+00 1.267449e+01 1.324028e+01 0 -1 0 1.670222e-01 1.334039e-01 7.006112e-01 -6.807723e-01
179 2 4 -5.216782e+00 1.266053e+01 1.276244e+01 0 -1 0 6.327185e-01 -6.601769e-01 1.157323e-01 3.878656e-01
180 2 1 -4.996849e+00 1.312701e+01 1.290655e+01 0 -1 0 -5.004978e-01 4.769048e-01 -4.564903e-01 -5.600718e-01
181 2 4 -4.823532e+00 1.359874e+01 1.297908e+01 0 -1 0 2.479570e-01 -3.018843e-01 6.078953e-01 6.912645e-01
182 2 2 -4.435443e+00 1.343782e+01 1.465110e+01 0 -1 0 -8.281431e-01 4.231951e-01 3.587640e-01 7.983318e-02
183 2 3 -4.322614e+00 1.341481e+01 1.511150e+01 0 -1 0 -5.919632e-01 2.645954e-01 4.301327e-01 -6.281359e-01
184 2 4 -3.557223e+00 1.305104e+01 1.512281e+01 0 -1 0 -6.039845e-01 5.096502e-01 -3.488051e-01 -5.037802e-01
185 2 3 -4.110611e+00 1.298639e+01 1.571274e+01 0 -1 0 -7.038509e-01 -1.423329e-01 -2.817830e-01 -6.363440e-01
186 2 1 -4.783395e+00 1.165426e+01 1.642654e+01 0 -1 0 -4.102733e-01 9.770402e-02 9.023622e-01 8.872541e-02
187 2 1 -4.183825e+00 1.224723e+01 1.687361e+01 0 -1 0 6.359063e-01 -5.705342e-01 1.359669e-01 5.016244e-01
188 2 2 -4.141208e+00 1.170393e+01 1.705255e+01 0 -1 0 -2.833538e-01 3.599830e-01 -6.323762e-01 -6.246784e-01
189 2 4 -4.371762e+00 1.225796e+01 1.806204e+01 0 -1 0 -7.009619e-02 -9.694440e-01 -2.110505e-01 1.035497e-01
190 2 4 -4.526838e+00 1.238686e+01 1.742991e+01 0 -1 0 -3.440426e-01 -8.995707e-01 1.718427e-01 2.070685e-01
191 2 1 -5.483553e+00 1.263093e+01 1.831066e+01 0 -1 0 5.869758e-02 5.945251e-01 4.753434e-01 -6.458662e-01
192 2 4 -5.934269e+00 1.239858e+01 1.822945e+01 0 -1 0 -4.664978e-02 -7.208685e-01 -3.138963e-01 6.161505e-01
193 2 4 -6.526900e+00 1.225370e+01 1.823521e+01 0 -1 0 -1.594166e-01 -8.178684e-01 -1.537447e-01 5.310746e-01
194 2 1 -7.335618e+00 1.232038e+01 1.843932e+01 0 -1 0 4.018566e-01 1.811184e-01 8.477860e-01 2.949006e-01
195 2 3 -7.065187e+00 1.264406e+01 1.845312e+01 0 -1 0 -4.254334e-01 5.582535e-01 -6.968373e-01 -1.475713e-01
196 2 4 -6.915749e+00 1.355751e+01 1.880341e+01 0 -1 0 -1.282586e-01 -7.842954e-01 1.794816e-01 5.798420e-01
197 2 2 -6.965417e+00 1.343908e+01 -1.986917e+01 0 -1 1 -7.590606e-01 3.737914e-01 -1.603599e-01 5.083225e-01
198 2 4 -7.228902e+00 1.373149e+01 -1.960527e+01 0 -1 1 -4.281960e-02 4.779718e-01 3.730644e-01 -7.940607e-01
199 2 3 -5.803411e+00 1.338502e+01 -1.910908e+01 0 -1 1 -7.649045e-01 -5.281723e-01 2.402081e-01 -2.797414e-01
200 2 4 -5.676299e+00 1.337072e+01 -1.873360e+01 0 -1 1 -2.157592e-01 -8.692180e-01 3.214206e-01 3.075661e-01
