ITEM: TIMESTEP
111000000
ITEM: NUMBER OF ATOMS
200
ITEM: BOX BOUNDS pp pp pp
-2.0000000000000000e+01 2.0000000000000000e+01
-2.0000000000000000e+01 2.0000000000000000e+01
-2.0000000000000000e+01 2.0000000000000000e+01
ITEM: ATOMS id mol type x y z ix iy iz c_quat[1] c_quat[2] c_quat[3] c_quat[4]
1 1 1 8.646349e+00 1.125514e+01 -1.630273e+01 0 -1 1 3.336565e-01 6.780209e-01 -5.210656e-01 -3.968017e-01
2 1 2 7.752194e+00 1.109210e+01 -1.626810e+01 0 -1 1 3.932855e-02 4.895206e-01 6.538247e-01 -5.756180e-01
3 1 1 7.285818e+00 1.080016e+01 -1.638285e+01 0 -1 1 -3.750181e-01 -7.574985e-01 -3.867960e-01 3.687090e-01
4 1 3 6.897942e+00 1.068149e+01 -1.701752e+01 0 -1 1 -6.853517e-01 -4.789194e-01 -2.517431e-01 4.873958e-01
5 1 1 6.710215e+00 1.027578e+01 -1.698537e+01 0 -1 1 8.561483e-01 4.995102e-01 8.525540e-02 -1.011493e-01
6 1 2 6.854996e+00 9.768156e+00 -1.710232e+01 0 -1 1 8.284472e-01 5.025856e-01 -1.823258e-01 1.668539e-01
7 1 4 7.060083e+00 9.368452e+00 -1.708572e+01 0 -1 1 -6.115701e-01 -5.085431e-01 3.869575e-01 -4.665081e-01
8 1 1 6.348716e+00 1.012040e+01 -1.801934e+01 0 -1 1 2.006123e-01 -7.991615e-01 -1.582149e-01 5.441172e-01
9 1 1 6.667336e+00 9.556835e+00 -1.848159e+01 0 -1 1 8.131322e-01 -5.531887e-01 1.701232e-01 -6.209973e-02
10 1 4 6.399797e+00 9.683595e+00 -1.982007e+01 0 -1 1 1.316877e-01 8.559137e-01 -2.271173e-01 -4.455198e-01
11 1 1 6.055330e+00 1.025543e+01 -1.978680e+01 0 -1 1 2.133002e-01 -9.568188e-01 1.019307e-01 1.691479e-01
12 1 1 4.698546e+00 9.544328e+00 1.970516e+01 0 -1 0 4.738944e-01 4.482642e-01 -4.667891e-01 -5.971526e-01
13 1 3 4.193343e+00 9.436382e+00 1.957234e+01 0 -1 0 -7.246422e-01 -1.678417e-01 5.458959e-01 3.856431e-01
14 1 4 3.695974e+00 9.321384e+00 1.968465e+01 0 -1 0 -8.149258e-01 2.308550e-01 5.268005e-01 7.129666e-02
15 1 4 2.841081e+00 1.022343e+01 1.946668e+01 0 -1 0 3.554561e-01 -6.985285e-01 -1.780464e-01 -5.949860e-01
16 1 2 2.598016e+00 1.016905e+01 1.809329e+01 0 -1 0 7.586686e-01 9.449122e-02 5.465119e-01 3.417866e-01
17 1 1 1.850470e+00 1.033190e+01 1.838303e+01 0 -1 0 3.929974e-01 -7.860317e-01 -2.710575e-01 -3.927277e-01
18 1 2 1.739384e+00 1.077549e+01 1.831348e+01 0 -1 0 4.371949e-01 -8.923435e-01 5.268865e-02 -9.903309e-02
19 1 3 1.594354e+00 1.012509e+01 1.748598e+01 0 -1 0 3.949571e-01 2.849346e-01 -8.595794e-01 1.547397e-01
20 1 1 1.423385e+00 9.765063e+00 1.733169e+01 0 -1 0 2.547186e-01 -1.335699e-01 -9.183103e-01 2.719995e-01
21 1 4 9.488534e-01 9.569491e+00 1.738290e+01 0 -1 0 2.800631e-01 -5.035309e-01 -6.845105e-01 4.466170e-01
22 1 1 4.783226e-01 9.557596e+00 1.749992e+01 0 -1 0 -2.890775e-01 5.999057e-01 3.807720e-01 -6.415295e-01
23 1 4 2.644909e-02 9.659344e+00 1.748358e+01 0 -1 0 -1.302046e-02 -1.604804e-01 7.119660e-01 -6.835064e-01
24 1 3 -6.113535e-01 8.909421e+00 1.704598e+01 0 -1 0 -1.646531e-01 -1.089162e-01 9.362890e-01 2.904989e-01
25 1 3 -8.147595e-01 8.871797e+00 1.661384e+01 0 -1 0 1.684414e-01 -3.622348e-01 -9.116924e-01 -9.607498e-02
26 1 4 -1.142647e+00 8.694906e+00 1.626545e+01 0 -1 0 1.734177e-01 -6.451711e-01 -7.440568e-01 -7.748150e-03
27 1 4 -1.147945e+00 7.800545e+00 1.580560e+01 0 -1 0 -9.475184e-02 -1.302908e-01 2.298489e-01 9.597999e-01
28 1 1 -1.204052e+00 7.153851e+00 1.606615e+01 0 -1 0 3.130884e-01 1.636147e-01 7.446327e-01 5.663286e-01
29 1 1 -1.160911e+00 6.766057e+00 1.733900e+01 0 -1 0 -1.857350e-01 4.500011e-01 8.309149e-01 -2.694102e-01
30 1 4 -1.111377e+00 5.985323e+00 1.748616e+01 0 -1 0 -4.653193e-01 5.998045e-01 6.229968e-01 1.886468e-01
31 1 4 -1.457450e+00 6.370103e+00 1.747909e+01 0 -1 0 6.234585e-01 -6.678254e-01 -4.017804e-01 -6.229959e-02
32 1 3 -2.304790e+00 6.114763e+00 1.655481e+01 0 -1 0 9.364720e-02 5.522248e-01 5.709571e-01 6.002383e-01
33 1 3 -1.571708e+00 5.324021e+00 1.560169e+01 0 -1 0 7.568235e-01 5.920469e-01 -3.587365e-02 -2.746120e-01
34 1 1 -1.706952e+00 4.884269e+00 1.538655e+01 0 -1 0 -7.240710e-01 -5.621979e-01 3.933545e-01 -7.019223e-02
35 1 2 -2.484541e+00 5.400520e+00 1.511069e+01 0 -1 0 -6.903189e-01 1.282802e-02 -6.635881e-01 2.880038e-01
36 1 2 -2.694962e+00 6.208071e+00 1.487721e+01 0 -1 0 5.955890e-02 5.557800e-01 2.932668e-02 8.286744e-01
37 1 1 -3.173915e+00 5.368704e+00 1.449529e+01 0 -1 0 6.286327e-01 -1.567066e-01 -7.394593e-01 1.829316e-01
38 1 1 -3.641076e+00 5.159512e+00 1.450345e+01 0 -1 0 -5.517868e-01 4.569097e-01 6.270041e-01 -3.059914e-01
39 1 4 -4.068504e+00 5.091975e+00 1.474071e+01 0 -1 0 4.734323e-01 -5.420546e-01 -4.923002e-01 4.895704e-01
40 1 4 -4.548211e+00 5.235173e+00 1.492056e+01 0 -1 0 3.918310e-01 -6.399393e-01 -3.003870e-01 5.888241e-01
41 1 2 -4.880683e+00 5.597381e+00 1.505616e+01 0 -1 0 2.051863e-01 -6.978148e-01 -1.362732e-02 6.861249e-01
42 1 4 -5.186791e+00 5.998732e+00 1.501642e+01 0 -1 0 -1.454686e-01 -6.663911e-01 2.005200e-01 7.032449e-01
43 1 3 -5.484819e+00 6.262341e+00 1.476048e+01 0 -1 0 -2.368663e-01 -5.657413e-01 5.376639e-01 5.785747e-01
44 1 2 -5.817885e+00 6.397672e+00 1.429355e+01 0 -1 0 -4.366203e-01 -4.338421e-01 6.293806e-01 4.743668e-01
45 1 1 -6.224586e+00 6.373561e+00 1.394229e+01 0 -1 0 -5.359521e-01 -3.179802e-01 7.509363e-01 2.184917e-01
46 1 3 -6.652070e+00 6.192999e+00 1.366738e+01 0 -1 0 -6.082286e-01 -2.028381e-01 7.674078e-01 2.109232e-05
47 1 4 -7.046213e+00 5.941034e+00 1.355793e+01 0 -1 0 -6.052769e-01 -1.203293e-01 7.334413e-01 -2.849993e-01
48 1 1 -7.382888e+00 5.571127e+00 1.362910e+01 0 -1 0 5.487465e-01 -2.176365e-01 -6.773647e-01 4.389631e-01
49 1 4 -7.977947e+00 5.399754e+00 1.386436e+01 0 -1 0 5.290877e-01 -4.676002e-01 -5.620727e-01 4.306861e-01
50 1 4 -8.394789e+00 5.424023e+00 1.420106e+01 0 -1 0 4.116470e-01 -5.842971e-01 -3.590697e-01 6.001771e-01
51 1 4 -8.795317e+00 5.548284e+00 1.439348e+01 0 -1 0 3.737644e-01 -6.415964e-01 -1.198343e-01 6.590098e-01
52 1 1 -9.125262e+00 5.975999e+00 1.450858e+01 0 -1 0 7.027314e-02 -6.986331e-01 1.192313e-01 7.019668e-01
53 1 3 -9.574012e+00 6.268133e+00 1.430623e+01 0 -1 0 1.029372e-01 7.474488e-01 -2.497347e-01 -6.069240e-01
54 1 4 -9.818997e+00 6.519143e+00 1.400018e+01 0 -1 0 -3.385312e-01 -5.681082e-01 5.017546e-01 5.575769e-01
55 1 4 -1.022392e+01 6.504731e+00 1.360164e+01 0 -1 0 -4.935776e-01 -4.803388e-01 6.554766e-01 3.098488e-01
56 1 4 -1.055004e+01 6.311972e+00 1.313148e+01 0 -1 0 5.466997e-01 2.984937e-01 -7.745342e-01 -1.100805e-01
57 1 1 -1.089106e+01 5.994053e+00 1.290668e+01 0 -1 0 5.820340e-01 8.384475e-02 -7.962395e-01 1.421589e-01
58 1 1 -1.134353e+01 5.573460e+00 1.292129e+01 0 -1 0 -5.932516e-01 2.276546e-01 7.217577e-01 -2.743934e-01
59 1 3 -1.171284e+01 5.252102e+00 1.319780e+01 0 -1 0 5.063852e-01 -3.516499e-01 -6.136003e-01 4.933671e-01
60 1 4 -1.214098e+01 5.151366e+00 1.341272e+01 0 -1 0 4.343276e-01 -4.921399e-01 -4.173695e-01 6.284588e-01
61 1 2 -1.241602e+01 5.229906e+00 1.375765e+01 0 -1 0 2.249785e-01 -5.322056e-01 -1.983084e-01 7.917169e-01
62 1 3 -1.290742e+01 5.458136e+00 1.393486e+01 0 -1 0 1.466509e-01 -6.116718e-01 -1.762266e-02 7.772005e-01
63 1 2 -1.329205e+01 5.820801e+00 1.400063e+01 0 -1 0 -1.313629e-02 -6.185826e-01 1.936463e-01 7.613698e-01
64 1 4 -1.363856e+01 6.211782e+00 1.376151e+01 0 -1 0 -2.529621e-01 -4.977535e-01 4.387417e-01 7.041003e-01
65 1 2 -1.408465e+01 6.481425e+00 1.341370e+01 0 -1 0 -4.884378e-01 -3.522119e-01 5.082127e-01 6.157071e-01
66 1 1 -1.454363e+01 6.563860e+00 1.319647e+01 0 -1 0 -6.291412e-01 -1.320837e-01 6.581086e-01 3.919544e-01
67 1 2 -1.503872e+01 6.489900e+00 1.302870e+01 0 -1 0 -7.366136e-01 -7.388057e-02 6.548393e-01 1.520776e-01
68 1 1 -1.551621e+01 6.216982e+00 1.313064e+01 0 -1 0 -7.522336e-01 1.951972e-01 6.284235e-01 -3.356364e-02
69 1 1 -1.597882e+01 5.992116e+00 1.339952e+01 0 -1 0 -7.526822e-01 3.114108e-01 5.175353e-01 -2.620116e-01
70 1 2 -1.624189e+01 5.982272e+00 1.385108e+01 0 -1 0 6.163241e-01 -4.521202e-01 -3.461333e-01 5.439886e-01
71 1 3 -1.681449e+01 6.467287e+00 1.426537e+01 0 -1 0 3.758620e-01 -1.296255e-01 -2.017847e-01 8.951022e-01
72 1 4 -1.684318e+01 6.563724e+00 1.467854e+01 0 -1 0 -2.934174e-01 -4.664290e-02 -2.744298e-01 9.145594e-01
73 1 1 -1.709910e+01 6.385220e+00 1.515496e+01 0 -1 0 -6.353646e-01 -2.184728e-01 -2.334424e-01 7.029125e-01
74 1 1 -1.605809e+01 6.612796e+00 1.568891e+01 0 -1 0 -4.176839e-01 5.706279e-01 -6.549135e-01 -2.664812e-01
75 1 3 -1.568199e+01 7.552423e+00 1.614944e+01 0 -1 0 4.738859e-01 -6.985157e-01 3.806014e-01 3.776912e-01
76 1 1 -1.656900e+01 7.748376e+00 1.723647e+01 0 -1 0 6.048671e-01 5.591066e-02 -6.547225e-01 4.498315e-01
77 1 4 -1.733588e+01 7.993035e+00 1.734475e+01 0 -1 0 -7.071648e-02 3.443403e-01 -7.596900e-01 5.470832e-01
78 1 1 -1.720103e+01 8.202666e+00 1.794774e+01 0 -1 0 -8.077523e-01 2.876407e-02 4.266011e-01 -4.058575e-01
79 1 4 -1.831073e+01 8.600711e+00 1.721151e+01 0 -1 0 2.318246e-01 7.227446e-01 4.306826e-01 4.882725e-01
80 1 2 -1.802114e+01 8.891555e+00 1.686498e+01 0 -1 0 -6.692299e-03 -8.308092e-01 -1.417633e-01 -5.381583e-01
81 1 4 -1.884147e+01 8.809574e+00 1.666458e+01 0 -1 0 2.173356e-01 -5.994760e-02 -9.655513e-01 1.299318e-01
82 1 4 -1.806247e+01 1.003500e+01 1.598896e+01 0 -1 0 -2.066066e-01 8.902926e-01 -1.254319e-01 -3.859528e-01
83 1 4 -1.827468e+01 1.035684e+01 1.570672e+01 0 -1 0 -3.971276e-02 -8.406073e-01 4.019367e-01 3.609005e-01
84 1 4 -1.895852e+01 1.023747e+01 1.505247e+01 0 -1 0 2.084026e-01 2.993635e-01 9.305541e-01 -3.192013e-02
85 1 1 -1.847038e+01 1.117847e+01 1.573895e+01 0 -1 0 -2.190681e-01 5.136430e-01 3.190099e-01 7.657759e-01
86 1 1 -1.807876e+01 1.171756e+01 1.583400e+01 0 -1 0 2.268407e-01 -3.539464e-01 -3.639365e-01 -8.311531e-01
87 1 3 -1.802575e+01 1.216550e+01 1.608935e+01 0 -1 0 4.659618e-01 -3.539989e-01 -2.933213e-01 -7.559940e-01
88 1 2 -1.777522e+01 1.253488e+01 1.630030e+01 0 -1 0 8.007074e-01 -2.216631e-01 1.569395e-01 -5.339506e-01
89 1 2 -1.757286e+01 1.250179e+01 1.678070e+01 0 -1 0 8.934865e-01 -6.448775e-02 2.550350e-01 -3.639785e-01
90 1 3 -1.742264e+01 1.211000e+01 1.712151e+01 0 -1 0 9.610692e-01 5.958153e-02 2.529846e-01 9.378108e-02
91 1 3 -1.706830e+01 1.188128e+01 1.753058e+01 0 -1 0 -8.613573e-01 -5.174387e-02 -2.051202e-01 -4.618570e-01
92 1 2 -1.671258e+01 1.179003e+01 1.769083e+01 0 -1 0 6.436257e-01 1.379639e-01 4.246733e-02 7.516039e-01
93 1 1 -1.737861e+01 1.047478e+01 1.758034e+01 0 -1 0 4.947730e-01 1.332990e-01 8.108315e-01 2.828131e-01
94 1 2 -1.712876e+01 1.044468e+01 1.865811e+01 0 -1 0 -3.393107e-01 3.892103e-01 8.143560e-01 2.649676e-01
95 1 3 -1.635048e+01 1.061797e+01 1.841210e+01 0 -1 0 4.064018e-01 2.267466e-01 4.517606e-01 -7.611412e-01
96 1 2 -1.511745e+01 1.037962e+01 1.851103e+01 0 -1 0 4.338610e-01 -2.660917e-01 8.590369e-01 5.491325e-02
97 1 2 -1.485668e+01 1.012418e+01 1.827554e+01 0 -1 0 -4.568541e-01 -1.768802e-01 -8.683976e-01 -7.670291e-02
98 1 4 -1.423154e+01 1.036124e+01 1.874653e+01 0 -1 0 -5.219968e-01 -1.200672e-01 5.994457e-01 5.947840e-01
99 1 2 -1.480467e+01 1.127980e+01 1.957024e+01 0 -1 0 1.903463e-01 -3.864901e-01 -2.940594e-01 -8.531839e-01
100 1 1 -1.462747e+01 1.159797e+01 1.989193e+01 0 -1 0 4.940091e-01 -3.370426e-01 -1.611961e-01 -7.850943e-01
101 2 4 -1.450354e+01 1.650050e+01 7.261425e+00 0 -1 0 9.447814e-03 -5.155209e-01 -2.110521e-01 -8.304251e-01
102 2 3 -1.436842e+01 1.501401e+01 7.052732e+00 0 -1 0 -6.739031e-01 -5.233503e-01 4.021294e-01 3.320407e-01
103 2 1 -1.479962e+01 1.465751e+01 7.015363e+00 0 -1 0 6.718416e-01 6.046890e-01 -4.107305e-01 -1.195011e-01
104 2 3 -1.498249e+01 1.438102e+01 7.162046e+00 0 -1 0 -1.805401e-01 -6.834587e-01 5.071802e-01 -4.930089e-01
105 2 3 -1.538408e+01 1.400137e+01 7.789915e+00 0 -1 0 4.409008e-01 -2.485737e-01 3.995150e-01 -7.643333e-01
106 2 2 -1.426633e+01 1.372412e+01 8.266868e+00 0 -1 0 -5.775740e-01 7.190489e-01 -3.704371e-01 1.102424e-01
107 2 3 -1.422277e+01 1.304068e+01 8.378548e+00 0 -1 0 -2.841388e-02 3.544623e-01 -9.083948e-01 2.199274e-01
108 2 4 -1.416042e+01 1.273259e+01 8.238346e+00 0 -1 0 4.317737e-01 -7.560823e-01 3.971047e-01 2.902050e-01
109 2 3 -1.544403e+01 1.324481e+01 8.176120e+00 0 -1 0 2.999820e-01 -2.245789e-01 -4.268099e-01 8.230483e-01
110 2 2 -1.608957e+01 1.306604e+01 8.403538e+00 0 -1 0 -3.721898e-01 3.413781e-01 2.830981e-01 -8.153473e-01
111 2 2 -1.643809e+01 1.238856e+01 8.559562e+00 0 -1 0 -3.647531e-02 -2.840509e-01 4.948637e-01 8.204234e-01
112 2 3 -1.661083e+01 1.287624e+01 8.495114e+00 0 -1 0 -3.554515e-01 -1.601024e-01 5.982649e-01 7.000718e-01
113 2 3 -1.699929e+01 1.346759e+01 9.116545e+00 0 -1 0 -3.053454e-01 -7.562626e-01 -3.071051e-01 -4.904258e-01
114 2 2 -1.675597e+01 1.241583e+01 1.021610e+01 0 -1 0 6.380528e-01 -6.418454e-01 2.449670e-01 -3.477272e-01
115 2 4 -1.649881e+01 1.259695e+01 1.051399e+01 0 -1 0 -8.021479e-01 4.163108e-01 -4.149126e-01 1.053169e-01
116 2 4 -1.604196e+01 1.254799e+01 1.081079e+01 0 -1 0 -8.492105e-01 1.539858e-01 -4.927927e-01 -1.108384e-01
117 2 1 -1.567951e+01 1.238526e+01 1.095178e+01 0 -1 0 -8.053201e-01 -1.994351e-01 -4.190621e-01 -3.688795e-01
118 2 1 -1.516546e+01 1.228035e+01 1.116165e+01 0 -1 0 -6.806314e-01 -1.932492e-01 -5.774301e-01 -4.073943e-01
119 2 1 -1.572632e+01 1.108378e+01 1.197497e+01 0 -1 0 -5.702876e-01 1.486178e-01 -5.516780e-01 5.902001e-01
120 2 1 -1.526813e+01 1.141785e+01 1.237330e+01 0 -1 0 -9.202909e-01 -2.139162e-01 -1.846470e-01 -2.705736e-01
121 2 3 -1.608745e+01 1.148218e+01 1.317583e+01 0 -1 0 -7.697101e-01 5.173006e-01 1.781354e-01 -3.289593e-01
122 2 1 -1.692592e+01 1.096177e+01 1.389338e+01 0 -1 0 5.612698e-01 -6.056210e-01 -1.700063e-02 -5.638355e-01
123 2 4 -1.714501e+01 1.016302e+01 1.281710e+01 0 -1 0 8.550030e-01 2.844177e-01 3.371542e-01 -2.727701e-01
124 2 1 -1.709372e+01 9.323390e+00 1.305739e+01 0 -1 0 -1.791331e-02 -4.557285e-01 8.449692e-01 -2.793166e-01
125 2 4 -1.694672e+01 8.982048e+00 1.274653e+01 0 -1 0 1.298875e-02 8.736454e-02 -9.553234e-01 2.820567e-01
126 2 2 -1.603637e+01 9.165873e+00 1.276972e+01 0 -1 0 7.946352e-01 1.924226e-01 4.198432e-01 3.940307e-01
127 2 4 -1.668866e+01 9.275300e+00 1.407425e+01 0 -1 0 8.249993e-01 -4.618935e-01 -3.211447e-01 5.382025e-02
128 2 4 -1.645224e+01 8.511899e+00 1.357347e+01 0 -1 0 -3.950092e-03 8.935778e-01 -4.470101e-01 -4.105023e-02
129 2 1 -1.697701e+01 8.257291e+00 1.354445e+01 0 -1 0 -8.870358e-02 2.953289e-01 6.649381e-01 -6.802719e-01
130 2 2 -1.616931e+01 7.406066e+00 1.314809e+01 0 -1 0 -4.540451e-01 3.483506e-01 -5.607561e-01 5.983707e-01
131 2 3 -1.600151e+01 7.120250e+00 1.391970e+01 0 -1 0 -4.273751e-01 4.528583e-01 -6.046324e-01 4.966785e-01
132 2 4 -1.561256e+01 6.938723e+00 1.412989e+01 0 -1 0 5.616556e-01 -2.211332e-01 7.004606e-01 -3.807862e-01
133 2 4 -1.538081e+01 6.601423e+00 1.421702e+01 0 -1 0 7.114583e-01 7.356839e-02 6.668984e-01 -2.089528e-01
134 2 3 -1.500076e+01 6.152667e+00 1.423723e+01 0 -1 0 6.510748e-01 3.119044e-01 6.871915e-01 -8.114868e-02
135 2 4 -1.472787e+01 5.677271e+00 1.406137e+01 0 -1 0 -5.676620e-01 -4.973441e-01 -6.511079e-01 -8.041907e-02
136 2 3 -1.444770e+01 5.364886e+00 1.363808e+01 0 -1 0 -5.475740e-01 -5.938204e-01 -5.277090e-01 -2.627989e-01
137 2 1 -1.408438e+01 5.283936e+00 1.323111e+01 0 -1 0 3.928140e-01 7.576480e-01 2.651353e-01 4.487426e-01
138 2 3 -1.364964e+01 5.388383e+00 1.291459e+01 0 -1 0 1.598908e-01 7.919671e-01 9.508610e-02 5.815339e-01
139 2 2 -1.313188e+01 5.647576e+00 1.282789e+01 0 -1 0 -7.785958e-02 7.569556e-01 6.636845e-02 6.454079e-01
140 2 3 -1.274157e+01 5.900143e+00 1.276545e+01 0 -1 0 -3.239575e-01 6.916397e-01 -8.941270e-02 6.392898e-01
141 2 1 -1.239996e+01 6.233572e+00 1.315482e+01 0 -1 0 -5.135393e-01 6.163672e-01 -3.397341e-01 4.908662e-01
142 2 2 -1.204947e+01 6.379342e+00 1.356025e+01 0 -1 0 -7.224863e-01 3.966598e-01 -4.455359e-01 3.495316e-01
143 2 4 -1.158766e+01 6.279399e+00 1.385158e+01 0 -1 0 7.540542e-01 -1.367559e-01 5.742180e-01 -2.880516e-01
144 2 4 -1.121273e+01 5.965302e+00 1.407614e+01 0 -1 0 -7.732872e-01 -9.998918e-02 -6.243717e-01 4.678648e-02
145 2 1 -1.082274e+01 5.619439e+00 1.408404e+01 0 -1 0 7.287468e-01 3.001855e-01 5.871028e-01 1.847350e-01
146 2 1 -1.035135e+01 5.359002e+00 1.397777e+01 0 -1 0 -5.954378e-01 -4.437900e-01 -5.413200e-01 -3.943058e-01
147 2 1 -9.935181e+00 5.415903e+00 1.364635e+01 0 -1 0 3.762858e-01 6.036540e-01 4.760839e-01 5.170638e-01
148 2 2 -9.534184e+00 5.556670e+00 1.340591e+01 0 -1 0 -1.482228e-01 -6.877492e-01 -3.299807e-01 -6.293996e-01
149 2 4 -9.125715e+00 5.985027e+00 1.330262e+01 0 -1 0 -4.183116e-02 7.103582e-01 -1.596175e-02 7.024149e-01
150 2 1 -8.730456e+00 6.262156e+00 1.344383e+01 0 -1 0 -2.321554e-01 6.627809e-01 -1.618425e-01 6.932765e-01
151 2 1 -8.379072e+00 6.550457e+00 1.362254e+01 0 -1 0 -4.516423e-01 5.563625e-01 -3.018280e-01 6.287924e-01
152 2 1 -7.972430e+00 6.617310e+00 1.401635e+01 0 -1 0 -5.790757e-01 3.731841e-01 -4.210485e-01 5.900196e-01
153 2 4 -7.712705e+00 6.486156e+00 1.444326e+01 0 -1 0 -7.789853e-01 1.579879e-01 -4.845121e-01 3.653352e-01
154 2 1 -7.329400e+00 6.208623e+00 1.468156e+01 0 -1 0 -7.871694e-01 -5.930767e-02 -5.990294e-01 1.342038e-01
155 2 2 -6.807794e+00 5.883822e+00 1.481649e+01 0 -1 0 -7.132753e-01 -1.287621e-01 -6.886803e-01 1.944507e-02
156 2 4 -6.539705e+00 5.477983e+00 1.464595e+01 0 -1 0 -6.922632e-01 -4.081470e-01 -5.431844e-01 -2.431838e-01
157 2 3 -6.088297e+00 5.244879e+00 1.440101e+01 0 -1 0 -5.526213e-01 -5.436862e-01 -4.637307e-01 -4.289159e-01
158 2 2 -5.693864e+00 5.347243e+00 1.407668e+01 0 -1 0 -2.883455e-01 -7.242301e-01 -2.506680e-01 -5.740323e-01
159 2 1 -5.217166e+00 5.507439e+00 1.388352e+01 0 -1 0 -1.344126e-01 -6.850865e-01 -2.179497e-01 -6.819733e-01
160 2 3 -4.722191e+00 5.780918e+00 1.393094e+01 0 -1 0 -3.886220e-02 5.827080e-01 9.167937e-02 8.065581e-01
161 2 1 -4.419060e+00 6.150250e+00 1.416151e+01 0 -1 0 -3.818842e-01 5.697059e-01 -1.644640e-01 7.089085e-01
162 2 1 -4.096483e+00 6.319904e+00 1.455333e+01 0 -1 0 5.529476e-01 -4.549561e-01 3.883470e-01 -5.800436e-01
163 2 4 -3.642664e+00 6.283105e+00 1.491962e+01 0 -1 0 6.578976e-01 -2.703069e-01 5.387162e-01 -4.515416e-01
164 2 4 -3.419153e+00 5.974993e+00 1.522777e+01 0 -1 0 -8.339876e-01 7.189020e-02 -5.445150e-01 5.291456e-02
165 2 3 -4.371155e+00 6.546194e+00 1.637907e+01 0 -1 0 3.568357e-01 -5.103342e-01 -7.594401e-01 1.883562e-01
166 2 3 -4.087989e+00 6.424105e+00 1.669266e+01 0 -1 0 -4.197502e-01 -1.653045e-01 8.789098e-01 1.549251e-01
167 2 4 -4.176356e+00 7.103612e+00 1.751315e+01 0 -1 0 -6.555149e-01 2.457364e-01 -5.801268e-02 7.117222e-01
168 2 2 -4.182660e+00 7.176791e+00 1.801594e+01 0 -1 0 -8.893857e-01 1.920104e-01 -1.957014e-01 3.658224e-01
169 2 2 -4.132018e+00 8.223820e+00 1.762679e+01 0 -1 0 -3.337686e-01 -3.067109e-01 7.795302e-02 8.879472e-01
170 2 1 -4.627421e+00 8.320763e+00 1.793941e+01 0 -1 0 -5.918581e-01 -3.164866e-01 2.209067e-01 7.076302e-01
171 2 1 -5.319256e+00 9.340379e+00 1.849156e+01 0 -1 0 1.086071e-01 3.543026e-01 5.257685e-01 -7.656642e-01
172 2 4 -5.488147e+00 8.775422e+00 1.874249e+01 0 -1 0 -5.618878e-02 3.059236e-01 6.096952e-01 -7.290578e-01
173 2 4 -5.845965e+00 8.450268e+00 1.897016e+01 0 -1 0 2.773564e-01 5.570013e-01 5.197447e-01 -5.853959e-01
174 2 1 -4.994199e+00 7.345103e+00 1.885287e+01 0 -1 0 6.126900e-01 5.148903e-01 -2.383533e-01 -5.501696e-01
175 2 1 -4.943468e+00 7.010813e+00 1.959114e+01 0 -1 0 5.685735e-01 4.111540e-01 -1.960580e-01 -6.850094e-01
176 2 2 -5.497213e+00 6.854825e+00 1.965587e+01 0 -1 0 7.905081e-01 3.401503e-01 -2.642264e-01 -4.354068e-01
177 2 2 -5.824933e+00 6.399909e+00 1.986653e+01 0 -1 0 -9.259308e-01 -2.703908e-01 2.207165e-01 1.443091e-01
178 2 1 -5.969398e+00 5.996776e+00 -1.986736e+01 0 -1 1 9.274679e-01 2.689820e-01 -2.334654e-01 1.137799e-01
179 2 4 -6.095825e+00 5.317298e+00 -1.980399e+01 0 -1 1 -6.554091e-01 1.638138e-03 6.866054e-01 3.146574e-01
180 2 1 -5.399612e+00 5.273682e+00 -1.916941e+01 0 -1 1 3.244313e-01 2.122940e-01 -6.862760e-01 6.153867e-01
181 2 4 -5.286888e+00 4.940611e+00 -1.886910e+01 0 -1 1 5.679329e-02 9.056676e-02 7.266318e-01 -6.786593e-01
182 2 2 -4.163465e+00 5.661267e+00 -1.987104e+01 0 -1 1 -6.732991e-01 -3.511510e-01 -1.285592e-01 -6.378353e-01
183 2 3 -3.734835e+00 5.625041e+00 -1.975467e+01 0 -1 1 -4.038599e-01 -3.689542e-01 7.169132e-02 -8.340446e-01
184 2 4 -3.419200e+00 5.613509e+00 -1.933732e+01 0 -1 1 1.341115e-01 2.346810e-01 -1.210326e-01 9.551387e-01
185 2 3 -2.684871e+00 4.948255e+00 -1.947866e+01 0 -1 1 1.711245e-01 7.599900e-01 -1.644060e-01 -6.050639e-01
186 2 1 -3.198665e+00 4.575850e+00 -1.849390e+01 0 -1 1 1.175270e-01 -4.803072e-01 -6.067515e-01 -6.223706e-01
187 2 1 -2.714242e+00 4.100739e+00 -1.870127e+01 0 -1 1 -1.407668e-01 -1.992704e-01 3.750666e-01 -8.943160e-01
188 2 2 -3.402848e+00 3.399417e+00 -1.963455e+01 0 -1 1 -6.511234e-01 -3.035945e-01 -6.699084e-01 1.873271e-01
189 2 4 -3.225435e+00 3.000812e+00 -1.807023e+01 0 -1 1 5.248292e-01 -4.778721e-01 1.968755e-01 -6.763376e-01
190 2 4 -2.952134e+00 3.107288e+00 -1.761199e+01 0 -1 1 7.102004e-01 -3.263116e-01 4.600133e-01 -4.213358e-01
191 2 1 -3.311979e+00 3.401932e+00 -1.700361e+01 0 -1 1 1.937657e-01 -6.656867e-01 6.068704e-01 -3.886186e-01
192 2 4 -4.017051e+00 3.593852e+00 -1.660132e+01 0 -1 1 -1.476547e-01 3.194176e-01 3.829591e-01 8.541152e-01
193 2 4 -3.258990e+00 3.047868e+00 -1.673767e+01 0 -1 1 -3.623243e-01 -5.193661e-02 6.663269e-01 6.496400e-01
194 2 1 -2.634691e+00 2.306748e+00 -1.611267e+01 0 -1 1 -6.842394e-01 5.448606e-01 -9.483120e-02 4.753425e-01
195 2 3 -2.939682e+00 2.035539e+00 -1.582444e+01 0 -1 1 -8.014267e-01 5.938192e-01 -5.274734e-04 7.137059e-02
196 2 4 -3.274119e+00 1.826043e+00 -1.636281e+01 0 -1 1 -7.651728e-01 -4.512219e-01 2.640977e-01 -3.757151e-01
197 2 2 -3.006868e+00 1.372043e+00 -1.621180e+01 0 -1 1 -6.177470e-01 -3.442257e-01 3.346420e-01 -6.228259e-01
198 2 4 -3.541826e+00 7.152220e-01 -1.717955e+01 0 -1 1 1.654405e-01 4.834232e-01 8.521699e-01 -1.128628e-01
199 2 3 -3.297663e+00 4.425294e-02 -1.642936e+01 0 -1 1 -4.058479e-01 6.573331e-01 6.275434e-01 -9.690199e-02
200 2 4 -3.140386e+00 -7.867913e-01 -1.651493e+01 0 -1 1 -1.345714e-01 -6.354638e-01 6.526788e-01 3.899831e-01
