ITEM: TIMESTEP
154000000
ITEM: NUMBER OF ATOMS
200
ITEM: BOX BOUNDS pp pp pp
-2.0000000000000000e+01 2.0000000000000000e+01
-2.0000000000000000e+01 2.0000000000000000e+01
-2.0000000000000000e+01 2.0000000000000000e+01
ITEM: ATOMS id mol type x y z ix iy iz c_quat[1] c_quat[2] c_quat[3] c_quat[4]
1 1 1 -1.115614e+01 2.472022e+00 2.242782e+00 0 -1 0 -6.019156e-01 -4.361270e-01 -6.251503e-01 -2.380712e-01
2 1 2 -1.085268e+01 2.186703e+00 1.915991e+00 0 -1 0 -5.398056e-01 -6.466810e-01 -3.547251e-01 -4.056892e-01
3 1 1 -1.059600e+01 1.829096e+00 2.250331e+00 0 -1 0 4.690655e-01 6.212911e-01 3.856286e-01 -4.952430e-01
4 1 3 -9.108104e+00 1.885918e+00 2.849914e+00 0 -1 0 -9.272757e-01 -1.146080e-01 -8.788984e-02 -3.453985e-01
5 1 1 -9.757798e+00 1.775793e+00 3.726282e+00 0 -1 0 -7.693384e-01 1.078673e-02 3.645029e-01 5.245376e-01
6 1 2 -1.019435e+01 1.928340e+00 3.969475e+00 0 -1 0 8.579767e-01 5.190687e-02 -3.472625e-01 -3.749540e-01
7 1 4 -1.051268e+01 1.700061e+00 4.345044e+00 0 -1 0 -9.634772e-01 -2.178607e-02 2.666631e-01 1.130697e-02
8 1 1 -1.060445e+01 1.458882e+00 4.654172e+00 0 -1 0 8.148501e-01 -1.031603e-01 -3.110145e-01 4.781708e-01
9 1 1 -1.060583e+01 1.161273e+00 5.141279e+00 0 -1 0 6.027418e-01 -9.376232e-02 -2.898649e-01 7.374885e-01
10 1 4 -1.044703e+01 4.163213e-01 5.730057e+00 0 -1 0 -6.310785e-01 -4.379220e-01 6.402616e-01 5.415169e-03
11 1 1 -1.057652e+01 -1.069569e-01 5.692502e+00 0 -1 0 5.407866e-01 3.369569e-02 -7.654299e-01 3.471765e-01
12 1 1 -1.021798e+01 -5.158927e-01 4.603718e+00 0 -1 0 -6.471195e-01 -2.464175e-01 4.154836e-01 5.898205e-01
13 1 3 -8.864737e+00 -1.480914e-01 4.876432e+00 0 -1 0 4.721059e-01 5.249640e-01 -6.134734e-01 3.538068e-01
14 1 4 -8.775014e+00 -5.795629e-01 4.985068e+00 0 -1 0 -2.545996e-01 -9.510528e-02 8.017562e-01 -5.322791e-01
15 1 4 -7.591069e+00 -1.211275e-01 4.375880e+00 0 -1 0 -7.598850e-01 -2.420626e-01 -4.371148e-01 -4.158258e-01
16 1 2 -7.591060e+00 -6.692110e-01 5.663155e+00 0 -1 0 -1.125488e-01 -3.184541e-01 9.198597e-01 -1.994438e-01
17 1 1 -8.367398e+00 -1.442519e-01 5.223676e+00 0 -1 0 -6.061171e-01 -5.440589e-01 -5.738954e-01 -8.524117e-02
18 1 2 -7.930511e+00 -2.639615e-01 6.167361e+00 0 -1 0 4.587298e-01 -3.812453e-01 8.023725e-01 2.043136e-02
19 1 3 -7.145461e+00 2.779877e-01 6.126359e+00 0 -1 0 -5.485815e-01 9.518856e-03 -1.160599e-01 -8.279479e-01
20 1 1 -7.315846e+00 5.024196e-01 7.107020e+00 0 -1 0 1.704358e-01 -9.750363e-01 -1.182985e-01 -7.912885e-02
21 1 4 -7.148348e+00 8.547474e-01 6.895220e+00 0 -1 0 -2.535496e-01 -4.537267e-01 -6.537477e-01 -5.499624e-01
22 1 1 -7.477591e+00 1.064765e+00 8.184526e+00 0 -1 0 -1.200260e-01 -7.406533e-02 4.794186e-01 -8.661789e-01
23 1 4 -6.837510e+00 1.010191e+00 7.999339e+00 0 -1 0 7.715546e-01 -7.076329e-04 6.274717e-01 1.047959e-01
24 1 3 -6.703912e+00 1.311642e+00 9.496855e+00 0 -1 0 -7.573661e-01 5.769904e-01 1.641032e-01 2.579706e-01
25 1 3 -5.959785e+00 1.600797e+00 9.736871e+00 0 -1 0 -2.641245e-01 8.774100e-01 -3.678612e-01 -1.583290e-01
26 1 4 -5.880656e+00 1.887809e+00 9.327994e+00 0 -1 0 9.137136e-02 -7.788124e-01 6.151236e-01 8.200861e-02
27 1 4 -5.558330e+00 2.161180e+00 8.606856e+00 0 -1 0 -6.839261e-01 -6.819721e-01 2.463785e-01 -8.035383e-02
28 1 1 -5.553015e+00 2.242219e+00 8.570909e+00 0 -1 0 8.015627e-01 2.953353e-01 1.779457e-01 -4.884769e-01
29 1 1 -5.742717e+00 3.132660e+00 8.592767e+00 0 -1 0 3.569437e-01 -5.953243e-01 -2.265238e-01 -6.832767e-01
30 1 4 -5.400258e+00 3.534620e+00 8.867819e+00 0 -1 0 4.860569e-01 -5.566506e-01 1.766887e-01 -6.501307e-01
31 1 4 -4.541500e+00 3.523284e+00 8.823346e+00 0 -1 0 3.220887e-01 3.667337e-01 -8.523439e-01 1.878167e-01
32 1 3 -4.971156e+00 4.240749e+00 9.498620e+00 0 -1 0 8.253402e-01 -4.114390e-01 -3.018883e-01 -2.416505e-01
33 1 3 -5.147227e+00 5.460561e+00 8.899531e+00 0 -1 0 2.046308e-01 -6.721086e-01 -6.623212e-01 2.602440e-01
34 1 1 -4.532350e+00 5.784866e+00 7.925963e+00 0 -1 0 -1.840852e-01 -5.870154e-01 1.649389e-01 7.709220e-01
35 1 2 -4.830344e+00 6.119012e+00 7.759069e+00 0 -1 0 4.593997e-01 3.502311e-01 -5.050291e-01 -6.412766e-01
36 1 2 -5.319028e+00 6.120706e+00 7.639336e+00 0 -1 0 7.143445e-01 -1.987404e-02 -5.899103e-01 -3.759292e-01
37 1 1 -5.767039e+00 6.022519e+00 7.646759e+00 0 -1 0 -7.619164e-01 1.930904e-01 6.180533e-01 1.447508e-02
38 1 1 -6.353273e+00 6.069222e+00 7.789054e+00 0 -1 0 -7.949972e-01 3.856494e-01 4.485460e-01 -1.343891e-01
39 1 4 -6.612572e+00 6.129012e+00 8.205718e+00 0 -1 0 -6.774758e-01 4.920318e-01 2.570299e-01 -4.825629e-01
40 1 4 -6.576186e+00 6.721495e+00 8.223062e+00 0 -1 0 1.324769e-01 9.685095e-01 5.724324e-03 -2.107285e-01
41 1 2 -7.207851e+00 7.359325e+00 8.327516e+00 0 -1 0 4.450833e-01 -6.768012e-01 -5.043837e-01 2.990618e-01
42 1 4 -7.726780e+00 7.598985e+00 8.329058e+00 0 -1 0 -4.517510e-01 7.808659e-01 3.176356e-01 -2.920224e-01
43 1 3 -7.965776e+00 8.071433e+00 8.424902e+00 0 -1 0 -3.010406e-01 7.957528e-01 -1.389165e-03 -5.254998e-01
44 1 2 -8.126269e+00 8.582608e+00 8.437794e+00 0 -1 0 -9.958580e-02 7.266321e-01 -2.681305e-01 -6.246555e-01
45 1 1 -8.358732e+00 9.004874e+00 8.198384e+00 0 -1 0 8.473396e-02 6.726879e-01 -4.984976e-01 -5.401957e-01
46 1 3 -8.491343e+00 9.348389e+00 7.741245e+00 0 -1 0 -1.903628e-01 -5.953109e-01 6.329912e-01 4.568250e-01
47 1 4 -8.599421e+00 9.413415e+00 7.133107e+00 0 -1 0 -3.354458e-01 -3.778446e-01 8.099199e-01 2.978914e-01
48 1 1 -8.864201e+00 9.314851e+00 6.716663e+00 0 -1 0 4.798449e-01 4.408450e-02 -8.479882e-01 -2.207292e-01
49 1 4 -9.401835e+00 9.276061e+00 6.473976e+00 0 -1 0 5.831394e-01 -1.386303e-01 -7.957336e-01 -8.682177e-02
50 1 4 -1.000369e+01 9.342488e+00 6.403812e+00 0 -1 0 6.584784e-01 -3.778652e-01 -6.447843e-01 8.875416e-02
51 1 4 -1.047092e+01 9.362085e+00 6.481008e+00 0 -1 0 7.065627e-01 -4.591305e-01 -4.598181e-01 2.802421e-01
52 1 1 -1.080190e+01 9.482720e+00 6.920550e+00 0 -1 0 5.469121e-01 -5.650462e-01 -3.540097e-01 5.062481e-01
53 1 3 -1.116513e+01 9.680215e+00 7.265111e+00 0 -1 0 -4.082625e-01 6.074105e-01 1.063643e-01 -6.730980e-01
54 1 4 -1.131865e+01 1.003299e+01 7.505119e+00 0 -1 0 2.532307e-01 -5.823956e-01 1.160973e-01 7.636825e-01
55 1 4 -1.156129e+01 1.050572e+01 7.539168e+00 0 -1 0 7.924170e-02 -5.871544e-01 2.934403e-01 7.502421e-01
56 1 4 -1.175652e+01 1.097690e+01 7.463598e+00 0 -1 0 1.197209e-01 4.473539e-01 -4.719669e-01 -7.501924e-01
57 1 1 -1.214249e+01 1.140081e+01 7.286059e+00 0 -1 0 3.278960e-01 3.621233e-01 -5.606017e-01 -6.686380e-01
58 1 1 -1.256751e+01 1.161482e+01 7.004800e+00 0 -1 0 -5.923011e-01 -8.772628e-02 5.793936e-01 5.529798e-01
59 1 3 -1.307468e+01 1.191314e+01 6.980677e+00 0 -1 0 6.422435e-01 4.142259e-02 -6.645675e-01 -3.796806e-01
60 1 4 -1.362053e+01 1.176120e+01 6.985490e+00 0 -1 0 7.384763e-01 -2.636797e-01 -6.003989e-01 -1.569934e-01
61 1 2 -1.410786e+01 1.166602e+01 7.072259e+00 0 -1 0 6.376994e-01 -5.587724e-01 -5.020608e-01 1.704343e-01
62 1 3 -1.523622e+01 1.169562e+01 7.062299e+00 0 -1 0 -1.091138e-01 3.251229e-02 -5.297205e-01 8.404959e-01
63 1 2 -1.524932e+01 1.140738e+01 7.421865e+00 0 -1 0 3.732644e-01 1.932025e-01 5.561243e-01 -7.169883e-01
64 1 4 -1.512277e+01 1.167573e+01 8.510040e+00 0 -1 0 3.759860e-02 -6.345395e-01 -3.307523e-01 -6.975305e-01
65 1 2 -1.604276e+01 1.106200e+01 8.417182e+00 0 -1 0 -4.172513e-01 2.914874e-01 7.659060e-01 3.928414e-01
66 1 1 -1.644874e+01 1.090957e+01 8.893873e+00 0 -1 0 -3.618862e-01 2.636070e-01 -7.245289e-01 5.240302e-01
67 1 2 -1.613773e+01 1.053544e+01 9.621621e+00 0 -1 0 -7.771344e-01 3.887508e-01 4.796261e-01 1.220401e-01
68 1 1 -1.660742e+01 1.032709e+01 9.106526e+00 0 -1 0 1.372094e-01 6.993465e-01 -2.612513e-01 -6.510267e-01
69 1 1 -1.678194e+01 1.031487e+01 9.924718e+00 0 -1 0 -8.884088e-01 -3.430321e-01 3.035650e-01 -3.011878e-02
70 1 2 -1.783148e+01 1.064044e+01 1.002222e+01 0 -1 0 -9.190518e-03 -6.624749e-01 -8.203418e-02 7.445220e-01
71 1 3 -1.783077e+01 1.020642e+01 1.103649e+01 0 -1 0 -8.133258e-01 4.381456e-01 -7.196122e-02 -3.759669e-01
72 1 4 -1.776832e+01 1.041932e+01 1.145553e+01 0 -1 0 5.321165e-01 -4.068208e-01 2.399237e-01 7.026987e-01
73 1 1 -1.820051e+01 1.108863e+01 1.134259e+01 0 -1 0 8.473819e-02 4.990450e-01 6.741565e-01 5.378536e-01
74 1 1 -1.766957e+01 1.177241e+01 1.129412e+01 0 -1 0 -1.941270e-03 -6.819484e-01 -7.182086e-01 -1.382715e-01
75 1 3 -1.749026e+01 1.137126e+01 1.234557e+01 0 -1 0 -5.180216e-01 3.424057e-01 2.878535e-01 7.290763e-01
76 1 1 -1.608860e+01 1.097233e+01 1.227085e+01 0 -1 0 7.961906e-01 1.855149e-01 -5.312750e-01 2.222871e-01
77 1 4 -1.618848e+01 1.184544e+01 1.120406e+01 0 -1 0 5.581396e-01 8.166517e-01 -1.323143e-01 6.366347e-02
78 1 1 -1.606054e+01 1.147811e+01 1.091764e+01 0 -1 0 6.269813e-01 5.348885e-01 -5.006126e-01 2.649069e-01
79 1 4 -1.585109e+01 1.254663e+01 1.044731e+01 0 -1 0 -3.181058e-01 7.447049e-01 2.704854e-01 -5.206351e-01
80 1 2 -1.535820e+01 1.200210e+01 1.058476e+01 0 -1 0 -6.967245e-01 -4.044167e-01 4.309582e-01 4.065676e-01
81 1 4 -1.486442e+01 1.270089e+01 1.067280e+01 0 -1 0 -5.035465e-01 2.885712e-01 -7.633698e-01 -2.836092e-01
82 1 4 -1.521391e+01 1.335448e+01 1.136888e+01 0 -1 0 6.032378e-01 6.336867e-01 -3.554750e-01 3.289117e-01
83 1 4 -1.617090e+01 1.381551e+01 1.120718e+01 0 -1 0 -7.491531e-02 1.409680e-01 -8.484011e-01 -5.047091e-01
84 1 4 -1.612435e+01 1.494072e+01 1.142117e+01 0 -1 0 -6.102599e-02 3.749860e-01 6.660563e-01 6.418959e-01
85 1 1 -1.452205e+01 1.445175e+01 1.128528e+01 0 -1 0 9.883720e-01 6.010631e-02 7.138832e-02 1.200489e-01
86 1 1 -1.524396e+01 1.540628e+01 1.220305e+01 0 -1 0 -1.385966e-01 -1.445969e-01 5.575830e-01 -8.055954e-01
87 1 3 -1.545087e+01 1.487136e+01 1.240946e+01 0 -1 0 2.798081e-01 5.515450e-02 9.009921e-02 -9.542261e-01
88 1 2 -1.565009e+01 1.480597e+01 1.306531e+01 0 -1 0 -2.501911e-01 -1.907481e-01 -2.147494e-01 9.246092e-01
89 1 2 -1.473180e+01 1.472343e+01 1.317501e+01 0 -1 0 2.975542e-01 6.749935e-01 -2.676972e-01 -6.198254e-01
90 1 3 -1.432755e+01 1.394450e+01 1.471684e+01 0 -1 0 -8.447862e-01 2.557428e-01 4.618780e-01 8.718117e-02
91 1 3 -1.409061e+01 1.488448e+01 1.484592e+01 0 -1 0 -4.180714e-01 1.574230e-01 6.349062e-01 -6.303399e-01
92 1 2 -1.360000e+01 1.515477e+01 1.398134e+01 0 -1 0 2.893390e-01 4.876904e-01 -1.955893e-01 -8.001162e-01
93 1 1 -1.349410e+01 1.433510e+01 1.523800e+01 0 -1 0 8.189248e-01 -3.959772e-01 3.149727e-01 -2.708439e-01
94 1 2 -1.321499e+01 1.393494e+01 1.580886e+01 0 -1 0 2.061877e-01 -5.324070e-01 7.646730e-01 -2.988390e-01
95 1 3 -1.301544e+01 1.414105e+01 1.644925e+01 0 -1 0 7.738146e-01 3.647924e-01 -3.731448e-01 3.590271e-01
96 1 2 -1.397867e+01 1.396236e+01 1.723172e+01 0 -1 0 -5.758589e-01 3.829414e-01 -3.220072e-01 6.465708e-01
97 1 2 -1.417950e+01 1.388471e+01 1.751639e+01 0 -1 0 -2.033196e-01 -5.247078e-01 2.735476e-01 -7.800734e-01
98 1 4 -1.479595e+01 1.324894e+01 1.667882e+01 0 -1 0 -6.055973e-02 1.267982e-01 -9.502997e-01 2.778222e-01
99 1 2 -1.473170e+01 1.279498e+01 1.656396e+01 0 -1 0 2.431943e-01 2.550940e-01 9.156120e-01 -1.934895e-01
100 1 1 -1.415648e+01 1.293952e+01 1.699900e+01 0 -1 0 -2.180553e-01 -9.128681e-01 -2.636767e-01 2.227070e-01
101 2 4 1.844631e+01 6.468988e+00 1.021821e+01 -1 -1 0 2.090248e-01 -4.722583e-01 -2.648693e-01 -8.143249e-01
102 2 3 1.909495e+01 6.576736e+00 1.108557e+01 -1 -1 0 -3.566641e-02 -2.063475e-01 5.617893e-01 -8.003383e-01
103 2 1 -1.995669e+01 6.764822e+00 1.126498e+01 0 -1 0 -7.000700e-01 5.837807e-01 -1.968481e-01 3.610441e-01
104 2 3 -1.984431e+01 7.197118e+00 1.010627e+01 0 -1 0 7.039457e-01 -5.219178e-01 4.109251e-01 2.514015e-01
105 2 3 1.971189e+01 7.007704e+00 9.629718e+00 -1 -1 0 -5.685747e-01 1.786504e-01 -3.393894e-01 -7.277511e-01
106 2 2 2.022389e+01 7.036986e+00 9.913696e+00 -1 -1 0 -3.666571e-01 4.360304e-01 3.262640e-01 -7.543155e-01
107 2 3 -1.923013e+01 6.988102e+00 8.938818e+00 0 -1 0 2.911826e-01 -8.642387e-01 1.507802e-02 4.099717e-01
108 2 4 -1.925353e+01 6.225486e+00 8.246152e+00 0 -1 0 3.654190e-01 -2.275555e-01 4.626511e-01 7.750106e-01
109 2 3 -1.824851e+01 5.840833e+00 8.367702e+00 0 -1 0 -7.892938e-01 -4.377312e-01 4.293187e-01 -3.304819e-02
110 2 2 -1.854505e+01 6.413900e+00 7.931179e+00 0 -1 0 -1.882784e-01 3.999822e-01 6.862932e-01 5.775527e-01
111 2 2 -1.804284e+01 6.536140e+00 6.851145e+00 0 -1 0 -5.794925e-01 -8.726967e-02 -8.054347e-01 -8.858533e-02
112 2 3 -1.758838e+01 6.334373e+00 6.545676e+00 0 -1 0 5.010109e-01 2.702487e-01 7.312754e-01 3.757525e-01
113 2 3 -1.667112e+01 7.118604e+00 6.883354e+00 0 -1 0 8.199121e-01 -2.626422e-01 3.385119e-02 5.075602e-01
114 2 2 -1.751594e+01 7.948905e+00 6.822973e+00 0 -1 0 -5.514456e-02 8.796714e-02 5.426648e-01 -8.335081e-01
115 2 4 -1.822784e+01 7.930614e+00 6.959130e+00 0 -1 0 2.068341e-01 1.704289e-02 6.609919e-01 -7.211233e-01
116 2 4 -1.785586e+01 8.419200e+00 6.262447e+00 0 -1 0 4.968346e-01 -7.308678e-01 -2.192059e-01 4.134445e-01
117 2 1 -1.834587e+01 8.778512e+00 6.159821e+00 0 -1 0 5.412677e-01 -7.717927e-01 -1.480410e-01 2.990805e-01
118 2 1 -1.854952e+01 9.239157e+00 6.236285e+00 0 -1 0 -4.649494e-01 7.995028e-01 -8.874002e-02 -3.697870e-01
119 2 1 -1.861861e+01 9.708699e+00 6.155581e+00 0 -1 0 3.181929e-01 -7.371460e-01 4.232970e-01 4.197484e-01
120 2 1 -1.903028e+01 1.006929e+01 5.645608e+00 0 -1 0 -1.712116e-01 -3.108666e-01 -8.341635e-01 -4.221608e-01
121 2 3 -1.895621e+01 1.018320e+01 5.189057e+00 0 -1 0 2.829077e-03 -5.657024e-01 -6.932706e-01 -4.464848e-01
122 2 1 -1.933354e+01 1.003499e+01 4.767629e+00 0 -1 0 -2.908393e-01 2.461155e-01 -3.745828e-03 9.245678e-01
123 2 4 -1.827701e+01 1.043453e+01 3.642014e+00 0 -1 0 2.908958e-01 -7.577686e-01 2.237374e-01 5.395443e-01
124 2 1 -1.834647e+01 1.089658e+01 3.468075e+00 0 -1 0 3.508668e-02 -6.013429e-01 5.224564e-01 6.034857e-01
125 2 4 -1.837529e+01 1.122829e+01 3.041776e+00 0 -1 0 -1.455660e-01 -3.671441e-01 7.497243e-01 5.309701e-01
126 2 2 -1.885444e+01 1.170469e+01 2.762992e+00 0 -1 0 -1.563920e-01 4.433670e-01 8.578592e-01 2.074727e-01
127 2 4 -1.792626e+01 1.119606e+01 2.553388e+00 0 -1 0 -9.640007e-02 1.713852e-01 -6.962773e-01 -6.903130e-01
128 2 4 -1.739668e+01 1.126044e+01 1.934101e+00 0 -1 0 8.385368e-01 7.327169e-02 5.029735e-01 1.962269e-01
129 2 1 -1.675210e+01 1.172521e+01 2.405942e+00 0 -1 0 -4.847502e-01 3.016955e-01 2.055598e-01 -7.948222e-01
130 2 2 -1.681736e+01 1.202029e+01 2.865087e+00 0 -1 0 1.987795e-01 -3.987581e-01 -3.806124e-02 8.944440e-01
131 2 3 -1.636618e+01 1.185960e+01 2.868498e+00 0 -1 0 5.986050e-01 4.998162e-01 -4.930215e-01 -3.857275e-01
132 2 4 -1.561205e+01 1.248460e+01 3.814643e+00 0 -1 0 2.031001e-01 -9.491630e-01 2.395225e-01 2.165383e-02
133 2 4 -1.573171e+01 1.274204e+01 4.744830e+00 0 -1 0 -4.834351e-02 -3.635121e-01 5.752703e-01 -7.311538e-01
134 2 3 -1.544418e+01 1.251320e+01 5.006349e+00 0 -1 0 -3.047846e-01 1.553943e-01 -6.586351e-01 6.701931e-01
135 2 4 -1.538151e+01 1.195260e+01 5.165381e+00 0 -1 0 -4.479008e-01 -1.909745e-01 -7.252240e-01 4.867893e-01
136 2 3 -1.417116e+01 1.230685e+01 6.261105e+00 0 -1 0 7.838783e-01 -4.379713e-01 -3.392960e-01 2.803466e-01
137 2 1 -1.429786e+01 1.264921e+01 6.299095e+00 0 -1 0 -9.664939e-02 -6.985641e-01 -2.075905e-01 6.779183e-01
138 2 3 -1.420168e+01 1.269916e+01 7.728562e+00 0 -1 0 -2.013038e-01 -5.917843e-01 3.090481e-01 -7.167687e-01
139 2 2 -1.379462e+01 1.266410e+01 7.871749e+00 0 -1 0 -8.112206e-02 4.672779e-01 -6.049141e-01 6.396479e-01
140 2 3 -1.338055e+01 1.235195e+01 7.987749e+00 0 -1 0 -3.544872e-01 1.260647e-01 -6.908185e-01 6.174272e-01
141 2 1 -1.333478e+01 1.181993e+01 8.119867e+00 0 -1 0 -5.388384e-01 -1.161004e-01 -7.446155e-01 3.764593e-01
142 2 2 -1.322123e+01 1.121105e+01 7.941028e+00 0 -1 0 -6.260323e-01 -4.420338e-01 -6.423176e-01 1.084818e-02
143 2 4 -1.297450e+01 1.067652e+01 7.657607e+00 0 -1 0 5.604788e-01 6.299739e-01 5.221435e-01 1.279162e-01
144 2 4 -1.271254e+01 1.034403e+01 7.206792e+00 0 -1 0 -4.854860e-01 -7.219337e-01 -3.766479e-01 -3.182003e-01
145 2 1 -1.241396e+01 1.031520e+01 6.730304e+00 0 -1 0 3.955888e-01 7.727501e-01 1.629478e-01 4.688440e-01
146 2 1 -1.193409e+01 1.038543e+01 6.467435e+00 0 -1 0 -1.385787e-01 -8.054271e-01 7.096351e-02 -5.718806e-01
147 2 1 -1.142047e+01 1.038207e+01 6.376604e+00 0 -1 0 -4.790487e-02 7.058153e-01 -1.875756e-01 6.814289e-01
148 2 2 -1.093969e+01 1.052130e+01 6.529466e+00 0 -1 0 1.561280e-01 -6.291522e-01 3.543664e-01 -6.739555e-01
149 2 4 -1.045112e+01 1.062972e+01 6.707866e+00 0 -1 0 -3.869218e-01 4.368093e-01 -4.947895e-01 6.439507e-01
150 2 1 -1.005365e+01 1.046582e+01 6.956851e+00 0 -1 0 -5.375504e-01 2.499512e-01 -5.535981e-01 5.848873e-01
151 2 1 -9.789476e+00 1.015810e+01 7.260113e+00 0 -1 0 -6.483650e-01 1.270727e-02 -5.277707e-01 5.485612e-01
152 2 1 -9.692771e+00 9.640543e+00 7.564069e+00 0 -1 0 -7.549479e-01 -2.435466e-01 -4.834264e-01 3.701860e-01
153 2 4 -9.549698e+00 9.101678e+00 7.663773e+00 0 -1 0 -8.072088e-01 -3.243403e-01 -4.840846e-01 9.423083e-02
154 2 1 -9.308017e+00 8.614463e+00 7.497444e+00 0 -1 0 -7.646161e-01 -5.002112e-01 -3.303786e-01 -2.366452e-01
155 2 2 -8.866555e+00 8.270093e+00 7.467895e+00 0 -1 0 -6.478493e-01 -5.257672e-01 -3.034928e-01 -4.601654e-01
156 2 4 -8.410068e+00 8.245628e+00 7.270388e+00 0 -1 0 -3.497891e-01 -6.429670e-01 -5.103007e-02 -6.794388e-01
157 2 3 -7.906967e+00 8.320704e+00 7.287233e+00 0 -1 0 -1.301671e-01 -5.927613e-01 7.216678e-02 -7.915065e-01
158 2 2 -7.374964e+00 8.412891e+00 7.457038e+00 0 -1 0 9.068123e-02 -4.680649e-01 9.812161e-02 -8.735355e-01
159 2 1 -7.055991e+00 8.501391e+00 7.939248e+00 0 -1 0 -3.034810e-01 3.378460e-01 -2.877544e-01 8.431825e-01
160 2 3 -6.791052e+00 8.524162e+00 8.400491e+00 0 -1 0 5.234434e-01 -1.762578e-01 3.216325e-01 -7.690856e-01
161 2 1 -6.657497e+00 9.095196e+00 8.900379e+00 0 -1 0 5.199401e-01 4.056034e-02 -6.066672e-02 8.510797e-01
162 2 1 -6.524571e+00 9.287649e+00 9.377851e+00 0 -1 0 2.270523e-01 -4.343494e-02 -2.833790e-03 9.729094e-01
163 2 4 -5.741392e+00 8.486649e+00 8.555483e+00 0 -1 0 4.022092e-02 7.113335e-01 -3.191619e-01 -6.249181e-01
164 2 4 -5.065492e+00 8.279848e+00 9.453620e+00 0 -1 0 -1.145892e-01 9.473214e-01 -1.178955e-01 -2.748676e-01
165 2 3 -4.943529e+00 7.784383e+00 1.029153e+01 0 -1 0 6.248713e-01 -4.499299e-01 5.861864e-01 -2.519614e-01
166 2 3 -3.931183e+00 7.925913e+00 1.063772e+01 0 -1 0 -3.151406e-02 8.322237e-01 -5.031715e-01 2.307142e-01
167 2 4 -3.564880e+00 7.833923e+00 1.035702e+01 0 -1 0 4.875990e-02 4.690528e-01 -8.712668e-01 1.360374e-01
168 2 2 -3.251957e+00 7.487576e+00 1.031553e+01 0 -1 0 -8.029998e-01 1.867165e-01 2.622816e-01 5.015342e-01
169 2 2 -2.338623e+00 7.558180e+00 1.078183e+01 0 -1 0 -2.052350e-02 -5.236144e-01 7.268834e-01 -4.439000e-01
170 2 1 -2.625277e+00 7.652629e+00 1.161670e+01 0 -1 0 -2.246945e-01 6.309358e-01 -4.443851e-01 5.949405e-01
171 2 1 -2.050551e+00 8.485609e+00 1.184137e+01 0 -1 0 6.473341e-01 -6.802770e-01 -1.605686e-01 3.039730e-01
172 2 4 -2.635772e+00 7.996487e+00 1.260900e+01 0 -1 0 6.723523e-01 -7.072707e-01 -2.131145e-01 -4.788267e-02
173 2 4 -2.652152e+00 8.404570e+00 1.291606e+01 0 -1 0 -6.376323e-01 6.828272e-01 -1.325869e-01 -3.310481e-01
174 2 1 -3.827730e+00 8.165269e+00 1.315544e+01 0 -1 0 -2.494688e-01 -1.630563e-01 8.421746e-01 4.493551e-01
175 2 1 -3.409403e+00 8.419767e+00 1.409050e+01 0 -1 0 -7.421369e-01 -3.061442e-01 1.940245e-01 -5.637934e-01
176 2 2 -3.027745e+00 8.284911e+00 1.482673e+01 0 -1 0 2.550076e-01 4.806464e-01 -6.516396e-01 5.285036e-01
177 2 2 -2.800706e+00 7.796129e+00 1.498162e+01 0 -1 0 -2.720741e-02 4.141272e-02 -8.228699e-01 5.660653e-01
178 2 1 -1.761188e+00 7.329540e+00 1.403911e+01 0 -1 0 6.959414e-01 -3.797376e-01 6.081166e-01 4.073206e-02
179 2 4 -1.762164e+00 7.725192e+00 1.502064e+01 0 -1 0 -3.062380e-01 -5.319326e-02 9.485169e-01 -6.086394e-02
180 2 1 -8.910064e-01 8.693342e+00 1.519147e+01 0 -1 0 -2.352301e-01 7.555987e-01 1.324238e-01 5.968260e-01
181 2 4 -7.681885e-01 9.183723e+00 1.521507e+01 0 -1 0 4.454729e-01 -8.113171e-01 1.554795e-01 -3.451733e-01
182 2 2 -4.482948e-01 9.507445e+00 1.532342e+01 0 -1 0 -5.959282e-01 6.711598e-01 -3.963043e-01 1.932796e-01
183 2 3 5.915476e-03 9.682327e+00 1.544414e+01 0 -1 0 6.113549e-01 -4.943883e-01 6.177806e-01 -1.313720e-02
184 2 4 5.910226e-01 9.614887e+00 1.619676e+01 0 -1 0 -8.120387e-01 4.576591e-01 -2.438503e-01 2.677282e-01
185 2 3 8.581700e-01 9.785514e+00 1.660289e+01 0 -1 0 -8.889991e-01 1.934746e-01 -3.423654e-01 2.345933e-01
186 2 1 6.222084e-01 1.143936e+01 1.687210e+01 0 -1 0 -7.179993e-02 8.047240e-01 5.534737e-01 -2.023138e-01
187 2 1 3.377344e-01 1.198541e+01 1.609005e+01 0 -1 0 -1.429638e-01 7.749735e-02 -2.273769e-01 -9.601329e-01
188 2 2 -3.873352e-01 1.196858e+01 1.642056e+01 0 -1 0 3.921196e-01 5.290954e-01 5.746175e-01 -4.859167e-01
189 2 4 2.002204e-01 1.243401e+01 1.728601e+01 0 -1 0 -5.290123e-01 8.079409e-01 -2.545025e-01 -5.104790e-02
190 2 4 -4.593121e-01 1.237830e+01 1.741857e+01 0 -1 0 -9.685179e-01 2.255528e-03 -1.043133e-01 -2.260236e-01
191 2 1 -1.931089e+00 1.200688e+01 1.791762e+01 0 -1 0 -4.665530e-01 3.132151e-01 1.700926e-01 8.095017e-01
192 2 4 -2.104188e+00 1.121494e+01 1.834334e+01 0 -1 0 -9.017745e-02 -1.702157e-01 7.232824e-01 -6.631419e-01
193 2 4 -2.155004e+00 1.070913e+01 1.851227e+01 0 -1 0 1.475743e-03 -1.638771e-01 -6.840635e-01 7.107737e-01
194 2 1 -2.432298e+00 1.026520e+01 1.859199e+01 0 -1 0 2.660386e-01 5.158599e-01 6.349712e-01 -5.098271e-01
195 2 3 -2.350225e+00 9.492663e+00 1.948158e+01 0 -1 0 -4.646092e-01 5.788844e-01 5.979623e-01 3.024437e-01
196 2 4 -2.125194e+00 9.205634e+00 1.964217e+01 0 -1 0 -1.655611e-01 2.655266e-01 4.165948e-01 8.535420e-01
197 2 2 -1.260138e+00 8.404936e+00 1.930554e+01 0 -1 0 -7.080758e-02 9.202339e-01 -3.813437e-01 5.227742e-02
198 2 4 -1.977784e+00 8.531129e+00 1.880255e+01 0 -1 0 -4.376634e-01 -8.599554e-01 2.621288e-01 1.469630e-02
199 2 3 -3.182848e+00 8.464300e+00 1.825649e+01 0 -1 0 -1.026722e-01 -3.613389e-01 7.611700e-01 5.286897e-01
200 2 4 -3.373081e+00 7.746626e+00 1.879955e+01 0 -1 0 -6.383725e-01 1.719928e-01 3.679413e-02 7.493632e-01
