ITEM: TIMESTEP
194000000
ITEM: NUMBER OF ATOMS
200
ITEM: BOX BOUNDS pp pp pp
-2.0000000000000000e+01 2.0000000000000000e+01
-2.0000000000000000e+01 2.0000000000000000e+01
-2.0000000000000000e+01 2.0000000000000000e+01
ITEM: ATOMS id mol type x y z ix iy iz c_quat[1] c_quat[2] c_quat[3] c_quat[4]
1 1 1 -9.437918e+00 1.442713e+01 -5.667742e+00 0 -1 0 -2.141500e-01 -1.854092e-01 -2.063877e-01 9.365721e-01
2 1 2 -8.767973e+00 1.396706e+01 -6.238235e+00 0 -1 0 5.029323e-01 5.895152e-01 3.763568e-01 5.078253e-01
3 1 1 -8.354055e+00 1.285711e+01 -6.473333e+00 0 -1 0 7.584916e-01 4.535548e-01 4.603771e-01 -8.385308e-02
4 1 3 -9.179242e+00 1.237359e+01 -5.246685e+00 0 -1 0 -3.968497e-01 5.327358e-02 9.161155e-01 2.011453e-02
5 1 1 -8.899739e+00 1.299260e+01 -5.159480e+00 0 -1 0 -7.126668e-02 -9.552931e-01 2.786392e-01 6.853014e-02
6 1 2 -1.006150e+01 1.294089e+01 -4.127534e+00 0 -1 0 -4.363312e-01 6.647174e-01 5.183382e-01 3.147878e-01
7 1 4 -1.018726e+01 1.336161e+01 -4.060802e+00 0 -1 0 -4.875349e-01 8.661704e-01 1.027576e-01 3.872305e-02
8 1 1 -1.094679e+01 1.268819e+01 -4.007302e+00 0 -1 0 -2.254932e-01 -9.092563e-02 -2.297128e-01 9.423998e-01
9 1 1 -1.095274e+01 1.220531e+01 -4.096266e+00 0 -1 0 7.150111e-02 -3.720487e-01 -2.804370e-01 -8.819424e-01
10 1 4 -1.077426e+01 1.258584e+01 -3.420580e+00 0 -1 0 -2.163330e-01 -4.737195e-01 -1.944401e-01 -8.312538e-01
11 1 1 -1.166551e+01 1.175272e+01 -3.260368e+00 0 -1 0 5.508282e-01 3.560183e-01 5.909843e-01 -4.696561e-01
12 1 1 -1.082627e+01 1.192788e+01 -3.017816e+00 0 -1 0 2.724421e-01 5.450413e-01 3.045646e-01 7.320831e-01
13 1 3 -1.060322e+01 1.081948e+01 -3.298842e+00 0 -1 0 -7.457023e-02 5.721508e-01 -4.296924e-01 -6.945842e-01
14 1 4 -1.061639e+01 1.079193e+01 -1.883874e+00 0 -1 0 -3.988635e-01 2.805117e-01 -3.913186e-01 7.804427e-01
15 1 4 -1.048117e+01 1.057576e+01 -1.455077e+00 0 -1 0 6.322763e-01 3.702624e-03 4.207784e-01 -6.505063e-01
16 1 2 -9.976468e+00 1.093756e+01 -4.265743e-01 0 -1 0 -9.399917e-01 1.126882e-01 3.056584e-01 -1.014393e-01
17 1 1 -1.080443e+01 1.129708e+01 -4.233498e-01 0 -1 0 -3.950735e-01 -5.128328e-01 3.968420e-02 7.611469e-01
18 1 2 -1.132804e+01 1.117259e+01 -4.607424e-01 0 -1 0 -7.550759e-01 -3.677067e-01 1.942353e-01 5.068775e-01
19 1 3 -1.167626e+01 1.085338e+01 -3.630841e-01 0 -1 0 -9.161329e-01 -2.508201e-01 2.842437e-01 1.303660e-01
20 1 1 -1.289343e+01 1.126308e+01 -1.489979e-01 0 -1 0 -6.965526e-02 5.575435e-01 7.969567e-01 -2.217055e-01
21 1 4 -1.341211e+01 1.063035e+01 4.277312e-01 0 -1 0 -4.253364e-01 -1.818063e-01 -5.850384e-01 6.661572e-01
22 1 1 -1.353860e+01 1.018047e+01 5.349800e-01 0 -1 0 6.956899e-01 4.128633e-01 4.882055e-01 -3.274368e-01
23 1 4 -1.352285e+01 9.686713e+00 3.614879e-01 0 -1 0 7.351647e-01 6.113716e-01 2.668277e-01 1.206677e-01
24 1 3 -1.399662e+01 9.400300e+00 1.629499e+00 0 -1 0 -1.232803e-01 -2.545785e-01 1.463945e-01 -9.479243e-01
25 1 3 -1.394051e+01 9.454316e+00 2.176694e+00 0 -1 0 -1.847266e-01 1.207445e-01 -1.816389e-01 9.582819e-01
26 1 4 -1.287776e+01 1.002340e+01 1.618317e+00 0 -1 0 8.659673e-01 2.724466e-01 3.623259e-01 2.111716e-01
27 1 4 -1.244865e+01 9.865461e+00 1.739922e+00 0 -1 0 6.038541e-01 3.619919e-01 4.396976e-01 5.576631e-01
28 1 1 -1.172888e+01 1.025504e+01 2.145193e+00 0 -1 0 -5.311466e-01 7.365402e-01 -3.937137e-01 -1.427635e-01
29 1 1 -1.195950e+01 1.059268e+01 2.896164e+00 0 -1 0 -7.012074e-01 5.561839e-01 -3.849974e-01 2.252657e-01
30 1 4 -1.230410e+01 1.071375e+01 3.520405e+00 0 -1 0 3.419413e-01 -3.199668e-01 8.329093e-01 -2.948889e-01
31 1 4 -1.210519e+01 1.156393e+01 4.438105e+00 0 -1 0 3.012480e-01 4.096332e-01 -5.703256e-01 6.451194e-01
32 1 3 -1.214535e+01 1.189197e+01 4.993936e+00 0 -1 0 4.567660e-01 2.572999e-01 -2.694338e-01 8.078162e-01
33 1 3 -1.186207e+01 1.183936e+01 5.417524e+00 0 -1 0 3.588754e-02 1.304395e-01 -4.180964e-01 8.982722e-01
34 1 1 -1.185497e+01 1.164340e+01 5.949359e+00 0 -1 0 -1.692350e-01 -5.934615e-02 -3.851068e-01 9.052791e-01
35 1 2 -1.196681e+01 1.145633e+01 6.371391e+00 0 -1 0 5.067070e-01 1.993497e-01 3.840638e-01 -7.456559e-01
36 1 2 -1.210151e+01 1.086143e+01 7.153331e+00 0 -1 0 -1.116280e-01 1.242798e-01 -8.965552e-01 4.102225e-01
37 1 1 -1.230762e+01 1.129573e+01 7.606871e+00 0 -1 0 2.288402e-01 1.358773e-01 -9.627796e-01 4.716853e-02
38 1 1 -1.171587e+01 1.125241e+01 8.050136e+00 0 -1 0 4.842998e-01 2.455299e-01 -7.948172e-01 -2.709878e-01
39 1 4 -1.078417e+01 1.260293e+01 8.406011e+00 0 -1 0 -3.823402e-01 -6.790745e-01 -4.860565e-02 -6.247490e-01
40 1 4 -1.126262e+01 1.220182e+01 8.593070e+00 0 -1 0 7.261970e-01 -5.911146e-01 3.487481e-01 3.995200e-02
41 1 2 -1.184367e+01 1.206537e+01 8.615295e+00 0 -1 0 -4.438996e-01 -7.350827e-01 -4.689778e-01 2.065586e-01
42 1 4 -1.173536e+01 1.077640e+01 8.781756e+00 0 -1 0 -1.818373e-01 6.785641e-01 -7.051920e-01 -9.586577e-02
43 1 3 -1.318829e+01 1.118537e+01 9.310589e+00 0 -1 0 4.174188e-01 -3.880297e-01 -4.747542e-02 -8.203295e-01
44 1 2 -1.320359e+01 1.134146e+01 9.641655e+00 0 -1 0 8.151305e-01 -4.133266e-01 1.141057e-01 -3.894910e-01
45 1 1 -1.366840e+01 1.243038e+01 9.361836e+00 0 -1 0 -3.633370e-01 -2.564136e-01 2.581216e-01 8.576780e-01
46 1 3 -1.410026e+01 1.260001e+01 9.612504e+00 0 -1 0 -6.246073e-01 -2.412943e-01 3.658034e-01 6.463981e-01
47 1 4 -1.461415e+01 1.279260e+01 9.148957e+00 0 -1 0 -5.767004e-01 9.984371e-02 1.464051e-01 7.975045e-01
48 1 1 -1.489169e+01 1.289053e+01 9.520250e+00 0 -1 0 -8.683792e-01 6.826685e-02 1.622533e-01 4.636067e-01
49 1 4 -1.563010e+01 1.300782e+01 9.968909e+00 0 -1 0 -2.308821e-01 1.369530e-01 7.036777e-01 6.578564e-01
50 1 4 -1.539731e+01 1.369874e+01 1.105151e+01 0 -1 0 -4.375869e-01 1.374860e-01 6.500938e-01 -6.057998e-01
51 1 4 -1.553355e+01 1.373885e+01 1.161830e+01 0 -1 0 7.344130e-01 -6.524082e-01 -1.314139e-01 -1.331594e-01
52 1 1 -1.555858e+01 1.416761e+01 1.199989e+01 0 -1 0 -7.206706e-01 6.760151e-01 -1.126789e-01 -1.045988e-01
53 1 3 -1.540263e+01 1.453206e+01 1.235454e+01 0 -1 0 7.869843e-01 -5.472197e-01 2.462590e-01 1.433974e-01
54 1 4 -1.507351e+01 1.480779e+01 1.269643e+01 0 -1 0 -6.593369e-01 3.923138e-01 -4.713083e-01 -4.350094e-01
55 1 4 -1.466458e+01 1.514594e+01 1.274010e+01 0 -1 0 -4.955285e-01 2.519053e-01 -6.330863e-01 -5.386994e-01
56 1 4 -1.431058e+01 1.536697e+01 1.258697e+01 0 -1 0 3.249029e-01 2.017010e-02 6.467866e-01 6.897089e-01
57 1 1 -1.408925e+01 1.575613e+01 1.241294e+01 0 -1 0 -1.236770e-02 2.173460e-01 6.056865e-01 7.653442e-01
58 1 1 -1.414501e+01 1.625148e+01 1.239313e+01 0 -1 0 2.387616e-01 -2.531717e-01 -5.623174e-01 -7.501308e-01
59 1 3 -1.431940e+01 1.672313e+01 1.236176e+01 0 -1 0 -4.742541e-01 3.541637e-01 4.949470e-01 6.361435e-01
60 1 4 -1.453646e+01 1.727785e+01 1.252105e+01 0 -1 0 -6.195031e-01 3.619615e-01 3.770659e-01 5.856800e-01
61 1 2 -1.482056e+01 1.755038e+01 1.279522e+01 0 -1 0 -8.293532e-01 3.793135e-01 3.053268e-01 2.739893e-01
62 1 3 -1.505411e+01 1.778788e+01 1.325764e+01 0 -1 0 8.717307e-01 -4.706408e-01 -1.087300e-01 -8.222281e-02
63 1 2 -1.501660e+01 1.802584e+01 1.374969e+01 0 -1 0 -8.460647e-01 4.958459e-01 -6.573447e-02 -1.843646e-01
64 1 4 -1.491118e+01 1.836411e+01 1.419328e+01 0 -1 0 7.724186e-01 -4.995957e-01 2.278925e-01 3.191217e-01
65 1 2 -1.455762e+01 1.868768e+01 1.443032e+01 0 -1 0 5.876985e-01 -3.466899e-01 4.439296e-01 5.808125e-01
66 1 1 -1.430401e+01 1.921684e+01 1.452926e+01 0 -1 0 4.035821e-01 -3.973173e-01 4.981712e-01 6.565713e-01
67 1 2 -1.406438e+01 1.964591e+01 1.446773e+01 0 -1 0 -2.221273e-01 1.840011e-01 -6.096460e-01 -7.383324e-01
68 1 1 -1.393192e+01 2.003681e+01 1.421027e+01 0 -1 0 5.492468e-02 9.634519e-02 7.068620e-01 6.986036e-01
69 1 1 -1.398213e+01 -1.942852e+01 1.399869e+01 0 0 0 -2.596347e-01 2.415915e-01 6.466852e-01 6.752938e-01
70 1 2 -1.420818e+01 -1.895701e+01 1.387459e+01 0 0 0 4.558402e-01 -3.758403e-01 -5.541015e-01 -5.864514e-01
71 1 3 -1.446641e+01 -1.847200e+01 1.394798e+01 0 0 0 6.362906e-01 -3.141178e-01 -4.820806e-01 -5.138702e-01
72 1 4 -1.415629e+01 -1.804699e+01 1.252016e+01 0 0 0 4.763473e-01 7.309025e-01 -1.254130e-03 -4.887465e-01
73 1 1 -1.478259e+01 -1.808547e+01 1.236598e+01 0 0 0 4.400435e-01 7.995247e-01 2.393156e-01 -3.314363e-01
74 1 1 -1.502898e+01 -1.819221e+01 1.194066e+01 0 0 0 5.752237e-01 7.844599e-01 -2.064776e-01 -1.053916e-01
75 1 3 -1.505003e+01 -1.885837e+01 1.143461e+01 0 0 0 -7.971206e-01 1.192902e-01 -5.526299e-01 -2.120584e-01
76 1 1 -1.510623e+01 -1.924440e+01 1.128494e+01 0 0 0 -7.527961e-01 -2.066582e-02 6.121727e-01 2.410715e-01
77 1 4 -1.554513e+01 -1.940561e+01 1.149953e+01 0 0 0 -7.446036e-01 2.591340e-01 6.059882e-01 -1.057983e-01
78 1 1 -1.571357e+01 -1.939646e+01 9.897265e+00 0 0 0 7.390081e-01 1.980418e-01 4.573501e-01 4.532961e-01
79 1 4 -1.662253e+01 1.977580e+01 1.032858e+01 0 -1 0 5.387779e-01 3.693691e-01 -5.163508e-01 -5.537750e-01
80 1 2 -1.697242e+01 1.971364e+01 1.018606e+01 0 -1 0 6.614061e-01 1.422171e-01 -7.090113e-01 -1.990457e-01
81 1 4 -1.742943e+01 1.954298e+01 1.017280e+01 0 -1 0 -6.947019e-01 2.895097e-01 6.584620e-01 -1.064620e-03
82 1 4 -1.791261e+01 1.952349e+01 1.030671e+01 0 -1 0 6.687268e-01 -4.625572e-01 -5.208202e-01 2.599838e-01
83 1 4 -1.825948e+01 1.954493e+01 1.070371e+01 0 -1 0 -4.311627e-01 6.137686e-01 4.138911e-01 -5.158304e-01
84 1 4 -1.821259e+01 1.918914e+01 1.015479e+01 0 -1 0 -5.294055e-02 -9.039145e-01 1.204165e-01 -4.069836e-01
85 1 1 -1.818205e+01 1.808435e+01 9.411266e+00 0 -1 0 6.508994e-01 3.495638e-01 -5.573627e-01 -3.787901e-01
86 1 1 -1.852997e+01 1.773999e+01 9.346085e+00 0 -1 0 -7.194638e-01 -7.804559e-02 6.890331e-01 -3.891083e-02
87 1 3 -1.893184e+01 1.742514e+01 9.431308e+00 0 -1 0 6.900543e-01 -1.641878e-01 -6.252922e-01 3.253876e-01
88 1 2 -1.970805e+01 1.680755e+01 8.534045e+00 0 -1 0 2.042852e-01 3.951588e-01 -8.812106e-01 -1.599531e-01
89 1 2 -1.982627e+01 1.661677e+01 8.030309e+00 0 -1 0 2.246858e-01 3.127364e-02 -9.683864e-01 -1.037598e-01
90 1 3 1.987220e+01 1.647897e+01 7.708961e+00 -1 -1 0 -3.072223e-01 3.342989e-01 8.870874e-01 -8.327412e-02
91 1 3 1.943569e+01 1.630413e+01 7.507153e+00 -1 -1 0 -2.950910e-01 6.270187e-01 6.890682e-01 -2.120234e-01
92 1 2 1.968921e+01 1.501009e+01 7.235633e+00 -1 -1 0 -1.516240e-03 -6.409532e-01 6.496103e-01 4.088804e-01
93 1 1 1.945309e+01 1.454857e+01 8.647549e+00 -1 -1 0 2.452535e-01 -5.366982e-01 5.803795e-01 -5.612178e-01
94 1 2 2.007037e+01 1.392873e+01 7.770705e+00 -1 -1 0 -9.213670e-01 -2.539812e-01 2.676864e-01 1.221493e-01
95 1 3 1.978377e+01 1.359917e+01 8.030283e+00 -1 -1 0 -9.384977e-01 -2.043777e-01 2.394231e-01 -1.418744e-01
96 1 2 1.920508e+01 1.292295e+01 8.299613e+00 -1 -1 0 6.477415e-01 4.491826e-01 -5.060957e-01 -3.500473e-01
97 1 2 1.927457e+01 1.292820e+01 8.894279e+00 -1 -1 0 -5.508721e-01 5.413405e-01 -5.340143e-01 -3.439754e-01
98 1 4 1.918546e+01 1.210330e+01 9.439445e+00 -1 -1 0 -1.313230e-01 9.888589e-02 -9.828935e-01 8.304382e-02
99 1 2 1.959293e+01 1.237360e+01 9.255339e+00 -1 -1 0 -2.254106e-01 4.749307e-03 7.870835e-01 -5.741665e-01
100 1 1 -1.988760e+01 1.252596e+01 8.709749e+00 0 -1 0 -7.748387e-01 -2.423026e-01 -3.664351e-01 4.545764e-01
101 2 4 -1.459506e+01 -1.060412e+01 1.606034e+01 0 0 0 9.106309e-01 -2.168811e-01 3.152014e-02 3.503149e-01
102 2 3 -1.529540e+01 -1.048231e+01 1.559657e+01 0 0 0 -1.925914e-02 8.868160e-01 -4.581524e-01 -5.729549e-02
103 2 1 -1.508608e+01 -1.042706e+01 1.509250e+01 0 0 0 1.200588e-01 5.705324e-01 -8.100587e-01 -6.231871e-02
104 2 3 -1.497947e+01 -1.072877e+01 1.468341e+01 0 0 0 1.728584e-01 1.146189e-01 -9.782158e-01 8.732870e-03
105 2 3 -1.416140e+01 -1.122314e+01 1.460770e+01 0 0 0 -7.577473e-01 -3.871776e-01 3.060524e-01 4.269009e-01
106 2 2 -1.401131e+01 -1.061229e+01 1.573351e+01 0 0 0 6.119347e-01 -7.098226e-01 -1.779806e-01 3.000180e-01
107 2 3 -1.521779e+01 -1.160094e+01 1.552642e+01 0 0 0 2.548467e-01 -2.784767e-01 -8.391301e-01 -3.916178e-01
108 2 4 -1.497069e+01 -1.220514e+01 1.607080e+01 0 0 0 -1.560604e-01 7.307373e-02 7.159887e-01 -6.765099e-01
109 2 3 -1.521348e+01 -1.252335e+01 1.637857e+01 0 0 0 2.840364e-01 3.634599e-01 6.195435e-01 -6.351268e-01
110 2 2 -1.559594e+01 -1.289218e+01 1.633147e+01 0 0 0 -5.756028e-01 -5.692654e-01 -4.098062e-01 4.203299e-01
111 2 2 -1.597727e+01 -1.363725e+01 1.638612e+01 0 0 0 -2.732469e-01 -1.861573e-01 -6.985104e-01 6.346376e-01
112 2 3 -1.615683e+01 -1.402428e+01 1.652712e+01 0 0 0 -5.465207e-01 -4.183186e-01 -5.436205e-01 4.804181e-01
113 2 3 -1.613685e+01 -1.429358e+01 1.639155e+01 0 0 0 -1.372885e-01 5.890555e-01 7.655877e-01 2.191827e-01
114 2 2 -1.617955e+01 -1.463354e+01 1.555878e+01 0 0 0 -2.259556e-01 -1.643872e-01 8.867101e-01 3.683287e-01
115 2 4 -1.629263e+01 -1.471664e+01 1.514586e+01 0 0 0 2.453629e-01 -2.307860e-01 -9.211860e-01 -1.948105e-01
116 2 4 -1.624677e+01 -1.408865e+01 1.404411e+01 0 0 0 6.226105e-01 6.879047e-01 3.702014e-01 4.576120e-02
117 2 1 -1.601261e+01 -1.425556e+01 1.367258e+01 0 0 0 -5.440131e-01 -7.684715e-01 1.269883e-01 -3.120502e-01
118 2 1 -1.586836e+01 -1.501432e+01 1.370493e+01 0 0 0 6.813288e-01 3.646804e-02 -4.005846e-01 6.115498e-01
119 2 1 -1.568325e+01 -1.546696e+01 1.347151e+01 0 0 0 -5.061171e-01 3.930089e-01 6.478981e-01 4.118464e-01
120 2 1 -1.499667e+01 -1.580290e+01 1.412358e+01 0 0 0 -7.623429e-01 4.620145e-01 3.484155e-01 2.897976e-01
121 2 3 -1.488764e+01 -1.585141e+01 1.405067e+01 0 0 0 6.704497e-01 4.484185e-01 3.906621e-01 -4.436228e-01
122 2 1 -1.403793e+01 -1.622879e+01 1.502406e+01 0 0 0 8.470419e-01 -3.194533e-01 -1.823834e-01 -3.836743e-01
123 2 4 -1.396877e+01 -1.478434e+01 1.471897e+01 0 0 0 -9.865108e-02 2.233433e-02 3.472715e-01 -9.322937e-01
124 2 1 -1.308108e+01 -1.569965e+01 1.486243e+01 0 0 0 -9.593973e-01 -1.348000e-01 -2.085085e-01 1.338281e-01
125 2 4 -1.286603e+01 -1.598332e+01 1.534691e+01 0 0 0 9.182330e-01 9.953338e-02 1.893410e-01 3.333035e-01
126 2 2 -1.299729e+01 -1.705658e+01 1.531678e+01 0 0 0 7.597806e-01 5.262508e-01 -3.679240e-01 -1.021047e-01
127 2 4 -1.291649e+01 -1.764358e+01 1.549149e+01 0 0 0 1.482495e-01 -8.778557e-01 4.543545e-01 -3.087626e-02
128 2 4 -1.378559e+01 -1.828567e+01 1.624392e+01 0 0 0 -4.314050e-01 2.062688e-01 8.639995e-01 1.576316e-01
129 2 1 -1.427736e+01 -1.837823e+01 1.521386e+01 0 0 0 -3.753409e-01 -3.827604e-01 -6.564568e-01 5.307335e-01
130 2 2 -1.444160e+01 -1.886425e+01 1.509797e+01 0 0 0 3.875329e-01 5.897491e-01 5.350115e-01 -4.645180e-01
131 2 3 -1.467997e+01 -1.918380e+01 1.494992e+01 0 0 0 -4.349510e-01 -7.594984e-01 -3.321899e-01 3.516101e-01
132 2 4 -1.501821e+01 -1.945100e+01 1.458731e+01 0 0 0 5.461909e-01 8.048850e-01 1.257523e-01 -1.949922e-01
133 2 4 -1.509324e+01 -1.979896e+01 1.414310e+01 0 0 0 -5.371796e-01 -8.388116e-01 8.078073e-02 -3.616072e-02
134 2 3 -1.504532e+01 1.976987e+01 1.378146e+01 0 -1 0 -5.390845e-01 -7.978025e-01 1.952219e-01 -1.865141e-01
135 2 4 -1.489318e+01 1.936306e+01 1.347667e+01 0 -1 0 -4.789365e-01 -7.302290e-01 3.078538e-01 -3.776393e-01
136 2 3 -1.447406e+01 1.908270e+01 1.331694e+01 0 -1 0 4.011493e-01 4.877352e-01 -6.030276e-01 4.873923e-01
137 2 1 -1.409591e+01 1.875721e+01 1.341250e+01 0 -1 0 1.324744e-01 4.031854e-01 -6.470115e-01 6.334573e-01
138 2 3 -1.385014e+01 1.825291e+01 1.337065e+01 0 -1 0 7.547792e-02 1.142120e-01 -7.972945e-01 5.878607e-01
139 2 2 -1.386694e+01 1.770869e+01 1.351241e+01 0 -1 0 -5.933961e-03 -6.934171e-02 -7.298682e-01 6.800359e-01
140 2 3 -1.402859e+01 1.723308e+01 1.368313e+01 0 -1 0 2.517931e-01 3.628952e-01 7.072306e-01 -5.520255e-01
141 2 1 -1.432955e+01 1.677730e+01 1.361016e+01 0 -1 0 2.625168e-01 5.234444e-01 5.916341e-01 -5.541299e-01
142 2 2 -1.480089e+01 1.647455e+01 1.348594e+01 0 -1 0 4.245395e-01 7.385984e-01 3.531244e-01 -3.867064e-01
143 2 4 -1.505959e+01 1.621665e+01 1.313085e+01 0 -1 0 -4.337054e-01 -8.593151e-01 -1.407810e-01 2.316417e-01
144 2 4 -1.521731e+01 1.606167e+01 1.262503e+01 0 -1 0 4.592963e-01 8.738376e-01 -1.276518e-01 -9.570641e-02
145 2 1 -1.525161e+01 1.592230e+01 1.210851e+01 0 -1 0 -5.090370e-01 -7.863942e-01 3.345754e-01 -1.025903e-01
146 2 1 -1.517166e+01 1.556721e+01 1.171213e+01 0 -1 0 4.728446e-01 6.622068e-01 -4.848718e-01 3.206235e-01
147 2 1 -1.492621e+01 1.505647e+01 1.155666e+01 0 -1 0 -3.425843e-01 -5.354899e-01 5.704866e-01 -5.200304e-01
148 2 2 -1.450619e+01 1.463569e+01 1.158644e+01 0 -1 0 2.314624e-01 3.118787e-01 -7.480079e-01 5.381830e-01
149 2 4 -1.442625e+01 1.418474e+01 1.170091e+01 0 -1 0 -5.798851e-02 -1.107798e-01 6.851089e-01 -7.176287e-01
150 2 1 -1.444746e+01 1.374092e+01 1.193255e+01 0 -1 0 1.049875e-01 1.420876e-01 5.845662e-01 -7.918782e-01
151 2 1 -1.359279e+01 1.330172e+01 1.241167e+01 0 -1 0 1.304577e-01 1.032202e-01 -8.379709e-01 5.197414e-01
152 2 1 -1.367414e+01 1.286732e+01 1.244953e+01 0 -1 0 1.034690e-01 2.289757e-01 8.676723e-01 -4.289629e-01
153 2 4 -1.395950e+01 1.259242e+01 1.245909e+01 0 -1 0 -5.265461e-01 -4.551802e-01 -6.103609e-01 3.781795e-01
154 2 1 -1.390243e+01 1.209830e+01 1.232213e+01 0 -1 0 -4.434707e-01 -6.140690e-01 -5.957317e-01 2.671269e-01
155 2 2 -1.363649e+01 1.191284e+01 1.389424e+01 0 -1 0 -6.081167e-01 -1.090449e-01 5.665868e-01 -5.452364e-01
156 2 4 -1.357888e+01 1.162727e+01 1.423381e+01 0 -1 0 2.619367e-01 -1.176056e-01 -6.350368e-01 7.171376e-01
157 2 3 -1.274286e+01 1.075125e+01 1.389298e+01 0 -1 0 6.315527e-01 -6.130646e-01 3.704591e-01 2.967374e-01
158 2 2 -1.283827e+01 1.073986e+01 1.458485e+01 0 -1 0 -4.358578e-01 2.906961e-01 2.227970e-01 -8.221224e-01
159 2 1 -1.308860e+01 1.083064e+01 1.506496e+01 0 -1 0 -4.100164e-02 4.202862e-01 1.773495e-01 -8.889463e-01
160 2 3 -1.353591e+01 1.095575e+01 1.525723e+01 0 -1 0 4.025736e-01 3.909863e-01 -4.275384e-02 -8.265811e-01
161 2 1 -1.403920e+01 1.094444e+01 1.542990e+01 0 -1 0 6.307860e-01 3.239076e-01 -1.584326e-01 -6.870895e-01
162 2 1 -1.464545e+01 1.120875e+01 1.591413e+01 0 -1 0 -7.728243e-01 1.168972e-01 3.367994e-01 5.250179e-01
163 2 4 -1.451060e+01 1.253579e+01 1.602444e+01 0 -1 0 -5.408657e-02 -5.710560e-01 -6.789569e-01 4.582436e-01
164 2 4 -1.484580e+01 1.308965e+01 1.554312e+01 0 -1 0 -6.638113e-02 -2.596178e-01 -7.179399e-02 9.607486e-01
165 2 3 -1.473715e+01 1.318891e+01 1.567217e+01 0 -1 0 4.920970e-01 -6.656970e-01 3.635824e-01 4.271954e-01
166 2 3 -1.582423e+01 1.284776e+01 1.625883e+01 0 -1 0 8.610202e-02 -8.101751e-03 -4.047251e-01 -9.103397e-01
167 2 4 -1.556942e+01 1.336984e+01 1.653394e+01 0 -1 0 -3.431669e-01 -4.935269e-01 -6.350452e-01 4.851653e-01
168 2 2 -1.519925e+01 1.366977e+01 1.788812e+01 0 -1 0 -5.732301e-01 2.226994e-01 4.324333e-01 -6.594040e-01
169 2 2 -1.539252e+01 1.369153e+01 1.833716e+01 0 -1 0 -2.352254e-01 3.816899e-01 2.642377e-01 -8.539088e-01
170 2 1 -1.575480e+01 1.368632e+01 1.868405e+01 0 -1 0 2.489922e-01 -4.825680e-01 -1.203922e-01 8.310455e-01
171 2 1 -1.601604e+01 1.406215e+01 1.883637e+01 0 -1 0 1.124495e-01 4.344947e-01 -1.164164e-01 -8.860117e-01
172 2 4 -1.612700e+01 1.470704e+01 1.976115e+01 0 -1 0 1.284211e-01 -3.558870e-01 -1.716206e-01 9.096146e-01
173 2 4 -1.670754e+01 1.457011e+01 -1.978424e+01 0 -1 1 1.903744e-01 -8.443740e-01 -2.879032e-01 -4.097582e-01
174 2 1 -1.600464e+01 1.512887e+01 -1.975272e+01 0 -1 1 -5.513829e-01 -7.105347e-01 -4.367031e-02 -4.349830e-01
175 2 1 -1.624953e+01 1.432072e+01 -1.921904e+01 0 -1 1 1.519877e-01 1.628845e-01 9.085590e-01 -3.533962e-01
176 2 2 -1.524625e+01 1.406072e+01 -1.905119e+01 0 -1 1 -1.282423e-01 3.367198e-01 -8.511540e-01 -3.817204e-01
177 2 2 -1.532066e+01 1.419880e+01 -1.776246e+01 0 -1 1 7.195737e-01 -2.331881e-01 4.859001e-01 -4.378791e-01
178 2 1 -1.493395e+01 1.488780e+01 -1.743768e+01 0 -1 1 5.519617e-01 -3.926964e-02 -8.296626e-01 -7.386576e-02
179 2 4 -1.526746e+01 1.517077e+01 -1.664772e+01 0 -1 1 6.301421e-01 -5.149922e-01 -5.784220e-01 5.596344e-02
180 2 1 -1.610942e+01 1.475458e+01 -1.647150e+01 0 -1 1 8.500946e-02 -8.097350e-03 -7.881395e-01 6.095441e-01
181 2 4 -1.633435e+01 1.439986e+01 -1.633823e+01 0 -1 1 -3.152250e-01 -4.321507e-01 -6.806896e-01 5.005403e-01
182 2 2 -1.660378e+01 1.403151e+01 -1.652088e+01 0 -1 1 -4.011302e-01 -6.997477e-01 -4.456640e-01 3.883701e-01
183 2 3 -1.647162e+01 1.405515e+01 -1.545598e+01 0 -1 1 -8.839069e-01 3.630967e-01 -3.613919e-02 2.925122e-01
184 2 4 -1.631959e+01 1.433108e+01 -1.481586e+01 0 -1 1 -8.511685e-01 4.684918e-01 -1.915467e-01 1.390593e-01
185 2 3 -1.595531e+01 1.461639e+01 -1.448658e+01 0 -1 1 6.897994e-01 -4.604264e-01 5.074170e-01 2.339066e-01
186 2 1 -1.752047e+01 1.474409e+01 -1.433904e+01 0 -1 1 -4.052411e-01 -1.237965e-01 3.967757e-01 8.142623e-01
187 2 1 -1.788097e+01 1.513458e+01 -1.417967e+01 0 -1 1 6.122342e-01 5.124855e-01 4.605904e-01 -3.877943e-01
188 2 2 -1.800248e+01 1.462110e+01 -1.431151e+01 0 -1 1 -7.350578e-01 -6.330909e-01 -2.382932e-01 4.585095e-02
189 2 4 -1.871054e+01 1.344404e+01 -1.352649e+01 0 -1 1 -5.837073e-01 2.306950e-01 -6.702425e-01 3.960311e-01
190 2 4 -1.923556e+01 1.392039e+01 -1.276470e+01 0 -1 1 -3.976131e-01 1.563444e-01 -3.993699e-01 8.111497e-01
191 2 1 -1.891974e+01 1.406462e+01 -1.252973e+01 0 -1 1 2.385440e-01 9.337499e-01 -1.043616e-01 -2.455943e-01
192 2 4 -1.868281e+01 1.464688e+01 -1.195962e+01 0 -1 1 -8.030457e-01 -3.569585e-01 -1.752498e-01 -4.438307e-01
193 2 4 -1.817832e+01 1.446110e+01 -1.196141e+01 0 -1 1 6.446994e-01 3.383803e-01 5.533688e-02 6.832271e-01
194 2 1 -1.821159e+01 1.356016e+01 -1.211077e+01 0 -1 1 4.333239e-01 2.457305e-01 8.654115e-01 -5.394331e-02
195 2 3 -1.796155e+01 1.322625e+01 -1.249760e+01 0 -1 1 -3.341745e-01 -4.215307e-01 -8.425759e-01 -2.655271e-02
196 2 4 -1.692839e+01 1.303674e+01 -1.233425e+01 0 -1 1 2.837380e-01 3.307951e-01 -5.480996e-01 7.139007e-01
197 2 2 -1.595788e+01 1.252162e+01 -1.297017e+01 0 -1 1 -8.639574e-01 8.291111e-02 -8.298297e-02 -4.897113e-01
198 2 4 -1.561456e+01 1.302226e+01 -1.264246e+01 0 -1 1 1.974326e-01 -8.735996e-01 2.202948e-01 -3.864121e-01
199 2 3 -1.704164e+01 1.342812e+01 -1.323038e+01 0 -1 1 -2.063933e-01 3.903651e-01 7.628633e-01 4.722886e-01
200 2 4 -1.729358e+01 1.382409e+01 -1.354142e+01 0 -1 1 -3.824409e-01 5.462734e-01 6.500159e-01 3.644225e-01
