ITEM: TIMESTEP
197000000
ITEM: NUMBER OF ATOMS
200
ITEM: BOX BOUNDS pp pp pp
-2.0000000000000000e+01 2.0000000000000000e+01
-2.0000000000000000e+01 2.0000000000000000e+01
-2.0000000000000000e+01 2.0000000000000000e+01
ITEM: ATOMS id mol type x y z ix iy iz c_quat[1] c_quat[2] c_quat[3] c_quat[4]
1 1 1 -8.377796e+00 1.677334e+01 7.972945e+00 0 -1 0 -7.612357e-01 3.284234e-01 -4.050575e-01 3.854696e-01
2 1 2 -7.503496e+00 1.718571e+01 7.404153e+00 0 -1 0 -8.154792e-01 -1.344142e-01 -5.283371e-01 -1.943871e-01
3 1 1 -7.507553e+00 1.692830e+01 7.639137e+00 0 -1 0 -2.952703e-02 5.469405e-01 -1.881355e-01 -8.152234e-01
4 1 3 -7.220468e+00 1.590322e+01 7.792233e+00 0 -1 0 2.985180e-01 8.075888e-01 -4.896341e-01 1.376439e-01
5 1 1 -8.631318e+00 1.601036e+01 7.398347e+00 0 -1 0 -1.411092e-01 -6.590624e-01 -1.098547e-01 7.305183e-01
6 1 2 -8.159903e+00 1.540971e+01 7.491172e+00 0 -1 0 -7.292708e-01 4.934145e-01 7.660623e-02 -4.678008e-01
7 1 4 -8.008741e+00 1.502472e+01 7.110550e+00 0 -1 0 4.969247e-01 3.069998e-01 2.299209e-01 7.784300e-01
8 1 1 -8.350278e+00 1.416354e+01 6.200679e+00 0 -1 0 1.658597e-01 -3.187790e-01 8.855052e-01 2.945354e-01
9 1 1 -8.657614e+00 1.452828e+01 6.246461e+00 0 -1 0 2.721047e-01 -7.535440e-01 -3.467554e-01 4.877409e-01
10 1 4 -9.672601e+00 1.415938e+01 5.482715e+00 0 -1 0 1.926212e-02 -4.275232e-01 -7.576068e-01 -4.928335e-01
11 1 1 -9.810930e+00 1.346406e+01 5.935551e+00 0 -1 0 6.824141e-01 -6.060180e-01 -3.271615e-01 -2.449867e-01
12 1 1 -9.992020e+00 1.404960e+01 4.613199e+00 0 -1 0 -6.967203e-01 -3.877623e-01 -4.310889e-01 -4.223548e-01
13 1 3 -1.068851e+01 1.341690e+01 4.785179e+00 0 -1 0 -5.988985e-02 -3.201990e-01 1.970763e-01 9.246874e-01
14 1 4 -1.138354e+01 1.281267e+01 4.648818e+00 0 -1 0 -6.209632e-01 -3.419074e-01 -6.562911e-01 2.584298e-01
15 1 4 -1.133244e+01 1.386066e+01 4.996717e+00 0 -1 0 -3.446309e-01 3.490054e-01 -4.865937e-01 -7.229463e-01
16 1 2 -1.197989e+01 1.358749e+01 6.454418e+00 0 -1 0 2.438121e-01 -2.403222e-01 -9.395050e-01 1.145367e-02
17 1 1 -1.169941e+01 1.374798e+01 7.022288e+00 0 -1 0 -6.655491e-01 6.376083e-01 -3.281935e-01 2.068553e-01
18 1 2 -1.167991e+01 1.331849e+01 6.984996e+00 0 -1 0 -7.572736e-01 -1.757334e-01 -4.880752e-01 3.967835e-01
19 1 3 -1.091389e+01 1.258373e+01 6.683703e+00 0 -1 0 -4.262861e-01 -6.528158e-01 5.960155e-01 1.920342e-01
20 1 1 -1.119615e+01 1.299551e+01 6.536799e+00 0 -1 0 6.317632e-01 -6.173549e-01 -2.635286e-01 3.876865e-01
21 1 4 -1.170374e+01 1.243224e+01 5.533418e+00 0 -1 0 3.812695e-01 2.443931e-01 6.775126e-01 -5.795535e-01
22 1 1 -1.054911e+01 1.150196e+01 5.211750e+00 0 -1 0 -3.195713e-01 6.085944e-01 -7.112808e-01 -1.468557e-01
23 1 4 -1.021856e+01 1.149312e+01 4.831456e+00 0 -1 0 -2.402897e-01 1.886646e-01 -9.272164e-01 -2.166479e-01
24 1 3 -9.966174e+00 1.134206e+01 4.416327e+00 0 -1 0 1.868370e-01 1.552096e-01 9.317705e-01 2.698252e-01
25 1 3 -8.481940e+00 1.154551e+01 4.805479e+00 0 -1 0 -1.735130e-01 8.899835e-01 -3.292395e-01 -2.634842e-01
26 1 4 -8.827652e+00 1.087707e+01 5.254629e+00 0 -1 0 -5.714111e-01 -3.622323e-01 1.617040e-01 7.184211e-01
27 1 4 -9.109145e+00 1.142713e+01 5.789747e+00 0 -1 0 -3.964244e-01 -1.969692e-01 4.723183e-01 7.622114e-01
28 1 1 -7.997113e+00 1.164159e+01 5.681908e+00 0 -1 0 4.299456e-01 7.786261e-04 7.036656e-01 5.656862e-01
29 1 1 -7.841353e+00 1.216700e+01 5.843331e+00 0 -1 0 -6.873576e-01 -6.823210e-01 9.477182e-02 2.302083e-01
30 1 4 -7.979510e+00 1.250189e+01 6.472619e+00 0 -1 0 -2.905793e-01 -2.761458e-01 3.105436e-01 8.618990e-01
31 1 4 -6.947957e+00 1.344692e+01 6.669181e+00 0 -1 0 -7.836408e-01 3.398148e-01 -3.917476e-02 -5.185542e-01
32 1 3 -6.708845e+00 1.371182e+01 6.942217e+00 0 -1 0 -4.252752e-01 1.982390e-01 -1.195681e-01 -8.749547e-01
33 1 3 -6.601993e+00 1.265496e+01 6.152107e+00 0 -1 0 -5.945871e-01 -6.594313e-01 -2.130184e-01 4.077250e-01
34 1 1 -6.183678e+00 1.240265e+01 7.216728e+00 0 -1 0 5.739301e-01 -1.426364e-01 -7.768217e-01 -2.163495e-01
35 1 2 -5.769583e+00 1.299606e+01 7.907770e+00 0 -1 0 3.989481e-01 -5.937788e-01 -2.942149e-01 -6.338018e-01
36 1 2 -5.601683e+00 1.285372e+01 8.567379e+00 0 -1 0 -8.369500e-01 4.188389e-01 -1.295327e-01 3.275819e-01
37 1 1 -5.366094e+00 1.283533e+01 9.080305e+00 0 -1 0 8.822950e-01 -2.753338e-01 3.664710e-01 1.069852e-01
38 1 1 -5.821591e+00 1.280910e+01 9.095055e+00 0 -1 0 2.342980e-01 4.956384e-01 4.558604e-01 7.011693e-01
39 1 4 -6.397573e+00 1.196969e+01 8.425021e+00 0 -1 0 4.538762e-01 6.204033e-01 8.792020e-02 -6.335347e-01
40 1 4 -6.837924e+00 1.172352e+01 9.020670e+00 0 -1 0 -4.049222e-01 7.875383e-01 3.268740e-01 3.301132e-01
41 1 2 -5.892812e+00 1.072425e+01 8.538814e+00 0 -1 0 -3.364061e-01 7.084579e-01 -5.959716e-01 -1.724419e-01
42 1 4 -6.538148e+00 1.071123e+01 9.151709e+00 0 -1 0 -2.617220e-01 3.072414e-01 3.306389e-01 -8.531015e-01
43 1 3 -6.922657e+00 1.083549e+01 9.591353e+00 0 -1 0 -9.132305e-02 -4.168903e-01 -2.028781e-01 8.813076e-01
44 1 2 -7.255983e+00 1.083542e+01 9.804475e+00 0 -1 0 -6.228615e-01 -3.328554e-01 -7.901261e-02 7.035680e-01
45 1 1 -7.649839e+00 1.093233e+01 1.005550e+01 0 -1 0 4.737800e-01 6.037242e-01 -1.204203e-01 -6.297210e-01
46 1 3 -8.148506e+00 1.101200e+01 9.915629e+00 0 -1 0 5.829869e-01 5.998830e-01 -3.089401e-01 -4.525733e-01
47 1 4 -8.459815e+00 1.189102e+01 1.056119e+01 0 -1 0 -6.144022e-01 2.468408e-01 1.694314e-01 7.299812e-01
48 1 1 -8.505155e+00 1.195190e+01 1.138770e+01 0 -1 0 -1.675306e-02 -3.231892e-01 7.817611e-01 -5.330269e-01
49 1 4 -8.434348e+00 1.144814e+01 1.130846e+01 0 -1 0 1.210047e-01 3.130925e-02 8.137533e-01 -5.676118e-01
50 1 4 -8.574338e+00 1.101146e+01 1.144487e+01 0 -1 0 -3.603349e-01 -3.262994e-01 -7.208966e-01 4.939590e-01
51 1 4 -8.618248e+00 1.055515e+01 1.233189e+01 0 -1 0 2.899279e-02 -7.489582e-02 -8.044392e-01 5.885809e-01
52 1 1 -7.087649e+00 1.071614e+01 1.229388e+01 0 -1 0 5.621997e-01 7.182211e-01 -2.856158e-01 2.941317e-01
53 1 3 -7.864002e+00 1.085868e+01 1.332639e+01 0 -1 0 7.786049e-01 -3.235570e-01 -5.290011e-01 9.614103e-02
54 1 4 -8.145272e+00 1.092304e+01 1.381408e+01 0 -1 0 -7.651387e-01 2.553821e-01 4.033938e-01 -4.319910e-01
55 1 4 -8.480342e+00 1.088294e+01 1.427819e+01 0 -1 0 -6.298376e-01 4.026035e-01 2.865241e-01 -5.992654e-01
56 1 4 -8.752562e+00 1.104991e+01 1.467624e+01 0 -1 0 5.986387e-01 -4.375570e-01 -8.736958e-02 6.652384e-01
57 1 1 -8.874817e+00 1.146171e+01 1.506606e+01 0 -1 0 2.083546e-01 -4.812888e-01 2.292646e-02 8.511309e-01
58 1 1 -9.135564e+00 1.196397e+01 1.522998e+01 0 -1 0 2.431938e-02 4.318025e-01 -2.587733e-01 -8.637080e-01
59 1 3 -9.492210e+00 1.237707e+01 1.524199e+01 0 -1 0 -2.319089e-01 -3.908319e-01 4.327499e-01 7.785860e-01
60 1 4 -9.920145e+00 1.263215e+01 1.518913e+01 0 -1 0 -4.210169e-01 -3.837105e-01 5.103070e-01 6.442809e-01
61 1 2 -1.039887e+01 1.272153e+01 1.504374e+01 0 -1 0 -6.655757e-01 -1.935896e-01 5.746796e-01 4.350579e-01
62 1 3 -1.092401e+01 1.255550e+01 1.497935e+01 0 -1 0 7.779858e-01 1.293832e-01 -5.945113e-01 -1.566984e-01
63 1 2 -1.146606e+01 1.236885e+01 1.512863e+01 0 -1 0 -8.319033e-01 1.089243e-01 5.435922e-01 -2.407980e-02
64 1 4 -1.185355e+01 1.220722e+01 1.538465e+01 0 -1 0 8.170348e-01 -2.521882e-01 -4.327676e-01 2.856001e-01
65 1 2 -1.212804e+01 1.210349e+01 1.584256e+01 0 -1 0 7.183439e-01 -3.695806e-01 -3.088487e-01 5.020008e-01
66 1 1 -1.225345e+01 1.230814e+01 1.633540e+01 0 -1 0 4.772271e-01 -4.657276e-01 -1.269655e-01 7.343241e-01
67 1 2 -1.242745e+01 1.268607e+01 1.674742e+01 0 -1 0 -2.856531e-01 4.940884e-01 -1.336452e-01 -8.101962e-01
68 1 1 -1.265450e+01 1.313398e+01 1.692996e+01 0 -1 0 1.687780e-01 -5.275156e-01 2.532954e-01 7.931473e-01
69 1 1 -1.287785e+01 1.362246e+01 1.685525e+01 0 -1 0 -1.533824e-01 -4.051966e-01 4.206687e-01 7.970743e-01
70 1 2 -1.322810e+01 1.394299e+01 1.676843e+01 0 -1 0 2.675908e-01 3.584603e-01 -5.742567e-01 -6.856607e-01
71 1 3 -1.364427e+01 1.418388e+01 1.657092e+01 0 -1 0 -5.404282e-01 -1.953718e-01 6.562428e-01 4.889915e-01
72 1 4 -1.422009e+01 1.424578e+01 1.656851e+01 0 -1 0 -7.583452e-01 -3.447776e-02 5.672271e-01 3.193389e-01
73 1 1 -1.473422e+01 1.409749e+01 1.662528e+01 0 -1 0 -8.208892e-01 1.331733e-01 5.445214e-01 1.090976e-01
74 1 1 -1.518660e+01 1.388182e+01 1.686484e+01 0 -1 0 -7.985071e-01 3.193939e-01 4.874033e-01 -1.510362e-01
75 1 3 -1.552643e+01 1.418193e+01 1.608068e+01 0 -1 0 -4.339507e-01 4.362320e-01 3.371935e-02 7.875604e-01
76 1 1 -1.565767e+01 1.421908e+01 1.500783e+01 0 -1 0 6.336717e-01 7.353095e-01 2.176945e-02 -2.393870e-01
77 1 4 -1.623335e+01 1.354235e+01 1.512387e+01 0 -1 0 -5.165634e-01 5.153374e-01 -6.056171e-01 3.175177e-01
78 1 1 -1.719730e+01 1.346364e+01 1.438273e+01 0 -1 0 8.405323e-02 -5.037779e-02 9.902134e-01 -9.937053e-02
79 1 4 -1.731934e+01 1.327200e+01 1.388437e+01 0 -1 0 -1.675001e-02 3.665607e-01 9.293560e-01 4.062219e-02
80 1 2 -1.672614e+01 1.324798e+01 1.354464e+01 0 -1 0 -9.438935e-02 8.248794e-01 1.313981e-01 5.416634e-01
81 1 4 -1.663665e+01 1.313134e+01 1.249302e+01 0 -1 0 -5.275762e-01 6.860651e-01 8.246425e-02 -4.941433e-01
82 1 4 -1.709491e+01 1.205271e+01 1.174769e+01 0 -1 0 -6.632118e-01 -2.011146e-01 -1.984934e-01 6.930393e-01
83 1 4 -1.749434e+01 1.281724e+01 1.166993e+01 0 -1 0 4.109879e-01 -3.411374e-01 -7.161853e-01 -4.492136e-01
84 1 4 -1.781491e+01 1.323522e+01 1.156488e+01 0 -1 0 -6.247211e-01 5.909431e-01 4.402437e-01 2.582543e-01
85 1 1 -1.877739e+01 1.348721e+01 1.147289e+01 0 -1 0 2.912472e-01 -5.172178e-01 -7.847145e-01 1.785611e-01
86 1 1 -1.838747e+01 1.371250e+01 1.025204e+01 0 -1 0 5.515209e-01 7.486714e-01 -2.414021e-01 -2.775625e-01
87 1 3 -1.844908e+01 1.346415e+01 9.845678e+00 0 -1 0 6.310482e-01 4.271683e-01 -6.445007e-01 -6.264420e-02
88 1 2 -1.924625e+01 1.482032e+01 9.614012e+00 0 -1 0 -3.747906e-01 -6.911613e-01 -5.469273e-01 2.875735e-01
89 1 2 -1.897133e+01 1.495124e+01 1.022093e+01 0 -1 0 5.615103e-01 7.941708e-01 1.741039e-01 -1.539052e-01
90 1 3 -1.964321e+01 1.486771e+01 1.142283e+01 0 -1 0 8.772051e-01 -3.718586e-01 -1.267625e-01 -2.759776e-01
91 1 3 1.971308e+01 1.596613e+01 1.057130e+01 -1 -1 0 3.213448e-02 -4.808691e-01 -8.627813e-01 1.527765e-01
92 1 2 1.941376e+01 1.579059e+01 1.015761e+01 -1 -1 0 1.601537e-02 7.932291e-01 6.072404e-01 -4.231115e-02
93 1 1 1.879966e+01 1.551296e+01 9.768862e+00 -1 -1 0 2.625916e-01 -5.450480e-01 -7.374258e-01 -3.002856e-01
94 1 2 1.851491e+01 1.577719e+01 9.583681e+00 -1 -1 0 -2.672056e-01 9.196663e-01 2.703459e-01 9.863150e-02
95 1 3 1.823063e+01 1.612129e+01 9.440648e+00 -1 -1 0 3.165062e-01 -9.398036e-01 1.049294e-01 7.471880e-02
96 1 2 1.833987e+01 1.647393e+01 9.060447e+00 -1 -1 0 3.437082e-01 -8.481195e-01 3.976021e-01 6.686219e-02
97 1 2 1.846557e+01 1.647764e+01 8.873495e+00 -1 -1 0 -1.997376e-01 -8.099956e-01 -1.428834e-01 -5.325376e-01
98 1 4 1.874474e+01 1.663859e+01 8.696445e+00 -1 -1 0 -6.495885e-02 8.417132e-01 -1.628366e-01 5.106697e-01
99 1 2 1.948513e+01 1.621226e+01 8.879003e+00 -1 -1 0 -1.661930e-01 -6.029970e-01 7.762931e-01 -7.838095e-02
100 1 1 1.917086e+01 1.661550e+01 9.555013e+00 -1 -1 0 -7.931554e-01 1.151543e-01 2.709900e-01 5.331120e-01
101 2 4 -1.602660e+01 1.897649e+01 -1.723375e+01 0 -1 1 4.734966e-01 3.906112e-02 -7.180285e-01 5.086357e-01
102 2 3 -1.586675e+01 1.934038e+01 -1.721521e+01 0 -1 1 -8.836790e-02 -5.427747e-01 -6.861122e-01 4.762738e-01
103 2 1 -1.459731e+01 1.895034e+01 -1.772438e+01 0 -1 1 9.722720e-01 1.799670e-01 -1.487164e-01 1.351060e-02
104 2 3 -1.422963e+01 1.933645e+01 -1.786393e+01 0 -1 1 -4.975750e-01 3.384134e-01 -7.554611e-01 -2.591795e-01
105 2 3 -1.395937e+01 1.989721e+01 -1.858205e+01 0 -1 1 -2.968369e-01 3.296391e-01 -5.804375e-01 -6.828750e-01
106 2 2 -1.383709e+01 -1.972163e+01 -1.877029e+01 0 0 1 1.993791e-02 -5.425671e-02 -6.461033e-01 -7.610580e-01
107 2 3 -1.385969e+01 1.914111e+01 -1.870166e+01 0 -1 1 4.761174e-01 2.011989e-01 -4.054075e-01 -7.539735e-01
108 2 4 -1.331574e+01 1.855996e+01 -1.911825e+01 0 -1 1 7.205645e-01 5.814667e-01 9.630916e-02 -3.652503e-01
109 2 3 -1.344856e+01 1.814370e+01 -1.930122e+01 0 -1 1 7.611967e-01 6.046317e-01 -2.309035e-01 4.103245e-02
110 2 2 -1.340619e+01 1.759002e+01 -1.927733e+01 0 -1 1 7.896811e-01 4.855866e-01 -2.125734e-01 3.089044e-01
111 2 2 -1.427577e+01 1.751058e+01 -1.975936e+01 0 -1 1 -2.487421e-01 -1.732542e-01 9.324049e-01 -1.968030e-01
112 2 3 -1.430911e+01 1.766201e+01 -2.012097e+01 0 -1 1 -4.463349e-01 6.181243e-01 1.740777e-01 -6.232211e-01
113 2 3 -1.522025e+01 1.692556e+01 1.937400e+01 0 -1 0 -5.662627e-01 -2.252214e-02 6.756803e-01 4.714821e-01
114 2 2 -1.571409e+01 1.696643e+01 1.929098e+01 0 -1 0 -6.964771e-01 2.618347e-01 6.198168e-01 2.493782e-01
115 2 4 -1.547857e+01 1.757123e+01 1.878400e+01 0 -1 0 -7.117801e-01 -5.452926e-01 2.164840e-01 3.862120e-01
116 2 4 -1.495461e+01 1.787541e+01 1.811541e+01 0 -1 0 -4.633814e-02 7.705829e-01 -5.505485e-01 -3.177281e-01
117 2 1 -1.549617e+01 1.878580e+01 1.754904e+01 0 -1 0 -1.677894e-01 -5.167289e-01 -2.801029e-01 7.914419e-01
118 2 1 -1.454914e+01 1.848296e+01 1.692984e+01 0 -1 0 -1.432886e-01 -4.643440e-01 5.209082e-01 7.017889e-01
119 2 1 -1.376643e+01 1.841425e+01 1.660950e+01 0 -1 0 6.395714e-01 4.181592e-02 7.572143e-01 1.258027e-01
120 2 1 -1.329877e+01 1.822523e+01 1.736451e+01 0 -1 0 5.244999e-01 -7.830012e-01 1.065895e-01 3.169350e-01
121 2 3 -1.282648e+01 1.772461e+01 1.729336e+01 0 -1 0 6.840939e-01 -4.900055e-01 1.043740e-02 5.401863e-01
122 2 1 -1.295701e+01 1.647429e+01 1.735013e+01 0 -1 0 -7.200410e-01 3.918896e-01 -5.267840e-01 -2.246378e-01
123 2 4 -1.302847e+01 1.686359e+01 1.849537e+01 0 -1 0 -5.315421e-01 6.066015e-01 5.655215e-01 1.722878e-01
124 2 1 -1.345810e+01 1.614144e+01 1.779100e+01 0 -1 0 -2.010554e-01 2.032845e-01 -6.919948e-01 -6.628690e-01
125 2 4 -1.422500e+01 1.544840e+01 1.820939e+01 0 -1 0 -7.989925e-02 9.431075e-02 9.919190e-01 2.860502e-02
126 2 2 -1.469849e+01 1.548059e+01 1.832700e+01 0 -1 0 -1.788706e-02 -2.474125e-01 -3.896435e-01 -8.869301e-01
127 2 4 -1.450998e+01 1.450205e+01 1.772382e+01 0 -1 0 -4.794801e-01 4.879386e-02 -8.030511e-01 3.504668e-01
128 2 4 -1.437853e+01 1.396838e+01 1.774447e+01 0 -1 0 5.849655e-01 2.103109e-01 7.711266e-01 -1.376534e-01
129 2 1 -1.411885e+01 1.359180e+01 1.752834e+01 0 -1 0 5.454701e-01 4.071737e-01 7.321427e-01 -2.527883e-02
130 2 2 -1.405203e+01 1.325545e+01 1.718255e+01 0 -1 0 5.111570e-01 6.381426e-01 5.732616e-01 5.351388e-02
131 2 3 -1.384964e+01 1.291869e+01 1.673045e+01 0 -1 0 4.589844e-01 6.984418e-01 5.050890e-01 2.154007e-01
132 2 4 -1.364596e+01 1.288813e+01 1.625585e+01 0 -1 0 3.707992e-01 8.171709e-01 2.204740e-01 3.822708e-01
133 2 4 -1.314334e+01 1.297978e+01 1.590284e+01 0 -1 0 -2.407639e-01 -7.980581e-01 -2.637185e-02 -5.517613e-01
134 2 3 -1.280887e+01 1.318434e+01 1.564198e+01 0 -1 0 2.221955e-02 -7.920380e-01 2.644459e-01 -5.497730e-01
135 2 4 -1.226344e+01 1.331639e+01 1.570806e+01 0 -1 0 2.520563e-01 -6.719570e-01 4.158678e-01 -5.585655e-01
136 2 3 -1.174980e+01 1.324786e+01 1.591506e+01 0 -1 0 -3.719602e-01 4.446586e-01 -6.629429e-01 4.737415e-01
137 2 1 -1.124932e+01 1.306020e+01 1.606962e+01 0 -1 0 -4.522239e-01 1.972090e-01 -7.814253e-01 3.820689e-01
138 2 3 -1.099663e+01 1.262153e+01 1.618354e+01 0 -1 0 -5.516827e-01 -5.101665e-02 -7.864374e-01 2.730563e-01
139 2 2 -1.074189e+01 1.205506e+01 1.604923e+01 0 -1 0 -5.841202e-01 -2.971554e-01 -7.492531e-01 9.550938e-02
140 2 3 -1.045020e+01 1.174367e+01 1.575931e+01 0 -1 0 4.870447e-01 4.914271e-01 7.219060e-01 1.177139e-02
141 2 1 -1.025569e+01 1.144502e+01 1.532388e+01 0 -1 0 3.314719e-01 6.744995e-01 6.444579e-01 1.408927e-01
142 2 2 -1.021737e+01 1.149401e+01 1.477088e+01 0 -1 0 2.732885e-01 8.380039e-01 3.700386e-01 2.934863e-01
143 2 4 -9.830362e+00 1.157692e+01 1.432401e+01 0 -1 0 -7.390535e-02 -8.765082e-01 -7.142578e-02 -4.702869e-01
144 2 4 -9.378306e+00 1.185556e+01 1.413180e+01 0 -1 0 -1.068491e-01 8.300567e-01 -1.577041e-01 5.241360e-01
145 2 1 -8.837615e+00 1.200960e+01 1.410407e+01 0 -1 0 2.437786e-01 -6.908249e-01 4.907146e-01 -4.717331e-01
146 2 1 -8.276898e+00 1.203756e+01 1.423863e+01 0 -1 0 -3.418556e-01 5.306414e-01 -6.663067e-01 3.969758e-01
147 2 1 -7.796725e+00 1.194153e+01 1.433919e+01 0 -1 0 4.899847e-01 -3.096240e-01 7.521273e-01 -3.136120e-01
148 2 2 -7.397440e+00 1.166491e+01 1.431095e+01 0 -1 0 5.469845e-01 3.674151e-03 8.359362e-01 -4.477912e-02
149 2 4 -6.597812e+00 1.189902e+01 1.436736e+01 0 -1 0 8.899517e-01 -4.988850e-02 1.458254e-01 -4.292226e-01
150 2 1 -5.672375e+00 1.203646e+01 1.497851e+01 0 -1 0 7.021311e-01 -5.564873e-02 -5.563076e-01 4.409501e-01
151 2 1 -6.714298e+00 1.137756e+01 1.509482e+01 0 -1 0 -1.946198e-01 -7.759549e-02 -8.556794e-01 4.731965e-01
152 2 1 -6.770856e+00 1.122263e+01 1.601829e+01 0 -1 0 6.029416e-01 -5.427906e-01 -3.608239e-01 -4.600498e-01
153 2 4 -7.092750e+00 1.076157e+01 1.600613e+01 0 -1 0 6.103572e-01 3.278005e-01 1.654985e-01 -7.018697e-01
154 2 1 -6.655200e+00 1.014489e+01 1.559233e+01 0 -1 0 -8.365492e-01 -5.021501e-01 1.715293e-01 1.364125e-01
155 2 2 -7.689680e+00 1.033722e+01 1.615501e+01 0 -1 0 -6.450377e-01 4.038865e-01 -3.160476e-01 5.664946e-01
156 2 4 -7.600364e+00 1.021609e+01 1.661410e+01 0 -1 0 -8.681939e-01 1.567704e-01 -3.544145e-01 3.099238e-01
157 2 3 -7.823274e+00 9.571289e+00 1.684346e+01 0 -1 0 -7.679194e-01 1.261829e-01 5.708478e-02 6.253951e-01
158 2 2 -8.186963e+00 9.135063e+00 1.703412e+01 0 -1 0 2.911500e-01 -1.830288e-01 -8.770616e-01 3.354030e-01
159 2 1 -8.040265e+00 8.309825e+00 1.736913e+01 0 -1 0 7.204330e-01 -1.973676e-01 7.736044e-02 -6.603315e-01
160 2 3 -8.206562e+00 8.309309e+00 1.777752e+01 0 -1 0 9.436510e-01 -1.098677e-01 -6.027369e-03 -3.121145e-01
161 2 1 -8.221642e+00 8.196880e+00 1.832979e+01 0 -1 0 9.820811e-01 -1.418349e-01 1.238401e-01 -7.944706e-03
162 2 1 -8.138874e+00 8.742236e+00 1.888520e+01 0 -1 0 -7.008878e-01 -4.152048e-01 -1.896171e-01 -5.480937e-01
163 2 4 -8.599552e+00 8.437515e+00 1.950310e+01 0 -1 0 3.962873e-01 -2.810188e-01 1.731566e-01 8.567390e-01
164 2 4 -9.109391e+00 8.433244e+00 1.917506e+01 0 -1 0 -1.913943e-01 2.659057e-01 -8.773776e-01 -3.505294e-01
165 2 3 -8.530754e+00 9.690068e+00 1.972750e+01 0 -1 0 7.486494e-01 -1.599248e-01 1.022547e-01 6.352103e-01
166 2 3 -9.332477e+00 9.557849e+00 1.995969e+01 0 -1 0 7.096397e-01 2.341495e-01 -1.005447e-01 6.568686e-01
167 2 4 -1.023819e+01 9.974654e+00 1.927985e+01 0 -1 0 -4.366858e-01 -1.919017e-02 -5.605075e-01 -7.033979e-01
168 2 2 -1.076213e+01 9.555420e+00 1.937725e+01 0 -1 0 7.145160e-01 -3.573084e-01 1.341824e-01 -5.863384e-01
169 2 2 -1.030319e+01 9.141224e+00 1.949473e+01 0 -1 0 6.020349e-01 -6.853072e-01 3.584181e-01 1.986064e-01
170 2 1 -1.101582e+01 8.337146e+00 1.898525e+01 0 -1 0 -7.573628e-01 -4.953125e-01 -2.622496e-02 4.247109e-01
171 2 1 -1.123555e+01 7.973852e+00 1.887416e+01 0 -1 0 8.884991e-01 3.631775e-01 -2.472237e-01 -1.324834e-01
172 2 4 -1.133331e+01 8.646443e+00 1.832666e+01 0 -1 0 7.260054e-01 -1.474089e-01 -3.126539e-03 6.716971e-01
173 2 4 -1.168659e+01 8.397147e+00 1.753781e+01 0 -1 0 3.135795e-01 9.049362e-01 2.609246e-01 1.211474e-01
174 2 1 -1.151690e+01 8.415849e+00 1.709812e+01 0 -1 0 -2.415793e-01 -9.244243e-01 1.585869e-01 -2.488563e-01
175 2 1 -1.270983e+01 7.482836e+00 1.736102e+01 0 -1 0 2.835260e-01 -2.970435e-01 -8.882914e-01 2.057101e-01
176 2 2 -1.252773e+01 7.437495e+00 1.725883e+01 0 -1 0 -6.623104e-01 -7.090215e-01 3.048943e-02 2.402163e-01
177 2 2 -1.322939e+01 7.216733e+00 1.862851e+01 0 -1 0 -5.651097e-01 2.420854e-01 3.555310e-01 7.040195e-01
178 2 1 -1.361432e+01 7.478439e+00 1.895854e+01 0 -1 0 7.819276e-01 -4.624736e-01 -1.212363e-01 -4.000114e-01
179 2 4 -1.358926e+01 7.687527e+00 1.944173e+01 0 -1 0 -8.168878e-01 5.513979e-01 -1.569452e-01 6.342632e-02
180 2 1 -1.435349e+01 8.711096e+00 1.846607e+01 0 -1 0 2.009673e-01 4.443081e-01 -2.251154e-01 -8.435197e-01
181 2 4 -1.474001e+01 9.011012e+00 1.840391e+01 0 -1 0 -5.153848e-01 -2.502762e-01 3.382842e-01 7.465281e-01
182 2 2 -1.516278e+01 9.083511e+00 1.841464e+01 0 -1 0 -7.363245e-01 -7.535112e-02 5.616875e-01 3.696696e-01
183 2 3 -1.498119e+01 9.657626e+00 1.810430e+01 0 -1 0 -4.715313e-01 5.566389e-01 2.239182e-01 6.462755e-01
184 2 4 -1.453942e+01 8.460847e+00 1.754554e+01 0 -1 0 -7.844786e-01 3.211655e-01 -5.255747e-01 7.223086e-02
185 2 3 -1.555470e+01 8.330594e+00 1.786323e+01 0 -1 0 8.397448e-01 8.544056e-02 1.325254e-01 -5.195822e-01
186 2 1 -1.584909e+01 8.865864e+00 1.707154e+01 0 -1 0 -5.018472e-01 5.485405e-02 -8.227024e-01 -2.613449e-01
187 2 1 -1.629148e+01 9.746390e+00 1.677926e+01 0 -1 0 5.928559e-02 1.565774e-01 9.989024e-02 -9.808112e-01
188 2 2 -1.659518e+01 9.898788e+00 1.709592e+01 0 -1 0 -5.312829e-01 -1.507056e-01 5.015998e-02 8.321720e-01
189 2 4 -1.617854e+01 1.036924e+01 1.739834e+01 0 -1 0 -3.823046e-01 -7.634800e-01 4.714533e-01 2.206200e-01
190 2 4 -1.655693e+01 1.058878e+01 1.734087e+01 0 -1 0 -8.575451e-01 7.033397e-03 3.610244e-01 -3.663719e-01
191 2 1 -1.757339e+01 1.108793e+01 1.655875e+01 0 -1 0 -5.921566e-02 6.664444e-01 -2.022540e-01 -7.151494e-01
192 2 4 -1.867060e+01 1.130139e+01 1.692886e+01 0 -1 0 -3.994531e-02 -7.809465e-01 -6.228172e-01 -2.501362e-02
193 2 4 -1.832090e+01 9.983081e+00 1.707508e+01 0 -1 0 6.215687e-01 -9.202605e-02 -7.683110e-01 1.219904e-01
194 2 1 -1.861008e+01 1.031647e+01 1.593389e+01 0 -1 0 -6.929397e-01 5.134789e-02 -5.697689e-01 -4.388181e-01
195 2 3 -1.880761e+01 1.026463e+01 1.564170e+01 0 -1 0 3.300453e-01 -7.592962e-01 5.549465e-01 8.107825e-02
196 2 4 -1.985801e+01 1.143259e+01 1.516853e+01 0 -1 0 -1.279907e-01 3.229327e-01 -2.595889e-01 -9.010807e-01
197 2 2 -1.980746e+01 1.160045e+01 1.540118e+01 0 -1 0 -2.111753e-01 1.015993e-01 8.477259e-01 -4.758607e-01
198 2 4 -1.988777e+01 1.244232e+01 1.480546e+01 0 -1 0 3.434349e-01 1.687634e-01 2.974376e-01 -8.747012e-01
199 2 3 -1.904543e+01 1.213105e+01 1.471078e+01 0 -1 0 7.501808e-01 -1.622319e-01 -5.528309e-01 3.244805e-01
200 2 4 -1.952260e+01 1.198341e+01 1.353835e+01 0 -1 0 -1.341631e-02 8.038631e-01 -3.280258e-01 -4.960073e-01
