ITEM: TIMESTEP
193000000
ITEM: NUMBER OF ATOMS
200
ITEM: BOX BOUNDS pp pp pp
-2.0000000000000000e+01 2.0000000000000000e+01
-2.0000000000000000e+01 2.0000000000000000e+01
-2.0000000000000000e+01 2.0000000000000000e+01
ITEM: ATOMS id mol type x y z ix iy iz c_quat[1] c_quat[2] c_quat[3] c_quat[4]
1 1 1 -1.082652e+01 1.497407e+01 4.911774e-01 0 -1 0 -5.642105e-01 -1.588812e-01 1.366200e-01 7.985977e-01
2 1 2 -1.124880e+01 1.490176e+01 8.429138e-01 0 -1 0 8.810925e-01 1.425888e-01 -8.320021e-02 -4.431954e-01
3 1 1 -1.133077e+01 1.535352e+01 1.236712e+00 0 -1 0 -8.799842e-01 -1.498505e-01 -3.872354e-01 -2.306977e-01
4 1 3 -1.115158e+01 1.534132e+01 1.882671e+00 0 -1 0 -5.094147e-01 -8.466652e-01 -1.502593e-01 -3.281385e-02
5 1 1 -1.158466e+01 1.479771e+01 2.451348e+00 0 -1 0 6.562375e-02 -1.824246e-01 5.751973e-01 7.947093e-01
6 1 2 -1.213034e+01 1.466947e+01 2.628594e+00 0 -1 0 8.265378e-01 1.356242e-01 -2.935850e-01 -4.607051e-01
7 1 4 -1.234022e+01 1.498997e+01 2.962109e+00 0 -1 0 -6.361801e-02 -5.834469e-01 -1.420534e-01 7.970968e-01
8 1 1 -1.280270e+01 1.509181e+01 3.079418e+00 0 -1 0 -3.158182e-01 -6.528698e-01 8.010961e-02 6.838145e-01
9 1 1 -1.324654e+01 1.517278e+01 2.882191e+00 0 -1 0 5.823597e-01 5.235332e-01 -3.659636e-01 -5.028329e-01
10 1 4 -1.361250e+01 1.501056e+01 2.577014e+00 0 -1 0 7.094275e-01 2.216242e-01 -6.441231e-01 -1.808336e-01
11 1 1 -1.443732e+01 1.550306e+01 2.404971e+00 0 -1 0 6.092081e-01 -1.764303e-01 -7.562030e-01 -1.609188e-01
12 1 1 -1.485841e+01 1.494926e+01 1.666084e+00 0 -1 0 -6.961264e-02 2.998117e-01 8.956590e-01 3.210326e-01
13 1 3 -1.473160e+01 1.465507e+01 1.007852e+00 0 -1 0 -1.733533e-01 -6.381327e-01 -7.328977e-01 1.599883e-01
14 1 4 -1.465050e+01 1.415433e+01 1.484576e+00 0 -1 0 -2.172384e-01 2.037156e-03 -2.632912e-03 -9.761129e-01
15 1 4 -1.436789e+01 1.357464e+01 1.976303e+00 0 -1 0 -8.780544e-01 -2.260743e-03 -4.166233e-01 -2.354579e-01
16 1 2 -1.383621e+01 1.349222e+01 2.033307e+00 0 -1 0 -7.077264e-01 -2.251356e-01 -3.200405e-01 -5.882274e-01
17 1 1 -1.442518e+01 1.244075e+01 2.331326e+00 0 -1 0 2.532007e-01 -4.289625e-01 5.544321e-01 -6.666975e-01
18 1 2 -1.424569e+01 1.210760e+01 2.652116e+00 0 -1 0 -6.077347e-01 1.273148e-01 -6.552022e-01 4.303016e-01
19 1 3 -1.401601e+01 1.156624e+01 2.659359e+00 0 -1 0 6.674763e-01 2.272701e-01 6.912875e-01 -1.579405e-01
20 1 1 -1.396570e+01 1.195005e+01 3.963172e+00 0 -1 0 -4.358831e-01 -6.020113e-01 2.582351e-01 -6.171733e-01
21 1 4 -1.387282e+01 1.157029e+01 4.302386e+00 0 -1 0 -5.193544e-01 5.401838e-01 4.185379e-01 5.131262e-01
22 1 1 -1.361268e+01 1.251439e+01 3.536370e+00 0 -1 0 2.998197e-02 5.249417e-01 -2.032722e-01 -8.259647e-01
23 1 4 -1.327595e+01 1.268863e+01 4.771608e+00 0 -1 0 6.178808e-02 -9.118079e-01 -3.058975e-01 -2.668621e-01
24 1 3 -1.283649e+01 1.253650e+01 5.749273e+00 0 -1 0 -2.379714e-01 -4.781401e-01 5.191954e-01 -6.672239e-01
25 1 3 -1.257972e+01 1.207478e+01 5.105519e+00 0 -1 0 1.037981e-01 7.183199e-02 -9.086811e-01 3.979507e-01
26 1 4 -1.215532e+01 1.347157e+01 4.661773e+00 0 -1 0 -1.347676e-01 5.058320e-01 2.862344e-01 -8.025220e-01
27 1 4 -1.301270e+01 1.384314e+01 4.540989e+00 0 -1 0 -1.382229e-01 -3.140084e-01 -2.044347e-01 9.167876e-01
28 1 1 -1.231459e+01 1.472598e+01 4.934168e+00 0 -1 0 1.570798e-01 8.253894e-01 -2.360487e-02 5.417574e-01
29 1 1 -1.204034e+01 1.428502e+01 4.585725e+00 0 -1 0 -4.735839e-01 -3.121244e-01 -8.090434e-01 -1.540956e-01
30 1 4 -1.065790e+01 1.431790e+01 4.750638e+00 0 -1 0 6.396617e-01 -5.156601e-01 2.373446e-01 5.182616e-01
31 1 4 -1.062689e+01 1.367507e+01 4.784638e+00 0 -1 0 4.871958e-01 -5.314626e-02 7.631918e-01 4.211342e-01
32 1 3 -1.009939e+01 1.287221e+01 5.259204e+00 0 -1 0 -4.480419e-01 -3.652540e-01 7.698762e-01 2.704416e-01
33 1 3 -9.724028e+00 1.369829e+01 6.011325e+00 0 -1 0 -7.713499e-01 5.400397e-01 -4.466297e-02 3.337389e-01
34 1 1 -9.505819e+00 1.385656e+01 6.510450e+00 0 -1 0 7.967073e-01 -5.605961e-01 2.209963e-01 4.636918e-02
35 1 2 -1.022886e+01 1.429927e+01 7.175125e+00 0 -1 0 6.808658e-02 -2.400573e-01 -3.627971e-01 -8.978390e-01
36 1 2 -1.047082e+01 1.321208e+01 6.958220e+00 0 -1 0 8.037704e-02 -2.479290e-01 -9.326930e-01 2.493079e-01
37 1 1 -1.088223e+01 1.302668e+01 6.635937e+00 0 -1 0 1.427373e-01 -6.033367e-01 -7.596412e-01 1.963570e-01
38 1 1 -1.130804e+01 1.305259e+01 6.371513e+00 0 -1 0 3.435581e-02 9.021218e-01 3.651970e-01 -2.272162e-01
39 1 4 -1.173453e+01 1.206315e+01 6.833340e+00 0 -1 0 8.242799e-01 1.582826e-01 3.816828e-01 -3.870757e-01
40 1 4 -1.097714e+01 1.216295e+01 7.505173e+00 0 -1 0 -5.791222e-01 5.576522e-01 2.776758e-01 -5.258685e-01
41 1 2 -1.180415e+01 1.167114e+01 7.167030e+00 0 -1 0 4.896680e-01 7.591357e-01 4.129829e-01 -1.156866e-01
42 1 4 -1.171832e+01 1.165077e+01 8.659533e+00 0 -1 0 7.112594e-01 -6.306652e-01 -2.533796e-03 -3.104270e-01
43 1 3 -1.146072e+01 1.205089e+01 8.985320e+00 0 -1 0 -6.428795e-01 6.534516e-01 -3.853834e-01 1.057669e-01
44 1 2 -1.105099e+01 1.214773e+01 9.223637e+00 0 -1 0 6.913571e-01 -3.343052e-01 6.051301e-01 2.099594e-01
45 1 1 -1.152479e+01 1.337583e+01 9.713046e+00 0 -1 0 -1.837426e-01 3.731548e-01 4.356050e-01 7.982747e-01
46 1 3 -1.145339e+01 1.394224e+01 9.945733e+00 0 -1 0 4.685450e-01 -5.156199e-01 -7.238544e-02 -7.136961e-01
47 1 4 -1.090396e+01 1.414983e+01 1.025525e+01 0 -1 0 -4.787157e-01 4.079772e-01 -1.630298e-01 7.601363e-01
48 1 1 -1.081875e+01 1.534277e+01 9.899713e+00 0 -1 0 -3.797277e-01 -3.643710e-01 1.334662e-01 -8.397782e-01
49 1 4 -1.180614e+01 1.551961e+01 9.334090e+00 0 -1 0 -4.452904e-02 4.014837e-01 7.846031e-02 -9.114121e-01
50 1 4 -1.222672e+01 1.573134e+01 9.666673e+00 0 -1 0 2.783085e-01 5.013511e-01 -4.516554e-03 -8.192503e-01
51 1 4 -1.274225e+01 1.500619e+01 1.078208e+01 0 -1 0 4.769186e-01 -4.022869e-01 -7.202563e-01 -3.032240e-01
52 1 1 -1.313979e+01 1.523541e+01 1.071893e+01 0 -1 0 -6.054599e-01 6.197992e-01 4.953749e-01 6.221755e-02
53 1 3 -1.354577e+01 1.543433e+01 1.090546e+01 0 -1 0 6.590270e-01 -6.662886e-01 -2.982101e-01 1.811455e-01
54 1 4 -1.380213e+01 1.574244e+01 1.118154e+01 0 -1 0 -7.098287e-01 5.932905e-01 9.047642e-02 -3.687326e-01
55 1 4 -1.397849e+01 1.622174e+01 1.142275e+01 0 -1 0 -5.517794e-01 7.117976e-01 -1.291996e-01 -4.149592e-01
56 1 4 -1.395854e+01 1.672827e+01 1.153256e+01 0 -1 0 4.158389e-01 -6.444287e-01 3.451113e-01 5.410062e-01
57 1 1 -1.387446e+01 1.731632e+01 1.135218e+01 0 -1 0 2.294538e-01 -5.738634e-01 5.631086e-01 5.485804e-01
58 1 1 -1.383524e+01 1.771475e+01 1.099886e+01 0 -1 0 7.346331e-02 2.764378e-01 -7.466529e-01 -6.005786e-01
59 1 3 -1.397668e+01 1.795217e+01 1.048013e+01 0 -1 0 -2.013905e-01 -2.401475e-01 8.131534e-01 4.904616e-01
60 1 4 -1.423060e+01 1.815700e+01 1.013699e+01 0 -1 0 -3.906495e-01 -2.282725e-02 8.399195e-01 3.760415e-01
61 1 2 -1.472376e+01 1.815627e+01 9.816513e+00 0 -1 0 -4.843648e-01 3.506537e-01 7.252722e-01 3.411935e-01
62 1 3 -1.512406e+01 1.844864e+01 9.760522e+00 0 -1 0 6.175020e-01 -4.384890e-01 -6.226745e-01 -1.967108e-01
63 1 2 -1.562282e+01 1.856051e+01 9.861184e+00 0 -1 0 -6.502794e-01 5.809482e-01 4.868498e-01 -5.111860e-02
64 1 4 -1.599489e+01 1.887636e+01 1.004740e+01 0 -1 0 5.869481e-01 -7.393054e-01 -2.439303e-01 2.223002e-01
65 1 2 -1.620598e+01 1.935566e+01 1.016556e+01 0 -1 0 6.667349e-01 -7.036939e-01 -5.205458e-02 2.399372e-01
66 1 1 -1.611175e+01 1.984505e+01 1.032887e+01 0 -1 0 4.480918e-01 -7.069672e-01 2.543948e-01 4.844526e-01
67 1 2 -1.625474e+01 -1.962839e+01 1.029280e+01 0 0 0 -4.440273e-01 7.016030e-01 -3.645289e-01 -4.215585e-01
68 1 1 -1.608369e+01 -1.913562e+01 1.014688e+01 0 0 0 1.348917e-01 -5.317196e-01 5.674108e-01 6.141038e-01
69 1 1 -1.597559e+01 -1.869035e+01 9.783035e+00 0 0 0 -8.159714e-02 -3.346536e-01 6.936489e-01 6.326136e-01
70 1 2 -1.621550e+01 -1.835220e+01 9.386020e+00 0 0 0 2.770170e-01 2.258640e-01 -7.714462e-01 -5.264198e-01
71 1 3 -1.654974e+01 -1.827673e+01 9.037630e+00 0 0 0 4.285649e-01 -6.356427e-02 -8.316366e-01 -3.473792e-01
72 1 4 -1.604050e+01 -1.788604e+01 8.856137e+00 0 0 0 -3.429963e-01 3.481244e-01 -6.317289e-01 6.017321e-01
73 1 1 -1.532642e+01 -1.845304e+01 8.464620e+00 0 0 0 -8.583688e-03 -7.614759e-01 6.124780e-01 -2.120176e-01
74 1 1 -1.510879e+01 -1.849980e+01 7.710725e+00 0 0 0 8.628623e-01 -1.123840e-01 4.447609e-03 4.927663e-01
75 1 3 -1.592297e+01 -1.897804e+01 7.049997e+00 0 0 0 4.964240e-01 -1.751135e-01 5.628129e-01 -6.372913e-01
76 1 1 -1.573928e+01 -1.881339e+01 5.979137e+00 0 0 0 -6.824016e-01 2.565052e-01 -4.693088e-01 -4.982794e-01
77 1 4 -1.680036e+01 -1.817071e+01 5.622899e+00 0 0 0 -2.943699e-01 -5.565145e-01 -7.697690e-01 1.053266e-01
78 1 1 -1.673142e+01 -1.844664e+01 5.177522e+00 0 0 0 -2.321497e-01 -7.507517e-01 -6.184398e-01 3.257728e-03
79 1 4 -1.692724e+01 -1.850712e+01 4.753044e+00 0 0 0 2.468469e-01 9.318672e-01 2.575404e-01 6.605316e-02
80 1 2 -1.784576e+01 -1.828280e+01 5.168241e+00 0 0 0 -2.273389e-03 3.468139e-02 -6.882095e-01 7.246790e-01
81 1 4 -1.735478e+01 -1.777726e+01 4.194851e+00 0 0 0 7.308299e-01 2.638729e-01 -1.544623e-01 6.102460e-01
82 1 4 -1.703028e+01 -1.819068e+01 3.646857e+00 0 0 0 -5.204821e-02 -5.826365e-01 4.402700e-01 6.811667e-01
83 1 4 -1.710517e+01 -1.787841e+01 3.390821e+00 0 0 0 -1.488482e-01 -2.726043e-01 7.306363e-01 6.080310e-01
84 1 4 -1.741620e+01 -1.773665e+01 3.107207e+00 0 0 0 -4.482588e-01 1.784066e-01 7.614965e-01 4.328490e-01
85 1 1 -1.757852e+01 -1.707940e+01 2.762087e+00 0 0 0 -3.669137e-01 2.535688e-01 8.079676e-01 -3.850527e-01
86 1 1 -1.807204e+01 -1.739465e+01 2.691693e+00 0 0 0 -3.347353e-01 5.421318e-01 6.217427e-01 -4.555013e-01
87 1 3 -1.745977e+01 -1.839793e+01 2.178275e+00 0 0 0 5.933636e-01 7.668997e-01 1.814809e-01 -1.638572e-01
88 1 2 -1.745451e+01 -1.943116e+01 2.965609e+00 0 0 0 -3.164244e-01 1.704380e-02 9.395148e-01 -1.299888e-01
89 1 2 -1.746106e+01 -1.965757e+01 2.136759e+00 0 0 0 -2.595893e-01 -7.738031e-01 2.006371e-01 5.418366e-01
90 1 3 -1.831991e+01 1.998085e+01 2.057312e+00 0 -1 0 -1.568324e-01 -2.515188e-01 -6.848127e-01 6.657127e-01
91 1 3 -1.863173e+01 1.958746e+01 2.274916e+00 0 -1 0 3.912276e-01 4.632960e-01 5.844233e-01 -5.392098e-01
92 1 2 -1.889663e+01 1.926708e+01 2.351092e+00 0 -1 0 -7.636161e-01 -5.109223e-01 -2.510289e-01 3.046857e-01
93 1 1 -1.936451e+01 -1.963147e+01 2.968278e+00 0 0 0 6.021817e-03 5.025712e-01 6.358885e-01 -5.856891e-01
94 1 2 -1.850636e+01 -1.933646e+01 3.851285e+00 0 0 0 -1.504661e-01 -9.131575e-01 1.072399e-01 -3.633221e-01
95 1 3 -1.894898e+01 -1.892469e+01 4.267472e+00 0 0 0 -8.004312e-01 2.742846e-01 3.861010e-01 -3.674287e-01
96 1 2 1.992548e+01 -1.891611e+01 3.595392e+00 -1 0 0 5.009731e-01 5.643164e-02 -6.878426e-01 -5.222203e-01
97 1 2 1.943281e+01 -1.886652e+01 3.567639e+00 -1 0 0 -7.293064e-01 1.982335e-01 6.116736e-01 2.338186e-01
98 1 4 -1.994590e+01 -1.845449e+01 4.065807e+00 0 0 0 7.243834e-01 4.232940e-01 -1.228354e-01 5.300965e-01
99 1 2 1.856812e+01 -1.843467e+01 3.980546e+00 -1 0 0 2.021274e-01 -2.111746e-01 -9.305060e-01 -2.207000e-01
100 1 1 1.890376e+01 -1.844650e+01 3.952277e+00 -1 0 0 5.579734e-01 -6.550273e-01 -1.974772e-01 4.696889e-01
101 2 4 -1.551262e+01 -8.431671e+00 8.384377e+00 0 0 0 4.377553e-01 -3.183124e-01 -7.409713e-01 -3.975036e-01
102 2 3 -1.455290e+01 -8.634773e+00 9.188071e+00 0 0 0 -7.743893e-01 2.028125e-01 5.962798e-01 -6.032154e-02
103 2 1 -1.434354e+01 -8.871832e+00 8.605291e+00 0 0 0 2.564540e-01 5.226663e-02 -2.502709e-01 -9.321288e-01
104 2 3 -1.330036e+01 -9.877574e+00 8.800523e+00 0 0 0 -4.803381e-01 -6.123500e-01 5.225755e-01 -3.481632e-01
105 2 3 -1.296159e+01 -1.026234e+01 8.785402e+00 0 0 0 1.601436e-01 3.179602e-01 -7.878013e-01 5.026177e-01
106 2 2 -1.349801e+01 -1.023328e+01 7.666895e+00 0 0 0 2.279796e-01 -3.270997e-01 9.152762e-01 5.745068e-02
107 2 3 -1.454222e+01 -9.894721e+00 7.335080e+00 0 0 0 1.870422e-01 5.126520e-01 1.688295e-01 -8.207922e-01
108 2 4 -1.510540e+01 -1.087650e+01 8.146834e+00 0 0 0 7.755400e-01 -1.891535e-01 -3.672770e-01 -4.773534e-01
109 2 3 -1.545200e+01 -1.077450e+01 8.449451e+00 0 0 0 8.927754e-01 -4.223200e-01 -1.535775e-01 -3.180963e-02
110 2 2 -1.583332e+01 -1.056073e+01 8.690870e+00 0 0 0 -9.927373e-01 6.187610e-02 -1.731161e-02 1.017073e-01
111 2 2 -1.658735e+01 -1.060189e+01 8.901710e+00 0 0 0 2.219523e-01 -4.005436e-01 8.500079e-01 2.603623e-01
112 2 3 -1.680110e+01 -1.103833e+01 9.117067e+00 0 0 0 4.796163e-02 7.078971e-01 -6.562829e-01 2.566595e-01
113 2 3 -1.749483e+01 -1.055106e+01 8.748399e+00 0 0 0 3.682096e-01 7.637931e-01 -3.742841e-01 -3.754373e-01
114 2 2 -1.878912e+01 -1.027198e+01 8.943466e+00 0 0 0 8.324797e-02 -8.680213e-02 3.868679e-01 9.142584e-01
115 2 4 -1.843215e+01 -1.100499e+01 9.346353e+00 0 0 0 -5.420033e-01 -8.883244e-02 -7.422628e-01 -3.839104e-01
116 2 4 -1.832549e+01 -1.179654e+01 9.542472e+00 0 0 0 4.697779e-01 -4.027284e-01 6.117875e-01 4.927826e-01
117 2 1 -1.958380e+01 -1.143222e+01 9.534477e+00 0 0 0 -2.579315e-01 -1.665511e-01 -7.006445e-01 -6.440724e-01
118 2 1 -1.938293e+01 -1.236394e+01 1.071240e+01 0 0 0 -4.935470e-01 2.401735e-01 -6.154811e-01 5.656068e-01
119 2 1 -1.898144e+01 -1.265541e+01 1.091810e+01 0 0 0 -6.003578e-01 -6.844486e-02 -7.260535e-01 3.282257e-01
120 2 1 -1.813577e+01 -1.310783e+01 1.154096e+01 0 0 0 6.122673e-01 5.756468e-01 -4.436108e-01 3.113984e-01
121 2 3 -1.797531e+01 -1.372494e+01 1.152751e+01 0 0 0 -5.548417e-01 -4.784370e-01 4.778886e-01 -4.846352e-01
122 2 1 -1.769664e+01 -1.417073e+01 1.167189e+01 0 0 0 -3.113931e-01 -3.058350e-01 5.646353e-01 -7.004900e-01
123 2 4 -1.741696e+01 -1.480652e+01 1.194833e+01 0 0 0 1.943808e-01 5.658571e-01 -3.582910e-01 7.166934e-01
124 2 1 -1.717382e+01 -1.608985e+01 1.134615e+01 0 0 0 5.009982e-01 5.960978e-01 -5.174430e-01 -3.548535e-01
125 2 4 -1.761948e+01 -1.640164e+01 1.100472e+01 0 0 0 -6.812969e-01 -3.132088e-01 6.425464e-01 1.576989e-01
126 2 2 -1.778444e+01 -1.586187e+01 1.005698e+01 0 0 0 4.123428e-01 7.425570e-01 3.898917e-01 3.557626e-01
127 2 4 -1.790259e+01 -1.664125e+01 1.043749e+01 0 0 0 1.227731e-01 -9.962668e-02 -5.491165e-01 8.206536e-01
128 2 4 -1.747546e+01 -1.781047e+01 9.878279e+00 0 0 0 -6.270099e-01 -1.828238e-01 -6.430763e-01 3.998586e-01
129 2 1 -1.714633e+01 -1.817052e+01 9.997556e+00 0 0 0 -5.019962e-01 -2.293274e-01 -7.078272e-01 4.408962e-01
130 2 2 -1.720944e+01 -1.862816e+01 9.897611e+00 0 0 0 -6.828620e-01 -5.156457e-01 -4.992082e-01 1.363823e-01
131 2 3 -1.713331e+01 -1.912075e+01 9.720765e+00 0 0 0 6.324730e-01 6.794866e-01 3.531223e-01 1.165356e-01
132 2 4 -1.690922e+01 -1.935939e+01 9.301182e+00 0 0 0 5.698335e-01 7.437270e-01 2.259046e-02 3.487831e-01
133 2 4 -1.649881e+01 -1.967007e+01 9.157688e+00 0 0 0 -4.719865e-01 -6.744605e-01 3.732300e-02 -5.665146e-01
134 2 3 -1.601555e+01 -1.980764e+01 9.113727e+00 0 0 0 -3.117737e-01 -5.866369e-01 2.934335e-01 -6.874235e-01
135 2 4 -1.552946e+01 2.002025e+01 9.274090e+00 0 -1 0 -9.189321e-02 -4.460245e-01 4.096178e-01 -7.904626e-01
136 2 3 -1.518746e+01 1.977307e+01 9.600383e+00 0 -1 0 -4.716825e-02 2.930656e-01 -4.272382e-01 8.540229e-01
137 2 1 -1.495962e+01 1.958634e+01 1.003185e+01 0 -1 0 -2.918564e-01 1.181609e-01 -4.386315e-01 8.417008e-01
138 2 3 -1.496416e+01 1.928511e+01 1.055323e+01 0 -1 0 -4.913083e-01 -3.044308e-02 -5.187289e-01 6.990063e-01
139 2 2 -1.495193e+01 1.883525e+01 1.089956e+01 0 -1 0 -5.915012e-01 -2.587802e-01 -5.163138e-01 5.626537e-01
140 2 3 -1.509367e+01 1.837197e+01 1.099940e+01 0 -1 0 6.918028e-01 4.197839e-01 4.325672e-01 -3.975876e-01
141 2 1 -1.509179e+01 1.786503e+01 1.088512e+01 0 -1 0 7.342549e-01 5.893033e-01 3.174069e-01 -1.133325e-01
142 2 2 -1.500222e+01 1.738266e+01 1.072769e+01 0 -1 0 7.376122e-01 6.095323e-01 2.617533e-01 1.260309e-01
143 2 4 -1.469341e+01 1.700899e+01 1.047801e+01 0 -1 0 -6.125787e-01 -6.551255e-01 -7.151982e-02 -4.363976e-01
144 2 4 -1.425217e+01 1.683990e+01 1.032702e+01 0 -1 0 4.319391e-01 6.910346e-01 -1.013582e-01 5.706368e-01
145 2 1 -1.368789e+01 1.674629e+01 1.035768e+01 0 -1 0 -2.879789e-01 -5.504764e-01 3.274988e-01 -7.118908e-01
146 2 1 -1.325945e+01 1.661151e+01 1.058912e+01 0 -1 0 -1.590153e-02 4.456231e-01 -4.419190e-01 7.783796e-01
147 2 1 -1.290824e+01 1.650635e+01 1.089166e+01 0 -1 0 2.180291e-01 -3.024495e-01 5.272654e-01 -7.635305e-01
148 2 2 -1.266382e+01 1.621005e+01 1.122396e+01 0 -1 0 -4.425522e-01 4.049434e-02 -5.676352e-01 6.930354e-01
149 2 4 -1.258221e+01 1.584510e+01 1.157350e+01 0 -1 0 5.375967e-01 1.463907e-01 4.911854e-01 -6.695495e-01
150 2 1 -1.268506e+01 1.542175e+01 1.188841e+01 0 -1 0 7.058510e-01 2.947520e-01 4.951277e-01 -4.120003e-01
151 2 1 -1.278816e+01 1.498680e+01 1.199158e+01 0 -1 0 -7.595022e-01 -5.372014e-01 -2.821956e-01 2.343857e-01
152 2 1 -1.327030e+01 1.451371e+01 1.205742e+01 0 -1 0 -5.268809e-01 -6.689632e-01 -3.462871e-01 3.936623e-01
153 2 4 -1.369853e+01 1.480622e+01 1.289711e+01 0 -1 0 -2.470313e-01 -1.722916e-01 -4.784862e-01 -8.248285e-01
154 2 1 -1.287111e+01 1.448955e+01 1.359850e+01 0 -1 0 -2.094235e-01 -5.002501e-01 1.558518e-01 -8.255918e-01
155 2 2 -1.276686e+01 1.482231e+01 1.373414e+01 0 -1 0 3.225316e-02 -7.508871e-01 -1.770768e-01 6.354307e-01
156 2 4 -1.199471e+01 1.425161e+01 1.500470e+01 0 -1 0 7.938721e-01 -5.223343e-01 -2.508323e-01 1.844372e-01
157 2 3 -1.226666e+01 1.456285e+01 1.541181e+01 0 -1 0 8.144236e-01 -5.074705e-01 -1.342693e-01 2.473049e-01
158 2 2 -1.241135e+01 1.486082e+01 1.579154e+01 0 -1 0 7.755872e-01 -4.297184e-01 5.933573e-02 4.585695e-01
159 2 1 -1.303317e+01 1.507205e+01 1.569734e+01 0 -1 0 -3.078294e-01 1.524913e-01 -8.704317e-01 -3.526133e-01
160 2 3 -1.374694e+01 1.600696e+01 1.673501e+01 0 -1 0 1.128846e-01 -3.554008e-01 -5.459223e-01 7.502774e-01
161 2 1 -1.415675e+01 1.589962e+01 1.693688e+01 0 -1 0 2.671550e-01 5.978750e-01 3.277982e-01 -6.809714e-01
162 2 1 -1.466518e+01 1.565079e+01 1.688722e+01 0 -1 0 -5.950761e-01 -6.552459e-01 -9.488890e-02 4.555584e-01
163 2 4 -1.494778e+01 1.606653e+01 1.819883e+01 0 -1 0 -1.198932e-01 9.002458e-01 3.599247e-01 2.136290e-01
164 2 4 -1.497533e+01 1.463239e+01 1.826458e+01 0 -1 0 8.510593e-01 5.267836e-02 5.107930e-01 -1.096063e-01
165 2 3 -1.457239e+01 1.434197e+01 1.832695e+01 0 -1 0 7.450908e-01 2.271831e-01 5.207998e-01 3.492780e-01
166 2 3 -1.549987e+01 1.433906e+01 1.940695e+01 0 -1 0 -2.754301e-01 8.331156e-01 2.869283e-01 3.843552e-01
167 2 4 -1.586159e+01 1.373754e+01 1.915424e+01 0 -1 0 -1.490649e-01 4.290196e-01 -1.264793e-01 -8.818871e-01
168 2 2 -1.590791e+01 1.308386e+01 1.914791e+01 0 -1 0 -4.017451e-01 6.249362e-02 7.954442e-01 -4.494040e-01
169 2 2 -1.635047e+01 1.267430e+01 1.914551e+01 0 -1 0 3.632374e-01 -3.594735e-01 -6.479369e-01 5.648143e-01
170 2 1 -1.631184e+01 1.201604e+01 1.970900e+01 0 -1 0 -3.454879e-01 5.360782e-01 7.701438e-01 -1.169228e-02
171 2 1 -1.677468e+01 1.219502e+01 1.962693e+01 0 -1 0 3.432512e-01 -8.039013e-01 -4.397479e-01 2.062597e-01
172 2 4 -1.722973e+01 1.088938e+01 1.897438e+01 0 -1 0 8.842141e-01 3.647384e-02 3.314755e-01 -3.270461e-01
173 2 4 -1.739167e+01 1.146509e+01 1.952900e+01 0 -1 0 2.869004e-02 2.026495e-01 -5.405758e-01 -8.160195e-01
174 2 1 -1.777730e+01 1.245692e+01 1.968551e+01 0 -1 0 1.222072e-01 6.320319e-01 4.044241e-01 6.496478e-01
175 2 1 -1.811405e+01 1.171320e+01 -1.918731e+01 0 -1 1 -6.216219e-01 5.469775e-01 5.466743e-01 1.246954e-01
176 2 2 -1.841339e+01 1.163458e+01 -1.945455e+01 0 -1 1 -3.738357e-01 -7.209254e-01 4.888720e-01 3.186184e-01
177 2 2 -1.943761e+01 1.155983e+01 -1.873357e+01 0 -1 1 -5.925220e-01 -1.152885e-01 -7.805950e-01 1.621659e-01
178 2 1 -1.847125e+01 1.186635e+01 -1.833139e+01 0 -1 1 5.496613e-01 1.870781e-01 1.685041e-01 7.965429e-01
179 2 4 -1.820135e+01 1.219798e+01 -1.807745e+01 0 -1 1 -2.252288e-03 2.205114e-01 3.641188e-03 9.753750e-01
180 2 1 -1.796443e+01 1.233703e+01 -1.764686e+01 0 -1 1 -3.857472e-01 2.384546e-01 -2.479839e-01 8.560622e-01
181 2 4 -1.840443e+01 1.241815e+01 -1.716922e+01 0 -1 1 -1.037114e-01 -9.470414e-02 3.286475e-01 -9.339518e-01
182 2 2 -1.863168e+01 1.224099e+01 -1.647885e+01 0 -1 1 5.140086e-02 -2.900856e-02 1.705209e-01 -9.835848e-01
183 2 3 -1.880000e+01 1.092016e+01 -1.703760e+01 0 -1 1 -6.410779e-01 -1.324690e-01 5.864139e-01 4.770638e-01
184 2 4 -1.781619e+01 1.093997e+01 -1.636071e+01 0 -1 1 8.994321e-01 -3.299326e-01 9.188476e-02 2.715209e-01
185 2 3 -1.731430e+01 1.097373e+01 -1.668655e+01 0 -1 1 5.722549e-01 -3.486654e-01 5.105847e-01 5.387579e-01
186 2 1 -1.699415e+01 1.133822e+01 -1.649068e+01 0 -1 1 -2.211710e-01 2.148174e-01 -5.893015e-01 -7.467667e-01
187 2 1 -1.682163e+01 1.033630e+01 -1.506440e+01 0 -1 1 7.750748e-01 -3.881550e-01 1.454925e-01 -4.768928e-01
188 2 2 -1.668310e+01 1.038212e+01 -1.458274e+01 0 -1 1 -8.617526e-01 3.369183e-01 -3.788409e-01 1.865877e-02
189 2 4 -1.610088e+01 1.053696e+01 -1.443252e+01 0 -1 1 -6.531734e-01 2.463826e-01 -6.107211e-01 -3.737376e-01
190 2 4 -1.563362e+01 1.088267e+01 -1.468818e+01 0 -1 1 -3.062672e-01 3.340955e-01 -7.716423e-01 -4.462609e-01
191 2 1 -1.532489e+01 1.117537e+01 -1.490626e+01 0 -1 1 7.477498e-02 -3.097086e-03 7.741221e-01 6.285969e-01
192 2 4 -1.531664e+01 1.165341e+01 -1.516749e+01 0 -1 1 -2.512964e-01 1.589071e-01 6.564612e-01 6.932946e-01
193 2 4 -1.461181e+01 1.273871e+01 -1.496984e+01 0 -1 1 -2.441273e-02 -7.747657e-01 -1.579148e-01 6.117230e-01
194 2 1 -1.424651e+01 1.240711e+01 -1.570252e+01 0 -1 1 8.790501e-01 1.951807e-01 4.347788e-01 -1.195045e-02
195 2 3 -1.450213e+01 1.317956e+01 -1.498502e+01 0 -1 1 -2.852653e-01 -6.006411e-01 6.040793e-01 -4.392518e-01
196 2 4 -1.503454e+01 1.330389e+01 -1.417143e+01 0 -1 1 7.939921e-01 -5.193097e-01 -2.709644e-01 -1.627027e-01
197 2 2 -1.511128e+01 1.374997e+01 -1.381511e+01 0 -1 1 8.865800e-01 -4.574219e-01 -5.446811e-02 -4.212294e-02
198 2 4 -1.564696e+01 1.392094e+01 -1.400523e+01 0 -1 1 -4.308206e-01 6.215617e-01 -6.220344e-01 -2.028001e-01
199 2 3 -1.680283e+01 1.431320e+01 -1.356075e+01 0 -1 1 -3.142320e-01 -6.274789e-01 -6.821257e-01 -2.055066e-01
200 2 4 -1.710931e+01 1.371766e+01 -1.418970e+01 0 -1 1 -4.802957e-01 2.532868e-02 -8.593382e-01 1.738168e-01
