ITEM: TIMESTEP
188000000
ITEM: NUMBER OF ATOMS
200
ITEM: BOX BOUNDS pp pp pp
-2.0000000000000000e+01 2.0000000000000000e+01
-2.0000000000000000e+01 2.0000000000000000e+01
-2.0000000000000000e+01 2.0000000000000000e+01
ITEM: ATOMS id mol type x y z ix iy iz c_quat[1] c_quat[2] c_quat[3] c_quat[4]
1 1 1 -1.362376e+01 1.702861e+01 1.010013e+00 0 -1 0 -9.304043e-02 6.377938e-01 -2.271292e-01 -7.300513e-01
2 1 2 -1.369806e+01 1.615575e+01 7.141152e-01 0 -1 0 -4.767953e-01 -4.517713e-01 -7.522657e-01 5.162668e-02
3 1 1 -1.359738e+01 1.585629e+01 3.824074e-01 0 -1 0 4.880905e-01 6.670051e-01 5.258618e-01 2.008510e-01
4 1 3 -1.259604e+01 1.516168e+01 1.390923e+00 0 -1 0 9.147544e-01 -2.386293e-01 -2.332439e-01 2.277667e-01
5 1 1 -1.261246e+01 1.463661e+01 1.739453e-01 0 -1 0 -1.256158e-01 -6.006040e-01 7.543943e-01 2.332052e-01
6 1 2 -1.245303e+01 1.548670e+01 5.073343e-02 0 -1 0 2.683300e-02 -2.440701e-01 -5.368566e-01 -8.071523e-01
7 1 4 -1.231473e+01 1.630978e+01 4.373635e-01 0 -1 0 -1.358985e-01 -7.132934e-01 -6.675575e-01 1.646546e-01
8 1 1 -1.122491e+01 1.512194e+01 8.265381e-01 0 -1 0 -9.823802e-01 1.733283e-01 3.961537e-02 5.759346e-02
9 1 1 -1.098274e+01 1.609366e+01 7.427858e-01 0 -1 0 4.256062e-01 -3.665855e-01 -6.079163e-01 5.611704e-01
10 1 4 -1.011856e+01 1.548536e+01 1.897511e-01 0 -1 0 3.280000e-01 -1.976302e-01 8.910336e-01 2.437572e-01
11 1 1 -9.794590e+00 1.537660e+01 -1.749927e-01 0 -1 0 -2.983375e-01 -1.636298e-01 -8.965078e-01 -2.837143e-01
12 1 1 -8.904915e+00 1.606262e+01 1.035734e+00 0 -1 0 -1.501708e-01 8.913320e-01 2.212983e-01 3.660644e-01
13 1 3 -9.090709e+00 1.635739e+01 1.496694e+00 0 -1 0 1.647857e-01 -2.874233e-01 5.244385e-01 -7.843454e-01
14 1 4 -9.445801e+00 1.732423e+01 1.686303e+00 0 -1 0 9.862902e-02 -1.512171e-01 -1.946611e-01 9.641124e-01
15 1 4 -8.939353e+00 1.714604e+01 2.052001e+00 0 -1 0 -6.478310e-01 3.309622e-01 -5.273259e-01 -4.389834e-01
16 1 2 -9.464882e+00 1.701258e+01 2.647579e+00 0 -1 0 5.380321e-01 1.700078e-01 -1.566540e-01 8.106036e-01
17 1 1 -9.172551e+00 1.682452e+01 3.125123e+00 0 -1 0 3.109145e-01 -1.810264e-02 -2.377432e-01 9.200449e-01
18 1 2 -9.249347e+00 1.681431e+01 3.595356e+00 0 -1 0 -8.856654e-02 1.523471e-01 9.131393e-02 -9.801062e-01
19 1 3 -9.292715e+00 1.681351e+01 4.597255e+00 0 -1 0 3.810304e-01 8.678134e-02 -3.995428e-01 8.292469e-01
20 1 1 -9.189986e+00 1.654763e+01 5.034378e+00 0 -1 0 2.170460e-01 3.379985e-02 -2.500198e-01 9.429945e-01
21 1 4 -9.258837e+00 1.659935e+01 5.574171e+00 0 -1 0 1.041677e-01 8.735030e-02 2.154490e-01 -9.670061e-01
22 1 1 -8.120772e+00 1.631850e+01 5.537392e+00 0 -1 0 4.449564e-01 -7.026584e-01 8.785097e-03 -5.551646e-01
23 1 4 -8.074334e+00 1.692218e+01 5.311390e+00 0 -1 0 3.854617e-01 -4.855311e-01 2.737879e-02 -7.841742e-01
24 1 3 -7.983925e+00 1.717820e+01 5.724103e+00 0 -1 0 -6.625856e-01 3.938765e-01 -1.020868e-01 6.288243e-01
25 1 3 -7.919636e+00 1.722732e+01 6.237981e+00 0 -1 0 -8.835627e-01 2.186260e-01 -2.781082e-01 3.068803e-01
26 1 4 -7.280413e+00 1.824750e+01 5.779861e+00 0 -1 0 1.979916e-01 8.421418e-01 1.380968e-02 -5.014039e-01
27 1 4 -7.135959e+00 1.781820e+01 7.087931e+00 0 -1 0 -4.019178e-01 3.805171e-01 -7.300616e-01 4.008477e-01
28 1 1 -6.409641e+00 1.840472e+01 7.119405e+00 0 -1 0 -2.537495e-01 -7.229066e-01 -3.504170e-01 -5.387255e-01
29 1 1 -5.981498e+00 1.755640e+01 6.677888e+00 0 -1 0 -2.334068e-02 -1.786201e-01 9.341041e-01 3.082200e-01
30 1 4 -5.227428e+00 1.732093e+01 6.730714e+00 0 -1 0 -6.765330e-01 2.093662e-01 -3.757791e-01 -5.977114e-01
31 1 4 -5.631158e+00 1.658995e+01 7.004623e+00 0 -1 0 2.749451e-01 4.005469e-01 4.161836e-01 -7.686082e-01
32 1 3 -5.975683e+00 1.620723e+01 7.094121e+00 0 -1 0 2.938238e-01 6.774786e-01 2.455551e-01 -6.280072e-01
33 1 3 -6.152035e+00 1.557224e+01 7.616162e+00 0 -1 0 9.178813e-01 -1.427239e-01 -3.245440e-01 1.783116e-01
34 1 1 -6.141706e+00 1.546126e+01 8.032763e+00 0 -1 0 7.396081e-01 -1.507324e-01 -1.921724e-01 6.271598e-01
35 1 2 -6.046628e+00 1.548518e+01 8.514779e+00 0 -1 0 -4.498765e-01 1.105396e-01 6.933463e-02 -8.835071e-01
36 1 2 -6.060274e+00 1.577113e+01 8.927673e+00 0 -1 0 2.296598e-02 -8.596770e-02 4.491344e-02 9.950201e-01
37 1 1 -6.035667e+00 1.508045e+01 1.002200e+01 0 -1 0 -8.665279e-01 3.034563e-01 2.094041e-01 3.364425e-01
38 1 1 -6.549473e+00 1.586291e+01 9.257975e+00 0 -1 0 6.330377e-01 7.189796e-01 2.522666e-01 -1.367232e-01
39 1 4 -6.387974e+00 1.679190e+01 1.027052e+01 0 -1 0 5.935308e-01 2.786701e-01 -2.762716e-01 7.026650e-01
40 1 4 -6.206096e+00 1.663276e+01 1.068772e+01 0 -1 0 -1.935744e-01 -6.052396e-02 4.479192e-01 -8.707664e-01
41 1 2 -6.227982e+00 1.640907e+01 1.124662e+01 0 -1 0 -2.359590e-01 -7.257410e-02 -5.682622e-01 7.849423e-01
42 1 4 -6.320761e+00 1.615001e+01 1.161929e+01 0 -1 0 -6.357422e-01 -2.076301e-01 -4.126485e-01 6.184196e-01
43 1 3 -6.281905e+00 1.560583e+01 1.172527e+01 0 -1 0 7.950937e-01 3.931579e-01 4.353036e-01 -1.541548e-01
44 1 2 -6.166101e+00 1.519141e+01 1.157351e+01 0 -1 0 -7.762981e-01 -5.716055e-01 -1.175703e-01 -2.383394e-01
45 1 1 -7.624201e+00 1.478544e+01 1.151260e+01 0 -1 0 2.020634e-01 2.805493e-03 9.481388e-01 2.453473e-01
46 1 3 -7.952488e+00 1.502527e+01 1.223146e+01 0 -1 0 1.875863e-01 6.833340e-02 9.644703e-01 1.730286e-01
47 1 4 -8.555149e+00 1.532969e+01 1.259463e+01 0 -1 0 -4.058984e-01 1.469269e-02 9.014570e-01 1.496859e-01
48 1 1 -8.996421e+00 1.528232e+01 1.230648e+01 0 -1 0 4.979926e-01 -2.936232e-01 -8.150838e-01 3.777684e-02
49 1 4 -9.457704e+00 1.516307e+01 1.221018e+01 0 -1 0 -4.987005e-01 4.544290e-01 7.091809e-01 -2.045838e-01
50 1 4 -1.002715e+01 1.510419e+01 1.232997e+01 0 -1 0 -4.234880e-01 6.400593e-01 5.403817e-01 -3.449198e-01
51 1 4 -1.050753e+01 1.524949e+01 1.249244e+01 0 -1 0 -4.424683e-01 6.339983e-01 3.089433e-01 -5.539151e-01
52 1 1 -1.087562e+01 1.560297e+01 1.262070e+01 0 -1 0 -2.251636e-01 7.469611e-01 6.413139e-02 -6.222843e-01
53 1 3 -1.124125e+01 1.598462e+01 1.261597e+01 0 -1 0 1.547065e-01 -7.504460e-01 2.111750e-01 6.068787e-01
54 1 4 -1.149993e+01 1.639031e+01 1.234379e+01 0 -1 0 7.672821e-02 6.932009e-01 -4.691973e-01 -5.417003e-01
55 1 4 -1.161613e+01 1.667034e+01 1.190933e+01 0 -1 0 1.249284e-01 5.279983e-01 -7.036789e-01 -4.587447e-01
56 1 4 -1.178664e+01 1.676338e+01 1.140202e+01 0 -1 0 -3.465909e-01 -2.383821e-01 8.208225e-01 3.863924e-01
57 1 1 -1.218413e+01 1.684331e+01 1.108487e+01 0 -1 0 -5.121667e-01 -6.668063e-02 8.338885e-01 1.945994e-01
58 1 1 -1.275158e+01 1.670706e+01 1.089806e+01 0 -1 0 6.066724e-01 -2.124339e-01 -7.606544e-01 -9.069421e-02
59 1 3 -1.323345e+01 1.674696e+01 1.094123e+01 0 -1 0 -6.581361e-01 4.593160e-01 5.866366e-01 -1.083656e-01
60 1 4 -1.375274e+01 1.690964e+01 1.115283e+01 0 -1 0 -6.900661e-01 5.872192e-01 3.545615e-01 -2.308000e-01
61 1 2 -1.397710e+01 1.712966e+01 1.152909e+01 0 -1 0 -5.213387e-01 6.596807e-01 1.746258e-01 -5.123798e-01
62 1 3 -1.418042e+01 1.753314e+01 1.176650e+01 0 -1 0 4.394700e-01 -6.667089e-01 8.611065e-02 5.957771e-01
63 1 2 -1.431794e+01 1.803766e+01 1.185242e+01 0 -1 0 -2.621544e-01 6.834569e-01 -2.734809e-01 -6.239951e-01
64 1 4 -1.443043e+01 1.850201e+01 1.162909e+01 0 -1 0 -4.179894e-02 -5.575738e-01 4.731881e-01 6.807770e-01
65 1 2 -1.469737e+01 1.893384e+01 1.131031e+01 0 -1 0 -1.848671e-01 -4.887222e-01 6.300647e-01 5.744504e-01
66 1 1 -1.496436e+01 1.903326e+01 1.089319e+01 0 -1 0 -3.769238e-01 -2.252352e-01 7.848531e-01 4.372678e-01
67 1 2 -1.553967e+01 1.918653e+01 1.065116e+01 0 -1 0 4.963784e-01 2.956874e-01 -7.310393e-01 -3.629862e-01
68 1 1 -1.595673e+01 1.901201e+01 1.032237e+01 0 -1 0 -6.156017e-01 -6.208826e-02 7.785918e-01 1.047591e-01
69 1 1 -1.640929e+01 1.870111e+01 1.027810e+01 0 -1 0 -6.533604e-01 9.805196e-02 7.473985e-01 -7.001041e-02
70 1 2 -1.685915e+01 1.845937e+01 1.045441e+01 0 -1 0 6.028106e-01 -3.381409e-01 -6.747409e-01 2.588530e-01
71 1 3 -1.729181e+01 1.831132e+01 1.075150e+01 0 -1 0 4.940623e-01 -4.936065e-01 -5.243275e-01 4.871713e-01
72 1 4 -1.755178e+01 1.730004e+01 1.102453e+01 0 -1 0 -3.949854e-01 -9.974513e-02 7.351082e-01 -5.418979e-01
73 1 1 -1.798025e+01 1.764641e+01 1.117217e+01 0 -1 0 3.815321e-01 -5.205750e-01 5.412674e-01 -5.389476e-01
74 1 1 -1.862881e+01 1.735796e+01 1.058941e+01 0 -1 0 1.087294e-01 3.090051e-01 -4.996723e-01 -8.018861e-01
75 1 3 -1.805942e+01 1.629964e+01 1.091509e+01 0 -1 0 2.592184e-01 4.832898e-01 -8.361403e-01 1.030311e-02
76 1 1 -1.807571e+01 1.615297e+01 1.179985e+01 0 -1 0 -7.283226e-02 4.164857e-01 -8.406711e-01 3.383892e-01
77 1 4 -1.832082e+01 1.687750e+01 1.148564e+01 0 -1 0 2.690432e-01 8.938273e-01 -3.425801e-01 1.064300e-01
78 1 1 -1.980242e+01 1.742126e+01 1.176930e+01 0 -1 0 -1.408109e-01 8.944656e-02 3.586652e-01 9.184394e-01
79 1 4 2.000080e+01 1.781863e+01 1.205763e+01 -1 -1 0 -6.121765e-01 1.700654e-01 1.985890e-01 7.462440e-01
80 1 2 1.971958e+01 1.797882e+01 1.282525e+01 -1 -1 0 -2.351916e-01 1.406586e-01 -2.383072e-01 9.317241e-01
81 1 4 1.965968e+01 1.781889e+01 1.331385e+01 -1 -1 0 5.383291e-01 2.715817e-02 4.627834e-01 -7.037725e-01
82 1 4 1.973429e+01 1.886912e+01 1.384525e+01 -1 -1 0 3.079832e-01 -1.065319e-01 1.239619e-02 9.453273e-01
83 1 4 1.956194e+01 1.926143e+01 1.440449e+01 -1 -1 0 2.594127e-01 -3.055916e-01 -9.834556e-02 -9.108496e-01
84 1 4 -1.992248e+01 1.968334e+01 1.355833e+01 0 -1 0 -2.256374e-01 -3.929112e-01 4.830115e-01 7.492719e-01
85 1 1 -1.973076e+01 -1.999092e+01 1.415676e+01 0 0 0 7.381058e-01 1.434462e-01 -4.416032e-01 -4.894993e-01
86 1 1 -1.865574e+01 -1.966154e+01 1.441920e+01 0 0 0 6.097057e-01 -6.187337e-01 3.092216e-01 -3.870523e-01
87 1 3 -1.851770e+01 -2.024654e+01 1.468157e+01 0 0 0 -8.133771e-01 2.631193e-01 8.951404e-02 5.110510e-01
88 1 2 -1.723151e+01 -1.962599e+01 1.462872e+01 0 0 0 -1.182880e-01 8.891289e-01 -4.324480e-01 -9.190474e-02
89 1 2 -1.698632e+01 -1.939376e+01 1.446845e+01 0 0 0 7.905551e-01 8.145792e-02 5.901062e-01 1.419923e-01
90 1 3 -1.657745e+01 -1.909031e+01 1.511962e+01 0 0 0 1.997305e-02 9.031003e-01 3.079875e-01 -2.985876e-01
91 1 3 -1.601636e+01 -1.952251e+01 1.623599e+01 0 0 0 -8.326469e-01 4.002730e-01 2.989807e-01 -2.389378e-01
92 1 2 -1.684825e+01 1.980310e+01 1.671212e+01 0 -1 0 3.519929e-01 -8.719641e-02 7.269349e-01 -5.831495e-01
93 1 1 -1.655990e+01 -2.011529e+01 1.698616e+01 0 0 0 5.572904e-02 1.754298e-01 2.508589e-01 -9.503623e-01
94 1 2 -1.689501e+01 2.001898e+01 1.731010e+01 0 -1 0 -5.231229e-01 -1.843337e-01 -1.077335e-01 8.250800e-01
95 1 3 -1.727842e+01 -1.985670e+01 1.774469e+01 0 0 0 -3.754206e-01 -2.553815e-01 -8.309990e-01 -3.213725e-01
96 1 2 -1.628194e+01 -1.924382e+01 1.882670e+01 0 0 0 8.146564e-01 1.259635e-01 -3.495213e-01 4.453122e-01
97 1 2 -1.648861e+01 -1.845408e+01 1.828588e+01 0 0 0 6.274820e-01 -1.141368e-01 -3.770810e-01 6.716018e-01
98 1 4 -1.739735e+01 -1.885798e+01 1.832210e+01 0 0 0 4.411274e-01 -4.560266e-01 6.331359e-01 -4.433794e-01
99 1 2 -1.813782e+01 -1.821248e+01 1.728052e+01 0 0 0 3.831409e-01 8.472768e-02 6.585140e-02 -9.174355e-01
100 1 1 -1.723870e+01 -1.787241e+01 1.804735e+01 0 0 0 -3.313328e-01 -4.410990e-01 7.523949e-01 -3.599335e-01
101 2 4 -1.945167e+01 -1.197238e+01 1.069351e+01 0 0 0 5.485451e-01 -7.714666e-01 -3.336758e-02 -3.206621e-01
102 2 3 -1.986989e+01 -1.256778e+01 9.690281e+00 0 0 0 -8.036575e-01 3.752079e-02 5.722318e-01 1.589889e-01
103 2 1 -1.967309e+01 -1.283485e+01 1.000689e+01 0 0 0 6.203740e-01 5.550725e-01 -5.285118e-01 1.664508e-01
104 2 3 1.960866e+01 -1.231803e+01 9.464761e+00 -1 0 0 -5.643752e-01 1.803790e-01 3.723539e-03 -8.055620e-01
105 2 3 1.960965e+01 -1.340970e+01 8.665627e+00 -1 0 0 7.719081e-01 2.973230e-02 5.477890e-01 -3.212493e-01
106 2 2 -1.973560e+01 -1.309708e+01 8.422127e+00 0 0 0 -4.542546e-01 -7.275933e-01 -2.675909e-01 -4.389258e-01
107 2 3 -1.908837e+01 -1.411874e+01 8.157237e+00 0 0 0 8.760876e-01 2.538506e-01 2.843285e-01 2.952757e-01
108 2 4 2.062043e+01 -1.433475e+01 8.393152e+00 -1 0 0 7.042303e-01 1.147457e-01 -4.294642e-01 5.535825e-01
109 2 3 -1.995137e+01 -1.436717e+01 7.229288e+00 0 0 0 -5.660956e-01 -2.410036e-01 -3.377082e-01 -7.123245e-01
110 2 2 -1.928211e+01 -1.558089e+01 7.216038e+00 0 0 0 9.315447e-01 3.270208e-01 -1.027534e-01 1.213408e-01
111 2 2 -1.922269e+01 -1.598120e+01 7.503160e+00 0 0 0 8.530849e-01 2.068547e-01 -1.265314e-01 4.620034e-01
112 2 3 -1.935437e+01 -1.671530e+01 7.652108e+00 0 0 0 8.278868e-02 4.821588e-01 -6.172421e-01 6.161826e-01
113 2 3 -2.008488e+01 -1.689947e+01 7.194025e+00 0 0 0 3.544317e-02 -3.039676e-01 3.781735e-01 8.736889e-01
114 2 2 -1.978595e+01 -1.753686e+01 6.806775e+00 0 0 0 -1.741206e-01 -7.607704e-02 -7.362527e-01 -6.494815e-01
115 2 4 -1.958701e+01 -1.869752e+01 7.617858e+00 0 0 0 6.764294e-01 -1.585636e-01 5.161843e-01 -5.008539e-01
116 2 4 -1.941470e+01 -1.898222e+01 7.985149e+00 0 0 0 -8.396675e-01 8.399922e-02 -5.349598e-01 4.148119e-02
117 2 1 -1.963850e+01 -1.951618e+01 8.992077e+00 0 0 0 7.103206e-01 2.460893e-01 -6.437700e-01 1.429861e-01
118 2 1 1.918736e+01 -1.960683e+01 8.411491e+00 -1 0 0 5.598455e-01 8.883343e-02 -7.151555e-01 -4.089428e-01
119 2 1 1.960992e+01 -1.903775e+01 8.505847e+00 -1 0 0 -7.452375e-01 -1.358496e-01 -6.491383e-01 -6.917716e-02
120 2 1 1.922790e+01 -1.882388e+01 9.285984e+00 -1 0 0 8.636749e-01 -2.068334e-01 4.555896e-01 -6.102246e-02
121 2 3 1.988745e+01 -1.813442e+01 1.017239e+01 -1 0 0 -7.839667e-01 2.792541e-01 4.190387e-01 -3.630702e-01
122 2 1 1.974805e+01 -1.800144e+01 1.059531e+01 -1 0 0 5.745177e-01 -3.841596e-01 -2.430009e-01 6.806624e-01
123 2 4 1.943512e+01 -1.865329e+01 1.151848e+01 -1 0 0 4.806955e-01 -5.782423e-01 -5.725924e-01 -3.266582e-01
124 2 1 1.983955e+01 -1.841422e+01 1.074118e+01 -1 0 0 -2.678608e-01 6.045190e-01 6.509414e-01 3.729380e-01
125 2 4 -1.881006e+01 -1.923797e+01 1.025479e+01 0 0 0 -7.501315e-01 4.202061e-01 -4.973704e-01 -1.155519e-01
126 2 2 -1.908262e+01 -1.973973e+01 1.070474e+01 0 0 0 -2.208577e-01 -2.064920e-02 -8.349713e-01 5.036055e-01
127 2 4 -1.869920e+01 -1.968460e+01 1.007886e+01 0 0 0 3.947424e-01 -1.709510e-01 1.328762e-01 8.929155e-01
128 2 4 -1.847048e+01 -2.015026e+01 1.050581e+01 0 0 0 -2.928510e-01 -5.082165e-01 -3.793283e-01 7.155867e-01
129 2 1 -1.766066e+01 1.944542e+01 1.059308e+01 0 -1 0 4.570034e-01 -5.418276e-01 3.496316e-01 -6.126405e-01
130 2 2 -1.730060e+01 1.951143e+01 1.090543e+01 0 -1 0 -5.677051e-01 4.130418e-01 -4.685249e-01 5.362758e-01
131 2 3 -1.689915e+01 1.942831e+01 1.116395e+01 0 -1 0 6.821800e-01 -2.186423e-01 5.782989e-01 -3.903799e-01
132 2 4 -1.656314e+01 1.915503e+01 1.142213e+01 0 -1 0 7.631767e-01 1.378918e-03 6.191609e-01 -1.849302e-01
133 2 4 -1.627761e+01 1.874187e+01 1.151291e+01 0 -1 0 -7.902339e-01 -1.930932e-01 -5.808343e-01 -2.961156e-02
134 2 3 -1.586537e+01 1.842311e+01 1.148297e+01 0 -1 0 -6.962048e-01 -3.389350e-01 -6.323793e-01 2.276987e-02
135 2 4 -1.560712e+01 1.814704e+01 1.127819e+01 0 -1 0 -6.385567e-01 -5.457697e-01 -4.459884e-01 -3.089904e-01
136 2 3 -1.527256e+01 1.785405e+01 1.099290e+01 0 -1 0 4.931484e-01 6.957849e-01 3.430842e-01 3.936765e-01
137 2 1 -1.481354e+01 1.781523e+01 1.073415e+01 0 -1 0 3.086189e-01 7.365932e-01 1.799740e-01 5.742771e-01
138 2 3 -1.433755e+01 1.798764e+01 1.060851e+01 0 -1 0 7.368110e-02 7.319218e-01 -7.466496e-02 6.732657e-01
139 2 2 -1.384277e+01 1.812186e+01 1.079001e+01 0 -1 0 -1.880796e-01 5.615481e-01 -2.939516e-01 7.502547e-01
140 2 3 -1.338787e+01 1.805904e+01 1.106835e+01 0 -1 0 3.148173e-01 -3.433645e-01 4.453082e-01 -7.646512e-01
141 2 1 -1.306446e+01 1.782398e+01 1.143376e+01 0 -1 0 4.360350e-01 -1.553939e-01 5.109497e-01 -7.243318e-01
142 2 2 -1.293334e+01 1.746744e+01 1.182884e+01 0 -1 0 5.842671e-01 9.075654e-02 5.433045e-01 -5.959995e-01
143 2 4 -1.298590e+01 1.693684e+01 1.198517e+01 0 -1 0 -7.594433e-01 -2.620058e-01 -5.303234e-01 2.708429e-01
144 2 4 -1.274495e+01 1.642599e+01 1.205399e+01 0 -1 0 7.527736e-01 4.170746e-01 5.076040e-01 -4.145876e-02
145 2 1 -1.253400e+01 1.590335e+01 1.192983e+01 0 -1 0 -7.054085e-01 -5.190023e-01 -4.418036e-01 -1.945381e-01
146 2 1 -1.210026e+01 1.558649e+01 1.163900e+01 0 -1 0 6.242204e-01 5.274848e-01 2.629514e-01 5.128013e-01
147 2 1 -1.155444e+01 1.559469e+01 1.149149e+01 0 -1 0 -3.720732e-01 -6.562587e-01 -2.282786e-01 -6.154469e-01
148 2 2 -1.102456e+01 1.586552e+01 1.145391e+01 0 -1 0 6.038123e-02 6.452371e-01 3.184521e-02 7.609265e-01
149 2 4 -1.056522e+01 1.610712e+01 1.161397e+01 0 -1 0 1.560357e-01 -5.682015e-01 1.449596e-01 -7.948500e-01
150 2 1 -1.025146e+01 1.629182e+01 1.198783e+01 0 -1 0 4.298076e-01 -4.450437e-01 2.866359e-01 -7.314653e-01
151 2 1 -9.921220e+00 1.630046e+01 1.238092e+01 0 -1 0 5.996749e-01 -3.150926e-01 3.503322e-01 -6.468184e-01
152 2 1 -9.573371e+00 1.625032e+01 1.278056e+01 0 -1 0 6.974644e-01 -1.840778e-01 4.256817e-01 -5.463093e-01
153 2 4 -9.440916e+00 1.589827e+01 1.320010e+01 0 -1 0 8.341847e-01 -1.787821e-02 4.598614e-01 -3.038811e-01
154 2 1 -9.302366e+00 1.546719e+01 1.343306e+01 0 -1 0 9.065009e-01 1.184929e-01 4.043342e-01 2.700752e-02
155 2 2 -8.858052e+00 1.515348e+01 1.353587e+01 0 -1 0 8.391331e-01 1.928524e-01 3.306041e-01 3.864771e-01
156 2 4 -9.467485e+00 1.545438e+01 1.491086e+01 0 -1 0 -9.495910e-02 4.462989e-01 -1.001580e-01 8.841767e-01
157 2 3 -9.334748e+00 1.486507e+01 1.549897e+01 0 -1 0 3.776537e-01 2.535517e-01 -4.647334e-01 7.596789e-01
158 2 2 -9.087530e+00 1.467748e+01 1.592001e+01 0 -1 0 1.108795e-01 7.117944e-02 -4.782803e-01 8.682668e-01
159 2 1 -8.961215e+00 1.446646e+01 1.634773e+01 0 -1 0 -1.341581e-01 -9.232356e-02 -3.107716e-01 9.364289e-01
160 2 3 -7.563928e+00 1.432673e+01 1.547807e+01 0 -1 0 5.517322e-01 -3.552069e-01 6.245011e-01 4.235777e-01
161 2 1 -7.240463e+00 1.475446e+01 1.523481e+01 0 -1 0 -2.266324e-01 3.062827e-01 -7.686939e-01 -5.137493e-01
162 2 1 -7.013291e+00 1.486485e+01 1.589085e+01 0 -1 0 -5.382609e-01 -2.778126e-01 -7.661180e-01 -2.148453e-01
163 2 4 -7.471066e+00 1.516643e+01 1.697324e+01 0 -1 0 -9.717349e-02 -7.991449e-01 -4.859950e-01 -3.401964e-01
164 2 4 -6.691637e+00 1.431058e+01 1.743454e+01 0 -1 0 1.050849e-01 -6.065346e-01 2.116581e-01 -7.591270e-01
165 2 3 -7.252774e+00 1.349937e+01 1.698330e+01 0 -1 0 -4.087503e-01 -2.779160e-01 -8.645611e-01 -9.066388e-02
166 2 3 -7.091619e+00 1.272414e+01 1.695837e+01 0 -1 0 -3.430013e-01 -5.434507e-02 4.973622e-01 7.950016e-01
167 2 4 -6.690873e+00 1.262977e+01 1.748907e+01 0 -1 0 -6.422515e-01 -1.833805e-01 -9.817667e-02 -7.377303e-01
168 2 2 -7.164288e+00 1.186650e+01 1.827015e+01 0 -1 0 4.570801e-01 6.553413e-02 7.303087e-01 -5.034206e-01
169 2 2 -7.132758e+00 1.127152e+01 1.837839e+01 0 -1 0 5.840462e-01 2.572521e-01 7.158520e-01 -2.833148e-01
170 2 1 -7.092231e+00 1.102321e+01 1.901728e+01 0 -1 0 -3.200863e-02 -7.122074e-01 6.924454e-01 1.107044e-01
171 2 1 -7.627313e+00 1.124066e+01 1.943256e+01 0 -1 0 2.186430e-01 5.991766e-01 -6.303918e-01 -4.424804e-01
172 2 4 -8.099844e+00 1.166214e+01 -1.975013e+01 0 -1 1 -2.193160e-01 -4.162936e-01 8.815583e-01 3.814706e-02
173 2 4 -8.138010e+00 1.111101e+01 -1.958035e+01 0 -1 1 -4.558984e-01 3.387020e-01 -8.165042e-01 -1.037233e-01
174 2 1 -8.768558e+00 1.134765e+01 -1.926782e+01 0 -1 1 3.800157e-01 -7.739112e-01 3.626473e-01 -3.537463e-01
175 2 1 -9.906707e+00 1.135295e+01 -1.990623e+01 0 -1 1 1.740283e-01 -1.209336e-01 -9.633785e-01 1.642897e-01
176 2 2 -1.027018e+01 1.159207e+01 1.950876e+01 0 -1 0 -5.005896e-01 -2.993262e-02 8.347493e-01 2.273932e-01
177 2 2 -1.073554e+01 1.146238e+01 1.931261e+01 0 -1 0 -4.988590e-01 2.963250e-01 8.132328e-01 -4.453815e-02
178 2 1 -9.980131e+00 1.094873e+01 1.890582e+01 0 -1 0 -6.483677e-01 1.631372e-02 7.564522e-01 -8.445836e-02
179 2 4 -1.034347e+01 1.058301e+01 1.885668e+01 0 -1 0 -6.166870e-01 1.450869e-01 7.194849e-01 -2.845846e-01
180 2 1 -1.086029e+01 1.043238e+01 1.900552e+01 0 -1 0 5.159722e-01 -4.243684e-01 -5.897347e-01 4.537588e-01
181 2 4 -1.133448e+01 1.047481e+01 1.911559e+01 0 -1 0 -3.076655e-01 7.341547e-01 3.016923e-01 -5.247291e-01
182 2 2 -1.177542e+01 1.081848e+01 1.916830e+01 0 -1 0 -1.144405e-02 -7.653406e-01 2.927672e-02 6.428574e-01
183 2 3 -1.178646e+01 9.824790e+00 1.959625e+01 0 -1 0 -7.107024e-01 -4.340912e-01 -1.159940e-01 5.413061e-01
184 2 4 -1.212289e+01 9.480909e+00 1.973990e+01 0 -1 0 -9.203858e-01 -3.550752e-01 2.631482e-03 1.637211e-01
185 2 3 -1.242066e+01 9.273080e+00 2.012031e+01 0 -1 0 6.350422e-02 -7.365326e-02 -6.402173e-01 -7.620133e-01
186 2 1 -1.170364e+01 9.866995e+00 -1.874425e+01 0 -1 1 5.963040e-01 -2.939050e-01 -6.873299e-01 2.926072e-01
187 2 1 -1.224532e+01 9.765025e+00 -1.861680e+01 0 -1 1 4.416971e-01 -6.341559e-01 -4.606309e-01 4.365423e-01
188 2 2 -1.264303e+01 1.000020e+01 -1.847579e+01 0 -1 1 -2.315497e-01 6.903621e-01 7.811498e-02 -6.809427e-01
189 2 4 -1.162956e+01 9.359395e+00 -1.790558e+01 0 -1 1 8.220239e-01 3.069797e-01 -1.934739e-01 4.388713e-01
190 2 4 -1.133362e+01 9.010705e+00 -1.758447e+01 0 -1 1 5.776959e-01 1.564215e-01 -3.456603e-01 7.227162e-01
191 2 1 -1.123430e+01 8.844417e+00 -1.709946e+01 0 -1 1 -3.355999e-01 6.599070e-02 4.891834e-01 -8.023201e-01
192 2 4 -1.125932e+01 8.160800e+00 -1.746665e+01 0 -1 1 7.367129e-01 -5.986126e-01 1.720542e-01 2.632763e-01
193 2 4 -1.183054e+01 7.463819e+00 -1.794544e+01 0 -1 1 1.286294e-01 -1.446402e-02 -5.505319e-01 -8.247181e-01
194 2 1 -1.138720e+01 6.916202e+00 -1.745165e+01 0 -1 1 6.174340e-02 -9.631725e-01 2.211342e-02 -2.607632e-01
195 2 3 -1.154021e+01 6.030847e+00 -1.794771e+01 0 -1 1 7.418940e-01 5.507990e-01 -2.840948e-01 2.559372e-01
196 2 4 -1.204808e+01 5.673316e+00 -1.754957e+01 0 -1 1 -3.263646e-01 1.122221e-01 3.447471e-01 -8.729501e-01
197 2 2 -1.181098e+01 4.933663e+00 -1.837409e+01 0 -1 1 5.236483e-01 1.640538e-01 -6.875827e-01 -4.755090e-01
198 2 4 -1.137314e+01 4.641123e+00 -1.853933e+01 0 -1 1 -7.716532e-01 -5.234556e-01 2.331172e-01 -2.760471e-01
199 2 3 -1.108630e+01 4.273515e+00 -1.857428e+01 0 -1 1 5.561745e-01 4.467692e-01 -4.362751e-01 5.483896e-01
200 2 4 -1.093353e+01 3.398911e+00 -1.944712e+01 0 -1 1 -3.730326e-01 5.986715e-01 -5.494476e-01 -4.478242e-01
