ITEM: TIMESTEP
166000000
ITEM: NUMBER OF ATOMS
200
ITEM: BOX BOUNDS pp pp pp
-2.0000000000000000e+01 2.0000000000000000e+01
-2.0000000000000000e+01 2.0000000000000000e+01
-2.0000000000000000e+01 2.0000000000000000e+01
ITEM: ATOMS id mol type x y z ix iy iz c_quat[1] c_quat[2] c_quat[3] c_quat[4]
1 1 1 -7.928191e+00 1.272986e+01 1.905157e+00 0 -1 0 -5.250491e-01 -5.177642e-01 -2.507161e-01 -6.272042e-01
2 1 2 -7.373646e+00 1.158601e+01 1.917985e+00 0 -1 0 5.693568e-01 3.012508e-01 -7.595343e-01 -9.048970e-02
3 1 1 -7.747719e+00 1.125690e+01 1.730847e+00 0 -1 0 6.114282e-01 -2.720125e-02 -7.746987e-01 1.589262e-01
4 1 3 -8.248921e+00 1.097660e+01 1.756294e+00 0 -1 0 6.232647e-01 -3.581584e-01 -6.500886e-01 2.462690e-01
5 1 1 -8.749207e+00 1.101446e+01 9.507370e-01 0 -1 0 1.471059e-01 -1.256707e-01 8.013221e-01 -5.660826e-01
6 1 2 -8.880044e+00 1.077495e+01 5.766485e-01 0 -1 0 -6.599637e-01 -4.972208e-01 5.379852e-01 1.667074e-01
7 1 4 -1.018452e+01 1.126068e+01 8.656914e-01 0 -1 0 -3.945868e-01 -9.794162e-02 -8.037725e-01 4.343483e-01
8 1 1 -1.022587e+01 1.080366e+01 6.498777e-01 0 -1 0 6.118953e-01 5.198790e-01 5.957177e-01 2.074545e-02
9 1 1 -1.017231e+01 1.052693e+01 2.540518e-01 0 -1 0 5.133441e-01 7.885284e-01 2.703314e-01 2.040139e-01
10 1 4 -1.075018e+01 9.766531e+00 6.395309e-01 0 -1 0 -9.713433e-01 2.297851e-01 4.051248e-02 4.527448e-02
11 1 1 -1.180705e+01 1.077404e+01 9.482076e-01 0 -1 0 9.459914e-03 -8.133077e-01 -5.551121e-01 1.740451e-01
12 1 1 -1.215388e+01 1.076432e+01 6.720839e-01 0 -1 0 1.203906e-01 -9.020040e-01 -2.998873e-01 2.862910e-01
13 1 3 -1.245675e+01 1.077924e+01 1.218148e+00 0 -1 0 6.726233e-01 -7.254556e-01 9.029248e-02 1.146273e-01
14 1 4 -1.237324e+01 1.122045e+01 1.218661e+00 0 -1 0 5.254022e-01 -6.219668e-01 4.473788e-01 3.700839e-01
15 1 4 -1.204417e+01 1.158870e+01 1.163231e+00 0 -1 0 -3.914123e-01 4.123965e-01 -6.255474e-01 -5.342434e-01
16 1 2 -1.188628e+01 1.100018e+01 2.099873e+00 0 -1 0 9.670468e-01 1.243061e-01 1.999248e-01 -9.694613e-02
17 1 1 -1.192773e+01 1.066668e+01 2.872766e+00 0 -1 0 9.519848e-01 -1.996976e-01 1.611143e-01 1.669972e-01
18 1 2 -1.168821e+01 1.072181e+01 3.293498e+00 0 -1 0 8.050691e-01 -1.411527e-01 3.020649e-01 4.906083e-01
19 1 3 -1.159284e+01 1.142658e+01 3.637880e+00 0 -1 0 -7.941662e-01 3.308574e-01 -2.006710e-01 -4.685772e-01
20 1 1 -1.150971e+01 1.128406e+01 3.742090e+00 0 -1 0 1.090322e-02 -2.529527e-01 9.001800e-01 3.543614e-01
21 1 4 -1.155549e+01 1.153811e+01 4.759296e+00 0 -1 0 -1.424425e-01 -3.810456e-01 -7.225260e-01 5.589907e-01
22 1 1 -1.053228e+01 1.122695e+01 5.559282e+00 0 -1 0 1.413850e-01 6.292178e-01 -7.316047e-01 2.210199e-01
23 1 4 -1.010051e+01 1.166061e+01 4.643741e+00 0 -1 0 -6.015984e-01 5.632339e-02 -7.632835e-01 -2.287036e-01
24 1 3 -1.032369e+01 1.218669e+01 5.042225e+00 0 -1 0 6.719728e-01 3.767797e-05 -6.122129e-01 -4.167107e-01
25 1 3 -1.087099e+01 1.246306e+01 5.171755e+00 0 -1 0 -5.611676e-01 -2.354927e-01 6.046637e-01 5.138248e-01
26 1 4 -1.097044e+01 1.270863e+01 4.923358e+00 0 -1 0 -1.446790e-01 -6.248153e-01 7.627203e-01 8.325668e-02
27 1 4 -1.237462e+01 1.330629e+01 4.740452e+00 0 -1 0 1.691413e-01 5.244350e-01 4.609028e-01 -6.956492e-01
28 1 1 -1.189983e+01 1.346596e+01 4.254613e+00 0 -1 0 6.824832e-01 6.768680e-01 -1.183961e-01 2.490957e-01
29 1 1 -1.158158e+01 1.431519e+01 4.027154e+00 0 -1 0 -6.835471e-01 3.755723e-01 -1.695863e-01 -6.024527e-01
30 1 4 -1.136100e+01 1.482625e+01 4.061240e+00 0 -1 0 3.315057e-01 -2.383423e-01 3.248093e-01 8.531095e-01
31 1 4 -1.124591e+01 1.530343e+01 4.097190e+00 0 -1 0 -3.348248e-02 -9.809293e-02 4.494236e-01 8.872853e-01
32 1 3 -1.049582e+01 1.553997e+01 4.667887e+00 0 -1 0 5.230762e-01 5.163833e-02 5.231357e-01 6.708605e-01
33 1 3 -1.034005e+01 1.454649e+01 5.735548e+00 0 -1 0 3.226343e-02 -2.065660e-01 7.808555e-01 -5.886886e-01
34 1 1 -1.005306e+01 1.522354e+01 5.826256e+00 0 -1 0 -5.835243e-01 4.075703e-01 -2.149942e-01 6.687028e-01
35 1 2 -1.021056e+01 1.630601e+01 4.981067e+00 0 -1 0 5.245813e-01 5.596207e-01 5.517522e-01 -3.274272e-01
36 1 2 -1.008617e+01 1.635369e+01 5.660920e+00 0 -1 0 -5.483699e-01 1.006858e-02 -8.358539e-01 -2.318233e-02
37 1 1 -9.245643e+00 1.637926e+01 6.762361e+00 0 -1 0 8.249923e-01 2.710997e-01 -3.188193e-01 3.797986e-01
38 1 1 -9.991992e+00 1.696679e+01 7.028960e+00 0 -1 0 3.917793e-01 8.643450e-01 3.122191e-01 4.399961e-02
39 1 4 -1.001916e+01 1.663923e+01 8.397912e+00 0 -1 0 -8.231852e-02 -3.621437e-01 8.487650e-01 -3.763955e-01
40 1 4 -9.883191e+00 1.616770e+01 8.458887e+00 0 -1 0 2.510284e-01 8.215344e-02 9.209062e-01 -2.866484e-01
41 1 2 -9.669719e+00 1.563702e+01 9.329317e+00 0 -1 0 -6.286270e-01 -1.450732e-01 6.943276e-01 -3.188903e-01
42 1 4 -9.952812e+00 1.525583e+01 9.481150e+00 0 -1 0 5.688784e-01 -6.330814e-02 -5.981838e-01 5.608437e-01
43 1 3 -1.024825e+01 1.494971e+01 9.834800e+00 0 -1 0 -3.562069e-01 3.405717e-01 5.333050e-01 -6.875415e-01
44 1 2 -1.074470e+01 1.486895e+01 1.006240e+01 0 -1 0 2.643331e-01 -5.501039e-01 -3.994104e-01 6.840943e-01
45 1 1 -1.116920e+01 1.511425e+01 1.038570e+01 0 -1 0 -1.219081e-02 6.022426e-01 1.649637e-01 -7.809880e-01
46 1 3 -1.174374e+01 1.509675e+01 1.040028e+01 0 -1 0 -1.270554e-01 -7.472150e-01 -9.522114e-02 6.453368e-01
47 1 4 -1.221639e+01 1.524949e+01 1.021528e+01 0 -1 0 -3.612609e-01 -7.571864e-01 2.029847e-01 5.049323e-01
48 1 1 -1.261958e+01 1.521396e+01 9.881417e+00 0 -1 0 3.617972e-01 7.653662e-01 -3.973014e-01 -3.542160e-01
49 1 4 -1.299108e+01 1.503126e+01 9.513779e+00 0 -1 0 5.270809e-01 6.694239e-01 -4.972492e-01 -1.637090e-01
50 1 4 -1.301112e+01 1.465068e+01 9.132121e+00 0 -1 0 5.357940e-01 4.042191e-01 -7.360387e-01 8.819752e-02
51 1 4 -1.332162e+01 1.419288e+01 8.963035e+00 0 -1 0 5.929972e-01 2.775351e-01 -6.931706e-01 3.014019e-01
52 1 1 -1.345448e+01 1.370426e+01 9.007058e+00 0 -1 0 5.150719e-01 1.075745e-01 -6.516086e-01 5.463835e-01
53 1 3 -1.366311e+01 1.322005e+01 9.293856e+00 0 -1 0 -4.588747e-01 1.649782e-01 6.326126e-01 -6.016789e-01
54 1 4 -1.398740e+01 1.302607e+01 9.655013e+00 0 -1 0 2.832900e-01 -3.196294e-01 -5.219552e-01 7.383405e-01
55 1 4 -1.446908e+01 1.302803e+01 1.000570e+01 0 -1 0 -6.334815e-04 -5.880414e-01 -3.742975e-01 7.170134e-01
56 1 4 -1.491379e+01 1.296699e+01 1.008771e+01 0 -1 0 1.262948e-01 6.741215e-01 1.437610e-01 -7.134021e-01
57 1 1 -1.539830e+01 1.315680e+01 1.000586e+01 0 -1 0 3.175648e-01 6.685946e-01 -9.978314e-02 -6.649640e-01
58 1 1 -1.589540e+01 1.301853e+01 9.897728e+00 0 -1 0 -4.076548e-01 -7.382399e-01 2.611648e-01 4.696940e-01
59 1 3 -1.623467e+01 1.286295e+01 9.573240e+00 0 -1 0 5.843954e-01 6.177862e-01 -4.874833e-01 -1.979451e-01
60 1 4 -1.653191e+01 1.251193e+01 9.209228e+00 0 -1 0 6.110002e-01 5.070041e-01 -6.077847e-01 1.494909e-02
61 1 2 -1.666812e+01 1.205018e+01 8.987355e+00 0 -1 0 5.370524e-01 4.789543e-01 -6.593567e-01 2.177755e-01
62 1 3 -1.667566e+01 1.154913e+01 8.888418e+00 0 -1 0 -4.870991e-01 -2.620263e-01 7.126389e-01 -4.315351e-01
63 1 2 -1.680158e+01 1.108334e+01 8.918107e+00 0 -1 0 4.119700e-01 1.351338e-01 -6.779956e-01 5.935836e-01
64 1 4 -1.684226e+01 1.066335e+01 9.189973e+00 0 -1 0 -2.071879e-01 1.269249e-01 6.495196e-01 -7.204773e-01
65 1 2 -1.715698e+01 1.033050e+01 9.387698e+00 0 -1 0 1.418472e-01 -3.822742e-01 -4.745445e-01 7.800983e-01
66 1 1 -1.755595e+01 1.017930e+01 9.620666e+00 0 -1 0 5.108356e-03 -5.693755e-01 -2.815990e-01 7.723260e-01
67 1 2 -1.712039e+01 9.388350e+00 9.678117e+00 0 -1 0 2.189660e-01 2.884945e-01 6.926953e-01 -6.236971e-01
68 1 1 -1.747352e+01 9.038512e+00 9.677873e+00 0 -1 0 -5.839984e-01 -5.346616e-01 -4.546431e-01 4.079001e-01
69 1 1 -1.779300e+01 8.638604e+00 9.513509e+00 0 -1 0 -6.738178e-01 -6.964921e-01 -1.644244e-01 1.839373e-01
70 1 2 -1.809166e+01 8.586139e+00 1.062408e+01 0 -1 0 -3.070759e-01 -4.762404e-01 8.231083e-01 -3.731264e-02
71 1 3 -1.810521e+01 8.769216e+00 1.127453e+01 0 -1 0 -8.624838e-01 6.314684e-02 2.059176e-01 -4.579651e-01
72 1 4 -1.792452e+01 8.722269e+00 1.172211e+01 0 -1 0 -5.758462e-01 -1.345270e-02 1.174369e-01 -8.089677e-01
73 1 1 -1.794632e+01 8.870479e+00 1.222444e+01 0 -1 0 -4.652564e-01 6.584547e-02 -7.996577e-02 -8.790940e-01
74 1 1 -1.801387e+01 8.567446e+00 1.306714e+01 0 -1 0 6.404372e-01 4.427998e-01 -6.221404e-01 8.191315e-02
75 1 3 -1.910254e+01 9.673037e+00 1.250561e+01 0 -1 0 -4.650086e-02 5.241259e-01 4.112130e-01 7.443343e-01
76 1 1 -1.911330e+01 9.672994e+00 1.229037e+01 0 -1 0 6.036048e-01 -3.647743e-01 3.519552e-01 6.154092e-01
77 1 4 1.934250e+01 9.403585e+00 1.270083e+01 -1 -1 0 -4.756381e-01 -1.501224e-01 2.746691e-01 8.220636e-01
78 1 1 1.890072e+01 9.523693e+00 1.277284e+01 -1 -1 0 -7.156594e-01 2.401818e-02 3.465670e-01 6.059258e-01
79 1 4 1.807086e+01 9.717952e+00 1.243364e+01 -1 -1 0 -4.160891e-01 -3.594934e-01 -1.590496e-01 8.199619e-01
80 1 2 1.761948e+01 9.499001e+00 1.260002e+01 -1 -1 0 -7.037760e-01 -4.484869e-01 -3.749736e-02 5.496842e-01
81 1 4 1.726795e+01 9.095715e+00 1.270745e+01 -1 -1 0 8.992792e-01 3.677860e-01 -8.038652e-02 -2.226397e-01
82 1 4 1.737643e+01 8.612271e+00 1.270857e+01 -1 -1 0 7.823958e-01 4.793648e-01 -3.012225e-01 2.594828e-01
83 1 4 1.636887e+01 9.000112e+00 1.277566e+01 -1 -1 0 -5.946032e-01 5.889555e-01 -1.806527e-01 5.166654e-01
84 1 4 1.539418e+01 8.768061e+00 1.244369e+01 -1 -1 0 2.935306e-01 4.154026e-01 5.779179e-01 -6.381938e-01
85 1 1 1.498553e+01 8.582443e+00 1.273212e+01 -1 -1 0 -4.028191e-01 6.696682e-02 -8.881679e-01 2.107366e-01
86 1 1 1.421025e+01 9.702392e+00 1.265428e+01 -1 -1 0 -1.102181e-01 -6.864386e-01 -6.473233e-01 -3.124527e-01
87 1 3 1.425919e+01 1.000114e+01 1.225948e+01 -1 -1 0 -1.839918e-02 8.844299e-01 2.198923e-01 4.112088e-01
88 1 2 1.364727e+01 1.008584e+01 1.182417e+01 -1 -1 0 -2.813274e-01 -2.288668e-01 5.230278e-01 7.713085e-01
89 1 2 1.316365e+01 1.030183e+01 1.162093e+01 -1 -1 0 -5.869082e-01 -5.968909e-02 5.937303e-01 5.472296e-01
90 1 3 1.266930e+01 1.039298e+01 1.169990e+01 -1 -1 0 8.025582e-01 -1.615250e-01 -5.134201e-01 -2.573127e-01
91 1 3 1.248916e+01 1.178224e+01 1.132071e+01 -1 -1 0 -4.559988e-01 -6.862485e-02 -3.473748e-01 -8.165087e-01
92 1 2 1.281964e+01 1.218467e+01 1.148954e+01 -1 -1 0 1.141037e-01 9.823294e-02 3.149607e-01 9.370861e-01
93 1 1 1.359441e+01 1.141974e+01 1.244812e+01 -1 -1 0 2.840247e-01 4.012859e-01 -8.700326e-01 3.664516e-02
94 1 2 1.345636e+01 1.265054e+01 1.267221e+01 -1 -1 0 -5.358582e-01 6.068377e-01 3.034233e-01 5.025319e-01
95 1 3 1.348113e+01 1.309324e+01 1.299776e+01 -1 -1 0 6.770799e-01 -6.959297e-01 9.996754e-02 -2.173734e-01
96 1 2 1.385044e+01 1.411745e+01 1.239275e+01 -1 -1 0 5.017840e-01 -1.906976e-01 2.686339e-01 7.998019e-01
97 1 2 1.424073e+01 1.388039e+01 1.280635e+01 -1 -1 0 -4.347106e-01 3.719070e-01 -7.145846e-01 -4.025925e-01
98 1 4 1.452500e+01 1.420360e+01 1.255425e+01 -1 -1 0 1.475281e-01 -1.638820e-01 8.184461e-01 5.305885e-01
99 1 2 1.464183e+01 1.534073e+01 1.313024e+01 -1 -1 0 6.028875e-01 3.218335e-01 2.341493e-01 6.914651e-01
100 1 1 1.380887e+01 1.493488e+01 1.421461e+01 -1 -1 0 -7.053064e-01 2.237913e-01 6.081815e-01 -2.873596e-01
101 2 4 -1.661814e+01 6.811297e+00 -1.113437e+00 0 -1 0 -3.802355e-01 -2.896511e-01 -3.051852e-01 8.236414e-01
102 2 3 -1.580962e+01 7.136681e+00 -7.731331e-01 0 -1 0 -9.539754e-01 -1.158278e-01 -2.610321e-01 -9.152683e-02
103 2 1 -1.585443e+01 7.600679e+00 -1.310370e+00 0 -1 0 -2.648892e-01 -5.377092e-01 7.166902e-01 3.564514e-01
104 2 3 -1.623882e+01 8.031247e+00 -2.018687e+00 0 -1 0 -1.263820e-01 6.577497e-01 -4.945345e-01 -5.539210e-01
105 2 3 -1.739340e+01 7.798801e+00 -1.903015e+00 0 -1 0 6.433306e-01 4.716727e-01 -2.100706e-01 -5.652619e-01
106 2 2 -1.793593e+01 7.449164e+00 -1.161573e+00 0 -1 0 -7.490126e-01 3.706208e-01 -4.169844e-01 3.574134e-01
107 2 3 -1.864978e+01 8.556170e+00 -2.132691e+00 0 -1 0 1.448174e-02 5.443993e-01 -9.111109e-02 -8.337377e-01
108 2 4 -1.955084e+01 8.683634e+00 -1.292907e+00 0 -1 0 -2.931374e-02 5.735230e-02 1.433176e-01 -9.875786e-01
109 2 3 -1.974353e+01 8.768190e+00 -8.118680e-01 0 -1 0 -4.263735e-01 -1.269227e-01 -1.886091e-01 8.755129e-01
110 2 2 -2.002119e+01 8.650131e+00 -3.587107e-01 0 -1 0 6.601942e-01 1.371853e-01 1.612368e-01 -7.206431e-01
111 2 2 1.975111e+01 8.487339e+00 4.171424e-02 -1 -1 0 9.131832e-01 6.484520e-02 2.328217e-01 -3.281549e-01
112 2 3 1.985362e+01 8.074992e+00 3.621343e-01 -1 -1 0 -9.595039e-01 -1.453805e-01 -2.005854e-01 -1.340977e-01
113 2 3 1.892499e+01 8.357869e+00 1.517289e+00 -1 -1 0 -3.822894e-01 2.085177e-01 -6.112864e-01 6.608359e-01
114 2 2 1.889159e+01 9.225460e+00 1.511981e+00 -1 -1 0 -3.945813e-01 -6.846096e-01 -5.377817e-01 -2.939492e-01
115 2 4 1.911106e+01 9.814321e+00 2.192549e+00 -1 -1 0 -2.258835e-01 3.032024e-02 5.315490e-01 -8.157898e-01
116 2 4 1.903041e+01 9.631321e+00 2.637001e+00 -1 -1 0 -1.172835e-01 -2.285993e-01 -4.747910e-01 8.417603e-01
117 2 1 1.952588e+01 9.233484e+00 2.676426e+00 -1 -1 0 3.989997e-01 6.958949e-01 5.480490e-01 2.370059e-01
118 2 1 1.922958e+01 7.975996e+00 2.878539e+00 -1 -1 0 -8.111095e-01 -3.530215e-01 -3.316276e-01 3.278724e-01
119 2 1 1.893525e+01 7.755747e+00 4.157653e+00 -1 -1 0 9.382003e-02 -1.444016e-01 -9.497905e-01 2.612354e-01
120 2 1 1.913796e+01 6.934721e+00 4.072281e+00 -1 -1 0 -5.470311e-01 -3.728749e-01 3.613553e-01 6.566153e-01
121 2 3 1.960716e+01 6.826716e+00 5.482716e+00 -1 -1 0 -9.830883e-01 6.926825e-02 1.358241e-01 -1.014450e-01
122 2 1 1.962872e+01 6.828544e+00 6.030312e+00 -1 -1 0 8.135548e-01 -2.199481e-01 -4.937578e-02 5.360163e-01
123 2 4 1.956358e+01 6.983954e+00 6.534034e+00 -1 -1 0 7.694491e-01 -1.849992e-01 7.974078e-02 6.061063e-01
124 2 1 1.977090e+01 7.216055e+00 6.898350e+00 -1 -1 0 4.267668e-01 -1.484144e-01 2.097148e-01 8.671003e-01
125 2 4 1.987756e+01 7.534403e+00 7.261447e+00 -1 -1 0 1.804409e-01 -8.798164e-02 3.464837e-01 9.163238e-01
126 2 2 1.987815e+01 7.986463e+00 7.289790e+00 -1 -1 0 -2.036320e-01 1.251634e-01 4.232168e-01 8.739312e-01
127 2 4 1.962851e+01 8.395095e+00 7.393022e+00 -1 -1 0 5.545357e-01 -2.863812e-01 -3.956432e-01 -6.737525e-01
128 2 4 1.935122e+01 9.306102e+00 6.412986e+00 -1 -1 0 -8.400329e-02 2.945793e-01 -2.457274e-01 -9.196654e-01
129 2 1 1.906166e+01 9.679688e+00 6.666928e+00 -1 -1 0 3.469066e-01 2.315247e-01 -2.268929e-01 -8.800976e-01
130 2 2 1.996957e+01 1.002270e+01 7.806409e+00 -1 -1 0 8.946227e-01 -3.005812e-01 -3.271360e-01 -4.778199e-02
131 2 3 -1.939067e+01 1.079790e+01 6.785832e+00 0 -1 0 2.972738e-01 8.570181e-01 -2.398490e-01 -3.458622e-01
132 2 4 -1.945021e+01 1.010277e+01 6.207158e+00 0 -1 0 -4.196937e-01 -3.957560e-01 4.038727e-01 7.100149e-01
133 2 4 -1.815806e+01 1.021679e+01 6.761178e+00 0 -1 0 9.480073e-01 7.853036e-02 2.188468e-01 2.173043e-01
134 2 3 -1.861088e+01 1.069867e+01 8.025239e+00 0 -1 0 2.251100e-01 -7.440922e-01 -5.453190e-01 3.134955e-01
135 2 4 -1.794252e+01 1.061725e+01 8.599154e+00 0 -1 0 -4.770047e-01 5.990617e-01 1.910423e-01 6.140801e-01
136 2 3 -1.792778e+01 1.106069e+01 8.859561e+00 0 -1 0 -6.602268e-01 6.028206e-01 -4.181861e-02 4.460484e-01
137 2 1 -1.784656e+01 1.133712e+01 9.294693e+00 0 -1 0 7.962249e-01 -5.261861e-01 2.121764e-01 -2.100842e-01
138 2 3 -1.753886e+01 1.144783e+01 9.730752e+00 0 -1 0 8.049227e-01 -4.613389e-01 3.713177e-01 3.726933e-02
139 2 2 -1.715093e+01 1.160135e+01 9.964183e+00 0 -1 0 8.180470e-01 -2.643572e-01 4.995884e-01 1.064224e-01
140 2 3 -1.660405e+01 1.158337e+01 1.006253e+01 0 -1 0 -6.957365e-01 7.072499e-02 -6.038585e-01 -3.824966e-01
141 2 1 -1.610231e+01 1.173600e+01 1.003096e+01 0 -1 0 -5.590284e-01 -7.002254e-02 -6.837566e-01 -4.637466e-01
142 2 2 -1.565435e+01 1.185889e+01 9.827092e+00 0 -1 0 -3.326975e-01 -3.446269e-01 -7.507157e-01 -4.549402e-01
143 2 4 -1.527873e+01 1.210821e+01 9.400490e+00 0 -1 0 7.261583e-02 4.639654e-01 6.948920e-01 5.445991e-01
144 2 4 -1.520344e+01 1.241518e+01 9.007201e+00 0 -1 0 1.446941e-01 -6.296427e-01 -5.195173e-01 -5.592097e-01
145 2 1 -1.501297e+01 1.298634e+01 8.912914e+00 0 -1 0 -2.975632e-01 6.724631e-01 2.439279e-01 6.322568e-01
146 2 1 -1.485604e+01 1.351840e+01 8.989371e+00 0 -1 0 5.246265e-01 -6.409770e-01 -4.438753e-02 -5.585206e-01
147 2 1 -1.468879e+01 1.386156e+01 9.303541e+00 0 -1 0 -6.202868e-01 6.543358e-01 -1.872104e-01 3.899247e-01
148 2 2 -1.431984e+01 1.416412e+01 9.531274e+00 0 -1 0 7.169394e-01 -4.973401e-01 2.845782e-01 -3.970718e-01
149 2 4 -1.399567e+01 1.429649e+01 9.879905e+00 0 -1 0 -8.005770e-01 3.533474e-01 -4.606696e-01 1.483428e-01
150 2 1 -1.352111e+01 1.424920e+01 1.012120e+01 0 -1 0 -7.508316e-01 1.723264e-01 -6.331962e-01 -7.495363e-02
151 2 1 -1.307924e+01 1.402903e+01 1.017287e+01 0 -1 0 -6.942059e-01 -1.243211e-01 -6.269894e-01 -3.309179e-01
152 2 1 -1.253659e+01 1.404551e+01 9.964625e+00 0 -1 0 -5.147223e-01 -2.714826e-01 -6.571206e-01 -4.791144e-01
153 2 4 -1.216812e+01 1.414395e+01 9.610584e+00 0 -1 0 -3.684739e-01 -4.889303e-01 -4.526451e-01 -6.482951e-01
154 2 1 -1.174562e+01 1.445117e+01 9.429270e+00 0 -1 0 -7.984002e-02 -5.354477e-01 -4.530609e-01 -7.082776e-01
155 2 2 -1.153688e+01 1.493241e+01 9.282590e+00 0 -1 0 1.764567e-01 -5.673720e-01 -3.790265e-01 -7.094300e-01
156 2 4 -1.145342e+01 1.539934e+01 9.263992e+00 0 -1 0 3.448733e-01 -7.123022e-01 -8.522771e-02 -6.053298e-01
157 2 3 -1.108142e+01 1.576587e+01 9.392162e+00 0 -1 0 4.676163e-01 -6.161236e-01 3.463715e-02 -6.328720e-01
158 2 2 -1.088944e+01 1.604119e+01 9.740795e+00 0 -1 0 -6.941754e-01 5.308691e-01 -2.616928e-01 4.096527e-01
159 2 1 -1.048646e+01 1.606993e+01 1.010833e+01 0 -1 0 7.800811e-01 -3.770644e-01 4.703422e-01 -1.675537e-01
160 2 3 -1.003797e+01 1.615727e+01 1.036785e+01 0 -1 0 6.824786e-01 -2.228811e-01 6.866822e-01 1.140810e-01
161 2 1 -9.706673e+00 1.609532e+01 1.015024e+01 0 -1 0 5.066082e-01 2.785902e-01 6.279257e-01 5.210039e-01
162 2 1 -9.199544e+00 1.544214e+01 1.171103e+01 0 -1 0 -7.752098e-01 1.140917e-01 6.208619e-01 -2.373559e-02
163 2 4 -9.305299e+00 1.511425e+01 1.229977e+01 0 -1 0 -8.879905e-02 4.241675e-01 -4.013376e-01 8.069230e-01
164 2 4 -9.460870e+00 1.496054e+01 1.256184e+01 0 -1 0 2.399446e-01 -1.377135e-01 -2.441772e-01 -9.294294e-01
165 2 3 -8.968010e+00 1.535928e+01 1.227658e+01 0 -1 0 2.535793e-01 -5.087859e-01 -7.084251e-01 -4.182921e-01
166 2 3 -8.935912e+00 1.591210e+01 1.205388e+01 0 -1 0 3.890318e-01 -6.106117e-01 -4.345292e-01 -5.357163e-01
167 2 4 -8.041542e+00 1.615297e+01 1.087220e+01 0 -1 0 -2.688238e-01 -9.080342e-01 2.734574e-01 1.686084e-01
168 2 2 -7.965731e+00 1.600101e+01 1.040400e+01 0 -1 0 3.964493e-01 6.521085e-01 -6.430318e-01 -6.397290e-02
169 2 2 -7.962054e+00 1.575547e+01 9.958522e+00 0 -1 0 3.905717e-01 3.554927e-01 -8.471611e-01 5.828219e-02
170 2 1 -8.186200e+00 1.537283e+01 9.724831e+00 0 -1 0 4.015527e-01 1.242603e-01 -8.535301e-01 3.078980e-01
171 2 1 -8.328118e+00 1.487230e+01 9.635557e+00 0 -1 0 -2.904552e-01 1.098076e-01 8.319768e-01 -4.597747e-01
172 2 4 -7.670643e+00 1.427316e+01 9.625539e+00 0 -1 0 9.317257e-01 -2.095450e-01 9.975115e-05 2.966109e-01
173 2 4 -8.116994e+00 1.405881e+01 9.727170e+00 0 -1 0 1.315578e-01 -4.352860e-01 -5.189797e-01 7.237946e-01
174 2 1 -6.629288e+00 1.364708e+01 9.796889e+00 0 -1 0 9.069203e-01 -1.938660e-02 -2.872548e-01 3.075782e-01
175 2 1 -6.612669e+00 1.336590e+01 1.017180e+01 0 -1 0 6.386627e-01 -1.432562e-01 -3.476935e-01 6.713397e-01
176 2 2 -6.680039e+00 1.327650e+01 1.060095e+01 0 -1 0 4.113763e-01 -2.395322e-01 -2.098193e-01 8.540314e-01
177 2 2 -7.299451e+00 1.257014e+01 1.142549e+01 0 -1 0 -3.773285e-01 5.765099e-01 7.088217e-01 1.511001e-01
178 2 1 -6.425343e+00 1.192462e+01 1.120225e+01 0 -1 0 2.363102e-02 -2.981019e-01 8.448111e-01 4.437015e-01
179 2 4 -6.461306e+00 1.227122e+01 1.261640e+01 0 -1 0 -1.193205e-01 4.540727e-01 7.011348e-02 8.801504e-01
180 2 1 -6.007786e+00 1.133888e+01 1.298904e+01 0 -1 0 4.622555e-01 1.195509e-01 -5.950473e-01 6.464876e-01
181 2 4 -6.023873e+00 1.091374e+01 1.335330e+01 0 -1 0 1.540655e-01 -2.187464e-01 -5.811234e-01 7.685762e-01
182 2 2 -5.110020e+00 1.102794e+01 1.216414e+01 0 -1 0 -3.879504e-01 7.029720e-01 -1.004003e-01 -5.875752e-01
183 2 3 -5.194453e+00 1.122293e+01 1.237457e+01 0 -1 0 1.797111e-01 -1.061938e-01 -6.275481e-02 -9.759552e-01
184 2 4 -4.018149e+00 1.059395e+01 1.216447e+01 0 -1 0 2.384785e-01 -5.245627e-01 7.431366e-01 -3.401616e-01
185 2 3 -3.600113e+00 1.015669e+01 1.196745e+01 0 -1 0 -2.523890e-01 1.558868e-01 -9.460179e-01 1.305726e-01
186 2 1 -3.378368e+00 9.838927e+00 1.169186e+01 0 -1 0 2.622180e-01 2.858104e-01 9.162519e-01 -1.001829e-01
187 2 1 -3.370624e+00 9.521837e+00 1.131909e+01 0 -1 0 3.172979e-01 6.440559e-01 6.895385e-01 9.513541e-02
188 2 2 -3.371646e+00 9.496474e+00 1.084193e+01 0 -1 0 2.569550e-01 8.735292e-01 3.549726e-01 2.119325e-01
189 2 4 -3.155452e+00 9.550207e+00 1.042738e+01 0 -1 0 -1.490469e-01 -8.945866e-01 -5.774202e-02 -4.173315e-01
190 2 4 -4.421415e+00 9.545818e+00 1.038506e+01 0 -1 0 -2.212501e-01 3.155835e-01 8.703659e-01 -3.064614e-01
191 2 1 -4.254310e+00 1.016877e+01 1.000254e+01 0 -1 0 4.561726e-01 -8.691312e-01 -5.510346e-02 -1.829785e-01
192 2 4 -4.194149e+00 1.065036e+01 9.997813e+00 0 -1 0 -4.616412e-01 8.309874e-01 -2.995368e-01 -8.139400e-02
193 2 4 -3.954502e+00 1.103477e+01 9.835613e+00 0 -1 0 -9.121898e-02 6.556582e-01 -6.487434e-01 -3.753977e-01
194 2 1 -4.014688e+00 1.128769e+01 9.385144e+00 0 -1 0 1.049919e-01 3.783074e-01 -8.554405e-01 -3.377599e-01
195 2 3 -3.671732e+00 1.252964e+01 9.734849e+00 0 -1 0 -2.535635e-01 6.412561e-01 2.269558e-01 6.877407e-01
196 2 4 -4.156998e+00 1.209978e+01 8.985925e+00 0 -1 0 -1.353162e-01 -1.421417e-01 9.786236e-01 6.149015e-02
197 2 2 -4.417785e+00 1.186032e+01 8.555048e+00 0 -1 0 -1.786758e-01 3.185629e-01 9.296675e-01 4.807322e-02
198 2 4 -4.640954e+00 1.184467e+01 8.159743e+00 0 -1 0 2.548090e-01 -6.818458e-01 -6.856187e-01 -9.254047e-03
199 2 3 -5.366796e+00 1.127463e+01 7.663089e+00 0 -1 0 2.404003e-01 5.817033e-01 7.755489e-01 4.850598e-02
200 2 4 -5.470492e+00 1.118465e+01 7.214695e+00 0 -1 0 -1.849821e-01 -8.703531e-01 -4.443989e-01 -1.038106e-01
