ITEM: TIMESTEP
114000000
ITEM: NUMBER OF ATOMS
200
ITEM: BOX BOUNDS pp pp pp
-2.0000000000000000e+01 2.0000000000000000e+01
-2.0000000000000000e+01 2.0000000000000000e+01
-2.0000000000000000e+01 2.0000000000000000e+01
ITEM: ATOMS id mol type x y z ix iy iz c_quat[1] c_quat[2] c_quat[3] c_quat[4]
1 1 1 8.427810e-01 2.055595e+00 9.293926e+00 0 -1 0 7.824374e-01 5.693653e-01 -9.704475e-02 -2.328029e-01
2 1 2 1.079908e-01 2.699887e+00 9.658558e+00 0 -1 0 -3.163218e-01 4.308086e-01 -3.940090e-01 -7.477308e-01
3 1 1 1.754377e-01 3.169231e+00 9.463919e+00 0 -1 0 3.833993e-02 5.487729e-02 -6.769958e-01 -7.329360e-01
4 1 3 2.302192e-02 3.535697e+00 9.223874e+00 0 -1 0 -2.994106e-01 2.401071e-01 7.135754e-01 5.860990e-01
5 1 1 8.738228e-01 4.294422e+00 1.009902e+01 0 -1 0 -1.136083e-01 -4.063248e-01 3.424772e-01 -8.394657e-01
6 1 2 2.019945e+00 4.412994e+00 9.271526e+00 0 -1 0 -7.564852e-01 -6.146156e-01 1.595730e-01 -1.565705e-01
7 1 4 2.012710e+00 4.823952e+00 1.024383e+01 0 -1 0 2.899163e-01 -9.159214e-01 -3.421977e-02 2.754371e-01
8 1 1 1.839391e+00 5.174210e+00 1.005902e+01 0 -1 0 7.217377e-02 -8.398060e-01 3.874526e-01 3.733595e-01
9 1 1 1.156129e+00 5.111296e+00 1.099065e+01 0 -1 0 6.731377e-03 -2.795986e-01 -2.746291e-01 -9.199773e-01
10 1 4 2.545689e+00 3.975483e+00 1.121731e+01 0 -1 0 -8.798883e-01 4.485280e-01 -1.566895e-01 -8.226830e-03
11 1 1 2.863587e+00 4.377167e+00 1.161038e+01 0 -1 0 6.827212e-01 -5.960247e-01 3.758035e-01 1.934374e-01
12 1 1 3.089705e+00 4.753946e+00 1.113929e+01 0 -1 0 5.985980e-01 1.232212e-02 7.751151e-01 2.018049e-01
13 1 3 3.359170e+00 5.249430e+00 1.129923e+01 0 -1 0 1.812855e-01 2.393376e-01 -7.254553e-01 -6.193284e-01
14 1 4 3.475400e+00 5.037923e+00 1.236228e+01 0 -1 0 6.590699e-01 -4.125501e-01 5.997064e-01 -1.891598e-01
15 1 4 3.816436e+00 5.245585e+00 1.262284e+01 0 -1 0 -2.076615e-01 -8.682166e-01 2.582597e-01 3.692948e-01
16 1 2 3.888991e+00 6.039194e+00 1.375116e+01 0 -1 0 -1.246107e-01 -9.205980e-01 -1.828792e-01 -3.217557e-01
17 1 1 3.823103e+00 5.936332e+00 1.379542e+01 0 -1 0 -2.504861e-01 -6.904235e-01 3.673914e-01 5.706099e-01
18 1 2 4.054866e+00 6.213149e+00 1.435905e+01 0 -1 0 -9.542088e-01 -6.596399e-02 -5.186256e-02 2.871316e-01
19 1 3 4.811936e+00 6.825535e+00 1.432405e+01 0 -1 0 -5.654972e-01 5.361217e-02 -2.443492e-01 -7.858958e-01
20 1 1 4.691498e+00 6.770043e+00 1.476836e+01 0 -1 0 5.563610e-01 3.044069e-01 6.226993e-01 4.583061e-01
21 1 4 5.444896e+00 6.762861e+00 1.537657e+01 0 -1 0 -5.539363e-01 -4.331009e-01 7.073848e-01 -7.200670e-02
22 1 1 4.967417e+00 7.486210e+00 1.502762e+01 0 -1 0 -2.734420e-01 -6.022621e-01 6.306775e-01 4.059011e-01
23 1 4 4.740863e+00 8.906303e+00 1.541301e+01 0 -1 0 2.602528e-01 8.850670e-01 3.157069e-01 -2.219326e-01
24 1 3 4.809750e+00 8.764963e+00 1.657585e+01 0 -1 0 1.834033e-01 3.133175e-01 -8.696211e-01 3.345961e-01
25 1 3 4.894173e+00 8.270177e+00 1.653514e+01 0 -1 0 3.201182e-02 3.954667e-02 -9.210728e-01 3.860520e-01
26 1 4 5.629557e+00 8.371193e+00 1.680278e+01 0 -1 0 -7.396668e-01 1.685985e-01 -4.809957e-01 4.394435e-01
27 1 4 5.855530e+00 8.081985e+00 1.710641e+01 0 -1 0 -8.519358e-01 -7.603575e-02 -5.167079e-01 3.790614e-02
28 1 1 5.782200e+00 8.649211e+00 1.812968e+01 0 -1 0 3.925252e-01 5.286956e-01 -7.250985e-01 2.015861e-01
29 1 1 5.205277e+00 8.975671e+00 1.769800e+01 0 -1 0 7.757569e-01 2.882254e-01 -9.305524e-03 5.612849e-01
30 1 4 4.220577e+00 8.248425e+00 1.822935e+01 0 -1 0 -8.650138e-01 3.297932e-01 3.726814e-01 6.400201e-02
31 1 4 3.023073e+00 7.713270e+00 1.789634e+01 0 -1 0 5.102285e-01 5.449285e-02 3.404918e-01 -7.878850e-01
32 1 3 2.948379e+00 7.434728e+00 1.829014e+01 0 -1 0 7.765358e-01 3.131310e-01 2.958722e-01 -4.597835e-01
33 1 3 2.907271e+00 6.983061e+00 1.839189e+01 0 -1 0 9.198237e-01 3.662969e-01 1.352078e-01 3.833827e-02
34 1 1 1.984441e+00 6.214392e+00 1.843004e+01 0 -1 0 -2.707905e-01 -3.827618e-02 8.908850e-01 3.626726e-01
35 1 2 1.665427e+00 6.515004e+00 1.810950e+01 0 -1 0 -3.834641e-01 -3.654614e-02 8.898441e-01 2.445344e-01
36 1 2 1.230114e+00 6.404356e+00 1.777594e+01 0 -1 0 -5.174369e-01 2.518762e-01 8.128417e-01 9.003262e-02
37 1 1 7.543758e-01 6.239992e+00 1.767578e+01 0 -1 0 5.450315e-01 -4.275890e-01 -7.172796e-01 7.495496e-02
38 1 1 3.262308e-01 6.335789e+00 1.782153e+01 0 -1 0 -4.039861e-01 6.981096e-01 5.251274e-01 -2.714394e-01
39 1 4 -1.280522e-01 6.583581e+00 1.780205e+01 0 -1 0 4.007185e-01 -7.894725e-01 -2.987461e-01 3.562423e-01
40 1 4 -5.425651e-01 7.025544e+00 1.780587e+01 0 -1 0 3.489086e-01 -8.456590e-01 -3.273158e-02 4.025572e-01
41 1 2 -7.010400e-01 7.477339e+00 1.781401e+01 0 -1 0 2.720663e-01 -7.870812e-01 2.575904e-01 4.900309e-01
42 1 4 -8.302432e-01 7.892120e+00 1.769003e+01 0 -1 0 2.204012e-01 -6.920389e-01 4.962465e-01 4.756521e-01
43 1 3 -7.858118e-01 8.274889e+00 1.735402e+01 0 -1 0 5.279147e-02 -5.317681e-01 7.000868e-01 4.736182e-01
44 1 2 -9.593762e-01 8.543785e+00 1.688208e+01 0 -1 0 -1.904997e-01 -3.609913e-01 8.147897e-01 4.117195e-01
45 1 1 -1.295551e+00 8.706569e+00 1.637725e+01 0 -1 0 -4.141080e-01 -8.098324e-02 7.969912e-01 4.321589e-01
46 1 3 -1.640806e+00 8.791163e+00 1.603399e+01 0 -1 0 -5.017259e-01 6.030738e-03 8.398172e-01 2.072239e-01
47 1 4 -2.190957e+00 8.704811e+00 1.577945e+01 0 -1 0 -6.079397e-01 1.665230e-01 7.758169e-01 2.806313e-02
48 1 1 -2.747965e+00 8.607690e+00 1.588924e+01 0 -1 0 6.035548e-01 -4.111653e-01 -6.634421e-01 1.628167e-01
49 1 4 -3.286117e+00 8.680376e+00 1.594107e+01 0 -1 0 6.417180e-01 -5.085161e-01 -5.064722e-01 2.703616e-01
50 1 4 -3.684208e+00 8.800664e+00 1.622582e+01 0 -1 0 4.513056e-01 -7.072074e-01 -3.064834e-01 4.497209e-01
51 1 4 -4.061960e+00 9.245864e+00 1.635602e+01 0 -1 0 2.998278e-01 -7.597962e-01 -3.795104e-02 5.756499e-01
52 1 1 -4.337652e+00 9.696338e+00 1.637624e+01 0 -1 0 6.635391e-02 -7.407674e-01 2.056464e-01 6.360584e-01
53 1 3 -4.709090e+00 9.997422e+00 1.618367e+01 0 -1 0 -1.428793e-02 7.644150e-01 -3.486609e-01 -5.421265e-01
54 1 4 -4.975174e+00 1.031151e+01 1.583113e+01 0 -1 0 -2.366250e-01 -6.715432e-01 4.953227e-01 4.976884e-01
55 1 4 -5.106775e+00 1.042159e+01 1.533446e+01 0 -1 0 -3.268657e-01 -4.474340e-01 7.377050e-01 3.856851e-01
56 1 4 -5.465334e+00 1.040682e+01 1.494541e+01 0 -1 0 5.042390e-01 2.374049e-01 -7.853817e-01 -2.693651e-01
57 1 1 -5.849205e+00 1.022052e+01 1.465923e+01 0 -1 0 5.565150e-01 1.378734e-01 -8.177067e-01 -5.135799e-02
58 1 1 -6.213324e+00 9.862868e+00 1.457164e+01 0 -1 0 -5.572096e-01 1.150896e-01 8.037154e-01 -1.741077e-01
59 1 3 -6.787371e+00 9.648883e+00 1.465735e+01 0 -1 0 5.695968e-01 -3.781219e-01 -6.462495e-01 3.390352e-01
60 1 4 -7.207318e+00 9.542697e+00 1.488998e+01 0 -1 0 4.265498e-01 -5.737851e-01 -4.815959e-01 5.068443e-01
61 1 2 -7.678078e+00 9.666533e+00 1.515507e+01 0 -1 0 2.387739e-01 -7.318677e-01 -2.855215e-01 5.708189e-01
62 1 3 -8.011485e+00 9.953478e+00 1.538605e+01 0 -1 0 1.819122e-01 -6.977158e-01 -2.253663e-02 6.925263e-01
63 1 2 -8.532675e+00 1.026831e+01 1.534141e+01 0 -1 0 -2.628809e-02 -7.657362e-01 1.291801e-01 6.294994e-01
64 1 4 -8.938160e+00 1.057844e+01 1.511973e+01 0 -1 0 -3.229858e-01 -6.994993e-01 3.010493e-01 5.619165e-01
65 1 2 -9.315625e+00 1.063188e+01 1.480639e+01 0 -1 0 -4.386072e-01 -5.994588e-01 5.449046e-01 3.890398e-01
66 1 1 -9.720654e+00 1.056143e+01 1.439731e+01 0 -1 0 -5.303019e-01 -5.589937e-01 5.999165e-01 2.154211e-01
67 1 2 -9.933991e+00 1.022240e+01 1.407058e+01 0 -1 0 -5.378920e-01 -3.476273e-01 7.669904e-01 -3.941075e-02
68 1 1 -1.014567e+01 9.596503e+00 1.393666e+01 0 -1 0 -5.320272e-01 -1.466817e-01 8.187391e-01 -1.584229e-01
69 1 1 -1.043761e+01 9.145183e+00 1.401540e+01 0 -1 0 -4.691704e-01 2.007758e-01 7.962681e-01 -3.248467e-01
70 1 2 -1.082581e+01 8.752038e+00 1.412020e+01 0 -1 0 -4.622549e-01 3.301500e-01 6.357760e-01 -5.225996e-01
71 1 3 -1.133978e+01 8.626532e+00 1.432221e+01 0 -1 0 3.018125e-01 -6.254967e-01 -3.951386e-01 6.012725e-01
72 1 4 -1.176481e+01 8.811019e+00 1.443308e+01 0 -1 0 -5.081454e-02 7.447041e-01 1.011222e-01 -6.577294e-01
73 1 1 -1.216380e+01 9.065549e+00 1.431115e+01 0 -1 0 -1.043750e-01 -7.510582e-01 2.722727e-01 5.923555e-01
74 1 1 -1.320867e+01 8.152960e+00 1.485451e+01 0 -1 0 -5.941710e-01 1.867209e-01 1.924611e-01 7.583237e-01
75 1 3 -1.348470e+01 8.308894e+00 1.523427e+01 0 -1 0 -8.495337e-01 1.917875e-01 1.667762e-01 4.622724e-01
76 1 1 -1.440591e+01 8.279727e+00 1.485691e+01 0 -1 0 5.722533e-01 -5.690440e-02 -5.290698e-01 -6.239978e-01
77 1 4 -1.485338e+01 8.456830e+00 1.480074e+01 0 -1 0 -7.599033e-01 2.388789e-01 5.016342e-01 3.374122e-01
78 1 1 -1.515830e+01 8.509665e+00 1.515980e+01 0 -1 0 8.317082e-01 -4.298550e-01 -3.417247e-01 8.191658e-02
79 1 4 -1.526862e+01 7.679493e+00 1.437111e+01 0 -1 0 -8.868811e-01 -4.353170e-01 7.680371e-02 1.343216e-01
80 1 2 -1.532293e+01 7.244922e+00 1.457982e+01 0 -1 0 -8.713850e-01 -3.858164e-01 1.541634e-01 -2.608975e-01
81 1 4 -1.629109e+01 6.868217e+00 1.504359e+01 0 -1 0 3.174230e-01 -9.334145e-02 -6.154527e-01 7.153656e-01
82 1 4 -1.674264e+01 6.759285e+00 1.545979e+01 0 -1 0 3.918366e-02 3.012834e-01 5.091037e-01 -8.052989e-01
83 1 4 -1.664118e+01 5.564103e+00 1.581568e+01 0 -1 0 7.524906e-01 1.380789e-01 -4.861254e-01 -4.223437e-01
84 1 4 -1.711525e+01 5.420964e+00 1.586967e+01 0 -1 0 -7.938639e-01 -1.463594e-01 5.895915e-01 -2.721972e-02
85 1 1 -1.827260e+01 5.940652e+00 1.612987e+01 0 -1 0 -4.904816e-01 3.470079e-01 6.613624e-02 7.966425e-01
86 1 1 -1.761689e+01 6.125550e+00 1.685003e+01 0 -1 0 1.698109e-01 -8.574476e-01 -9.107651e-02 -4.771298e-01
87 1 3 -1.730094e+01 6.439010e+00 1.684798e+01 0 -1 0 -3.769930e-01 8.255095e-01 -2.460136e-01 3.404227e-01
88 1 2 -1.796088e+01 7.225308e+00 1.713408e+01 0 -1 0 -4.526679e-01 7.284857e-01 1.592826e-01 4.889064e-01
89 1 2 -1.840686e+01 7.134949e+00 1.602212e+01 0 -1 0 -6.910124e-01 -2.617950e-02 2.143905e-01 6.898212e-01
90 1 3 -1.880965e+01 7.202350e+00 1.634747e+01 0 -1 0 8.846321e-01 -4.368688e-02 -2.219692e-01 -4.077343e-01
91 1 3 -1.903620e+01 7.158735e+00 1.668508e+01 0 -1 0 9.765052e-01 1.567288e-02 -1.753599e-01 -1.242616e-01
92 1 2 -1.895228e+01 6.900363e+00 1.711563e+01 0 -1 0 9.387043e-01 3.116057e-02 -1.158228e-01 3.231846e-01
93 1 1 -1.889187e+01 6.650649e+00 1.760697e+01 0 -1 0 -8.750395e-01 5.468072e-03 3.402640e-02 -4.828232e-01
94 1 2 -1.953181e+01 7.143910e+00 1.786050e+01 0 -1 0 2.155167e-01 3.484937e-01 1.690747e-02 -9.120410e-01
95 1 3 -1.908901e+01 6.644030e+00 1.856293e+01 0 -1 0 7.028594e-01 -2.416496e-01 6.548341e-01 1.370635e-01
96 1 2 -1.867588e+01 6.488730e+00 1.873106e+01 0 -1 0 6.993575e-01 -1.981678e-02 6.597416e-01 2.743126e-01
97 1 2 -1.771855e+01 6.703218e+00 1.966834e+01 0 -1 0 -6.139206e-01 -3.851479e-01 5.413423e-01 -4.262759e-01
98 1 4 -1.765033e+01 6.518018e+00 2.024055e+01 0 -1 0 -9.951238e-01 3.161047e-02 4.724735e-02 8.060505e-02
99 1 2 -1.752422e+01 7.829407e+00 1.963392e+01 0 -1 0 3.817269e-01 4.844507e-01 3.746069e-01 6.922874e-01
100 1 1 -1.757838e+01 8.010372e+00 1.935132e+01 0 -1 0 -3.324150e-01 7.086441e-03 -4.800570e-02 9.418840e-01
101 2 4 -1.666250e+01 1.446787e+01 1.507040e+01 0 -1 0 2.606435e-01 3.729539e-01 -2.287141e-01 -8.606162e-01
102 2 3 -1.719102e+01 1.460596e+01 1.518439e+01 0 -1 0 -5.160873e-01 -3.892914e-01 3.271358e-01 6.892665e-01
103 2 1 -1.787078e+01 1.414265e+01 1.507728e+01 0 -1 0 3.842170e-01 2.484527e-01 -2.692929e-01 -8.474255e-01
104 2 3 -1.803359e+01 1.357991e+01 1.578663e+01 0 -1 0 -5.847481e-01 2.140978e-01 7.355607e-01 -2.668001e-01
105 2 3 -1.850222e+01 1.344511e+01 1.591773e+01 0 -1 0 4.481729e-01 -5.028044e-01 -5.620060e-01 4.800813e-01
106 2 2 -1.815152e+01 1.305075e+01 1.474967e+01 0 -1 0 1.140034e-01 9.642111e-01 1.145513e-01 -2.101861e-01
107 2 3 -1.861406e+01 1.250007e+01 1.380123e+01 0 -1 0 4.010770e-01 -4.861999e-02 8.350510e-01 3.734478e-01
108 2 4 -1.843562e+01 1.233936e+01 1.390808e+01 0 -1 0 -3.448163e-01 -8.543032e-01 -2.293518e-01 -3.141108e-01
109 2 3 -1.803939e+01 1.150356e+01 1.447651e+01 0 -1 0 -8.177331e-01 6.511333e-02 -1.305229e-02 -5.717538e-01
110 2 2 -1.771438e+01 1.150372e+01 1.481211e+01 0 -1 0 -3.641381e-01 -2.275016e-02 8.577882e-02 -9.271072e-01
111 2 2 -1.686761e+01 1.111370e+01 1.434458e+01 0 -1 0 -2.815463e-01 -7.336832e-01 3.514092e-01 5.088734e-01
112 2 3 -1.721354e+01 1.114767e+01 1.399661e+01 0 -1 0 -4.820360e-01 -5.340209e-01 6.178810e-01 3.173107e-01
113 2 3 -1.753512e+01 1.095538e+01 1.368018e+01 0 -1 0 -5.680473e-01 -2.651608e-01 7.775666e-01 4.901276e-02
114 2 2 -1.813948e+01 1.135515e+01 1.259632e+01 0 -1 0 2.571984e-01 -5.283796e-02 9.219945e-01 2.845757e-01
115 2 4 -1.801712e+01 1.143581e+01 1.219323e+01 0 -1 0 1.115445e-01 4.164939e-01 8.092819e-01 3.989405e-01
116 2 4 -1.751545e+01 1.098798e+01 1.250195e+01 0 -1 0 7.188429e-02 -4.169640e-01 -6.813566e-01 5.972662e-01
117 2 1 -1.665617e+01 1.048070e+01 1.221697e+01 0 -1 0 2.984559e-01 -8.634399e-01 6.340146e-02 -4.017162e-01
118 2 1 -1.703009e+01 9.235329e+00 1.168210e+01 0 -1 0 -3.898755e-01 -8.616973e-02 6.958181e-01 5.970001e-01
119 2 1 -1.680946e+01 9.940740e+00 1.268863e+01 0 -1 0 3.335634e-02 -7.215126e-01 -5.644030e-01 3.996952e-01
120 2 1 -1.553988e+01 1.002865e+01 1.270846e+01 0 -1 0 6.052190e-01 -9.693002e-02 2.791035e-01 7.391994e-01
121 2 3 -1.521516e+01 1.038166e+01 1.292487e+01 0 -1 0 2.734390e-01 6.481755e-03 3.554502e-01 8.937809e-01
122 2 1 -1.516831e+01 1.084089e+01 1.295645e+01 0 -1 0 1.567334e-01 -2.457437e-01 -2.940126e-01 -9.102754e-01
123 2 4 -1.435766e+01 1.134377e+01 1.332300e+01 0 -1 0 6.151076e-01 9.517854e-02 -6.368385e-01 4.549949e-01
124 2 1 -1.379512e+01 1.128402e+01 1.284289e+01 0 -1 0 -3.457844e-01 -3.992841e-01 8.151222e-01 2.378678e-01
125 2 4 -1.321260e+01 1.108535e+01 1.248792e+01 0 -1 0 -8.373934e-01 4.171226e-01 -3.327277e-01 1.186310e-01
126 2 2 -1.252953e+01 1.116978e+01 1.250631e+01 0 -1 0 1.523099e-02 8.805723e-01 -2.363600e-01 4.104807e-01
127 2 4 -1.212626e+01 1.064008e+01 1.309359e+01 0 -1 0 -9.509046e-02 -6.434429e-01 5.000675e-01 -5.717267e-01
128 2 4 -1.170548e+01 1.036063e+01 1.316264e+01 0 -1 0 1.975276e-01 -4.628675e-01 7.180334e-01 -4.807957e-01
129 2 1 -1.126166e+01 1.011252e+01 1.326987e+01 0 -1 0 -3.450769e-01 1.599937e-01 -9.013237e-01 2.072186e-01
130 2 2 -1.138463e+01 9.712120e+00 1.389820e+01 0 -1 0 5.939583e-01 -4.600902e-01 1.834490e-01 -6.339377e-01
131 2 3 -1.127353e+01 9.901767e+00 1.434765e+01 0 -1 0 7.168196e-01 -4.215961e-01 3.953550e-01 -3.900267e-01
132 2 4 -1.102068e+01 9.805022e+00 1.479390e+01 0 -1 0 8.415190e-01 -1.988050e-01 4.633007e-01 -1.941000e-01
133 2 4 -1.057823e+01 9.606064e+00 1.501915e+01 0 -1 0 7.951978e-01 -6.243130e-02 5.767182e-01 1.765190e-01
134 2 3 -9.964383e+00 9.560040e+00 1.506654e+01 0 -1 0 6.894210e-01 8.260162e-02 6.734196e-01 2.537356e-01
135 2 4 -9.512356e+00 9.399216e+00 1.480018e+01 0 -1 0 -5.194947e-01 -3.882099e-01 -5.744645e-01 -4.994085e-01
136 2 3 -9.003148e+00 9.473875e+00 1.473254e+01 0 -1 0 -3.578005e-01 -4.180697e-01 -6.597253e-01 -5.118193e-01
137 2 1 -8.704338e+00 9.765921e+00 1.431985e+01 0 -1 0 1.179595e-01 6.566982e-01 3.405978e-01 6.624395e-01
138 2 3 -8.238270e+00 9.966490e+00 1.424126e+01 0 -1 0 -7.398807e-03 5.769307e-01 3.434840e-01 7.410229e-01
139 2 2 -7.955409e+00 1.035860e+01 1.423572e+01 0 -1 0 -2.299291e-01 6.552346e-01 -4.692228e-02 7.180519e-01
140 2 3 -7.445900e+00 1.061521e+01 1.440881e+01 0 -1 0 -3.739610e-01 5.230837e-01 -2.212976e-01 7.331876e-01
141 2 1 -7.150604e+00 1.076326e+01 1.477436e+01 0 -1 0 -5.940790e-01 3.523997e-01 -3.139666e-01 6.513904e-01
142 2 2 -6.904554e+00 1.064557e+01 1.530584e+01 0 -1 0 -7.552324e-01 1.357804e-01 -4.756783e-01 4.300207e-01
143 2 4 -6.544413e+00 1.033078e+01 1.561672e+01 0 -1 0 7.562085e-01 4.921614e-02 5.792267e-01 -3.003712e-01
144 2 4 -6.310736e+00 9.897901e+00 1.570339e+01 0 -1 0 -8.095115e-01 -2.443441e-01 -5.338176e-01 5.090385e-03
145 2 1 -5.996304e+00 9.544496e+00 1.564384e+01 0 -1 0 7.439728e-01 4.422106e-01 4.619977e-01 1.936808e-01
146 2 1 -5.551072e+00 9.305463e+00 1.556154e+01 0 -1 0 -6.333994e-01 -5.504751e-01 -4.291728e-01 -3.340554e-01
147 2 1 -5.074086e+00 9.244852e+00 1.531726e+01 0 -1 0 4.524284e-01 5.971975e-01 3.207217e-01 5.794837e-01
148 2 2 -4.559888e+00 9.349089e+00 1.519615e+01 0 -1 0 -2.495532e-01 -5.973383e-01 -1.338408e-01 -7.503311e-01
149 2 4 -4.073333e+00 9.629467e+00 1.516388e+01 0 -1 0 2.699853e-02 6.162631e-01 -1.077822e-01 7.796627e-01
150 2 1 -3.614723e+00 9.891303e+00 1.557584e+01 0 -1 0 -7.705093e-02 5.362584e-01 -3.537647e-01 7.624569e-01
151 2 1 -3.255776e+00 9.876603e+00 1.591802e+01 0 -1 0 -3.970313e-01 4.216026e-01 -4.260075e-01 6.950792e-01
152 2 1 -2.869954e+00 9.728309e+00 1.627547e+01 0 -1 0 -5.268979e-01 2.225774e-01 -5.069790e-01 6.448334e-01
153 2 4 -2.577374e+00 9.533102e+00 1.663737e+01 0 -1 0 -6.056994e-01 5.353663e-02 -5.406670e-01 5.813272e-01
154 2 1 -2.376060e+00 9.037074e+00 1.694405e+01 0 -1 0 -7.157872e-01 -1.059548e-01 -5.887069e-01 3.603422e-01
155 2 2 -2.251242e+00 8.526457e+00 1.700857e+01 0 -1 0 -8.080954e-01 -2.980614e-01 -5.057749e-01 4.830030e-02
156 2 4 -2.084170e+00 8.057516e+00 1.697063e+01 0 -1 0 -8.102932e-01 -4.327331e-01 -3.658254e-01 -1.494618e-01
157 2 3 -1.731680e+00 7.657851e+00 1.679727e+01 0 -1 0 -7.709246e-01 -4.569094e-01 -1.419550e-01 -4.204257e-01
158 2 2 -1.226170e+00 7.353058e+00 1.670691e+01 0 -1 0 -6.486113e-01 -4.969760e-01 -6.877659e-02 -5.723531e-01
159 2 1 -7.608843e-01 7.285224e+00 1.669201e+01 0 -1 0 -3.390899e-01 -5.580403e-01 3.317696e-02 -7.566428e-01
160 2 3 -1.872007e-01 7.434977e+00 1.672017e+01 0 -1 0 8.777522e-02 5.167118e-01 -1.047564e-01 8.451808e-01
161 2 1 2.743805e-01 7.404612e+00 1.699727e+01 0 -1 0 -1.009453e-01 3.618915e-01 -2.218794e-01 8.997856e-01
162 2 1 5.375029e-01 7.505403e+00 1.741593e+01 0 -1 0 3.730501e-01 -2.865504e-01 2.737678e-01 -8.389122e-01
163 2 4 7.937269e-01 7.433916e+00 1.794553e+01 0 -1 0 4.886538e-01 -1.554180e-01 3.751364e-01 -7.722276e-01
164 2 4 8.338418e-01 7.258471e+00 1.842640e+01 0 -1 0 -6.555817e-01 5.763622e-03 -4.153829e-01 6.305843e-01
165 2 3 7.765685e-01 6.831880e+00 1.881900e+01 0 -1 0 7.987256e-01 2.126845e-01 3.914759e-01 -4.044124e-01
166 2 3 8.690204e-01 6.303786e+00 1.897662e+01 0 -1 0 8.223846e-01 3.552016e-01 4.256901e-01 -1.276845e-01
167 2 4 -6.216086e-02 6.360064e+00 -2.017068e+01 0 -1 1 -2.337402e-01 1.509821e-01 6.188602e-01 7.345625e-01
168 2 2 -3.959207e-01 6.415120e+00 -1.921008e+01 0 -1 1 -1.903603e-01 2.486741e-01 -8.632632e-03 9.496576e-01
169 2 2 3.987820e-01 7.348940e+00 -1.937797e+01 0 -1 1 -2.900954e-01 7.915956e-01 3.265283e-01 -4.273175e-01
170 2 1 -6.777870e-02 7.691993e+00 -1.951924e+01 0 -1 1 -3.092703e-01 7.956277e-01 3.921728e-02 -5.194136e-01
171 2 1 -3.236254e-01 8.079410e+00 -1.951872e+01 0 -1 1 1.056841e-01 -7.568888e-01 2.298534e-01 6.025924e-01
172 2 4 -1.045361e+00 8.248878e+00 -1.917466e+01 0 -1 1 -3.319616e-01 8.752953e-01 8.027400e-02 3.423677e-01
173 2 4 -1.995176e+00 7.535041e+00 1.966084e+01 0 -1 0 -2.435960e-01 -1.654173e-01 -9.385074e-01 -1.802832e-01
174 2 1 -2.317442e+00 7.599526e+00 -1.961185e+01 0 -1 1 -3.712687e-01 -8.687313e-02 5.037049e-01 7.751735e-01
175 2 1 -1.740539e+00 6.681389e+00 -1.910326e+01 0 -1 1 7.684298e-01 -3.780724e-02 -6.372642e-01 4.450471e-02
176 2 2 -2.154070e+00 6.376674e+00 1.975212e+01 0 -1 0 -5.729629e-01 -6.535434e-01 -4.627249e-01 1.745862e-01
177 2 2 -2.104205e+00 5.870715e+00 -1.977522e+01 0 -1 1 2.720586e-01 -1.766637e-01 5.476198e-01 7.712889e-01
178 2 1 -1.843252e+00 5.675918e+00 -1.879573e+01 0 -1 1 9.287546e-01 -8.810010e-03 2.753533e-01 2.480281e-01
179 2 4 -1.436532e+00 5.556690e+00 -1.855694e+01 0 -1 1 -7.889446e-01 -5.450103e-02 -2.339193e-01 -5.655775e-01
180 2 1 -2.011267e+00 4.721457e+00 -1.827432e+01 0 -1 1 2.116670e-01 -1.382465e-01 -2.283253e-01 -9.401875e-01
181 2 4 -1.083097e+00 3.542180e+00 -1.784717e+01 0 -1 1 -9.546769e-01 1.111043e-01 1.964315e-01 1.940681e-01
182 2 2 -1.435353e+00 3.341658e+00 -1.836127e+01 0 -1 1 -3.090880e-01 7.641367e-01 -5.301794e-01 1.986692e-01
183 2 3 -2.195566e+00 2.415632e+00 -1.898801e+01 0 -1 1 6.230199e-01 -4.230042e-02 7.044027e-01 -3.374518e-01
184 2 4 -2.868846e+00 2.535622e+00 -1.889159e+01 0 -1 1 5.536569e-01 -2.246079e-01 5.804635e-01 -5.532428e-01
185 2 3 -2.617991e+00 2.205200e+00 -1.869612e+01 0 -1 1 -6.964232e-01 -5.693332e-02 -7.024412e-01 1.353871e-01
186 2 1 -2.206676e+00 1.883100e+00 -1.851780e+01 0 -1 1 6.933775e-01 2.743020e-01 6.487957e-01 1.518232e-01
187 2 1 -2.583362e+00 1.666460e+00 -1.786486e+01 0 -1 1 -7.344406e-03 -5.354449e-01 -2.860753e-01 7.946104e-01
188 2 2 -1.138478e+00 1.081861e+00 -1.787999e+01 0 -1 1 -3.802897e-01 7.150343e-01 -4.336269e-01 -3.950612e-01
189 2 4 -6.051416e-01 8.841165e-01 -1.704426e+01 0 -1 1 -3.196616e-01 8.864747e-01 -1.282988e-01 3.090606e-01
190 2 4 -1.487822e-01 1.102693e+00 -1.703038e+01 0 -1 1 -4.614232e-01 6.549791e-01 -5.913095e-01 9.189190e-02
191 2 1 -8.278115e-02 2.187924e+00 -1.754704e+01 0 -1 1 -3.674974e-01 1.899777e-01 -5.146211e-01 -7.510122e-01
192 2 4 1.022512e-01 2.499027e+00 -1.669718e+01 0 -1 1 3.158666e-01 -2.324198e-01 1.329131e-01 -9.102436e-01
193 2 4 5.061070e-01 2.399829e+00 -1.798442e+01 0 -1 1 7.506322e-01 6.572696e-01 -6.401677e-02 -2.120945e-02
194 2 1 6.447476e-01 1.933443e+00 -1.816274e+01 0 -1 1 6.617922e-01 5.646837e-01 -3.754197e-01 3.197239e-01
195 2 3 6.962605e-01 1.253167e+00 -1.803476e+01 0 -1 1 6.495102e-01 4.573440e-01 -3.381715e-01 5.045919e-01
196 2 4 8.119592e-01 7.515356e-01 -1.777455e+01 0 -1 1 5.595829e-01 3.116716e-01 -3.317558e-01 6.925791e-01
197 2 2 7.605751e-01 3.963728e-01 -1.836268e+01 0 -1 1 1.030153e-01 -7.872376e-01 -5.724296e-01 2.048639e-01
198 2 4 -1.038042e-01 -1.999608e-01 -1.875954e+01 0 -1 1 -2.676475e-01 2.713972e-01 9.041126e-01 1.931030e-01
199 2 3 -5.480103e-01 -3.042520e-02 -1.912767e+01 0 -1 1 3.946522e-01 -6.288045e-01 -6.482716e-01 -1.691110e-01
200 2 4 -9.776703e-01 -4.381108e-01 1.966931e+01 0 -1 0 2.676069e-01 3.075972e-01 7.451725e-01 5.277201e-01
