ITEM: TIMESTEP
120000000
ITEM: NUMBER OF ATOMS
200
ITEM: BOX BOUNDS pp pp pp
-2.0000000000000000e+01 2.0000000000000000e+01
-2.0000000000000000e+01 2.0000000000000000e+01
-2.0000000000000000e+01 2.0000000000000000e+01
ITEM: ATOMS id mol type x y z ix iy iz c_quat[1] c_quat[2] c_quat[3] c_quat[4]
1 1 1 5.699017e+00 7.935484e+00 7.385249e+00 0 -1 0 -2.078557e-01 7.881585e-01 4.780626e-01 -3.271978e-01
2 1 2 6.188617e+00 8.120734e+00 7.636012e+00 0 -1 0 -2.114793e-01 8.238830e-01 -2.019723e-02 -5.254383e-01
3 1 1 5.945354e+00 8.000082e+00 8.249588e+00 0 -1 0 -6.662218e-01 -1.089413e-01 -9.983108e-02 7.309679e-01
4 1 3 5.651104e+00 7.749789e+00 8.633156e+00 0 -1 0 -9.126528e-01 -1.141963e-01 -4.243522e-02 3.901581e-01
5 1 1 5.507627e+00 7.411407e+00 8.904700e+00 0 -1 0 -9.735050e-01 -2.258757e-01 3.392961e-02 1.081628e-02
6 1 2 5.494227e+00 8.076445e+00 9.626860e+00 0 -1 0 3.382947e-01 -9.857675e-02 5.588680e-02 9.341927e-01
7 1 4 5.629330e+00 6.947065e+00 9.090087e+00 0 -1 0 8.515779e-01 4.856570e-01 2.878219e-03 1.973425e-01
8 1 1 5.175318e+00 6.436137e+00 8.837144e+00 0 -1 0 -2.932082e-01 7.541429e-01 -3.845529e-01 -4.443158e-01
9 1 1 4.976378e+00 6.481770e+00 9.513747e+00 0 -1 0 -1.267338e-01 -4.215094e-01 -5.356463e-01 7.206604e-01
10 1 4 6.138986e+00 5.933408e+00 1.044897e+01 0 -1 0 2.267747e-02 -7.415724e-01 5.728491e-01 -3.484250e-01
11 1 1 5.823607e+00 6.412030e+00 1.076129e+01 0 -1 0 1.826319e-01 -3.277291e-01 -2.780710e-01 8.842600e-01
12 1 1 5.593472e+00 5.370632e+00 1.053173e+01 0 -1 0 5.649617e-01 3.746025e-01 6.968898e-01 2.341705e-01
13 1 3 4.813568e+00 4.726127e+00 1.047905e+01 0 -1 0 -1.793325e-01 -2.538634e-01 -9.325423e-01 1.837339e-01
14 1 4 4.729949e+00 4.388457e+00 1.024414e+01 0 -1 0 3.331249e-01 6.101739e-01 7.131055e-01 -9.053256e-02
15 1 4 4.624857e+00 4.276407e+00 9.806864e+00 0 -1 0 -3.241358e-01 -8.955213e-01 -3.049052e-01 3.239324e-03
16 1 2 4.528478e+00 3.276304e+00 9.908799e+00 0 -1 0 -8.392017e-01 -4.838988e-01 -1.876883e-01 -1.623439e-01
17 1 1 3.247083e+00 3.012782e+00 9.796861e+00 0 -1 0 2.566125e-01 1.992735e-01 7.679733e-01 -5.519576e-01
18 1 2 3.465789e+00 2.417529e+00 9.179734e+00 0 -1 0 -9.859960e-01 -9.936682e-02 1.145165e-01 6.945504e-02
19 1 3 2.612541e+00 2.075807e+00 9.406751e+00 0 -1 0 8.881139e-01 2.059826e-01 6.422647e-02 -4.058323e-01
20 1 1 2.013622e+00 2.595906e+00 1.002441e+01 0 -1 0 1.937193e-01 4.251278e-01 -5.467557e-01 6.948363e-01
21 1 4 1.829348e+00 2.612869e+00 9.186072e+00 0 -1 0 -1.743612e-01 9.762387e-01 -1.150129e-02 -1.281557e-01
22 1 1 1.559732e+00 1.756628e+00 8.872834e+00 0 -1 0 -6.437258e-01 4.950821e-01 7.905343e-02 5.781534e-01
23 1 4 2.481317e+00 1.468231e+00 7.686771e+00 0 -1 0 -3.908629e-01 5.522298e-01 -5.963782e-01 -4.319739e-01
24 1 3 1.973551e+00 1.436039e+00 6.948696e+00 0 -1 0 -1.898480e-01 1.314460e-01 -4.018226e-01 -8.861254e-01
25 1 3 1.652155e+00 1.265675e+00 6.686813e+00 0 -1 0 2.420967e-01 9.263039e-01 2.317135e-01 -1.722180e-01
26 1 4 1.085659e+00 1.003923e+00 7.183524e+00 0 -1 0 -2.352381e-01 -5.491450e-01 6.571209e-01 -4.596683e-01
27 1 4 3.291077e-01 1.252172e+00 6.535259e+00 0 -1 0 -4.283427e-01 -8.121960e-01 1.065728e-01 3.814478e-01
28 1 1 -5.190971e-01 1.435365e+00 7.143973e+00 0 -1 0 5.116133e-01 4.774032e-01 7.143694e-01 -3.786181e-03
29 1 1 -5.926766e-01 2.084532e+00 7.341835e+00 0 -1 0 3.244764e-01 -5.975256e-02 1.547658e-01 -9.312316e-01
30 1 4 -6.481680e-01 2.926042e+00 7.326091e+00 0 -1 0 -1.718650e-01 -5.662552e-01 -7.700798e-01 -2.383161e-01
31 1 4 -9.768672e-01 3.584241e+00 7.579616e+00 0 -1 0 -1.462562e-01 -1.485774e-01 -3.100471e-01 -9.275800e-01
32 1 3 -5.052911e-01 3.697189e+00 8.469430e+00 0 -1 0 -1.637108e-01 -9.470948e-01 -2.665957e-01 -7.167317e-02
33 1 3 -6.334726e-01 3.739726e+00 9.083949e+00 0 -1 0 -2.239022e-01 -1.917449e-01 -5.169532e-01 8.036548e-01
34 1 1 9.211857e-02 4.702144e+00 9.635348e+00 0 -1 0 -4.066633e-02 -9.659912e-01 -1.339958e-01 -2.173761e-01
35 1 2 -9.655027e-01 4.616578e+00 9.665558e+00 0 -1 0 4.220713e-01 -2.169285e-01 -5.847455e-01 6.579290e-01
36 1 2 -1.218171e+00 4.501178e+00 1.009427e+01 0 -1 0 -3.298508e-02 -4.433085e-01 -4.326565e-01 7.843455e-01
37 1 1 -1.708429e+00 4.387028e+00 1.032975e+01 0 -1 0 -3.226390e-01 -5.818101e-01 -3.163321e-01 6.762655e-01
38 1 1 -1.711663e+00 3.663052e+00 1.052244e+01 0 -1 0 -9.543394e-02 -7.615193e-01 4.870219e-01 4.168818e-01
39 1 4 -1.934759e+00 3.354043e+00 1.008254e+01 0 -1 0 -3.977816e-01 -7.133988e-01 -3.115946e-01 4.855314e-01
40 1 4 -2.810518e+00 3.367155e+00 1.076249e+01 0 -1 0 -1.173777e-01 6.969143e-01 5.571874e-01 4.359760e-01
41 1 2 -2.861746e+00 3.790592e+00 1.044813e+01 0 -1 0 3.521147e-01 -8.064110e-01 -3.229930e-01 -3.484136e-01
42 1 4 -3.346138e+00 3.663073e+00 1.107404e+01 0 -1 0 4.502707e-01 -8.627946e-02 -8.736329e-01 1.630268e-01
43 1 3 -3.753508e+00 3.403705e+00 1.101174e+01 0 -1 0 3.168711e-01 -4.342722e-01 -7.877833e-01 3.006624e-01
44 1 2 -4.299718e+00 3.336297e+00 1.090243e+01 0 -1 0 3.047138e-01 -7.001908e-01 -5.454148e-01 3.455504e-01
45 1 1 -4.811296e+00 3.535148e+00 1.088183e+01 0 -1 0 4.000811e-01 -7.884140e-01 -2.506220e-01 3.943692e-01
46 1 3 -5.152445e+00 3.874772e+00 1.089555e+01 0 -1 0 1.682027e-01 -8.728588e-01 6.805329e-02 4.529835e-01
47 1 4 -5.296945e+00 4.332768e+00 1.063472e+01 0 -1 0 4.263864e-02 -8.139270e-01 3.662798e-01 4.489364e-01
48 1 1 -5.572247e+00 4.614891e+00 1.026014e+01 0 -1 0 1.835529e-02 7.953808e-01 -4.993973e-01 -3.429792e-01
49 1 4 -5.573563e+00 4.883358e+00 9.727344e+00 0 -1 0 1.628620e-01 5.969163e-01 -6.869141e-01 -3.812033e-01
50 1 4 -5.642100e+00 4.870710e+00 9.208480e+00 0 -1 0 2.459229e-01 2.729318e-01 -9.042173e-01 -2.177644e-01
51 1 4 -6.140059e+00 4.933161e+00 8.781508e+00 0 -1 0 4.569674e-01 1.902424e-01 -8.454296e-01 -2.005927e-01
52 1 1 -6.605012e+00 4.833450e+00 8.475631e+00 0 -1 0 5.788043e-01 -1.160171e-01 -7.897236e-01 -1.669197e-01
53 1 3 -7.085242e+00 4.660704e+00 8.504366e+00 0 -1 0 -5.899682e-01 3.709621e-01 7.114972e-01 -8.997937e-02
54 1 4 -7.490233e+00 4.674404e+00 8.653752e+00 0 -1 0 5.268923e-01 -5.715035e-01 -4.688316e-01 4.194820e-01
55 1 4 -7.926230e+00 4.704266e+00 8.944384e+00 0 -1 0 4.865048e-01 -6.330398e-01 -3.358368e-01 4.997872e-01
56 1 4 -8.354097e+00 5.060000e+00 9.080982e+00 0 -1 0 -4.092072e-01 7.141445e-01 1.615955e-01 -5.444575e-01
57 1 1 -8.682495e+00 5.489467e+00 9.201486e+00 0 -1 0 -2.876024e-01 7.703732e-01 -6.089358e-02 -5.657756e-01
58 1 1 -8.975746e+00 6.042320e+00 8.984010e+00 0 -1 0 4.159684e-02 -7.745983e-01 3.707269e-01 5.107139e-01
59 1 3 -9.263716e+00 6.299104e+00 8.643894e+00 0 -1 0 3.458185e-02 7.179496e-01 -5.601590e-01 -4.117940e-01
60 1 4 -9.292802e+00 6.486215e+00 8.255655e+00 0 -1 0 1.335002e-01 4.856665e-01 -7.896586e-01 -3.503500e-01
61 1 2 -9.368528e+00 6.401425e+00 7.772217e+00 0 -1 0 1.912544e-01 1.213302e-01 -9.495608e-01 -2.168757e-01
62 1 3 -9.671341e+00 6.391929e+00 7.246266e+00 0 -1 0 3.290461e-01 9.982037e-02 -9.289947e-01 -1.368700e-01
63 1 2 -9.953394e+00 6.214512e+00 6.915778e+00 0 -1 0 3.416307e-01 -2.582543e-01 -9.030416e-01 -3.330366e-02
64 1 4 -1.043333e+01 6.147305e+00 6.710757e+00 0 -1 0 4.266517e-01 -5.366242e-01 -7.103299e-01 1.594815e-01
65 1 2 -1.100248e+01 6.162526e+00 6.698226e+00 0 -1 0 3.728709e-01 -7.169872e-01 -4.744832e-01 3.489446e-01
66 1 1 -1.158348e+01 6.363274e+00 6.500422e+00 0 -1 0 4.231853e-01 -7.995759e-01 -3.349290e-01 2.634676e-01
67 1 2 -1.191235e+01 6.846288e+00 6.601912e+00 0 -1 0 3.351023e-01 -8.736344e-01 -6.563226e-02 3.466437e-01
68 1 1 -1.207501e+01 7.341610e+00 6.369276e+00 0 -1 0 1.434216e-01 -8.885352e-01 2.710069e-01 3.413074e-01
69 1 1 -1.207362e+01 7.761294e+00 5.880557e+00 0 -1 0 -1.341284e-01 -7.953194e-01 4.805973e-01 3.442424e-01
70 1 2 -1.215436e+01 7.781277e+00 5.347282e+00 0 -1 0 3.197387e-01 5.275749e-01 -7.492127e-01 -2.410648e-01
71 1 3 -1.242016e+01 7.639780e+00 4.922436e+00 0 -1 0 -4.307264e-01 -3.325626e-01 8.311365e-01 1.144070e-01
72 1 4 -1.273344e+01 7.359331e+00 4.484144e+00 0 -1 0 5.307035e-01 1.029263e-01 -8.397886e-01 -5.015116e-02
73 1 1 -1.313208e+01 7.123578e+00 4.384659e+00 0 -1 0 -5.169893e-01 1.127289e-01 8.170595e-01 -2.289719e-01
74 1 1 -1.348658e+01 6.865186e+00 4.504228e+00 0 -1 0 3.450736e-01 -3.848407e-01 -7.242173e-01 4.564332e-01
75 1 3 -1.393822e+01 6.724912e+00 4.561785e+00 0 -1 0 -4.275924e-01 5.166891e-01 5.078374e-01 -5.406461e-01
76 1 1 -1.447246e+01 6.762740e+00 4.696402e+00 0 -1 0 -3.333194e-01 6.977497e-01 3.323554e-01 -5.399846e-01
77 1 4 -1.454705e+01 5.844471e+00 5.043312e+00 0 -1 0 -3.555378e-01 -3.044038e-01 3.294009e-01 -8.200160e-01
78 1 1 -1.510884e+01 4.771970e+00 4.256287e+00 0 -1 0 -1.004017e-01 -4.781397e-01 6.027155e-01 6.309009e-01
79 1 4 -1.468982e+01 4.057793e+00 4.959992e+00 0 -1 0 8.336744e-01 2.148366e-01 -2.374376e-01 -4.499507e-01
80 1 2 -1.492489e+01 3.948065e+00 5.584999e+00 0 -1 0 5.325707e-01 1.451009e-01 9.469863e-02 -8.284602e-01
81 1 4 -1.506731e+01 3.826531e+00 5.906563e+00 0 -1 0 -9.338366e-01 6.634929e-02 -1.183502e-01 3.309687e-01
82 1 4 -1.497138e+01 3.677641e+00 6.283574e+00 0 -1 0 8.035387e-01 3.292521e-01 7.335338e-02 -4.904466e-01
83 1 4 -1.536394e+01 3.412988e+00 6.465684e+00 0 -1 0 9.236247e-01 3.125443e-01 -1.297052e-01 -1.800278e-01
84 1 4 -1.545880e+01 2.900957e+00 6.469578e+00 0 -1 0 -8.933969e-01 -2.713807e-01 2.716586e-01 -2.332296e-01
85 1 1 -1.597259e+01 3.023648e+00 6.063893e+00 0 -1 0 -2.142449e-01 3.711160e-01 7.542472e-01 -4.974769e-01
86 1 1 -1.536501e+01 2.465154e+00 5.659938e+00 0 -1 0 -4.943451e-01 -1.072094e-02 7.832269e-01 -3.769133e-01
87 1 3 -1.574629e+01 2.132478e+00 5.836590e+00 0 -1 0 3.321286e-01 -3.004275e-01 -6.757522e-01 5.854852e-01
88 1 2 -1.609618e+01 1.979121e+00 6.195012e+00 0 -1 0 6.671769e-02 -5.398270e-01 -3.654948e-01 7.553470e-01
89 1 2 -1.589623e+01 1.305301e+00 6.428530e+00 0 -1 0 3.812836e-01 8.987040e-01 2.077905e-01 6.145815e-02
90 1 3 -1.564062e+01 1.086230e+00 5.976443e+00 0 -1 0 -4.132794e-01 -8.559240e-01 1.377892e-01 -2.785829e-01
91 1 3 -1.656263e+01 1.122919e+00 6.006004e+00 0 -1 0 -6.423005e-01 6.148607e-01 2.938943e-01 -3.507456e-01
92 1 2 -1.688952e+01 1.540668e+00 6.224166e+00 0 -1 0 4.971041e-01 -6.619552e-01 -3.946598e-02 5.595938e-01
93 1 1 -1.707250e+01 1.920443e-01 6.517577e+00 0 -1 0 8.766284e-01 -3.213366e-01 3.570700e-01 2.768562e-02
94 1 2 -1.672134e+01 2.850430e-01 6.848726e+00 0 -1 0 -6.926910e-01 2.264590e-01 -4.661814e-01 -5.015678e-01
95 1 3 -1.671969e+01 1.586401e-01 7.162414e+00 0 -1 0 -1.237643e-01 -5.544321e-01 -2.957371e-01 7.680019e-01
96 1 2 -1.608679e+01 -3.266224e-01 7.017996e+00 0 -1 0 -4.867788e-01 2.297359e-01 -3.131833e-01 7.824219e-01
97 1 2 -1.558934e+01 -5.221667e-01 6.413421e+00 0 -1 0 -1.589946e-02 4.742682e-01 -1.056518e-01 -8.738733e-01
98 1 4 -1.510866e+01 -1.234439e+00 6.764451e+00 0 -1 0 1.319803e-01 -2.140434e-01 6.090476e-01 -7.522152e-01
99 1 2 -1.495363e+01 -1.673306e+00 7.085703e+00 0 -1 0 3.553255e-01 4.203262e-02 6.583364e-01 -6.622464e-01
100 1 1 -1.512345e+01 -2.137282e+00 7.284259e+00 0 -1 0 6.549413e-01 3.313134e-01 5.628516e-01 -3.801070e-01
101 2 4 -1.811573e+01 4.222810e+00 -2.395852e+00 0 -1 0 5.621531e-01 7.419788e-01 3.292546e-01 1.582490e-01
102 2 3 -1.902465e+01 4.776970e+00 -1.854272e+00 0 -1 0 -2.616568e-01 8.310656e-01 4.537022e-01 -1.871362e-01
103 2 1 -1.963163e+01 5.277768e+00 -2.256144e+00 0 -1 0 9.113152e-02 9.365826e-01 3.374914e-01 -2.464955e-02
104 2 3 -1.939662e+01 4.066511e+00 -2.071888e+00 0 -1 0 6.562951e-01 -1.914295e-01 6.515589e-01 3.287895e-01
105 2 3 -1.975969e+01 3.466942e+00 -1.252893e+00 0 -1 0 3.824674e-01 6.101866e-01 -6.782702e-01 -1.460840e-01
106 2 2 -1.962193e+01 4.012285e+00 -3.389104e-01 0 -1 0 8.343358e-01 3.048669e-01 -3.800381e-01 2.578972e-01
107 2 3 -1.988558e+01 5.181643e+00 -5.703530e-01 0 -1 0 -1.396450e-01 -3.997315e-01 1.454589e-01 -8.941788e-01
108 2 4 -1.959259e+01 5.416956e+00 -2.431023e-01 0 -1 0 -3.073555e-01 4.042117e-01 -1.970672e-01 8.386358e-01
109 2 3 -1.932870e+01 5.287666e+00 2.566946e-01 0 -1 0 4.715327e-01 -2.124632e-01 4.350697e-01 -7.370418e-01
110 2 2 -1.897560e+01 4.953610e+00 4.577020e-01 0 -1 0 4.737619e-01 -2.584826e-02 5.356562e-01 -6.985371e-01
111 2 2 -1.882401e+01 4.654453e+00 8.058508e-01 0 -1 0 7.512238e-01 1.936451e-01 4.901942e-01 -3.973337e-01
112 2 3 -1.789739e+01 4.799771e+00 3.715689e-01 0 -1 0 6.584802e-01 4.875739e-01 3.466489e-01 4.566290e-01
113 2 3 -1.757232e+01 5.419440e+00 8.316560e-01 0 -1 0 2.078246e-01 7.711056e-01 5.137694e-01 3.134422e-01
114 2 2 -1.682868e+01 4.965760e+00 1.308247e+00 0 -1 0 5.097736e-02 -2.830399e-01 7.948555e-01 -5.343167e-01
115 2 4 -1.641223e+01 5.488777e+00 8.751393e-01 0 -1 0 -2.382619e-01 -2.483858e-01 -3.648403e-01 8.651169e-01
116 2 4 -1.575345e+01 5.396743e+00 9.895833e-01 0 -1 0 4.031065e-01 -3.456650e-02 2.420398e-01 -8.818883e-01
117 2 1 -1.479731e+01 6.358854e+00 1.200013e+00 0 -1 0 -6.986638e-01 6.394520e-01 1.629500e-01 -2.764368e-01
118 2 1 -1.429310e+01 6.700902e+00 6.112513e-01 0 -1 0 -5.373910e-02 7.888283e-01 -3.787692e-02 -6.110871e-01
119 2 1 -1.475913e+01 6.935883e+00 3.132694e-01 0 -1 0 2.128340e-01 7.377363e-01 -3.681035e-01 -5.243535e-01
120 2 1 -1.405275e+01 7.317886e+00 6.719288e-01 0 -1 0 3.149332e-01 -6.654092e-01 5.355074e-01 4.138593e-01
121 2 3 -1.473053e+01 7.582831e+00 9.217524e-01 0 -1 0 -7.569097e-01 1.154776e-01 -6.168546e-01 -1.823267e-01
122 2 1 -1.469924e+01 8.118191e+00 2.078193e+00 0 -1 0 -1.987844e-02 -9.288837e-01 -2.220789e-01 -2.957378e-01
123 2 4 -1.421064e+01 7.956382e+00 2.825664e+00 0 -1 0 1.850617e-01 -9.535780e-01 1.043051e-01 -2.134517e-01
124 2 1 -1.377270e+01 8.068870e+00 3.272619e+00 0 -1 0 9.076046e-01 -5.237886e-02 -1.031877e-01 4.035625e-01
125 2 4 -1.427528e+01 8.014391e+00 4.165132e+00 0 -1 0 -8.803793e-01 4.659327e-01 -5.347260e-03 8.837682e-02
126 2 2 -1.413696e+01 7.859694e+00 4.576051e+00 0 -1 0 6.522994e-01 -3.888582e-01 3.478140e-01 -5.498365e-01
127 2 4 -1.393789e+01 7.774869e+00 5.006291e+00 0 -1 0 -8.388559e-01 1.552042e-01 -4.511330e-01 2.621287e-01
128 2 4 -1.358767e+01 7.564795e+00 5.375871e+00 0 -1 0 -8.334141e-01 -4.433969e-02 -5.213537e-01 1.778910e-01
129 2 1 -1.330127e+01 7.158657e+00 5.537661e+00 0 -1 0 -8.059206e-01 -2.877292e-01 -5.169952e-01 2.049050e-02
130 2 2 -1.288062e+01 6.759016e+00 5.558892e+00 0 -1 0 -7.901068e-01 -3.011161e-01 -4.019275e-01 -3.514466e-01
131 2 3 -1.233590e+01 6.591556e+00 5.513512e+00 0 -1 0 -6.267166e-01 -3.551971e-01 -3.349405e-01 -6.073517e-01
132 2 4 -1.183152e+01 6.751523e+00 5.318009e+00 0 -1 0 4.499156e-01 4.666396e-01 1.442567e-01 7.476720e-01
133 2 4 -1.131261e+01 6.866094e+00 5.546135e+00 0 -1 0 2.058007e-01 3.917115e-01 7.720176e-02 8.934473e-01
134 2 3 -1.099999e+01 7.198977e+00 5.856389e+00 0 -1 0 -1.155895e-01 3.446069e-01 -1.528823e-01 9.189734e-01
135 2 4 -1.082526e+01 7.269375e+00 6.323734e+00 0 -1 0 4.367899e-01 -1.990584e-01 2.558208e-01 -8.391341e-01
136 2 3 -1.065188e+01 7.307699e+00 6.918909e+00 0 -1 0 5.678426e-01 -5.749720e-02 3.452285e-01 -7.450276e-01
137 2 1 -1.065074e+01 7.064855e+00 7.362278e+00 0 -1 0 -7.835559e-01 -7.516809e-02 -3.141881e-01 5.307313e-01
138 2 3 -1.068143e+01 6.610794e+00 7.726138e+00 0 -1 0 -8.653461e-01 -2.116319e-01 -3.526290e-01 2.864276e-01
139 2 2 -1.053345e+01 6.143688e+00 8.009717e+00 0 -1 0 -8.878141e-01 -2.425080e-01 -3.910457e-01 7.699250e-03
140 2 3 -1.024157e+01 5.721596e+00 8.058277e+00 0 -1 0 -7.938308e-01 -4.701786e-01 -2.943369e-01 -2.492600e-01
141 2 1 -9.865911e+00 5.430135e+00 8.025797e+00 0 -1 0 -6.675331e-01 -5.153812e-01 -1.919118e-01 -5.019479e-01
142 2 2 -9.237800e+00 5.275835e+00 8.037918e+00 0 -1 0 -5.096357e-01 -5.020490e-01 -2.107670e-01 -6.661798e-01
143 2 4 -8.765611e+00 5.470999e+00 7.945572e+00 0 -1 0 2.347545e-01 6.137571e-01 3.503086e-02 7.529711e-01
144 2 4 -8.274251e+00 5.596531e+00 8.015162e+00 0 -1 0 -1.082332e-02 -5.549523e-01 7.502417e-02 -8.284215e-01
145 2 1 -7.922919e+00 5.782864e+00 8.273274e+00 0 -1 0 -2.014998e-01 5.207215e-01 -3.021581e-01 7.726238e-01
146 2 1 -7.660818e+00 5.830321e+00 8.668502e+00 0 -1 0 4.785612e-01 -3.678114e-01 3.515674e-01 -7.156076e-01
147 2 1 -7.457762e+00 5.767968e+00 9.101006e+00 0 -1 0 -7.441405e-01 1.821792e-01 -4.293373e-01 4.782625e-01
148 2 2 -7.144587e+00 5.440843e+00 9.392664e+00 0 -1 0 7.291985e-01 4.456190e-02 4.768517e-01 -4.887701e-01
149 2 4 -6.936972e+00 4.980373e+00 9.579161e+00 0 -1 0 -7.841016e-01 -2.306308e-01 -5.245710e-01 2.383681e-01
150 2 1 -6.742768e+00 4.455021e+00 9.662975e+00 0 -1 0 -7.573466e-01 -3.974668e-01 -5.163420e-01 -4.286224e-02
151 2 1 -6.465731e+00 4.090851e+00 9.480357e+00 0 -1 0 -7.309855e-01 -5.105770e-01 -2.860915e-01 -3.508890e-01
152 2 1 -5.852037e+00 3.735499e+00 9.493669e+00 0 -1 0 -6.714793e-01 -4.188903e-01 -2.630924e-01 -5.517507e-01
153 2 4 -5.247633e+00 3.679395e+00 9.606310e+00 0 -1 0 -4.263847e-01 -4.152699e-01 -1.743206e-01 -7.844484e-01
154 2 1 -4.797450e+00 3.836975e+00 9.756411e+00 0 -1 0 -1.989216e-01 -4.486960e-01 -7.035400e-02 -8.684195e-01
155 2 2 -4.447974e+00 4.130321e+00 9.906966e+00 0 -1 0 1.305270e-01 -4.347026e-01 8.974352e-02 -8.865340e-01
156 2 4 -4.219141e+00 4.396968e+00 1.034181e+01 0 -1 0 3.069862e-01 -3.775297e-01 2.060495e-01 -8.489843e-01
157 2 3 -4.152129e+00 4.603037e+00 1.086618e+01 0 -1 0 6.507785e-01 -2.045321e-01 2.376090e-01 -6.915171e-01
158 2 2 -4.210934e+00 4.422453e+00 1.130919e+01 0 -1 0 8.489724e-01 -4.425739e-02 2.075703e-01 -4.839439e-01
159 2 1 -4.206955e+00 4.079156e+00 1.169459e+01 0 -1 0 9.505044e-01 1.462761e-01 1.712905e-01 -2.140193e-01
160 2 3 -4.527809e+00 4.045315e+00 1.272290e+01 0 -1 0 -7.437650e-01 2.244120e-01 -2.347990e-01 5.842280e-01
161 2 1 -4.221415e+00 3.856743e+00 1.316984e+01 0 -1 0 -8.133734e-01 1.051754e-03 -3.314343e-01 4.780941e-01
162 2 1 -4.233298e+00 3.386934e+00 1.346394e+01 0 -1 0 -9.807606e-01 -9.715906e-02 -1.595094e-01 5.679443e-02
163 2 4 -5.098481e+00 3.678412e+00 1.388029e+01 0 -1 0 8.187700e-01 -4.318722e-01 3.624930e-02 -3.765475e-01
164 2 4 -5.815618e+00 4.614744e+00 1.276606e+01 0 -1 0 3.403738e-02 2.898645e-03 -4.318351e-01 -9.013054e-01
165 2 3 -5.946700e+00 5.056662e+00 1.278009e+01 0 -1 0 -4.558098e-01 1.974360e-01 4.493981e-01 7.424943e-01
166 2 3 -5.569629e+00 5.180156e+00 1.222617e+01 0 -1 0 -1.751154e-01 8.581001e-01 4.223375e-01 -2.337303e-01
167 2 4 -5.955622e+00 5.430374e+00 1.190700e+01 0 -1 0 -7.811878e-02 -9.794471e-01 -2.898355e-02 1.836865e-01
168 2 2 -7.146634e+00 5.623697e+00 1.214485e+01 0 -1 0 1.765649e-01 -1.765406e-01 -7.245494e-01 -6.424067e-01
169 2 2 -6.546805e+00 5.867748e+00 1.256923e+01 0 -1 0 4.742483e-01 5.624142e-01 -2.170557e-01 -6.416118e-01
170 2 1 -6.164602e+00 6.325547e+00 1.309244e+01 0 -1 0 8.028085e-01 2.268763e-01 5.487043e-01 5.430686e-02
171 2 1 -5.573251e+00 6.338152e+00 1.367514e+01 0 -1 0 7.177913e-01 -2.130528e-01 -6.525386e-01 1.165225e-01
172 2 4 -5.534472e+00 6.004591e+00 1.361739e+01 0 -1 0 6.271118e-01 1.671164e-03 7.789123e-01 4.860683e-03
173 2 4 -5.806703e+00 5.914033e+00 1.491807e+01 0 -1 0 -6.911919e-01 5.851578e-01 -2.381173e-01 3.509192e-01
174 2 1 -5.373416e+00 6.013877e+00 1.524001e+01 0 -1 0 -7.043783e-01 4.921880e-01 -5.049400e-01 -8.147268e-02
175 2 1 -4.861276e+00 6.029435e+00 1.532460e+01 0 -1 0 -6.858995e-01 1.176669e-01 -6.098105e-01 -3.792461e-01
176 2 2 -4.648186e+00 6.085770e+00 1.591531e+01 0 -1 0 -6.650706e-01 -2.633239e-01 -6.984411e-01 -2.283814e-02
177 2 2 -3.762152e+00 6.181715e+00 1.607032e+01 0 -1 0 6.084779e-01 5.785792e-01 4.776843e-01 2.584927e-01
178 2 1 -2.912858e+00 6.197254e+00 1.662485e+01 0 -1 0 -4.617496e-01 5.184762e-01 2.523783e-01 -6.739992e-01
179 2 4 -3.026814e+00 6.120894e+00 1.581965e+01 0 -1 0 1.532572e-01 -8.846432e-01 -2.853032e-01 3.354410e-01
180 2 1 -2.731264e+00 5.414577e+00 1.570638e+01 0 -1 0 -3.129253e-01 5.686736e-01 9.636593e-02 -7.545871e-01
181 2 4 -2.308997e+00 5.005339e+00 1.538971e+01 0 -1 0 1.913215e-02 -7.746398e-01 -4.378530e-01 4.559079e-01
182 2 2 -2.245382e+00 3.956320e+00 1.636004e+01 0 -1 0 4.133560e-01 -1.359518e-01 -8.064902e-01 4.002843e-01
183 2 3 -2.613619e+00 3.697561e+00 1.653124e+01 0 -1 0 1.965399e-01 -4.842713e-01 -7.186482e-01 4.586918e-01
184 2 4 -3.193769e+00 3.581604e+00 1.657582e+01 0 -1 0 9.855093e-02 7.115400e-01 4.154546e-01 -5.580286e-01
185 2 3 -3.441763e+00 4.138929e+00 1.732515e+01 0 -1 0 1.662452e-01 -6.647991e-01 -4.471043e-01 5.748934e-01
186 2 1 -3.585626e+00 3.341865e+00 1.804150e+01 0 -1 0 -7.999429e-01 4.845939e-01 3.391005e-01 -1.013455e-01
187 2 1 -3.764730e+00 3.529032e+00 1.840106e+01 0 -1 0 6.265602e-01 -6.180326e-01 -1.145985e-01 4.607875e-01
188 2 2 -3.765619e+00 2.335852e+00 1.822818e+01 0 -1 0 -8.922659e-01 -4.280169e-01 -1.201777e-01 7.886964e-02
189 2 4 -4.109074e+00 2.826838e+00 1.959321e+01 0 -1 0 4.422262e-02 -5.832277e-01 5.067731e-01 -6.333015e-01
190 2 4 -3.306258e+00 2.300563e+00 1.950638e+01 0 -1 0 3.053205e-02 6.939846e-01 -7.191773e-01 -1.540202e-02
191 2 1 -3.105255e+00 2.133871e+00 1.906362e+01 0 -1 0 5.397023e-02 2.191173e-01 -9.700025e-01 -9.038773e-02
192 2 4 -2.008746e+00 2.349792e+00 1.867556e+01 0 -1 0 9.000550e-01 3.521730e-01 4.122777e-02 -2.533288e-01
193 2 4 -2.180827e+00 3.781853e+00 1.921718e+01 0 -1 0 -1.772990e-01 -6.504939e-01 1.580806e-01 -7.214106e-01
194 2 1 -1.728744e+00 3.932779e+00 1.935268e+01 0 -1 0 -1.625470e-01 5.547616e-01 -4.624913e-01 6.722499e-01
195 2 3 -1.338751e+00 4.064323e+00 1.818338e+01 0 -1 0 7.442009e-02 1.071294e-01 -4.908438e-01 -8.614275e-01
196 2 4 -1.448821e+00 4.554879e+00 1.824090e+01 0 -1 0 1.827614e-01 1.881987e-01 -5.632295e-01 -7.835509e-01
197 2 2 -6.904140e-01 4.637304e+00 1.960570e+01 0 -1 0 1.792483e-01 -4.361558e-01 7.121209e-01 -5.201173e-01
198 2 4 -3.173276e-01 4.336033e+00 1.966341e+01 0 -1 0 3.923873e-01 -1.209203e-01 8.655615e-01 -2.867296e-01
199 2 3 -4.976666e-01 4.004045e+00 -1.993027e+01 0 -1 1 3.135831e-01 9.102611e-02 -7.823288e-01 -5.304164e-01
200 2 4 4.035887e-01 3.584543e+00 1.998876e+01 0 -1 0 6.021632e-01 4.942216e-02 -7.570193e-01 -2.487542e-01
