ITEM: TIMESTEP
171000000
ITEM: NUMBER OF ATOMS
200
ITEM: BOX BOUNDS pp pp pp
-2.0000000000000000e+01 2.0000000000000000e+01
-2.0000000000000000e+01 2.0000000000000000e+01
-2.0000000000000000e+01 2.0000000000000000e+01
ITEM: ATOMS id mol type x y z ix iy iz c_quat[1] c_quat[2] c_quat[3] c_quat[4]
1 1 1 -1.038685e+01 8.984041e+00 9.054344e+00 0 -1 0 2.966428e-01 -2.906177e-01 -7.169758e-01 5.599019e-01
2 1 2 -9.898198e+00 8.667836e+00 7.871785e+00 0 -1 0 -3.884601e-02 8.810378e-02 -7.470778e-01 -6.577260e-01
3 1 1 -9.630903e+00 7.923922e+00 7.951444e+00 0 -1 0 3.631023e-01 -1.247255e-01 -8.909623e-01 -2.424592e-01
4 1 3 -8.023987e+00 7.986820e+00 7.559673e+00 0 -1 0 6.532242e-01 -5.490132e-01 4.107476e-01 3.211993e-01
5 1 1 -7.651414e+00 8.354999e+00 7.558562e+00 0 -1 0 -5.499453e-01 2.566356e-01 -6.131874e-01 -5.056675e-01
6 1 2 -7.282769e+00 8.732339e+00 7.546956e+00 0 -1 0 -3.368460e-01 2.903024e-02 -7.031217e-01 -6.255493e-01
7 1 4 -6.538021e+00 8.424972e+00 7.577390e+00 0 -1 0 8.689939e-01 1.305096e-01 -4.590543e-01 -1.307136e-01
8 1 1 -7.157196e+00 9.344057e+00 6.457978e+00 0 -1 0 -4.997594e-01 -6.695606e-01 -1.354127e-01 5.325341e-01
9 1 1 -7.528331e+00 9.154532e+00 6.336267e+00 0 -1 0 -7.121155e-01 -6.227283e-01 2.540298e-01 2.014196e-01
10 1 4 -7.606185e+00 9.096947e+00 5.744261e+00 0 -1 0 8.322763e-01 4.791803e-01 -2.690401e-01 -7.293773e-02
11 1 1 -8.227012e+00 9.918034e+00 5.942881e+00 0 -1 0 -4.595442e-01 4.192420e-01 7.737800e-01 -1.196652e-01
12 1 1 -8.771493e+00 9.833971e+00 5.975801e+00 0 -1 0 4.704078e-01 -6.325129e-01 -5.183595e-01 3.315832e-01
13 1 3 -9.072789e+00 9.491928e+00 5.508094e+00 0 -1 0 -2.437264e-01 6.826239e-01 -3.899439e-01 5.679487e-01
14 1 4 -9.527131e+00 1.036780e+01 4.865613e+00 0 -1 0 -5.315882e-01 2.379469e-01 -3.525225e-01 -7.324774e-01
15 1 4 -9.421918e+00 1.087859e+01 5.022987e+00 0 -1 0 -7.873235e-02 1.360358e-01 -3.643537e-01 -9.179008e-01
16 1 2 -9.482723e+00 1.127317e+01 5.115872e+00 0 -1 0 3.110557e-01 -2.120449e-01 -3.328306e-01 -8.645838e-01
17 1 1 -9.628960e+00 1.169183e+01 5.275620e+00 0 -1 0 -6.303492e-01 2.201847e-01 3.520878e-01 6.559061e-01
18 1 2 -1.011549e+01 1.215292e+01 4.906359e+00 0 -1 0 4.688091e-01 -4.249233e-01 -7.156465e-01 -2.958179e-01
19 1 3 -1.052962e+01 1.244800e+01 4.967797e+00 0 -1 0 -5.574907e-01 7.096139e-01 4.280963e-01 4.884441e-02
20 1 1 -1.116226e+01 1.275084e+01 4.153718e+00 0 -1 0 5.943120e-01 7.054554e-01 3.486293e-01 -1.660829e-01
21 1 4 -1.122365e+01 1.364377e+01 4.583636e+00 0 -1 0 3.197594e-01 -7.613009e-01 -4.796145e-01 -2.968919e-01
22 1 1 -1.061573e+01 1.361300e+01 3.976943e+00 0 -1 0 1.985049e-01 1.837063e-01 7.781668e-01 5.668370e-01
23 1 4 -9.899513e+00 1.386733e+01 4.443735e+00 0 -1 0 2.654598e-01 -4.871943e-01 6.711744e-01 -4.916275e-01
24 1 3 -9.099770e+00 1.430062e+01 4.952322e+00 0 -1 0 -4.290765e-01 8.244265e-01 -2.288755e-01 2.895347e-01
25 1 3 -8.777979e+00 1.464298e+01 5.055011e+00 0 -1 0 4.896703e-01 -6.849567e-01 5.392252e-01 1.713381e-02
26 1 4 -9.196296e+00 1.460202e+01 5.488661e+00 0 -1 0 8.951857e-01 -2.648865e-01 3.430433e-01 1.039184e-01
27 1 4 -8.805119e+00 1.461502e+01 5.765397e+00 0 -1 0 -6.998910e-01 1.519961e-01 -3.798821e-01 -5.854394e-01
28 1 1 -8.387295e+00 1.478703e+01 5.806116e+00 0 -1 0 -4.953373e-01 -1.500019e-01 -4.691135e-01 -7.155927e-01
29 1 1 -8.057710e+00 1.510587e+01 5.764232e+00 0 -1 0 9.591700e-02 3.334441e-01 2.297149e-01 9.093108e-01
30 1 4 -7.972647e+00 1.549950e+01 6.029078e+00 0 -1 0 3.751688e-01 -4.170119e-01 -1.600427e-01 -8.122412e-01
31 1 4 -7.998757e+00 1.584961e+01 6.354920e+00 0 -1 0 -6.712124e-01 5.183418e-01 -8.373797e-02 5.232433e-01
32 1 3 -8.058114e+00 1.729608e+01 6.179939e+00 0 -1 0 -2.224101e-01 4.597302e-01 4.492331e-01 -7.330563e-01
33 1 3 -7.722061e+00 1.707776e+01 6.800516e+00 0 -1 0 -2.207788e-01 -8.716984e-01 -1.682534e-01 -4.038432e-01
34 1 1 -8.710563e+00 1.577356e+01 6.968685e+00 0 -1 0 -8.038285e-01 8.703620e-02 -3.614732e-01 4.643508e-01
35 1 2 -8.685151e+00 1.547452e+01 7.329005e+00 0 -1 0 -9.176384e-01 -1.009583e-01 -3.642518e-01 1.227513e-01
36 1 2 -9.066059e+00 1.498097e+01 8.317752e+00 0 -1 0 -5.362043e-01 3.910916e-01 -6.929603e-01 2.816705e-01
37 1 1 -8.709125e+00 1.467259e+01 8.329352e+00 0 -1 0 6.567963e-01 9.714704e-03 7.539681e-01 7.500527e-03
38 1 1 -8.245204e+00 1.452976e+01 8.105585e+00 0 -1 0 -5.015441e-01 -2.823506e-01 -8.024395e-01 -1.575516e-01
39 1 4 -8.173193e+00 1.444845e+01 7.628498e+00 0 -1 0 4.359101e-01 6.657790e-01 5.292875e-01 2.942370e-01
40 1 4 -8.201504e+00 1.305882e+01 8.437555e+00 0 -1 0 -7.696997e-01 8.892200e-02 6.205038e-01 1.209559e-01
41 1 2 -8.737934e+00 1.306120e+01 8.612878e+00 0 -1 0 -7.811826e-01 4.214148e-01 4.269443e-01 -1.728637e-01
42 1 4 -8.959562e+00 1.308909e+01 8.979984e+00 0 -1 0 6.581028e-01 -4.394823e-01 -2.588360e-01 5.538591e-01
43 1 3 -9.998910e+00 1.307278e+01 9.664105e+00 0 -1 0 4.983939e-01 -3.463719e-01 -6.402920e-01 4.708038e-01
44 1 2 -1.049651e+01 1.301431e+01 9.973964e+00 0 -1 0 4.272601e-01 -5.550895e-01 -4.550911e-01 5.497422e-01
45 1 1 -1.089536e+01 1.313417e+01 1.019829e+01 0 -1 0 -2.931615e-01 6.233673e-01 2.615902e-01 -6.760474e-01
46 1 3 -1.129859e+01 1.337400e+01 1.034880e+01 0 -1 0 1.408351e-01 -6.635312e-01 3.990771e-02 7.336887e-01
47 1 4 -1.165311e+01 1.379152e+01 1.032701e+01 0 -1 0 -8.245707e-02 -6.710323e-01 2.327812e-01 6.990918e-01
48 1 1 -1.218090e+01 1.406023e+01 1.017891e+01 0 -1 0 3.335609e-01 6.323544e-01 -3.388825e-01 -6.115748e-01
49 1 4 -1.248860e+01 1.410606e+01 9.816134e+00 0 -1 0 5.014286e-01 4.428805e-01 -6.164387e-01 -4.152464e-01
50 1 4 -1.294364e+01 1.408702e+01 9.535747e+00 0 -1 0 5.182303e-01 5.417888e-01 -6.264492e-01 -2.132224e-01
51 1 4 -1.321668e+01 1.381414e+01 9.211284e+00 0 -1 0 5.562542e-01 3.597254e-01 -7.485749e-01 2.854069e-02
52 1 1 -1.349711e+01 1.337345e+01 8.918673e+00 0 -1 0 6.400787e-01 1.395516e-01 -7.311324e-01 1.904468e-01
53 1 3 -1.366914e+01 1.288582e+01 9.012010e+00 0 -1 0 -4.566702e-01 3.546515e-02 7.530000e-01 -4.724252e-01
54 1 4 -1.396860e+01 1.245196e+01 9.274294e+00 0 -1 0 3.982116e-01 -2.996764e-01 -6.489648e-01 5.748620e-01
55 1 4 -1.441243e+01 1.231490e+01 9.583429e+00 0 -1 0 1.271136e-01 -5.318830e-01 -5.029166e-01 6.693411e-01
56 1 4 -1.506189e+01 1.220789e+01 9.482940e+00 0 -1 0 -2.526000e-02 7.225815e-01 4.307855e-01 -5.400572e-01
57 1 1 -1.556380e+01 1.227672e+01 9.404803e+00 0 -1 0 -1.275576e-02 8.030165e-01 1.144461e-01 -5.847254e-01
58 1 1 -1.597047e+01 1.250341e+01 9.247083e+00 0 -1 0 -1.173855e-01 -8.033060e-01 1.502354e-01 5.642247e-01
59 1 3 -1.630988e+01 1.273628e+01 8.923480e+00 0 -1 0 2.665375e-01 7.337959e-01 -3.524626e-01 -5.160150e-01
60 1 4 -1.668311e+01 1.290039e+01 8.488703e+00 0 -1 0 2.583696e-01 7.287255e-01 -4.908309e-01 -4.016083e-01
61 1 2 -1.676991e+01 1.294317e+01 7.969657e+00 0 -1 0 3.869555e-01 5.290991e-01 -7.121437e-01 -2.513382e-01
62 1 3 -1.690468e+01 1.273902e+01 7.539639e+00 0 -1 0 -3.779289e-01 -2.532864e-01 8.877453e-01 7.017220e-02
63 1 2 -1.723723e+01 1.248848e+01 7.192504e+00 0 -1 0 4.733618e-01 8.577848e-02 -8.747091e-01 5.877685e-02
64 1 4 -1.763339e+01 1.214234e+01 7.074065e+00 0 -1 0 -4.647193e-01 2.460374e-01 8.272580e-01 -1.978530e-01
65 1 2 -1.818674e+01 1.190310e+01 7.071975e+00 0 -1 0 4.092553e-01 -5.280323e-01 -6.843192e-01 2.922314e-01
66 1 1 -1.877947e+01 1.201073e+01 7.121681e+00 0 -1 0 3.720876e-01 -7.178787e-01 -4.544262e-01 3.737617e-01
67 1 2 -1.922616e+01 1.220787e+01 7.055625e+00 0 -1 0 -2.504148e-01 8.740513e-01 2.523263e-01 -3.311467e-01
68 1 1 -1.939707e+01 1.259821e+01 6.835382e+00 0 -1 0 -3.733945e-02 8.477187e-01 -3.237554e-01 -4.185227e-01
69 1 1 1.982154e+01 1.305290e+01 7.993758e+00 -1 -1 0 4.400883e-01 -8.024235e-01 -3.016017e-01 -2.673486e-01
70 1 2 1.916076e+01 1.260437e+01 8.223434e+00 -1 -1 0 3.243559e-01 1.891241e-01 7.567256e-01 -5.351558e-01
71 1 3 1.903585e+01 1.221578e+01 8.473670e+00 -1 -1 0 -6.304070e-01 -3.715727e-01 -6.247772e-01 2.723494e-01
72 1 4 1.865254e+01 1.242100e+01 9.477537e+00 -1 -1 0 -7.064325e-02 3.557083e-01 4.156173e-01 8.341123e-01
73 1 1 1.873725e+01 1.236319e+01 1.006323e+01 -1 -1 0 1.906912e-01 -7.984668e-01 -2.088448e-01 5.314804e-01
74 1 1 1.958695e+01 1.248570e+01 1.058249e+01 -1 -1 0 6.440521e-01 -2.949310e-01 -8.353632e-02 7.008810e-01
75 1 3 1.978784e+01 1.125228e+01 9.697166e+00 -1 -1 0 9.122718e-01 6.164915e-02 3.069259e-01 -2.641137e-01
76 1 1 -1.995375e+01 1.088588e+01 1.003749e+01 0 -1 0 9.172439e-01 1.742655e-01 3.208102e-01 1.592986e-01
77 1 4 -1.947342e+01 1.057531e+01 1.024838e+01 0 -1 0 7.765792e-01 1.323330e-01 1.984633e-01 5.831166e-01
78 1 1 -1.955025e+01 1.070792e+01 1.139777e+01 0 -1 0 -5.331254e-01 7.356473e-01 2.202817e-01 -3.550723e-01
79 1 4 -1.964149e+01 1.116452e+01 1.161219e+01 0 -1 0 3.514391e-01 -6.943627e-01 1.577243e-01 6.078438e-01
80 1 2 -1.994922e+01 1.029292e+01 1.226097e+01 0 -1 0 8.402186e-01 4.931640e-01 -1.456303e-01 1.720868e-01
81 1 4 -1.981384e+01 9.781270e+00 1.246631e+01 0 -1 0 7.858925e-01 3.187450e-01 -2.498462e-01 4.672810e-01
82 1 4 -1.952303e+01 9.528459e+00 1.271505e+01 0 -1 0 4.022449e-01 2.926306e-01 -2.757832e-01 8.225023e-01
83 1 4 -1.910601e+01 8.539118e+00 1.220123e+01 0 -1 0 5.090482e-01 1.409186e-01 -8.488410e-01 -2.192943e-02
84 1 4 -1.845594e+01 8.158296e+00 1.184753e+01 0 -1 0 5.408913e-01 7.165118e-01 -3.952205e-01 1.945462e-01
85 1 1 -1.838127e+01 7.673187e+00 1.166494e+01 0 -1 0 -5.193041e-01 -5.492540e-01 5.056251e-01 -4.159165e-01
86 1 1 -1.835280e+01 7.869116e+00 1.047805e+01 0 -1 0 1.173809e-02 -1.745820e-01 6.967783e-01 6.956172e-01
87 1 3 -1.737940e+01 7.173673e+00 1.078653e+01 0 -1 0 9.401123e-01 3.029323e-01 -3.348394e-03 1.562360e-01
88 1 2 -1.873330e+01 7.074606e+00 1.121484e+01 0 -1 0 1.561361e-01 5.580875e-01 7.106272e-01 -3.989597e-01
89 1 2 -1.881828e+01 6.051321e+00 1.180824e+01 0 -1 0 -7.232288e-01 -2.442230e-01 6.188798e-01 1.851570e-01
90 1 3 -1.926668e+01 5.825485e+00 1.175765e+01 0 -1 0 7.646899e-01 -5.594299e-02 -6.418721e-01 -1.094830e-02
91 1 3 -1.964928e+01 5.540274e+00 1.192731e+01 0 -1 0 6.626830e-01 -3.021287e-01 -6.079188e-01 3.162344e-01
92 1 2 -1.994275e+01 5.559797e+00 1.233337e+01 0 -1 0 -3.759863e-01 5.290205e-01 4.235967e-01 -6.319315e-01
93 1 1 1.968179e+01 5.403596e+00 1.170066e+01 -1 -1 0 -6.801977e-01 -1.122895e-01 -1.024138e-01 -7.171008e-01
94 1 2 1.968001e+01 4.435013e+00 1.072422e+01 -1 -1 0 5.267045e-01 7.544870e-01 -1.952507e-01 -3.394243e-01
95 1 3 1.954180e+01 4.198755e+00 1.035856e+01 -1 -1 0 6.507010e-01 4.886354e-01 -5.693308e-01 -1.169875e-01
96 1 2 1.927852e+01 3.876427e+00 1.010374e+01 -1 -1 0 6.442525e-01 3.199426e-01 -6.864234e-01 1.067634e-01
97 1 2 1.867130e+01 3.635952e+00 9.239171e+00 -1 -1 0 8.850147e-01 -7.205240e-02 2.483262e-01 -3.871582e-01
98 1 4 1.873447e+01 3.266878e+00 9.640934e+00 -1 -1 0 9.651212e-01 8.879128e-02 2.443066e-01 -3.116759e-02
99 1 2 1.797137e+01 3.307992e+00 9.944485e+00 -1 -1 0 -2.395551e-01 -7.193217e-01 -6.171387e-01 2.105457e-01
100 1 1 1.839814e+01 2.285225e+00 1.043175e+01 -1 -1 0 3.850090e-03 9.071621e-01 -3.957916e-01 1.427974e-01
101 2 4 -1.026747e+01 1.285662e+01 -3.269562e+00 0 -1 0 -1.525452e-01 -2.617823e-01 9.490943e-01 8.613976e-02
102 2 3 -1.097334e+01 1.321469e+01 -2.935929e+00 0 -1 0 5.866357e-01 -5.484451e-01 -5.821846e-01 1.269942e-01
103 2 1 -1.159371e+01 1.286404e+01 -3.426365e+00 0 -1 0 -7.783298e-02 -1.771147e-01 -1.671246e-01 -9.667687e-01
104 2 3 -1.198053e+01 1.198548e+01 -3.498938e+00 0 -1 0 7.173712e-01 -2.397202e-02 -6.641067e-01 -2.092039e-01
105 2 3 -1.247782e+01 1.197993e+01 -3.367423e+00 0 -1 0 7.045764e-01 -3.478319e-01 -6.104907e-01 9.942909e-02
106 2 2 -1.291485e+01 1.198477e+01 -3.095882e+00 0 -1 0 7.091758e-01 -4.959875e-01 -3.764528e-01 3.306802e-01
107 2 3 -1.354885e+01 1.163453e+01 -2.360406e+00 0 -1 0 -5.269101e-01 6.378720e-01 -2.520508e-01 5.019516e-01
108 2 4 -1.462448e+01 1.198292e+01 -2.497810e+00 0 -1 0 2.433927e-01 3.760516e-01 3.287007e-01 -8.314452e-01
109 2 3 -1.316469e+01 1.167785e+01 -2.272173e+00 0 -1 0 -6.992007e-01 -6.998613e-01 1.425533e-01 3.148153e-02
110 2 2 -1.376832e+01 1.096015e+01 -1.508207e+00 0 -1 0 -1.231995e-01 6.687084e-01 -6.814027e-01 2.708160e-01
111 2 2 -1.345173e+01 1.057619e+01 -1.735191e+00 0 -1 0 -1.579263e-01 1.792468e-01 -9.611554e-01 -1.382395e-01
112 2 3 -1.350554e+01 1.084468e+01 -3.578297e-01 0 -1 0 -7.926424e-01 2.769834e-01 5.212738e-01 1.525511e-01
113 2 3 -1.393826e+01 1.042254e+01 -2.015929e-01 0 -1 0 -9.553111e-01 1.790842e-01 2.495793e-02 2.338516e-01
114 2 2 -1.387503e+01 1.040814e+01 3.196161e-01 0 -1 0 -9.632313e-01 1.774627e-01 -1.232439e-01 -1.596979e-01
115 2 4 -1.369360e+01 1.075184e+01 1.174192e+00 0 -1 0 -6.813566e-01 5.614563e-01 -3.944826e-01 2.547616e-01
116 2 4 -1.330067e+01 1.086167e+01 1.489028e+00 0 -1 0 6.941961e-01 -3.913347e-01 6.023489e-01 -4.609526e-02
117 2 1 -1.418656e+01 1.134747e+01 2.537809e+00 0 -1 0 -4.403183e-01 1.247721e-01 7.983312e-01 -3.914320e-01
118 2 1 -1.435326e+01 1.096652e+01 2.088155e+00 0 -1 0 -1.023952e-01 -4.495899e-01 -3.143601e-01 8.297963e-01
119 2 1 -1.492548e+01 1.098759e+01 2.267032e+00 0 -1 0 4.355729e-01 6.145229e-01 1.708558e-01 -6.351741e-01
120 2 1 -1.535423e+01 1.080989e+01 2.084206e+00 0 -1 0 -6.050644e-01 -6.500828e-01 9.255989e-02 4.502467e-01
121 2 3 -1.571925e+01 1.113908e+01 2.515657e+00 0 -1 0 -5.052576e-01 6.927939e-01 -3.269435e-01 3.973151e-01
122 2 1 -1.601812e+01 1.143393e+01 2.895602e+00 0 -1 0 9.443421e-01 -2.019625e-01 -2.593708e-01 -1.248679e-02
123 2 4 -1.635449e+01 1.247055e+01 2.875432e+00 0 -1 0 -9.867388e-02 -4.760153e-01 -1.617473e-01 8.587844e-01
124 2 1 -1.607035e+01 1.259354e+01 4.001395e+00 0 -1 0 -1.598336e-02 1.207840e-01 -3.754622e-01 9.187948e-01
125 2 4 -1.556415e+01 1.302835e+01 4.092466e+00 0 -1 0 -6.459559e-01 6.802343e-01 -2.164768e-01 -2.704814e-01
126 2 2 -1.571821e+01 1.404449e+01 3.903630e+00 0 -1 0 2.932481e-01 -4.617573e-01 2.370413e-01 8.028681e-01
127 2 4 -1.600026e+01 1.447090e+01 3.967563e+00 0 -1 0 -2.713912e-01 3.917946e-01 -4.707135e-01 -7.424774e-01
128 2 4 -1.585641e+01 1.471057e+01 4.710248e+00 0 -1 0 -4.927491e-01 -7.986949e-01 2.985992e-01 1.735606e-01
129 2 1 -1.725909e+01 1.493980e+01 5.617364e+00 0 -1 0 1.697957e-01 -4.373586e-01 -8.827493e-01 -2.531090e-02
130 2 2 -1.767877e+01 1.494535e+01 5.325191e+00 0 -1 0 2.068249e-01 -6.889594e-01 -6.720113e-01 1.759524e-01
131 2 3 -1.811165e+01 1.505851e+01 5.090141e+00 0 -1 0 1.941553e-01 -8.701434e-01 -3.772982e-01 2.505997e-01
132 2 4 -1.866634e+01 1.411179e+01 5.128850e+00 0 -1 0 -4.602847e-02 5.195551e-01 5.390304e-01 -6.613548e-01
133 2 4 -1.834413e+01 1.301588e+01 5.824774e+00 0 -1 0 9.876675e-01 -1.137467e-01 -8.954966e-02 -5.962783e-02
134 2 3 -1.827927e+01 1.295432e+01 6.378178e+00 0 -1 0 -8.915455e-01 2.419571e-01 -1.248464e-01 -3.619623e-01
135 2 4 -1.856602e+01 1.316154e+01 7.036963e+00 0 -1 0 -5.920846e-01 2.879436e-01 -3.366704e-01 6.731845e-01
136 2 3 -1.835834e+01 1.303154e+01 7.540946e+00 0 -1 0 -7.073312e-01 1.715234e-01 -4.532488e-01 5.146143e-01
137 2 1 -1.821688e+01 1.275322e+01 7.918766e+00 0 -1 0 8.710796e-01 2.909964e-02 4.254666e-01 -2.436220e-01
138 2 3 -1.786754e+01 1.242686e+01 8.206369e+00 0 -1 0 8.597538e-01 8.732331e-02 4.965972e-01 -8.117426e-02
139 2 2 -1.752721e+01 1.204409e+01 8.225510e+00 0 -1 0 8.069463e-01 2.880723e-01 4.375851e-01 2.727109e-01
140 2 3 -1.696139e+01 1.180264e+01 8.251679e+00 0 -1 0 -6.704334e-01 -3.108033e-01 -4.754752e-01 -4.773297e-01
141 2 1 -1.641047e+01 1.176264e+01 8.132369e+00 0 -1 0 -4.752325e-01 -4.141701e-01 -3.187970e-01 -7.078034e-01
142 2 2 -1.594322e+01 1.193216e+01 8.187626e+00 0 -1 0 -2.068101e-01 -5.169673e-01 -2.736184e-01 -7.842878e-01
143 2 4 -1.548225e+01 1.211441e+01 8.207258e+00 0 -1 0 -3.287701e-02 5.250227e-01 2.496486e-01 8.129857e-01
144 2 4 -1.525460e+01 1.260531e+01 8.285998e+00 0 -1 0 2.661072e-01 -5.651024e-01 -8.686572e-02 -7.760803e-01
145 2 1 -1.507669e+01 1.302901e+01 8.552630e+00 0 -1 0 -5.554362e-01 5.275485e-01 -2.185136e-02 6.424218e-01
146 2 1 -1.480940e+01 1.331203e+01 8.983558e+00 0 -1 0 6.292979e-01 -4.632266e-01 7.955441e-02 -6.189317e-01
147 2 1 -1.464932e+01 1.351405e+01 9.512312e+00 0 -1 0 -7.072744e-01 4.932097e-01 -3.658704e-01 3.502084e-01
148 2 2 -1.422316e+01 1.348002e+01 9.858038e+00 0 -1 0 7.715059e-01 -3.287544e-01 5.090596e-01 -1.937977e-01
149 2 4 -1.381050e+01 1.344344e+01 1.021009e+01 0 -1 0 -8.013216e-01 1.720847e-01 -5.727306e-01 -1.582057e-02
150 2 1 -1.332245e+01 1.329683e+01 1.029636e+01 0 -1 0 -7.236802e-01 -2.364191e-02 -6.613537e-01 -1.958040e-01
151 2 1 -1.295330e+01 1.303761e+01 1.017590e+01 0 -1 0 -6.001832e-01 -3.994358e-01 -6.343514e-01 -2.789793e-01
152 2 1 -1.253019e+01 1.289181e+01 9.835214e+00 0 -1 0 -4.671262e-01 -5.043490e-01 -5.079289e-01 -5.190698e-01
153 2 4 -1.208541e+01 1.300608e+01 9.578516e+00 0 -1 0 -3.344013e-01 -5.786295e-01 -4.482810e-01 -5.936395e-01
154 2 1 -1.178349e+01 1.333708e+01 9.272280e+00 0 -1 0 -8.115077e-02 -7.348158e-01 -1.466270e-01 -6.572372e-01
155 2 2 -1.128015e+01 1.357375e+01 9.180174e+00 0 -1 0 1.422351e-01 -6.697989e-01 -3.921815e-02 -7.277366e-01
156 2 4 -1.103486e+01 1.396841e+01 9.328362e+00 0 -1 0 4.246599e-01 -6.384020e-01 9.987619e-02 -6.341385e-01
157 2 3 -1.057483e+01 1.424230e+01 9.634114e+00 0 -1 0 5.559286e-01 -4.823168e-01 2.992049e-01 -6.072811e-01
158 2 2 -1.024946e+01 1.419151e+01 1.007118e+01 0 -1 0 -6.524913e-01 3.877931e-01 -5.468147e-01 3.533629e-01
159 2 1 -1.000572e+01 1.490931e+01 1.059607e+01 0 -1 0 5.721914e-01 -6.634907e-01 4.232002e-01 -2.308217e-01
160 2 3 -9.978143e+00 1.511282e+01 1.059296e+01 0 -1 0 -6.643027e-02 -8.316428e-02 -9.905392e-01 8.661898e-02
161 2 1 -8.855523e+00 1.475600e+01 1.099356e+01 0 -1 0 -4.491469e-01 7.135570e-01 -4.927306e-01 -2.152209e-01
162 2 1 -8.506859e+00 1.494458e+01 1.081503e+01 0 -1 0 4.012456e-01 -3.499512e-01 7.708407e-01 3.497724e-01
163 2 4 -8.181019e+00 1.515327e+01 1.050381e+01 0 -1 0 -3.135761e-01 3.280467e-02 -8.890602e-01 -3.319125e-01
164 2 4 -8.031494e+00 1.522228e+01 1.004132e+01 0 -1 0 8.925685e-02 3.009969e-01 8.780548e-01 3.611839e-01
165 2 3 -7.029890e+00 1.456958e+01 1.088088e+01 0 -1 0 -6.870458e-01 4.763229e-01 -5.476380e-01 3.430934e-02
166 2 3 -6.416745e+00 1.469701e+01 1.097361e+01 0 -1 0 -8.325991e-01 -4.901437e-01 1.158959e-01 2.304476e-01
167 2 4 -5.797513e+00 1.516599e+01 1.158951e+01 0 -1 0 5.225755e-01 -7.226642e-01 -8.881625e-02 -4.436023e-01
168 2 2 -5.775745e+00 1.459896e+01 1.153645e+01 0 -1 0 7.214397e-01 3.000191e-01 7.395810e-02 -6.197125e-01
169 2 2 -5.027151e+00 1.449827e+01 1.208546e+01 0 -1 0 7.612444e-01 1.771239e-01 5.304725e-01 -3.282271e-01
170 2 1 -4.110261e+00 1.464015e+01 1.315852e+01 0 -1 0 -3.582237e-01 7.238295e-01 -3.203379e-01 4.951063e-01
171 2 1 -3.559135e+00 1.557698e+01 1.225485e+01 0 -1 0 5.447986e-01 -7.407238e-01 1.554846e-02 3.927862e-01
172 2 4 -4.490222e+00 1.528374e+01 1.135278e+01 0 -1 0 -3.769358e-01 3.668350e-01 -6.736326e-01 -5.192019e-01
173 2 4 -4.643973e+00 1.651369e+01 1.151227e+01 0 -1 0 1.033160e-01 8.301102e-01 5.415301e-01 -8.359420e-02
174 2 1 -4.543626e+00 1.687055e+01 1.167750e+01 0 -1 0 -3.685357e-01 5.523235e-01 4.441962e-01 6.015063e-01
175 2 1 -3.778990e+00 1.741654e+01 1.110624e+01 0 -1 0 -5.075497e-01 6.519164e-01 -5.080821e-01 -2.434152e-01
176 2 2 -3.534228e+00 1.783678e+01 1.081172e+01 0 -1 0 3.518832e-01 -5.787906e-01 6.891308e-01 2.574457e-01
177 2 2 -4.105327e+00 1.826648e+01 1.066565e+01 0 -1 0 -9.050699e-01 2.178114e-01 -3.604221e-01 -5.918248e-02
178 2 1 -4.736777e+00 1.902857e+01 1.162136e+01 0 -1 0 -3.677532e-01 4.722121e-01 6.444427e-01 4.758854e-01
179 2 4 -4.720184e+00 1.962979e+01 1.184484e+01 0 -1 0 -1.448575e-01 4.584540e-01 8.571675e-01 1.846624e-01
180 2 1 -4.935095e+00 1.990216e+01 1.146342e+01 0 -1 0 -3.343575e-01 6.058601e-01 7.014715e-01 1.705179e-01
181 2 4 -4.456340e+00 -1.981824e+01 1.050618e+01 0 0 0 8.356181e-01 4.839230e-01 -8.122897e-03 2.597979e-01
182 2 2 -4.291234e+00 2.010475e+01 1.067778e+01 0 -1 0 5.651666e-01 -3.381581e-01 5.442683e-01 -5.196229e-01
183 2 3 -4.328911e+00 -1.923657e+01 1.147880e+01 0 0 0 1.099225e-01 -7.146993e-01 -3.310033e-01 -6.062663e-01
184 2 4 -3.202336e+00 -1.994369e+01 1.081079e+01 0 0 0 -7.945262e-01 1.851979e-02 -1.697824e-01 -5.827170e-01
185 2 3 -2.897421e+00 -1.982594e+01 1.113311e+01 0 0 0 4.305603e-01 5.016738e-02 1.517137e-01 8.883040e-01
186 2 1 -1.859166e+00 1.948713e+01 1.174224e+01 0 -1 0 6.909231e-01 5.547749e-01 -4.180716e-01 2.001656e-01
187 2 1 -2.375773e+00 2.004464e+01 1.189531e+01 0 -1 0 -4.681600e-01 1.396550e-01 -6.480525e-01 -5.842522e-01
188 2 2 -1.608795e+00 -1.939252e+01 1.212194e+01 0 0 0 1.757972e-01 -7.211451e-01 -1.792002e-01 6.457030e-01
189 2 4 -5.906366e-01 -1.975909e+01 1.170995e+01 0 0 0 -9.464966e-01 -2.053219e-01 1.262110e-02 -2.486520e-01
190 2 4 -3.929834e-01 1.991476e+01 1.197224e+01 0 -1 0 7.614082e-01 1.115646e-01 -2.116655e-01 6.025019e-01
191 2 1 -1.597605e-01 1.984463e+01 1.227524e+01 0 -1 0 2.400889e-01 9.592827e-02 -3.145619e-01 9.133487e-01
192 2 4 9.597245e-01 1.952510e+01 1.178257e+01 0 -1 0 2.887720e-02 -9.887214e-01 1.195130e-01 -8.551487e-02
193 2 4 1.515269e+00 1.884535e+01 1.225501e+01 0 -1 0 -8.444326e-01 -7.793930e-02 2.461236e-01 -4.693424e-01
194 2 1 1.492091e+00 1.864389e+01 1.271772e+01 0 -1 0 -7.980784e-01 -8.234719e-02 6.400012e-02 -5.934592e-01
195 2 3 1.813406e+00 1.856738e+01 1.308719e+01 0 -1 0 -5.242121e-01 -8.081453e-02 4.909043e-02 -8.463219e-01
196 2 4 1.849617e+00 1.769247e+01 1.281447e+01 0 -1 0 6.951128e-01 -6.338566e-01 -9.484075e-02 -3.256521e-01
197 2 2 1.227791e+00 1.734979e+01 1.166998e+01 0 -1 0 3.989802e-01 1.249988e-01 -6.010671e-02 -9.064090e-01
198 2 4 2.494567e+00 1.760660e+01 1.090719e+01 0 -1 0 8.845625e-01 3.270656e-01 2.014377e-01 2.645753e-01
199 2 3 1.113531e+00 1.771016e+01 1.083563e+01 0 -1 0 6.118164e-01 4.752684e-01 3.673884e-01 -5.146129e-01
200 2 4 1.066670e+00 1.880876e+01 1.112967e+01 0 -1 0 -5.964960e-01 -3.088621e-01 2.526240e-02 -7.403773e-01
