ITEM: TIMESTEP
298000000
ITEM: NUMBER OF ATOMS
200
ITEM: BOX BOUNDS pp pp pp
-2.0000000000000000e+01 2.0000000000000000e+01
-2.0000000000000000e+01 2.0000000000000000e+01
-2.0000000000000000e+01 2.0000000000000000e+01
ITEM: ATOMS id mol type x y z ix iy iz c_quat[1] c_quat[2] c_quat[3] c_quat[4]
1 1 1 1.184505e+01 -1.945272e+01 1.007272e+01 -1 0 0 -7.727892e-01 6.183149e-01 1.994998e-02 1.417236e-01
2 1 2 1.139726e+01 -1.950228e+01 8.660098e+00 -1 0 0 -3.171740e-01 -5.405783e-01 -8.709749e-02 7.743318e-01
3 1 1 1.091108e+01 -1.949526e+01 8.746244e+00 -1 0 0 -3.891710e-01 -5.662670e-01 1.372471e-01 7.134780e-01
4 1 3 1.034123e+01 -1.959384e+01 8.692273e+00 -1 0 0 -5.843955e-01 -5.487860e-01 2.846044e-01 5.256579e-01
5 1 1 9.657639e+00 -1.985587e+01 9.150349e+00 -1 0 0 5.631163e-01 -4.405110e-01 -6.985311e-01 -3.007106e-02
6 1 2 9.141539e+00 -1.970157e+01 9.374819e+00 -1 0 0 5.209230e-01 -6.105322e-01 -5.112973e-01 3.073512e-01
7 1 4 9.119386e+00 1.959491e+01 9.472733e+00 -1 -1 0 1.060021e-01 -2.130216e-01 8.984412e-01 3.690377e-01
8 1 1 8.546660e+00 -1.966790e+01 9.990648e+00 -1 0 0 2.004300e-01 -8.794732e-01 -2.685316e-01 3.380021e-01
9 1 1 8.085291e+00 -1.947593e+01 9.810904e+00 -1 0 0 -8.602364e-02 9.107361e-01 -1.371302e-02 -4.036974e-01
10 1 4 7.255498e+00 1.957288e+01 9.417382e+00 -1 -1 0 7.231693e-01 5.674581e-01 2.121494e-02 -3.931506e-01
11 1 1 6.978879e+00 1.925034e+01 9.321927e+00 -1 -1 0 8.136540e-01 5.091062e-01 -2.662115e-01 -8.893527e-02
12 1 1 7.103734e+00 1.875246e+01 9.196288e+00 -1 -1 0 -9.413860e-01 -4.117468e-02 3.163420e-01 -1.096574e-01
13 1 3 7.056689e+00 1.847913e+01 9.625867e+00 -1 -1 0 8.698009e-01 -5.874430e-02 -2.442556e-01 4.246583e-01
14 1 4 6.956586e+00 1.802132e+01 8.946246e+00 -1 -1 0 1.302546e-01 8.685382e-01 -4.155380e-01 2.366502e-01
15 1 4 6.581043e+00 1.782968e+01 7.521349e+00 -1 -1 0 -5.873153e-01 -1.733600e-01 -6.503502e-01 -4.495016e-01
16 1 2 6.942581e+00 1.792695e+01 7.304058e+00 -1 -1 0 -2.342412e-01 -5.470074e-01 -4.150157e-01 -6.882412e-01
17 1 1 7.327147e+00 1.689629e+01 8.317145e+00 -1 -1 0 3.725917e-01 -5.803706e-01 4.736526e-01 -5.477212e-01
18 1 2 7.084695e+00 1.643511e+01 8.522075e+00 -1 -1 0 -3.694647e-01 3.702722e-01 7.998164e-01 -2.944283e-01
19 1 3 8.357907e+00 1.610102e+01 7.482738e+00 -1 -1 0 -8.453748e-01 3.250194e-01 -3.639349e-01 -2.173826e-01
20 1 1 8.392924e+00 1.585964e+01 7.860513e+00 -1 -1 0 -4.678064e-01 1.109818e-01 -7.751980e-01 4.097661e-01
21 1 4 8.286450e+00 1.552849e+01 8.671763e+00 -1 -1 0 -2.201263e-01 2.137640e-01 -9.092848e-01 2.811592e-01
22 1 1 9.209025e+00 1.641211e+01 8.822848e+00 -1 -1 0 2.381966e-01 4.769008e-01 1.318935e-01 8.357225e-01
23 1 4 1.029531e+01 1.634138e+01 8.576379e+00 -1 -1 0 1.872319e-02 9.664873e-01 1.276176e-01 -2.219584e-01
24 1 3 1.100720e+01 1.587851e+01 9.294134e+00 -1 -1 0 1.693379e-01 -8.788871e-01 4.349353e-01 9.855660e-02
25 1 3 1.065220e+01 1.571181e+01 9.856772e+00 -1 -1 0 2.547268e-01 4.793206e-01 -7.357454e-02 8.366318e-01
26 1 4 1.096448e+01 1.500791e+01 9.935768e+00 -1 -1 0 -2.789824e-01 3.923837e-01 -6.397069e-01 -5.991484e-01
27 1 4 1.063215e+01 1.431396e+01 1.031906e+01 -1 -1 0 -2.726436e-01 -4.007008e-01 -8.735362e-01 -4.515316e-02
28 1 1 1.092941e+01 1.396818e+01 1.060853e+01 -1 -1 0 1.291849e-01 -5.663619e-01 -6.259679e-01 5.202977e-01
29 1 1 1.208487e+01 1.303184e+01 1.103046e+01 -1 -1 0 -3.521905e-01 -6.948129e-01 5.576850e-01 -2.866782e-01
30 1 4 1.204021e+01 1.280341e+01 1.026949e+01 -1 -1 0 6.074941e-01 -6.708645e-02 6.009816e-01 -5.150452e-01
31 1 4 1.308505e+01 1.287342e+01 1.028129e+01 -1 -1 0 -8.407617e-01 9.432370e-02 -5.186210e-01 1.235113e-01
32 1 3 1.319994e+01 1.293719e+01 1.017843e+01 -1 -1 0 4.574490e-01 1.932868e-01 3.500656e-01 -7.942511e-01
33 1 3 1.404215e+01 1.312702e+01 1.015924e+01 -1 -1 0 -8.777294e-02 -2.113968e-01 8.047812e-01 5.476628e-01
34 1 1 1.444332e+01 1.376790e+01 9.723913e+00 -1 -1 0 -1.465549e-01 -7.703075e-01 -4.130207e-01 -4.632083e-01
35 1 2 1.464707e+01 1.241035e+01 9.076458e+00 -1 -1 0 -1.121976e-01 -3.412913e-01 6.071416e-01 7.087390e-01
36 1 2 1.513926e+01 1.162718e+01 8.867898e+00 -1 -1 0 4.943855e-01 -4.451755e-01 7.363902e-01 -1.230091e-01
37 1 1 1.570465e+01 1.228557e+01 8.728761e+00 -1 -1 0 3.459591e-01 3.115450e-01 -3.171232e-01 8.262475e-01
38 1 1 1.582025e+01 1.189948e+01 9.058874e+00 -1 -1 0 -1.998668e-01 -5.257044e-02 3.259194e-01 -9.225325e-01
39 1 4 1.573497e+01 1.166758e+01 9.522916e+00 -1 -1 0 1.153231e-01 -1.068032e-01 -3.015156e-01 9.404159e-01
40 1 4 1.626174e+01 1.087038e+01 9.147045e+00 -1 -1 0 4.572406e-01 6.321612e-01 6.255005e-01 -7.241237e-03
41 1 2 1.666968e+01 1.091033e+01 9.715353e+00 -1 -1 0 3.467221e-01 5.136331e-02 -2.876113e-01 -8.913054e-01
42 1 4 1.765258e+01 1.033910e+01 9.851080e+00 -1 -1 0 4.359815e-03 -8.640076e-01 2.730421e-01 4.229893e-01
43 1 3 1.687239e+01 9.738093e+00 1.115850e+01 -1 -1 0 -4.242147e-01 1.700214e-01 8.634074e-01 2.136875e-01
44 1 2 1.689977e+01 9.250966e+00 1.173047e+01 -1 -1 0 3.720306e-01 -6.518050e-02 -8.826681e-01 2.797174e-01
45 1 1 1.651219e+01 8.932978e+00 1.162045e+01 -1 -1 0 2.854572e-01 -3.492918e-01 -7.587039e-01 4.699764e-01
46 1 3 1.760619e+01 8.732128e+00 1.034460e+01 -1 -1 0 -3.071224e-01 5.935255e-01 -6.311281e-01 -3.938028e-01
47 1 4 1.786398e+01 8.997453e+00 1.005569e+01 -1 -1 0 -7.462749e-02 1.831489e-01 -8.217188e-01 -5.344768e-01
48 1 1 1.772907e+01 9.340009e+00 9.694982e+00 -1 -1 0 2.142584e-01 -1.001102e-01 -7.960567e-01 -5.571041e-01
49 1 4 1.749743e+01 9.601984e+00 9.420131e+00 -1 -1 0 -4.772674e-01 3.951307e-01 6.550527e-01 4.324275e-01
50 1 4 1.696953e+01 1.003703e+01 9.109440e+00 -1 -1 0 -5.781069e-02 1.852136e-01 9.611511e-01 -1.963224e-01
51 1 4 1.668509e+01 9.753071e+00 8.936103e+00 -1 -1 0 -1.333496e-02 5.637217e-01 7.595360e-01 -3.242607e-01
52 1 1 1.626090e+01 8.879510e+00 8.300512e+00 -1 -1 0 5.817023e-01 4.118397e-01 -1.318832e-01 -6.889247e-01
53 1 3 1.598459e+01 8.844585e+00 8.822967e+00 -1 -1 0 -3.861461e-01 -3.771702e-01 -6.659758e-01 -5.148884e-01
54 1 4 1.595758e+01 7.607372e+00 8.810632e+00 -1 -1 0 4.313377e-01 3.233246e-01 -4.771407e-01 -6.940790e-01
55 1 4 1.545712e+01 7.722434e+00 8.745318e+00 -1 -1 0 7.416196e-01 1.544291e-01 -4.730788e-01 -4.498317e-01
56 1 4 1.569246e+01 8.104365e+00 7.909326e+00 -1 -1 0 6.397218e-01 1.078479e-01 1.693133e-01 7.419285e-01
57 1 1 1.577295e+01 6.643038e+00 7.634515e+00 -1 -1 0 5.781247e-01 3.705041e-01 -5.217657e-01 -5.062204e-01
58 1 1 1.621151e+01 6.565690e+00 6.985751e+00 -1 -1 0 -6.777725e-01 -5.140767e-01 5.067950e-01 1.396726e-01
59 1 3 1.604757e+01 6.099725e+00 6.810299e+00 -1 -1 0 -6.336697e-01 -3.534884e-01 6.553525e-01 -2.098137e-01
60 1 4 1.663698e+01 5.415408e+00 6.422708e+00 -1 -1 0 -9.521412e-01 -2.092019e-01 2.220375e-01 -1.900323e-02
61 1 2 1.636666e+01 5.754001e+00 5.758131e+00 -1 -1 0 -4.494836e-03 8.750759e-01 4.360819e-01 2.098918e-01
62 1 3 1.691974e+01 4.389272e+00 5.167796e+00 -1 -1 0 -8.544589e-01 -4.652921e-01 1.152653e-02 2.308037e-01
63 1 2 1.733759e+01 3.974445e+00 6.057242e+00 -1 -1 0 2.060901e-01 4.296220e-01 -8.721656e-01 1.108105e-01
64 1 4 1.732420e+01 3.955287e+00 6.232031e+00 -1 -1 0 1.888690e-01 8.558987e-01 -3.673698e-01 -3.111356e-01
65 1 2 1.760894e+01 3.465799e+00 6.978311e+00 -1 -1 0 -4.409806e-01 -1.746542e-01 6.004717e-01 -6.437902e-01
66 1 1 1.764331e+01 3.180178e+00 7.338793e+00 -1 -1 0 -1.017566e-01 6.664707e-02 6.504674e-01 -7.497306e-01
67 1 2 1.748362e+01 2.695336e+00 7.595752e+00 -1 -1 0 -1.663033e-01 -3.520099e-01 -5.772339e-01 7.177976e-01
68 1 1 1.711122e+01 2.396591e+00 7.759458e+00 -1 -1 0 -5.121981e-01 -5.539214e-01 -3.845069e-01 5.319574e-01
69 1 1 1.763494e+01 1.549629e+00 8.116574e+00 -1 -1 0 -6.118125e-01 -3.434461e-01 3.012675e-01 6.457307e-01
70 1 2 1.850340e+01 2.447904e+00 8.313257e+00 -1 -1 0 -2.295841e-01 1.295528e-01 9.471744e-02 -9.599666e-01
71 1 3 1.800925e+01 2.364119e+00 8.941902e+00 -1 -1 0 4.112235e-01 -2.977452e-01 -2.261828e-01 -8.313148e-01
72 1 4 1.922592e+01 1.941477e+00 8.911113e+00 -1 -1 0 7.726243e-01 6.002988e-01 -7.577019e-02 -1.922288e-01
73 1 1 1.909880e+01 2.736851e+00 9.635804e+00 -1 -1 0 1.431560e-01 -1.299117e-01 -1.871976e-01 -9.631128e-01
74 1 1 1.896986e+01 2.338334e+00 1.067692e+01 -1 -1 0 5.130794e-01 -5.357801e-01 -6.384428e-01 -2.051340e-01
75 1 3 1.856590e+01 2.486408e+00 1.069703e+01 -1 -1 0 5.653883e-01 -7.325035e-01 -3.531712e-01 1.380027e-01
76 1 1 1.833729e+01 2.728972e+00 1.073290e+01 -1 -1 0 -2.715235e-01 -6.901195e-01 6.083391e-01 -2.827254e-01
77 1 4 1.814338e+01 2.731503e+00 1.164188e+01 -1 -1 0 1.492374e-01 -7.810821e-01 1.997773e-01 -5.724753e-01
78 1 1 1.863000e+01 2.912721e+00 1.171762e+01 -1 -1 0 3.584984e-01 -6.275936e-01 3.863207e-01 -5.730284e-01
79 1 4 1.911522e+01 3.017849e+00 1.188836e+01 -1 -1 0 -4.388464e-01 4.575463e-01 -6.465463e-01 4.243149e-01
80 1 2 1.958519e+01 2.809981e+00 1.179919e+01 -1 -1 0 -3.466606e-01 1.953628e-01 -8.830911e-01 2.486161e-01
81 1 4 1.989244e+01 2.536601e+00 1.155175e+01 -1 -1 0 3.815305e-01 1.978432e-01 9.028691e-01 1.094711e-02
82 1 4 1.996631e+01 2.299912e+00 1.106666e+01 -1 -1 0 -3.628220e-01 -5.773830e-01 -6.872476e-01 -2.503593e-01
83 1 4 -1.939520e+01 9.290352e-01 1.117287e+01 0 -1 0 -3.557378e-01 4.468568e-01 -8.078671e-01 1.453283e-01
84 1 4 -1.894969e+01 8.337561e-01 1.084822e+01 0 -1 0 2.167102e-01 -1.918454e-01 9.537770e-01 -8.087930e-02
85 1 1 -1.876711e+01 5.632927e-01 1.047080e+01 0 -1 0 -1.781761e-01 -1.832697e-01 -9.667638e-01 -5.761810e-03
86 1 1 -1.745103e+01 4.515300e-01 1.115376e+01 0 -1 0 -6.108114e-01 7.875825e-01 8.125691e-02 -4.542733e-03
87 1 3 -1.696716e+01 1.107751e+00 1.089161e+01 0 -1 0 -7.623133e-01 -5.013305e-01 -2.029401e-01 -3.554736e-01
88 1 2 -1.655463e+01 9.353695e-01 1.066568e+01 0 -1 0 5.239013e-01 6.841542e-01 -2.758875e-02 5.066550e-01
89 1 2 -1.615430e+01 8.533430e-01 1.057072e+01 0 -1 0 -1.484640e-01 -7.251477e-01 2.488782e-01 -6.246431e-01
90 1 3 -1.569562e+01 6.947215e-01 1.052467e+01 0 -1 0 -1.586814e-02 -4.907070e-01 4.959398e-01 -7.162391e-01
91 1 3 -1.479515e+01 7.718412e-01 9.886541e+00 0 -1 0 -7.757504e-02 5.624469e-01 -6.191049e-01 -5.425355e-01
92 1 2 -1.592913e+01 1.273957e+00 1.074384e+01 0 -1 0 -1.801354e-01 -4.307402e-01 -6.990652e-01 5.415920e-01
93 1 1 -1.461956e+01 2.968602e-01 1.118208e+01 0 -1 0 -7.297856e-01 3.785662e-01 -5.483087e-01 1.531610e-01
94 1 2 -1.412422e+01 3.953670e-01 1.130686e+01 0 -1 0 -7.271931e-01 1.463623e-01 -6.646453e-01 8.952583e-02
95 1 3 -1.385813e+01 2.533502e-01 1.243891e+01 0 -1 0 1.186830e-01 -5.298063e-01 5.378443e-01 -6.449366e-01
96 1 2 -1.326325e+01 6.606363e-01 1.226794e+01 0 -1 0 5.461584e-01 1.536939e-01 4.356916e-01 6.987575e-01
97 1 2 -1.282672e+01 8.986374e-01 1.236624e+01 0 -1 0 -2.531573e-01 -2.411113e-01 -3.503415e-01 -8.689290e-01
98 1 4 -1.280764e+01 7.504774e-01 1.327024e+01 0 -1 0 -1.501092e-01 -6.973060e-01 -4.832785e-01 -5.076155e-01
99 1 2 -1.342231e+01 4.306228e-01 1.393394e+01 0 -1 0 -1.588891e-01 3.429235e-01 8.048021e-01 4.576584e-01
100 1 1 -1.377749e+01 -2.608142e-01 1.371760e+01 0 -1 0 -7.323218e-01 3.634297e-02 1.708866e-01 6.581655e-01
101 2 4 -7.601552e+00 9.952112e+00 -9.077161e-01 0 -1 0 -3.113972e-01 -7.684892e-01 -3.438010e-01 4.407459e-01
102 2 3 -6.987439e+00 9.949962e+00 2.915266e-01 0 -1 0 -4.119908e-01 -6.551644e-01 5.752511e-01 -2.647816e-01
103 2 1 -7.784293e+00 1.009546e+01 -2.258377e-01 0 -1 0 3.899689e-01 1.562533e-01 -8.979129e-01 1.313835e-01
104 2 3 -8.296884e+00 1.102995e+01 6.870354e-02 0 -1 0 -1.064766e-01 -7.251559e-01 -6.791301e-01 3.992449e-02
105 2 3 -8.507062e+00 1.108862e+01 -4.290848e-01 0 -1 0 -9.125753e-02 -9.357461e-01 -3.282268e-01 -9.120589e-02
106 2 2 -8.506352e+00 1.138768e+01 -8.046403e-01 0 -1 0 -4.546601e-02 9.944897e-01 -4.317551e-02 8.401731e-02
107 2 3 -8.413214e+00 1.172225e+01 -1.062060e+00 0 -1 0 9.957553e-02 -8.353930e-01 5.378979e-01 5.356382e-02
108 2 4 -9.130738e+00 1.202565e+01 -9.546828e-01 0 -1 0 -3.344658e-01 8.764119e-01 -1.756554e-01 -2.986302e-01
109 2 3 -9.245644e+00 1.198459e+01 -4.003324e-01 0 -1 0 -5.635335e-01 -8.209478e-01 9.165257e-02 -8.630304e-03
110 2 2 -9.690692e+00 1.298157e+01 1.591689e-01 0 -1 0 -4.522242e-01 -3.064285e-01 -1.166739e-01 -8.294469e-01
111 2 2 -9.187275e+00 1.325629e+01 3.940326e-01 0 -1 0 2.446135e-01 3.108108e-01 -1.082275e-01 9.120569e-01
112 2 3 -8.770596e+00 1.340176e+01 1.126467e+00 0 -1 0 -1.230017e-01 7.863447e-01 -3.335669e-01 5.052383e-01
113 2 3 -8.560452e+00 1.407804e+01 1.278162e+00 0 -1 0 2.156210e-01 -6.996755e-01 -2.541505e-01 -6.319568e-01
114 2 2 -8.374846e+00 1.364696e+01 1.811715e+00 0 -1 0 -3.481440e-01 4.413333e-01 7.851082e-01 2.600497e-01
115 2 4 -7.479785e+00 1.429245e+01 1.896942e+00 0 -1 0 -3.169275e-01 8.434495e-01 -3.491685e-01 -2.573545e-01
116 2 4 -8.725971e+00 1.397710e+01 2.088855e+00 0 -1 0 -1.228334e-01 -3.306349e-01 8.602341e-01 3.682253e-01
117 2 1 -8.360353e+00 1.458267e+01 3.441433e+00 0 -1 0 2.745293e-01 -8.823574e-01 -1.895431e-01 -3.318924e-01
118 2 1 -8.150596e+00 1.332178e+01 3.627656e+00 0 -1 0 -6.528386e-01 -3.344354e-01 5.971990e-01 -3.245122e-01
119 2 1 -8.097741e+00 1.284504e+01 4.195462e+00 0 -1 0 6.826117e-01 3.027741e-01 -6.479495e-01 1.501016e-01
120 2 1 -8.271852e+00 1.232280e+01 4.478011e+00 0 -1 0 -5.678200e-01 8.417544e-02 7.365870e-01 -3.576794e-01
121 2 3 -8.623698e+00 1.211235e+01 4.682527e+00 0 -1 0 2.966678e-01 -4.370544e-01 -6.161049e-01 5.842829e-01
122 2 1 -9.152051e+00 1.207500e+01 4.819215e+00 0 -1 0 7.845862e-02 -6.510297e-01 -4.524632e-01 6.043853e-01
123 2 4 -8.181076e+00 1.128372e+01 5.419561e+00 0 -1 0 -6.827419e-02 -5.577741e-01 5.669142e-01 -6.023578e-01
124 2 1 -7.753539e+00 1.101980e+01 5.511264e+00 0 -1 0 -1.232679e-01 3.350484e-01 -6.460091e-01 6.746998e-01
125 2 4 -7.050557e+00 1.085374e+01 5.314504e+00 0 -1 0 -1.442459e-01 8.525989e-01 5.999171e-02 4.986675e-01
126 2 2 -6.173810e+00 9.872616e+00 4.741953e+00 0 -1 0 -8.616527e-01 2.452111e-01 -4.443010e-01 4.781915e-03
127 2 4 -5.756407e+00 9.836189e+00 5.041707e+00 0 -1 0 8.158299e-01 7.578986e-03 4.821090e-01 3.192727e-01
128 2 4 -5.174206e+00 9.834916e+00 5.108176e+00 0 -1 0 -5.723573e-01 -2.190905e-01 -5.467735e-01 -5.704780e-01
129 2 1 -4.780273e+00 1.012179e+01 5.089298e+00 0 -1 0 -2.132462e-01 -4.565017e-01 -5.461533e-01 -6.692151e-01
130 2 2 -4.445918e+00 1.001964e+01 6.049054e+00 0 -1 0 1.788645e-03 -1.864517e-02 7.709424e-01 -6.366294e-01
131 2 3 -2.968858e+00 9.949055e+00 5.956308e+00 0 -1 0 -8.026986e-01 6.579417e-02 1.373945e-01 -5.766011e-01
132 2 4 -2.806299e+00 9.858522e+00 6.390523e+00 0 -1 0 -4.581493e-01 8.188263e-02 1.750708e-01 -8.676086e-01
133 2 4 -3.093539e+00 9.334516e+00 6.687417e+00 0 -1 0 -7.446933e-01 -4.221194e-01 3.330964e-01 3.953402e-01
134 2 3 -2.538504e+00 1.062462e+01 7.334180e+00 0 -1 0 -7.919783e-01 1.496130e-01 -1.284680e-02 -5.917949e-01
135 2 4 -2.480388e+00 9.953960e+00 8.176342e+00 0 -1 0 -8.042625e-01 4.274772e-01 -3.771713e-01 1.678301e-01
136 2 3 -2.847604e+00 1.055995e+01 8.656558e+00 0 -1 0 -6.433452e-01 -4.208866e-01 3.572431e-01 -5.304138e-01
137 2 1 -2.578504e+00 1.013077e+01 8.907162e+00 0 -1 0 4.137450e-01 3.017202e-01 -3.489897e-01 7.848479e-01
138 2 3 -2.556503e+00 9.474172e+00 8.951945e+00 0 -1 0 4.976508e-01 1.129905e-01 -2.193862e-01 -8.315326e-01
139 2 2 -2.695455e+00 8.691994e+00 9.101352e+00 0 -1 0 7.994366e-02 -2.435779e-01 -9.663132e-01 -2.274998e-02
140 2 3 -3.005327e+00 8.619480e+00 8.717118e+00 0 -1 0 -1.893058e-01 5.092205e-01 8.381470e-01 -4.865522e-02
141 2 1 -1.365285e+00 8.335891e+00 8.220129e+00 0 -1 0 2.034837e-01 9.285788e-01 -2.616879e-01 1.668991e-01
142 2 2 -1.837241e+00 8.060112e+00 8.550642e+00 0 -1 0 -7.133550e-01 -3.784236e-01 -2.105008e-01 -5.510078e-01
143 2 4 -1.397335e+00 7.946750e+00 8.571162e+00 0 -1 0 4.472929e-01 4.162513e-01 -2.072522e-02 7.913497e-01
144 2 4 -1.386257e+00 6.835984e+00 7.925651e+00 0 -1 0 -2.256648e-01 -6.344215e-01 7.170564e-01 -1.800414e-01
145 2 1 -1.156839e+00 6.496525e+00 7.413336e+00 0 -1 0 2.100418e-01 3.134059e-01 -9.139330e-01 1.496185e-01
146 2 1 -1.153121e+00 6.041046e+00 7.152186e+00 0 -1 0 -1.816601e-01 1.569363e-01 9.649442e-01 -1.060817e-01
147 2 1 -1.450639e+00 5.769318e+00 6.891048e+00 0 -1 0 1.005741e-01 -6.365210e-01 -7.383906e-01 1.987592e-01
148 2 2 -1.813567e+00 5.910753e+00 6.534163e+00 0 -1 0 -1.195745e-01 -9.281028e-01 -3.058741e-01 1.754087e-01
149 2 4 -1.322518e+00 4.564965e+00 6.077667e+00 0 -1 0 -3.535371e-02 6.022128e-01 -7.716236e-01 -2.017097e-01
150 2 1 -1.735260e+00 4.751672e+00 6.024859e+00 0 -1 0 -1.553278e-01 -2.880053e-01 -1.650751e-01 -9.304173e-01
151 2 1 -1.542132e+00 4.208317e+00 6.724802e+00 0 -1 0 6.653084e-01 -6.311615e-01 -7.734919e-02 3.911738e-01
152 2 1 -2.792292e+00 3.407094e+00 6.757673e+00 0 -1 0 7.477386e-01 1.084703e-01 -1.520398e-01 -6.371852e-01
153 2 4 -2.609309e+00 2.979436e+00 6.846739e+00 0 -1 0 9.404187e-01 5.723108e-02 3.328279e-01 3.953247e-02
154 2 1 -2.260113e+00 2.809976e+00 7.185492e+00 0 -1 0 8.375921e-01 1.489213e-01 4.412175e-01 2.856379e-01
155 2 2 -3.288181e+00 3.154454e+00 7.811253e+00 0 -1 0 -4.445214e-01 -4.881901e-01 -2.554391e-01 7.062733e-01
156 2 4 -3.674065e+00 2.899714e+00 8.005420e+00 0 -1 0 -5.807985e-01 -5.868228e-01 -1.079054e-01 5.537766e-01
157 2 3 -3.991503e+00 2.554682e+00 7.922736e+00 0 -1 0 -7.821330e-01 -5.349987e-01 8.495275e-02 3.079406e-01
158 2 2 -4.657613e+00 1.850670e+00 8.922453e+00 0 -1 0 -4.709013e-01 1.848084e-01 8.602027e-01 -6.441382e-02
159 2 1 -5.145994e+00 1.776469e+00 8.750967e+00 0 -1 0 -5.569727e-01 3.815268e-01 7.123075e-01 -1.919289e-01
160 2 3 -5.903987e+00 8.606267e-01 8.415749e+00 0 -1 0 -7.416138e-01 1.057945e-02 -2.669484e-01 6.153337e-01
161 2 1 -5.858499e+00 5.989567e-01 8.850038e+00 0 -1 0 8.305744e-01 1.640223e-01 3.498639e-01 -4.010463e-01
162 2 1 -5.048260e+00 3.128867e-01 9.485217e+00 0 -1 0 8.327504e-01 -1.736027e-01 4.982859e-01 -1.676305e-01
163 2 4 -5.944705e+00 1.605991e-01 9.891232e+00 0 -1 0 3.720333e-01 1.314811e-01 9.122251e-01 -1.102236e-01
164 2 4 -6.238460e+00 8.885301e-01 9.982083e+00 0 -1 0 6.171862e-01 5.054264e-01 5.275209e-01 -2.921423e-01
165 2 3 -6.019235e+00 1.562639e+00 9.931058e+00 0 -1 0 -5.845383e-01 -5.283762e-01 1.893056e-01 5.859155e-01
166 2 3 -6.490909e+00 1.872018e+00 1.025674e+01 0 -1 0 6.065234e-01 6.895394e-01 3.940026e-01 3.777235e-02
167 2 4 -6.641747e+00 1.641200e+00 9.775082e+00 0 -1 0 -6.841981e-01 -6.944211e-01 2.182144e-01 -4.510922e-02
168 2 2 -7.607314e+00 9.631966e-01 9.733904e+00 0 -1 0 6.744293e-01 4.941651e-01 4.706365e-01 -2.818638e-01
169 2 2 -8.387006e+00 1.439802e+00 1.047834e+01 0 -1 0 -5.520291e-02 -6.810856e-01 -4.173958e-01 -5.990457e-01
170 2 1 -8.789465e+00 1.066321e+00 1.145713e+01 0 -1 0 4.031104e-01 -6.366749e-01 -6.488075e-01 -1.058107e-01
171 2 1 -9.147561e+00 1.459553e+00 1.130753e+01 0 -1 0 -4.580066e-01 8.266608e-01 2.992969e-01 1.314658e-01
172 2 4 -9.648468e+00 6.134379e-01 9.952078e+00 0 -1 0 -4.334458e-01 -3.036932e-01 6.524878e-01 5.423605e-01
173 2 4 -9.742658e+00 5.244059e-01 1.010944e+01 0 -1 0 3.874481e-01 -5.029207e-01 -5.619414e-01 -5.302609e-01
174 2 1 -9.587520e+00 1.551547e-01 1.048838e+01 0 -1 0 -2.315180e-01 8.055715e-01 5.194478e-01 1.662164e-01
175 2 1 -1.038433e+01 2.743622e-01 1.090786e+01 0 -1 0 -1.877696e-01 1.993480e-01 5.704040e-02 9.600778e-01
176 2 2 -1.068253e+01 -1.990474e-01 1.105894e+01 0 -1 0 -5.577133e-01 -3.288090e-01 5.996106e-02 7.597666e-01
177 2 2 -1.068253e+01 -3.580406e-01 1.053678e+01 0 -1 0 -7.887302e-01 -4.996059e-01 -3.276166e-01 -1.447962e-01
178 2 1 -1.109991e+01 -9.493856e-01 1.101736e+01 0 -1 0 4.577184e-01 2.965871e-01 -6.191204e-01 5.649954e-01
179 2 4 -1.115501e+01 -7.764503e-01 1.028295e+01 0 -1 0 -3.301289e-01 3.903994e-02 9.410616e-01 -6.240075e-02
180 2 1 -1.150113e+01 -1.136233e+00 1.014474e+01 0 -1 0 2.743163e-01 -3.619211e-01 -8.679199e-01 2.011932e-01
181 2 4 -1.192677e+01 -1.195627e+00 1.002313e+01 0 -1 0 9.615612e-02 -7.133451e-01 -5.966004e-01 3.549095e-01
182 2 2 -1.249563e+01 -1.158560e+00 9.783037e+00 0 -1 0 2.017111e-01 -8.246277e-01 -3.181954e-01 4.219639e-01
183 2 3 -1.294907e+01 -1.021202e+00 9.491687e+00 0 -1 0 7.132108e-02 9.604749e-01 -7.938697e-02 -2.570973e-01
184 2 4 -1.308168e+01 -7.971856e-01 9.004710e+00 0 -1 0 1.871397e-01 8.817343e-01 -4.067930e-01 -1.484681e-01
185 2 3 -1.304839e+01 -9.773264e-01 8.511253e+00 0 -1 0 -2.027305e-01 -6.825021e-01 6.987806e-01 6.926006e-02
186 2 1 -1.301375e+01 -4.487954e-01 7.807105e+00 0 -1 0 5.703651e-01 -5.670797e-01 -5.680091e-02 5.915048e-01
187 2 1 -1.413384e+01 -5.087285e-01 7.388388e+00 0 -1 0 3.576472e-01 -6.444237e-01 -5.938172e-01 -3.227812e-01
188 2 2 -1.441968e+01 -1.488944e-01 7.318560e+00 0 -1 0 3.074305e-01 -9.220665e-01 -2.110377e-01 -1.036483e-01
189 2 4 -1.482250e+01 -6.212214e-01 6.994741e+00 0 -1 0 -6.971838e-01 -3.329765e-01 4.537852e-02 -6.332474e-01
190 2 4 -1.629715e+01 -1.131751e+00 6.806344e+00 0 -1 0 -4.436445e-01 -3.530976e-01 -7.341398e-01 3.735510e-01
191 2 1 -1.673658e+01 -1.154758e+00 7.144368e+00 0 -1 0 1.369734e-01 8.614506e-02 -5.841734e-01 7.953356e-01
192 2 4 -1.683742e+01 -1.442040e+00 7.588391e+00 0 -1 0 2.819271e-01 8.567753e-02 4.986627e-01 -8.151760e-01
193 2 4 -1.688823e+01 -1.842228e+00 7.964914e+00 0 -1 0 2.239377e-01 2.928737e-01 4.455477e-01 -8.158211e-01
194 2 1 -1.649319e+01 -2.836999e+00 7.435055e+00 0 -1 0 7.616080e-01 5.924974e-01 2.945632e-02 -2.608303e-01
195 2 3 -1.640018e+01 -2.840755e+00 6.924634e+00 0 -1 0 7.444762e-01 -2.824440e-01 3.144607e-01 5.168124e-01
196 2 4 -1.766802e+01 -2.897696e+00 6.883583e+00 0 -1 0 -3.821275e-02 5.311120e-01 1.812647e-01 -8.268029e-01
197 2 2 -1.721774e+01 -4.332313e+00 6.787399e+00 0 -1 0 -8.695362e-01 -1.072776e-01 -1.974571e-01 4.397829e-01
198 2 4 -1.721155e+01 -4.676347e+00 7.144531e+00 0 -1 0 9.522725e-01 2.624546e-01 1.508151e-01 -3.936285e-02
199 2 3 -1.773689e+01 -4.361054e+00 6.910338e+00 0 -1 0 -3.908618e-03 -8.144579e-01 -3.227240e-01 -4.821746e-01
200 2 4 -1.836422e+01 -4.699437e+00 6.414647e+00 0 -1 0 1.590349e-01 7.539141e-01 -1.189698e-01 -6.262329e-01
