ITEM: TIMESTEP
229000000
ITEM: NUMBER OF ATOMS
200
ITEM: BOX BOUNDS pp pp pp
-2.0000000000000000e+01 2.0000000000000000e+01
-2.0000000000000000e+01 2.0000000000000000e+01
-2.0000000000000000e+01 2.0000000000000000e+01
ITEM: ATOMS id mol type x y z ix iy iz c_quat[1] c_quat[2] c_quat[3] c_quat[4]
1 1 1 -7.307202e+00 6.498411e+00 -2.015944e+00 0 -1 0 2.702095e-01 -2.902494e-01 1.794319e-01 9.003034e-01
2 1 2 -6.867660e+00 6.161136e+00 -1.129361e+00 0 -1 0 -2.061543e-01 -8.169734e-01 5.385674e-01 1.122770e-04
3 1 1 -7.305205e+00 6.266787e+00 -4.572185e-01 0 -1 0 -1.784564e-01 -3.575813e-01 6.460595e-03 -9.166500e-01
4 1 3 -6.702567e+00 5.277364e+00 3.130356e-01 0 -1 0 -5.336783e-01 7.261924e-01 -2.500126e-01 3.540138e-01
5 1 1 -6.409286e+00 5.496424e+00 4.808764e-01 0 -1 0 -6.643106e-01 4.956386e-01 -5.562691e-01 5.998722e-02
6 1 2 -5.869871e+00 5.574067e+00 5.609618e-01 0 -1 0 -6.553513e-01 1.525412e-01 -7.213635e-01 -1.639527e-01
7 1 4 -5.421839e+00 5.430494e+00 4.311819e-01 0 -1 0 -5.864644e-01 -1.231780e-01 -6.347516e-01 -4.878289e-01
8 1 1 -4.969010e+00 5.688908e+00 3.184124e-01 0 -1 0 -4.220293e-01 -2.743084e-01 -7.342075e-01 -4.556154e-01
9 1 1 -4.287809e+00 5.593889e+00 -2.053965e-01 0 -1 0 -6.027280e-01 -7.530960e-01 2.263244e-01 -1.354350e-01
10 1 4 -4.054282e+00 5.520189e+00 -7.892895e-01 0 -1 0 5.773533e-01 7.503197e-01 -2.018669e-01 2.508649e-01
11 1 1 -4.669823e+00 5.294750e+00 -1.183259e+00 0 -1 0 -6.772130e-01 3.511505e-01 -2.834973e-01 -5.811240e-01
12 1 1 -5.603240e+00 5.088749e+00 -4.169522e-01 0 -1 0 6.624254e-01 -2.715159e-01 -4.552377e-01 5.293678e-01
13 1 3 -6.196563e+00 3.682426e+00 -7.534701e-01 0 -1 0 -6.103576e-02 -2.206614e-01 9.383926e-01 2.588485e-01
14 1 4 -6.408662e+00 3.573142e+00 -3.450405e-01 0 -1 0 -3.494455e-01 7.517274e-01 3.865073e-01 4.042350e-01
15 1 4 -6.831186e+00 3.042502e+00 -7.676084e-01 0 -1 0 -3.748002e-01 -7.663479e-01 -4.340082e-01 2.896075e-01
16 1 2 -6.319507e+00 2.432138e+00 2.159464e-01 0 -1 0 8.354202e-01 -4.354524e-02 1.516231e-01 -5.264858e-01
17 1 1 -6.361793e+00 1.864119e+00 -3.764295e-01 0 -1 0 -6.879927e-01 -1.069801e-01 2.547326e-01 6.710683e-01
18 1 2 -6.319960e+00 1.629085e+00 -7.581184e-01 0 -1 0 -6.975773e-01 -4.609101e-01 -5.150756e-01 -1.887989e-01
19 1 3 -5.914041e+00 1.358241e+00 -9.472639e-01 0 -1 0 -5.004558e-01 -6.310669e-01 -2.010080e-01 -5.575790e-01
20 1 1 -6.259585e+00 4.729276e-01 -7.246553e-01 0 -1 0 6.759863e-01 -7.073122e-01 2.064116e-01 1.209644e-02
21 1 4 -7.500652e+00 7.128752e-01 -4.020152e-01 0 -1 0 3.408354e-01 1.845877e-01 7.393989e-01 -5.504979e-01
22 1 1 -7.537572e+00 1.520977e-01 -5.422615e-01 0 -1 0 -4.569212e-01 -4.451342e-01 -6.574990e-01 4.009659e-01
23 1 4 -7.541403e+00 -3.936048e-01 -7.014881e-01 0 -1 0 -3.593620e-01 -6.947728e-01 -5.240694e-01 3.368991e-01
24 1 3 -7.659094e+00 -7.627245e-01 -1.109331e+00 0 -1 0 -2.953922e-01 -8.018223e-01 -4.603666e-01 2.405972e-01
25 1 3 -7.684386e+00 -1.825787e+00 -9.914451e-01 0 -1 0 -1.658824e-01 1.149286e-01 -6.543343e-01 -7.287805e-01
26 1 4 -7.704456e+00 -2.151587e+00 -4.006010e-01 0 -1 0 5.539375e-01 -7.444377e-01 6.916721e-03 3.727170e-01
27 1 4 -7.824662e+00 -2.344584e+00 1.363335e-01 0 -1 0 7.720779e-02 -2.916916e-01 -6.703707e-01 6.779072e-01
28 1 1 -6.750519e+00 -3.341642e+00 5.272442e-01 0 -1 0 -6.768123e-01 -3.003368e-01 6.686717e-01 -6.783141e-02
29 1 1 -6.971199e+00 -3.767195e+00 5.306391e-01 0 -1 0 -6.246692e-01 -4.622808e-02 7.008942e-01 -3.411725e-01
30 1 4 -7.221660e+00 -4.200370e+00 7.057615e-01 0 -1 0 3.504469e-01 -2.467926e-01 -7.325207e-01 5.288609e-01
31 1 4 -7.615741e+00 -4.414558e+00 9.352900e-01 0 -1 0 -9.155655e-02 5.289254e-01 4.595538e-01 -7.075773e-01
32 1 3 -8.528044e+00 -4.339085e+00 6.736404e-01 0 -1 0 -1.395651e-01 -4.038181e-01 -2.467835e-01 8.697991e-01
33 1 3 -8.450279e+00 -3.876545e+00 1.168994e+00 0 -1 0 7.327939e-01 -5.478442e-01 -4.032588e-01 1.619089e-02
34 1 1 -8.598878e+00 -3.532060e+00 1.544640e+00 0 -1 0 6.025772e-01 -7.181420e-01 -1.402817e-01 3.185809e-01
35 1 2 -9.571506e+00 -3.649009e+00 1.251901e+00 0 -1 0 -7.503939e-02 -2.597598e-01 9.401386e-01 2.074450e-01
36 1 2 -9.866462e+00 -2.350710e+00 2.279867e+00 0 -1 0 -5.050061e-01 4.814449e-01 6.044545e-01 -3.844664e-01
37 1 1 -1.034202e+01 -2.421034e+00 2.530250e+00 0 -1 0 -3.883197e-01 6.582692e-01 3.067266e-01 -5.672814e-01
38 1 1 -1.066745e+01 -2.117858e+00 2.705364e+00 0 -1 0 -1.679535e-01 7.018584e-01 4.907685e-02 -6.904910e-01
39 1 4 -1.111316e+01 -1.914448e+00 2.622840e+00 0 -1 0 6.441784e-02 7.248769e-01 -2.428434e-01 -6.414288e-01
40 1 4 -1.140354e+01 -1.152374e+00 3.043737e+00 0 -1 0 -1.399361e-01 -9.800845e-01 4.700757e-03 1.408194e-01
41 1 2 -1.235403e+01 -1.552517e+00 2.836998e+00 0 -1 0 2.201898e-01 -2.951703e-01 9.212786e-01 1.250470e-01
42 1 4 -1.309517e+01 -9.536043e-01 3.400769e+00 0 -1 0 7.281936e-01 -6.016314e-02 3.032568e-01 -6.116779e-01
43 1 3 -1.290795e+01 -1.123558e+00 3.913005e+00 0 -1 0 -7.642263e-01 3.436185e-02 -4.618319e-01 4.488748e-01
44 1 2 -1.355276e+01 -3.892515e-02 3.625641e+00 0 -1 0 2.245563e-01 -2.633861e-01 6.827209e-02 9.357036e-01
45 1 1 -1.346733e+01 2.833124e-01 4.608654e+00 0 -1 0 -5.138867e-01 -2.524574e-01 2.098855e-01 -7.925489e-01
46 1 3 -1.329654e+01 1.114270e-01 5.089685e+00 0 -1 0 -2.830736e-01 -4.590383e-02 3.186793e-01 -9.034410e-01
47 1 4 -1.337095e+01 -9.559695e-02 5.578368e+00 0 -1 0 -1.769132e-01 7.786175e-02 1.811433e-01 -9.642750e-01
48 1 1 -1.349791e+01 4.131327e-02 6.061343e+00 0 -1 0 -1.298827e-01 -1.325394e-01 -1.184786e-01 9.754623e-01
49 1 4 -1.248144e+01 -1.440769e-01 6.194212e+00 0 -1 0 -4.746713e-02 6.064577e-01 -4.511539e-01 -6.530054e-01
50 1 4 -1.261116e+01 -1.221150e-01 7.523449e+00 0 -1 0 2.984466e-01 -1.358298e-01 6.631576e-01 -6.728312e-01
51 1 4 -1.247694e+01 -4.281540e-01 7.945899e+00 0 -1 0 5.093649e-01 6.223921e-02 5.441125e-01 -6.637886e-01
52 1 1 -1.253821e+01 -8.257787e-01 8.074743e+00 0 -1 0 7.548289e-01 2.893101e-01 4.477815e-01 -3.821319e-01
53 1 3 -1.260192e+01 -9.824001e-01 8.956654e+00 0 -1 0 -5.669681e-01 6.359139e-01 4.088704e-01 -3.270866e-01
54 1 4 -1.235502e+01 -1.380564e+00 9.187604e+00 0 -1 0 -8.415856e-01 2.046643e-01 9.712744e-02 4.903188e-01
55 1 4 -1.147351e+01 -1.715433e+00 9.683514e+00 0 -1 0 -6.298645e-01 -2.635814e-01 7.214743e-01 -1.151977e-01
56 1 4 -1.057304e+01 -1.642088e+00 9.572010e+00 0 -1 0 1.466487e-01 8.597018e-01 -4.780287e-01 -1.043817e-01
57 1 1 -1.075018e+01 -1.673169e+00 9.574954e+00 0 -1 0 1.695344e-03 -5.690431e-01 -5.928012e-01 5.698893e-01
58 1 1 -1.002077e+01 -1.273055e+00 9.424713e+00 0 -1 0 5.636320e-01 -8.119420e-01 6.211772e-02 1.386023e-01
59 1 3 -9.895121e+00 -8.073461e-01 9.669110e+00 0 -1 0 -5.993616e-01 6.900523e-01 -2.526820e-01 -3.174041e-01
60 1 4 -9.645104e+00 -2.506053e-01 9.801843e+00 0 -1 0 3.970754e-01 -6.081930e-01 4.950272e-01 4.768443e-01
61 1 2 -9.419420e+00 2.076775e-01 9.633786e+00 0 -1 0 2.716774e-01 -4.462883e-01 6.404559e-01 5.628805e-01
62 1 3 -9.256461e+00 6.199468e-01 9.269152e+00 0 -1 0 -3.908579e-02 1.659987e-01 -7.675738e-01 -6.178570e-01
63 1 2 -9.331266e+00 1.049116e+00 8.824751e+00 0 -1 0 -8.829411e-02 -7.994710e-02 8.333348e-01 5.397830e-01
64 1 4 -9.521222e+00 1.356370e+00 8.427053e+00 0 -1 0 2.224227e-01 -2.502060e-01 -8.281411e-01 -4.495636e-01
65 1 2 -9.916609e+00 1.670628e+00 8.122747e+00 0 -1 0 4.152299e-01 -4.600022e-01 -6.129022e-01 -4.902377e-01
66 1 1 -1.024422e+01 2.014272e+00 8.096774e+00 0 -1 0 5.904487e-01 -6.405118e-01 -4.180173e-01 -2.576364e-01
67 1 2 -1.047204e+01 2.527172e+00 8.094900e+00 0 -1 0 -6.934721e-01 6.234041e-01 2.763849e-01 2.325406e-01
68 1 1 -1.063962e+01 2.936982e+00 8.346872e+00 0 -1 0 7.539541e-01 -6.467858e-01 -1.070881e-01 -4.187359e-02
69 1 1 -1.071133e+01 3.212501e+00 8.807507e+00 0 -1 0 -8.171189e-01 5.445485e-01 -4.287272e-02 -1.842431e-01
70 1 2 -1.051703e+01 3.561070e+00 9.221727e+00 0 -1 0 6.619124e-01 -5.202987e-01 2.839082e-01 4.588652e-01
71 1 3 -1.025318e+01 3.968407e+00 9.379758e+00 0 -1 0 -6.376070e-01 4.034982e-01 -4.435063e-01 -4.836825e-01
72 1 4 -9.855330e+00 4.414335e+00 9.422002e+00 0 -1 0 -3.640848e-01 3.076739e-01 -5.544998e-01 -6.821356e-01
73 1 1 -9.817615e+00 5.007650e+00 9.282852e+00 0 -1 0 1.125532e-01 -2.879216e-01 6.820646e-01 6.627373e-01
74 1 1 -9.761931e+00 5.400932e+00 8.884512e+00 0 -1 0 7.398205e-02 1.338688e-02 -7.441139e-01 -6.638087e-01
75 1 3 -8.455664e+00 4.770300e+00 9.586261e+00 0 -1 0 9.788395e-01 -1.759072e-01 4.690064e-02 -9.343522e-02
76 1 1 -8.404830e+00 5.150484e+00 8.551710e+00 0 -1 0 -1.898735e-01 9.492774e-03 -7.215334e-01 -6.657683e-01
77 1 4 -8.390115e+00 5.755271e+00 8.435296e+00 0 -1 0 -1.032684e-01 -8.532417e-02 7.471068e-01 6.510659e-01
78 1 1 -8.722221e+00 6.073685e+00 8.173783e+00 0 -1 0 -3.684757e-01 2.734816e-01 7.724173e-01 4.390956e-01
79 1 4 -8.665387e+00 6.712156e+00 7.617781e+00 0 -1 0 2.047573e-01 2.335164e-01 7.587807e-01 -5.725351e-01
80 1 2 -8.125684e+00 6.572150e+00 7.055098e+00 0 -1 0 7.731036e-03 6.426507e-01 7.525137e-01 -1.437478e-01
81 1 4 -8.462236e+00 6.577097e+00 6.727378e+00 0 -1 0 -9.472862e-02 -9.258644e-01 -3.523229e-01 9.833712e-02
82 1 4 -8.543450e+00 6.668395e+00 6.141187e+00 0 -1 0 -6.555896e-02 -9.813098e-01 -1.649957e-01 -7.422596e-02
83 1 4 -8.432463e+00 6.623588e+00 5.520255e+00 0 -1 0 -2.041865e-01 -9.195695e-01 3.249835e-01 -8.417578e-02
84 1 4 -9.151116e+00 6.404526e+00 5.006238e+00 0 -1 0 -3.634092e-01 -1.229706e-01 9.234615e-01 -5.551773e-03
85 1 1 -9.467076e+00 6.143333e+00 4.739749e+00 0 -1 0 -4.159494e-01 1.383719e-01 8.855758e-01 -1.536060e-01
86 1 1 -9.464836e+00 6.147463e+00 3.358355e+00 0 -1 0 -3.372496e-01 -4.494848e-02 -5.436174e-01 -7.672825e-01
87 1 3 -9.135156e+00 5.885051e+00 3.535618e+00 0 -1 0 -4.652745e-01 4.142435e-02 4.920743e-01 -7.346200e-01
88 1 2 -9.331398e+00 5.106517e+00 2.842210e+00 0 -1 0 2.060811e-01 -2.085495e-01 6.012355e-01 -7.433394e-01
89 1 2 -9.566822e+00 5.921850e+00 2.163358e+00 0 -1 0 1.209107e-01 -8.820915e-01 -3.185307e-01 3.253205e-01
90 1 3 -9.902900e+00 6.229919e+00 1.906267e+00 0 -1 0 5.052062e-02 9.186584e-01 -1.576878e-01 -3.586767e-01
91 1 3 -1.079594e+01 6.894956e+00 1.833328e+00 0 -1 0 3.864436e-01 -4.750789e-02 -8.010993e-02 9.175984e-01
92 1 2 -1.071031e+01 7.103065e+00 2.255887e+00 0 -1 0 -7.966842e-03 4.697826e-02 8.492333e-02 9.952475e-01
93 1 1 -1.072889e+01 7.397725e+00 2.642738e+00 0 -1 0 -4.023220e-01 6.278143e-02 6.289192e-02 9.111751e-01
94 1 2 -1.004050e+01 8.472797e+00 2.843719e+00 0 -1 0 1.477328e-01 8.384795e-01 5.221186e-01 -5.019309e-02
95 1 3 -1.030717e+01 7.682203e+00 3.312865e+00 0 -1 0 6.005356e-01 5.331114e-01 -4.862056e-01 -3.446059e-01
96 1 2 -1.123096e+01 7.772392e+00 4.622985e+00 0 -1 0 9.858023e-02 1.796393e-01 -7.783199e-01 5.934895e-01
97 1 2 -1.093296e+01 8.453868e+00 4.031981e+00 0 -1 0 -9.632475e-01 -1.795860e-01 -1.045710e-01 -1.702000e-01
98 1 4 -1.173355e+01 9.582877e+00 4.460032e+00 0 -1 0 -2.810140e-01 5.406168e-01 1.017982e-01 7.863852e-01
99 1 2 -1.143360e+01 9.849692e+00 4.838152e+00 0 -1 0 5.086974e-01 -4.940119e-01 4.123167e-01 -5.719914e-01
100 1 1 -1.259793e+01 1.010190e+01 4.501765e+00 0 -1 0 -2.845035e-01 -6.881360e-02 -7.354598e-01 6.110821e-01
101 2 4 -1.587366e+01 8.985309e+00 1.528294e+01 0 -1 0 4.053741e-01 3.672245e-01 6.387550e-01 5.411193e-01
102 2 3 -1.522954e+01 8.599925e+00 1.597694e+01 0 -1 0 -6.390379e-01 4.152881e-01 3.288080e-01 5.577201e-01
103 2 1 -1.504339e+01 9.307382e+00 1.475461e+01 0 -1 0 5.561133e-01 -2.216061e-01 6.242039e-01 5.019943e-01
104 2 3 -1.483516e+01 9.806664e+00 1.472216e+01 0 -1 0 -3.939539e-01 2.806952e-01 -7.691640e-01 -4.176090e-01
105 2 3 -1.436853e+01 9.710992e+00 1.582913e+01 0 -1 0 -4.184599e-01 7.992773e-01 3.959913e-01 1.709911e-01
106 2 2 -1.388023e+01 9.325744e+00 1.501706e+01 0 -1 0 -1.546777e-01 -1.362860e-01 8.797648e-01 4.283863e-01
107 2 3 -1.398258e+01 9.251625e+00 1.462559e+01 0 -1 0 1.630275e-01 -2.702248e-01 -9.055674e-01 -2.834578e-01
108 2 4 -1.434574e+01 9.590049e+00 1.424752e+01 0 -1 0 -4.241542e-01 5.010128e-01 7.097595e-01 2.555794e-01
109 2 3 -1.320092e+01 9.366133e+00 1.363562e+01 0 -1 0 8.256854e-01 -1.846165e-01 -3.316529e-01 4.173328e-01
110 2 2 -1.405205e+01 8.982283e+00 1.283103e+01 0 -1 0 7.444102e-01 4.392779e-01 -3.748380e-01 -3.352386e-01
111 2 2 -1.441087e+01 8.651957e+00 1.270375e+01 0 -1 0 -7.858716e-01 -2.135488e-01 5.797053e-01 2.728497e-02
112 2 3 -1.446185e+01 9.599174e+00 1.179196e+01 0 -1 0 2.106381e-01 3.837025e-02 1.158246e-01 9.699196e-01
113 2 3 -1.403192e+01 8.434473e+00 1.174987e+01 0 -1 0 -8.702814e-01 3.627298e-01 2.976753e-01 1.497557e-01
114 2 2 -1.373817e+01 8.174094e+00 1.035663e+01 0 -1 0 -2.502824e-01 7.195278e-01 -5.073623e-01 -4.027679e-01
115 2 4 -1.402736e+01 7.775670e+00 1.064185e+01 0 -1 0 7.079924e-01 3.874747e-01 -9.504813e-02 5.827315e-01
116 2 4 -1.360584e+01 7.624321e+00 1.096671e+01 0 -1 0 3.277261e-01 2.430169e-01 -2.217717e-01 8.856386e-01
117 2 1 -1.342091e+01 7.567135e+00 1.141503e+01 0 -1 0 3.630933e-02 -3.166699e-02 3.585493e-01 -9.322667e-01
118 2 1 -1.276372e+01 7.607743e+00 1.130376e+01 0 -1 0 -2.915032e-01 2.994840e-01 -7.661978e-01 -4.881353e-01
119 2 1 -1.260265e+01 7.867551e+00 1.095336e+01 0 -1 0 -3.208422e-02 -4.570846e-02 -8.120980e-01 -5.808426e-01
120 2 1 -1.211092e+01 7.727538e+00 1.092149e+01 0 -1 0 -1.144807e-01 3.930641e-01 8.122270e-01 -4.155504e-01
121 2 3 -1.248106e+01 7.542070e+00 1.087321e+01 0 -1 0 -2.500028e-01 -7.165698e-01 -4.507401e-01 4.699570e-01
122 2 1 -1.213559e+01 6.466175e+00 1.189257e+01 0 -1 0 -1.649152e-01 -4.315427e-01 5.353292e-01 -7.071043e-01
123 2 4 -1.177999e+01 5.975705e+00 1.072231e+01 0 -1 0 -2.464088e-01 -4.947330e-02 -9.440633e-01 -2.134939e-01
124 2 1 -1.091117e+01 6.224858e+00 1.003569e+01 0 -1 0 8.269985e-01 4.630575e-01 1.947559e-01 -2.524310e-01
125 2 4 -1.094459e+01 5.768507e+00 9.918743e+00 0 -1 0 -8.645370e-01 -4.777410e-01 1.028589e-01 -1.173004e-01
126 2 2 -1.089720e+01 5.687028e+00 9.056224e+00 0 -1 0 -7.030516e-01 -5.810925e-01 -3.130887e-01 2.646232e-01
127 2 4 -1.093030e+01 5.225507e+00 8.875618e+00 0 -1 0 7.233405e-01 6.865671e-01 7.172337e-02 1.611994e-02
128 2 4 -1.079741e+01 4.802535e+00 8.646006e+00 0 -1 0 -6.078153e-01 -7.435669e-01 9.579755e-02 -2.617093e-01
129 2 1 -1.050159e+01 4.502792e+00 8.367411e+00 0 -1 0 5.618559e-01 6.777109e-01 -2.834809e-01 3.803478e-01
130 2 2 -1.011302e+01 4.242681e+00 8.256120e+00 0 -1 0 3.137842e-01 5.838007e-01 -5.034285e-01 5.543249e-01
131 2 3 -9.768518e+00 3.952096e+00 8.377732e+00 0 -1 0 4.296662e-02 3.529848e-01 -6.579024e-01 6.638675e-01
132 2 4 -9.559808e+00 3.511078e+00 8.428822e+00 0 -1 0 7.427268e-02 1.971175e-01 -6.412450e-01 7.378571e-01
133 2 4 -9.467228e+00 3.003352e+00 8.673310e+00 0 -1 0 1.214040e-01 5.998915e-02 6.870435e-01 -7.138863e-01
134 2 3 -9.603904e+00 2.612526e+00 8.965060e+00 0 -1 0 2.717979e-01 2.861587e-01 5.220237e-01 -7.561285e-01
135 2 4 -9.937222e+00 2.202382e+00 9.152340e+00 0 -1 0 4.064414e-01 4.493018e-01 4.997161e-01 -6.190453e-01
136 2 3 -1.025738e+01 1.827017e+00 9.240423e+00 0 -1 0 -6.137003e-01 -6.737735e-01 -2.389112e-01 3.351458e-01
137 2 1 -1.052815e+01 1.335758e+00 9.157812e+00 0 -1 0 -7.262992e-01 -6.612170e-01 -1.665280e-01 8.689065e-02
138 2 3 -1.045983e+01 7.486486e-01 9.016089e+00 0 -1 0 -7.074462e-01 -6.793347e-01 -1.945972e-01 1.249555e-02
139 2 2 -1.032845e+01 2.556506e-01 8.840569e+00 0 -1 0 -6.693396e-01 -6.993103e-01 -9.778088e-03 -2.507069e-01
140 2 3 -9.964540e+00 -1.337532e-01 8.609620e+00 0 -1 0 5.369064e-01 6.857468e-01 -1.867605e-01 4.545364e-01
141 2 1 -9.513832e+00 -4.182990e-01 8.621306e+00 0 -1 0 3.383867e-01 5.444655e-01 -3.765369e-01 6.687838e-01
142 2 2 -9.048118e+00 -7.599873e-01 8.844592e+00 0 -1 0 2.122908e-01 2.985379e-01 -5.654828e-01 7.389431e-01
143 2 4 -8.890377e+00 -1.228980e+00 9.188512e+00 0 -1 0 6.150212e-02 1.195104e-01 -4.993710e-01 8.558991e-01
144 2 4 -8.911427e+00 -1.532036e+00 9.622104e+00 0 -1 0 -3.029964e-01 -1.177533e-01 -5.218569e-01 7.886652e-01
145 2 1 -8.419215e+00 -1.935591e+00 1.027740e+01 0 -1 0 2.743128e-01 -8.926575e-01 7.199013e-02 -3.503320e-01
146 2 1 -8.219156e+00 -1.594472e+00 1.097919e+01 0 -1 0 6.037546e-01 -7.431138e-01 -2.810721e-01 6.527411e-02
147 2 1 -8.278397e+00 -1.202850e+00 1.130709e+01 0 -1 0 -5.530751e-01 7.145505e-01 -3.149613e-02 -4.272394e-01
148 2 2 -8.498876e+00 -1.133196e+00 1.098690e+01 0 -1 0 7.511746e-01 -6.495963e-01 -1.043723e-01 5.355187e-02
149 2 4 -8.405575e+00 -7.432910e-01 1.134249e+01 0 -1 0 6.957637e-01 -6.451660e-01 1.874032e-01 2.540742e-01
150 2 1 -8.124094e+00 -4.011540e-01 1.148286e+01 0 -1 0 -6.035465e-01 4.161011e-01 -5.224218e-01 -4.355077e-01
151 2 1 -8.522302e+00 -1.352590e-01 1.220550e+01 0 -1 0 2.334204e-01 2.379221e-01 -9.184017e-01 -2.131813e-01
152 2 1 -8.601037e+00 -3.286996e-01 1.277752e+01 0 -1 0 -6.205858e-01 7.599124e-01 -1.141647e-01 1.561177e-01
153 2 4 -9.853929e+00 -1.058193e+00 1.252193e+01 0 -1 0 2.264421e-01 -3.069505e-02 -9.458103e-01 -2.307045e-01
154 2 1 -9.452984e+00 -4.240164e-01 1.283969e+01 0 -1 0 3.012692e-01 7.570424e-01 -5.595129e-01 -1.518848e-01
155 2 2 -1.083323e+01 2.760268e-02 1.350171e+01 0 -1 0 -3.318913e-01 2.587925e-01 8.897720e-01 1.765801e-01
156 2 4 -1.135520e+01 -4.534477e-01 1.356577e+01 0 -1 0 7.261011e-01 -1.722138e-02 -3.556825e-01 -5.881926e-01
157 2 3 -1.169602e+01 -5.310910e-01 1.385585e+01 0 -1 0 8.990057e-01 -2.836487e-01 -3.148975e-01 -1.103254e-01
158 2 2 -1.176991e+01 -4.918208e-01 1.438683e+01 0 -1 0 8.263690e-01 -4.248777e-01 -5.842343e-02 3.649383e-01
159 2 1 -1.264489e+01 2.425480e-01 1.445447e+01 0 -1 0 3.808536e-01 -2.742193e-01 -6.022090e-02 -8.809812e-01
160 2 3 -1.233057e+01 7.530782e-01 1.385654e+01 0 -1 0 2.430758e-01 9.064824e-01 -2.772499e-01 -2.057579e-01
161 2 1 -1.236879e+01 1.505633e+00 1.340917e+01 0 -1 0 -2.376133e-01 -7.438583e-02 -6.265566e-01 -7.385347e-01
162 2 1 -1.217647e+01 1.956778e+00 1.329873e+01 0 -1 0 -1.209060e-01 3.208494e-01 5.141880e-01 7.861603e-01
163 2 4 -1.066969e+01 2.082713e+00 1.307900e+01 0 -1 0 -4.646508e-01 4.769017e-01 -1.843121e-01 -7.229754e-01
164 2 4 -1.086222e+01 2.589481e+00 1.313590e+01 0 -1 0 -2.174503e-01 5.223607e-01 -3.608938e-01 -7.413571e-01
165 2 3 -1.099840e+01 3.106908e+00 1.306811e+01 0 -1 0 1.002301e-01 4.128231e-01 -4.961924e-01 -7.571817e-01
166 2 3 -1.135432e+01 3.374703e+00 1.280092e+01 0 -1 0 -3.715964e-01 -3.014549e-01 6.231575e-01 6.186403e-01
167 2 4 -1.159250e+01 3.917640e+00 1.335477e+01 0 -1 0 7.111375e-01 3.741604e-02 5.159385e-01 -4.761208e-01
168 2 2 -1.150107e+01 5.158310e+00 1.377233e+01 0 -1 0 1.457859e-01 -1.129043e-01 -9.465052e-02 -9.782844e-01
169 2 2 -1.163974e+01 5.389982e+00 1.423380e+01 0 -1 0 -5.821686e-01 6.202867e-02 -3.143064e-02 8.100890e-01
170 2 1 -1.078499e+01 5.518992e+00 1.363717e+01 0 -1 0 7.006804e-01 2.511322e-01 6.036811e-01 -2.855674e-01
171 2 1 -1.138510e+01 6.493166e+00 1.397286e+01 0 -1 0 3.582055e-01 2.479793e-01 4.797639e-01 -7.615916e-01
172 2 4 -1.022522e+01 6.529999e+00 1.490717e+01 0 -1 0 -8.837472e-01 4.593755e-02 4.158685e-01 -2.096044e-01
173 2 4 -9.584009e+00 6.785509e+00 1.518321e+01 0 -1 0 -8.247102e-01 -1.866280e-01 1.122124e-01 -5.219497e-01
174 2 1 -9.352912e+00 6.587959e+00 1.556417e+01 0 -1 0 5.549838e-01 4.605828e-02 -1.788808e-01 8.110939e-01
175 2 1 -9.126221e+00 6.648503e+00 1.600694e+01 0 -1 0 2.104093e-01 1.928350e-02 -1.355611e-01 9.679769e-01
176 2 2 -9.521553e+00 6.706217e+00 1.591330e+01 0 -1 0 2.838773e-01 -2.014614e-01 4.046182e-01 8.456424e-01
177 2 2 -9.271256e+00 7.378077e+00 1.692964e+01 0 -1 0 -3.855565e-01 -1.085270e-01 5.312845e-01 -7.465285e-01
178 2 1 -9.210410e+00 7.106234e+00 1.732143e+01 0 -1 0 1.129570e-01 -8.697107e-02 -5.435157e-01 8.272046e-01
179 2 4 -9.715921e+00 6.547246e+00 1.707451e+01 0 -1 0 2.051805e-01 -2.169739e-01 9.288988e-01 2.190213e-01
180 2 1 -9.119541e+00 6.384742e+00 1.790510e+01 0 -1 0 8.789157e-01 -2.626774e-01 3.484548e-01 1.925798e-01
181 2 4 -9.827081e+00 6.366763e+00 1.821188e+01 0 -1 0 6.302993e-02 -5.215619e-01 5.273981e-01 6.677212e-01
182 2 2 -9.779819e+00 6.444481e+00 1.921219e+01 0 -1 0 1.018188e-01 6.258915e-01 7.256055e-01 -2.671879e-01
183 2 3 -9.609967e+00 5.606881e+00 2.003755e+01 0 -1 0 3.085518e-01 -5.485164e-01 -7.763587e-01 -3.453603e-02
184 2 4 -1.000605e+01 5.911308e+00 -1.965393e+01 0 -1 1 -2.047212e-01 6.242240e-01 -1.184965e-02 7.538522e-01
185 2 3 -1.043569e+01 5.524370e+00 1.972125e+01 0 -1 0 -6.106600e-01 1.879542e-01 7.679984e-01 -4.411367e-02
186 2 1 -1.049725e+01 5.397746e+00 1.958859e+01 0 -1 0 2.193487e-01 -6.681715e-01 -1.885158e-01 6.854887e-01
187 2 1 -1.033289e+01 4.417217e+00 -1.937299e+01 0 -1 1 6.161754e-01 4.161343e-01 -5.175705e-01 4.234158e-01
188 2 2 -1.013031e+01 3.969500e+00 -1.922857e+01 0 -1 1 3.886492e-01 1.537493e-01 -6.309249e-01 6.536411e-01
189 2 4 -1.026955e+01 3.578405e+00 -1.880489e+01 0 -1 1 -2.001169e-02 2.117693e-01 6.624728e-01 -7.182500e-01
190 2 4 -1.051523e+01 3.345842e+00 -1.856369e+01 0 -1 1 3.515658e-01 4.704130e-01 5.035039e-01 -6.337168e-01
191 2 1 -1.100292e+01 3.128846e+00 -1.782670e+01 0 -1 1 2.227702e-01 -9.370766e-02 -9.549905e-02 -9.656460e-01
192 2 4 -1.111149e+01 3.351437e+00 -1.746618e+01 0 -1 1 -6.641996e-01 1.402874e-01 5.843550e-02 7.319451e-01
193 2 4 -1.125494e+01 3.402606e+00 -1.701722e+01 0 -1 1 -8.882454e-01 2.921000e-01 -1.077916e-01 3.377553e-01
194 2 1 -1.188761e+01 4.225804e+00 -1.705378e+01 0 -1 1 -4.687685e-01 8.070294e-02 8.431572e-01 -2.506573e-01
195 2 3 -1.226109e+01 4.161466e+00 -1.713992e+01 0 -1 1 -4.213136e-01 4.324167e-01 4.561294e-01 -6.538016e-01
196 2 4 -1.254179e+01 2.924984e+00 -1.716947e+01 0 -1 1 -6.447112e-01 -1.828756e-01 -4.976067e-01 5.507191e-01
197 2 2 -1.238874e+01 2.427503e+00 -1.706200e+01 0 -1 1 5.572185e-01 4.017932e-01 5.130713e-01 -5.146140e-01
198 2 4 -1.263767e+01 1.872015e+00 -1.675569e+01 0 -1 1 1.915147e-01 -3.464684e-01 8.682055e-01 2.991673e-01
199 2 3 -1.273812e+01 1.843426e+00 -1.715501e+01 0 -1 1 2.694002e-02 3.103876e-01 8.878999e-01 3.384782e-01
200 2 4 -1.134615e+01 2.088241e+00 -1.771919e+01 0 -1 1 -7.522179e-01 3.452947e-02 -6.006947e-01 -2.685922e-01
