ITEM: TIMESTEP
277000000
ITEM: NUMBER OF ATOMS
200
ITEM: BOX BOUNDS pp pp pp
-2.0000000000000000e+01 2.0000000000000000e+01
-2.0000000000000000e+01 2.0000000000000000e+01
-2.0000000000000000e+01 2.0000000000000000e+01
ITEM: ATOMS id mol type x y z ix iy iz c_quat[1] c_quat[2] c_quat[3] c_quat[4]
1 1 1 1.044674e+01 6.333527e+00 1.632469e+01 -1 -1 0 1.246925e-01 4.415320e-01 -4.945828e-01 -7.381661e-01
2 1 2 1.017337e+01 6.551916e+00 1.604880e+01 -1 -1 0 4.117432e-01 1.170854e-01 -6.464938e-01 -6.315096e-01
3 1 1 9.731503e+00 6.818308e+00 1.602347e+01 -1 -1 0 -6.819697e-01 1.933181e-02 6.129260e-01 3.985792e-01
4 1 3 9.286222e+00 6.693133e+00 1.615000e+01 -1 -1 0 -7.577377e-01 2.839147e-01 5.866819e-01 3.209877e-02
5 1 1 8.916802e+00 6.712470e+00 1.643528e+01 -1 -1 0 7.140705e-01 -4.653625e-01 -4.376904e-01 2.863009e-01
6 1 2 8.325908e+00 7.043443e+00 1.611711e+01 -1 -1 0 6.063449e-01 7.592853e-01 2.316792e-01 -4.643664e-02
7 1 4 7.582035e+00 7.445105e+00 1.613308e+01 -1 -1 0 -2.884421e-01 -1.525568e-01 -5.549729e-01 7.652010e-01
8 1 1 8.289624e+00 8.407511e+00 1.657545e+01 -1 -1 0 -3.479797e-01 9.311142e-01 -7.439867e-02 -8.000847e-02
9 1 1 8.440072e+00 8.861090e+00 1.634704e+01 -1 -1 0 3.483272e-01 -8.015839e-01 4.538517e-01 1.736377e-01
10 1 4 8.790760e+00 9.179702e+00 1.607430e+01 -1 -1 0 -3.380547e-01 4.783584e-01 -7.877572e-01 -1.906067e-01
11 1 1 8.120123e+00 1.018392e+01 1.662067e+01 -1 -1 0 8.056924e-02 1.855258e-01 -6.683620e-01 7.158080e-01
12 1 1 8.295619e+00 1.064276e+01 1.613891e+01 -1 -1 0 5.614708e-01 -2.068165e-01 -7.919431e-01 -1.216701e-01
13 1 3 9.157037e+00 1.101974e+01 1.660233e+01 -1 -1 0 -6.519831e-01 6.290991e-01 1.479613e-01 3.965601e-01
14 1 4 9.248633e+00 1.130483e+01 1.694315e+01 -1 -1 0 7.356152e-01 -6.701678e-01 9.678419e-02 1.944648e-02
15 1 4 9.457500e+00 1.166635e+01 1.701079e+01 -1 -1 0 -5.194257e-01 5.772564e-01 -4.358126e-01 -4.550158e-01
16 1 2 9.462304e+00 1.087765e+01 1.785360e+01 -1 -1 0 -5.738388e-01 5.636263e-01 -5.921037e-01 -4.947301e-02
17 1 1 9.569179e+00 1.211263e+01 1.814288e+01 -1 -1 0 5.702907e-01 5.080510e-01 3.998525e-01 5.067254e-01
18 1 2 8.299774e+00 1.236445e+01 1.850219e+01 -1 -1 0 1.196825e-01 -3.494066e-01 -4.283725e-01 -8.246746e-01
19 1 3 8.413293e+00 1.282887e+01 1.853775e+01 -1 -1 0 4.274489e-01 -4.172820e-01 -3.094149e-01 -7.398821e-01
20 1 1 9.189567e+00 1.318443e+01 1.726301e+01 -1 -1 0 6.053404e-01 2.678401e-01 6.836620e-01 3.072961e-01
21 1 4 9.384063e+00 1.319932e+01 1.687599e+01 -1 -1 0 4.632013e-01 6.081445e-01 4.231202e-01 4.863888e-01
22 1 1 9.924249e+00 1.338172e+01 1.652080e+01 -1 -1 0 -1.664552e-02 6.921745e-01 -4.008205e-02 -7.204240e-01
23 1 4 1.039960e+01 1.349049e+01 1.677271e+01 -1 -1 0 -4.136242e-01 6.346010e-01 -6.528373e-01 -3.025345e-04
24 1 3 8.990625e+00 1.361183e+01 1.638518e+01 -1 -1 0 -2.748474e-01 1.568285e-01 8.047205e-01 5.022834e-01
25 1 3 9.610504e+00 1.465868e+01 1.586991e+01 -1 -1 0 1.018039e-01 -8.939895e-02 4.603341e-01 8.773462e-01
26 1 4 9.641013e+00 1.519181e+01 1.584382e+01 -1 -1 0 -2.230261e-01 6.960358e-02 3.657493e-01 9.009119e-01
27 1 4 9.577830e+00 1.556897e+01 1.597060e+01 -1 -1 0 5.478133e-01 -2.410233e-01 -2.144116e-01 -7.719041e-01
28 1 1 1.043289e+01 1.519472e+01 1.512567e+01 -1 -1 0 7.954233e-01 2.135467e-01 -5.023943e-01 -2.632480e-01
29 1 1 1.118851e+01 1.556515e+01 1.434474e+01 -1 -1 0 -8.266646e-01 -3.942346e-01 -4.067519e-02 -3.994374e-01
30 1 4 1.159212e+01 1.540815e+01 1.462675e+01 -1 -1 0 5.396583e-01 2.181820e-01 -1.125479e-01 8.052940e-01
31 1 4 1.197034e+01 1.467373e+01 1.555609e+01 -1 -1 0 2.863129e-01 -6.786724e-01 5.103229e-01 -4.438460e-01
32 1 3 1.262860e+01 1.522361e+01 1.478851e+01 -1 -1 0 -2.777200e-01 9.128256e-01 -2.872417e-01 8.434055e-02
33 1 3 1.222321e+01 1.567404e+01 1.381575e+01 -1 -1 0 -8.682950e-03 -1.956122e-01 -7.998779e-01 -5.673234e-01
34 1 1 1.373898e+01 1.614054e+01 1.373385e+01 -1 -1 0 -6.418638e-01 5.530039e-01 -2.350900e-01 -4.763720e-01
35 1 2 1.431496e+01 1.665893e+01 1.382414e+01 -1 -1 0 8.080310e-01 3.171017e-01 -6.555017e-02 4.921744e-01
36 1 2 1.497354e+01 1.633598e+01 1.416657e+01 -1 -1 0 2.351279e-01 7.856191e-01 -3.562340e-01 4.479004e-01
37 1 1 1.531825e+01 1.701385e+01 1.329873e+01 -1 -1 0 6.248442e-01 -4.051921e-01 5.129436e-02 6.654006e-01
38 1 1 1.609141e+01 1.657491e+01 1.308224e+01 -1 -1 0 -5.366899e-01 4.447033e-01 -5.893389e-01 -4.085127e-01
39 1 4 1.630373e+01 1.586131e+01 1.341717e+01 -1 -1 0 4.796407e-01 3.494035e-01 -6.649054e-01 -4.536108e-01
40 1 4 1.689529e+01 1.682920e+01 1.279848e+01 -1 -1 0 6.261928e-01 -1.809388e-01 4.693560e-01 5.956917e-01
41 1 2 1.697618e+01 1.684753e+01 1.276724e+01 -1 -1 0 1.733526e-01 1.041519e-01 -6.270432e-01 -7.522753e-01
42 1 4 1.733716e+01 1.650498e+01 1.284833e+01 -1 -1 0 -5.666411e-01 4.308837e-01 6.508870e-01 2.638244e-01
43 1 3 1.790400e+01 1.697770e+01 1.167950e+01 -1 -1 0 -8.680486e-01 1.192141e-02 -4.765930e-01 -1.385955e-01
44 1 2 1.787135e+01 1.690231e+01 1.168581e+01 -1 -1 0 6.969753e-01 -4.727530e-01 9.158125e-02 -5.313595e-01
45 1 1 1.762862e+01 1.732496e+01 1.076105e+01 -1 -1 0 4.009425e-01 -1.326786e-01 3.750374e-02 -9.056683e-01
46 1 3 1.764946e+01 1.638986e+01 1.068578e+01 -1 -1 0 -6.538527e-01 4.996625e-01 -3.393835e-01 4.556676e-01
47 1 4 1.855776e+01 1.708606e+01 9.774079e+00 -1 -1 0 6.023167e-01 6.954329e-01 2.565084e-01 2.962956e-01
48 1 1 1.888577e+01 1.698704e+01 9.480638e+00 -1 -1 0 -4.324512e-01 -7.434371e-01 1.745709e-01 -4.793873e-01
49 1 4 1.939422e+01 1.672577e+01 9.409534e+00 -1 -1 0 2.485425e-01 5.594642e-01 -3.745822e-01 6.963581e-01
50 1 4 1.984758e+01 1.670711e+01 8.045985e+00 -1 -1 0 -3.123748e-01 4.039517e-01 -3.543961e-01 -7.833571e-01
51 1 4 1.964008e+01 1.589440e+01 8.017822e+00 -1 -1 0 -6.152668e-01 -7.816884e-02 7.808616e-01 -7.477711e-02
52 1 1 1.921855e+01 1.552912e+01 8.047324e+00 -1 -1 0 -6.709080e-01 1.119812e-01 6.808312e-01 -2.716828e-01
53 1 3 1.878069e+01 1.530819e+01 8.366061e+00 -1 -1 0 -4.886723e-01 4.678652e-01 5.400083e-01 -5.006921e-01
54 1 4 1.829688e+01 1.405246e+01 8.454627e+00 -1 -1 0 -8.933774e-01 1.777545e-01 -4.368055e-02 4.103317e-01
55 1 4 1.824565e+01 1.353408e+01 8.814698e+00 -1 -1 0 2.522530e-01 1.618823e-01 -8.328993e-01 4.652326e-01
56 1 4 1.810224e+01 1.299928e+01 8.826009e+00 -1 -1 0 -5.301942e-02 3.571240e-01 8.194717e-01 -4.451039e-01
57 1 1 1.883798e+01 1.225881e+01 9.074236e+00 -1 -1 0 -6.835170e-01 -5.200321e-01 3.246260e-01 -3.962185e-01
58 1 1 1.903278e+01 1.184323e+01 9.264013e+00 -1 -1 0 -5.013540e-01 -2.654489e-01 4.496680e-01 -6.899128e-01
59 1 3 1.911415e+01 1.162931e+01 9.620451e+00 -1 -1 0 9.558429e-02 3.524306e-02 -5.094895e-01 8.544250e-01
60 1 4 1.983382e+01 1.232539e+01 9.352163e+00 -1 -1 0 4.513485e-02 -6.817869e-01 -1.520342e-01 -7.141534e-01
61 1 2 -1.978024e+01 1.182944e+01 9.136580e+00 0 -1 0 7.630201e-02 5.955196e-01 7.240278e-01 3.395853e-01
62 1 3 -1.830396e+01 1.207465e+01 9.278377e+00 0 -1 0 5.536796e-01 6.751542e-01 1.644235e-02 4.871708e-01
63 1 2 -1.785738e+01 1.204413e+01 9.165568e+00 0 -1 0 -2.401813e-01 -6.305007e-01 3.219885e-01 -6.641575e-01
64 1 4 -1.743294e+01 1.193616e+01 9.135632e+00 0 -1 0 -4.623897e-03 -4.890934e-01 5.985649e-01 -6.344181e-01
65 1 2 -1.710312e+01 1.157746e+01 9.364325e+00 0 -1 0 2.793000e-01 -1.588075e-01 7.030944e-01 -6.343737e-01
66 1 1 -1.695186e+01 1.162468e+01 9.533792e+00 0 -1 0 6.382509e-01 3.974664e-01 3.038385e-01 -5.850969e-01
67 1 2 -1.616767e+01 1.215085e+01 1.094758e+01 0 -1 0 1.142783e-01 7.612529e-01 -1.340179e-01 6.240783e-01
68 1 1 -1.580722e+01 1.099361e+01 1.126726e+01 0 -1 0 8.195741e-01 1.971824e-01 -4.946928e-01 2.114151e-01
69 1 1 -1.623043e+01 1.101652e+01 1.164141e+01 0 -1 0 -3.985965e-01 4.041429e-01 -8.115848e-01 1.382727e-01
70 1 2 -1.587663e+01 1.214271e+01 1.223224e+01 0 -1 0 -1.556969e-01 9.349979e-02 5.312932e-01 -8.274925e-01
71 1 3 -1.548166e+01 1.245218e+01 1.221395e+01 0 -1 0 7.534104e-01 2.780737e-01 3.425647e-01 4.875420e-01
72 1 4 -1.521298e+01 1.231175e+01 1.365382e+01 0 -1 0 5.444543e-01 -7.577551e-01 5.135725e-02 -3.560045e-01
73 1 1 -1.446311e+01 1.195014e+01 1.358773e+01 0 -1 0 -1.085710e-01 -7.536620e-01 6.066440e-01 2.284492e-01
74 1 1 -1.483407e+01 1.327458e+01 1.357968e+01 0 -1 0 -1.537620e-01 5.049207e-01 -1.545805e-01 -8.351749e-01
75 1 3 -1.572114e+01 1.329706e+01 1.349890e+01 0 -1 0 2.144004e-01 -2.986765e-01 3.085070e-01 8.772960e-01
76 1 1 -1.573039e+01 1.397116e+01 1.452081e+01 0 -1 0 -6.077225e-01 3.374629e-01 3.237174e-01 -6.418717e-01
77 1 4 -1.592506e+01 1.258471e+01 1.451022e+01 0 -1 0 -6.854145e-01 -1.845748e-01 2.602316e-01 6.545369e-01
78 1 1 -1.602018e+01 1.367209e+01 1.556855e+01 0 -1 0 -1.355364e-01 -1.147093e-01 5.053233e-01 -8.444643e-01
79 1 4 -1.594540e+01 1.346652e+01 1.596144e+01 0 -1 0 -3.184615e-01 -1.589281e-01 -4.916857e-01 7.947133e-01
80 1 2 -1.420454e+01 1.343898e+01 1.585794e+01 0 -1 0 8.508199e-01 -1.296762e-01 2.264371e-01 4.560876e-01
81 1 4 -1.409184e+01 1.315388e+01 1.677470e+01 0 -1 0 6.320265e-01 -6.658249e-01 -5.421013e-02 3.927861e-01
82 1 4 -1.410697e+01 1.250263e+01 1.717074e+01 0 -1 0 6.262677e-01 -9.575723e-02 -5.066981e-01 -5.847019e-01
83 1 4 -1.307198e+01 1.281606e+01 1.748177e+01 0 -1 0 -1.836138e-01 -9.714363e-01 -1.481798e-01 -2.530407e-02
84 1 4 -1.261711e+01 1.154943e+01 1.758212e+01 0 -1 0 8.679237e-01 4.645354e-01 -5.920239e-02 1.655610e-01
85 1 1 -1.242280e+01 1.113487e+01 1.778717e+01 0 -1 0 8.007293e-01 3.594196e-01 -1.435513e-01 4.572124e-01
86 1 1 -1.205132e+01 1.085997e+01 1.794716e+01 0 -1 0 5.451336e-01 2.825220e-01 -3.023921e-01 7.290883e-01
87 1 3 -1.220468e+01 1.072874e+01 1.868306e+01 0 -1 0 7.621374e-01 -1.903329e-01 -2.935473e-01 5.447476e-01
88 1 2 -1.260873e+01 1.088374e+01 1.908799e+01 0 -1 0 3.884677e-01 -4.402065e-01 -2.041328e-01 7.833523e-01
89 1 2 -1.305289e+01 9.309449e+00 1.861413e+01 0 -1 0 3.070234e-01 5.192781e-03 9.391774e-01 1.538036e-01
90 1 3 -1.278654e+01 9.203305e+00 1.808895e+01 0 -1 0 2.994928e-01 3.887686e-01 8.642843e-01 1.103435e-01
91 1 3 -1.246140e+01 8.291799e+00 1.818072e+01 0 -1 0 9.466027e-01 2.338960e-01 1.542679e-01 1.594911e-01
92 1 2 -1.220376e+01 8.761598e+00 1.904087e+01 0 -1 0 3.643735e-01 -7.253934e-01 -3.151020e-02 5.831325e-01
93 1 1 -1.179938e+01 8.145016e+00 1.934111e+01 0 -1 0 6.735993e-01 -5.687487e-01 -3.719253e-01 -2.906208e-01
94 1 2 -1.084373e+01 7.653615e+00 1.880030e+01 0 -1 0 -8.942375e-01 -3.901466e-01 -8.113886e-02 -2.038170e-01
95 1 3 -1.021688e+01 7.862442e+00 1.869949e+01 0 -1 0 6.059001e-01 -7.487577e-01 8.471679e-02 2.550883e-01
96 1 2 -9.681529e+00 8.399688e+00 1.825823e+01 0 -1 0 5.354175e-01 -5.163801e-01 2.598635e-01 6.157521e-01
97 1 2 -9.974022e+00 8.088735e+00 1.771982e+01 0 -1 0 -7.729590e-02 -7.782486e-02 2.853205e-01 9.521349e-01
98 1 4 -9.742243e+00 7.092930e+00 1.789852e+01 0 -1 0 6.335510e-01 4.364503e-01 3.280725e-02 -6.380031e-01
99 1 2 -9.756969e+00 6.575061e+00 1.769747e+01 0 -1 0 1.669420e-01 -6.286053e-01 5.715824e-01 5.002792e-01
100 1 1 -1.039509e+01 5.693287e+00 1.801524e+01 0 -1 0 -1.509732e-01 2.148916e-01 -8.332163e-01 4.865997e-01
101 2 4 -5.287034e+00 6.953204e+00 1.040065e+01 0 -1 0 8.152062e-01 2.412409e-01 3.682602e-01 3.763324e-01
102 2 3 -4.784098e+00 6.758443e+00 1.042268e+01 0 -1 0 -6.510611e-01 -3.356546e-01 -2.461349e-01 -6.347228e-01
103 2 1 -4.713183e+00 6.406711e+00 1.163517e+01 0 -1 0 8.357304e-01 -7.550069e-02 -5.323924e-01 -1.114117e-01
104 2 3 -4.933309e+00 7.291970e+00 1.173991e+01 0 -1 0 1.843438e-01 6.481802e-02 7.580268e-01 -6.222631e-01
105 2 3 -5.034415e+00 7.666769e+00 1.266295e+01 0 -1 0 -6.005850e-01 3.577434e-01 6.155493e-01 -3.638907e-01
106 2 2 -5.295899e+00 8.299943e+00 1.307441e+01 0 -1 0 1.004370e-01 -7.556834e-01 -6.449809e-01 -5.342953e-02
107 2 3 -5.470299e+00 8.654927e+00 1.279954e+01 0 -1 0 7.938490e-02 -9.905981e-01 -1.085669e-01 2.503426e-02
108 2 4 -5.409574e+00 8.824368e+00 1.217505e+01 0 -1 0 -3.898922e-02 -9.854121e-01 7.089250e-02 -1.497236e-01
109 2 3 -5.182271e+00 8.536044e+00 1.170484e+01 0 -1 0 2.109228e-01 9.276023e-01 1.178026e-01 2.849352e-01
110 2 2 -4.839948e+00 8.699677e+00 1.133622e+01 0 -1 0 -1.141134e-01 -8.922862e-01 2.228757e-01 -3.756726e-01
111 2 2 -5.726231e+00 7.854849e+00 1.033213e+01 0 -1 0 7.399780e-01 4.167436e-02 3.443173e-01 -5.763172e-01
112 2 3 -5.748465e+00 9.126207e+00 1.060565e+01 0 -1 0 -4.772368e-02 5.502078e-01 8.288209e-01 -8.972009e-02
113 2 3 -5.959735e+00 9.131909e+00 1.141442e+01 0 -1 0 -6.217880e-01 4.547499e-01 -9.851617e-02 6.299815e-01
114 2 2 -5.951331e+00 9.216484e+00 1.188258e+01 0 -1 0 -8.542495e-01 4.268021e-01 -1.941063e-01 2.245453e-01
115 2 4 -5.717639e+00 9.441526e+00 1.231471e+01 0 -1 0 -8.259687e-01 3.776616e-01 -4.178146e-01 -2.404883e-02
116 2 4 -5.648329e+00 1.039927e+01 1.157122e+01 0 -1 0 -2.077532e-03 -6.634128e-01 -8.673415e-02 7.432068e-01
117 2 1 -4.421856e+00 1.014914e+01 1.205045e+01 0 -1 0 9.168422e-01 -5.411664e-02 -3.450146e-01 1.934854e-01
118 2 1 -4.466029e+00 9.254104e+00 1.222355e+01 0 -1 0 3.367624e-02 -3.341298e-01 9.172982e-01 -2.139793e-01
119 2 1 -4.632599e+00 9.676706e+00 1.242404e+01 0 -1 0 7.128388e-01 1.040806e-01 6.592478e-01 -2.154540e-01
120 2 1 -4.182529e+00 1.078322e+01 1.321195e+01 0 -1 0 -3.716519e-01 -4.447411e-02 -2.530843e-01 -8.921016e-01
121 2 3 -4.043098e+00 1.114619e+01 1.352172e+01 0 -1 0 6.829489e-02 2.032406e-02 3.247264e-01 9.431201e-01
122 2 1 -3.183203e+00 1.074713e+01 1.411886e+01 0 -1 0 -4.410250e-01 5.283141e-01 5.347833e-01 -4.902937e-01
123 2 4 -3.186946e+00 9.144419e+00 1.367653e+01 0 -1 0 4.877167e-02 -4.487894e-01 8.906470e-01 5.438214e-02
124 2 1 -3.089763e+00 8.924282e+00 1.326369e+01 0 -1 0 -4.424674e-02 3.698626e-02 -9.950942e-01 -8.038459e-02
125 2 4 -2.286188e+00 8.449036e+00 1.411699e+01 0 -1 0 2.968910e-01 3.287187e-01 -8.678028e-01 2.252067e-01
126 2 2 -2.298605e+00 7.961619e+00 1.389794e+01 0 -1 0 -1.515634e-01 1.390793e-01 9.527243e-01 -2.236111e-01
127 2 4 -1.099020e+00 7.658302e+00 1.371399e+01 0 -1 0 1.969415e-02 -9.752779e-01 2.058629e-01 -7.788217e-02
128 2 4 -1.574384e+00 6.636442e+00 1.394916e+01 0 -1 0 -3.331539e-01 6.436545e-02 8.330876e-01 -4.368417e-01
129 2 1 -1.302837e+00 6.073431e+00 1.407156e+01 0 -1 0 -3.477939e-01 -1.284904e-02 -9.337023e-01 8.410949e-02
130 2 2 -3.207984e-01 5.899660e+00 1.460392e+01 0 -1 0 -6.363180e-01 6.543762e-01 -6.433024e-02 -4.034263e-01
131 2 3 -1.049572e+00 5.418033e+00 1.453702e+01 0 -1 0 5.105421e-01 -3.763213e-01 6.433330e-01 4.287793e-01
132 2 4 -2.342726e+00 5.203636e+00 1.481763e+01 0 -1 0 -1.975045e-01 3.240166e-02 9.709606e-01 1.310634e-01
133 2 4 -2.191498e+00 5.589220e+00 1.440897e+01 0 -1 0 -5.423469e-01 -6.191246e-01 3.350579e-01 -4.585639e-01
134 2 3 -2.327213e+00 4.773789e+00 1.479298e+01 0 -1 0 -7.289754e-01 4.595792e-01 5.065826e-01 2.749500e-02
135 2 4 -2.435671e+00 5.359953e+00 1.349184e+01 0 -1 0 2.882360e-01 9.130651e-01 2.834832e-01 -5.356748e-02
136 2 3 -2.457589e+00 5.393948e+00 1.295619e+01 0 -1 0 2.927232e-01 9.418484e-01 -1.321383e-01 9.886428e-02
137 2 1 -3.388858e+00 4.175105e+00 1.326322e+01 0 -1 0 6.759345e-01 -1.668838e-01 -3.285607e-02 -7.170654e-01
138 2 3 -3.007937e+00 3.709427e+00 1.333579e+01 0 -1 0 -1.402784e-02 -2.609019e-01 7.151918e-01 -6.482547e-01
139 2 2 -3.408305e+00 3.736829e+00 1.281232e+01 0 -1 0 9.569489e-01 -6.818814e-02 -1.773298e-01 -2.194389e-01
140 2 3 -4.430698e+00 4.119664e+00 1.316339e+01 0 -1 0 1.360020e-02 4.573235e-01 5.544713e-01 -6.951488e-01
141 2 1 -4.174944e+00 4.842630e+00 1.351032e+01 0 -1 0 8.286232e-02 -5.390430e-01 -1.187910e-01 -8.297320e-01
142 2 2 -4.252488e+00 4.342976e+00 1.388243e+01 0 -1 0 9.241300e-01 -3.730290e-01 6.678078e-02 -4.871886e-02
143 2 4 -4.744409e+00 5.126677e+00 1.291847e+01 0 -1 0 -3.103185e-01 5.309113e-01 -5.911593e-01 -5.218873e-01
144 2 4 -4.721134e+00 5.936319e+00 1.359713e+01 0 -1 0 3.471645e-01 -7.539116e-01 2.357092e-01 -5.055049e-01
145 2 1 -4.326619e+00 5.191453e+00 1.276631e+01 0 -1 0 6.823688e-01 3.032198e-01 -6.460059e-01 1.584519e-01
146 2 1 -5.377606e+00 5.673270e+00 1.251163e+01 0 -1 0 -4.971079e-01 4.812664e-01 6.624851e-01 -2.870188e-01
147 2 1 -5.911551e+00 5.956048e+00 1.259985e+01 0 -1 0 3.408311e-01 -7.481346e-01 -4.297209e-01 3.734551e-01
148 2 2 -6.170779e+00 6.358584e+00 1.254902e+01 0 -1 0 2.639830e-01 -8.046964e-01 4.922683e-02 5.294841e-01
149 2 4 -6.850498e+00 6.851855e+00 1.198184e+01 0 -1 0 5.135213e-03 -5.227237e-01 -1.699693e-01 8.353706e-01
150 2 1 -6.400645e+00 6.817150e+00 1.103664e+01 0 -1 0 6.029049e-02 7.789447e-01 -2.999342e-01 -5.474027e-01
151 2 1 -7.096389e+00 6.949008e+00 1.040827e+01 0 -1 0 5.158953e-01 6.767478e-01 -1.181514e-01 -5.117662e-01
152 2 1 -7.362441e+00 6.623024e+00 1.022898e+01 0 -1 0 7.112225e-01 4.587344e-01 -5.169345e-01 -1.284679e-01
153 2 4 -8.013084e+00 7.800868e+00 1.033655e+01 0 -1 0 2.845897e-01 -3.593231e-01 3.543605e-01 -8.150609e-01
154 2 1 -7.421853e+00 8.115823e+00 9.145352e+00 0 -1 0 3.967150e-01 5.610807e-01 -9.896202e-02 -7.197307e-01
155 2 2 -7.902568e+00 8.117242e+00 9.024067e+00 0 -1 0 7.036296e-01 4.475483e-01 -2.396714e-01 -4.971554e-01
156 2 4 -8.264778e+00 7.767965e+00 8.953791e+00 0 -1 0 -8.278269e-01 -3.055056e-01 4.581652e-01 1.070218e-01
157 2 3 -8.963925e+00 7.240014e+00 8.567225e+00 0 -1 0 2.383082e-01 -7.588559e-04 8.848706e-01 -4.002658e-01
158 2 2 -7.700151e+00 7.124777e+00 7.842023e+00 0 -1 0 -7.173050e-01 5.006086e-01 -4.689734e-01 -1.221826e-01
159 2 1 -8.020737e+00 8.218467e+00 7.263755e+00 0 -1 0 7.245669e-02 4.668822e-01 3.319587e-01 8.164401e-01
160 2 3 -7.825661e+00 8.652693e+00 7.404526e+00 0 -1 0 2.967579e-01 -5.862980e-01 8.648180e-03 -7.537338e-01
161 2 1 -7.765779e+00 8.958346e+00 7.852145e+00 0 -1 0 -3.077459e-01 -1.007178e-01 8.192326e-01 -4.732930e-01
162 2 1 -8.047908e+00 9.214176e+00 6.257337e+00 0 -1 0 5.554380e-01 5.624843e-01 3.884344e-01 -4.735175e-01
163 2 4 -8.333773e+00 8.735373e+00 6.169754e+00 0 -1 0 7.133456e-01 6.706782e-01 1.148403e-01 -1.677513e-01
164 2 4 -9.029618e+00 8.487125e+00 6.159392e+00 0 -1 0 7.292118e-01 4.474224e-01 -4.263398e-01 -2.937646e-01
165 2 3 -9.040594e+00 9.613823e+00 6.351029e+00 0 -1 0 -1.580869e-01 3.970999e-01 3.927993e-01 8.142659e-01
166 2 3 -9.405344e+00 9.562379e+00 5.273535e+00 0 -1 0 -4.982193e-01 -4.493381e-01 -1.354216e-02 7.414104e-01
167 2 4 -9.528029e+00 1.029296e+01 6.204848e+00 0 -1 0 -1.603277e-01 -3.489493e-01 5.886331e-01 -7.113653e-01
168 2 2 -1.075526e+01 1.008276e+01 5.919238e+00 0 -1 0 -4.692990e-01 1.783190e-01 1.582629e-01 8.502433e-01
169 2 2 -1.095524e+01 1.037101e+01 6.294267e+00 0 -1 0 -6.800149e-01 2.207537e-01 -3.506500e-02 6.982965e-01
170 2 1 -1.099874e+01 1.036834e+01 6.816603e+00 0 -1 0 8.558161e-01 -1.419576e-01 1.555563e-01 -4.724713e-01
171 2 1 -1.140359e+01 1.063962e+01 7.709034e+00 0 -1 0 -2.645539e-01 6.837146e-01 -4.266631e-01 5.296265e-01
172 2 4 -1.247258e+01 1.106051e+01 6.932869e+00 0 -1 0 4.235027e-01 6.670699e-01 5.654919e-01 -2.363941e-01
173 2 4 -1.271546e+01 1.086514e+01 7.892236e+00 0 -1 0 -2.629065e-01 6.974059e-01 -4.968642e-01 4.445572e-01
174 2 1 -1.290808e+01 1.184424e+01 8.384703e+00 0 -1 0 -3.309719e-01 6.294741e-01 -1.228431e-01 6.921918e-01
175 2 1 -1.250900e+01 1.206296e+01 8.636653e+00 0 -1 0 4.178920e-01 -4.532608e-01 4.005330e-01 -6.778600e-01
176 2 2 -1.197284e+01 1.280405e+01 8.805089e+00 0 -1 0 7.993893e-01 -4.635559e-01 -3.820898e-01 -1.000653e-02
177 2 2 -1.184042e+01 1.304075e+01 7.570171e+00 0 -1 0 -2.353690e-01 -2.837879e-01 4.705955e-01 8.016269e-01
178 2 1 -1.091588e+01 1.245921e+01 8.245812e+00 0 -1 0 -8.236440e-01 -4.317177e-01 2.715984e-01 2.479206e-01
179 2 4 -1.017843e+01 1.267999e+01 7.657601e+00 0 -1 0 6.664598e-01 -2.298516e-01 5.578997e-01 4.378898e-01
180 2 1 -9.703983e+00 1.276385e+01 7.679976e+00 0 -1 0 5.072277e-01 8.785582e-02 5.681264e-01 6.420544e-01
181 2 4 -8.840640e+00 1.256640e+01 7.675237e+00 0 -1 0 2.952393e-01 6.787014e-01 -6.533010e-01 -1.593612e-01
182 2 2 -9.091636e+00 1.222353e+01 7.316471e+00 0 -1 0 4.977796e-01 2.273431e-01 -8.312038e-01 9.813638e-02
183 2 3 -1.027674e+01 1.297317e+01 6.671092e+00 0 -1 0 -3.681829e-01 -4.307578e-01 -4.804079e-01 6.694007e-01
184 2 4 -9.594462e+00 1.340541e+01 6.818104e+00 0 -1 0 -6.174905e-01 5.340321e-01 -5.767414e-01 -2.974160e-02
185 2 3 -9.391924e+00 1.366106e+01 5.959433e+00 0 -1 0 1.733711e-01 -8.393248e-01 2.143470e-01 4.685422e-01
186 2 1 -9.630153e+00 1.407713e+01 5.647190e+00 0 -1 0 -7.311745e-02 -7.065858e-01 4.990354e-01 4.963406e-01
187 2 1 -9.869248e+00 1.421720e+01 5.283900e+00 0 -1 0 2.919361e-01 4.355857e-01 -7.859302e-01 -3.276463e-01
188 2 2 -1.011063e+01 1.409662e+01 4.803695e+00 0 -1 0 -4.804000e-01 -1.434743e-01 8.445236e-01 1.881780e-01
189 2 4 -9.674213e+00 1.475180e+01 4.367828e+00 0 -1 0 1.313712e-01 -5.694471e-01 -7.522417e-01 -3.043090e-01
190 2 4 -9.564745e+00 1.507172e+01 4.023268e+00 0 -1 0 -2.371597e-01 3.381799e-01 8.367835e-01 3.594205e-01
191 2 1 -9.880853e+00 1.528517e+01 3.702972e+00 0 -1 0 -3.609711e-01 6.756857e-01 6.029802e-01 2.226288e-01
192 2 4 -9.818657e+00 1.523493e+01 2.849598e+00 0 -1 0 -1.523449e-01 7.845001e-01 3.921239e-01 4.556200e-01
193 2 4 -1.019251e+01 1.528083e+01 2.581965e+00 0 -1 0 5.280209e-03 8.148450e-01 -2.818426e-02 5.789693e-01
194 2 1 -1.011282e+01 1.591864e+01 1.590262e+00 0 -1 0 -5.055134e-01 -3.703963e-01 -2.659531e-01 -7.324833e-01
195 2 3 -1.031955e+01 1.560586e+01 1.167950e+00 0 -1 0 -1.110236e-02 -4.591205e-01 -2.050484e-01 -8.643149e-01
196 2 4 -1.064084e+01 1.448576e+01 3.173080e-01 0 -1 0 -4.291884e-01 -2.018649e-01 7.639650e-01 4.374991e-01
197 2 2 -9.562428e+00 1.447296e+01 7.543643e-02 0 -1 0 -7.200329e-01 5.213370e-01 -4.565550e-01 3.630192e-02
198 2 4 -9.128009e+00 1.463642e+01 3.085650e-01 0 -1 0 -6.339638e-01 3.677602e-01 -5.958057e-01 -3.284174e-01
199 2 3 -9.390519e+00 1.456402e+01 6.672649e-01 0 -1 0 -1.596197e-01 -8.211577e-01 -4.491251e-01 -3.138601e-01
200 2 4 -8.273054e+00 1.339576e+01 1.349451e+00 0 -1 0 1.764885e-02 -7.578079e-01 6.139393e-01 -2.202140e-01
