ITEM: TIMESTEP
274000000
ITEM: NUMBER OF ATOMS
200
ITEM: BOX BOUNDS pp pp pp
-2.0000000000000000e+01 2.0000000000000000e+01
-2.0000000000000000e+01 2.0000000000000000e+01
-2.0000000000000000e+01 2.0000000000000000e+01
ITEM: ATOMS id mol type x y z ix iy iz c_quat[1] c_quat[2] c_quat[3] c_quat[4]
1 1 1 1.821670e+01 9.199241e+00 1.929779e+01 -1 -1 0 -2.122071e-01 1.479697e-01 7.582238e-01 5.984729e-01
2 1 2 1.778992e+01 9.513576e+00 1.917815e+01 -1 -1 0 5.203071e-01 -3.453087e-01 -7.048890e-01 -3.364133e-01
3 1 1 1.730564e+01 9.699198e+00 1.923116e+01 -1 -1 0 -5.754946e-01 6.459194e-01 4.998000e-01 4.235577e-02
4 1 3 1.695543e+01 9.349016e+00 1.804426e+01 -1 -1 0 7.743573e-01 2.921893e-01 -3.492673e-01 -4.393274e-01
5 1 1 1.665062e+01 9.020383e+00 1.814246e+01 -1 -1 0 -8.521102e-01 -2.101785e-01 4.789894e-01 1.738685e-02
6 1 2 1.607864e+01 9.438072e+00 1.776480e+01 -1 -1 0 -2.551574e-01 8.921472e-01 3.618532e-01 8.961238e-02
7 1 4 1.654137e+01 9.370098e+00 1.672257e+01 -1 -1 0 2.419725e-01 -7.584365e-01 4.969521e-01 3.453433e-01
8 1 1 1.668968e+01 9.659808e+00 1.627720e+01 -1 -1 0 -1.098655e-03 -3.828653e-01 8.257921e-01 4.141019e-01
9 1 1 1.667963e+01 9.924963e+00 1.582517e+01 -1 -1 0 -2.320119e-01 -1.525240e-01 8.748454e-01 3.969288e-01
10 1 4 1.645899e+01 1.003891e+01 1.544147e+01 -1 -1 0 -3.213283e-01 5.635187e-02 9.246236e-01 1.965803e-01
11 1 1 1.742986e+01 9.390890e+00 1.515085e+01 -1 -1 0 9.643848e-01 -6.547815e-02 -1.278760e-01 -2.220864e-01
12 1 1 1.669710e+01 8.742558e+00 1.502236e+01 -1 -1 0 5.781576e-01 2.065314e-01 -7.689952e-01 -1.781148e-01
13 1 3 1.637709e+01 8.488720e+00 1.476283e+01 -1 -1 0 -5.996699e-01 -3.050419e-02 7.985244e-01 -4.271034e-02
14 1 4 1.680715e+01 9.366832e+00 1.341693e+01 -1 -1 0 -4.706537e-01 -3.042714e-02 -5.831938e-01 -6.613957e-01
15 1 4 1.555171e+01 8.983667e+00 1.376753e+01 -1 -1 0 -4.488416e-01 2.336892e-02 3.273268e-01 8.311752e-01
16 1 2 1.520144e+01 9.226045e+00 1.404522e+01 -1 -1 0 -6.334230e-01 3.252143e-03 3.498607e-01 6.901899e-01
17 1 1 1.470824e+01 9.301456e+00 1.422695e+01 -1 -1 0 8.550792e-01 2.497749e-02 -4.381367e-01 -2.761374e-01
18 1 2 1.472736e+01 1.018160e+01 1.435995e+01 -1 -1 0 2.711742e-01 -7.293237e-01 4.035711e-01 4.813334e-01
19 1 3 1.355638e+01 9.502644e+00 1.441369e+01 -1 -1 0 -7.677829e-01 -1.185242e-02 4.822539e-01 4.216636e-01
20 1 1 1.311404e+01 9.528611e+00 1.459286e+01 -1 -1 0 9.065245e-01 -2.264577e-01 -3.350921e-01 -1.210100e-01
21 1 4 1.326921e+01 9.762926e+00 1.315321e+01 -1 -1 0 -8.934365e-03 -8.127891e-01 3.685256e-01 4.510909e-01
22 1 1 1.318920e+01 1.006988e+01 1.282934e+01 -1 -1 0 -1.168641e-01 -5.909634e-01 7.014753e-01 3.808377e-01
23 1 4 1.321510e+01 1.014269e+01 1.242731e+01 -1 -1 0 1.890930e-01 2.093568e-01 -8.965563e-01 -3.414680e-01
24 1 3 1.289963e+01 1.004471e+01 1.200277e+01 -1 -1 0 3.263800e-01 -2.002808e-01 -9.102028e-01 -1.577802e-01
25 1 3 1.345571e+01 1.144110e+01 1.152541e+01 -1 -1 0 5.511604e-01 2.055611e-01 4.768097e-01 6.531610e-01
26 1 4 1.390231e+01 1.162729e+01 1.145077e+01 -1 -1 0 2.646306e-01 3.069518e-01 4.140131e-01 8.150732e-01
27 1 4 1.413526e+01 1.203809e+01 1.140195e+01 -1 -1 0 -1.328552e-01 4.578045e-01 3.643029e-01 8.000300e-01
28 1 1 1.488647e+01 1.195213e+01 1.070998e+01 -1 -1 0 -1.416789e-01 -5.577920e-02 4.661224e-01 8.715192e-01
29 1 1 1.639290e+01 1.223679e+01 1.123022e+01 -1 -1 0 1.902248e-01 -9.784406e-01 -5.187986e-02 6.145700e-02
30 1 4 1.650574e+01 1.267328e+01 1.087180e+01 -1 -1 0 2.133751e-01 -9.352647e-01 2.799342e-01 -3.725482e-02
31 1 4 1.680100e+01 1.291069e+01 1.069596e+01 -1 -1 0 -2.185065e-01 5.952737e-01 -7.478065e-01 -1.966967e-01
32 1 3 1.701887e+01 1.326182e+01 1.090736e+01 -1 -1 0 -2.253512e-01 -3.374900e-01 4.103034e-01 8.166814e-01
33 1 3 1.697166e+01 1.391721e+01 1.166421e+01 -1 -1 0 4.619758e-01 -4.140187e-01 3.113726e-01 -7.198708e-01
34 1 1 1.731206e+01 1.391389e+01 1.207321e+01 -1 -1 0 5.598483e-01 -2.265143e-01 4.044679e-01 -6.867801e-01
35 1 2 1.751743e+01 1.371271e+01 1.249486e+01 -1 -1 0 -6.380977e-01 3.411878e-03 -3.856514e-01 6.664028e-01
36 1 2 1.774972e+01 1.355396e+01 1.259439e+01 -1 -1 0 -1.587857e-01 -1.090713e-01 -2.281409e-01 9.543806e-01
37 1 1 1.898923e+01 1.282488e+01 1.202927e+01 -1 -1 0 -6.263937e-01 2.823874e-01 -7.244924e-01 5.476399e-02
38 1 1 1.944434e+01 1.264011e+01 1.194852e+01 -1 -1 0 5.600565e-01 8.146317e-03 7.643707e-01 3.193867e-01
39 1 4 1.912140e+01 1.187611e+01 1.219271e+01 -1 -1 0 -3.760569e-02 8.327430e-02 8.241466e-01 5.589575e-01
40 1 4 1.923097e+01 1.106354e+01 1.229856e+01 -1 -1 0 4.194778e-01 1.875504e-02 5.971626e-01 -6.834350e-01
41 1 2 1.925320e+01 1.060086e+01 1.255229e+01 -1 -1 0 -6.052599e-01 -2.861182e-01 -5.896175e-01 4.518274e-01
42 1 4 1.932326e+01 1.001155e+01 1.241075e+01 -1 -1 0 6.851926e-01 4.694558e-01 5.032884e-01 -2.383762e-01
43 1 3 -1.970093e+01 1.027817e+01 1.234206e+01 0 -1 0 -5.643631e-01 7.698402e-01 -8.809810e-02 -2.847438e-01
44 1 2 -1.969002e+01 9.594826e+00 1.218442e+01 0 -1 0 -5.716358e-01 -3.199133e-02 7.424446e-01 -3.478290e-01
45 1 1 -1.991862e+01 9.178253e+00 1.231123e+01 0 -1 0 4.180417e-01 -2.472420e-01 -7.205899e-01 4.948361e-01
46 1 3 -1.948042e+01 8.844170e+00 1.237312e+01 0 -1 0 -4.180828e-01 4.037102e-01 4.385951e-01 -6.854628e-01
47 1 4 -1.885723e+01 7.450751e+00 1.218906e+01 0 -1 0 -7.590163e-01 -1.534942e-01 6.113504e-01 -1.630476e-01
48 1 1 -1.850034e+01 7.573471e+00 1.185897e+01 0 -1 0 -4.976974e-01 3.617480e-01 -6.699013e-01 4.155333e-01
49 1 4 -1.800790e+01 7.400077e+00 1.197514e+01 0 -1 0 -5.583048e-01 1.630255e-01 -8.129292e-01 -2.940528e-02
50 1 4 -1.809374e+01 8.228845e+00 1.320008e+01 0 -1 0 -4.792436e-01 4.384136e-01 7.445372e-01 1.542184e-01
51 1 4 -1.761609e+01 8.966520e+00 1.267798e+01 0 -1 0 -1.546591e-01 4.509404e-01 2.401375e-01 8.456165e-01
52 1 1 -1.714773e+01 9.454488e+00 1.230514e+01 0 -1 0 1.234575e-01 1.253663e-01 -2.743546e-01 9.453947e-01
53 1 3 -1.716207e+01 9.487483e+00 1.274080e+01 0 -1 0 -4.114716e-01 4.757771e-02 -2.330736e-01 8.798319e-01
54 1 4 -1.689118e+01 9.026057e+00 1.332094e+01 0 -1 0 8.326532e-01 -2.231350e-01 3.574857e-01 -3.593096e-01
55 1 4 -1.773218e+01 1.003836e+01 1.392027e+01 0 -1 0 -1.094969e-01 8.701299e-03 -3.561634e-01 9.279452e-01
56 1 4 -1.783091e+01 9.830485e+00 1.439910e+01 0 -1 0 2.474500e-01 1.824628e-01 3.080196e-01 -9.003332e-01
57 1 1 -1.684514e+01 1.007020e+01 1.418651e+01 0 -1 0 -8.517460e-02 -7.043657e-01 -4.976244e-01 -4.989831e-01
58 1 1 -1.583753e+01 1.003181e+01 1.409474e+01 0 -1 0 -6.721016e-01 -7.315478e-01 8.391429e-02 7.794628e-02
59 1 3 -1.630977e+01 1.016361e+01 1.501639e+01 0 -1 0 1.369037e-01 -6.632708e-01 -5.066105e-01 5.335494e-01
60 1 4 -1.690106e+01 9.091221e+00 1.502990e+01 0 -1 0 -3.722564e-01 -7.221182e-02 -2.421871e-01 8.930599e-01
61 1 2 -1.677072e+01 8.725920e+00 1.597930e+01 0 -1 0 1.296835e-01 -2.386582e-01 4.623696e-01 -8.440609e-01
62 1 3 -1.671146e+01 8.478837e+00 1.640016e+01 0 -1 0 -4.457047e-01 -1.808720e-02 -5.307249e-01 7.206602e-01
63 1 2 -1.590844e+01 8.555706e+00 1.700455e+01 0 -1 0 -3.091823e-01 1.264388e-01 5.965812e-01 -7.297331e-01
64 1 4 -1.586623e+01 9.133332e+00 1.740407e+01 0 -1 0 -3.881677e-01 -4.096415e-01 3.213260e-01 -7.604402e-01
65 1 2 -1.568869e+01 1.001662e+01 1.686348e+01 0 -1 0 3.913359e-01 -2.427703e-01 -2.206166e-01 8.597948e-01
66 1 1 -1.584753e+01 1.013441e+01 1.730726e+01 0 -1 0 5.398666e-02 3.051303e-01 8.973352e-02 -9.465352e-01
67 1 2 -1.628615e+01 1.018708e+01 1.770571e+01 0 -1 0 4.091167e-01 3.741073e-01 7.932466e-02 -8.284774e-01
68 1 1 -1.628249e+01 1.028652e+01 1.893869e+01 0 -1 0 1.198862e-02 -5.547606e-01 1.180704e-01 -8.235025e-01
69 1 1 -1.564176e+01 1.105546e+01 1.884826e+01 0 -1 0 -3.623131e-01 8.109051e-01 2.119724e-01 -4.077128e-01
70 1 2 -1.554318e+01 1.135304e+01 1.958276e+01 0 -1 0 6.138453e-01 -7.815778e-01 -9.270163e-02 -6.112602e-02
71 1 3 -1.543043e+01 1.177341e+01 1.977539e+01 0 -1 0 5.387546e-01 -7.959250e-01 2.227972e-01 1.631204e-01
72 1 4 -1.517099e+01 1.215129e+01 1.983023e+01 0 -1 0 5.438670e-01 -4.148659e-01 4.504834e-01 5.737244e-01
73 1 1 -1.623360e+01 1.206502e+01 -1.973157e+01 0 -1 1 -3.150171e-01 -2.478410e-02 -7.074578e-01 -6.321814e-01
74 1 1 -1.688033e+01 1.264407e+01 -1.891674e+01 0 -1 1 -3.276952e-01 -1.540132e-01 -1.867890e-01 9.132391e-01
75 1 3 -1.630359e+01 1.299257e+01 -1.946791e+01 0 -1 1 -5.472047e-01 2.403108e-01 -7.564170e-01 -2.658025e-01
76 1 1 -1.701751e+01 1.388093e+01 -1.922462e+01 0 -1 1 -5.320321e-01 -6.456502e-01 -2.761558e-01 4.730915e-01
77 1 4 -1.736125e+01 1.361762e+01 -1.945622e+01 0 -1 1 -7.087282e-01 -6.627903e-01 1.260304e-01 2.062274e-01
78 1 1 -1.876583e+01 1.387300e+01 -1.939640e+01 0 -1 1 1.254162e-01 3.580020e-01 6.570193e-01 -6.514837e-01
79 1 4 -1.836172e+01 1.317423e+01 -1.972462e+01 0 -1 1 1.959000e-01 1.451347e-01 6.307247e-03 -9.698038e-01
80 1 2 -1.879037e+01 1.272519e+01 -1.982133e+01 0 -1 1 5.831744e-01 -4.600797e-01 -3.204454e-01 -5.878342e-01
81 1 4 -1.797771e+01 1.191669e+01 1.985974e+01 0 -1 0 6.481415e-01 -6.401161e-01 4.057456e-01 -7.439421e-02
82 1 4 -1.877764e+01 1.234941e+01 1.969582e+01 0 -1 0 -6.623611e-01 -2.621281e-02 -5.365253e-01 -5.222367e-01
83 1 4 -1.917834e+01 1.239037e+01 -1.997034e+01 0 -1 1 -8.675823e-01 5.492091e-03 4.936468e-01 5.986336e-02
84 1 4 1.960385e+01 1.267345e+01 1.934993e+01 -1 -1 0 -4.217264e-02 -4.009226e-01 -9.018009e-01 1.556845e-01
85 1 1 1.927356e+01 1.235863e+01 1.910836e+01 -1 -1 0 -1.318727e-01 -3.407142e-01 -3.140785e-01 8.762865e-01
86 1 1 1.896435e+01 1.176339e+01 1.879363e+01 -1 -1 0 -2.403853e-01 -6.613068e-01 4.242909e-01 5.699697e-01
87 1 3 1.867889e+01 1.126746e+01 1.967991e+01 -1 -1 0 -7.325971e-01 -4.190344e-01 2.722796e-01 4.621423e-01
88 1 2 1.826183e+01 1.173588e+01 -1.928426e+01 -1 -1 1 -4.734629e-01 8.528776e-01 -4.240655e-02 2.159500e-01
89 1 2 1.861092e+01 1.216398e+01 -1.928136e+01 -1 -1 1 5.136651e-01 -7.728732e-01 3.296623e-01 -1.736028e-01
90 1 3 1.736924e+01 1.292306e+01 -1.967158e+01 -1 -1 1 2.817845e-01 -5.683061e-01 -5.640281e-01 -5.286757e-01
91 1 3 1.809983e+01 1.325465e+01 2.002441e+01 -1 -1 0 9.243708e-01 -7.929906e-03 -2.415528e-01 2.951746e-01
92 1 2 1.728589e+01 1.384738e+01 -1.943816e+01 -1 -1 1 7.281044e-01 -2.955509e-01 -5.210106e-01 -3.332591e-01
93 1 1 1.693989e+01 1.410775e+01 -1.914495e+01 -1 -1 1 -7.864858e-01 4.696653e-01 3.917622e-01 -8.588938e-02
94 1 2 1.655118e+01 1.420380e+01 -1.883157e+01 -1 -1 1 -7.846124e-01 5.123570e-01 1.770080e-01 -3.009017e-01
95 1 3 1.648161e+01 1.453586e+01 -1.846498e+01 -1 -1 1 6.405716e-01 -5.129855e-01 6.752978e-02 5.674095e-01
96 1 2 1.628326e+01 1.420859e+01 -1.800059e+01 -1 -1 1 1.327510e-01 -8.030961e-01 7.872670e-02 5.755137e-01
97 1 2 1.669590e+01 1.377608e+01 -1.669370e+01 -1 -1 1 -3.984693e-01 8.261025e-01 -3.419534e-01 2.045600e-01
98 1 4 1.634782e+01 1.310619e+01 -1.675147e+01 -1 -1 1 5.283007e-01 -2.410687e-01 -7.102490e-01 3.979077e-01
99 1 2 1.562153e+01 1.262492e+01 -1.665851e+01 -1 -1 1 -6.384825e-01 4.198608e-01 -2.288915e-01 6.030471e-01
100 1 1 1.501996e+01 1.271979e+01 -1.625016e+01 -1 -1 1 1.603986e-01 -4.578217e-02 -5.788811e-01 7.981685e-01
101 2 4 -4.801032e+00 1.104605e+01 1.142859e+01 0 -1 0 -5.281863e-01 -6.273322e-01 -9.414368e-02 5.644559e-01
102 2 3 -5.254418e+00 1.162531e+01 1.122970e+01 0 -1 0 1.162114e-02 7.461511e-01 5.380632e-01 3.919329e-01
103 2 1 -4.634738e+00 1.202875e+01 1.039323e+01 0 -1 0 -5.644233e-01 1.493683e-01 -5.774129e-01 -5.707100e-01
104 2 3 -4.502429e+00 1.172464e+01 1.053715e+01 0 -1 0 -2.302203e-01 -1.028783e-01 9.031201e-01 -3.475467e-01
105 2 3 -4.556398e+00 1.127466e+01 1.040686e+01 0 -1 0 1.401946e-02 -2.980735e-01 -9.166309e-01 2.659765e-01
106 2 2 -4.728712e+00 1.095116e+01 1.009497e+01 0 -1 0 2.454629e-02 -5.714100e-01 -7.765559e-01 2.642896e-01
107 2 3 -4.974917e+00 1.071810e+01 9.938473e+00 0 -1 0 -6.376711e-02 -8.186718e-01 -4.685740e-01 3.258046e-01
108 2 4 -5.407390e+00 1.072188e+01 9.721038e+00 0 -1 0 1.903160e-01 9.145474e-01 1.154086e-01 -3.377332e-01
109 2 3 -6.144997e+00 9.483366e+00 9.683529e+00 0 -1 0 1.013939e-02 -1.373725e-01 9.476923e-01 -2.879327e-01
110 2 2 -6.426443e+00 9.920434e+00 8.380831e+00 0 -1 0 -4.450861e-01 -4.346155e-01 -7.223554e-01 -3.020106e-01
111 2 2 -6.819408e+00 8.878346e+00 8.241857e+00 0 -1 0 -4.562635e-01 -3.073526e-01 5.367179e-01 6.397592e-01
112 2 3 -6.701454e+00 8.802336e+00 8.202816e+00 0 -1 0 9.345535e-01 6.070200e-03 -3.305386e-01 1.315949e-01
113 2 3 -7.601925e+00 9.773067e+00 7.843928e+00 0 -1 0 2.496559e-01 -6.946249e-01 4.650657e-02 6.730567e-01
114 2 2 -8.271523e+00 8.928254e+00 8.293726e+00 0 -1 0 1.057441e-01 2.330777e-01 -1.145391e-01 -9.598822e-01
115 2 4 -8.544162e+00 9.216339e+00 8.523296e+00 0 -1 0 -4.373283e-01 -2.128857e-01 2.030755e-01 8.498141e-01
116 2 4 -9.179223e+00 9.406509e+00 8.386108e+00 0 -1 0 4.119730e-01 3.537130e-01 -2.660387e-01 -7.964853e-01
117 2 1 -9.190499e+00 1.042867e+01 9.380099e+00 0 -1 0 -5.857324e-01 2.307070e-01 6.063518e-01 -4.858285e-01
118 2 1 -9.771916e+00 1.121781e+01 9.162394e+00 0 -1 0 -1.959567e-01 -5.591414e-01 -1.562047e-01 -7.902923e-01
119 2 1 -9.363550e+00 1.150145e+01 9.333721e+00 0 -1 0 -1.352182e-01 4.983774e-01 -7.123611e-02 8.533824e-01
120 2 1 -9.138491e+00 1.165156e+01 9.742678e+00 0 -1 0 -5.180378e-01 3.554704e-01 -4.150529e-01 6.580340e-01
121 2 3 -8.980028e+00 1.192332e+01 9.939498e+00 0 -1 0 -5.786221e-01 -6.304881e-01 5.172219e-01 1.275515e-02
122 2 1 -8.934070e+00 1.320191e+01 1.025226e+01 0 -1 0 6.419348e-01 3.309540e-01 3.331043e-02 6.908543e-01
123 2 4 -9.517726e+00 1.295105e+01 1.133814e+01 0 -1 0 -4.954929e-01 -5.737622e-02 5.048447e-01 -7.045045e-01
124 2 1 -9.530039e+00 1.259798e+01 1.166427e+01 0 -1 0 2.275564e-01 -2.277714e-01 -5.417892e-01 7.764037e-01
125 2 4 -9.951450e+00 1.222616e+01 1.194407e+01 0 -1 0 -2.741106e-01 4.545128e-01 4.822319e-01 -6.969462e-01
126 2 2 -1.040528e+01 1.154668e+01 1.125270e+01 0 -1 0 6.517403e-01 1.857171e-01 6.420369e-01 3.585140e-01
127 2 4 -1.018721e+01 1.180018e+01 1.261557e+01 0 -1 0 -8.547282e-01 5.061949e-01 -5.398038e-02 -1.014528e-01
128 2 4 -1.076994e+01 1.204422e+01 1.303856e+01 0 -1 0 -5.312536e-01 -7.816811e-02 -6.150854e-01 5.773467e-01
129 2 1 -1.037154e+01 1.206494e+01 1.346905e+01 0 -1 0 6.279128e-03 -9.992724e-01 2.614408e-02 2.705187e-02
130 2 2 -1.072520e+01 1.062555e+01 1.404293e+01 0 -1 0 -5.367579e-01 -1.313271e-01 8.331147e-01 2.374937e-02
131 2 3 -1.136566e+01 1.039059e+01 1.442129e+01 0 -1 0 -1.537380e-01 -2.569918e-01 7.584929e-01 -5.787990e-01
132 2 4 -1.195713e+01 1.051227e+01 1.458308e+01 0 -1 0 -6.423242e-01 -1.824003e-01 -8.738574e-02 7.392655e-01
133 2 4 -1.231725e+01 1.018265e+01 1.480671e+01 0 -1 0 9.372101e-01 1.620860e-01 6.977274e-03 -3.087340e-01
134 2 3 -1.246554e+01 1.078716e+01 1.540689e+01 0 -1 0 7.900174e-01 -3.625377e-01 1.228404e-01 4.789042e-01
135 2 4 -1.206029e+01 1.096516e+01 1.565204e+01 0 -1 0 -5.440624e-01 7.402654e-02 -1.683857e-01 -8.186345e-01
136 2 3 -1.217343e+01 9.998503e+00 1.644079e+01 0 -1 0 -6.622604e-01 5.537887e-01 4.780714e-01 -1.617932e-01
137 2 1 -1.288404e+01 8.982878e+00 1.612285e+01 0 -1 0 3.450939e-01 1.498006e-01 7.068019e-01 -5.990835e-01
138 2 3 -1.199977e+01 8.089846e+00 1.601493e+01 0 -1 0 -3.631648e-01 3.827379e-01 -8.102926e-01 -2.550468e-01
139 2 2 -1.183435e+01 8.198985e+00 1.552218e+01 0 -1 0 -1.856888e-01 3.043756e-01 -8.943526e-01 -2.702010e-01
140 2 3 -1.159896e+01 8.235564e+00 1.515430e+01 0 -1 0 -1.532628e-01 -1.709744e-01 -9.140250e-01 -3.344197e-01
141 2 1 -1.150417e+01 8.239328e+00 1.460369e+01 0 -1 0 -5.403354e-03 -4.786902e-01 -8.252143e-01 -2.997463e-01
142 2 2 -1.172722e+01 8.287061e+00 1.416424e+01 0 -1 0 -7.095528e-02 7.349291e-01 6.055891e-01 2.968272e-01
143 2 4 -1.165191e+01 7.896385e+00 1.369267e+01 0 -1 0 2.078846e-01 -5.307485e-01 -1.342550e-02 -8.215289e-01
144 2 4 -1.120084e+01 7.380505e+00 1.290577e+01 0 -1 0 -2.755162e-01 -5.978721e-01 -6.589502e-01 -3.639017e-01
145 2 1 -1.097266e+01 7.623895e+00 1.244875e+01 0 -1 0 1.277913e-01 7.470658e-01 3.425130e-01 5.552000e-01
146 2 1 -1.067157e+01 7.935547e+00 1.222016e+01 0 -1 0 8.965786e-02 -7.990185e-01 -1.310875e-01 -5.799542e-01
147 2 1 -1.002011e+01 6.534044e+00 1.171447e+01 0 -1 0 -3.624875e-01 -4.793171e-01 7.389318e-01 3.046929e-01
148 2 2 -1.021300e+01 6.375564e+00 1.121190e+01 0 -1 0 -4.348282e-01 -2.893341e-01 8.452515e-01 1.129605e-01
149 2 4 -1.063015e+01 6.380611e+00 1.063357e+01 0 -1 0 4.720912e-01 1.646295e-01 -8.573184e-01 -1.226055e-01
150 2 1 -1.043791e+01 6.599239e+00 9.527152e+00 0 -1 0 -4.610704e-01 -5.949040e-01 -6.583253e-01 -1.054207e-02
151 2 1 -1.049798e+01 6.173526e+00 1.021384e+01 0 -1 0 1.982424e-01 -9.530084e-01 1.004034e-01 -2.058981e-01
152 2 1 -1.052008e+01 5.619489e+00 9.191804e+00 0 -1 0 -6.101802e-01 -3.876478e-01 -6.482906e-01 2.390159e-01
153 2 4 -1.043507e+01 5.173158e+00 9.014864e+00 0 -1 0 6.756756e-01 5.934191e-01 4.349255e-01 4.643331e-02
154 2 1 -1.026664e+01 4.782929e+00 8.741910e+00 0 -1 0 5.621262e-01 7.422846e-01 2.272958e-01 2.852442e-01
155 2 2 -9.889462e+00 4.571304e+00 8.420522e+00 0 -1 0 -3.632418e-01 -7.749158e-01 6.362449e-02 -5.133350e-01
156 2 4 -1.002062e+01 4.311310e+00 7.552322e+00 0 -1 0 1.467559e-01 7.099885e-01 -6.887506e-01 1.298377e-03
157 2 3 -9.804228e+00 4.173148e+00 7.185646e+00 0 -1 0 1.049998e-01 3.730507e-01 -9.216110e-01 2.101070e-02
158 2 2 -9.119929e+00 4.834188e+00 6.111213e+00 0 -1 0 4.341071e-01 7.704651e-01 -1.692720e-01 -4.350651e-01
159 2 1 -9.347922e+00 4.633995e+00 5.673382e+00 0 -1 0 5.808104e-01 6.280553e-01 -4.961144e-01 -1.485808e-01
160 2 3 -9.451316e+00 4.283883e+00 5.310151e+00 0 -1 0 -5.031436e-01 -4.967062e-01 6.951356e-01 -1.300614e-01
161 2 1 -9.801569e+00 5.401865e+00 4.558828e+00 0 -1 0 3.509289e-01 3.303837e-01 4.870521e-02 8.748276e-01
162 2 1 -9.438576e+00 5.541213e+00 4.820791e+00 0 -1 0 -8.866334e-02 -2.683200e-01 -4.386271e-02 -9.582376e-01
163 2 4 -9.305312e+00 6.064051e+00 4.266352e+00 0 -1 0 -7.211946e-02 -4.150694e-01 -1.759208e-01 -8.897011e-01
164 2 4 -8.503260e+00 5.580165e+00 3.874526e+00 0 -1 0 1.717296e-01 -4.138143e-01 1.247214e-01 8.852747e-01
165 2 3 -8.352181e+00 5.932750e+00 4.655996e+00 0 -1 0 -1.843041e-01 -3.434489e-01 -2.154355e-01 -8.953560e-01
166 2 3 -7.979648e+00 5.990606e+00 4.556268e+00 0 -1 0 -5.685687e-01 7.551439e-01 -2.997351e-01 -1.290199e-01
167 2 4 -7.603759e+00 6.323708e+00 4.506555e+00 0 -1 0 -4.342290e-01 5.298322e-01 -6.085774e-01 -4.004453e-01
168 2 2 -7.397703e+00 6.731245e+00 4.339683e+00 0 -1 0 3.273478e-01 -2.704495e-01 7.582754e-01 4.946907e-01
169 2 2 -8.355277e+00 7.473422e+00 5.025391e+00 0 -1 0 -3.213245e-01 2.204923e-01 4.367752e-01 8.107781e-01
170 2 1 -8.315641e+00 7.937790e+00 4.219649e+00 0 -1 0 3.117863e-02 -4.482979e-01 -3.642996e-01 8.156854e-01
171 2 1 -8.028580e+00 8.548214e+00 3.514473e+00 0 -1 0 -4.962030e-01 -3.269189e-01 -5.030273e-01 -6.275907e-01
172 2 4 -8.611192e+00 8.796505e+00 3.100018e+00 0 -1 0 -3.000209e-02 1.272274e-01 -6.705364e-01 -7.302698e-01
173 2 4 -8.664803e+00 9.207271e+00 2.991288e+00 0 -1 0 3.071952e-01 -1.328600e-01 -5.419295e-01 -7.709032e-01
174 2 1 -8.944251e+00 9.558334e+00 2.960172e+00 0 -1 0 5.111208e-01 -4.627673e-01 -4.116524e-01 -5.959399e-01
175 2 1 -8.491320e+00 1.015823e+01 2.108287e+00 0 -1 0 2.063690e-01 1.695817e-01 -5.633035e-01 -7.818843e-01
176 2 2 -8.817616e+00 1.047280e+01 1.838123e+00 0 -1 0 4.663865e-01 -1.276897e-01 -6.737835e-01 -5.587439e-01
177 2 2 -9.270457e+00 1.069156e+01 1.869446e+00 0 -1 0 6.895752e-01 -3.631945e-01 -5.616058e-01 -2.778034e-01
178 2 1 -9.676978e+00 1.076617e+01 2.046704e+00 0 -1 0 -6.396180e-01 5.734329e-01 4.954775e-01 -1.287070e-01
179 2 4 -9.631983e+00 1.063858e+01 1.016378e+00 0 -1 0 9.577319e-02 -6.533698e-01 -7.325186e-01 -1.653839e-01
180 2 1 -9.610244e+00 9.586981e+00 9.501381e-01 0 -1 0 -6.716122e-01 2.841014e-01 6.646779e-01 1.625632e-01
181 2 4 -9.272814e+00 8.748041e+00 4.628428e-01 0 -1 0 9.469911e-01 5.536888e-02 -3.087396e-01 6.944025e-02
182 2 2 -8.773771e+00 8.879655e+00 7.963398e-01 0 -1 0 -1.353960e-01 9.647919e-01 -1.204525e-01 -1.906194e-01
183 2 3 -9.993662e+00 8.625894e+00 1.414716e+00 0 -1 0 -7.448690e-01 2.346486e-01 4.679630e-01 4.136675e-01
184 2 4 -1.039071e+01 8.729718e+00 1.439665e+00 0 -1 0 8.881268e-01 -1.895109e-01 -4.010004e-01 -1.204781e-01
185 2 3 -1.061235e+01 8.504852e+00 1.823212e+00 0 -1 0 -7.766027e-01 3.449527e-01 4.051485e-01 -3.372694e-01
186 2 1 -1.099327e+01 8.527961e+00 2.191715e+00 0 -1 0 6.268862e-01 -5.096531e-01 -2.392965e-01 5.385208e-01
187 2 1 -1.132735e+01 8.806732e+00 2.312873e+00 0 -1 0 7.738846e-01 -4.237013e-01 -1.692065e-01 4.392596e-01
188 2 2 -1.175165e+01 8.073738e+00 1.424802e+00 0 -1 0 6.479895e-01 7.545756e-01 -1.034595e-01 4.627270e-03
189 2 4 -1.184645e+01 7.653266e+00 1.139707e+00 0 -1 0 -5.740466e-01 -7.863020e-01 1.445536e-01 -1.769292e-01
190 2 4 -1.286092e+01 7.020206e+00 2.146375e+00 0 -1 0 4.978474e-01 -3.456133e-01 -3.491621e-01 -7.146924e-01
191 2 1 -1.259356e+01 6.765985e+00 1.557725e+00 0 -1 0 1.297405e-01 -6.399436e-02 -2.859395e-02 -9.890675e-01
192 2 4 -1.161137e+01 5.598516e+00 9.967537e-01 0 -1 0 -8.537119e-01 -2.955691e-01 4.081856e-01 1.311465e-01
193 2 4 -1.198230e+01 5.268649e+00 1.137927e+00 0 -1 0 -9.255455e-01 -6.468661e-02 3.561008e-01 -1.112358e-01
194 2 1 -1.210390e+01 5.014973e+00 1.491970e+00 0 -1 0 7.664662e-01 4.224979e-03 -3.024721e-01 5.665883e-01
195 2 3 -1.241363e+01 4.527638e+00 4.284867e-01 0 -1 0 -1.971714e-01 7.853668e-03 9.145974e-01 3.529495e-01
196 2 4 -1.236043e+01 4.762555e+00 4.563276e-01 0 -1 0 3.342927e-02 9.792095e-01 -1.742764e-01 -9.827994e-02
197 2 2 -1.348081e+01 4.414904e+00 1.542944e+00 0 -1 0 2.404583e-01 -1.171853e-01 2.751476e-01 -9.234399e-01
198 2 4 -1.340456e+01 4.274498e+00 1.959985e+00 0 -1 0 6.470952e-01 -3.538880e-03 3.610183e-01 -6.715066e-01
199 2 3 -1.235398e+01 4.178233e+00 2.550772e+00 0 -1 0 -1.470768e-01 -5.635254e-01 8.101642e-01 -6.664456e-02
200 2 4 -1.187329e+01 4.153452e+00 2.745863e+00 0 -1 0 8.400604e-01 1.416348e-01 -4.110658e-01 -3.244426e-01
