ITEM: TIMESTEP
215000000
ITEM: NUMBER OF ATOMS
200
ITEM: BOX BOUNDS pp pp pp
-2.0000000000000000e+01 2.0000000000000000e+01
-2.0000000000000000e+01 2.0000000000000000e+01
-2.0000000000000000e+01 2.0000000000000000e+01
ITEM: ATOMS id mol type x y z ix iy iz c_quat[1] c_quat[2] c_quat[3] c_quat[4]
1 1 1 -8.360164e+00 1.578750e+01 -3.298141e+00 0 -1 0 -2.102146e-01 -5.460255e-01 3.654955e-01 7.239330e-01
2 1 2 -8.432084e+00 1.609784e+01 -2.435436e+00 0 -1 0 5.901308e-01 4.491902e-01 -6.386773e-01 2.050976e-01
3 1 1 -8.796295e+00 1.561089e+01 -2.293534e+00 0 -1 0 -7.102261e-01 -4.033824e-01 5.365337e-01 -2.121159e-01
4 1 3 -9.445877e+00 1.564130e+01 -2.568393e+00 0 -1 0 -5.924318e-01 2.749925e-01 4.937790e-01 -5.740958e-01
5 1 1 -1.014126e+01 1.605702e+01 -3.034630e+00 0 -1 0 5.191288e-01 -5.711758e-01 -1.035029e-01 6.273362e-01
6 1 2 -1.026509e+01 1.650838e+01 -2.857884e+00 0 -1 0 -1.760273e-02 -4.532025e-01 1.650070e-01 8.758255e-01
7 1 4 -1.100033e+01 1.603333e+01 -1.827463e+00 0 -1 0 1.138773e-01 -3.719939e-01 6.044099e-01 -6.952274e-01
8 1 1 -1.062269e+01 1.569250e+01 -1.556632e+00 0 -1 0 -2.174252e-01 1.313097e-01 -6.294357e-01 7.343669e-01
9 1 1 -1.105860e+01 1.520262e+01 -1.572616e+00 0 -1 0 -6.226552e-01 -1.593307e-01 9.817700e-02 7.597865e-01
10 1 4 -1.064057e+01 1.641135e+01 -8.310357e-01 0 -1 0 -6.144522e-02 5.516248e-01 3.273047e-01 -7.647262e-01
11 1 1 -9.908979e+00 1.620769e+01 1.712143e-01 0 -1 0 -6.938634e-01 -2.576545e-01 2.309771e-01 -6.315199e-01
12 1 1 -1.072874e+01 1.659735e+01 2.317460e-01 0 -1 0 3.865111e-01 8.584414e-01 2.646195e-01 -2.089592e-01
13 1 3 -1.142405e+01 1.632790e+01 7.617216e-01 0 -1 0 -1.246623e-01 5.193294e-01 2.177589e-01 -8.169072e-01
14 1 4 -1.195865e+01 1.652145e+01 8.009359e-01 0 -1 0 2.440725e-01 6.207443e-01 -4.915740e-02 -7.434303e-01
15 1 4 -1.272667e+01 1.642055e+01 1.909067e+00 0 -1 0 3.083768e-01 -1.352664e-01 -8.247157e-01 4.543684e-01
16 1 2 -1.315494e+01 1.752696e+01 1.881299e+00 0 -1 0 -1.672945e-01 4.343775e-01 5.184949e-01 -7.172808e-01
17 1 1 -1.327448e+01 1.726668e+01 1.268038e+00 0 -1 0 -2.878091e-01 7.831351e-01 4.966967e-01 -2.390768e-01
18 1 2 -1.320605e+01 1.618841e+01 3.728708e-01 0 -1 0 1.760653e-01 -6.029221e-01 5.102565e-01 5.874727e-01
19 1 3 -1.382062e+01 1.522560e+01 8.012140e-01 0 -1 0 5.860549e-01 1.410656e-01 7.977879e-01 1.321513e-02
20 1 1 -1.360042e+01 1.487933e+01 5.648006e-01 0 -1 0 5.480242e-01 5.182148e-01 5.861341e-01 2.959218e-01
21 1 4 -1.332661e+01 1.478561e+01 1.172070e-01 0 -1 0 -3.677202e-01 -7.391415e-01 -2.584461e-01 -5.016547e-01
22 1 1 -1.272810e+01 1.488708e+01 7.844041e-02 0 -1 0 2.239956e-01 6.917901e-01 3.017468e-02 6.858148e-01
23 1 4 -1.217686e+01 1.470362e+01 1.220988e-01 0 -1 0 -2.482362e-01 -5.350267e-01 -1.760394e-01 -7.881214e-01
24 1 3 -1.269426e+01 1.453286e+01 5.953441e-01 0 -1 0 -2.537484e-01 8.417891e-02 1.489559e-01 -9.520177e-01
25 1 3 -1.315285e+01 1.369423e+01 1.210802e+00 0 -1 0 -2.810252e-01 3.243736e-01 4.512440e-01 7.824228e-01
26 1 4 -1.309792e+01 1.370211e+01 8.246979e-01 0 -1 0 -4.059521e-01 5.299285e-01 3.782747e-02 -7.436046e-01
27 1 4 -1.321840e+01 1.214593e+01 1.057778e+00 0 -1 0 -8.405950e-01 -3.846681e-01 3.613210e-01 1.219739e-01
28 1 1 -1.329417e+01 1.168131e+01 1.096236e+00 0 -1 0 -7.416203e-01 -9.132506e-02 6.008096e-01 -2.840543e-01
29 1 1 -1.367145e+01 1.075503e+01 8.319272e-01 0 -1 0 -8.308509e-01 3.879453e-02 -2.891908e-01 4.738676e-01
30 1 4 -1.361111e+01 1.039333e+01 1.285683e+00 0 -1 0 9.180183e-01 1.239967e-01 2.358159e-01 -2.936971e-01
31 1 4 -1.355505e+01 9.971722e+00 1.460617e+00 0 -1 0 -9.542126e-01 -2.749836e-01 -1.161765e-01 1.911369e-02
32 1 3 -1.332419e+01 9.560840e+00 1.716992e+00 0 -1 0 -8.332061e-01 -3.337885e-01 -1.122670e-01 -4.263203e-01
33 1 3 -1.394026e+01 8.579388e+00 1.086656e+00 0 -1 0 6.732627e-01 3.594095e-01 -2.815120e-01 -5.816297e-01
34 1 1 -1.349152e+01 7.782468e+00 1.036397e+00 0 -1 0 -7.269578e-01 -5.951714e-01 3.179535e-01 1.273146e-01
35 1 2 -1.366218e+01 7.306196e+00 9.088172e-01 0 -1 0 7.409097e-01 4.914621e-01 -4.352154e-01 1.417930e-01
36 1 2 -1.416230e+01 6.449227e+00 1.426691e-01 0 -1 0 2.715800e-01 5.002023e-01 -6.427001e-01 -5.128144e-01
37 1 1 -1.527595e+01 6.321094e+00 7.291518e-01 0 -1 0 4.847167e-01 -1.022162e-02 3.742444e-01 -7.904975e-01
38 1 1 -1.539409e+01 5.958400e+00 1.048113e+00 0 -1 0 7.074737e-01 2.419591e-01 2.859044e-01 -5.993291e-01
39 1 4 -1.504022e+01 5.838501e+00 1.944151e+00 0 -1 0 -5.608194e-01 1.478294e-01 4.819928e-01 -6.567428e-01
40 1 4 -1.529251e+01 5.731080e+00 2.383682e+00 0 -1 0 2.770076e-01 -4.071751e-01 -3.500601e-01 7.968270e-01
41 1 2 -1.576267e+01 5.897357e+00 2.652346e+00 0 -1 0 1.066677e-01 5.397629e-01 2.989866e-01 -7.796698e-01
42 1 4 -1.563186e+01 5.871719e+00 3.113478e+00 0 -1 0 -7.001170e-01 5.464079e-01 -2.918271e-01 -3.551219e-01
43 1 3 -1.546784e+01 6.391212e+00 3.218218e+00 0 -1 0 -5.177577e-01 4.940576e-01 -5.208596e-01 -4.653379e-01
44 1 2 -1.549568e+01 6.728912e+00 4.001846e+00 0 -1 0 4.371963e-02 -5.531164e-01 -3.089656e-01 7.724578e-01
45 1 1 -1.540554e+01 6.772844e+00 4.062620e+00 0 -1 0 2.815761e-01 9.261107e-02 -6.708430e-01 -6.797851e-01
46 1 3 -1.415403e+01 7.338038e+00 4.833981e+00 0 -1 0 -8.091434e-01 1.164363e-01 4.299447e-01 -3.832455e-01
47 1 4 -1.371636e+01 7.389512e+00 5.019315e+00 0 -1 0 6.903837e-01 -2.794017e-01 -9.539213e-02 6.604585e-01
48 1 1 -1.365323e+01 7.531058e+00 5.420962e+00 0 -1 0 4.721438e-01 -1.888042e-01 3.542100e-02 8.603363e-01
49 1 4 -1.373968e+01 7.938901e+00 5.880106e+00 0 -1 0 -1.097938e-01 1.713063e-01 -1.627520e-01 -9.654591e-01
50 1 4 -1.399259e+01 8.360926e+00 6.153920e+00 0 -1 0 -3.141105e-01 -1.022263e-01 6.996534e-02 9.412700e-01
51 1 4 -1.309086e+01 9.394814e+00 6.148308e+00 0 -1 0 -2.114999e-01 5.966870e-01 -1.553384e-01 -7.583551e-01
52 1 1 -1.333498e+01 8.875557e+00 7.238862e+00 0 -1 0 -6.285609e-01 -2.021995e-01 3.439431e-01 -6.676299e-01
53 1 3 -1.319220e+01 8.678553e+00 7.644835e+00 0 -1 0 -3.271301e-01 -7.427769e-02 3.889893e-01 -8.579954e-01
54 1 4 -1.319840e+01 8.504300e+00 8.206732e+00 0 -1 0 1.554579e-01 -1.808768e-01 -3.679610e-01 8.987331e-01
55 1 4 -1.345699e+01 8.599861e+00 8.652561e+00 0 -1 0 2.255924e-01 2.663024e-01 1.867672e-01 -9.183187e-01
56 1 4 -1.261938e+01 8.803600e+00 9.360180e+00 0 -1 0 -6.278037e-01 4.513895e-01 4.733396e-01 4.219711e-01
57 1 1 -1.293072e+01 9.160712e+00 9.572588e+00 0 -1 0 7.846811e-01 -5.466666e-01 -2.237563e-01 -1.880538e-01
58 1 1 -1.308958e+01 9.437474e+00 9.990187e+00 0 -1 0 8.594578e-01 -4.990486e-01 -2.689863e-02 1.075142e-01
59 1 3 -1.301300e+01 9.821048e+00 1.043853e+01 0 -1 0 -7.850873e-01 5.247368e-01 -2.495488e-01 -2.145101e-01
60 1 4 -1.276648e+01 1.016692e+01 1.070150e+01 0 -1 0 6.978565e-01 -4.059327e-01 4.108581e-01 4.235688e-01
61 1 2 -1.232602e+01 1.045953e+01 1.077770e+01 0 -1 0 5.415246e-01 -1.673287e-01 5.395683e-01 6.225900e-01
62 1 3 -1.191255e+01 1.084021e+01 1.073484e+01 0 -1 0 -3.463418e-01 5.699466e-02 -6.485319e-01 -6.754297e-01
63 1 2 -1.162323e+01 1.116310e+01 1.057070e+01 0 -1 0 1.842168e-01 1.615529e-01 6.613755e-01 7.089056e-01
64 1 4 -1.142589e+01 1.161598e+01 1.045719e+01 0 -1 0 8.210297e-02 -2.398600e-01 -6.375127e-01 -7.275327e-01
65 1 2 -1.147992e+01 1.213501e+01 1.020882e+01 0 -1 0 3.609283e-01 -3.852603e-01 -4.517389e-01 -7.191921e-01
66 1 1 -1.160804e+01 1.265286e+01 1.038081e+01 0 -1 0 6.266835e-01 -4.145410e-01 -3.354106e-01 -5.682634e-01
67 1 2 -1.164721e+01 1.317543e+01 1.079264e+01 0 -1 0 -7.177340e-01 4.053924e-01 1.000823e-01 5.572239e-01
68 1 1 -1.178077e+01 1.340907e+01 1.116157e+01 0 -1 0 8.737068e-01 -4.286160e-01 9.294302e-03 -2.298662e-01
69 1 1 -1.181653e+01 1.353344e+01 1.167340e+01 0 -1 0 9.207046e-01 -3.300393e-01 2.081043e-01 8.349904e-03
70 1 2 -1.156397e+01 1.376058e+01 1.211654e+01 0 -1 0 -8.645147e-01 3.268976e-01 -3.573454e-01 -1.343746e-01
71 1 3 -1.109229e+01 1.387922e+01 1.236627e+01 0 -1 0 7.471461e-01 -2.501927e-01 4.683138e-01 3.998230e-01
72 1 4 -1.057372e+01 1.404602e+01 1.245696e+01 0 -1 0 6.299372e-01 -6.197160e-02 5.202334e-01 5.733200e-01
73 1 1 -1.013864e+01 1.435141e+01 1.246155e+01 0 -1 0 4.736414e-01 3.637388e-02 6.742202e-01 5.654802e-01
74 1 1 -9.813747e+00 1.471429e+01 1.213478e+01 0 -1 0 1.740065e-01 2.970571e-01 6.164662e-01 7.081301e-01
75 1 3 -9.669748e+00 1.523146e+01 1.185067e+01 0 -1 0 -8.067275e-02 3.712339e-01 5.697633e-01 7.287298e-01
76 1 1 -9.647860e+00 1.568388e+01 1.174763e+01 0 -1 0 3.197000e-01 -5.145847e-01 -4.876372e-01 -6.286528e-01
77 1 4 -9.743316e+00 1.620118e+01 1.174310e+01 0 -1 0 4.987658e-01 -6.183607e-01 -2.825605e-01 -5.376079e-01
78 1 1 -9.871566e+00 1.661251e+01 1.201885e+01 0 -1 0 -7.372375e-01 5.934034e-01 7.789599e-02 3.135051e-01
79 1 4 -1.074032e+01 1.742919e+01 1.158478e+01 0 -1 0 -3.111537e-01 4.492302e-01 8.374591e-01 6.153663e-03
80 1 2 -1.079066e+01 1.763015e+01 1.023441e+01 0 -1 0 3.281443e-01 5.960122e-01 -1.543775e-02 -7.327022e-01
81 1 4 -1.142499e+01 1.758025e+01 1.055677e+01 0 -1 0 6.402338e-02 -4.969232e-01 -1.912748e-01 -8.440274e-01
82 1 4 -1.225044e+01 1.729862e+01 1.058788e+01 0 -1 0 -5.226022e-01 4.649518e-01 7.087442e-01 9.158799e-02
83 1 4 -1.253265e+01 1.759145e+01 9.854222e+00 0 -1 0 -2.149383e-02 9.714893e-01 2.361040e-01 -1.209026e-03
84 1 4 -1.291238e+01 1.740228e+01 9.668946e+00 0 -1 0 4.171429e-01 -5.797408e-01 6.989328e-01 -3.722056e-02
85 1 1 -1.367026e+01 1.770172e+01 9.529341e+00 0 -1 0 3.452113e-01 -5.061188e-01 5.807248e-01 5.361265e-01
86 1 1 -1.461320e+01 1.695179e+01 9.548436e+00 0 -1 0 7.880204e-01 3.715104e-01 7.128663e-02 -4.857181e-01
87 1 3 -1.526116e+01 1.705438e+01 9.373873e+00 0 -1 0 2.090106e-01 2.387047e-01 -9.277790e-01 -1.963691e-01
88 1 2 -1.542786e+01 1.751525e+01 9.926953e+00 0 -1 0 3.886647e-01 -9.039401e-01 -1.761510e-01 2.833444e-02
89 1 2 -1.608096e+01 1.730429e+01 9.448180e+00 0 -1 0 -2.412181e-01 -6.155095e-01 5.478873e-01 5.126221e-01
90 1 3 -1.638900e+01 1.750385e+01 9.032673e+00 0 -1 0 -2.796101e-01 -4.703740e-01 7.393108e-01 3.924106e-01
91 1 3 -1.615279e+01 1.812542e+01 1.013540e+01 0 -1 0 -7.251414e-01 1.469088e-01 6.717339e-01 3.689462e-02
92 1 2 -1.706498e+01 1.845118e+01 1.016339e+01 0 -1 0 5.109010e-01 1.354843e-01 -8.241894e-02 -8.448854e-01
93 1 1 -1.746989e+01 1.867389e+01 1.055097e+01 0 -1 0 -7.355152e-01 -5.970246e-02 2.314076e-01 6.339586e-01
94 1 2 -1.784735e+01 1.863071e+01 1.092217e+01 0 -1 0 9.481511e-01 -1.549629e-01 -1.876938e-01 -2.043697e-01
95 1 3 -1.799202e+01 1.854844e+01 1.139878e+01 0 -1 0 -9.403443e-01 2.531779e-01 4.231173e-02 -2.233008e-01
96 1 2 -1.893016e+01 1.874185e+01 1.111618e+01 0 -1 0 5.455552e-02 3.073079e-01 -5.734622e-01 7.574475e-01
97 1 2 -1.929339e+01 1.794349e+01 1.038522e+01 0 -1 0 -2.247582e-01 -5.356364e-01 5.115538e-01 6.331589e-01
98 1 4 -1.965244e+01 1.810025e+01 1.001102e+01 0 -1 0 -5.116193e-01 -1.632461e-01 6.718869e-01 5.100631e-01
99 1 2 1.990349e+01 1.831053e+01 1.004488e+01 -1 -1 0 6.581679e-01 1.701951e-01 -6.622342e-01 -3.151102e-01
100 1 1 1.944765e+01 1.812165e+01 1.006188e+01 -1 -1 0 -7.127926e-01 -3.705820e-02 6.998393e-01 2.789910e-02
101 2 4 -3.103686e+00 1.216031e+01 1.934165e+01 0 -1 0 -4.670848e-01 -5.103372e-01 -6.626988e-01 -2.867370e-01
102 2 3 -3.649860e+00 1.149461e+01 1.985884e+01 0 -1 0 5.193480e-01 2.068045e-01 -8.245127e-01 8.768337e-02
103 2 1 -3.984871e+00 1.114929e+01 1.986857e+01 0 -1 0 4.116504e-01 -2.401596e-01 -8.619568e-01 1.729098e-01
104 2 3 -4.475473e+00 1.097728e+01 1.975991e+01 0 -1 0 4.130907e-01 -5.176238e-01 -6.936547e-01 2.833106e-01
105 2 3 -4.556228e+00 1.081159e+01 1.902706e+01 0 -1 0 -6.596102e-01 -6.847964e-01 -1.716719e-02 -3.093114e-01
106 2 2 -5.555925e+00 1.129243e+01 1.962714e+01 0 -1 0 4.601977e-01 -5.201003e-01 -6.727698e-01 -2.551364e-01
107 2 3 -5.878372e+00 1.175967e+01 1.957419e+01 0 -1 0 5.421771e-01 -7.536295e-01 -3.444989e-01 -1.393091e-01
108 2 4 -6.058220e+00 1.173505e+01 1.872777e+01 0 -1 0 4.153418e-01 -4.872818e-01 -2.833038e-01 -7.139934e-01
109 2 3 -5.747146e+00 1.271303e+01 1.891870e+01 0 -1 0 -2.547839e-01 -7.905828e-01 7.580677e-02 -5.516497e-01
110 2 2 -5.764609e+00 1.245026e+01 1.752289e+01 0 -1 0 4.747782e-03 6.701777e-01 -2.679190e-01 -6.921407e-01
111 2 2 -6.048621e+00 1.274833e+01 1.734834e+01 0 -1 0 3.970300e-01 3.850978e-01 -5.035973e-01 -6.636691e-01
112 2 3 -6.551874e+00 1.266559e+01 1.717156e+01 0 -1 0 -5.394513e-01 -1.537730e-01 7.281588e-01 3.938667e-01
113 2 3 -6.190498e+00 1.370816e+01 1.748293e+01 0 -1 0 -5.423723e-01 5.070898e-01 5.285683e-01 4.114703e-01
114 2 2 -5.216051e+00 1.406482e+01 1.648533e+01 0 -1 0 -1.582649e-01 -8.014767e-01 5.730698e-01 6.463979e-02
115 2 4 -6.249921e+00 1.464440e+01 1.687679e+01 0 -1 0 -5.743226e-01 3.068263e-01 -4.879057e-01 5.813426e-01
116 2 4 -5.676205e+00 1.586320e+01 1.575810e+01 0 -1 0 -1.834193e-01 -8.836082e-01 -3.423043e-02 4.294441e-01
117 2 1 -5.911769e+00 1.594666e+01 1.524545e+01 0 -1 0 4.151573e-01 8.069200e-01 -3.440370e-01 -2.411700e-01
118 2 1 -6.971006e+00 1.579547e+01 1.592930e+01 0 -1 0 2.067413e-01 2.742956e-01 -6.013842e-01 7.213577e-01
119 2 1 -7.234151e+00 1.596410e+01 1.475610e+01 0 -1 0 1.896714e-01 9.686810e-01 1.287414e-01 -9.543342e-02
120 2 1 -7.164879e+00 1.606271e+01 1.423614e+01 0 -1 0 2.511117e-01 9.518277e-01 -1.757076e-01 9.682409e-03
121 2 3 -7.738179e+00 1.557210e+01 1.311015e+01 0 -1 0 5.120638e-01 -5.695021e-02 8.192297e-01 2.518134e-01
122 2 1 -8.619043e+00 1.559507e+01 1.270414e+01 0 -1 0 -5.181257e-01 -3.704864e-01 -7.059459e-01 3.097192e-01
123 2 4 -8.628979e+00 1.516998e+01 1.243057e+01 0 -1 0 5.896059e-01 6.739557e-01 4.446297e-01 2.128471e-02
124 2 1 -9.393701e+00 1.590062e+01 1.288319e+01 0 -1 0 -9.207577e-02 -5.764892e-01 -4.031761e-01 7.047207e-01
125 2 4 -9.884541e+00 1.576114e+01 1.289551e+01 0 -1 0 -2.834882e-01 -6.930132e-01 -2.010375e-01 6.316257e-01
126 2 2 -1.038894e+01 1.548697e+01 1.275197e+01 0 -1 0 3.529901e-01 8.245761e-01 1.139628e-01 -4.271823e-01
127 2 4 -1.076242e+01 1.534242e+01 1.246659e+01 0 -1 0 -4.382680e-01 -8.482354e-01 1.420326e-01 2.612367e-01
128 2 4 -1.090325e+01 1.512433e+01 1.199685e+01 0 -1 0 4.877751e-01 7.923448e-01 -3.595958e-01 -7.039980e-02
129 2 1 -1.087984e+01 1.481368e+01 1.161569e+01 0 -1 0 5.049002e-01 6.184534e-01 -5.957082e-01 8.787986e-02
130 2 2 -1.084997e+01 1.438110e+01 1.132402e+01 0 -1 0 3.980351e-01 4.264266e-01 -7.494697e-01 3.130872e-01
131 2 3 -1.072788e+01 1.390026e+01 1.126142e+01 0 -1 0 2.658177e-01 2.198187e-01 -8.049812e-01 4.827276e-01
132 2 4 -1.068345e+01 1.337500e+01 1.137253e+01 0 -1 0 6.521080e-02 -5.732390e-02 -8.518435e-01 5.165502e-01
133 2 4 -1.076803e+01 1.290247e+01 1.142667e+01 0 -1 0 -8.725540e-03 2.892787e-01 7.669156e-01 -5.727846e-01
134 2 3 -1.111049e+01 1.242923e+01 1.149068e+01 0 -1 0 9.343523e-03 4.710417e-01 6.395102e-01 -6.075024e-01
135 2 4 -1.156388e+01 1.217365e+01 1.144946e+01 0 -1 0 1.672471e-01 6.906644e-01 4.531940e-01 -5.381694e-01
136 2 3 -1.203396e+01 1.204611e+01 1.125200e+01 0 -1 0 -3.578265e-01 -7.858333e-01 -2.018325e-01 4.622661e-01
137 2 1 -1.243112e+01 1.194382e+01 1.095339e+01 0 -1 0 -3.405702e-01 -8.802204e-01 3.233827e-02 3.289047e-01
138 2 3 -1.275481e+01 1.160137e+01 1.054894e+01 0 -1 0 -4.678554e-01 -8.740068e-01 1.156167e-01 6.209884e-02
139 2 2 -1.280226e+01 1.130298e+01 1.007820e+01 0 -1 0 -5.060281e-01 -7.634184e-01 3.712965e-01 -1.525345e-01
140 2 3 -1.261230e+01 1.100225e+01 9.725678e+00 0 -1 0 4.263696e-01 6.504510e-01 -5.365069e-01 3.275405e-01
141 2 1 -1.236167e+01 1.046737e+01 9.664793e+00 0 -1 0 3.406685e-01 4.799007e-01 -6.201168e-01 5.187441e-01
142 2 2 -1.208466e+01 9.977273e+00 9.693927e+00 0 -1 0 2.056030e-01 3.144875e-01 -6.223805e-01 6.866350e-01
143 2 4 -1.191435e+01 9.608012e+00 1.001682e+01 0 -1 0 -3.154281e-02 2.323992e-02 -6.720588e-01 7.394605e-01
144 2 4 -1.196045e+01 9.139433e+00 1.025168e+01 0 -1 0 -2.099514e-01 -2.353986e-01 -6.607323e-01 6.811320e-01
145 2 1 -1.215180e+01 8.663022e+00 1.040710e+01 0 -1 0 3.607412e-01 4.502811e-01 6.166322e-01 -5.356095e-01
146 2 1 -1.093702e+01 8.665289e+00 1.085917e+01 0 -1 0 -3.690815e-01 5.750357e-01 -5.187072e-01 -5.138635e-01
147 2 1 -1.076156e+01 8.784655e+00 1.147897e+01 0 -1 0 -7.476863e-02 3.833601e-01 -7.660402e-01 5.105165e-01
148 2 2 -1.049273e+01 8.396885e+00 1.154124e+01 0 -1 0 -2.616407e-01 5.187016e-02 -8.710865e-01 4.123857e-01
149 2 4 -1.031389e+01 7.956936e+00 1.149545e+01 0 -1 0 -4.408580e-01 -3.187861e-01 -8.041346e-01 2.395562e-01
150 2 1 -1.016407e+01 7.670482e+00 1.171174e+01 0 -1 0 2.365169e-01 -7.010217e-01 -5.809748e-01 -3.392590e-01
151 2 1 -9.530792e+00 6.707514e+00 1.108388e+01 0 -1 0 -7.646994e-01 -5.827105e-01 -2.051886e-01 -1.832511e-01
152 2 1 -9.161780e+00 6.343983e+00 1.089157e+01 0 -1 0 6.079407e-01 6.167639e-01 -4.394559e-02 4.980755e-01
153 2 4 -8.975106e+00 5.600622e+00 1.184804e+01 0 -1 0 -8.187834e-01 -7.229693e-02 5.529142e-01 -1.365755e-01
154 2 1 -9.267045e+00 5.304733e+00 1.221310e+01 0 -1 0 7.826450e-01 -1.509751e-01 -4.057762e-01 4.472349e-01
155 2 2 -9.450765e+00 5.240712e+00 1.270354e+01 0 -1 0 -5.335025e-01 2.766014e-01 2.662124e-01 -7.536562e-01
156 2 4 -9.589168e+00 5.274909e+00 1.308264e+01 0 -1 0 1.852465e-01 -3.177566e-01 -1.480691e-01 9.180359e-01
157 2 3 -8.442250e+00 5.138186e+00 1.324893e+01 0 -1 0 3.865281e-01 8.173116e-01 -4.196274e-01 8.068747e-02
158 2 2 -8.205234e+00 4.918961e+00 1.286298e+01 0 -1 0 4.068353e-01 5.105556e-01 -7.308145e-01 1.993194e-01
159 2 1 -8.149627e+00 4.447966e+00 1.262100e+01 0 -1 0 -2.496942e-01 -1.569690e-01 8.788034e-01 -3.751241e-01
160 2 3 -8.320768e+00 3.876798e+00 1.258555e+01 0 -1 0 1.491319e-01 -2.662358e-01 -8.606441e-01 4.076395e-01
161 2 1 -7.191679e+00 3.414840e+00 1.233884e+01 0 -1 0 2.099490e-01 -3.559957e-01 8.555523e-01 3.117992e-01
162 2 1 -7.959811e+00 3.338771e+00 1.246600e+01 0 -1 0 1.677007e-01 4.714315e-01 2.894284e-01 -8.160024e-01
163 2 4 -8.483538e+00 3.262273e+00 1.249707e+01 0 -1 0 5.206696e-01 5.872746e-01 2.803232e-02 -6.190524e-01
164 2 4 -8.987726e+00 3.062283e+00 1.247374e+01 0 -1 0 7.059073e-01 5.973302e-01 -1.007594e-01 -3.670682e-01
165 2 3 -9.147609e+00 2.540738e+00 1.261954e+01 0 -1 0 -6.934062e-01 -6.272680e-01 -1.336644e-01 3.284153e-01
166 2 3 -9.295153e+00 2.073327e+00 1.256197e+01 0 -1 0 -7.045010e-01 -7.084714e-01 6.231374e-03 -4.132624e-02
167 2 4 -1.022829e+01 2.270523e+00 1.336728e+01 0 -1 0 5.244719e-01 -5.839588e-02 -2.658201e-01 8.067582e-01
168 2 2 -1.024457e+01 1.305288e+00 1.289611e+01 0 -1 0 -8.014993e-01 5.865448e-01 7.024276e-03 -1.162528e-01
169 2 2 -1.148920e+01 1.353179e+00 1.310731e+01 0 -1 0 1.197662e-01 -7.293865e-01 -6.716072e-01 -5.094253e-02
170 2 1 -1.170243e+01 6.588532e-01 1.395148e+01 0 -1 0 3.271395e-01 -9.080172e-02 -9.229658e-01 1.812981e-01
171 2 1 -1.091910e+01 1.331945e+00 1.440236e+01 0 -1 0 6.993525e-01 -5.569954e-01 -4.014170e-02 4.461511e-01
172 2 4 -1.118313e+01 1.705461e+00 1.466306e+01 0 -1 0 -7.356905e-01 5.187193e-01 -1.080585e-01 -4.219161e-01
173 2 4 -1.156790e+01 2.124281e+00 1.520860e+01 0 -1 0 -6.452299e-01 6.767827e-01 -1.887734e-01 3.000135e-01
174 2 1 -1.216319e+01 2.923226e+00 1.546616e+01 0 -1 0 -4.433924e-01 4.359818e-01 -1.982339e-01 7.576453e-01
175 2 1 -1.194988e+01 2.983449e+00 1.599014e+01 0 -1 0 -7.368850e-01 3.191430e-01 -4.136215e-01 4.290286e-01
176 2 2 -1.231939e+01 3.744629e+00 1.528576e+01 0 -1 0 -4.729588e-01 -8.342894e-01 2.299973e-01 1.654458e-01
177 2 2 -1.310369e+01 4.223744e+00 1.542506e+01 0 -1 0 3.132807e-01 -2.887027e-03 8.248617e-01 -4.705849e-01
178 2 1 -1.358278e+01 4.467571e+00 1.546153e+01 0 -1 0 -1.990330e-01 7.630065e-01 5.169253e-01 3.331595e-01
179 2 4 -1.364638e+01 4.937435e+00 1.525420e+01 0 -1 0 -3.792197e-01 8.708889e-01 1.879774e-01 2.498189e-01
180 2 1 -1.360862e+01 5.433021e+00 1.526736e+01 0 -1 0 -4.338792e-01 8.746810e-01 -2.152865e-01 1.826796e-02
181 2 4 -1.456351e+01 5.955159e+00 1.528163e+01 0 -1 0 -3.134469e-01 -7.121012e-02 -7.040103e-01 6.332848e-01
182 2 2 -1.485056e+01 5.792829e+00 1.504156e+01 0 -1 0 -6.444419e-01 -3.856090e-01 5.654107e-01 3.410441e-01
183 2 3 -1.553744e+01 6.523939e+00 1.489612e+01 0 -1 0 -6.101254e-01 -3.385568e-02 4.633758e-01 6.417816e-01
184 2 4 -1.599620e+01 6.617543e+00 1.511517e+01 0 -1 0 8.481351e-01 -2.269305e-01 -3.507542e-01 -3.257926e-01
185 2 3 -1.630940e+01 6.662207e+00 1.549808e+01 0 -1 0 9.170017e-01 -2.782576e-01 -2.842980e-01 -2.924434e-02
186 2 1 -1.646282e+01 6.907079e+00 1.597871e+01 0 -1 0 -9.482720e-01 2.832974e-01 1.105407e-01 -9.112385e-02
187 2 1 -1.644286e+01 6.978237e+00 1.647586e+01 0 -1 0 -8.283784e-01 3.243096e-01 -5.015180e-02 -4.539795e-01
188 2 2 -1.684823e+01 7.900612e+00 1.649674e+01 0 -1 0 8.572638e-02 -9.110353e-01 -2.816074e-02 4.023339e-01
189 2 4 -1.765156e+01 7.059019e+00 1.683701e+01 0 -1 0 2.282320e-01 5.140321e-01 -3.555024e-01 -7.465247e-01
190 2 4 -1.841216e+01 6.834600e+00 1.707952e+01 0 -1 0 -1.423046e-01 2.112981e-01 -1.645799e-01 9.528987e-01
191 2 1 -1.844313e+01 6.489173e+00 1.730850e+01 0 -1 0 -9.041810e-01 -2.100462e-01 -9.420403e-02 3.598095e-01
192 2 4 -1.849080e+01 6.141553e+00 1.754741e+01 0 -1 0 9.585402e-01 2.527063e-01 -4.988754e-02 1.218661e-01
193 2 4 -1.847936e+01 6.623680e+00 1.779101e+01 0 -1 0 -4.639529e-01 -7.192940e-01 3.269060e-01 4.006200e-01
194 2 1 -1.880956e+01 5.891732e+00 1.856524e+01 0 -1 0 -5.352267e-01 4.972848e-02 3.707952e-01 7.573443e-01
195 2 3 -1.848981e+01 5.840170e+00 1.892845e+01 0 -1 0 5.180387e-01 -5.563623e-01 -3.457015e-01 5.500794e-01
196 2 4 -1.900623e+01 4.550356e+00 1.857679e+01 0 -1 0 -8.023253e-01 -2.650072e-01 4.962714e-01 1.993991e-01
197 2 2 1.993074e+01 5.355920e+00 1.906997e+01 -1 -1 0 -5.485698e-02 -7.257065e-01 -6.219248e-01 2.890506e-01
198 2 4 1.959454e+01 5.354972e+00 1.865905e+01 -1 -1 0 1.715428e-01 9.268116e-01 2.498433e-01 -2.217469e-01
199 2 3 1.976938e+01 4.108194e+00 1.887757e+01 -1 -1 0 1.749013e-01 6.935317e-01 -5.107849e-01 -4.769927e-01
200 2 4 1.956372e+01 4.159573e+00 1.846839e+01 -1 -1 0 5.192019e-01 2.901939e-01 4.521104e-01 6.646902e-01
