ITEM: TIMESTEP
260000000
ITEM: NUMBER OF ATOMS
200
ITEM: BOX BOUNDS pp pp pp
-2.0000000000000000e+01 2.0000000000000000e+01
-2.0000000000000000e+01 2.0000000000000000e+01
-2.0000000000000000e+01 2.0000000000000000e+01
ITEM: ATOMS id mol type x y z ix iy iz c_quat[1] c_quat[2] c_quat[3] c_quat[4]
1 1 1 -1.557973e+01 1.605271e+01 3.453900e+00 0 -1 0 5.237440e-01 -5.658694e-01 -3.268501e-01 -5.464917e-01
2 1 2 -1.580499e+01 1.638851e+01 3.549630e+00 0 -1 0 -6.645849e-01 7.058546e-01 9.196444e-02 2.272418e-01
3 1 1 -1.573837e+01 1.683415e+01 3.851887e+00 0 -1 0 6.474275e-01 -7.264957e-01 2.292201e-01 2.235470e-02
4 1 3 -1.591442e+01 1.701325e+01 4.226689e+00 0 -1 0 1.429564e-01 4.139670e-01 -8.986112e-01 -2.631768e-02
5 1 1 -1.514417e+01 1.791733e+01 4.718527e+00 0 -1 0 5.825936e-01 5.031226e-01 7.439369e-03 6.382766e-01
6 1 2 -1.595695e+01 1.647113e+01 5.061635e+00 0 -1 0 -6.237701e-01 2.676349e-02 -4.139935e-01 6.624228e-01
7 1 4 -1.666994e+01 1.658207e+01 4.721259e+00 0 -1 0 -4.522356e-01 -5.704658e-01 -5.901872e-01 3.488994e-01
8 1 1 -1.626040e+01 1.548946e+01 5.523805e+00 0 -1 0 3.259901e-01 5.019518e-01 -7.769203e-01 -1.953706e-01
9 1 1 -1.647280e+01 1.526637e+01 5.123344e+00 0 -1 0 -3.691541e-01 6.430870e-02 9.249060e-01 6.433198e-02
10 1 4 -1.687084e+01 1.514875e+01 4.841353e+00 0 -1 0 5.107540e-01 -3.185000e-01 -7.915063e-01 1.058580e-01
11 1 1 -1.611477e+01 1.457058e+01 3.657402e+00 0 -1 0 6.173721e-01 -6.979056e-02 7.248492e-01 2.976148e-01
12 1 1 -1.619997e+01 1.429955e+01 4.221766e+00 0 -1 0 5.644427e-01 -6.901875e-01 -3.900130e-01 -2.300772e-01
13 1 3 -1.656806e+01 1.304787e+01 3.901639e+00 0 -1 0 7.727756e-01 2.162849e-01 1.834895e-01 -5.677767e-01
14 1 4 -1.678929e+01 1.269451e+01 4.177471e+00 0 -1 0 9.358130e-01 2.847956e-01 7.453627e-02 -1.938811e-01
15 1 4 -1.678385e+01 1.224134e+01 4.453571e+00 0 -1 0 9.166998e-01 3.246166e-01 -2.064672e-02 2.320760e-01
16 1 2 -1.740337e+01 1.243961e+01 5.288448e+00 0 -1 0 1.114147e-02 -7.605031e-01 -6.276360e-01 1.660843e-01
17 1 1 -1.692156e+01 1.158489e+01 5.771896e+00 0 -1 0 1.570349e-01 -3.067704e-01 1.965355e-01 -9.179356e-01
18 1 2 -1.574837e+01 1.179208e+01 5.194057e+00 0 -1 0 -3.045508e-01 -8.890536e-01 -3.386858e-01 -4.609178e-02
19 1 3 -1.618325e+01 1.125551e+01 4.570023e+00 0 -1 0 1.529833e-01 5.298475e-02 -2.391908e-01 -9.573800e-01
20 1 1 -1.613644e+01 1.020999e+01 4.084760e+00 0 -1 0 -5.402459e-01 -1.307209e-02 -6.401745e-01 5.460221e-01
21 1 4 -1.577827e+01 9.859795e+00 4.671245e+00 0 -1 0 -6.399307e-01 7.583532e-01 -5.708674e-02 1.101372e-01
22 1 1 -1.535967e+01 9.485979e+00 3.965560e+00 0 -1 0 3.799995e-01 -2.408320e-01 7.384522e-01 5.022834e-01
23 1 4 -1.521550e+01 9.721185e+00 3.529565e+00 0 -1 0 -1.009156e-01 -2.643789e-01 -7.849486e-01 -5.511584e-01
24 1 3 -1.531472e+01 1.015340e+01 3.170508e+00 0 -1 0 1.160554e-01 -5.020285e-01 -5.878328e-01 -6.236595e-01
25 1 3 -1.528276e+01 1.067169e+01 2.975112e+00 0 -1 0 3.884267e-01 -3.993173e-01 -4.979527e-01 -6.646153e-01
26 1 4 -1.512733e+01 1.021677e+01 2.928446e+00 0 -1 0 6.309332e-01 1.257921e-01 -4.691541e-01 6.049744e-01
27 1 4 -1.617348e+01 9.932129e+00 3.035663e+00 0 -1 0 -7.162016e-01 6.007719e-02 5.538931e-01 4.202957e-01
28 1 1 -1.625645e+01 1.001044e+01 1.866262e+00 0 -1 0 -1.668641e-01 -6.348221e-01 3.221223e-02 7.537372e-01
29 1 1 -1.661742e+01 8.828575e+00 2.717389e+00 0 -1 0 -5.200748e-01 1.295954e-01 -5.708460e-01 6.219823e-01
30 1 4 -1.650210e+01 8.531420e+00 3.061319e+00 0 -1 0 7.677323e-01 7.787672e-02 5.789673e-01 -2.632854e-01
31 1 4 -1.636975e+01 8.114589e+00 3.189461e+00 0 -1 0 -8.812356e-01 -2.357692e-01 -4.090034e-01 -2.351558e-02
32 1 3 -1.590497e+01 7.857526e+00 3.432861e+00 0 -1 0 -7.704371e-01 -3.277605e-01 -4.263217e-01 -3.424173e-01
33 1 3 -1.671536e+01 7.781481e+00 3.963825e+00 0 -1 0 3.242255e-01 4.351732e-01 -6.787622e-01 -4.947566e-01
34 1 1 -1.693923e+01 8.175488e+00 5.367125e+00 0 -1 0 -7.473394e-01 7.763017e-02 6.205014e-01 -2.245780e-01
35 1 2 -1.738558e+01 8.005648e+00 5.645635e+00 0 -1 0 -6.371941e-01 3.650466e-01 4.806225e-01 -4.792981e-01
36 1 2 -1.783332e+01 8.081151e+00 5.958329e+00 0 -1 0 6.472327e-01 -4.727786e-01 2.574418e-01 -5.397165e-01
37 1 1 -1.767876e+01 8.202566e+00 6.400547e+00 0 -1 0 8.029414e-01 -3.938943e-01 4.280115e-01 -1.301482e-01
38 1 1 -1.732853e+01 8.156433e+00 6.623269e+00 0 -1 0 -8.043284e-01 1.511771e-01 -5.003717e-01 -2.825411e-01
39 1 4 -1.686639e+01 7.657102e+00 7.738535e+00 0 -1 0 -6.018542e-01 6.592164e-01 -4.369440e-01 1.108385e-01
40 1 4 -1.640129e+01 7.883388e+00 7.985000e+00 0 -1 0 6.530419e-01 -4.279338e-01 6.216799e-01 6.263459e-02
41 1 2 -1.623434e+01 8.774300e+00 8.720211e+00 0 -1 0 -1.190100e-01 -9.163445e-01 3.816449e-01 2.228460e-02
42 1 4 -1.667067e+01 8.505121e+00 9.080415e+00 0 -1 0 3.697202e-01 -1.001768e-01 -7.401856e-02 9.207567e-01
43 1 3 -1.716196e+01 7.082167e+00 8.684394e+00 0 -1 0 4.722248e-01 5.518655e-01 -5.461290e-01 -4.173624e-01
44 1 2 -1.789007e+01 6.636501e+00 9.526753e+00 0 -1 0 8.679576e-01 -2.745345e-01 -1.784716e-01 -3.734010e-01
45 1 1 -1.805770e+01 6.763684e+00 1.003599e+01 0 -1 0 9.138700e-01 -4.053517e-01 2.303943e-02 8.819428e-04
46 1 3 -1.790189e+01 6.850195e+00 1.049526e+01 0 -1 0 8.679432e-01 -3.006302e-01 1.201076e-01 3.766567e-01
47 1 4 -1.773860e+01 7.128097e+00 1.097587e+01 0 -1 0 7.396979e-01 -2.856278e-01 3.430261e-01 5.035841e-01
48 1 1 -1.909140e+01 7.299072e+00 1.193360e+01 0 -1 0 4.250544e-01 -5.335184e-01 -7.047560e-01 -1.949508e-01
49 1 4 -1.914159e+01 6.561665e+00 1.171353e+01 0 -1 0 6.340331e-01 6.017560e-01 -8.959021e-02 -4.773525e-01
50 1 4 -1.938020e+01 6.435315e+00 1.217697e+01 0 -1 0 6.418429e-01 6.316668e-01 1.388695e-01 4.120073e-01
51 1 4 1.944988e+01 6.358091e+00 1.249662e+01 -1 -1 0 5.453408e-01 3.624495e-01 6.306805e-01 -4.165043e-01
52 1 1 1.961916e+01 6.855442e+00 1.325440e+01 -1 -1 0 6.329297e-01 -1.793781e-01 -4.879954e-01 -5.736584e-01
53 1 3 1.920502e+01 7.034526e+00 1.350776e+01 -1 -1 0 -7.896152e-01 4.542625e-01 3.999034e-01 1.011466e-01
54 1 4 1.880873e+01 6.736724e+00 1.303708e+01 -1 -1 0 -9.468163e-01 -2.635704e-01 -1.382825e-01 -1.222602e-01
55 1 4 1.913530e+01 6.385947e+00 1.335434e+01 -1 -1 0 -8.591977e-01 -2.274602e-01 -2.284512e-01 -3.973049e-01
56 1 4 1.824846e+01 6.287237e+00 1.295136e+01 -1 -1 0 4.624019e-01 8.492528e-01 2.667966e-02 -2.534607e-01
57 1 1 1.830155e+01 5.089356e+00 1.327647e+01 -1 -1 0 5.803848e-01 7.137538e-01 -3.398570e-01 -1.954641e-01
58 1 1 1.862985e+01 4.526678e+00 1.342098e+01 -1 -1 0 5.653075e-01 -2.482143e-01 7.668080e-01 1.755637e-01
59 1 3 1.933667e+01 4.537522e+00 1.401958e+01 -1 -1 0 -4.969358e-01 5.297561e-01 -6.113805e-01 -3.140498e-01
60 1 4 1.945687e+01 4.148307e+00 1.402031e+01 -1 -1 0 -5.164507e-01 -3.710555e-02 -8.489254e-01 1.059597e-01
61 1 2 -1.917030e+01 4.580050e+00 1.457356e+01 0 -1 0 6.798497e-01 -6.416133e-01 2.893582e-01 2.059335e-01
62 1 3 -1.891283e+01 5.066928e+00 1.466069e+01 0 -1 0 4.300846e-01 -5.382861e-01 5.168790e-01 5.080467e-01
63 1 2 -1.844537e+01 5.242702e+00 1.576592e+01 0 -1 0 -4.057679e-01 -7.777344e-01 2.749867e-01 -3.935275e-01
64 1 4 -1.932055e+01 5.936226e+00 1.634308e+01 0 -1 0 -8.775264e-02 -4.922852e-01 2.177063e-01 -8.381878e-01
65 1 2 -1.904508e+01 6.031516e+00 1.667326e+01 0 -1 0 3.906606e-01 -3.961703e-01 4.444817e-01 -7.020466e-01
66 1 1 -1.876650e+01 5.845807e+00 1.702593e+01 0 -1 0 -6.663386e-01 1.362811e-01 -6.103847e-01 4.060183e-01
67 1 2 -1.855346e+01 5.409666e+00 1.722144e+01 0 -1 0 7.623255e-01 -5.627736e-02 6.446840e-01 8.672580e-03
68 1 1 -1.824794e+01 5.160619e+00 1.717620e+01 0 -1 0 7.331594e-01 3.274608e-01 5.494043e-01 2.310881e-01
69 1 1 -1.719904e+01 4.712472e+00 1.762813e+01 0 -1 0 -8.477127e-01 4.582814e-01 -2.562606e-01 -7.544445e-02
70 1 2 -1.784111e+01 4.478571e+00 1.736973e+01 0 -1 0 2.211004e-01 -5.662021e-02 5.281696e-01 8.178910e-01
71 1 3 -1.738538e+01 3.372991e+00 1.792831e+01 0 -1 0 -4.592956e-01 -1.187090e-01 8.233500e-01 -3.115294e-01
72 1 4 -1.753966e+01 2.818359e+00 1.773166e+01 0 -1 0 3.398497e-01 -1.196689e-01 -8.320660e-01 4.217200e-01
73 1 1 -1.791832e+01 2.435066e+00 1.777889e+01 0 -1 0 -7.961510e-02 4.559537e-01 7.346864e-01 -4.959874e-01
74 1 1 -1.704192e+01 1.948986e+00 1.697667e+01 0 -1 0 -6.150611e-01 -6.415573e-01 4.047554e-01 -2.151213e-01
75 1 3 -1.748596e+01 2.042891e+00 1.601690e+01 0 -1 0 -2.437527e-01 -3.845555e-01 3.991048e-02 8.894430e-01
76 1 1 -1.679782e+01 1.842650e+00 1.601983e+01 0 -1 0 -4.325271e-01 -3.499517e-01 -8.056801e-01 2.033068e-01
77 1 4 -1.669347e+01 8.387626e-01 1.635704e+01 0 -1 0 -7.183162e-01 -1.821724e-01 3.312226e-01 5.840605e-01
78 1 1 -1.591317e+01 1.207059e+00 1.556497e+01 0 -1 0 6.096291e-01 -5.057605e-01 3.489062e-01 5.008224e-01
79 1 4 -1.589273e+01 1.180880e+00 1.561886e+01 0 -1 0 -4.537428e-01 -4.714963e-01 -2.197782e-01 7.235374e-01
80 1 2 -1.490503e+01 2.054831e+00 1.619749e+01 0 -1 0 8.636536e-01 6.557262e-02 -2.059352e-02 4.993782e-01
81 1 4 -1.461073e+01 1.909810e+00 1.653436e+01 0 -1 0 -5.843455e-01 -1.804153e-01 6.752753e-02 -7.883088e-01
82 1 4 -1.426884e+01 2.028332e+00 1.682535e+01 0 -1 0 1.483676e-01 1.814491e-01 -1.721895e-01 9.567727e-01
83 1 4 -1.420833e+01 2.100258e+00 1.732044e+01 0 -1 0 2.927815e-01 -7.173538e-02 2.789085e-01 -9.117802e-01
84 1 4 -1.429285e+01 1.756074e+00 1.789431e+01 0 -1 0 -5.774123e-01 -1.272641e-01 -4.349737e-01 6.791147e-01
85 1 1 -1.334290e+01 2.329521e+00 1.753001e+01 0 -1 0 8.154715e-01 9.515388e-02 5.686569e-01 -5.080748e-02
86 1 1 -1.269703e+01 2.190185e+00 1.759528e+01 0 -1 0 7.491004e-01 -2.153457e-01 5.488031e-01 -3.021423e-01
87 1 3 -1.244833e+01 3.790876e+00 1.823386e+01 0 -1 0 -4.906107e-01 -2.119104e-01 1.015627e-01 -8.390948e-01
88 1 2 -1.169996e+01 2.871758e+00 1.763979e+01 0 -1 0 -5.678861e-01 3.074604e-01 -6.649120e-01 -3.753205e-01
89 1 2 -1.089602e+01 3.253400e+00 1.783051e+01 0 -1 0 8.965652e-01 4.413702e-01 -1.998953e-03 3.686615e-02
90 1 3 -1.142465e+01 4.349874e+00 1.803368e+01 0 -1 0 2.734593e-01 -9.076903e-01 -3.088444e-01 -7.702897e-02
91 1 3 -1.158883e+01 4.770681e+00 1.784134e+01 0 -1 0 3.130313e-01 -9.479627e-01 5.536078e-02 1.770058e-02
92 1 2 -1.135628e+01 5.205774e+00 1.752304e+01 0 -1 0 -3.775388e-01 8.415577e-01 -3.857430e-01 -2.115064e-02
93 1 1 -1.102746e+01 5.504418e+00 1.741602e+01 0 -1 0 -3.861612e-01 5.356248e-01 -7.166689e-01 -2.244354e-01
94 1 2 -1.129697e+01 5.797929e+00 1.649036e+01 0 -1 0 -7.172232e-01 -3.620959e-01 -5.029766e-01 3.185781e-01
95 1 3 -1.105994e+01 6.664408e+00 1.696989e+01 0 -1 0 3.019017e-01 -3.825286e-01 -8.714717e-01 5.535625e-02
96 1 2 -1.033172e+01 7.461985e+00 1.750776e+01 0 -1 0 -3.215325e-01 8.383165e-01 1.696471e-01 4.062785e-01
97 1 2 -1.008561e+01 7.537754e+00 1.731640e+01 0 -1 0 4.583531e-01 -4.945974e-01 6.942805e-01 -2.515160e-01
98 1 4 -1.015584e+01 8.323996e+00 1.756863e+01 0 -1 0 6.435125e-01 -1.457360e-01 -7.453587e-01 -9.535774e-02
99 1 2 -1.022734e+01 8.983992e+00 1.713682e+01 0 -1 0 -8.136111e-01 5.776275e-01 6.586728e-02 -6.707389e-03
100 1 1 -1.038121e+01 1.005315e+01 1.691775e+01 0 -1 0 1.185347e-01 6.260560e-01 7.400572e-01 2.152178e-01
101 2 4 -1.564318e+01 1.310593e+01 1.139455e+01 0 -1 0 -8.458316e-01 -3.011093e-01 -2.526800e-01 -3.606313e-01
102 2 3 -1.566704e+01 1.279746e+01 1.174539e+01 0 -1 0 6.434538e-01 2.413776e-01 -1.001073e-01 -7.195016e-01
103 2 1 -1.491708e+01 1.321524e+01 1.234094e+01 0 -1 0 -5.779855e-01 3.958186e-01 -6.564158e-01 2.799618e-01
104 2 3 -1.550471e+01 1.434012e+01 1.184518e+01 0 -1 0 -5.104923e-01 1.274535e-02 -3.164171e-01 -7.994469e-01
105 2 3 -1.638016e+01 1.363542e+01 1.261530e+01 0 -1 0 -3.168541e-01 -3.395271e-01 -8.838261e-01 5.635821e-02
106 2 2 -1.681081e+01 1.303668e+01 1.306862e+01 0 -1 0 6.855625e-02 2.370365e-01 9.471223e-01 2.051172e-01
107 2 3 -1.591817e+01 1.288195e+01 1.415616e+01 0 -1 0 -7.646206e-02 6.347625e-01 -7.178702e-01 2.754860e-01
108 2 4 -1.567865e+01 1.415183e+01 1.425825e+01 0 -1 0 -5.439949e-01 1.475447e-01 4.033922e-01 -7.208154e-01
109 2 3 -1.561770e+01 1.354777e+01 1.505770e+01 0 -1 0 -3.999281e-01 8.030021e-01 -4.502145e-02 4.395660e-01
110 2 2 -1.544763e+01 1.275313e+01 1.479054e+01 0 -1 0 -8.278869e-01 -4.369580e-01 5.847105e-02 -3.467739e-01
111 2 2 -1.517887e+01 1.230417e+01 1.493984e+01 0 -1 0 -7.014929e-01 -4.139176e-01 1.300596e-02 -5.800092e-01
112 2 3 -1.527639e+01 1.166855e+01 1.539795e+01 0 -1 0 4.939160e-01 -3.553760e-01 -1.586781e-01 -7.775450e-01
113 2 3 -1.481350e+01 1.105283e+01 1.429790e+01 0 -1 0 -5.390498e-01 -6.178273e-01 5.557664e-01 1.372531e-01
114 2 2 -1.558123e+01 1.027172e+01 1.451709e+01 0 -1 0 -6.014005e-01 1.931038e-03 7.598906e-01 2.467386e-01
115 2 4 -1.609270e+01 1.028653e+01 1.455830e+01 0 -1 0 7.492283e-01 -3.802964e-01 -5.412804e-01 3.235924e-02
116 2 4 -1.635443e+01 1.034262e+01 1.490165e+01 0 -1 0 -6.063945e-01 5.573003e-01 3.773239e-01 -4.234721e-01
117 2 1 -1.608233e+01 9.418870e+00 1.434291e+01 0 -1 0 -5.860210e-02 -7.869049e-01 5.205441e-01 -3.261598e-01
118 2 1 -1.573165e+01 9.559453e+00 1.320374e+01 0 -1 0 -7.320112e-01 -5.591961e-01 3.761727e-01 9.976663e-02
119 2 1 -1.566665e+01 9.126666e+00 1.300360e+01 0 -1 0 6.078981e-01 2.657974e-01 -7.346653e-01 1.416989e-01
120 2 1 -1.529483e+01 9.997275e+00 1.268420e+01 0 -1 0 1.613961e-01 2.371342e-01 -3.062863e-01 9.076934e-01
121 2 3 -1.422791e+01 9.168441e+00 1.250274e+01 0 -1 0 8.964447e-01 1.981523e-01 -4.074815e-02 3.942869e-01
122 2 1 -1.387023e+01 8.531808e+00 1.333033e+01 0 -1 0 7.188405e-01 3.211691e-01 -5.846933e-01 1.955824e-01
123 2 4 -1.402217e+01 8.044393e+00 1.333329e+01 0 -1 0 6.349435e-01 1.974876e-03 -6.855648e-01 3.561513e-01
124 2 1 -1.435519e+01 7.454401e+00 1.311026e+01 0 -1 0 -6.478089e-02 -2.566625e-01 -7.638666e-01 5.885879e-01
125 2 4 -1.486282e+01 7.654754e+00 1.270279e+01 0 -1 0 9.706332e-02 6.387709e-01 3.094561e-01 -6.977015e-01
126 2 2 -1.505405e+01 6.290607e+00 1.348948e+01 0 -1 0 5.405110e-01 4.123258e-02 -7.893306e-01 -2.882794e-01
127 2 4 -1.389254e+01 6.475134e+00 1.266894e+01 0 -1 0 -9.426778e-01 -2.996458e-01 -6.318590e-02 -1.325839e-01
128 2 4 -1.427055e+01 6.297573e+00 1.287387e+01 0 -1 0 -6.850670e-02 -4.866221e-02 -2.559942e-02 -9.961343e-01
129 2 1 -1.394241e+01 4.855326e+00 1.322379e+01 0 -1 0 -6.762767e-01 1.574121e-03 7.241835e-01 -1.349283e-01
130 2 2 -1.431866e+01 5.020676e+00 1.173852e+01 0 -1 0 1.868919e-02 -4.689293e-01 7.483365e-01 4.687734e-01
131 2 3 -1.480311e+01 5.422411e+00 1.149765e+01 0 -1 0 -7.969807e-01 -2.067091e-01 -3.653865e-01 -4.342647e-01
132 2 4 -1.557723e+01 4.999138e+00 1.250087e+01 0 -1 0 9.048771e-01 1.807383e-01 -2.767329e-01 -2.682350e-01
133 2 4 -1.576344e+01 5.187716e+00 1.162201e+01 0 -1 0 6.699428e-01 5.818393e-02 4.967112e-01 5.486978e-01
134 2 3 -1.552191e+01 4.550205e+00 1.175558e+01 0 -1 0 -6.415488e-01 -2.038692e-01 7.091690e-01 -2.095991e-01
135 2 4 -1.592928e+01 4.753843e+00 1.119974e+01 0 -1 0 5.910400e-01 2.292958e-01 1.107293e-01 7.653980e-01
136 2 3 -1.622828e+01 3.817618e+00 1.224251e+01 0 -1 0 -4.303687e-01 3.207425e-01 -5.100934e-01 6.720950e-01
137 2 1 -1.620531e+01 3.282417e+00 1.195021e+01 0 -1 0 -9.496221e-01 2.672040e-01 1.491438e-01 -6.764652e-02
138 2 3 -1.741409e+01 2.692453e+00 1.198676e+01 0 -1 0 4.747373e-01 -1.860561e-01 -7.030392e-01 -4.957253e-01
139 2 2 -1.793979e+01 2.381973e+00 1.153451e+01 0 -1 0 4.630084e-01 -7.116662e-02 8.814438e-01 6.012806e-02
140 2 3 -1.775492e+01 2.123039e+00 1.122870e+01 0 -1 0 -4.803833e-01 -4.359039e-01 -7.385966e-01 -1.835612e-01
141 2 1 -1.776106e+01 1.709491e+00 1.092334e+01 0 -1 0 3.873037e-01 -5.558720e-01 2.941564e-01 6.741470e-01
142 2 2 -1.792069e+01 1.136689e+00 1.108314e+01 0 -1 0 -2.866145e-01 6.498420e-01 6.904861e-01 -1.370634e-01
143 2 4 -1.678609e+01 7.233707e-01 1.107041e+01 0 -1 0 -7.430306e-01 4.453773e-02 -2.130084e-01 -6.328896e-01
144 2 4 -1.640727e+01 7.898751e-01 1.134428e+01 0 -1 0 -4.646518e-01 8.057131e-04 -1.174374e-01 -8.776711e-01
145 2 1 -1.631954e+01 1.164522e+00 1.156684e+01 0 -1 0 1.160629e-01 -1.444390e-01 -1.397475e-01 -9.726959e-01
146 2 1 -1.550922e+01 1.463545e+00 1.255286e+01 0 -1 0 2.060188e-01 2.212842e-01 -4.985108e-01 8.124510e-01
147 2 1 -1.551299e+01 1.226433e+00 1.303132e+01 0 -1 0 -2.491773e-01 -3.869504e-02 -5.303107e-01 8.094343e-01
148 2 2 -1.473914e+01 1.005743e+00 1.294809e+01 0 -1 0 -3.115543e-02 -2.036348e-02 -9.778744e-01 -2.058551e-01
149 2 4 -1.344995e+01 1.065952e+00 1.267144e+01 0 -1 0 -2.156790e-01 5.765654e-01 -7.523001e-01 -2.347328e-01
150 2 1 -1.373199e+01 1.088010e+00 1.196099e+01 0 -1 0 -3.304198e-01 -6.994071e-02 -9.365422e-01 9.391320e-02
151 2 1 -1.327733e+01 1.982019e+00 1.170338e+01 0 -1 0 3.715590e-01 2.279123e-01 -2.603272e-01 -8.615275e-01
152 2 1 -1.236529e+01 2.349922e+00 1.171428e+01 0 -1 0 3.129068e-01 7.922277e-02 6.252837e-01 7.105162e-01
153 2 4 -1.209967e+01 2.708347e+00 1.155269e+01 0 -1 0 1.424475e-02 2.854211e-01 6.029156e-01 7.448655e-01
154 2 1 -1.153016e+01 1.666463e+00 1.120266e+01 0 -1 0 -1.185864e-01 -6.403715e-01 4.807909e-01 5.871131e-01
155 2 2 -1.182000e+01 1.688320e+00 1.065189e+01 0 -1 0 4.281810e-01 4.744332e-01 -6.487343e-01 -4.131802e-01
156 2 4 -1.215203e+01 1.585272e+00 1.027044e+01 0 -1 0 5.078264e-01 4.337712e-02 -8.352797e-01 -2.062487e-01
157 2 3 -1.169065e+01 2.815080e+00 9.916069e+00 0 -1 0 2.623250e-01 -8.865877e-02 -3.286309e-01 9.029546e-01
158 2 2 -1.066630e+01 2.226346e+00 9.756399e+00 0 -1 0 -5.597818e-01 3.254736e-01 1.576768e-03 -7.620425e-01
159 2 1 -1.115234e+01 1.554616e+00 9.705589e+00 0 -1 0 6.129988e-01 1.094315e-01 -7.093562e-01 3.302591e-01
160 2 3 -1.086487e+01 7.851443e-01 1.002768e+01 0 -1 0 7.899574e-01 1.287498e-01 -5.894294e-01 1.093790e-01
161 2 1 -1.111578e+01 3.904351e-01 1.011925e+01 0 -1 0 7.598272e-01 1.846502e-01 -4.608395e-01 4.197546e-01
162 2 1 -1.236599e+01 -2.785885e-01 1.006343e+01 0 -1 0 -3.925585e-01 2.349889e-01 -4.188271e-02 8.882139e-01
163 2 4 -1.229546e+01 -1.005440e+00 9.484114e+00 0 -1 0 2.930844e-01 2.076323e-01 -9.237356e-01 1.330520e-01
164 2 4 -1.239278e+01 -1.366590e+00 9.310345e+00 0 -1 0 -1.369528e-01 1.608538e-01 9.394115e-01 -2.699557e-01
165 2 3 -1.259220e+01 -1.669011e+00 9.200895e+00 0 -1 0 2.086291e-01 6.494396e-01 6.690491e-01 -2.950854e-01
166 2 3 -1.290259e+01 -1.862105e+00 8.794544e+00 0 -1 0 3.077987e-01 8.558195e-01 3.924508e-01 -1.371689e-01
167 2 4 -1.313913e+01 -1.982553e+00 8.240765e+00 0 -1 0 -5.052913e-01 -7.796293e-01 1.535279e-01 3.365830e-01
168 2 2 -1.342139e+01 -2.281529e+00 7.886777e+00 0 -1 0 -6.137426e-01 -7.348103e-01 2.808427e-01 6.709074e-02
169 2 2 -1.343693e+01 -2.572830e+00 8.061070e+00 0 -1 0 -5.194793e-01 -4.330893e-01 3.524925e-01 -6.467796e-01
170 2 1 -1.320855e+01 -2.842220e+00 8.498941e+00 0 -1 0 2.383167e-01 1.576531e-01 -4.122891e-01 8.650829e-01
171 2 1 -1.334240e+01 -3.226282e+00 9.073051e+00 0 -1 0 -1.217033e-01 5.796515e-02 4.679441e-01 -8.734166e-01
172 2 4 -1.244602e+01 -3.286075e+00 9.055832e+00 0 -1 0 -1.391341e-01 -7.975107e-01 -3.202643e-01 -4.919849e-01
173 2 4 -1.243169e+01 -4.402716e+00 9.984473e+00 0 -1 0 -4.316141e-01 7.061361e-02 8.748633e-01 -2.081757e-01
174 2 1 -1.151182e+01 -4.639592e+00 1.053459e+01 0 -1 0 -7.695967e-01 6.263813e-01 6.086988e-02 -1.079914e-01
175 2 1 -1.169344e+01 -4.785710e+00 1.136677e+01 0 -1 0 3.988205e-01 -7.074337e-01 3.995797e-01 -4.252245e-01
176 2 2 -1.142466e+01 -4.303819e+00 1.113912e+01 0 -1 0 5.089231e-01 6.209495e-01 5.013752e-01 3.225553e-01
177 2 2 -1.093579e+01 -4.256061e+00 1.084936e+01 0 -1 0 2.556170e-01 6.863647e-01 4.385136e-01 5.208352e-01
178 2 1 -1.001302e+01 -5.545813e+00 1.090437e+01 0 -1 0 9.735174e-01 1.167815e-01 -1.129888e-01 1.608089e-01
179 2 4 -1.000505e+01 -5.829445e+00 1.136119e+01 0 -1 0 8.799728e-01 9.881653e-02 1.576399e-02 4.643649e-01
180 2 1 -9.589876e+00 -6.403668e+00 1.115439e+01 0 -1 0 -7.460585e-01 2.422942e-02 -6.174424e-01 -2.481423e-01
181 2 4 -9.102541e+00 -6.383171e+00 1.113660e+01 0 -1 0 -5.378895e-01 -1.530896e-01 -6.957043e-01 -4.508149e-01
182 2 2 -8.495858e+00 -5.759677e+00 1.100287e+01 0 -1 0 -7.565529e-01 -3.718206e-01 -5.071317e-01 -1.794284e-01
183 2 3 -8.218571e+00 -5.910535e+00 1.099619e+01 0 -1 0 3.344670e-01 1.142763e-01 -6.376287e-01 -6.844724e-01
184 2 4 -7.610217e+00 -5.486905e+00 1.189331e+01 0 -1 0 5.169005e-01 7.513582e-01 -3.764444e-01 1.629856e-01
185 2 3 -8.061943e+00 -5.559498e+00 1.268614e+01 0 -1 0 -5.880644e-01 -6.366916e-01 4.317962e-01 -2.497119e-01
186 2 1 -7.828462e+00 -6.006621e+00 1.267997e+01 0 -1 0 4.909569e-01 4.541912e-01 -4.988023e-01 5.512423e-01
187 2 1 -7.159884e+00 -6.249561e+00 1.261254e+01 0 -1 0 -8.537787e-01 3.919783e-01 -3.109207e-01 -1.440250e-01
188 2 2 -6.723460e+00 -6.055777e+00 1.284272e+01 0 -1 0 -7.109145e-01 2.300482e-01 -5.386510e-01 -3.892730e-01
189 2 4 -6.602955e+00 -6.045547e+00 1.280405e+01 0 -1 0 1.729996e-01 -5.774009e-02 9.013743e-01 3.927616e-01
190 2 4 -5.721224e+00 -5.900141e+00 1.244840e+01 0 -1 0 -3.363318e-01 -7.486193e-01 -9.555563e-02 5.633109e-01
191 2 1 -5.189829e+00 -6.654957e+00 1.365996e+01 0 -1 0 -6.905880e-01 3.285823e-01 -4.430459e-01 4.677950e-01
192 2 4 -4.773463e+00 -6.208841e+00 1.436118e+01 0 -1 0 -2.606198e-01 -3.931234e-01 2.127529e-01 -8.557263e-01
193 2 4 -4.350563e+00 -6.196272e+00 1.474260e+01 0 -1 0 8.526447e-02 2.954630e-01 -2.112512e-01 9.277955e-01
194 2 1 -3.360483e+00 -5.974191e+00 1.404567e+01 0 -1 0 -6.962560e-01 6.746097e-02 -5.234567e-01 -4.864871e-01
195 2 3 -2.973894e+00 -5.895884e+00 1.389971e+01 0 -1 0 -4.149115e-01 5.263821e-02 -8.755589e-01 -2.418143e-01
196 2 4 -2.642857e+00 -5.973418e+00 1.351275e+01 0 -1 0 -3.069805e-01 -2.783706e-01 -8.009803e-01 -4.320919e-01
197 2 2 -2.273630e+00 -5.633221e+00 1.319950e+01 0 -1 0 -8.189974e-02 -3.574076e-01 -7.670269e-01 -5.265188e-01
198 2 4 -2.197431e+00 -5.284477e+00 1.281877e+01 0 -1 0 1.678284e-01 -5.473954e-01 -6.005571e-01 -5.581426e-01
199 2 3 -1.480644e+00 -5.484442e+00 1.186541e+01 0 -1 0 -1.850205e-02 -8.353874e-01 5.162002e-01 1.879436e-01
200 2 4 -1.257045e+00 -5.813915e+00 1.142937e+01 0 -1 0 7.167805e-01 -5.745842e-01 3.871670e-01 -7.861510e-02
