ITEM: TIMESTEP
208000000
ITEM: NUMBER OF ATOMS
200
ITEM: BOX BOUNDS pp pp pp
-2.0000000000000000e+01 2.0000000000000000e+01
-2.0000000000000000e+01 2.0000000000000000e+01
-2.0000000000000000e+01 2.0000000000000000e+01
ITEM: ATOMS id mol type x y z ix iy iz c_quat[1] c_quat[2] c_quat[3] c_quat[4]
1 1 1 -3.044471e+00 1.983316e+01 -2.982086e+00 0 -1 0 -6.695844e-01 7.820298e-02 -4.887065e-01 5.538113e-01
2 1 2 -2.386106e+00 -1.948055e+01 -2.237724e+00 0 0 0 -7.017558e-01 3.751280e-01 -1.352123e-01 -5.903688e-01
3 1 1 -3.221709e+00 -1.931627e+01 -1.207747e+00 0 0 0 -2.231840e-01 9.510386e-02 8.463107e-01 -4.742387e-01
4 1 3 -3.081933e+00 -1.905639e+01 -8.476797e-01 0 0 0 -3.148682e-01 3.453999e-01 4.277648e-01 7.736758e-01
5 1 1 -3.179367e+00 -1.858600e+01 -7.052838e-01 0 0 0 5.411194e-01 -3.804591e-01 -3.292793e-01 -6.738070e-01
6 1 2 -2.451785e+00 -1.802818e+01 -1.373825e+00 0 0 0 1.872615e-02 6.094255e-01 4.999842e-01 6.150331e-01
7 1 4 -2.295046e+00 -1.754646e+01 -1.505355e+00 0 0 0 -2.045434e-01 7.573543e-01 6.440229e-02 6.167891e-01
8 1 1 -2.612321e+00 -1.750549e+01 -2.631166e+00 0 0 0 -2.261769e-02 4.959605e-01 8.675443e-01 -2.964161e-02
9 1 1 -2.842137e+00 -1.757522e+01 -3.146009e+00 0 0 0 1.428511e-01 -6.772667e-01 -7.200084e-01 -4.991221e-02
10 1 4 -3.143924e+00 -1.741203e+01 -3.413384e+00 0 0 0 -1.467452e-01 9.425069e-01 2.862685e-01 -9.053687e-02
11 1 1 -3.068445e+00 -1.891843e+01 -3.396363e+00 0 0 0 2.631062e-01 4.121391e-02 -9.435199e-01 1.970957e-01
12 1 1 -3.324705e+00 -1.946675e+01 -3.619094e+00 0 0 0 2.835603e-01 -2.578049e-01 -8.630994e-01 3.289218e-01
13 1 3 -3.664518e+00 -1.985170e+01 -3.683846e+00 0 0 0 -2.376877e-01 4.819411e-01 7.004231e-01 -4.697284e-01
14 1 4 -3.399893e+00 1.916208e+01 -3.867304e+00 0 -1 0 7.046270e-01 6.786882e-01 -1.916550e-01 -7.843143e-02
15 1 4 -4.501699e+00 1.945039e+01 -4.241381e+00 0 -1 0 3.459567e-01 7.490108e-01 1.090373e-01 -5.544435e-01
16 1 2 -5.205793e+00 1.837667e+01 -4.138042e+00 0 -1 0 -7.620338e-01 -2.767436e-01 -3.335739e-01 4.810883e-01
17 1 1 -5.168899e+00 1.806929e+01 -3.090534e+00 0 -1 0 -7.485269e-01 -3.225036e-01 5.771789e-01 -5.063009e-02
18 1 2 -5.407807e+00 1.769681e+01 -3.030201e+00 0 -1 0 -7.022076e-01 -1.304082e-01 6.132969e-01 -3.372910e-01
19 1 3 -5.677059e+00 1.745174e+01 -2.788139e+00 0 -1 0 5.762071e-01 -8.746804e-02 -5.741443e-01 5.750591e-01
20 1 1 -6.527668e+00 1.759924e+01 -3.605550e+00 0 -1 0 -3.229886e-01 -8.896775e-03 -3.084571e-01 -8.946806e-01
21 1 4 -6.724932e+00 1.824067e+01 -3.746139e+00 0 -1 0 -3.167590e-01 -5.803150e-01 -3.823989e-01 -6.454993e-01
22 1 1 -7.497750e+00 1.727546e+01 -3.799978e+00 0 -1 0 -5.330987e-01 -4.303412e-01 1.848918e-01 7.045759e-01
23 1 4 -7.125742e+00 1.714226e+01 -3.906815e+00 0 -1 0 4.949196e-01 7.501804e-01 4.276318e-01 9.703116e-02
24 1 3 -6.950544e+00 1.666387e+01 -2.846524e+00 0 -1 0 -4.180915e-03 1.096636e-01 -2.720426e-01 9.560069e-01
25 1 3 -6.954875e+00 1.655519e+01 -2.294756e+00 0 -1 0 3.236488e-01 5.934244e-02 3.880250e-01 -8.609103e-01
26 1 4 -5.884726e+00 1.646394e+01 -2.372875e+00 0 -1 0 -4.313356e-01 -6.160093e-01 1.783296e-01 6.345712e-01
27 1 4 -5.305018e+00 1.683741e+01 -9.638063e-01 0 -1 0 5.719317e-01 -1.501682e-01 -3.531837e-01 7.249862e-01
28 1 1 -4.487757e+00 1.615591e+01 -1.196924e+00 0 -1 0 8.406799e-01 2.593254e-01 1.002761e-01 4.647067e-01
29 1 1 -4.782515e+00 1.579676e+01 -3.869130e-01 0 -1 0 -8.016490e-01 4.707298e-01 -1.884081e-01 -3.166619e-01
30 1 4 -4.525246e+00 1.605276e+01 -8.962471e-02 0 -1 0 5.953530e-01 -2.140869e-01 3.215952e-01 7.044843e-01
31 1 4 -4.208918e+00 1.640745e+01 6.267307e-02 0 -1 0 3.043942e-01 -7.524835e-02 3.378372e-01 8.874390e-01
32 1 3 -4.369945e+00 1.613064e+01 9.144017e-01 0 -1 0 -2.701237e-01 -1.644099e-01 -3.916768e-02 9.478758e-01
33 1 3 -4.139946e+00 1.589663e+01 1.181842e+00 0 -1 0 -7.114416e-01 -2.984773e-01 -5.616210e-01 -2.989046e-01
34 1 1 -3.988274e+00 1.535641e+01 2.559057e+00 0 -1 0 -5.350181e-01 1.805718e-01 8.080662e-01 -1.678642e-01
35 1 2 -3.719914e+00 1.528859e+01 2.477634e+00 0 -1 0 -2.840143e-01 8.493278e-01 9.172578e-02 -4.353902e-01
36 1 2 -3.610679e+00 1.480856e+01 3.658832e+00 0 -1 0 6.556176e-01 -6.241535e-01 -2.266279e-02 -4.243635e-01
37 1 1 -3.361155e+00 1.515662e+01 3.822572e+00 0 -1 0 -6.722789e-01 4.859501e-01 8.586840e-02 5.518335e-01
38 1 1 -3.337039e+00 1.533353e+01 4.354717e+00 0 -1 0 -8.195518e-01 4.949811e-01 -1.792306e-01 2.262849e-01
39 1 4 -4.191311e+00 1.560499e+01 4.051507e+00 0 -1 0 3.289410e-01 5.654121e-02 4.288100e-01 8.394778e-01
40 1 4 -4.228480e+00 1.498254e+01 4.971195e+00 0 -1 0 3.199030e-01 -8.635741e-01 -3.341536e-01 2.006071e-01
41 1 2 -3.394791e+00 1.486020e+01 5.192589e+00 0 -1 0 2.011585e-02 -9.981664e-01 -4.001317e-02 4.071982e-02
42 1 4 -3.516982e+00 1.413971e+01 5.136323e+00 0 -1 0 -3.166783e-01 3.690756e-01 -3.999054e-01 -7.769000e-01
43 1 3 -3.227885e+00 1.302430e+01 6.062251e+00 0 -1 0 4.556442e-01 2.041288e-01 -7.384330e-01 4.532510e-01
44 1 2 -2.656788e+00 1.275263e+01 6.325370e+00 0 -1 0 8.438374e-01 -4.142701e-01 -2.441355e-02 3.401803e-01
45 1 1 -2.507282e+00 1.283937e+01 6.750483e+00 0 -1 0 1.586357e-01 -8.813450e-01 3.388855e-01 2.884829e-01
46 1 3 -3.504066e+00 1.282309e+01 6.989254e+00 0 -1 0 4.646876e-01 7.543078e-01 4.620636e-01 3.977811e-02
47 1 4 -2.544936e+00 1.223647e+01 7.762270e+00 0 -1 0 7.803395e-01 -3.993700e-01 4.542760e-01 -1.587677e-01
48 1 1 -2.168672e+00 1.228164e+01 8.019237e+00 0 -1 0 7.037432e-01 -1.441236e-01 6.001073e-01 -3.519163e-01
49 1 4 -1.974201e+00 1.188283e+01 8.214653e+00 0 -1 0 8.839926e-01 5.571036e-02 4.540036e-01 9.661383e-02
50 1 4 -2.611306e+00 1.183877e+01 8.641234e+00 0 -1 0 3.392941e-01 6.641497e-01 5.027883e-01 -4.370224e-01
51 1 4 -1.645772e+00 1.127351e+01 8.059301e+00 0 -1 0 7.236127e-01 6.837492e-01 9.395026e-02 6.708588e-03
52 1 1 -1.592969e+00 1.082874e+01 7.788245e+00 0 -1 0 -6.386359e-01 -7.289738e-01 1.430224e-01 -2.007136e-01
53 1 3 -2.670773e+00 1.007458e+01 8.197401e+00 0 -1 0 1.088399e-01 -2.470923e-01 3.331292e-01 -9.033960e-01
54 1 4 -2.330837e+00 8.955268e+00 7.142649e+00 0 -1 0 -9.491095e-01 -2.289370e-01 -2.399278e-02 2.149497e-01
55 1 4 -3.047323e+00 8.417235e+00 7.797254e+00 0 -1 0 -4.104263e-01 -3.378411e-01 8.384347e-01 -1.201707e-01
56 1 4 -3.782432e+00 8.997608e+00 7.296232e+00 0 -1 0 -4.599130e-01 -3.478424e-02 -4.143598e-01 -7.845865e-01
57 1 1 -4.451854e+00 9.094997e+00 7.577933e+00 0 -1 0 5.003787e-01 -4.806952e-02 -5.602282e-01 -6.583729e-01
58 1 1 -4.935113e+00 9.212343e+00 7.601258e+00 0 -1 0 7.075475e-01 -3.738481e-01 -5.337748e-01 -2.733105e-01
59 1 3 -5.427528e+00 9.325186e+00 7.783831e+00 0 -1 0 -7.141751e-01 5.241088e-01 4.639636e-01 1.302176e-03
60 1 4 -5.782843e+00 9.629628e+00 8.051621e+00 0 -1 0 7.453813e-01 -6.067695e-01 -2.071120e-01 1.825981e-01
61 1 2 -5.963521e+00 1.000899e+01 8.475218e+00 0 -1 0 6.722446e-01 -6.239424e-01 -7.084101e-03 3.984130e-01
62 1 3 -6.003907e+00 1.041317e+01 8.828148e+00 0 -1 0 -5.288827e-01 6.123158e-01 -1.937270e-01 -5.548174e-01
63 1 2 -6.011606e+00 1.085119e+01 8.889535e+00 0 -1 0 3.395851e-01 -5.071308e-01 4.522364e-01 6.503711e-01
64 1 4 -5.962895e+00 1.133174e+01 8.821593e+00 0 -1 0 -3.763972e-02 3.018643e-01 -5.778225e-01 -7.573522e-01
65 1 2 -6.025096e+00 1.184734e+01 8.539032e+00 0 -1 0 1.848986e-01 1.948284e-01 -6.783244e-01 -6.839082e-01
66 1 1 -6.322857e+00 1.213989e+01 8.191898e+00 0 -1 0 3.645678e-01 4.732316e-02 -7.225990e-01 -5.854071e-01
67 1 2 -6.760091e+00 1.243907e+01 8.089451e+00 0 -1 0 -5.710198e-01 1.694770e-01 6.332503e-01 4.941740e-01
68 1 1 -7.334441e+00 1.271746e+01 8.155584e+00 0 -1 0 7.164382e-01 -3.322828e-01 -5.001240e-01 -3.552188e-01
69 1 1 -7.811898e+00 1.293441e+01 8.391368e+00 0 -1 0 8.161883e-01 -3.987288e-01 -3.825323e-01 -1.688817e-01
70 1 2 -8.105461e+00 1.296808e+01 8.838270e+00 0 -1 0 -8.516368e-01 4.247255e-01 2.122437e-01 -2.219812e-01
71 1 3 -8.258390e+00 1.321617e+01 9.264072e+00 0 -1 0 8.116434e-01 -4.475707e-01 -5.437042e-02 3.714289e-01
72 1 4 -8.146554e+00 1.346160e+01 9.748803e+00 0 -1 0 6.590258e-01 -3.595224e-01 1.811329e-01 6.353106e-01
73 1 1 -8.039281e+00 1.386531e+01 1.003914e+01 0 -1 0 5.664810e-01 -3.297321e-01 3.444095e-01 6.721296e-01
74 1 1 -7.792834e+00 1.425102e+01 1.017128e+01 0 -1 0 2.522212e-01 -2.113157e-01 3.746952e-01 8.667951e-01
75 1 3 -7.917519e+00 1.475849e+01 1.031952e+01 0 -1 0 -1.358365e-03 -2.462424e-01 4.148687e-01 8.759262e-01
76 1 1 -8.168015e+00 1.522418e+01 1.023355e+01 0 -1 0 -3.658732e-01 -2.073400e-02 4.831108e-01 7.951797e-01
77 1 4 -8.631729e+00 1.560800e+01 1.026769e+01 0 -1 0 6.463190e-01 -6.605968e-02 -4.331762e-01 -6.247130e-01
78 1 1 -8.439864e+00 1.701670e+01 1.017056e+01 0 -1 0 -2.465914e-01 -7.657872e-01 -5.753852e-01 1.472901e-01
79 1 4 -7.998002e+00 1.794986e+01 1.062907e+01 0 -1 0 -3.260067e-01 7.637794e-01 3.069014e-01 -4.649432e-01
80 1 2 -8.244423e+00 1.835523e+01 1.047516e+01 0 -1 0 -1.696465e-02 8.521407e-01 -9.662006e-02 -5.140360e-01
81 1 4 -8.447685e+00 1.868783e+01 1.018399e+01 0 -1 0 1.287054e-01 6.833127e-01 -5.408651e-01 -4.732692e-01
82 1 4 -8.609070e+00 1.921992e+01 1.130651e+01 0 -1 0 -8.983323e-01 1.848462e-01 2.005602e-01 -3.443931e-01
83 1 4 -8.672545e+00 1.922365e+01 1.189372e+01 0 -1 0 7.495132e-01 -3.041336e-01 -1.323522e-01 5.729010e-01
84 1 4 -9.106861e+00 1.899003e+01 1.196108e+01 0 -1 0 5.697202e-01 -2.362387e-01 2.898847e-01 7.318313e-01
85 1 1 -9.836755e+00 1.905050e+01 1.215629e+01 0 -1 0 7.678024e-03 -5.844304e-01 5.389477e-01 6.065621e-01
86 1 1 -1.032222e+01 1.850463e+01 1.170754e+01 0 -1 0 -1.314552e-01 -5.487849e-01 5.628841e-01 6.039174e-01
87 1 3 -1.084305e+01 1.969633e+01 1.160995e+01 0 -1 0 1.027087e-01 7.433989e-01 6.427151e-01 1.540335e-01
88 1 2 -1.093295e+01 1.889171e+01 1.180630e+01 0 -1 0 3.595605e-01 -6.134879e-01 -6.988686e-01 -7.701650e-02
89 1 2 -1.168373e+01 1.851991e+01 1.176087e+01 0 -1 0 -4.868423e-01 -1.999601e-01 -4.021349e-01 7.491916e-01
90 1 3 -1.199133e+01 1.811819e+01 1.193205e+01 0 -1 0 -7.465608e-01 -4.072269e-01 -3.148902e-01 4.214942e-01
91 1 3 -1.259175e+01 1.904304e+01 1.181474e+01 0 -1 0 3.011511e-01 7.767792e-01 3.864922e-01 -3.956587e-01
92 1 2 -1.297043e+01 1.894334e+01 1.149683e+01 0 -1 0 5.017716e-01 8.323661e-01 -1.110133e-02 -2.350929e-01
93 1 1 -1.350709e+01 1.805403e+01 1.195936e+01 0 -1 0 9.251499e-01 -2.821134e-01 -1.787871e-01 -1.804019e-01
94 1 2 -1.446625e+01 1.823724e+01 1.126359e+01 0 -1 0 -1.021399e-01 2.554046e-01 9.494858e-01 -1.510389e-01
95 1 3 -1.438063e+01 1.788376e+01 1.108890e+01 0 -1 0 -1.302233e-01 6.746768e-01 7.189730e-01 1.045509e-01
96 1 2 -1.440211e+01 1.675744e+01 1.148602e+01 0 -1 0 -5.199468e-02 6.612364e-01 -5.615039e-01 4.947488e-01
97 1 2 -1.458770e+01 1.657027e+01 1.127929e+01 0 -1 0 -3.353619e-01 -5.944389e-01 -4.673160e-01 5.619525e-01
98 1 4 -1.407087e+01 1.589905e+01 1.190811e+01 0 -1 0 2.082646e-01 -9.598025e-01 7.602662e-02 -1.721188e-01
99 1 2 -1.451424e+01 1.602892e+01 1.268792e+01 0 -1 0 4.997548e-01 -8.358241e-01 7.504981e-02 -2.145013e-01
100 1 1 -1.426516e+01 1.655346e+01 1.273572e+01 0 -1 0 5.347743e-01 -7.814478e-01 3.214122e-01 -7.069495e-03
101 2 4 -7.415281e+00 1.045424e+01 1.110975e+01 0 -1 0 6.510784e-01 3.996652e-02 5.225351e-01 -5.490507e-01
102 2 3 -7.414083e+00 1.005184e+01 1.141842e+01 0 -1 0 -8.633221e-01 -1.963149e-01 -4.193594e-01 2.006818e-01
103 2 1 -7.235633e+00 9.509988e+00 1.145741e+01 0 -1 0 7.946084e-01 4.496528e-01 4.059246e-01 -4.043505e-02
104 2 3 -8.082084e+00 9.717101e+00 1.185821e+01 0 -1 0 4.866971e-01 -4.950335e-01 -7.106269e-01 1.143557e-01
105 2 3 -8.594518e+00 9.800844e+00 1.188019e+01 0 -1 0 -4.018631e-01 7.699431e-01 4.302202e-01 -2.461793e-01
106 2 2 -8.929438e+00 1.017639e+01 1.171353e+01 0 -1 0 -5.428298e-01 7.546398e-01 2.188898e-01 -2.965498e-01
107 2 3 -9.144867e+00 1.056349e+01 1.187893e+01 0 -1 0 -4.436682e-01 7.354728e-01 -8.805775e-02 -5.044642e-01
108 2 4 -9.200832e+00 1.110963e+01 1.195049e+01 0 -1 0 -1.576977e-01 6.826231e-01 -4.028455e-01 -5.889590e-01
109 2 3 -9.425555e+00 1.159479e+01 1.189024e+01 0 -1 0 -1.267265e-01 -6.017624e-01 5.112975e-01 6.003310e-01
110 2 2 -9.820080e+00 1.226577e+01 1.223625e+01 0 -1 0 -4.864591e-01 -4.152473e-01 -1.745728e-02 7.685197e-01
111 2 2 -1.033097e+01 1.215051e+01 1.264519e+01 0 -1 0 -7.330040e-01 -2.157068e-01 4.346230e-01 4.767374e-01
112 2 3 -9.269569e+00 1.278262e+01 1.301656e+01 0 -1 0 9.863509e-01 -1.397433e-01 5.807279e-02 6.489473e-02
113 2 3 -9.429301e+00 1.272694e+01 1.419094e+01 0 -1 0 -7.189652e-02 5.769949e-01 -5.633790e-01 5.869513e-01
114 2 2 -8.541355e+00 1.305268e+01 1.434517e+01 0 -1 0 -5.374304e-01 8.084850e-01 1.127705e-01 2.116680e-01
115 2 4 -8.127151e+00 1.340882e+01 1.446494e+01 0 -1 0 5.976579e-01 -7.272542e-01 3.250071e-01 -9.097619e-02
116 2 4 -7.604962e+00 1.359603e+01 1.440439e+01 0 -1 0 4.426527e-01 -5.637783e-01 6.851575e-01 1.295062e-01
117 2 1 -7.735998e+00 1.418513e+01 1.441748e+01 0 -1 0 -4.839489e-01 4.656195e-01 -6.039113e-01 4.292820e-01
118 2 1 -7.847938e+00 1.568476e+01 1.429489e+01 0 -1 0 5.365924e-01 -1.522426e-04 -1.929935e-01 8.214755e-01
119 2 1 -7.747378e+00 1.607164e+01 1.319636e+01 0 -1 0 -5.410384e-01 -7.893772e-01 -5.707194e-02 2.844362e-01
120 2 1 -7.824207e+00 1.563034e+01 1.291070e+01 0 -1 0 6.129620e-01 7.870826e-01 -6.778956e-02 1.353361e-02
121 2 3 -7.611569e+00 1.525133e+01 1.268810e+01 0 -1 0 4.410444e-01 7.463100e-01 -3.700105e-01 3.340560e-01
122 2 1 -8.996709e+00 1.543551e+01 1.179015e+01 0 -1 0 4.098076e-01 4.610353e-01 7.412757e-01 -2.646027e-01
123 2 4 -8.910024e+00 1.507193e+01 1.137314e+01 0 -1 0 3.623544e-01 5.884830e-01 7.130531e-01 -1.180771e-01
124 2 1 -8.951983e+00 1.473068e+01 1.098670e+01 0 -1 0 -3.111362e-01 -7.442905e-01 -5.623706e-01 1.815632e-01
125 2 4 -9.089027e+00 1.453614e+01 1.046852e+01 0 -1 0 3.146917e-01 8.914568e-01 3.255400e-01 1.725077e-02
126 2 2 -8.956926e+00 1.451142e+01 9.870505e+00 0 -1 0 3.236955e-01 9.250855e-01 7.337441e-02 1.845378e-01
127 2 4 -8.672172e+00 1.459749e+01 9.427031e+00 0 -1 0 -1.944258e-01 -9.354761e-01 1.594619e-01 -2.483042e-01
128 2 4 -8.299904e+00 1.453923e+01 9.047812e+00 0 -1 0 1.890706e-01 7.799881e-01 -4.379880e-01 4.050153e-01
129 2 1 -7.843307e+00 1.427314e+01 8.920198e+00 0 -1 0 3.992513e-02 5.929196e-01 -5.936413e-01 5.426254e-01
130 2 2 -7.390567e+00 1.400711e+01 8.946483e+00 0 -1 0 -5.508848e-02 3.209851e-01 -7.757530e-01 5.405008e-01
131 2 3 -7.023990e+00 1.358623e+01 9.094651e+00 0 -1 0 -2.637443e-01 1.121984e-01 -7.910999e-01 5.403808e-01
132 2 4 -6.884762e+00 1.304564e+01 9.145384e+00 0 -1 0 -2.470639e-01 -8.619940e-02 -7.461675e-01 6.121790e-01
133 2 4 -7.023550e+00 1.252785e+01 9.293604e+00 0 -1 0 4.948365e-01 4.098976e-01 6.891438e-01 -3.349650e-01
134 2 3 -7.171599e+00 1.208872e+01 9.160498e+00 0 -1 0 5.837070e-01 6.102978e-01 4.929885e-01 -2.092489e-01
135 2 4 -7.196257e+00 1.152731e+01 8.681879e+00 0 -1 0 6.010262e-01 7.193496e-01 3.482863e-01 5.921069e-04
136 2 3 -7.009094e+00 1.115884e+01 8.377537e+00 0 -1 0 -5.283928e-01 -7.811621e-01 -1.863638e-01 -2.754184e-01
137 2 1 -6.736841e+00 1.108256e+01 8.003627e+00 0 -1 0 -3.790439e-01 -8.174497e-01 1.221580e-01 -4.161480e-01
138 2 3 -6.240298e+00 1.098756e+01 7.755521e+00 0 -1 0 -2.217532e-01 -7.489060e-01 2.433662e-01 -5.750984e-01
139 2 2 -5.696539e+00 1.076086e+01 7.747326e+00 0 -1 0 -1.467569e-01 -5.709541e-01 3.809554e-01 -7.122828e-01
140 2 3 -5.231120e+00 1.068583e+01 7.887583e+00 0 -1 0 -9.882089e-02 3.986808e-01 -5.379292e-01 7.361523e-01
141 2 1 -4.822185e+00 1.028230e+01 8.220375e+00 0 -1 0 -2.279203e-01 1.651056e-01 -6.649265e-01 6.918564e-01
142 2 2 -4.753305e+00 9.985258e+00 8.580347e+00 0 -1 0 -5.391212e-01 -7.479787e-02 -5.887577e-01 5.975934e-01
143 2 4 -4.620287e+00 9.393525e+00 8.736130e+00 0 -1 0 -5.335208e-01 -3.083375e-01 -5.698671e-01 5.436313e-01
144 2 4 -4.846526e+00 8.956248e+00 8.798845e+00 0 -1 0 6.744569e-01 4.956592e-01 4.102894e-01 -3.620669e-01
145 2 1 -4.966438e+00 8.524479e+00 8.788977e+00 0 -1 0 -7.577574e-01 -6.258937e-01 -1.825727e-01 2.698154e-02
146 2 1 -5.952029e+00 8.069877e+00 1.010329e+01 0 -1 0 -1.407940e-01 1.768043e-01 9.516490e-01 -2.080420e-01
147 2 1 -6.241284e+00 7.712635e+00 9.856709e+00 0 -1 0 1.866762e-01 -4.414060e-01 -8.011209e-01 3.584942e-01
148 2 2 -4.916664e+00 6.719818e+00 9.579425e+00 0 -1 0 -1.307746e-01 8.013190e-01 -5.506810e-01 -1.937431e-01
149 2 4 -4.402626e+00 6.168100e+00 1.022385e+01 0 -1 0 1.059448e-01 6.938374e-01 -6.353119e-01 3.220935e-01
150 2 1 -5.235797e+00 5.569708e+00 9.332362e+00 0 -1 0 5.686675e-01 3.893755e-01 6.104934e-01 -3.902586e-01
151 2 1 -5.267660e+00 5.060287e+00 1.003518e+01 0 -1 0 -9.539514e-01 -8.778623e-02 -1.006454e-01 2.685903e-01
152 2 1 -5.035618e+00 5.443259e+00 1.028026e+01 0 -1 0 -1.395536e-01 8.100456e-01 3.483544e-01 4.505554e-01
153 2 4 -5.307287e+00 4.332807e+00 1.016187e+01 0 -1 0 -6.700158e-01 5.974806e-01 -3.404781e-01 2.795896e-01
154 2 1 -6.148240e+00 5.367739e+00 9.806004e+00 0 -1 0 -3.761187e-01 6.849341e-01 5.308012e-01 -3.281005e-01
155 2 2 -6.463465e+00 5.881151e+00 9.517937e+00 0 -1 0 -2.649603e-01 9.158589e-01 2.981485e-01 -4.589096e-02
156 2 4 -7.136285e+00 5.218554e+00 9.014390e+00 0 -1 0 -4.460961e-01 -4.838692e-01 7.426675e-01 1.237489e-01
157 2 3 -8.445547e+00 5.600218e+00 8.875076e+00 0 -1 0 4.670728e-01 2.963857e-01 -1.339324e-01 -8.222291e-01
158 2 2 -8.103371e+00 6.738992e+00 9.729217e+00 0 -1 0 6.034515e-01 -4.874900e-01 -2.779501e-01 5.665188e-01
159 2 1 -8.638572e+00 6.874565e+00 1.005791e+01 0 -1 0 1.176745e-01 -7.250303e-01 -9.637361e-02 6.717111e-01
160 2 3 -9.119611e+00 7.111079e+00 9.957913e+00 0 -1 0 -1.502969e-01 -7.910679e-01 6.076834e-02 5.898556e-01
161 2 1 -9.460427e+00 7.268515e+00 9.617161e+00 0 -1 0 -3.545764e-01 -6.958675e-01 4.237168e-01 4.588116e-01
162 2 1 -9.724075e+00 7.253835e+00 9.281570e+00 0 -1 0 5.790248e-01 3.857658e-01 -6.410942e-01 -3.239031e-01
163 2 4 -1.021003e+01 8.527331e+00 9.555769e+00 0 -1 0 5.500272e-01 -3.504947e-01 -5.007529e-01 5.690959e-01
164 2 4 -1.062665e+01 8.486658e+00 9.911373e+00 0 -1 0 -3.499088e-01 5.260693e-01 2.983174e-01 -7.154171e-01
165 2 3 -1.101016e+01 8.638766e+00 1.014832e+01 0 -1 0 1.322307e-01 -6.118532e-01 -9.891599e-02 7.735414e-01
166 2 3 -1.131920e+01 7.398316e+00 1.000581e+01 0 -1 0 8.910055e-01 5.856240e-02 4.482397e-01 4.196185e-02
167 2 4 -1.090050e+01 7.107098e+00 1.008569e+01 0 -1 0 -8.009604e-01 -2.323585e-01 -3.786297e-01 -4.013870e-01
168 2 2 -1.221995e+01 7.272992e+00 1.101847e+01 0 -1 0 -3.385778e-01 5.107751e-01 7.453428e-01 -2.625604e-01
169 2 2 -1.203095e+01 6.100742e+00 1.113284e+01 0 -1 0 -9.216538e-01 3.716746e-01 -7.849703e-02 7.905966e-02
170 2 1 -1.195483e+01 6.105944e+00 1.153099e+01 0 -1 0 -8.665458e-01 3.013885e-01 -1.517926e-01 -3.677260e-01
171 2 1 -1.164942e+01 6.519336e+00 1.183650e+01 0 -1 0 4.813058e-01 -3.447923e-01 3.181279e-01 7.404442e-01
172 2 4 -1.154870e+01 6.963471e+00 1.204594e+01 0 -1 0 -2.421934e-01 2.087344e-01 -3.854050e-01 -8.655838e-01
173 2 4 -1.146843e+01 7.632844e+00 1.277016e+01 0 -1 0 4.327762e-01 -7.553515e-01 6.648329e-02 4.875745e-01
174 2 1 -1.118986e+01 7.708662e+00 1.329662e+01 0 -1 0 -2.520295e-01 7.969521e-01 -1.971618e-01 -5.123238e-01
175 2 1 -1.128898e+01 7.805205e+00 1.345659e+01 0 -1 0 2.678150e-01 -4.099882e-01 5.128911e-03 -8.718707e-01
176 2 2 -1.078417e+01 7.952360e+00 1.395539e+01 0 -1 0 -2.859608e-01 2.919994e-01 -1.665756e-01 8.973379e-01
177 2 2 -1.078926e+01 7.981541e+00 1.443378e+01 0 -1 0 -6.637876e-01 1.688390e-01 -2.485555e-01 6.849084e-01
178 2 1 -1.123998e+01 8.706808e+00 1.426176e+01 0 -1 0 2.938044e-01 -7.614453e-01 -4.011842e-01 4.158501e-01
179 2 4 -1.120881e+01 8.596789e+00 1.374566e+01 0 -1 0 -9.555843e-01 -5.696192e-02 8.433346e-02 -2.765898e-01
180 2 1 -1.182729e+01 8.869984e+00 1.398567e+01 0 -1 0 9.217931e-01 2.519532e-01 1.732871e-01 -2.383037e-01
181 2 4 -1.132430e+01 1.008970e+01 1.463108e+01 0 -1 0 5.778183e-01 -8.153742e-01 3.554775e-02 -5.218751e-03
182 2 2 -1.137196e+01 1.069620e+01 1.474203e+01 0 -1 0 -5.333012e-01 7.404575e-01 -3.607504e-01 -1.927994e-01
183 2 3 -1.257450e+01 1.167926e+01 1.480454e+01 0 -1 0 -1.433158e-01 -5.216535e-01 -3.158262e-01 7.794819e-01
184 2 4 -1.302918e+01 1.158575e+01 1.495495e+01 0 -1 0 -5.414079e-01 -5.234765e-01 -7.870393e-02 6.531887e-01
185 2 3 -1.343007e+01 1.115421e+01 1.491372e+01 0 -1 0 7.944416e-01 4.680988e-01 -9.860356e-02 -3.741970e-01
186 2 1 -1.361632e+01 1.064493e+01 1.491628e+01 0 -1 0 8.578117e-01 3.040299e-01 -3.982806e-01 1.144444e-01
187 2 1 -1.362578e+01 1.015898e+01 1.524260e+01 0 -1 0 7.802200e-01 4.839816e-02 -4.718795e-01 4.077304e-01
188 2 2 -1.381762e+01 9.929592e+00 1.564807e+01 0 -1 0 7.199606e-01 1.214873e-02 -3.223886e-01 6.144711e-01
189 2 4 -1.372623e+01 9.735354e+00 1.606715e+01 0 -1 0 3.680835e-01 -8.527530e-02 -3.489309e-01 8.576071e-01
190 2 4 -1.378189e+01 9.766535e+00 1.653568e+01 0 -1 0 1.539912e-01 1.602964e-01 2.423802e-01 -9.443747e-01
191 2 1 -1.370414e+01 9.408889e+00 1.663699e+01 0 -1 0 6.526460e-01 3.526194e-01 6.047482e-01 2.898144e-01
192 2 4 -1.433776e+01 1.027752e+01 1.738936e+01 0 -1 0 1.023332e-01 -7.347225e-01 -3.811712e-01 5.517420e-01
193 2 4 -1.491797e+01 1.044942e+01 1.727775e+01 0 -1 0 -3.378147e-02 -8.466149e-01 -2.287366e-01 4.793554e-01
194 2 1 -1.534744e+01 9.738005e+00 1.765615e+01 0 -1 0 -3.134629e-01 -3.447496e-01 2.312717e-01 -8.540504e-01
195 2 3 -1.515365e+01 8.191378e+00 1.730365e+01 0 -1 0 -9.521644e-01 2.131294e-01 -9.214194e-02 1.986670e-01
196 2 4 -1.515110e+01 8.602083e+00 1.699486e+01 0 -1 0 -1.833614e-01 -5.342225e-01 2.182639e-01 -7.958303e-01
197 2 2 -1.528609e+01 7.522201e+00 1.585384e+01 0 -1 0 -2.904484e-01 1.699785e-02 -8.394119e-01 -4.590626e-01
198 2 4 -1.477638e+01 7.469377e+00 1.645486e+01 0 -1 0 1.585727e-02 -5.905246e-01 8.652640e-02 8.022109e-01
199 2 3 -1.440945e+01 6.625771e+00 1.704623e+01 0 -1 0 -4.963731e-01 7.715060e-01 -6.704863e-02 -3.922967e-01
200 2 4 -1.356897e+01 6.154801e+00 1.716576e+01 0 -1 0 6.697193e-01 -6.958154e-01 2.220265e-01 1.342431e-01
