ITEM: TIMESTEP
235000000
ITEM: NUMBER OF ATOMS
200
ITEM: BOX BOUNDS pp pp pp
-2.0000000000000000e+01 2.0000000000000000e+01
-2.0000000000000000e+01 2.0000000000000000e+01
-2.0000000000000000e+01 2.0000000000000000e+01
ITEM: ATOMS id mol type x y z ix iy iz c_quat[1] c_quat[2] c_quat[3] c_quat[4]
1 1 1 -6.330480e+00 -5.197729e+00 3.398207e+00 0 -1 0 9.354527e-01 -2.259970e-01 2.597977e-01 -7.974172e-02
2 1 2 -6.499554e+00 -5.267891e+00 3.628201e+00 0 -1 0 1.234754e-01 -9.834752e-01 1.267832e-01 -3.816155e-02
3 1 1 -6.808145e+00 -5.464972e+00 2.678540e+00 0 -1 0 3.127054e-01 7.744534e-01 5.475048e-01 5.172753e-02
4 1 3 -5.953313e+00 -6.329398e+00 3.008858e+00 0 -1 0 7.339329e-01 -8.883445e-02 6.512408e-01 1.712787e-01
5 1 1 -5.550197e+00 -6.208517e+00 2.594693e+00 0 -1 0 7.787127e-03 -6.366855e-01 7.224879e-01 2.694106e-01
6 1 2 -5.626721e+00 -6.149420e+00 2.210526e+00 0 -1 0 6.896988e-01 1.768576e-01 -9.639079e-02 -6.955183e-01
7 1 4 -4.580831e+00 -5.066477e+00 2.951081e+00 0 -1 0 3.818825e-01 7.716920e-01 -1.162881e-01 4.951104e-01
8 1 1 -4.470802e+00 -5.219022e+00 2.725894e+00 0 -1 0 1.364760e-01 -5.234437e-01 7.838064e-01 -3.050058e-01
9 1 1 -4.300178e+00 -5.608580e+00 2.382474e+00 0 -1 0 1.304546e-01 2.236402e-02 9.903538e-01 -4.099730e-02
10 1 4 -3.171499e+00 -4.995022e+00 2.796660e+00 0 -1 0 -2.046461e-01 -6.190323e-01 7.092019e-01 -2.682380e-01
11 1 1 -2.799803e+00 -5.329504e+00 2.633703e+00 0 -1 0 4.170594e-02 3.610014e-01 -8.731956e-01 3.247584e-01
12 1 1 -2.042102e+00 -4.925887e+00 2.429011e+00 0 -1 0 7.541881e-01 6.247204e-01 -5.395790e-02 -1.949701e-01
13 1 3 -1.972420e+00 -5.085826e+00 3.023461e+00 0 -1 0 -6.250860e-01 -2.820687e-01 -4.177393e-01 5.959855e-01
14 1 4 -1.233590e+00 -3.838720e+00 3.076594e+00 0 -1 0 2.902073e-01 6.408500e-01 4.248932e-02 7.094263e-01
15 1 4 -1.257727e+00 -3.628715e+00 2.409753e+00 0 -1 0 -3.769007e-01 -4.871857e-01 8.695440e-02 -7.829654e-01
16 1 2 -1.450266e+00 -3.497187e+00 2.605802e+00 0 -1 0 -3.908870e-01 -1.600815e-01 -1.033972e-01 9.004945e-01
17 1 1 -1.818155e+00 -3.450934e+00 2.942323e+00 0 -1 0 -7.557594e-01 -1.545992e-01 -8.374951e-02 6.308033e-01
18 1 2 -1.372304e+00 -2.426175e+00 3.997618e+00 0 -1 0 3.277159e-01 -7.113441e-01 -2.301908e-01 -5.775846e-01
19 1 3 -1.081009e+00 -2.951066e+00 3.721554e+00 0 -1 0 -4.394217e-01 -5.897316e-01 -6.641509e-01 -1.342710e-01
20 1 1 -1.838292e+00 -3.802545e+00 4.524910e+00 0 -1 0 -3.751302e-01 -5.973616e-02 8.709617e-01 3.116642e-01
21 1 4 -2.578179e+00 -3.228167e+00 5.075223e+00 0 -1 0 2.062584e-01 -4.590828e-01 -8.362929e-01 -2.175195e-01
22 1 1 -2.243234e+00 -2.786987e+00 4.999067e+00 0 -1 0 4.029065e-01 -6.351523e-01 4.144451e-01 5.123311e-01
23 1 4 -2.080301e+00 -2.356207e+00 4.843997e+00 0 -1 0 1.095634e-01 -3.668410e-01 5.797892e-01 7.192135e-01
24 1 3 -1.764233e+00 -2.891764e+00 5.295201e+00 0 -1 0 5.016914e-01 4.377298e-01 6.389539e-01 -3.852742e-01
25 1 3 -1.713678e+00 -2.330239e+00 6.402791e+00 0 -1 0 2.618662e-02 9.475571e-01 3.135488e-01 5.600853e-02
26 1 4 -2.606438e+00 -2.419663e+00 6.686425e+00 0 -1 0 -2.897858e-01 1.626030e-02 -7.277352e-01 6.214187e-01
27 1 4 -1.991244e+00 -1.242731e+00 6.509727e+00 0 -1 0 -7.964802e-01 4.723058e-02 -2.314683e-01 -5.566067e-01
28 1 1 -2.217948e+00 -6.938321e-01 5.700145e+00 0 -1 0 6.463180e-01 1.161286e-01 5.297639e-01 5.367843e-01
29 1 1 -2.341878e+00 -3.191949e-01 6.233905e+00 0 -1 0 -7.179988e-01 4.049579e-01 5.160171e-01 2.328373e-01
30 1 4 -3.020838e+00 3.008926e-01 6.332397e+00 0 -1 0 1.551213e-01 -2.030416e-01 -5.961096e-01 -7.611602e-01
31 1 4 -2.813292e+00 4.126051e-01 6.398158e+00 0 -1 0 3.339778e-01 -8.316680e-01 3.838051e-01 2.224427e-01
32 1 3 -4.078039e+00 1.933875e-01 5.995683e+00 0 -1 0 1.387915e-02 5.910014e-01 7.548459e-01 -2.841345e-01
33 1 3 -4.455006e+00 1.023393e-01 5.688063e+00 0 -1 0 -2.120178e-01 -8.586196e-01 -4.360828e-01 1.662906e-01
34 1 1 -4.700417e+00 -9.115791e-02 6.166163e+00 0 -1 0 -7.599284e-01 1.220942e-01 -1.904490e-01 -6.093694e-01
35 1 2 -5.760323e+00 3.755584e-01 6.653789e+00 0 -1 0 -2.046107e-01 -3.940629e-01 -4.142304e-01 7.945200e-01
36 1 2 -6.225865e+00 1.228723e-01 6.754652e+00 0 -1 0 -4.755759e-01 -5.806894e-01 -2.559181e-01 6.092071e-01
37 1 1 -6.421345e+00 4.953334e-01 7.400963e+00 0 -1 0 5.577156e-01 -6.824326e-01 1.064251e-01 -4.603398e-01
38 1 1 -7.474741e+00 4.947949e-01 6.836836e+00 0 -1 0 3.060344e-01 1.680456e-01 -7.292205e-01 -5.885075e-01
39 1 4 -7.815319e+00 6.506682e-01 6.629123e+00 0 -1 0 4.666554e-01 -1.537270e-01 -7.892306e-01 -3.683963e-01
40 1 4 -7.771151e+00 1.328182e+00 6.578965e+00 0 -1 0 9.315414e-02 -4.694686e-01 6.883091e-01 -5.451166e-01
41 1 2 -8.526532e+00 1.623258e+00 6.290379e+00 0 -1 0 3.809033e-02 -1.714143e-01 7.120963e-01 6.797685e-01
42 1 4 -8.398119e+00 1.364568e+00 7.204769e+00 0 -1 0 -3.081088e-01 7.677104e-01 -5.591039e-01 -5.561062e-02
43 1 3 -9.953336e+00 1.446168e+00 7.253341e+00 0 -1 0 4.326861e-03 -3.905076e-01 -7.554948e-01 5.260348e-01
44 1 2 -1.037878e+01 1.058912e+00 7.267717e+00 0 -1 0 2.307772e-01 6.506710e-01 5.649295e-01 -4.519112e-01
45 1 1 -1.058884e+01 1.846442e+00 7.285426e+00 0 -1 0 1.533857e-01 -1.318864e-01 3.077311e-01 9.297206e-01
46 1 3 -9.824806e+00 2.435139e+00 8.122890e+00 0 -1 0 6.255997e-01 -7.195962e-02 -1.711822e-01 7.577226e-01
47 1 4 -9.885032e+00 2.470150e+00 8.617170e+00 0 -1 0 -5.381650e-01 1.491873e-01 -3.146307e-03 -8.295250e-01
48 1 1 -9.896334e+00 2.581807e+00 9.147307e+00 0 -1 0 4.210020e-01 -2.597998e-01 1.454278e-01 8.568034e-01
49 1 4 -9.859903e+00 2.979446e+00 9.466746e+00 0 -1 0 -4.684085e-02 1.605068e-01 -1.728360e-01 -9.706551e-01
50 1 4 -9.557048e+00 2.920680e+00 9.302969e+00 0 -1 0 -9.629518e-01 -2.566136e-01 8.286766e-02 -2.492047e-03
51 1 4 -1.015221e+01 3.608691e+00 1.049510e+01 0 -1 0 -2.885659e-01 -4.994241e-01 5.814233e-01 -5.738051e-01
52 1 1 -1.037568e+01 3.917894e+00 1.110155e+01 0 -1 0 6.333001e-01 -1.579827e-01 -3.128938e-01 6.899782e-01
53 1 3 -1.037488e+01 3.985917e+00 1.159816e+01 0 -1 0 -2.812591e-01 1.933591e-01 1.910340e-01 -9.203323e-01
54 1 4 -9.359322e+00 2.984607e+00 1.135245e+01 0 -1 0 -9.072415e-01 3.200287e-01 3.521405e-02 -2.706558e-01
55 1 4 -9.426719e+00 3.067746e+00 1.216959e+01 0 -1 0 -1.690030e-01 8.980464e-01 -3.848612e-01 1.297398e-01
56 1 4 -8.721970e+00 3.335235e+00 1.230553e+01 0 -1 0 -7.147005e-01 6.857961e-01 -1.244103e-01 -5.838643e-02
57 1 1 -8.561333e+00 3.828050e+00 1.252809e+01 0 -1 0 6.750635e-01 -6.115762e-01 3.257000e-01 2.533444e-01
58 1 1 -8.170728e+00 4.123933e+00 1.273761e+01 0 -1 0 6.267075e-01 -4.105746e-01 5.222303e-01 4.073595e-01
59 1 3 -7.788163e+00 4.490917e+00 1.269873e+01 0 -1 0 -4.461662e-01 2.844522e-01 -6.630214e-01 -5.295520e-01
60 1 4 -7.483928e+00 4.816897e+00 1.248043e+01 0 -1 0 2.809995e-01 -1.254220e-01 8.277470e-01 4.691945e-01
61 1 2 -7.309793e+00 5.007079e+00 1.207344e+01 0 -1 0 5.747735e-02 2.313230e-01 8.051417e-01 5.430772e-01
62 1 3 -7.337155e+00 5.404687e+00 1.168711e+01 0 -1 0 1.379586e-01 -4.112038e-01 -6.724106e-01 -5.997857e-01
63 1 2 -7.449037e+00 5.964944e+00 1.153736e+01 0 -1 0 -3.722553e-01 5.078613e-01 5.300059e-01 5.679759e-01
64 1 4 -7.629480e+00 6.446267e+00 1.145225e+01 0 -1 0 5.154195e-01 -6.058995e-01 -3.566218e-01 -4.899483e-01
65 1 2 -7.893129e+00 6.901189e+00 1.162271e+01 0 -1 0 7.031087e-01 -6.409239e-01 -2.085962e-01 -2.265884e-01
66 1 1 -7.952106e+00 7.419950e+00 1.194609e+01 0 -1 0 7.220761e-01 -6.681544e-01 -6.084312e-02 -1.687424e-01
67 1 2 -7.788158e+00 7.905085e+00 1.230134e+01 0 -1 0 -7.301064e-01 6.324184e-01 -2.538018e-01 -5.075663e-02
68 1 1 -7.352931e+00 8.158637e+00 1.248810e+01 0 -1 0 6.948191e-01 -4.741844e-01 4.737221e-01 2.606970e-01
69 1 1 -6.853370e+00 8.350665e+00 1.254225e+01 0 -1 0 -5.824584e-01 2.617195e-01 -6.150022e-01 -4.626202e-01
70 1 2 -6.439040e+00 8.529365e+00 1.244620e+01 0 -1 0 3.982246e-01 1.104227e-02 6.978876e-01 5.951875e-01
71 1 3 -5.882651e+00 8.622356e+00 1.385238e+01 0 -1 0 -4.591891e-01 6.139930e-01 -3.890922e-01 5.106517e-01
72 1 4 -5.721920e+00 9.232172e+00 1.344302e+01 0 -1 0 -1.903174e-01 2.813407e-01 -9.286888e-01 -1.488751e-01
73 1 1 -5.581073e+00 9.151681e+00 1.294462e+01 0 -1 0 -1.674755e-01 -7.726815e-02 -9.777271e-01 -1.001564e-01
74 1 1 -4.741600e+00 9.017044e+00 1.250018e+01 0 -1 0 -5.190214e-02 -3.672446e-01 9.281690e-01 3.065854e-02
75 1 3 -3.607054e+00 9.799211e+00 1.255719e+01 0 -1 0 -7.597366e-02 9.578445e-01 -1.305002e-01 -2.444006e-01
76 1 1 -3.710478e+00 1.017344e+01 1.210789e+01 0 -1 0 5.069534e-02 -8.986629e-01 4.154425e-01 1.313106e-01
77 1 4 -4.250006e+00 1.145834e+01 1.174359e+01 0 -1 0 2.712199e-02 7.892271e-01 2.317007e-01 -5.680668e-01
78 1 1 -3.721214e+00 1.169835e+01 1.161126e+01 0 -1 0 -3.270140e-01 1.600024e-01 1.771777e-01 -9.143682e-01
79 1 4 -3.875521e+00 1.186318e+01 1.200876e+01 0 -1 0 -6.191111e-02 -1.767190e-01 -7.331339e-02 9.795726e-01
80 1 2 -4.137404e+00 1.177570e+01 1.251141e+01 0 -1 0 2.174315e-01 -4.272150e-01 -1.083231e-01 8.709058e-01
81 1 4 -4.046862e+00 1.128728e+01 1.332824e+01 0 -1 0 -1.139511e-01 -1.494535e-01 -8.465486e-01 4.980303e-01
82 1 4 -3.799577e+00 1.241540e+01 1.300104e+01 0 -1 0 1.134624e-01 -1.529518e-01 4.287359e-01 8.831294e-01
83 1 4 -3.690039e+00 1.260422e+01 1.433634e+01 0 -1 0 7.102564e-01 -2.539298e-01 -5.959394e-01 2.755208e-01
84 1 4 -3.565272e+00 1.226389e+01 1.421290e+01 0 -1 0 2.417119e-01 6.282485e-01 -5.767730e-01 -4.628305e-01
85 1 1 -3.229907e+00 1.280809e+01 1.472972e+01 0 -1 0 -1.095930e-01 -8.024883e-01 -1.824813e-01 5.574069e-01
86 1 1 -3.306919e+00 1.260124e+01 1.617121e+01 0 -1 0 6.734929e-01 -5.949823e-01 2.037637e-01 -3.884376e-01
87 1 3 -2.901753e+00 1.276347e+01 1.662904e+01 0 -1 0 -6.038487e-01 -5.166301e-01 5.957231e-01 -1.165081e-01
88 1 2 -3.818982e+00 1.226414e+01 1.692464e+01 0 -1 0 -3.228494e-01 4.612232e-01 -5.089730e-01 6.511435e-01
89 1 2 -3.870916e+00 1.264590e+01 1.676475e+01 0 -1 0 -3.597795e-01 3.155287e-01 -8.317684e-01 -2.813568e-01
90 1 3 -4.620564e+00 1.271003e+01 1.720826e+01 0 -1 0 -5.207856e-01 2.779010e-01 -8.071885e-01 3.714510e-04
91 1 3 -4.908873e+00 1.350864e+01 1.858772e+01 0 -1 0 -4.753710e-01 1.120784e-01 5.640575e-01 -6.658077e-01
92 1 2 -5.229436e+00 1.420735e+01 1.826047e+01 0 -1 0 2.118247e-01 6.408320e-01 -1.478763e-01 7.229089e-01
93 1 1 -4.585651e+00 1.419429e+01 1.807514e+01 0 -1 0 6.710223e-02 6.898427e-01 -6.602007e-02 7.178131e-01
94 1 2 -4.116518e+00 1.431667e+01 1.824286e+01 0 -1 0 -1.376588e-01 6.038771e-01 -3.285864e-01 7.130312e-01
95 1 3 -4.604360e+00 1.524063e+01 1.763284e+01 0 -1 0 -5.570329e-02 4.607940e-01 3.637153e-01 8.076368e-01
96 1 2 -4.301340e+00 1.561208e+01 1.781582e+01 0 -1 0 1.965812e-01 -4.343240e-01 -2.377502e-01 -8.462821e-01
97 1 2 -3.610357e+00 1.551755e+01 1.807764e+01 0 -1 0 -4.956689e-01 2.868317e-01 -1.125634e-01 -8.120157e-01
98 1 4 -3.156755e+00 1.411810e+01 1.842248e+01 0 -1 0 9.891155e-01 3.209136e-03 1.105272e-01 -9.707695e-02
99 1 2 -2.996462e+00 1.384134e+01 1.877737e+01 0 -1 0 -9.515168e-01 -1.060163e-01 -1.393611e-01 -2.528930e-01
100 1 1 -2.745856e+00 1.380864e+01 1.923928e+01 0 -1 0 8.508904e-01 1.916346e-01 3.364188e-01 3.550833e-01
101 2 4 -8.962578e+00 1.634475e+01 8.839549e+00 0 -1 0 -4.356490e-01 8.241944e-02 7.408990e-01 -5.044657e-01
102 2 3 -8.615281e+00 1.592528e+01 8.910587e+00 0 -1 0 2.442357e-01 2.980544e-01 -2.661255e-01 8.835665e-01
103 2 1 -8.493201e+00 1.573329e+01 9.427058e+00 0 -1 0 -2.390127e-01 -3.424389e-01 9.552610e-02 -9.035946e-01
104 2 3 -9.397519e+00 1.518463e+01 9.546051e+00 0 -1 0 2.696407e-01 1.386854e-01 -1.357622e-01 -9.432014e-01
105 2 3 -9.654763e+00 1.534028e+01 1.000106e+01 0 -1 0 4.073892e-01 1.939863e-01 -1.167350e-01 -8.847465e-01
106 2 2 -1.004797e+01 1.524827e+01 1.114048e+01 0 -1 0 1.536914e-01 -2.477587e-01 5.569300e-01 -7.777041e-01
107 2 3 -8.971696e+00 1.500555e+01 1.097837e+01 0 -1 0 8.789275e-01 4.820743e-02 4.696790e-01 6.755806e-02
108 2 4 -8.360697e+00 1.571685e+01 1.122282e+01 0 -1 0 2.198869e-01 -6.741316e-01 4.734951e-01 5.224927e-01
109 2 3 -7.624416e+00 1.536118e+01 1.151442e+01 0 -1 0 8.374451e-01 1.525261e-01 -4.627008e-02 5.227624e-01
110 2 2 -7.997538e+00 1.441272e+01 1.091615e+01 0 -1 0 -2.736612e-01 2.674375e-01 -8.957855e-01 2.261749e-01
111 2 2 -7.832461e+00 1.405502e+01 1.050286e+01 0 -1 0 1.556902e-01 3.095749e-02 9.630970e-01 -2.173621e-01
112 2 3 -7.818538e+00 1.366031e+01 1.032080e+01 0 -1 0 3.912422e-01 3.697194e-01 8.348428e-01 -1.152157e-01
113 2 3 -8.198838e+00 1.306826e+01 1.081889e+01 0 -1 0 -1.016965e-01 -8.145125e-03 8.710079e-01 -4.805588e-01
114 2 2 -8.113500e+00 1.276498e+01 1.028354e+01 0 -1 0 3.630408e-01 -5.591930e-02 -7.400892e-01 5.633316e-01
115 2 4 -7.777992e+00 1.247888e+01 9.922017e+00 0 -1 0 -7.272292e-02 7.695933e-02 6.706012e-01 -7.342225e-01
116 2 4 -7.857039e+00 1.189797e+01 1.003945e+01 0 -1 0 -1.355520e-01 1.578900e-01 5.397427e-01 -8.157047e-01
117 2 1 -8.256585e+00 1.101375e+01 9.061798e+00 0 -1 0 -4.334091e-01 -4.112936e-01 3.870271e-01 7.022850e-01
118 2 1 -7.314427e+00 1.127006e+01 8.483700e+00 0 -1 0 -4.640681e-01 5.464798e-01 -4.563250e-01 -5.270371e-01
119 2 1 -7.475740e+00 1.017600e+01 8.850042e+00 0 -1 0 9.365683e-01 2.487921e-01 -2.466343e-01 -1.066922e-02
120 2 1 -7.546598e+00 9.703206e+00 9.118269e+00 0 -1 0 8.661347e-01 2.000125e-01 -3.202914e-01 3.274432e-01
121 2 3 -7.441565e+00 9.335650e+00 9.411317e+00 0 -1 0 6.101911e-01 -1.466567e-03 -4.390566e-01 6.594649e-01
122 2 1 -7.753585e+00 8.976000e+00 9.968551e+00 0 -1 0 -7.615478e-01 5.506219e-01 -1.565091e-01 3.039168e-01
123 2 4 -8.963945e+00 9.065332e+00 9.327290e+00 0 -1 0 2.041161e-01 3.535416e-01 5.550362e-02 -9.111884e-01
124 2 1 -9.047991e+00 8.998804e+00 9.826387e+00 0 -1 0 -2.990733e-02 -9.615562e-01 -2.319735e-01 1.438871e-01
125 2 4 -9.791563e+00 9.097307e+00 1.078596e+01 0 -1 0 1.008172e-01 4.742739e-01 -2.499900e-01 8.380962e-01
126 2 2 -9.386372e+00 9.076586e+00 1.113077e+01 0 -1 0 2.055704e-01 -3.026771e-01 4.258912e-01 -8.274926e-01
127 2 4 -9.167335e+00 8.942388e+00 1.152141e+01 0 -1 0 -5.543832e-01 1.076010e-01 -5.076016e-01 6.507087e-01
128 2 4 -8.105550e+00 8.879521e+00 1.095355e+01 0 -1 0 -3.877534e-01 -4.088057e-01 7.923044e-01 2.340491e-01
129 2 1 -8.064278e+00 9.922323e+00 1.008488e+01 0 -1 0 1.023216e-01 -9.582739e-02 3.029593e-01 9.426362e-01
130 2 2 -6.777931e+00 9.373296e+00 1.057293e+01 0 -1 0 -8.767432e-01 8.680765e-02 -4.161013e-01 -2.250457e-01
131 2 3 -6.971992e+00 9.319620e+00 1.088466e+01 0 -1 0 2.778238e-01 -1.485153e-02 3.358541e-01 8.998863e-01
132 2 4 -7.077699e+00 8.523687e+00 1.140928e+01 0 -1 0 5.641938e-01 4.651007e-01 -5.563389e-01 3.947830e-01
133 2 4 -6.921150e+00 8.025762e+00 1.143018e+01 0 -1 0 -4.065103e-01 -2.725477e-01 5.984013e-01 -6.343367e-01
134 2 3 -6.755356e+00 7.647265e+00 1.165946e+01 0 -1 0 -1.833419e-01 -1.051353e-01 6.614259e-01 -7.196167e-01
135 2 4 -6.795684e+00 7.191338e+00 1.202889e+01 0 -1 0 -9.978429e-02 5.650273e-02 6.122732e-01 -7.822864e-01
136 2 3 -6.911626e+00 6.857717e+00 1.235946e+01 0 -1 0 -2.207442e-01 -3.241536e-01 -5.810931e-01 7.131109e-01
137 2 1 -7.227464e+00 6.409336e+00 1.259603e+01 0 -1 0 -2.819774e-01 -4.469144e-01 -5.185058e-01 6.722410e-01
138 2 3 -7.707550e+00 6.115491e+00 1.265947e+01 0 -1 0 -4.666971e-01 -5.974066e-01 -2.821143e-01 5.879716e-01
139 2 2 -8.065975e+00 5.812670e+00 1.254243e+01 0 -1 0 -6.103031e-01 -7.053317e-01 -6.396549e-02 3.548883e-01
140 2 3 -8.413345e+00 5.403643e+00 1.231184e+01 0 -1 0 5.620929e-01 8.123936e-01 -6.508835e-02 -1.408252e-01
141 2 1 -8.495845e+00 5.115059e+00 1.192162e+01 0 -1 0 5.939229e-01 7.202025e-01 -3.398129e-01 1.144164e-01
142 2 2 -8.372060e+00 4.615122e+00 1.166674e+01 0 -1 0 5.588958e-01 6.423796e-01 -3.972257e-01 3.423386e-01
143 2 4 -8.018890e+00 4.170060e+00 1.156683e+01 0 -1 0 -4.404215e-01 -5.175945e-01 5.191246e-01 -5.182996e-01
144 2 4 -7.859378e+00 3.706500e+00 1.158350e+01 0 -1 0 3.612435e-01 3.385511e-01 -5.576653e-01 6.662550e-01
145 2 1 -7.641631e+00 3.373504e+00 1.190792e+01 0 -1 0 5.426737e-02 7.070555e-02 -6.367804e-01 7.658763e-01
146 2 1 -7.538874e+00 3.360088e+00 1.223230e+01 0 -1 0 5.666600e-02 7.374874e-01 6.038454e-01 2.971061e-01
147 2 1 -7.322771e+00 2.051198e+00 1.198843e+01 0 -1 0 -7.051618e-01 -1.236795e-01 -6.713175e-01 -1.917888e-01
148 2 2 -6.942937e+00 1.942205e+00 1.168106e+01 0 -1 0 -5.210588e-01 -4.470325e-01 -6.469806e-01 -3.317768e-01
149 2 4 -6.677597e+00 2.045356e+00 1.131076e+01 0 -1 0 1.831300e-01 7.704470e-01 3.120294e-01 5.248929e-01
150 2 1 -6.299723e+00 1.209809e+00 1.136081e+01 0 -1 0 6.031993e-01 -4.291114e-01 -3.078185e-01 5.977138e-01
151 2 1 -5.903586e+00 6.909024e-01 1.081474e+01 0 -1 0 -3.996651e-01 6.395133e-01 -5.049323e-01 4.199213e-01
152 2 1 -5.568982e+00 2.404131e-01 1.005855e+01 0 -1 0 -6.967101e-01 -2.683946e-01 -6.629677e-01 -5.507468e-02
153 2 4 -5.596847e+00 -8.685437e-01 1.056251e+01 0 -1 0 -5.753535e-01 -2.599464e-01 7.049970e-01 3.230718e-01
154 2 1 -4.845020e+00 -3.583792e-01 1.087600e+01 0 -1 0 3.196220e-01 -8.078652e-01 -2.141834e-01 4.464540e-01
155 2 2 -4.833630e+00 -1.891803e+00 1.086061e+01 0 -1 0 -5.493301e-01 4.625859e-01 -4.961988e-01 4.878909e-01
156 2 4 -4.435250e+00 -1.992716e+00 1.106790e+01 0 -1 0 -7.133522e-01 2.513616e-01 -6.034596e-01 2.525520e-01
157 2 3 -3.997804e+00 -2.134688e+00 1.131353e+01 0 -1 0 -6.905813e-01 -2.387367e-02 -7.201520e-01 6.251872e-02
158 2 2 -3.821887e+00 -1.597900e+00 1.248890e+01 0 -1 0 -4.078776e-01 5.221808e-01 -5.076497e-01 5.506858e-01
159 2 1 -3.330732e+00 -1.091147e+00 1.206029e+01 0 -1 0 1.327142e-01 3.422324e-01 4.526602e-01 8.126270e-01
160 2 3 -2.707270e+00 -1.226013e+00 1.321516e+01 0 -1 0 4.619013e-01 2.196107e-01 -7.979172e-01 3.189771e-01
161 2 1 -3.393260e+00 -1.299599e+00 1.317180e+01 0 -1 0 -1.323711e-01 3.355270e-02 -9.471014e-01 -2.904325e-01
162 2 1 -2.963189e+00 -1.122374e+00 1.426080e+01 0 -1 0 5.346962e-01 -8.188525e-01 1.953638e-01 7.357676e-02
163 2 4 -3.664677e+00 -1.213563e+00 1.434310e+01 0 -1 0 -4.306634e-01 -7.698636e-01 -2.277473e-01 4.122745e-01
164 2 4 -3.997103e+00 -1.475408e+00 1.393224e+01 0 -1 0 -5.976004e-01 -7.551439e-01 2.099848e-01 1.689316e-01
165 2 3 -4.356908e+00 -8.646224e-01 1.404914e+01 0 -1 0 -7.733198e-01 -4.545465e-01 -3.944898e-01 1.993535e-01
166 2 3 -4.151949e+00 -2.965677e-01 1.447747e+01 0 -1 0 -1.906329e-01 4.856018e-01 7.181768e-01 4.605129e-01
167 2 4 -3.421662e+00 4.352333e-01 1.405818e+01 0 -1 0 -4.695606e-02 7.542346e-01 -2.987579e-01 -5.828113e-01
168 2 2 -4.271004e+00 6.131572e-01 1.468668e+01 0 -1 0 4.103219e-01 4.912656e-01 2.851209e-01 -7.134425e-01
169 2 2 -4.729255e+00 7.241417e-01 1.551766e+01 0 -1 0 1.471291e-01 6.902580e-01 6.683601e-01 -2.349290e-01
170 2 1 -3.890948e+00 7.933191e-01 1.618333e+01 0 -1 0 2.333350e-01 -6.516261e-01 8.752186e-02 -7.164343e-01
171 2 1 -3.440389e+00 6.197979e-01 1.656059e+01 0 -1 0 8.779748e-02 -5.379527e-01 7.936758e-01 -2.701431e-01
172 2 4 -3.337797e+00 9.347048e-01 1.679832e+01 0 -1 0 9.846880e-02 -7.181066e-01 -6.884177e-01 2.660595e-02
173 2 4 -3.056589e+00 -6.663597e-02 1.763648e+01 0 -1 0 7.033936e-01 -1.533939e-01 -6.468753e-01 -2.515157e-01
174 2 1 -3.547824e+00 -1.063302e-01 1.781678e+01 0 -1 0 -7.612052e-01 2.803905e-01 5.805904e-01 -6.973229e-02
175 2 1 -3.933666e+00 -1.468870e-01 1.823450e+01 0 -1 0 6.644738e-01 -5.286200e-01 -3.527073e-01 3.932341e-01
176 2 2 -3.858595e+00 -1.379585e+00 1.846791e+01 0 -1 0 4.859666e-01 -6.386712e-01 5.677885e-01 -1.831715e-01
177 2 2 -3.845115e+00 -2.267626e+00 1.843113e+01 0 -1 0 7.795530e-01 -3.203588e-01 4.381351e-01 -3.125780e-01
178 2 1 -4.851387e+00 -2.388597e+00 1.814969e+01 0 -1 0 -1.826007e-01 -1.352817e-01 -9.152057e-01 -3.327978e-01
179 2 4 -3.769157e+00 -2.063662e+00 1.909946e+01 0 -1 0 4.692682e-01 -7.245820e-01 5.751207e-02 5.014586e-01
180 2 1 -3.363043e+00 -1.519789e+00 1.943610e+01 0 -1 0 7.543792e-01 2.936993e-01 -2.521432e-02 5.865296e-01
181 2 4 -2.952329e+00 -2.444880e+00 1.922536e+01 0 -1 0 9.233510e-01 1.105845e-01 -1.189681e-01 -3.479089e-01
182 2 2 -2.779392e+00 -1.050293e+00 1.883498e+01 0 -1 0 -1.860370e-02 -3.939291e-01 -3.881576e-01 8.329511e-01
183 2 3 -2.029458e+00 -1.283204e+00 1.895940e+01 0 -1 0 -7.189930e-01 1.262023e-01 -1.946700e-01 6.551532e-01
184 2 4 -1.795360e+00 8.045200e-03 1.957551e+01 0 -1 0 5.225036e-01 -6.989077e-01 -4.724470e-01 -1.237407e-01
185 2 3 -1.372939e+00 -4.582834e-01 -2.000419e+01 0 -1 1 -3.810245e-01 4.683828e-01 4.235970e-03 7.971323e-01
186 2 1 -1.248156e+00 -3.137555e-01 -1.954265e+01 0 -1 1 -6.852330e-01 4.106581e-01 -2.545187e-01 5.450100e-01
187 2 1 -1.086511e+00 -3.290862e-01 -1.912143e+01 0 -1 1 8.657637e-01 -2.699023e-01 3.434855e-01 -2.441797e-01
188 2 2 -1.446511e+00 2.633630e-01 -1.950296e+01 0 -1 1 -2.345007e-01 -6.694111e-01 7.043687e-01 2.762141e-02
189 2 4 -1.794579e+00 9.910748e-01 1.984364e+01 0 -1 0 -4.930140e-02 9.862920e-01 -7.060489e-02 -1.407567e-01
190 2 4 -2.165151e+00 8.130212e-01 1.903206e+01 0 -1 0 8.258080e-01 3.127231e-01 9.628258e-03 -4.692042e-01
191 2 1 -2.551093e+00 4.558807e-01 1.909501e+01 0 -1 0 -9.191001e-01 -2.074955e-01 3.109633e-01 1.245089e-01
192 2 4 -3.196472e+00 2.904789e-01 -2.027390e+01 0 -1 1 -2.041138e-01 -3.837969e-01 8.990565e-01 -5.229709e-02
193 2 4 -3.032003e+00 1.772869e+00 -1.992787e+01 0 -1 1 -3.656142e-01 3.328039e-01 6.253498e-02 -8.669816e-01
194 2 1 -3.239047e+00 2.044333e+00 -1.958030e+01 0 -1 1 -1.035974e-01 3.989749e-01 -9.600930e-02 -9.060181e-01
195 2 3 -3.426364e+00 2.426663e+00 -1.938245e+01 0 -1 1 3.263878e-01 3.070374e-01 -3.209931e-01 -8.343635e-01
196 2 4 -3.376372e+00 2.876218e+00 -1.889906e+01 0 -1 1 -5.221688e-01 -1.777188e-01 -7.467681e-01 -3.716090e-01
197 2 2 -2.879380e+00 2.514262e+00 -1.758263e+01 0 -1 1 3.116604e-01 -4.947767e-01 7.883624e-01 -1.911768e-01
198 2 4 -2.544510e+00 2.307448e+00 -1.777449e+01 0 -1 1 3.532620e-01 -6.992060e-02 9.322954e-01 -3.379861e-02
199 2 3 -2.203819e+00 2.049509e+00 -1.819640e+01 0 -1 1 -3.177456e-01 -2.207483e-01 -9.213233e-01 3.835874e-02
200 2 4 -2.024781e+00 1.757492e+00 -1.685297e+01 0 -1 1 8.564168e-01 -2.709272e-01 -4.270329e-01 -1.038829e-01
