ITEM: TIMESTEP
27000000
ITEM: NUMBER OF ATOMS
200
ITEM: BOX BOUNDS pp pp pp
-2.0000000000000000e+01 2.0000000000000000e+01
-2.0000000000000000e+01 2.0000000000000000e+01
-2.0000000000000000e+01 2.0000000000000000e+01
ITEM: ATOMS id mol type x y z ix iy iz c_quat[1] c_quat[2] c_quat[3] c_quat[4]
1 1 1 1.593157e+01 -1.637820e+01 7.257901e+00 -1 0 0 7.471692e-01 4.583975e-01 3.604583e-01 3.188726e-01
2 1 2 1.575916e+01 -1.617205e+01 8.527836e+00 -1 0 0 9.038522e-02 9.370335e-01 2.722248e-01 1.992294e-01
3 1 1 1.634981e+01 -1.756079e+01 8.586796e+00 -1 0 0 3.197240e-01 -3.602087e-01 8.741788e-01 -6.194905e-02
4 1 3 1.552867e+01 -1.767354e+01 8.323145e+00 -1 0 0 -3.696401e-01 2.185821e-01 7.631526e-01 4.828936e-01
5 1 1 1.508568e+01 -1.725753e+01 8.641722e+00 -1 0 0 -3.356075e-01 7.344074e-01 5.596144e-01 -1.866685e-01
6 1 2 1.464133e+01 -1.865812e+01 8.393460e+00 -1 0 0 -4.306400e-01 3.830196e-02 6.693747e-01 6.041686e-01
7 1 4 1.485147e+01 -1.912880e+01 8.243657e+00 -1 0 0 -1.091032e-01 7.199000e-01 -6.844916e-01 -3.621748e-02
8 1 1 1.508575e+01 -1.928167e+01 8.008179e+00 -1 0 0 -6.586032e-01 -4.911606e-01 2.223311e-01 -5.249494e-01
9 1 1 1.535035e+01 -1.957966e+01 8.261567e+00 -1 0 0 -2.896135e-01 -2.583480e-01 5.553650e-01 -7.354931e-01
10 1 4 1.579559e+01 1.959669e+01 7.822445e+00 -1 -1 0 7.917525e-01 4.661746e-02 6.035257e-01 8.192358e-02
11 1 1 1.597616e+01 1.937328e+01 8.357100e+00 -1 -1 0 -8.762401e-02 -5.546867e-01 2.655185e-01 -7.836738e-01
12 1 1 1.646131e+01 1.928138e+01 8.659891e+00 -1 -1 0 -1.318690e-01 3.463299e-01 -4.315725e-01 8.224423e-01
13 1 3 1.671461e+01 1.911054e+01 9.147231e+00 -1 -1 0 -3.253495e-01 1.617396e-01 -5.470523e-01 7.541364e-01
14 1 4 1.673200e+01 1.875150e+01 9.619752e+00 -1 -1 0 -5.408354e-01 -5.491978e-02 -5.212842e-01 6.578326e-01
15 1 4 1.668888e+01 1.836915e+01 1.000501e+01 -1 -1 0 7.295811e-01 1.079581e-01 5.500831e-01 -3.917461e-01
16 1 2 1.677216e+01 1.785792e+01 1.012205e+01 -1 -1 0 6.909091e-01 3.940571e-01 5.133083e-01 -3.223014e-01
17 1 1 1.682681e+01 1.731906e+01 1.005520e+01 -1 -1 0 -6.948371e-01 -5.902251e-01 -4.106246e-01 -1.494138e-02
18 1 2 1.696666e+01 1.687691e+01 9.817243e+00 -1 -1 0 -5.623595e-01 -7.733033e-01 -2.463593e-01 -1.583064e-01
19 1 3 1.723178e+01 1.664122e+01 9.434894e+00 -1 -1 0 -4.797693e-01 -8.235969e-01 -5.719671e-02 -2.970491e-01
20 1 1 1.757987e+01 1.636967e+01 9.140217e+00 -1 -1 0 -3.333269e-01 -7.998648e-01 -2.492870e-02 -4.984857e-01
21 1 4 1.807028e+01 1.646596e+01 8.887075e+00 -1 -1 0 9.870297e-02 7.529230e-01 -1.974215e-01 6.199915e-01
22 1 1 1.857164e+01 1.653617e+01 8.902055e+00 -1 -1 0 -1.443136e-01 6.453153e-01 -3.393239e-01 6.690300e-01
23 1 4 1.902759e+01 1.654271e+01 9.119504e+00 -1 -1 0 -3.610857e-01 4.833661e-01 -5.425216e-01 5.845037e-01
24 1 3 1.946753e+01 1.631261e+01 9.436052e+00 -1 -1 0 -4.896261e-01 2.799039e-01 -6.734610e-01 4.778811e-01
25 1 3 1.976696e+01 1.594363e+01 9.588808e+00 -1 -1 0 -5.996628e-01 1.973689e-02 -7.382511e-01 3.082212e-01
26 1 4 -1.996491e+01 1.546260e+01 9.581035e+00 0 -1 0 -5.846926e-01 -1.981409e-01 -7.581567e-01 2.099360e-01
27 1 4 -1.976984e+01 1.493886e+01 9.305883e+00 0 -1 0 -5.451717e-01 -4.289866e-01 -7.193991e-01 3.497567e-02
28 1 1 -1.954322e+01 1.462360e+01 8.835340e+00 0 -1 0 -5.353497e-01 -6.018569e-01 -5.363080e-01 -2.520768e-01
29 1 1 -1.930194e+01 1.465025e+01 8.373736e+00 0 -1 0 -3.436274e-01 -8.192983e-01 -2.003828e-01 -4.129374e-01
30 1 4 -1.883832e+01 1.445678e+01 8.110128e+00 0 -1 0 2.795474e-01 7.985716e-01 2.523338e-01 4.695362e-01
31 1 4 -1.840963e+01 1.452438e+01 7.855935e+00 0 -1 0 1.119573e-01 8.015540e-01 9.752342e-02 5.791943e-01
32 1 3 -1.810601e+01 1.491094e+01 7.744200e+00 0 -1 0 -2.225359e-01 8.359309e-01 2.097688e-02 5.012558e-01
33 1 3 -1.761289e+01 1.516985e+01 7.596130e+00 0 -1 0 -3.237823e-01 7.016624e-01 -1.592930e-01 6.143782e-01
34 1 1 -1.729976e+01 1.543075e+01 7.801998e+00 0 -1 0 -5.190509e-01 6.384975e-01 -3.589233e-01 4.405464e-01
35 1 2 -1.686932e+01 1.556811e+01 8.055729e+00 0 -1 0 -6.412497e-01 4.150405e-01 -6.041825e-01 2.269443e-01
36 1 2 -1.638207e+01 1.556027e+01 8.247574e+00 0 -1 0 -7.001355e-01 2.687904e-01 -6.431012e-01 1.548639e-01
37 1 1 -1.580636e+01 1.543375e+01 8.306749e+00 0 -1 0 -6.038417e-01 1.234312e-01 -7.867361e-01 -3.444084e-02
38 1 1 -1.532637e+01 1.509935e+01 8.137400e+00 0 -1 0 -5.494198e-01 -1.667045e-01 -7.900218e-01 -2.149721e-01
39 1 4 -1.494483e+01 1.502039e+01 7.758014e+00 0 -1 0 4.051675e-01 4.504810e-01 7.175498e-01 3.435527e-01
40 1 4 -1.477906e+01 1.498583e+01 7.301869e+00 0 -1 0 2.279944e-01 6.544013e-01 6.207610e-01 3.666514e-01
41 1 2 -1.458038e+01 1.521430e+01 6.907237e+00 0 -1 0 1.077941e-01 7.839657e-01 3.518571e-01 4.999748e-01
42 1 4 -1.427746e+01 1.557102e+01 6.577964e+00 0 -1 0 1.107204e-02 8.269700e-01 7.640814e-02 5.569199e-01
43 1 3 -1.391519e+01 1.587810e+01 6.442384e+00 0 -1 0 -1.859819e-01 8.009809e-01 -1.457711e-01 5.500828e-01
44 1 2 -1.336714e+01 1.604436e+01 6.503230e+00 0 -1 0 -3.040882e-01 6.437522e-01 -3.473066e-01 6.103208e-01
45 1 1 -1.312749e+01 1.622797e+01 6.833499e+00 0 -1 0 -6.176006e-01 5.040790e-01 -4.848738e-01 3.596822e-01
46 1 3 -1.262870e+01 1.611163e+01 7.153855e+00 0 -1 0 -7.015538e-01 2.400276e-01 -6.068052e-01 2.863503e-01
47 1 4 -1.221060e+01 1.590307e+01 7.319244e+00 0 -1 0 -6.979993e-01 1.033874e-01 -6.941939e-01 1.421367e-01
48 1 1 -1.174973e+01 1.560992e+01 7.328277e+00 0 -1 0 6.670457e-01 1.045242e-01 7.234295e-01 1.441335e-01
49 1 4 -1.130108e+01 1.538067e+01 7.110455e+00 0 -1 0 5.527575e-01 3.247286e-01 7.299623e-01 2.369926e-01
50 1 4 -1.079078e+01 1.541062e+01 6.745796e+00 0 -1 0 4.212601e-01 3.978968e-01 6.822757e-01 4.457778e-01
51 1 4 -1.065484e+01 1.554884e+01 6.277945e+00 0 -1 0 1.991878e-01 7.325668e-01 4.952452e-01 4.223768e-01
52 1 1 -1.037827e+01 1.579234e+01 5.934918e+00 0 -1 0 8.888520e-03 7.857656e-01 3.060452e-01 5.374288e-01
53 1 3 -1.006533e+01 1.617814e+01 5.811030e+00 0 -1 0 -2.634349e-01 7.917323e-01 1.932377e-01 5.161601e-01
54 1 4 -9.805151e+00 1.665471e+01 5.785380e+00 0 -1 0 -4.164879e-01 8.050152e-01 -3.975794e-02 4.206040e-01
55 1 4 -9.370818e+00 1.701987e+01 5.763296e+00 0 -1 0 -5.978339e-01 6.440989e-01 -1.890776e-01 4.381563e-01
56 1 4 -9.033030e+00 1.724685e+01 6.135472e+00 0 -1 0 -7.322011e-01 4.805053e-01 -4.166229e-01 2.437656e-01
57 1 1 -8.607293e+00 1.726572e+01 6.375849e+00 0 -1 0 -7.541849e-01 2.984118e-01 -5.832738e-01 4.412776e-02
58 1 1 -8.094570e+00 1.719584e+01 6.475649e+00 0 -1 0 -7.046347e-01 8.984372e-02 -6.897456e-01 -1.402462e-01
59 1 3 -7.549941e+00 1.697863e+01 6.371733e+00 0 -1 0 5.977430e-01 1.087066e-01 7.518726e-01 2.560738e-01
60 1 4 -7.128900e+00 1.690523e+01 6.044115e+00 0 -1 0 4.572004e-01 3.988833e-01 6.826338e-01 4.072727e-01
61 1 2 -6.824015e+00 1.705733e+01 5.691395e+00 0 -1 0 2.405240e-01 5.387562e-01 6.516790e-01 4.766597e-01
62 1 3 -6.612264e+00 1.732645e+01 5.308656e+00 0 -1 0 -1.404624e-02 6.124232e-01 6.212549e-01 4.886542e-01
63 1 2 -6.647580e+00 1.774349e+01 5.047083e+00 0 -1 0 -2.059652e-01 8.324142e-01 3.861755e-01 3.399021e-01
64 1 4 -6.396153e+00 1.821347e+01 4.823622e+00 0 -1 0 -2.378306e-01 8.580350e-01 7.693316e-02 4.486578e-01
65 1 2 -6.188862e+00 1.870142e+01 4.707776e+00 0 -1 0 -3.723162e-01 8.196985e-01 -1.925723e-01 3.903727e-01
66 1 1 -5.818669e+00 1.898693e+01 4.813151e+00 0 -1 0 -4.346006e-01 7.241507e-01 -4.672123e-01 2.616120e-01
67 1 2 -5.261565e+00 1.916522e+01 4.989654e+00 0 -1 0 -4.842240e-01 5.681360e-01 -6.649578e-01 2.407839e-02
68 1 1 -4.755013e+00 1.926645e+01 4.896919e+00 0 -1 0 -4.162549e-01 3.453534e-01 -8.127949e-01 -2.163960e-01
69 1 1 -4.373673e+00 1.941199e+01 4.516248e+00 0 -1 0 -3.320968e-01 2.677141e-01 -8.932731e-01 -1.417891e-01
70 1 2 -4.040912e+00 1.939538e+01 4.166827e+00 0 -1 0 2.270494e-01 8.102284e-02 9.386003e-01 2.468062e-01
71 1 3 -3.900427e+00 1.938881e+01 3.609991e+00 0 -1 0 1.139950e-01 3.213872e-01 9.188041e-01 1.987822e-01
72 1 4 -4.160867e+00 1.925790e+01 3.105322e+00 0 -1 0 1.052758e-01 6.330829e-01 7.667708e-01 1.362090e-02
73 1 1 -4.334032e+00 1.931018e+01 2.555614e+00 0 -1 0 -3.241775e-02 7.913135e-01 6.072781e-01 6.313039e-02
74 1 1 -4.539199e+00 1.953812e+01 2.039939e+00 0 -1 0 -1.140547e-01 8.966313e-01 4.124421e-01 1.137340e-01
75 1 3 -4.651723e+00 -2.009406e+01 1.687130e+00 0 0 0 -1.559188e-01 9.723378e-01 1.122518e-01 1.328458e-01
76 1 1 -4.571266e+00 -1.965519e+01 1.381990e+00 0 0 0 -1.539132e-01 9.663249e-01 -2.041922e-01 2.885344e-02
77 1 4 -4.223267e+00 -1.920706e+01 1.102631e+00 0 0 0 -1.324856e-01 8.191900e-01 -5.562780e-01 -4.393269e-02
78 1 1 -3.819584e+00 -1.912691e+01 6.858472e-01 0 0 0 -2.396741e-01 5.882160e-01 -7.708895e-01 -4.782925e-02
79 1 4 -3.545348e+00 -1.907384e+01 1.970851e-01 0 0 0 -1.590981e-01 3.426103e-01 -9.258570e-01 -9.731692e-03
80 1 2 -3.226552e+00 -1.931324e+01 -2.908483e-01 0 0 0 8.713959e-02 -4.676246e-02 9.850873e-01 1.407941e-01
81 1 4 -3.242517e+00 -1.932289e+01 -8.989918e-01 0 0 0 -7.540961e-02 9.466227e-02 9.828760e-01 1.389502e-01
82 1 4 -3.468517e+00 -1.941648e+01 -1.337897e+00 0 0 0 -1.314725e-01 3.890333e-01 9.051627e-01 1.097656e-01
83 1 4 -3.847056e+00 -1.945404e+01 -1.699346e+00 0 0 0 -1.558220e-01 6.137390e-01 7.733568e-01 -3.103505e-02
84 1 4 -4.270949e+00 -1.937056e+01 -1.971401e+00 0 0 0 -2.379171e-01 7.082095e-01 6.572356e-01 -9.937863e-02
85 1 1 -4.675388e+00 -1.911445e+01 -2.250429e+00 0 0 0 -1.354408e-01 9.531477e-01 2.570604e-01 -8.417369e-02
86 1 1 -4.849139e+00 -1.879060e+01 -2.600583e+00 0 0 0 -9.559207e-02 9.924917e-01 5.381823e-03 -7.611492e-02
87 1 3 -4.844459e+00 -1.841046e+01 -3.078995e+00 0 0 0 -6.219020e-02 9.559851e-01 -2.866089e-01 8.957050e-03
88 1 2 -4.624170e+00 -1.817640e+01 -3.509883e+00 0 0 0 -4.249216e-02 7.947960e-01 -5.971950e-01 9.925647e-02
89 1 2 -4.337700e+00 -1.819611e+01 -3.929621e+00 0 0 0 4.054759e-02 -4.794901e-01 8.720494e-01 -8.930303e-02
90 1 3 -4.082630e+00 -1.886666e+01 -4.470238e+00 0 0 0 6.114895e-01 -2.391959e-01 7.542114e-01 5.575250e-03
91 1 3 -3.606417e+00 -1.895723e+01 -4.509201e+00 0 0 0 -5.141399e-01 -8.295466e-02 -7.812811e-01 -3.440618e-01
92 1 2 -3.304597e+00 -1.895809e+01 -4.887602e+00 0 0 0 3.375800e-01 4.926712e-01 5.656931e-01 5.686001e-01
93 1 1 -3.138801e+00 -1.864233e+01 -4.994633e+00 0 0 0 5.209031e-02 -3.280595e-01 -8.389360e-02 -9.394815e-01
94 1 2 -2.706883e+00 -1.871796e+01 -5.762819e+00 0 0 0 1.522125e-01 -5.201685e-01 -6.347587e-01 -5.507609e-01
95 1 3 -2.098278e+00 -1.784249e+01 -5.832644e+00 0 0 0 5.366250e-03 7.473212e-01 3.383103e-01 -5.718640e-01
96 1 2 -1.911007e+00 -1.772753e+01 -5.690791e+00 0 0 0 8.178831e-02 9.427693e-02 -5.617881e-01 -8.178121e-01
97 1 2 -1.977882e+00 -1.734751e+01 -5.846987e+00 0 0 0 -3.585577e-01 3.233657e-01 5.177539e-01 7.062590e-01
98 1 4 -1.820377e+00 -1.673931e+01 -5.862090e+00 0 0 0 -3.446266e-01 1.685163e-01 7.322430e-01 5.627210e-01
99 1 2 -1.257813e-01 -1.652110e+01 -5.988160e+00 0 0 0 6.657366e-01 4.507308e-01 -8.369748e-02 5.887540e-01
100 1 1 3.314410e-01 -1.670944e+01 -5.794531e+00 0 0 0 3.099507e-01 3.151523e-01 -2.038972e-01 8.735190e-01
101 2 4 -8.284201e+00 -1.724783e+01 -9.752592e-01 0 0 0 -4.565160e-01 5.760395e-01 2.769227e-01 6.189390e-01
102 2 3 -8.499958e+00 -1.742154e+01 -1.374416e+00 0 0 0 -4.700332e-01 1.256529e-01 -6.295084e-01 -6.058047e-01
103 2 1 -8.270561e+00 -1.844336e+01 -1.579289e+00 0 0 0 -8.060373e-01 -2.782718e-01 -2.969157e-01 4.297787e-01
104 2 3 -7.896272e+00 -1.855637e+01 -5.560431e-01 0 0 0 5.840808e-01 -6.592407e-01 -4.695957e-01 6.108387e-02
105 2 3 -7.856975e+00 -1.938835e+01 -1.310150e+00 0 0 0 -3.591755e-01 -7.145447e-01 5.709982e-01 -1.854180e-01
106 2 2 -7.749012e+00 -1.963767e+01 -1.704407e+00 0 0 0 2.426854e-01 6.259581e-01 -6.738524e-01 3.085501e-01
107 2 3 -8.145708e+00 -1.934562e+01 -2.520617e+00 0 0 0 4.313799e-01 4.437818e-02 1.741809e-01 -8.840831e-01
108 2 4 -7.188923e+00 -1.947744e+01 -3.557630e+00 0 0 0 6.055246e-01 4.432232e-02 6.117797e-01 5.070514e-01
109 2 3 -6.748236e+00 -1.925395e+01 -3.640099e+00 0 0 0 -3.179087e-01 -3.066599e-01 -4.366770e-01 -7.837136e-01
110 2 2 -6.524281e+00 -1.963805e+01 -4.098301e+00 0 0 0 3.468489e-01 4.554472e-01 3.021977e-01 7.621944e-01
111 2 2 -5.429249e+00 2.005081e+01 -3.827635e+00 0 -1 0 -8.969825e-01 4.214638e-01 -7.745159e-03 -1.331565e-01
112 2 3 -4.747235e+00 -1.927495e+01 -3.867658e+00 0 0 0 -7.918636e-01 -5.151051e-02 -1.107853e-01 -5.983521e-01
113 2 3 -4.243442e+00 -1.927751e+01 -3.566078e+00 0 0 0 -6.388090e-01 -7.771179e-02 -1.946978e-02 -7.651829e-01
114 2 2 -3.889302e+00 -1.904870e+01 -3.126095e+00 0 0 0 -3.457805e-01 -3.542809e-02 -7.694321e-02 -9.344840e-01
115 2 4 -3.655112e+00 -1.872526e+01 -2.793053e+00 0 0 0 -4.465149e-02 -7.814502e-02 -3.336717e-02 -9.953825e-01
116 2 4 -3.705574e+00 -1.839363e+01 -2.423474e+00 0 0 0 3.021263e-01 -7.378045e-02 -4.141718e-02 -9.495056e-01
117 2 1 -3.917212e+00 -1.822983e+01 -1.943348e+00 0 0 0 5.941755e-01 -6.048204e-02 2.677756e-02 -8.016111e-01
118 2 1 -4.039780e+00 -1.830134e+01 -1.405934e+00 0 0 0 7.062207e-01 1.185547e-01 8.707690e-02 -6.925422e-01
119 2 1 -4.226493e+00 -1.861319e+01 -9.525828e-01 0 0 0 8.917719e-01 1.533634e-01 1.013899e-01 -4.134522e-01
120 2 1 -4.355144e+00 -1.897845e+01 -6.618919e-01 0 0 0 9.531273e-01 2.665776e-01 4.016105e-02 -1.373747e-01
121 2 3 -4.375996e+00 -1.953269e+01 -5.308405e-01 0 0 0 -9.425407e-01 -2.937996e-01 7.402247e-02 -1.407818e-01
122 2 1 -4.248960e+00 -1.994523e+01 -2.192627e-01 0 0 0 -8.486954e-01 -1.680645e-01 1.571096e-01 -4.762217e-01
123 2 4 -4.051490e+00 1.981249e+01 2.342767e-01 0 -1 0 -7.512822e-01 -1.691790e-01 1.008273e-01 -6.299107e-01
124 2 1 -3.762989e+00 1.972914e+01 7.908365e-01 0 -1 0 -5.301564e-01 -8.244159e-02 8.080196e-02 -8.400052e-01
125 2 4 -3.527431e+00 1.980660e+01 1.289390e+00 0 -1 0 -2.369556e-01 -5.030821e-02 7.707424e-02 -9.671508e-01
126 2 2 -3.493653e+00 -1.993309e+01 1.903107e+00 0 0 0 8.308619e-02 6.707781e-02 1.128514e-01 -9.878572e-01
127 2 4 -3.668884e+00 -1.979836e+01 2.415930e+00 0 0 0 2.767496e-01 1.732255e-01 2.034332e-02 -9.449808e-01
128 2 4 -4.014677e+00 -1.954680e+01 2.766889e+00 0 0 0 6.023533e-01 1.572877e-01 -9.490030e-02 -7.768043e-01
129 2 1 -4.431278e+00 -1.961628e+01 3.103236e+00 0 0 0 7.567338e-01 2.595488e-01 -2.120971e-01 -5.612514e-01
130 2 2 -4.782961e+00 2.017881e+01 3.409302e+00 0 -1 0 8.686320e-01 3.229737e-01 -2.368203e-01 -2.916891e-01
131 2 3 -5.088871e+00 1.969485e+01 3.667217e+00 0 -1 0 9.036463e-01 3.220055e-01 -2.799997e-01 3.655141e-02
132 2 4 -5.131743e+00 1.895430e+01 3.757728e+00 0 -1 0 -8.884537e-01 -2.988147e-01 2.724581e-01 -2.170862e-01
133 2 4 -5.043757e+00 1.857314e+01 3.954049e+00 0 -1 0 -7.245882e-01 -1.396271e-01 3.715921e-01 -5.633787e-01
134 2 3 -4.893903e+00 1.819488e+01 4.416903e+00 0 -1 0 -4.906436e-01 7.036461e-02 4.069286e-01 -7.672854e-01
135 2 4 -5.027436e+00 1.817029e+01 4.958736e+00 0 -1 0 2.211225e-01 -2.187842e-01 -3.140654e-01 8.969957e-01
136 2 3 -5.453524e+00 1.798499e+01 5.288767e+00 0 -1 0 3.258804e-01 -3.257982e-01 -2.391388e-01 8.546754e-01
137 2 1 -5.677309e+00 1.805979e+01 5.755535e+00 0 -1 0 -3.837907e-02 4.498733e-01 2.175334e-01 -8.653441e-01
138 2 3 -6.220978e+00 1.822709e+01 5.998802e+00 0 -1 0 3.148180e-01 5.216779e-01 1.601376e-01 -7.765937e-01
139 2 2 -6.696939e+00 1.819844e+01 6.065740e+00 0 -1 0 4.288293e-01 5.595533e-01 -1.287724e-01 -6.974405e-01
140 2 3 -7.186555e+00 1.815867e+01 5.951205e+00 0 -1 0 5.854526e-01 5.610448e-01 -2.856844e-01 -5.107430e-01
141 2 1 -7.547925e+00 1.797074e+01 5.659241e+00 0 -1 0 6.265029e-01 5.703535e-01 -4.522527e-01 -2.786728e-01
142 2 2 -7.821507e+00 1.771331e+01 5.393083e+00 0 -1 0 6.404538e-01 4.184685e-01 -6.439373e-01 -6.917534e-03
143 2 4 -7.981501e+00 1.716336e+01 5.305199e+00 0 -1 0 -6.249552e-01 -1.323022e-01 7.349742e-01 -2.274642e-01
144 2 4 -8.290702e+00 1.668694e+01 5.337406e+00 0 -1 0 5.951167e-01 -8.990482e-02 -6.940245e-01 3.950737e-01
145 2 1 -8.506730e+00 1.627623e+01 5.647401e+00 0 -1 0 5.375894e-01 -1.281582e-01 -5.363351e-01 6.379010e-01
146 2 1 -8.757117e+00 1.609479e+01 6.137466e+00 0 -1 0 3.744588e-01 -2.931144e-01 -3.403893e-01 8.111718e-01
147 2 1 -9.067558e+00 1.618126e+01 6.592004e+00 0 -1 0 1.575984e-01 -4.292268e-01 -1.834483e-01 8.702148e-01
148 2 2 -9.619424e+00 1.623541e+01 6.874961e+00 0 -1 0 -9.492607e-02 -5.458711e-01 -1.433776e-01 8.200345e-01
149 2 4 -1.015315e+01 1.641968e+01 6.929522e+00 0 -1 0 3.645727e-01 5.695746e-01 -1.070555e-01 -7.288420e-01
150 2 1 -1.069868e+01 1.647882e+01 6.887593e+00 0 -1 0 3.204235e-01 6.597140e-01 -2.443033e-01 -6.343675e-01
151 2 1 -1.119206e+01 1.654992e+01 6.712760e+00 0 -1 0 5.661737e-01 5.923664e-01 -3.869868e-01 -4.228364e-01
152 2 1 -1.152742e+01 1.636723e+01 6.403001e+00 0 -1 0 5.701909e-01 5.190636e-01 -6.229453e-01 -1.318886e-01
153 2 4 -1.180600e+01 1.594133e+01 6.167654e+00 0 -1 0 6.737646e-01 2.538029e-01 -6.934418e-01 2.763703e-02
154 2 1 -1.224659e+01 1.553407e+01 6.183682e+00 0 -1 0 7.218698e-01 -3.809037e-02 -6.635467e-01 1.927666e-01
155 2 2 -1.250233e+01 1.516894e+01 6.419577e+00 0 -1 0 5.796081e-01 -2.776327e-01 -6.338115e-01 4.304155e-01
156 2 4 -1.299380e+01 1.509848e+01 6.686489e+00 0 -1 0 6.546618e-01 -3.209483e-01 -3.903388e-01 5.621795e-01
157 2 3 -1.327340e+01 1.510285e+01 7.184262e+00 0 -1 0 4.630503e-01 -4.979012e-01 -2.445932e-01 6.912691e-01
158 2 2 -1.355878e+01 1.533751e+01 7.512882e+00 0 -1 0 2.566213e-01 -5.841974e-01 -6.175503e-02 7.674928e-01
159 2 1 -1.377829e+01 1.577289e+01 7.675067e+00 0 -1 0 -7.927301e-02 -5.120326e-01 1.620761e-01 8.398034e-01
160 2 3 -1.435362e+01 1.597413e+01 7.792100e+00 0 -1 0 2.606095e-01 6.040981e-01 -2.270213e-01 -7.180595e-01
161 2 1 -1.482676e+01 1.617551e+01 7.492825e+00 0 -1 0 4.414185e-01 5.459681e-01 -4.163738e-01 -5.776690e-01
162 2 1 -1.529342e+01 1.606760e+01 7.288998e+00 0 -1 0 7.096295e-01 3.498293e-01 -4.979473e-01 -3.550970e-01
163 2 4 -1.565415e+01 1.568901e+01 7.136788e+00 0 -1 0 7.608335e-01 1.824180e-01 -6.211750e-01 -4.469609e-02
164 2 4 -1.606724e+01 1.529384e+01 7.126621e+00 0 -1 0 7.667977e-01 1.493430e-01 -6.108012e-01 1.289955e-01
165 2 3 -1.624563e+01 1.480102e+01 7.320859e+00 0 -1 0 7.042946e-01 -6.543131e-02 -5.978200e-01 3.772256e-01
166 2 3 -1.654209e+01 1.445945e+01 7.572798e+00 0 -1 0 6.309811e-01 -1.893499e-01 -4.903829e-01 5.705560e-01
167 2 4 -1.701525e+01 1.425454e+01 7.964377e+00 0 -1 0 5.112442e-01 -3.220272e-01 -3.230029e-01 7.284209e-01
168 2 2 -1.731924e+01 1.434260e+01 8.439485e+00 0 -1 0 3.162477e-01 -5.017701e-01 -2.274281e-01 7.723280e-01
169 2 2 -1.772223e+01 1.442483e+01 8.884125e+00 0 -1 0 2.483673e-01 -6.074583e-01 -9.369568e-02 7.486850e-01
170 2 1 -1.804156e+01 1.470473e+01 9.010473e+00 0 -1 0 1.484104e-01 -5.846722e-01 2.148234e-01 7.681040e-01
171 2 1 -1.834220e+01 1.521740e+01 8.970458e+00 0 -1 0 9.407165e-02 5.195011e-01 -3.793358e-01 -7.598510e-01
172 2 4 -1.870850e+01 1.558625e+01 8.814433e+00 0 -1 0 3.190955e-01 4.182582e-01 -5.096988e-01 -6.807682e-01
173 2 4 -1.916199e+01 1.571441e+01 8.571686e+00 0 -1 0 5.533809e-01 2.581162e-01 -5.923918e-01 -5.255640e-01
174 2 1 -1.965219e+01 1.569908e+01 8.459069e+00 0 -1 0 6.629889e-01 8.873301e-02 -6.699300e-01 -3.221271e-01
175 2 1 1.977516e+01 1.571067e+01 8.407520e+00 -1 -1 0 7.723863e-01 9.685555e-02 -6.148757e-01 -1.263580e-01
176 2 2 1.932915e+01 1.552496e+01 8.498142e+00 -1 -1 0 8.004066e-01 -1.796110e-01 -5.673671e-01 7.199795e-02
177 2 2 1.897439e+01 1.532950e+01 8.836545e+00 -1 -1 0 7.651661e-01 -3.499812e-01 -4.230206e-01 3.362849e-01
178 2 1 1.868729e+01 1.546182e+01 9.358642e+00 -1 -1 0 6.802979e-01 -4.537520e-01 -2.733877e-01 5.065205e-01
179 2 4 1.844860e+01 1.572704e+01 9.792093e+00 -1 -1 0 4.974538e-01 -5.853752e-01 -1.712600e-02 6.399861e-01
180 2 1 1.814555e+01 1.615643e+01 1.004320e+01 -1 -1 0 3.329379e-01 -6.206470e-01 2.331786e-01 6.705053e-01
181 2 4 1.826767e+01 1.666731e+01 1.010787e+01 -1 -1 0 -1.454513e-01 4.642474e-01 -4.338777e-01 -7.583326e-01
182 2 2 1.822447e+01 1.717719e+01 9.889797e+00 -1 -1 0 7.158879e-02 2.793030e-01 -6.021292e-01 -7.445168e-01
183 2 3 1.800223e+01 1.754646e+01 9.611647e+00 -1 -1 0 2.595485e-01 1.310577e-01 -6.630011e-01 -6.898464e-01
184 2 4 1.768069e+01 1.778903e+01 9.263177e+00 -1 -1 0 4.159576e-01 2.033795e-02 -7.485684e-01 -5.159563e-01
185 2 3 1.721894e+01 1.786401e+01 9.003986e+00 -1 -1 0 5.462052e-01 -2.177835e-01 -7.588993e-01 -2.798252e-01
186 2 1 1.675190e+01 1.780845e+01 8.902875e+00 -1 -1 0 5.811077e-01 -4.211417e-01 -6.951829e-01 -4.091670e-02
187 2 1 1.625511e+01 1.795233e+01 8.886821e+00 -1 -1 0 5.717182e-01 -6.682829e-01 -4.757927e-01 1.254871e-02
188 2 2 1.585338e+01 1.828879e+01 9.043078e+00 -1 -1 0 5.799822e-01 -7.296711e-01 -2.317206e-01 2.783994e-01
189 2 4 1.554970e+01 1.869053e+01 9.185593e+00 -1 -1 0 5.870501e-01 -7.404411e-01 -5.698497e-02 3.222915e-01
190 2 4 1.545989e+01 1.916035e+01 9.345018e+00 -1 -1 0 -3.618435e-01 7.482013e-01 -2.430850e-01 -5.001738e-01
191 2 1 1.484709e+01 1.868830e+01 9.601079e+00 -1 -1 0 3.901800e-01 5.938750e-01 5.322850e-01 4.601573e-01
192 2 4 1.417901e+01 1.869694e+01 9.650257e+00 -1 -1 0 -1.409719e-01 7.849249e-01 4.329733e-01 -4.201833e-01
193 2 4 1.443858e+01 1.758862e+01 9.413215e+00 -1 -1 0 -8.410878e-01 -2.753663e-01 -1.085216e-01 -4.527337e-01
194 2 1 1.380097e+01 1.729592e+01 9.546341e+00 -1 -1 0 -7.226775e-01 -6.252757e-02 5.021701e-01 -4.708001e-01
195 2 3 1.375403e+01 1.705252e+01 9.966273e+00 -1 -1 0 4.786041e-01 -5.791797e-03 -4.053576e-01 7.788387e-01
196 2 4 1.372742e+01 1.689448e+01 1.039092e+01 -1 -1 0 -1.825917e-01 1.710805e-01 3.400133e-01 -9.065223e-01
197 2 2 1.349346e+01 1.687854e+01 1.087592e+01 -1 -1 0 -2.054878e-01 -3.412406e-01 -2.522069e-01 8.818851e-01
198 2 4 1.476147e+01 1.672749e+01 1.141409e+01 -1 -1 0 4.893421e-01 2.499711e-01 -7.864852e-01 2.819570e-01
199 2 3 1.469698e+01 1.787524e+01 1.136741e+01 -1 -1 0 2.582419e-02 -6.841266e-01 -6.204928e-01 -3.824822e-01
200 2 4 1.496841e+01 1.691462e+01 1.243726e+01 -1 -1 0 6.769068e-01 -1.541878e-01 -7.067196e-01 1.362743e-01
