ITEM: TIMESTEP
268000000
ITEM: NUMBER OF ATOMS
200
ITEM: BOX BOUNDS pp pp pp
-2.0000000000000000e+01 2.0000000000000000e+01
-2.0000000000000000e+01 2.0000000000000000e+01
-2.0000000000000000e+01 2.0000000000000000e+01
ITEM: ATOMS id mol type x y z ix iy iz c_quat[1] c_quat[2] c_quat[3] c_quat[4]
1 1 1 1.115081e+01 1.280474e+01 1.551805e+01 -1 -1 0 7.347255e-01 -8.427005e-02 -4.521365e-01 4.986478e-01
2 1 2 1.063055e+01 1.319303e+01 1.589503e+01 -1 -1 0 5.000254e-01 -3.950934e-01 1.060068e-02 -7.705604e-01
3 1 1 1.075455e+01 1.344369e+01 1.631345e+01 -1 -1 0 -7.794659e-01 4.117214e-01 -2.798832e-01 3.802418e-01
4 1 3 1.098455e+01 1.350222e+01 1.665939e+01 -1 -1 0 -8.505160e-01 2.949906e-01 -4.353713e-01 7.410170e-03
5 1 1 1.086433e+01 1.308013e+01 1.698814e+01 -1 -1 0 -9.272429e-01 -3.730641e-01 3.225200e-02 1.888949e-03
6 1 2 1.092263e+01 1.266925e+01 1.702156e+01 -1 -1 0 -8.023861e-01 -2.581567e-01 3.223523e-01 -4.308372e-01
7 1 4 1.114889e+01 1.231168e+01 1.735548e+01 -1 -1 0 4.651064e-01 1.723473e-01 -4.173514e-01 7.614396e-01
8 1 1 1.144557e+01 1.220656e+01 1.777529e+01 -1 -1 0 5.976627e-02 2.878915e-02 -3.773794e-01 9.236796e-01
9 1 1 1.137904e+01 1.218804e+01 1.830205e+01 -1 -1 0 -2.829766e-01 -8.724221e-02 -3.399108e-01 8.926218e-01
10 1 4 1.095048e+01 1.185847e+01 1.856600e+01 -1 -1 0 -6.653267e-01 -3.120953e-01 -3.547396e-01 5.780110e-01
11 1 1 1.159142e+01 1.118651e+01 1.922575e+01 -1 -1 0 -2.610335e-01 -7.716073e-01 5.521234e-01 -1.778858e-01
12 1 1 1.201079e+01 1.080204e+01 1.844699e+01 -1 -1 0 8.007538e-01 -3.568980e-01 4.319527e-01 2.117405e-01
13 1 3 1.240897e+01 1.112912e+01 1.850266e+01 -1 -1 0 -7.510181e-01 1.717627e-01 -5.880948e-01 -2.461987e-01
14 1 4 1.320011e+01 1.147683e+01 1.908685e+01 -1 -1 0 -3.618532e-01 -9.068830e-01 2.016212e-02 -2.149859e-01
15 1 4 1.365785e+01 1.149365e+01 1.882876e+01 -1 -1 0 -2.689231e-02 -8.249297e-01 4.629288e-01 -3.232099e-01
16 1 2 1.415817e+01 1.140870e+01 1.851261e+01 -1 -1 0 6.105685e-02 -7.311696e-01 5.603065e-01 -3.843433e-01
17 1 1 1.465157e+01 1.127755e+01 1.846240e+01 -1 -1 0 -2.596629e-01 4.203760e-01 -7.669033e-01 4.095346e-01
18 1 2 1.532937e+01 1.211673e+01 1.866968e+01 -1 -1 0 4.360689e-01 5.999982e-01 -5.856375e-01 3.269171e-01
19 1 3 1.461718e+01 1.226606e+01 1.722855e+01 -1 -1 0 -3.119956e-01 -3.052928e-02 -8.826327e-01 -3.502659e-01
20 1 1 1.490560e+01 1.218468e+01 1.682742e+01 -1 -1 0 1.347988e-01 3.294548e-01 8.728426e-01 3.338182e-01
21 1 4 1.603097e+01 1.220699e+01 1.800312e+01 -1 -1 0 -2.333510e-01 -6.225111e-01 6.038825e-01 -4.397196e-01
22 1 1 1.658036e+01 1.159492e+01 1.739867e+01 -1 -1 0 -4.189745e-01 -5.024352e-01 5.995501e-01 4.610411e-01
23 1 4 1.752929e+01 1.125538e+01 1.752368e+01 -1 -1 0 7.850981e-04 5.757297e-01 -7.449800e-01 -3.369563e-01
24 1 3 1.753547e+01 1.130475e+01 1.704855e+01 -1 -1 0 -1.207637e-01 -2.043060e-01 9.143286e-01 3.281438e-01
25 1 3 1.853462e+01 1.126094e+01 1.637467e+01 -1 -1 0 -1.667059e-01 -6.869329e-01 6.424678e-01 2.959180e-01
26 1 4 1.848970e+01 1.129895e+01 1.592622e+01 -1 -1 0 -2.004627e-01 -3.911324e-01 8.786259e-01 1.866723e-01
27 1 4 1.831010e+01 1.107077e+01 1.549549e+01 -1 -1 0 2.878576e-01 -3.689914e-02 -9.499052e-01 -1.160022e-01
28 1 1 1.812754e+01 1.086832e+01 1.519545e+01 -1 -1 0 -2.132078e-01 4.716409e-01 8.513499e-01 -8.544354e-02
29 1 1 1.867779e+01 1.099276e+01 1.430146e+01 -1 -1 0 -2.126446e-01 9.617957e-01 -1.432884e-01 -9.591562e-02
30 1 4 1.867500e+01 1.142698e+01 1.409938e+01 -1 -1 0 1.070097e-02 7.428472e-01 -5.946106e-01 -3.074113e-01
31 1 4 1.837154e+01 1.226845e+01 1.429198e+01 -1 -1 0 -3.640578e-01 -4.858713e-01 -7.391237e-01 2.916969e-01
32 1 3 1.785226e+01 1.282646e+01 1.425707e+01 -1 -1 0 2.868900e-01 5.788545e-01 7.028297e-01 2.977449e-01
33 1 3 1.856125e+01 1.275981e+01 1.561451e+01 -1 -1 0 -6.729316e-01 -2.608259e-01 5.396919e-01 -4.334346e-01
34 1 1 1.859391e+01 1.269169e+01 1.556059e+01 -1 -1 0 -7.706391e-01 -2.469152e-02 -5.511619e-01 3.189456e-01
35 1 2 1.899774e+01 1.331205e+01 1.579762e+01 -1 -1 0 -7.676857e-01 -4.131595e-01 -1.469214e-01 4.673028e-01
36 1 2 1.960075e+01 1.279909e+01 1.679983e+01 -1 -1 0 -2.074548e-01 6.534503e-01 -7.279325e-01 8.914664e-03
37 1 1 1.988851e+01 1.383981e+01 1.687545e+01 -1 -1 0 -9.481680e-01 -4.702292e-02 4.017227e-02 -3.116928e-01
38 1 1 -1.991513e+01 1.382825e+01 1.738517e+01 0 -1 0 8.233087e-01 -6.276478e-02 6.594209e-02 5.602455e-01
39 1 4 -1.960039e+01 1.386690e+01 1.771606e+01 0 -1 0 5.384706e-01 -1.810992e-02 1.522761e-02 8.423121e-01
40 1 4 -1.931234e+01 1.408833e+01 1.809238e+01 0 -1 0 -9.228543e-02 -3.363272e-02 -7.586275e-02 -9.922687e-01
41 1 2 -1.825244e+01 1.391569e+01 1.764264e+01 0 -1 0 8.299064e-01 4.596133e-01 -2.919958e-01 1.214475e-01
42 1 4 -1.890521e+01 1.509886e+01 1.795315e+01 0 -1 0 1.509356e-01 -5.127105e-01 -7.806331e-02 -8.415774e-01
43 1 3 -1.853113e+01 1.536282e+01 1.829528e+01 0 -1 0 3.197542e-01 -3.472962e-01 -8.056173e-02 -8.778681e-01
44 1 2 -1.768332e+01 1.637798e+01 1.820499e+01 0 -1 0 6.336315e-01 -1.179453e-01 -3.989313e-02 7.635500e-01
45 1 1 -1.751743e+01 1.548475e+01 1.817267e+01 0 -1 0 5.413440e-01 1.111407e-02 -7.241335e-01 4.271462e-01
46 1 3 -1.676247e+01 1.558926e+01 1.833884e+01 0 -1 0 -7.037457e-01 3.153199e-01 6.054524e-01 -1.968315e-01
47 1 4 -1.711270e+01 1.555363e+01 1.870135e+01 0 -1 0 6.018967e-01 -4.103368e-01 -4.248478e-01 5.374462e-01
48 1 1 -1.772364e+01 1.568907e+01 1.891590e+01 0 -1 0 5.598297e-01 -6.369065e-01 -1.994584e-01 4.910775e-01
49 1 4 -1.796379e+01 1.614588e+01 1.913856e+01 0 -1 0 -2.937485e-01 7.205089e-01 -2.786982e-02 -6.275365e-01
50 1 4 -1.814491e+01 1.652567e+01 1.922737e+01 0 -1 0 2.835968e-02 -6.101630e-01 2.537417e-01 7.500080e-01
51 1 4 -1.834918e+01 1.683077e+01 1.903754e+01 0 -1 0 -3.237031e-01 -2.273288e-01 5.441384e-01 7.398996e-01
52 1 1 -1.878842e+01 1.716913e+01 1.910128e+01 0 -1 0 4.819378e-01 3.010745e-01 -5.303337e-01 -6.291552e-01
53 1 3 -1.933987e+01 1.702212e+01 1.917326e+01 0 -1 0 -7.968136e-01 -2.056472e-02 4.621015e-01 3.887510e-01
54 1 4 -1.968184e+01 1.689247e+01 1.964557e+01 0 -1 0 1.172968e-01 1.106683e-01 -9.332784e-01 -3.209133e-01
55 1 4 1.981784e+01 1.703133e+01 1.951256e+01 -1 -1 0 6.765392e-01 -3.384730e-01 -1.790764e-01 -6.290170e-01
56 1 4 1.999588e+01 1.737021e+01 1.833431e+01 -1 -1 0 -1.834732e-01 -8.454574e-01 -5.014921e-01 6.715925e-03
57 1 1 1.982277e+01 1.751891e+01 1.789945e+01 -1 -1 0 -2.656840e-01 -9.600588e-01 -7.972334e-02 3.665062e-02
58 1 1 1.866056e+01 1.689289e+01 1.860217e+01 -1 -1 0 -1.458363e-01 4.329900e-01 -4.617173e-01 7.603082e-01
59 1 3 1.894887e+01 1.707657e+01 1.900913e+01 -1 -1 0 -9.284330e-01 2.860037e-01 2.369710e-01 7.665983e-03
60 1 4 1.891445e+01 1.830611e+01 1.904917e+01 -1 -1 0 2.514780e-01 -2.925759e-01 -1.888476e-01 9.030475e-01
61 1 2 1.867256e+01 1.834679e+01 1.945953e+01 -1 -1 0 1.789825e-01 4.214177e-01 2.328134e-01 -8.580037e-01
62 1 3 1.829599e+01 1.824099e+01 1.964804e+01 -1 -1 0 4.172147e-01 5.164968e-01 3.534200e-03 -7.477637e-01
63 1 2 1.873509e+01 1.723196e+01 2.009199e+01 -1 -1 0 -7.752830e-01 1.568254e-02 -6.274078e-01 7.106203e-02
64 1 4 1.849006e+01 1.724187e+01 -1.895911e+01 -1 -1 1 3.087537e-01 5.532584e-01 -3.221214e-01 7.034302e-01
65 1 2 1.889593e+01 1.680138e+01 -1.925358e+01 -1 -1 1 -6.929347e-01 -1.636967e-01 -4.972853e-01 -4.957340e-01
66 1 1 1.916305e+01 1.609591e+01 -1.932338e+01 -1 -1 1 -7.983135e-01 -4.532747e-01 -6.678863e-02 -3.908668e-01
67 1 2 1.842773e+01 1.499231e+01 -1.900693e+01 -1 -1 1 -3.878311e-01 5.767836e-01 -7.103635e-01 1.108666e-01
68 1 1 1.843378e+01 1.440989e+01 -1.843558e+01 -1 -1 1 -4.026088e-01 4.622201e-01 -6.043154e-01 5.089809e-01
69 1 1 1.872343e+01 1.418250e+01 -1.816238e+01 -1 -1 1 -7.004833e-01 1.617239e-01 -6.677493e-01 1.930789e-01
70 1 2 1.929380e+01 1.392859e+01 -1.837701e+01 -1 -1 1 -6.317427e-01 -1.205885e-01 -7.341489e-01 -2.176809e-01
71 1 3 1.930164e+01 1.349943e+01 -1.767955e+01 -1 -1 1 -1.136526e-01 9.786890e-02 7.716092e-01 -6.181618e-01
72 1 4 -1.971459e+01 1.411979e+01 -1.793707e+01 0 -1 1 2.845896e-01 -3.749135e-01 -1.726013e-03 8.822957e-01
73 1 1 -1.943317e+01 1.307902e+01 -1.700897e+01 0 -1 1 -2.535065e-01 5.109715e-01 -3.674394e-01 7.345957e-01
74 1 1 -1.898917e+01 1.286825e+01 -1.739372e+01 0 -1 1 3.870640e-01 -2.190378e-02 5.328394e-01 7.521861e-01
75 1 3 -1.821945e+01 1.241007e+01 -1.665283e+01 0 -1 1 -2.925422e-01 -3.917029e-01 8.119041e-01 -3.190605e-01
76 1 1 -1.738189e+01 1.301213e+01 -1.652625e+01 0 -1 1 -7.556200e-01 4.854757e-01 3.770238e-01 -2.262849e-01
77 1 4 -1.659554e+01 1.219417e+01 -1.730053e+01 0 -1 1 -9.493442e-01 -2.691444e-01 -5.826517e-02 1.513675e-01
78 1 1 -1.645403e+01 1.172334e+01 -1.700137e+01 0 -1 1 9.072158e-01 2.781868e-01 -1.408022e-02 3.152354e-01
79 1 4 -1.615228e+01 1.144245e+01 -1.664808e+01 0 -1 1 6.501818e-01 1.767503e-01 -1.382118e-01 7.258928e-01
80 1 2 -1.568756e+01 1.101673e+01 -1.759944e+01 0 -1 1 -1.751374e-01 -7.214207e-01 4.198318e-01 5.221306e-01
81 1 4 -1.646067e+01 1.156598e+01 -1.816240e+01 0 -1 1 -3.429904e-01 -7.129300e-01 -1.730273e-01 5.866429e-01
82 1 4 -1.697653e+01 1.144793e+01 -1.832178e+01 0 -1 1 -5.649439e-01 -7.253076e-01 3.491184e-02 3.918525e-01
83 1 4 -1.727689e+01 1.137427e+01 -1.783287e+01 0 -1 1 -3.665327e-01 -6.476571e-01 -8.670029e-02 -6.623270e-01
84 1 4 -1.783838e+01 1.049019e+01 -1.809535e+01 0 -1 1 -2.869908e-01 -3.721677e-01 8.045820e-01 -3.630086e-01
85 1 1 -1.865334e+01 1.035422e+01 -1.798039e+01 0 -1 1 -5.199103e-01 -1.922824e-01 8.099547e-01 1.915571e-01
86 1 1 -1.857291e+01 9.872517e+00 -1.858474e+01 0 -1 1 5.184739e-01 9.315144e-02 8.074431e-01 2.655997e-01
87 1 3 -1.817861e+01 9.877403e+00 -1.892221e+01 0 -1 1 -2.946876e-01 -4.059205e-01 -7.643307e-01 -4.051992e-01
88 1 2 -1.813614e+01 8.653904e+00 -1.814632e+01 0 -1 1 -4.418544e-01 -5.416095e-02 8.458773e-01 -2.938075e-01
89 1 2 -1.727845e+01 8.804488e+00 -1.888357e+01 0 -1 1 -4.281721e-01 7.817051e-01 8.021280e-02 -4.462865e-01
90 1 3 -1.701143e+01 8.265138e+00 -1.782297e+01 0 -1 1 3.057164e-04 -6.653657e-01 6.245020e-01 -4.090057e-01
91 1 3 -1.663655e+01 8.055686e+00 -1.786955e+01 0 -1 1 -2.444301e-01 2.858637e-01 -8.617629e-01 3.404417e-01
92 1 2 -1.644275e+01 7.544410e+00 -1.803806e+01 0 -1 1 -2.813662e-01 -1.991382e-02 -9.492694e-01 1.390115e-01
93 1 1 -1.631734e+01 7.172730e+00 -1.838546e+01 0 -1 1 -2.328231e-01 -3.985657e-01 -8.869390e-01 1.667418e-02
94 1 2 -1.529375e+01 6.262046e+00 -1.816373e+01 0 -1 1 8.220888e-01 2.244850e-01 -3.466257e-01 -3.919530e-01
95 1 3 -1.456894e+01 7.271377e+00 -1.829112e+01 0 -1 1 -1.475741e-01 5.250490e-01 -5.659912e-01 -6.182228e-01
96 1 2 -1.463238e+01 7.721486e+00 -1.859140e+01 0 -1 1 2.073512e-01 2.306858e-01 -6.299366e-01 -7.120178e-01
97 1 2 -1.385344e+01 8.094551e+00 -1.864578e+01 0 -1 1 -4.273924e-01 -3.216808e-01 1.576666e-02 -8.447536e-01
98 1 4 -1.301267e+01 7.236912e+00 -1.906824e+01 0 -1 1 -3.350029e-01 -6.608266e-01 6.497595e-01 -1.699819e-01
99 1 2 -1.262571e+01 7.515977e+00 -1.871871e+01 0 -1 1 -7.897076e-01 4.623366e-01 3.891013e-01 1.058630e-01
100 1 1 -1.257906e+01 7.415944e+00 -1.865264e+01 0 -1 1 2.530331e-01 -4.432531e-01 -7.721557e-01 -3.785189e-01
101 2 4 -1.423745e+01 8.616935e+00 1.773287e+01 0 -1 0 2.946841e-01 3.592193e-01 4.348485e-01 7.713816e-01
102 2 3 -1.504944e+01 8.179536e+00 1.781899e+01 0 -1 0 -3.277346e-01 -2.722214e-01 5.802870e-01 6.940839e-01
103 2 1 -1.564240e+01 8.395517e+00 1.849206e+01 0 -1 0 1.245596e-01 -5.771648e-01 3.746974e-01 -7.148200e-01
104 2 3 -1.538410e+01 8.667386e+00 1.687867e+01 0 -1 0 3.628390e-01 4.773756e-02 6.399063e-01 6.757137e-01
105 2 3 -1.566596e+01 9.093663e+00 1.702836e+01 0 -1 0 3.403749e-01 2.183310e-01 8.781650e-01 -2.555439e-01
106 2 2 -1.496472e+01 8.640898e+00 1.719379e+01 0 -1 0 -7.803233e-01 4.214439e-01 3.962587e-01 2.376122e-01
107 2 3 -1.440368e+01 8.673800e+00 1.589284e+01 0 -1 0 -6.185178e-01 -7.409288e-01 -1.355438e-01 -2.238038e-01
108 2 4 -1.417557e+01 9.085950e+00 1.655311e+01 0 -1 0 2.949574e-01 -8.426848e-01 3.569411e-01 -2.747281e-01
109 2 3 -1.381801e+01 9.547409e+00 1.577696e+01 0 -1 0 3.790325e-01 -8.033099e-01 4.590053e-01 1.848294e-02
110 2 2 -1.381643e+01 9.944669e+00 1.561476e+01 0 -1 0 -6.262305e-01 5.736688e-01 -4.386765e-01 2.937727e-01
111 2 2 -1.347875e+01 9.962799e+00 1.585754e+01 0 -1 0 7.544780e-01 -2.808148e-01 5.869671e-01 8.588135e-02
112 2 3 -1.272642e+01 1.054573e+01 1.667828e+01 0 -1 0 -3.293376e-01 9.291523e-01 -1.262360e-01 1.108030e-01
113 2 3 -1.247770e+01 1.093222e+01 1.654482e+01 0 -1 0 -4.720251e-01 7.508879e-01 -4.357112e-01 1.533471e-01
114 2 2 -1.199322e+01 1.110335e+01 1.650310e+01 0 -1 0 5.130944e-01 -4.876348e-01 7.060806e-01 1.991490e-02
115 2 4 -1.230546e+01 1.216213e+01 1.585170e+01 0 -1 0 4.410661e-01 2.137224e-01 7.995776e-01 3.470720e-01
116 2 4 -1.200017e+01 1.219235e+01 1.550072e+01 0 -1 0 2.539055e-01 4.671514e-01 7.687268e-01 3.554726e-01
117 2 1 -1.187482e+01 1.256651e+01 1.506873e+01 0 -1 0 -3.068952e-01 -1.578679e-01 6.917353e-02 9.360064e-01
118 2 1 -1.129069e+01 1.262044e+01 1.503133e+01 0 -1 0 -5.241691e-01 3.646141e-01 5.339342e-01 5.542721e-01
119 2 1 -1.035908e+01 1.221818e+01 1.557060e+01 0 -1 0 7.301363e-01 2.250872e-02 -4.361718e-01 5.254983e-01
120 2 1 -1.031496e+01 1.117545e+01 1.445028e+01 0 -1 0 7.391870e-01 -1.980775e-01 6.110091e-01 2.025729e-01
121 2 3 -1.058237e+01 1.204945e+01 1.411320e+01 0 -1 0 -1.760073e-01 -9.501368e-01 1.995154e-01 1.626503e-01
122 2 1 -1.174894e+01 1.208002e+01 1.445314e+01 0 -1 0 -3.481929e-01 -7.116111e-02 6.605888e-01 -6.613019e-01
123 2 4 -1.164936e+01 1.316671e+01 1.397568e+01 0 -1 0 5.897232e-01 2.140523e-01 -1.474794e-01 7.646293e-01
124 2 1 -1.267516e+01 1.246218e+01 1.330889e+01 0 -1 0 -1.861614e-01 -2.947285e-01 9.246324e-01 1.534079e-01
125 2 4 -1.288963e+01 1.232328e+01 1.281797e+01 0 -1 0 3.660526e-01 4.811413e-02 -9.287410e-01 -3.362585e-02
126 2 2 -1.330720e+01 1.207352e+01 1.258928e+01 0 -1 0 3.616872e-01 -3.051941e-01 -8.796189e-01 4.805725e-02
127 2 4 -1.371122e+01 1.201080e+01 1.245274e+01 0 -1 0 2.376963e-01 -7.465259e-01 -5.672278e-01 2.538745e-01
128 2 4 -1.350130e+01 1.074723e+01 1.281476e+01 0 -1 0 -1.983834e-02 4.812408e-02 9.718845e-01 -2.296324e-01
129 2 1 -1.365601e+01 1.038406e+01 1.258472e+01 0 -1 0 -2.459702e-02 -3.362252e-01 -8.816843e-01 3.301218e-01
130 2 2 -1.299711e+01 1.004784e+01 1.269210e+01 0 -1 0 -1.345682e-01 -2.860529e-01 -4.825974e-02 -9.474894e-01
131 2 3 -1.363314e+01 9.256125e+00 1.344342e+01 0 -1 0 -5.817438e-01 3.684472e-01 1.472488e-01 7.100272e-01
132 2 4 -1.397198e+01 8.671985e+00 1.336734e+01 0 -1 0 7.688030e-01 -3.981828e-01 1.231119e-01 -4.850112e-01
133 2 4 -1.422133e+01 8.659902e+00 1.304452e+01 0 -1 0 -6.758610e-01 -7.187410e-01 -1.401009e-01 -8.363648e-02
134 2 3 -1.404029e+01 8.283776e+00 1.274558e+01 0 -1 0 5.826586e-01 6.901530e-01 -2.102658e-01 3.741471e-01
135 2 4 -1.365472e+01 7.816310e+00 1.254176e+01 0 -1 0 3.269480e-01 8.194549e-01 -1.868152e-01 4.320864e-01
136 2 3 -1.326677e+01 7.795566e+00 1.239390e+01 0 -1 0 -6.927634e-02 -7.647109e-01 4.310454e-01 -4.739388e-01
137 2 1 -1.312650e+01 6.780328e+00 1.189677e+01 0 -1 0 4.933585e-01 1.916358e-01 -7.830600e-01 -3.266345e-01
138 2 3 -1.360765e+01 6.460885e+00 1.191550e+01 0 -1 0 -3.633663e-01 -1.069843e-01 -4.758146e-01 7.938008e-01
139 2 2 -1.276410e+01 6.397045e+00 1.206041e+01 0 -1 0 4.896221e-01 -7.897480e-02 -7.532103e-01 -4.320967e-01
140 2 3 -1.224663e+01 6.414732e+00 1.132227e+01 0 -1 0 4.060807e-01 9.460943e-02 -6.927590e-01 -5.884153e-01
141 2 1 -1.259761e+01 6.586025e+00 1.100640e+01 0 -1 0 -4.942683e-01 2.413626e-01 7.075053e-01 4.437106e-01
142 2 2 -1.300276e+01 6.990017e+00 1.089634e+01 0 -1 0 -6.349158e-01 3.920923e-01 5.799335e-01 3.268373e-01
143 2 4 -1.344288e+01 7.219482e+00 1.103588e+01 0 -1 0 8.293372e-01 -3.879455e-01 -3.965339e-01 -6.677610e-02
144 2 4 -1.419471e+01 6.806387e+00 1.032562e+01 0 -1 0 8.238444e-01 1.279166e-01 -4.963480e-01 -2.419843e-01
145 2 1 -1.447263e+01 6.446937e+00 1.051723e+01 0 -1 0 -7.962148e-01 1.769750e-01 5.296489e-01 -2.327956e-01
146 2 1 -1.473420e+01 6.250124e+00 1.091492e+01 0 -1 0 7.626130e-01 -2.752267e-01 -3.104207e-01 4.962970e-01
147 2 1 -1.579292e+01 6.516695e+00 1.162153e+01 0 -1 0 3.757775e-01 -5.471252e-01 -4.325568e-01 -6.101966e-01
148 2 2 -1.593993e+01 6.028687e+00 1.165606e+01 0 -1 0 1.798384e-01 -6.769945e-01 -6.816705e-01 2.113334e-01
149 2 4 -1.637646e+01 6.164400e+00 1.136997e+01 0 -1 0 -2.915230e-01 8.113971e-01 4.122294e-01 -2.944759e-01
150 2 1 -1.685756e+01 5.738478e+00 1.139122e+01 0 -1 0 -7.465097e-01 -3.814025e-01 -5.806930e-02 5.421101e-01
151 2 1 -1.722074e+01 5.365866e+00 1.150079e+01 0 -1 0 8.966026e-01 3.891365e-01 -9.157893e-02 -1.904989e-01
152 2 1 -1.715260e+01 5.380738e+00 1.279820e+01 0 -1 0 -2.736969e-01 8.683884e-01 -2.320109e-01 3.422902e-01
153 2 4 -1.750190e+01 5.451558e+00 1.338421e+01 0 -1 0 3.159107e-01 -3.632005e-01 6.158420e-01 -6.237182e-01
154 2 1 -1.737353e+01 5.090328e+00 1.365599e+01 0 -1 0 6.856210e-01 7.555113e-03 6.123237e-01 -3.936070e-01
155 2 2 -1.717548e+01 5.250538e+00 1.440327e+01 0 -1 0 2.147063e-01 -2.388649e-01 -5.211102e-01 7.907522e-01
156 2 4 -1.602292e+01 4.689762e+00 1.431602e+01 0 -1 0 4.423517e-01 -7.781462e-01 1.548564e-01 4.181303e-01
157 2 3 -1.659343e+01 3.341296e+00 1.425910e+01 0 -1 0 1.070520e-01 3.730852e-01 -9.144153e-01 1.148564e-01
158 2 2 -1.646654e+01 2.964926e+00 1.403252e+01 0 -1 0 3.253036e-02 2.137210e-02 9.644794e-01 -2.612749e-01
159 2 1 -1.530118e+01 3.031585e+00 1.422540e+01 0 -1 0 -8.262446e-01 -2.861638e-01 -1.945018e-01 -4.445214e-01
160 2 3 -1.541218e+01 2.793595e+00 1.507081e+01 0 -1 0 7.727483e-02 -1.921795e-01 -6.887911e-01 6.947392e-01
161 2 1 -1.417593e+01 2.921679e+00 1.494022e+01 0 -1 0 5.706966e-02 -6.969833e-01 6.398043e-01 -3.187599e-01
162 2 1 -1.374652e+01 2.698793e+00 1.464569e+01 0 -1 0 -1.372233e-01 5.368327e-01 -7.007971e-01 4.492927e-01
163 2 4 -1.335538e+01 2.464991e+00 1.464525e+01 0 -1 0 2.574780e-01 -2.948950e-01 8.319747e-01 -3.931413e-01
164 2 4 -1.214662e+01 2.392554e+00 1.457396e+01 0 -1 0 5.124046e-01 7.456187e-01 -4.260101e-01 3.109602e-03
165 2 3 -1.207484e+01 2.040634e+00 1.427157e+01 0 -1 0 -3.847095e-01 -5.586433e-01 6.916456e-01 -2.480778e-01
166 2 3 -1.206183e+01 1.709444e+00 1.367524e+01 0 -1 0 -2.725610e-01 1.747210e-01 -8.995340e-01 2.932944e-01
167 2 4 -1.204489e+01 1.546538e+00 1.302861e+01 0 -1 0 -5.920942e-01 -6.149782e-01 -5.204712e-01 1.833001e-02
168 2 2 -1.182764e+01 1.358457e+00 1.267029e+01 0 -1 0 5.366601e-01 7.814040e-01 9.232101e-02 3.047632e-01
169 2 2 -1.161092e+01 1.351996e+00 1.236437e+01 0 -1 0 2.638997e-01 8.202120e-01 -3.912648e-01 3.232972e-01
170 2 1 -1.206843e+01 6.113821e-01 1.164086e+01 0 -1 0 5.492544e-01 -1.751197e-01 5.934705e-01 -5.616454e-01
171 2 1 -1.210360e+01 1.794224e+00 1.068876e+01 0 -1 0 3.175568e-01 7.734299e-01 5.298745e-01 1.421159e-01
172 2 4 -1.167749e+01 1.709579e+00 1.056653e+01 0 -1 0 -9.589358e-01 6.218783e-02 1.426698e-01 -2.371078e-01
173 2 4 -1.226755e+01 1.355732e+00 9.711041e+00 0 -1 0 -1.836529e-01 4.417089e-01 -8.748731e-01 7.590732e-02
174 2 1 -1.205811e+01 1.353164e+00 9.258352e+00 0 -1 0 9.256622e-02 -4.834011e-01 8.446811e-01 -2.104015e-01
175 2 1 -1.171346e+01 1.067300e+00 9.024701e+00 0 -1 0 1.560117e-01 -1.353388e-01 9.584528e-01 -1.967539e-01
176 2 2 -1.107054e+01 1.308790e+00 8.914194e+00 0 -1 0 1.398591e-01 4.615929e-01 -6.304800e-02 -8.737256e-01
177 2 2 -1.059467e+01 1.324826e+00 9.090298e+00 0 -1 0 7.875730e-02 -5.837942e-02 6.809035e-01 -7.257821e-01
178 2 1 -9.808499e+00 9.638616e-01 7.687685e+00 0 -1 0 -1.570553e-01 -8.248958e-01 3.332868e-01 4.287196e-01
179 2 4 -9.252947e+00 2.463268e-01 8.588877e+00 0 -1 0 6.891396e-01 5.185008e-01 -4.884115e-01 1.330327e-01
180 2 1 -9.300821e+00 -2.598703e-01 8.503166e+00 0 -1 0 7.055590e-01 3.684943e-01 -4.982395e-01 3.437379e-01
181 2 4 -9.048509e+00 -9.390463e-01 8.007895e+00 0 -1 0 -3.199476e-01 -5.700273e-01 7.467233e-01 -1.229093e-01
182 2 2 -1.036522e+01 -7.077138e-01 7.785248e+00 0 -1 0 -4.382125e-01 -5.532730e-01 -5.157438e-01 4.856616e-01
183 2 3 -1.037357e+01 -1.346397e+00 8.892473e+00 0 -1 0 8.917801e-03 3.742810e-01 -4.526597e-01 8.092796e-01
184 2 4 -1.064481e+01 -2.444732e+00 8.816292e+00 0 -1 0 4.846329e-01 -2.278477e-01 -8.401311e-01 8.600029e-02
185 2 3 -1.010471e+01 -2.801876e+00 8.648621e+00 0 -1 0 -4.641055e-01 7.328931e-01 -3.256280e-01 -3.760854e-01
186 2 1 -9.945517e+00 -3.482472e+00 9.167301e+00 0 -1 0 7.781765e-01 -2.750035e-02 -3.284290e-01 5.346209e-01
187 2 1 -9.894221e+00 -3.634900e+00 9.625454e+00 0 -1 0 4.238921e-01 -1.797107e-01 -3.081376e-01 8.325087e-01
188 2 2 -9.617090e+00 -4.674744e+00 9.776938e+00 0 -1 0 3.141598e-01 -9.198486e-02 -8.604732e-01 3.904208e-01
189 2 4 -9.779377e+00 -5.110838e+00 9.777498e+00 0 -1 0 9.867888e-02 -4.268511e-01 -7.915488e-01 4.260412e-01
190 2 4 -9.012197e+00 -5.513556e+00 9.403750e+00 0 -1 0 -2.319489e-01 -5.623604e-01 -1.912590e-01 7.703055e-01
191 2 1 -9.477446e+00 -5.769540e+00 9.472471e+00 0 -1 0 2.405593e-01 6.892987e-01 1.208722e-01 -6.725983e-01
192 2 4 -1.032272e+01 -5.362266e+00 1.007280e+01 0 -1 0 1.672458e-01 2.669626e-01 1.979774e-01 -9.282051e-01
193 2 4 -1.043439e+01 -5.409856e+00 1.134096e+01 0 -1 0 -2.447505e-01 -4.308544e-02 8.050820e-01 -5.385943e-01
194 2 1 -1.054070e+01 -5.815127e+00 1.156550e+01 0 -1 0 -1.438152e-01 -2.606458e-01 -8.037114e-01 5.151980e-01
195 2 3 -1.032904e+01 -6.391834e+00 1.102702e+01 0 -1 0 -2.379321e-02 2.236482e-01 6.967554e-01 6.811368e-01
196 2 4 -1.037272e+01 -6.761414e+00 1.142689e+01 0 -1 0 1.265542e-01 2.179872e-01 -1.919577e-01 9.484819e-01
197 2 2 -9.517004e+00 -7.516765e+00 1.096820e+01 0 -1 0 -5.147564e-01 -6.553095e-01 3.288918e-01 -4.443258e-01
198 2 4 -9.708705e+00 -7.601031e+00 1.037433e+01 0 -1 0 -1.304898e-01 8.289116e-01 5.152038e-01 -1.744792e-01
199 2 3 -1.008330e+01 -7.471430e+00 9.969470e+00 0 -1 0 -9.651402e-03 -9.748567e-01 -2.225195e-01 -6.812740e-03
200 2 4 -1.086541e+01 -7.465902e+00 9.184502e+00 0 -1 0 -9.533416e-02 -7.124581e-01 -6.948018e-01 -2.377500e-02
