ITEM: TIMESTEP
295000000
ITEM: NUMBER OF ATOMS
200
ITEM: BOX BOUNDS pp pp pp
-2.0000000000000000e+01 2.0000000000000000e+01
-2.0000000000000000e+01 2.0000000000000000e+01
-2.0000000000000000e+01 2.0000000000000000e+01
ITEM: ATOMS id mol type x y z ix iy iz c_quat[1] c_quat[2] c_quat[3] c_quat[4]
1 1 1 7.282840e+00 -1.408884e+01 6.488849e+00 -1 0 0 5.480044e-01 -5.652413e-01 -3.497208e-01 5.078276e-01
2 1 2 7.556344e+00 -1.445999e+01 5.869145e+00 -1 0 0 1.673188e-01 5.511479e-01 1.912122e-01 -7.947819e-01
3 1 1 8.789093e+00 -1.530669e+01 6.644421e+00 -1 0 0 9.257737e-01 -2.848609e-01 2.320065e-01 -8.927596e-02
4 1 3 9.531722e+00 -1.478499e+01 6.419037e+00 -1 0 0 -7.356456e-02 9.706740e-01 -9.354090e-02 2.088787e-01
5 1 1 9.176975e+00 -1.499680e+01 6.846031e+00 -1 0 0 -8.603569e-01 2.094054e-01 -3.483695e-01 3.075290e-01
6 1 2 8.248068e+00 -1.503139e+01 7.315637e+00 -1 0 0 3.565232e-01 -6.187075e-02 -4.411950e-01 -8.212248e-01
7 1 4 8.588685e+00 -1.399416e+01 7.828335e+00 -1 0 0 5.630526e-01 3.278438e-01 -1.348869e-01 7.465225e-01
8 1 1 8.732365e+00 -1.437190e+01 8.234251e+00 -1 0 0 7.289968e-01 1.535395e-01 1.000585e-01 6.595282e-01
9 1 1 8.044124e+00 -1.511344e+01 8.987249e+00 -1 0 0 4.104950e-01 -7.147374e-01 -5.543163e-01 -1.156625e-01
10 1 4 8.823677e+00 -1.578838e+01 8.422562e+00 -1 0 0 2.889826e-01 -5.256750e-01 6.747048e-01 -4.300328e-01
11 1 1 9.296782e+00 -1.607096e+01 8.441166e+00 -1 0 0 3.878846e-01 -2.095326e-01 8.476976e-01 -2.950431e-01
12 1 1 9.566084e+00 -1.651452e+01 8.371131e+00 -1 0 0 5.818987e-01 1.770980e-01 7.926320e-01 4.200960e-02
13 1 3 8.843356e+00 -1.660705e+01 8.700500e+00 -1 0 0 3.033919e-01 5.508797e-01 3.942446e-01 -6.701165e-01
14 1 4 9.216686e+00 -1.752104e+01 8.861995e+00 -1 0 0 -4.628134e-01 -6.782226e-01 -2.888039e-03 5.707973e-01
15 1 4 9.437482e+00 -1.785448e+01 8.985005e+00 -1 0 0 -3.151611e-01 -7.311303e-01 -5.653079e-01 -2.157518e-01
16 1 2 9.510549e+00 -1.905236e+01 1.000329e+01 -1 0 0 -7.152354e-01 4.492808e-01 -4.613848e-01 2.714943e-01
17 1 1 9.649913e+00 -1.915174e+01 9.931460e+00 -1 0 0 -3.368076e-01 4.447261e-01 -3.024933e-01 7.728371e-01
18 1 2 9.863279e+00 -1.916197e+01 1.033036e+01 -1 0 0 -6.602057e-01 2.859888e-01 -4.169406e-01 5.554272e-01
19 1 3 1.066171e+01 -1.855413e+01 9.596185e+00 -1 0 0 4.616049e-02 9.396710e-01 1.406272e-01 -3.084018e-01
20 1 1 1.152015e+01 -1.926796e+01 1.040136e+01 -1 0 0 -5.074333e-01 -5.779928e-01 5.680629e-01 -2.928145e-01
21 1 4 1.158525e+01 -1.975442e+01 1.031552e+01 -1 0 0 4.268144e-01 2.915127e-01 -7.058540e-01 4.843758e-01
22 1 1 1.085655e+01 1.963137e+01 9.232145e+00 -1 -1 0 -1.041124e-01 -9.816151e-02 -9.564562e-01 -2.543943e-01
23 1 4 1.077896e+01 1.966702e+01 8.764656e+00 -1 -1 0 3.061759e-03 -6.240372e-01 -7.016935e-01 -3.437943e-01
24 1 3 1.097920e+01 1.842081e+01 8.699123e+00 -1 -1 0 -8.086189e-01 4.390302e-01 3.870962e-02 3.897302e-01
25 1 3 1.112853e+01 1.765349e+01 8.026976e+00 -1 -1 0 3.381246e-01 9.830573e-03 9.267791e-01 -1.632653e-01
26 1 4 1.127977e+01 1.722194e+01 7.743393e+00 -1 -1 0 3.684754e-01 4.168914e-01 8.300633e-01 -3.771433e-02
27 1 4 1.186640e+01 1.650340e+01 8.132420e+00 -1 -1 0 -1.918781e-01 -4.299537e-02 -9.349046e-01 2.954447e-01
28 1 1 1.192903e+01 1.601395e+01 7.927033e+00 -1 -1 0 -2.804658e-01 -4.234059e-01 -8.437717e-01 1.735384e-01
29 1 1 1.210197e+01 1.571663e+01 8.548723e+00 -1 -1 0 -1.666354e-01 -4.137232e-01 -8.923543e-01 6.906219e-02
30 1 4 1.308266e+01 1.655344e+01 8.943317e+00 -1 -1 0 -4.474843e-01 2.877486e-01 -2.602478e-01 -8.057478e-01
31 1 4 1.294786e+01 1.647426e+01 9.479315e+00 -1 -1 0 -5.419200e-01 2.809795e-01 -4.280493e-01 -6.664435e-01
32 1 3 1.303738e+01 1.692311e+01 9.656329e+00 -1 -1 0 3.395923e-01 -2.093211e-01 6.175181e-01 6.778887e-01
33 1 3 1.284835e+01 1.623216e+01 1.061308e+01 -1 -1 0 3.404931e-01 -3.880838e-01 -2.157888e-01 -8.287887e-01
34 1 1 1.319904e+01 1.532731e+01 1.045061e+01 -1 -1 0 5.751244e-01 -1.209369e-01 -5.038058e-01 -6.330765e-01
35 1 2 1.386396e+01 1.480378e+01 1.006184e+01 -1 -1 0 6.921613e-01 -9.712719e-02 4.232446e-01 -5.764920e-01
36 1 2 1.392666e+01 1.444806e+01 9.500289e+00 -1 -1 0 5.362135e-01 -6.086527e-02 -7.913054e-01 -2.874129e-01
37 1 1 1.469316e+01 1.403260e+01 9.482399e+00 -1 -1 0 -9.181897e-01 9.507893e-02 -2.049977e-01 -3.253668e-01
38 1 1 1.440930e+01 1.369431e+01 1.034143e+01 -1 -1 0 4.215116e-01 -1.244071e-01 7.792888e-01 -4.467211e-01
39 1 4 1.456237e+01 1.328656e+01 1.027948e+01 -1 -1 0 5.356055e-01 2.179907e-01 7.623967e-01 -2.904446e-01
40 1 4 1.591289e+01 1.402992e+01 1.045354e+01 -1 -1 0 6.434982e-01 -2.238723e-01 3.142674e-01 6.610804e-01
41 1 2 1.563106e+01 1.374927e+01 1.113412e+01 -1 -1 0 -9.299839e-01 6.863653e-02 -3.608984e-01 1.308722e-02
42 1 4 1.601122e+01 1.371333e+01 1.139364e+01 -1 -1 0 -8.291009e-01 -8.419076e-02 -4.516975e-01 -3.185484e-01
43 1 3 1.688725e+01 1.368209e+01 1.174706e+01 -1 -1 0 -1.908901e-01 -8.232738e-01 5.231501e-01 1.099777e-01
44 1 2 1.693915e+01 1.363279e+01 1.129114e+01 -1 -1 0 1.750904e-01 5.028490e-01 -8.455356e-01 3.944404e-02
45 1 1 1.769440e+01 1.477412e+01 1.101518e+01 -1 -1 0 -5.758206e-01 4.250893e-01 -3.851656e-01 -5.825609e-01
46 1 3 1.777269e+01 1.498585e+01 1.140584e+01 -1 -1 0 -3.758382e-01 6.373639e-01 -6.028556e-01 2.984593e-01
47 1 4 1.830132e+01 1.482740e+01 1.113756e+01 -1 -1 0 2.033860e-01 -4.861758e-01 8.238667e-01 -2.085926e-01
48 1 1 1.818301e+01 1.499522e+01 1.137314e+01 -1 -1 0 -1.867704e-02 -5.245424e-01 -7.762725e-01 -3.491525e-01
49 1 4 1.852058e+01 1.360800e+01 1.117169e+01 -1 -1 0 -2.870570e-01 -1.176414e-01 8.588501e-01 4.075969e-01
50 1 4 1.920529e+01 1.365069e+01 1.103364e+01 -1 -1 0 3.099220e-01 5.914727e-01 1.492584e-03 7.443830e-01
51 1 4 1.969376e+01 1.373712e+01 1.124181e+01 -1 -1 0 2.380931e-02 -4.675981e-01 3.040847e-01 -8.296491e-01
52 1 1 -2.004297e+01 1.374679e+01 1.158412e+01 0 -1 0 -3.771539e-01 3.637221e-01 -4.883302e-01 6.978501e-01
53 1 3 -1.958556e+01 1.329884e+01 1.222098e+01 0 -1 0 3.476568e-01 1.918811e-01 -7.643853e-01 5.079680e-01
54 1 4 -1.944293e+01 1.359891e+01 1.234612e+01 0 -1 0 2.108018e-01 2.692806e-02 -9.720802e-01 9.948615e-02
55 1 4 -1.906266e+01 1.477800e+01 1.217259e+01 0 -1 0 2.828223e-01 2.655428e-02 5.091187e-01 8.124682e-01
56 1 4 -1.941839e+01 1.429509e+01 1.242173e+01 0 -1 0 6.835217e-01 -3.858500e-02 5.492518e-01 4.791990e-01
57 1 1 1.980253e+01 1.353002e+01 1.357313e+01 -1 -1 0 -1.562978e-01 2.298894e-01 -9.075356e-01 3.148032e-01
58 1 1 1.973025e+01 1.353821e+01 1.321208e+01 -1 -1 0 -4.381199e-01 -8.530164e-02 -4.420406e-01 -7.780582e-01
59 1 3 1.914032e+01 1.261869e+01 1.329674e+01 -1 -1 0 -6.493781e-01 -4.497391e-01 -6.054328e-01 -9.743732e-02
60 1 4 1.939943e+01 1.244235e+01 1.290477e+01 -1 -1 0 -5.628992e-01 -7.100386e-01 -2.927319e-01 -3.054467e-01
61 1 2 1.977033e+01 1.210792e+01 1.266376e+01 -1 -1 0 -3.318604e-02 7.194359e-01 -6.906949e-01 6.520200e-02
62 1 3 1.929241e+01 1.214821e+01 1.254194e+01 -1 -1 0 4.223727e-01 -7.541468e-01 -5.028162e-01 6.308401e-03
63 1 2 1.866430e+01 1.232366e+01 1.158803e+01 -1 -1 0 1.752788e-01 -2.554819e-01 -2.649080e-02 9.504234e-01
64 1 4 1.817664e+01 1.185483e+01 1.188761e+01 -1 -1 0 -9.118898e-02 1.942397e-01 -8.700350e-01 -4.438407e-01
65 1 2 1.769425e+01 1.122815e+01 1.174672e+01 -1 -1 0 -6.089913e-01 -2.017012e-01 6.263025e-01 4.429350e-01
66 1 1 1.717905e+01 1.117005e+01 1.178112e+01 -1 -1 0 7.965578e-01 -1.450014e-01 -5.642105e-01 -1.616688e-01
67 1 2 1.677009e+01 1.104383e+01 1.190493e+01 -1 -1 0 -7.949286e-01 2.800157e-01 5.279238e-01 -1.047678e-01
68 1 1 1.666708e+01 1.035311e+01 1.181917e+01 -1 -1 0 4.860221e-01 2.520463e-01 -5.404137e-01 -6.389117e-01
69 1 1 1.751094e+01 1.004718e+01 1.164399e+01 -1 -1 0 7.578173e-01 6.351587e-01 -1.984612e-02 1.479611e-01
70 1 2 1.640410e+01 9.532696e+00 1.152117e+01 -1 -1 0 1.544745e-01 4.817182e-01 8.320091e-01 2.276971e-01
71 1 3 1.609191e+01 8.767119e+00 1.246444e+01 -1 -1 0 -4.680738e-01 1.987479e-01 6.544723e-01 5.595286e-01
72 1 4 1.695109e+01 8.933890e+00 1.336439e+01 -1 -1 0 -7.389665e-01 -4.292229e-01 2.477730e-01 -4.564041e-01
73 1 1 1.728247e+01 8.737145e+00 1.376831e+01 -1 -1 0 -4.697517e-01 -1.296025e-01 4.477587e-01 -7.496991e-01
74 1 1 1.779282e+01 8.846895e+00 1.375343e+01 -1 -1 0 3.578939e-01 -3.322056e-01 -4.553180e-01 7.444709e-01
75 1 3 1.866506e+01 8.416130e+00 1.261204e+01 -1 -1 0 6.576971e-01 -1.935170e-01 4.139807e-01 5.988368e-01
76 1 1 1.872430e+01 8.552905e+00 1.281886e+01 -1 -1 0 2.106414e-01 6.089649e-01 2.870368e-01 -7.088031e-01
77 1 4 1.958253e+01 7.233397e+00 1.322370e+01 -1 -1 0 -9.090775e-01 -5.062308e-02 4.085343e-01 6.414969e-02
78 1 1 1.923275e+01 7.018407e+00 1.357621e+01 -1 -1 0 -9.110844e-01 7.774318e-02 3.458044e-01 -2.104768e-01
79 1 4 1.909865e+01 6.660612e+00 1.399334e+01 -1 -1 0 -3.764633e-01 3.145343e-01 -5.690764e-01 6.599209e-01
80 1 2 1.935760e+01 6.327095e+00 1.427657e+01 -1 -1 0 6.165366e-01 -6.611212e-02 6.109546e-01 -4.921853e-01
81 1 4 1.931000e+01 6.398485e+00 1.418369e+01 -1 -1 0 6.956997e-02 7.080512e-01 -3.597385e-01 -6.036653e-01
82 1 4 1.932640e+01 5.737983e+00 1.493040e+01 -1 -1 0 -5.606978e-01 2.952086e-01 1.405403e-01 7.607354e-01
83 1 4 1.976175e+01 6.334682e+00 1.495286e+01 -1 -1 0 -5.320310e-01 2.585414e-01 1.397367e-01 7.940863e-01
84 1 4 1.969224e+01 6.527801e+00 1.539215e+01 -1 -1 0 -7.928888e-01 2.982403e-01 -4.124091e-02 5.297917e-01
85 1 1 -1.988593e+01 6.611862e+00 1.591979e+01 0 -1 0 5.089619e-01 -2.426474e-01 2.193531e-01 -7.962187e-01
86 1 1 -1.873424e+01 6.541214e+00 1.554659e+01 0 -1 0 5.536274e-01 3.605103e-01 -5.586283e-01 5.014612e-01
87 1 3 -1.875333e+01 6.113195e+00 1.565645e+01 0 -1 0 -2.089682e-01 1.766592e-03 6.751902e-01 -7.074230e-01
88 1 2 -1.786785e+01 5.063683e+00 1.546912e+01 0 -1 0 7.733183e-01 -4.334482e-01 4.498377e-01 -1.083864e-01
89 1 2 -1.722243e+01 5.025660e+00 1.566507e+01 0 -1 0 -6.979357e-01 2.970148e-01 -6.358077e-01 -1.428862e-01
90 1 3 -1.679916e+01 4.924879e+00 1.569578e+01 0 -1 0 6.639296e-01 1.098701e-01 5.884180e-01 4.482080e-01
91 1 3 -1.773482e+01 3.900698e+00 1.587919e+01 0 -1 0 -3.782522e-01 -2.139140e-01 7.855390e-01 4.405616e-01
92 1 2 -1.849756e+01 4.593326e+00 1.641466e+01 0 -1 0 -1.278792e-01 -4.260116e-02 6.161778e-02 9.889567e-01
93 1 1 -1.785549e+01 3.344040e+00 1.705229e+01 0 -1 0 3.796753e-01 -4.329585e-01 7.995420e-01 -1.706638e-01
94 1 2 -1.741759e+01 3.123118e+00 1.682785e+01 0 -1 0 4.020798e-01 -6.257428e-02 9.057312e-01 1.186055e-01
95 1 3 -1.709250e+01 2.954547e+00 1.645705e+01 0 -1 0 3.426226e-01 2.079441e-01 8.756310e-01 2.695170e-01
96 1 2 -1.702362e+01 2.653356e+00 1.685562e+01 0 -1 0 -1.400012e-01 -3.810134e-01 2.408037e-01 -8.816133e-01
97 1 2 -1.657820e+01 2.345753e+00 1.589161e+01 0 -1 0 -2.127113e-01 -8.941261e-01 -3.908816e-01 5.003950e-02
98 1 4 -1.572838e+01 2.264618e+00 1.551407e+01 0 -1 0 7.330673e-02 7.155384e-01 -6.224777e-01 -3.084678e-01
99 1 2 -1.566587e+01 2.333947e+00 1.503037e+01 0 -1 0 -1.264652e-01 -4.472394e-01 8.431373e-01 2.703754e-01
100 1 1 -1.571368e+01 1.847106e+00 1.511146e+01 0 -1 0 2.415786e-01 4.498939e-01 -8.176373e-01 2.659032e-01
101 2 4 -7.872299e+00 1.036095e+01 7.220129e+00 0 -1 0 -3.267747e-02 6.087039e-01 -7.836533e-01 -1.195793e-01
102 2 3 -8.938155e+00 1.166511e+01 7.120319e+00 0 -1 0 -1.181487e-01 3.090882e-01 1.846162e-01 9.254308e-01
103 2 1 -9.182588e+00 1.105730e+01 6.508646e+00 0 -1 0 -3.400693e-01 3.639490e-01 8.655261e-01 5.252216e-02
104 2 3 -8.943976e+00 1.161299e+01 5.251640e+00 0 -1 0 2.883902e-01 2.451229e-01 5.072444e-01 7.742409e-01
105 2 3 -8.640129e+00 1.194743e+01 5.081611e+00 0 -1 0 4.880744e-02 -4.569331e-01 -3.985764e-01 -7.937045e-01
106 2 2 -7.958770e+00 1.218935e+01 4.917072e+00 0 -1 0 1.244355e-01 -5.383720e-01 -5.757757e-01 6.026224e-01
107 2 3 -7.289448e+00 1.161297e+01 4.671212e+00 0 -1 0 9.001506e-02 5.348194e-01 -6.689327e-01 5.083252e-01
108 2 4 -7.629474e+00 1.236075e+01 3.223091e+00 0 -1 0 7.554574e-01 5.359453e-01 3.669509e-01 -8.598674e-02
109 2 3 -8.585404e+00 1.254081e+01 3.118485e+00 0 -1 0 -6.531219e-01 -4.436789e-01 -1.201072e-01 6.017932e-01
110 2 2 -8.569806e+00 1.316148e+01 3.474875e+00 0 -1 0 8.601411e-01 1.996933e-01 4.298601e-01 1.884151e-01
111 2 2 -8.253235e+00 1.382431e+01 3.301180e+00 0 -1 0 -3.017257e-01 2.110498e-01 -4.879549e-01 -7.914036e-01
112 2 3 -8.212394e+00 1.431039e+01 3.417775e+00 0 -1 0 1.391157e-02 -1.405407e-01 4.893755e-01 8.605617e-01
113 2 3 -8.691416e+00 1.473630e+01 4.096814e+00 0 -1 0 4.740077e-01 -5.924339e-01 -3.748447e-01 -5.327571e-01
114 2 2 -8.881422e+00 1.520075e+01 4.019648e+00 0 -1 0 -6.649307e-01 5.209032e-01 4.047232e-01 3.503229e-01
115 2 4 -9.018205e+00 1.553626e+01 3.019866e+00 0 -1 0 1.235444e-01 8.231877e-01 -4.775170e-01 -2.812051e-01
116 2 4 -8.945438e+00 1.667429e+01 3.773389e+00 0 -1 0 -6.420012e-01 7.481487e-01 5.710833e-02 -1.576278e-01
117 2 1 -9.682734e+00 1.674910e+01 2.964402e+00 0 -1 0 2.654138e-01 9.510791e-01 1.033018e-01 1.197193e-01
118 2 1 -9.526465e+00 1.683234e+01 2.534855e+00 0 -1 0 1.163080e-01 9.073820e-01 -3.774633e-01 1.437078e-01
119 2 1 -9.305974e+00 1.688953e+01 2.108609e+00 0 -1 0 1.445120e-01 6.613311e-01 -7.285997e-01 1.044031e-01
120 2 1 -9.003330e+00 1.667200e+01 1.691900e+00 0 -1 0 1.403552e-01 3.623583e-01 -9.041513e-01 1.775029e-01
121 2 3 -8.935421e+00 1.626400e+01 1.451081e+00 0 -1 0 -2.804781e-02 9.471003e-02 9.880203e-01 -1.185717e-01
122 2 1 -9.009951e+00 1.626560e+01 8.573394e-01 0 -1 0 -2.788222e-01 3.586707e-01 1.617729e-01 8.760383e-01
123 2 4 -8.208719e+00 1.565407e+01 6.332117e-01 0 -1 0 1.857555e-01 -4.319641e-01 5.639651e-01 -6.788559e-01
124 2 1 -7.188762e+00 1.600830e+01 2.768403e-01 0 -1 0 -7.140210e-01 -4.710847e-02 -3.410308e-01 -6.096334e-01
125 2 4 -6.598702e+00 1.548670e+01 7.820780e-01 0 -1 0 -6.962651e-01 7.000042e-01 -4.390747e-02 1.525815e-01
126 2 2 -6.766924e+00 1.551447e+01 -1.217379e-01 0 -1 0 -5.351988e-04 -5.616692e-01 -7.887401e-01 2.498329e-01
127 2 4 -6.239751e+00 1.431728e+01 8.029739e-02 0 -1 0 -6.279231e-01 6.123655e-02 7.674367e-01 1.140334e-01
128 2 4 -5.938463e+00 1.440221e+01 -2.665558e-01 0 -1 0 2.069917e-01 -6.365455e-01 -7.344217e-01 -1.122009e-01
129 2 1 -5.386900e+00 1.336094e+01 5.842412e-02 0 -1 0 7.102867e-01 -4.197068e-02 -5.904774e-01 3.808777e-01
130 2 2 -6.030725e+00 1.275109e+01 4.342692e-01 0 -1 0 8.342902e-01 -1.123420e-01 5.190498e-02 -5.372570e-01
131 2 3 -5.795341e+00 1.275765e+01 9.762602e-01 0 -1 0 7.217221e-01 -1.816518e-02 1.683948e-01 -6.711411e-01
132 2 4 -4.658956e+00 1.302400e+01 1.117673e+00 0 -1 0 -5.968603e-01 3.233687e-01 1.925611e-01 -7.085977e-01
133 2 4 -4.753704e+00 1.327053e+01 1.516437e+00 0 -1 0 -6.644553e-02 2.883451e-01 1.389398e-01 -9.450597e-01
134 2 3 -4.013683e+00 1.255058e+01 2.292431e+00 0 -1 0 3.201510e-01 8.269243e-02 -6.921258e-01 6.415818e-01
135 2 4 -4.142986e+00 1.205475e+01 2.573406e+00 0 -1 0 1.032389e-01 -1.962918e-01 -6.666196e-01 7.116386e-01
136 2 3 -4.459614e+00 1.172990e+01 2.823677e+00 0 -1 0 -1.810121e-01 -4.783377e-01 -5.421908e-01 6.666760e-01
137 2 1 -2.883368e+00 1.107378e+01 2.683987e+00 0 -1 0 5.227316e-02 -8.025060e-01 5.831710e-01 1.147311e-01
138 2 3 -2.661896e+00 1.122723e+01 2.229269e+00 0 -1 0 5.872620e-02 5.866590e-01 -8.042964e-01 -7.409268e-02
139 2 2 -3.432415e+00 1.166284e+01 1.891547e+00 0 -1 0 -2.309621e-01 3.434705e-01 4.324988e-01 -8.010177e-01
140 2 3 -3.105442e+00 1.049008e+01 1.684403e+00 0 -1 0 5.353585e-01 -2.552757e-01 -7.936872e-01 -1.352265e-01
141 2 1 -3.534089e+00 9.925953e+00 1.451621e+00 0 -1 0 4.608929e-02 1.113588e-01 -7.802539e-01 -6.137417e-01
142 2 2 -2.264803e+00 9.720654e+00 1.326798e+00 0 -1 0 -5.851570e-02 6.952491e-01 -4.433959e-01 -5.626763e-01
143 2 4 -1.428553e+00 9.310724e+00 1.397880e+00 0 -1 0 -6.900410e-01 -6.137623e-01 3.479081e-01 -1.615527e-01
144 2 4 -1.315424e+00 9.684969e+00 2.070841e+00 0 -1 0 -3.936342e-01 7.525436e-01 2.261154e-02 -5.274646e-01
145 2 1 -1.575488e+00 8.873002e+00 3.155836e+00 0 -1 0 -7.052830e-01 3.732029e-01 5.804194e-01 -1.625079e-01
146 2 1 -1.508204e+00 8.657720e+00 3.745407e+00 0 -1 0 7.953269e-01 1.067163e-01 -5.866742e-01 1.089963e-01
147 2 1 -1.806379e+00 8.232255e+00 3.986397e+00 0 -1 0 -6.397282e-01 2.702133e-01 6.144906e-01 -3.743448e-01
148 2 2 -2.218112e+00 8.271365e+00 4.359843e+00 0 -1 0 5.376297e-01 -4.316331e-01 -4.481894e-01 5.690110e-01
149 2 4 -2.409310e+00 7.677016e+00 4.682805e+00 0 -1 0 -5.080256e-01 -8.912514e-02 -6.836821e-01 5.162805e-01
150 2 1 -2.004986e+00 7.212117e+00 5.517810e+00 0 -1 0 7.960664e-01 -2.954322e-01 -5.038975e-01 1.583835e-01
151 2 1 -2.353969e+00 6.814417e+00 5.882818e+00 0 -1 0 -1.530607e-02 -5.705500e-01 4.142084e-01 -7.089921e-01
152 2 1 -3.352481e+00 7.074911e+00 6.076407e+00 0 -1 0 9.167218e-02 -5.697022e-01 -5.637487e-01 -5.909510e-01
153 2 4 -3.316750e+00 7.271123e+00 6.627575e+00 0 -1 0 3.935423e-01 1.244616e-01 1.843992e-01 -8.919813e-01
154 2 1 -3.568078e+00 7.171981e+00 7.103072e+00 0 -1 0 6.558479e-01 1.618821e-01 2.237111e-01 -7.025746e-01
155 2 2 -3.912881e+00 7.083659e+00 7.408682e+00 0 -1 0 -8.841653e-01 -1.125574e-01 -1.053678e-01 4.409991e-01
156 2 4 -4.409207e+00 7.882449e+00 7.364474e+00 0 -1 0 -6.729806e-01 1.417278e-01 2.165583e-01 6.929017e-01
157 2 3 -4.668936e+00 7.940925e+00 7.834564e+00 0 -1 0 -9.212458e-01 2.124215e-01 9.133138e-02 3.127968e-01
158 2 2 -5.499238e+00 7.763094e+00 7.509471e+00 0 -1 0 3.281047e-01 2.417860e-01 5.506237e-01 -7.284918e-01
159 2 1 -5.662748e+00 7.228534e+00 7.685564e+00 0 -1 0 -3.011242e-01 -4.576961e-01 -4.872719e-01 6.800034e-01
160 2 3 -5.158499e+00 6.592616e+00 8.016237e+00 0 -1 0 7.153696e-01 2.793144e-01 5.720221e-01 2.881329e-01
161 2 1 -6.019460e+00 6.189180e+00 8.926195e+00 0 -1 0 -4.094882e-02 1.502796e-01 6.716861e-01 -7.242769e-01
162 2 1 -5.589028e+00 5.504674e+00 8.513805e+00 0 -1 0 4.576663e-01 6.333921e-02 -7.075394e-01 5.347127e-01
163 2 4 -4.940184e+00 5.114751e+00 8.129999e+00 0 -1 0 8.577841e-01 2.649328e-01 3.975368e-01 -1.896878e-01
164 2 4 -4.800951e+00 4.610617e+00 8.155746e+00 0 -1 0 -9.013472e-01 -3.429657e-01 -2.138514e-01 -1.556129e-01
165 2 3 -5.265565e+00 4.213195e+00 7.705817e+00 0 -1 0 -6.165888e-01 -5.715664e-01 -5.135445e-01 -1.714706e-01
166 2 3 -4.803601e+00 3.980738e+00 7.536147e+00 0 -1 0 -5.391880e-01 -6.477938e-01 -3.435446e-01 -4.142663e-01
167 2 4 -4.901251e+00 3.213792e+00 7.753479e+00 0 -1 0 -3.283513e-04 -2.273932e-01 5.708611e-01 -7.889295e-01
168 2 2 -4.915976e+00 3.652883e+00 6.336640e+00 0 -1 0 -1.027967e-02 2.025386e-01 -3.014497e-01 -9.316654e-01
169 2 2 -4.516092e+00 3.548497e+00 6.315526e+00 0 -1 0 7.967384e-01 -3.588736e-01 2.514302e-01 -4.161736e-01
170 2 1 -4.425873e+00 3.892431e+00 5.328947e+00 0 -1 0 -3.535508e-01 -5.255057e-01 -7.124606e-01 3.020687e-01
171 2 1 -4.644105e+00 3.610179e+00 4.985019e+00 0 -1 0 5.289069e-01 7.697997e-01 3.572361e-01 6.945038e-03
172 2 4 -4.935130e+00 2.515094e+00 6.142382e+00 0 -1 0 7.098310e-01 -2.122937e-01 -6.706081e-01 -3.682618e-02
173 2 4 -5.366590e+00 2.347618e+00 6.289499e+00 0 -1 0 5.820848e-01 -4.374480e-01 -6.335853e-01 2.615075e-01
174 2 1 -6.050690e+00 1.980216e+00 6.166172e+00 0 -1 0 3.999874e-01 -4.690008e-01 6.657534e-01 -4.205004e-01
175 2 1 -6.901374e+00 2.815572e+00 5.077947e+00 0 -1 0 -1.569380e-01 -2.864575e-02 -4.366435e-01 -8.853769e-01
176 2 2 -6.974761e+00 1.473436e+00 5.189853e+00 0 -1 0 -3.214210e-01 1.161470e-01 -9.277210e-01 -1.501075e-01
177 2 2 -6.424839e+00 1.666186e+00 4.770758e+00 0 -1 0 5.781598e-01 3.072543e-01 4.495397e-01 6.076513e-01
178 2 1 -7.072804e+00 9.340575e-01 5.903421e+00 0 -1 0 -7.326846e-01 3.999050e-01 5.168706e-01 -1.899844e-01
179 2 4 -7.807323e+00 1.507121e+00 6.156227e+00 0 -1 0 -3.627114e-01 6.623928e-01 6.523336e-01 -6.431941e-02
180 2 1 -8.228159e+00 1.561227e+00 5.990814e+00 0 -1 0 1.432162e-01 9.139809e-01 2.943297e-01 -2.397876e-01
181 2 4 -9.033287e+00 1.547043e+00 6.573259e+00 0 -1 0 6.009903e-01 -3.777236e-01 -7.041880e-01 -1.596223e-02
182 2 2 -9.290174e+00 1.849525e+00 5.389543e+00 0 -1 0 -2.293948e-01 5.003612e-01 1.821110e-01 -8.147713e-01
183 2 3 -9.696997e+00 1.974651e+00 5.600852e+00 0 -1 0 2.348357e-03 6.466277e-01 1.179590e-01 -7.536264e-01
184 2 4 -1.010980e+01 2.222595e+00 5.615610e+00 0 -1 0 -4.384604e-02 -6.383532e-01 1.142915e-01 7.599475e-01
185 2 3 -1.021910e+01 2.395588e+00 7.027819e+00 0 -1 0 -6.548243e-01 6.510064e-01 9.248931e-02 3.726144e-01
186 2 1 -1.028583e+01 2.759031e+00 7.405566e+00 0 -1 0 -7.809480e-01 6.102991e-01 -1.308637e-01 2.301816e-02
187 2 1 -1.013149e+01 3.042615e+00 7.787046e+00 0 -1 0 -6.434686e-01 5.522440e-01 -3.297156e-01 -4.150450e-01
188 2 2 -1.060431e+01 3.893086e+00 7.603401e+00 0 -1 0 -3.254580e-02 2.957082e-01 4.657899e-01 -8.333889e-01
189 2 4 -1.062673e+01 3.680030e+00 6.679959e+00 0 -1 0 1.744297e-01 5.216829e-01 -7.356656e-01 -3.952434e-01
190 2 4 -1.076716e+01 3.755712e+00 6.246029e+00 0 -1 0 2.700514e-01 1.886364e-01 -8.981044e-01 -2.913711e-01
191 2 1 -1.110308e+01 3.671167e+00 5.892570e+00 0 -1 0 -4.194964e-01 1.581337e-01 8.813754e-01 1.489764e-01
192 2 4 -1.156329e+01 3.658520e+00 5.683162e+00 0 -1 0 4.569276e-01 -4.589406e-01 -7.613383e-01 3.089847e-02
193 2 4 -1.200432e+01 3.686270e+00 5.525883e+00 0 -1 0 -3.913077e-01 7.250546e-01 5.509616e-01 -1.327230e-01
194 2 1 -1.247933e+01 3.990149e+00 5.520426e+00 0 -1 0 -3.541481e-01 8.596572e-01 3.090156e-01 -2.001948e-01
195 2 3 -1.275154e+01 4.406937e+00 5.410145e+00 0 -1 0 -1.349540e-01 9.288597e-01 -4.241546e-02 -3.423566e-01
196 2 4 -1.290158e+01 4.757285e+00 5.047517e+00 0 -1 0 3.724043e-02 8.522417e-01 -4.677035e-01 -2.314100e-01
197 2 2 -1.281997e+01 4.904676e+00 4.585610e+00 0 -1 0 1.264583e-01 5.896458e-01 -7.690381e-01 -2.119116e-01
198 2 4 -1.265032e+01 5.563432e+00 4.646107e+00 0 -1 0 -1.999074e-01 1.124970e-01 5.617780e-01 -7.948502e-01
199 2 3 -1.246883e+01 4.416602e+00 4.212395e+00 0 -1 0 -9.599628e-01 2.467204e-01 1.058953e-01 -7.991593e-02
200 2 4 -1.328711e+01 4.184861e+00 3.684712e+00 0 -1 0 7.035206e-01 -3.979601e-01 2.555018e-01 -5.304765e-01
