ITEM: TIMESTEP
242000000
ITEM: NUMBER OF ATOMS
200
ITEM: BOX BOUNDS pp pp pp
-2.0000000000000000e+01 2.0000000000000000e+01
-2.0000000000000000e+01 2.0000000000000000e+01
-2.0000000000000000e+01 2.0000000000000000e+01
ITEM: ATOMS id mol type x y z ix iy iz c_quat[1] c_quat[2] c_quat[3] c_quat[4]
1 1 1 -2.631264e+00 3.639857e+00 -2.828865e+00 0 -1 0 -5.014378e-02 -6.940471e-01 7.073701e-01 -1.241443e-01
2 1 2 -3.145591e+00 3.589580e+00 -3.033756e+00 0 -1 0 -5.372990e-01 -7.882899e-01 -2.720223e-01 -1.261457e-01
3 1 1 -3.017272e+00 3.440532e+00 -3.424023e+00 0 -1 0 -3.750326e-01 -9.057916e-01 8.955216e-02 -1.757059e-01
4 1 3 -4.415958e+00 2.504761e+00 -3.375545e+00 0 -1 0 -1.125639e-01 -7.809322e-02 -9.216826e-01 -3.629491e-01
5 1 1 -3.651533e+00 2.975283e+00 -3.702866e+00 0 -1 0 6.108142e-02 -6.535910e-01 -3.661271e-01 6.595748e-01
6 1 2 -4.241049e+00 2.695498e+00 -3.784969e+00 0 -1 0 -9.701772e-02 7.679233e-01 3.320985e-01 -5.390658e-01
7 1 4 -4.537465e+00 1.941666e+00 -4.231790e+00 0 -1 0 -9.627609e-01 -2.130824e-01 -1.347713e-01 -9.759110e-02
8 1 1 -5.843987e+00 1.693230e+00 -3.848343e+00 0 -1 0 1.831951e-01 -4.012676e-01 -8.780845e-01 -1.854497e-01
9 1 1 -6.065380e+00 2.011291e+00 -4.317620e+00 0 -1 0 3.303073e-01 -4.111941e-01 -7.822235e-01 -3.315762e-01
10 1 4 -6.422300e+00 2.406356e+00 -4.448717e+00 0 -1 0 4.931884e-01 -5.358318e-01 -6.654289e-01 -1.638713e-01
11 1 1 -6.877044e+00 2.468295e+00 -4.854344e+00 0 -1 0 5.093516e-02 -6.108670e-01 7.671704e-02 7.863597e-01
12 1 1 -7.341706e+00 1.415909e+00 -3.927074e+00 0 -1 0 -6.131807e-01 -4.031545e-02 7.280075e-01 -3.039559e-01
13 1 3 -7.752763e+00 1.102164e+00 -3.715955e+00 0 -1 0 -5.840206e-01 3.051900e-01 5.846039e-01 -4.733046e-01
14 1 4 -8.593948e+00 1.026737e+00 -4.028700e+00 0 -1 0 -4.868751e-01 -7.026064e-01 -4.048031e-01 3.247019e-01
15 1 4 -8.628149e+00 6.002786e-01 -3.015722e+00 0 -1 0 1.407094e-01 -4.799039e-01 -2.954141e-01 -8.140170e-01
16 1 2 -8.500021e+00 -3.938857e-01 -2.958139e+00 0 -1 0 4.310728e-01 2.494528e-01 -6.479427e-01 5.762984e-01
17 1 1 -8.968322e+00 -7.064804e-01 -2.432147e+00 0 -1 0 -7.844770e-01 2.025064e-01 5.431571e-01 -2.203802e-01
18 1 2 -9.282761e+00 -8.986159e-01 -2.116014e+00 0 -1 0 -7.405493e-01 2.911535e-01 4.000637e-01 -4.547146e-01
19 1 3 -9.602048e+00 -8.974897e-01 -1.662774e+00 0 -1 0 4.708754e-01 -4.984072e-01 -2.269670e-01 6.916304e-01
20 1 1 -1.003426e+01 -6.901070e-01 -1.354046e+00 0 -1 0 4.076802e-01 -5.322626e-01 -8.373152e-03 7.419052e-01
21 1 4 -9.626930e+00 -1.132070e+00 -8.333788e-01 0 -1 0 -2.945408e-01 -1.696826e-01 9.304130e-01 -1.370589e-01
22 1 1 -9.098943e+00 -6.136169e-01 -4.235158e-01 0 -1 0 7.788103e-01 -1.577584e-01 -5.324308e-01 -2.916921e-01
23 1 4 -8.894480e+00 1.995011e-01 3.001901e-01 0 -1 0 -6.931218e-01 5.223424e-01 2.211966e-01 4.447614e-01
24 1 3 -8.366510e+00 1.255634e+00 -6.742982e-01 0 -1 0 -1.407160e-02 -7.912751e-01 2.411314e-01 5.617306e-01
25 1 3 -8.004680e+00 1.555627e+00 -6.882515e-01 0 -1 0 2.598494e-01 2.300676e-01 3.116837e-01 8.845341e-01
26 1 4 -7.847693e+00 2.002273e+00 -4.581873e-01 0 -1 0 -2.016296e-01 2.766383e-01 1.461094e-01 9.281535e-01
27 1 4 -7.771663e+00 2.254669e+00 -3.271576e-02 0 -1 0 5.488694e-01 -2.529125e-01 6.204349e-02 -7.943099e-01
28 1 1 -7.797747e+00 2.278822e+00 4.636637e-01 0 -1 0 8.736880e-01 -1.546372e-01 1.693293e-01 -4.290503e-01
29 1 1 -7.885907e+00 2.091080e+00 9.348031e-01 0 -1 0 9.898981e-01 -3.971272e-02 1.292600e-01 -4.262153e-02
30 1 4 -7.575727e+00 2.932945e+00 1.340499e+00 0 -1 0 4.890279e-01 -6.576842e-01 5.529095e-01 1.503139e-01
31 1 4 -7.166542e+00 3.170603e+00 1.119073e+00 0 -1 0 3.946679e-01 -3.887018e-01 8.034675e-01 2.181469e-01
32 1 3 -6.725862e+00 2.709930e+00 2.047698e+00 0 -1 0 -7.720576e-01 5.777890e-01 -2.207397e-01 1.461534e-01
33 1 3 -6.444885e+00 2.938479e+00 2.359442e+00 0 -1 0 -7.487886e-01 4.535753e-01 -4.348900e-01 -2.108452e-01
34 1 1 -5.895149e+00 2.970819e+00 2.563035e+00 0 -1 0 6.139227e-01 -3.203923e-01 5.656540e-01 4.477535e-01
35 1 2 -5.921863e+00 2.162567e+00 3.358178e+00 0 -1 0 8.764213e-01 -5.877750e-02 4.675665e-01 -9.905783e-02
36 1 2 -7.068938e+00 2.611283e+00 3.980650e+00 0 -1 0 -1.426466e-01 4.473911e-01 1.921037e-01 8.617362e-01
37 1 1 -6.827111e+00 3.124754e+00 4.181600e+00 0 -1 0 4.644940e-01 -4.898966e-01 1.823929e-01 -7.148283e-01
38 1 1 -6.557268e+00 3.370497e+00 4.540797e+00 0 -1 0 -6.623809e-01 3.859209e-01 -4.839256e-01 4.220576e-01
39 1 4 -6.146341e+00 3.168792e+00 4.764224e+00 0 -1 0 7.281114e-01 -2.320681e-01 6.377563e-01 -9.625573e-02
40 1 4 -5.572429e+00 3.038356e+00 4.872152e+00 0 -1 0 -7.055497e-01 9.893115e-02 -6.978306e-01 -7.378779e-02
41 1 2 -6.212034e+00 3.769280e+00 6.150634e+00 0 -1 0 -1.595396e-01 -4.478132e-02 7.033225e-01 -6.912881e-01
42 1 4 -6.120157e+00 3.147647e+00 6.277469e+00 0 -1 0 -1.062005e-01 5.029466e-03 6.305970e-01 -7.687936e-01
43 1 3 -6.244064e+00 2.857234e+00 6.699107e+00 0 -1 0 -1.657633e-01 -2.048422e-01 -5.785109e-01 7.719374e-01
44 1 2 -6.372802e+00 2.678074e+00 7.134689e+00 0 -1 0 4.544146e-01 3.112358e-01 4.235562e-01 -7.191938e-01
45 1 1 -6.617540e+00 2.305300e+00 7.214889e+00 0 -1 0 8.490752e-01 3.838285e-01 1.337163e-01 -3.374418e-01
46 1 3 -7.083191e+00 2.671055e+00 8.456750e+00 0 -1 0 -7.723301e-01 3.615425e-01 2.093633e-01 4.784979e-01
47 1 4 -7.007406e+00 2.759159e+00 9.390885e+00 0 -1 0 -7.515694e-02 4.718324e-01 -5.636444e-01 6.738179e-01
48 1 1 -8.158604e+00 2.661420e+00 9.006353e+00 0 -1 0 -3.747115e-01 1.113846e-01 3.345850e-01 8.574600e-01
49 1 4 -7.424003e+00 2.645490e+00 9.696966e+00 0 -1 0 6.717716e-01 -4.588022e-01 7.574152e-02 5.766166e-01
50 1 4 -7.388735e+00 3.080921e+00 9.987284e+00 0 -1 0 2.662714e-01 -4.646505e-01 2.423028e-01 8.090048e-01
51 1 4 -7.742410e+00 3.470423e+00 9.883036e+00 0 -1 0 -1.955390e-01 -3.268600e-01 4.706145e-01 7.958951e-01
52 1 1 -8.210339e+00 3.813661e+00 9.794033e+00 0 -1 0 -4.238747e-01 -1.589712e-01 5.570578e-01 6.962363e-01
53 1 3 -7.285836e+00 4.856998e+00 9.773063e+00 0 -1 0 2.084392e-01 8.468104e-01 -3.151678e-01 -3.743454e-01
54 1 4 -7.764048e+00 5.601497e+00 1.107342e+01 0 -1 0 6.368281e-01 -5.311490e-01 -5.578308e-01 -3.399214e-02
55 1 4 -8.238995e+00 5.913541e+00 1.111391e+01 0 -1 0 -7.240912e-01 5.952047e-01 3.483429e-01 -8.970054e-03
56 1 4 -8.521052e+00 6.163168e+00 1.156551e+01 0 -1 0 6.673014e-01 -6.634858e-01 -1.490107e-01 3.037946e-01
57 1 1 -8.691079e+00 6.539897e+00 1.187221e+01 0 -1 0 6.634698e-01 -6.279226e-01 6.521420e-02 4.015821e-01
58 1 1 -8.700869e+00 6.964497e+00 1.213452e+01 0 -1 0 4.651646e-01 -5.655036e-01 3.442009e-01 5.876677e-01
59 1 3 -8.839782e+00 7.549896e+00 1.218151e+01 0 -1 0 -3.951246e-01 5.889483e-01 -4.653914e-01 -5.295539e-01
60 1 4 -8.856183e+00 8.085732e+00 1.197974e+01 0 -1 0 1.932795e-01 -5.024429e-01 6.708865e-01 5.100053e-01
61 1 2 -8.853108e+00 8.529047e+00 1.163676e+01 0 -1 0 5.573462e-02 -4.827391e-01 7.648321e-01 4.229520e-01
62 1 3 -8.942503e+00 8.757448e+00 1.118253e+01 0 -1 0 3.084101e-01 8.098165e-02 -8.036451e-01 -5.024736e-01
63 1 2 -9.380408e+00 8.890013e+00 1.082509e+01 0 -1 0 -4.706128e-01 7.363633e-02 8.112648e-01 3.390439e-01
64 1 4 -9.888543e+00 8.959729e+00 1.061334e+01 0 -1 0 5.684686e-01 -3.744979e-01 -7.189118e-01 -1.405728e-01
65 1 2 -1.041267e+01 9.048136e+00 1.057178e+01 0 -1 0 6.093897e-01 -5.110899e-01 -6.061278e-01 -6.359258e-03
66 1 1 -1.089078e+01 9.330277e+00 1.060016e+01 0 -1 0 7.122423e-01 -4.558649e-01 -5.258569e-01 9.150210e-02
67 1 2 -1.135492e+01 9.357245e+00 1.088029e+01 0 -1 0 -5.657666e-01 6.639578e-01 3.770773e-01 -3.112568e-01
68 1 1 -1.161414e+01 9.599573e+00 1.105951e+01 0 -1 0 3.348480e-01 -7.465955e-01 -8.050545e-02 5.692019e-01
69 1 1 -1.184599e+01 1.004022e+01 1.094349e+01 0 -1 0 3.771981e-02 -6.797897e-01 2.725313e-01 6.798454e-01
70 1 2 -1.258402e+01 1.051455e+01 1.103634e+01 0 -1 0 -1.856409e-01 -1.934181e-01 5.599739e-01 7.839363e-01
71 1 3 -1.290408e+01 1.089975e+01 1.217545e+01 0 -1 0 -6.735360e-03 -1.209658e-01 1.784387e-01 -9.764638e-01
72 1 4 -1.285804e+01 1.106464e+01 1.263708e+01 0 -1 0 -4.467222e-01 1.344830e-01 -3.292378e-01 8.209483e-01
73 1 1 -1.314695e+01 1.203038e+01 1.256743e+01 0 -1 0 3.008102e-02 6.510304e-01 7.580234e-01 -2.559379e-02
74 1 1 -1.249534e+01 1.229749e+01 1.344359e+01 0 -1 0 -4.132574e-01 5.992214e-01 6.631300e-01 -1.743867e-01
75 1 3 -1.241037e+01 1.263846e+01 1.328553e+01 0 -1 0 1.520533e-01 -3.147569e-01 4.943036e-01 7.959094e-01
76 1 1 -1.249588e+01 1.313799e+01 1.317367e+01 0 -1 0 1.248967e-01 1.695284e-01 -6.374232e-01 -7.411832e-01
77 1 4 -1.290153e+01 1.353518e+01 1.311457e+01 0 -1 0 -4.342076e-01 1.530371e-02 5.748842e-01 6.933525e-01
78 1 1 -1.242001e+01 1.433141e+01 1.279464e+01 0 -1 0 2.347253e-01 -6.878294e-01 -2.622913e-01 -6.348212e-01
79 1 4 -1.294128e+01 1.496482e+01 1.240745e+01 0 -1 0 7.206275e-02 7.016772e-01 2.956225e-01 -6.442542e-01
80 1 2 -1.351610e+01 1.502466e+01 1.242175e+01 0 -1 0 -1.492181e-01 -7.566220e-01 -5.791689e-03 6.365717e-01
81 1 4 -1.395434e+01 1.519659e+01 1.217995e+01 0 -1 0 -4.356845e-01 -6.825993e-01 1.980273e-01 5.522884e-01
82 1 4 -1.433619e+01 1.511012e+01 1.192124e+01 0 -1 0 5.342289e-01 5.828557e-01 -5.440676e-01 -2.808365e-01
83 1 4 -1.457546e+01 1.473130e+01 1.162055e+01 0 -1 0 -6.180662e-01 -2.889372e-01 7.291301e-01 -5.365334e-02
84 1 4 -1.458016e+01 1.615606e+01 1.184864e+01 0 -1 0 1.753976e-01 -7.440866e-01 -1.710724e-01 -6.215345e-01
85 1 1 -1.357282e+01 1.594445e+01 1.141551e+01 0 -1 0 4.998221e-01 -4.100561e-01 7.112989e-01 2.758363e-01
86 1 1 -1.335146e+01 1.621083e+01 1.105452e+01 0 -1 0 -4.044759e-01 4.702042e-01 -7.756513e-01 -1.169283e-01
87 1 3 -1.302298e+01 1.640365e+01 1.078366e+01 0 -1 0 2.462476e-01 -1.065031e-01 9.292782e-01 2.538923e-01
88 1 2 -1.198530e+01 1.700045e+01 1.202899e+01 0 -1 0 7.285354e-01 -6.705949e-01 1.376662e-01 -2.422322e-02
89 1 2 -1.132394e+01 1.709872e+01 1.227333e+01 0 -1 0 -1.497141e-01 -7.454955e-01 6.380855e-01 -1.211156e-01
90 1 3 -1.119471e+01 1.814247e+01 1.232212e+01 0 -1 0 -7.317743e-01 6.751322e-01 1.247929e-02 -9.245076e-02
91 1 3 -1.113686e+01 1.887651e+01 1.232192e+01 0 -1 0 -3.015458e-01 2.390884e-01 5.415557e-01 -7.474118e-01
92 1 2 -1.059075e+01 1.806110e+01 1.100581e+01 0 -1 0 5.448086e-01 -3.707841e-01 7.321382e-01 1.722687e-01
93 1 1 -1.022578e+01 1.813071e+01 1.070911e+01 0 -1 0 -3.395804e-01 -5.510835e-02 -8.067364e-01 -4.804421e-01
94 1 2 -9.115139e+00 1.845607e+01 1.102155e+01 0 -1 0 7.599430e-01 -7.668996e-02 3.991365e-01 5.072428e-01
95 1 3 -8.774567e+00 1.853021e+01 1.150237e+01 0 -1 0 -5.292010e-01 8.924525e-02 -5.223368e-01 -6.626808e-01
96 1 2 -8.393958e+00 1.836266e+01 1.216390e+01 0 -1 0 7.721089e-01 -3.604698e-01 -1.913651e-01 -4.871229e-01
97 1 2 -8.553051e+00 1.949765e+01 1.161639e+01 0 -1 0 -5.085225e-01 3.367651e-01 -1.340431e-01 -7.810420e-01
98 1 4 -8.645310e+00 1.993322e+01 1.174729e+01 0 -1 0 -2.246734e-02 2.334672e-01 -1.761460e-01 -9.560130e-01
99 1 2 -8.536833e+00 -1.914490e+01 1.196469e+01 0 0 0 1.611208e-02 8.405977e-01 2.400507e-01 -4.852954e-01
100 1 1 -8.931610e+00 1.980839e+01 1.251328e+01 0 -1 0 6.488728e-01 4.467915e-01 -2.496087e-02 -6.154010e-01
101 2 4 -3.002139e+00 1.242683e+01 6.313491e+00 0 -1 0 -3.279757e-01 9.017619e-01 -3.847998e-02 -2.788849e-01
102 2 3 -3.710645e+00 1.220121e+01 7.080509e+00 0 -1 0 -1.377221e-01 -2.879811e-01 -8.881718e-01 3.305304e-01
103 2 1 -4.046744e+00 1.181925e+01 7.062993e+00 0 -1 0 2.045057e-01 -3.380728e-01 -4.491482e-01 -8.013427e-01
104 2 3 -3.584432e+00 1.066045e+01 6.896758e+00 0 -1 0 2.428726e-01 6.428917e-01 -5.718222e-01 -4.480206e-01
105 2 3 -3.028870e+00 1.101570e+01 7.970517e+00 0 -1 0 4.379618e-01 6.880391e-02 -4.090231e-01 7.975936e-01
106 2 2 -3.049908e+00 1.089176e+01 8.331159e+00 0 -1 0 -2.347012e-02 -1.030655e-01 -2.541598e-01 9.613685e-01
107 2 3 -3.223365e+00 1.088917e+01 8.822555e+00 0 -1 0 3.842625e-01 2.896919e-01 1.202652e-01 -8.683071e-01
108 2 4 -2.784947e+00 1.137311e+01 9.731606e+00 0 -1 0 -3.901614e-02 5.849493e-01 6.113489e-01 5.315681e-01
109 2 3 -1.702275e+00 1.131311e+01 1.048578e+01 0 -1 0 -1.723104e-01 -6.478080e-01 6.397640e-01 -3.759732e-01
110 2 2 -2.431071e+00 1.145255e+01 1.014316e+01 0 -1 0 3.235009e-01 4.501342e-01 -7.420735e-01 -3.768996e-01
111 2 2 -3.253001e+00 1.204903e+01 1.079397e+01 0 -1 0 1.919217e-01 3.366699e-02 -6.184478e-01 -7.612850e-01
112 2 3 -4.099520e+00 1.191847e+01 1.080497e+01 0 -1 0 6.310537e-02 1.733197e-01 9.415953e-01 2.817380e-01
113 2 3 -3.957839e+00 1.235395e+01 1.068952e+01 0 -1 0 3.289226e-01 -6.107203e-01 6.556320e-01 2.982906e-01
114 2 2 -5.252819e+00 1.289123e+01 1.097513e+01 0 -1 0 4.500382e-01 5.765701e-01 5.697725e-01 -3.746890e-01
115 2 4 -5.376678e+00 1.248951e+01 1.060161e+01 0 -1 0 -6.608697e-01 -7.031413e-01 -2.617312e-01 1.844729e-02
116 2 4 -6.214760e+00 1.257833e+01 1.190162e+01 0 -1 0 6.534766e-01 -3.592445e-01 -6.199981e-01 2.439553e-01
117 2 1 -6.604305e+00 1.271797e+01 1.230066e+01 0 -1 0 -5.067378e-01 5.507312e-01 4.119684e-01 -5.198018e-01
118 2 1 -6.855540e+00 1.291641e+01 1.250688e+01 0 -1 0 2.904774e-02 -6.768035e-01 -3.027807e-02 7.349670e-01
119 2 1 -7.193391e+00 1.329736e+01 1.242767e+01 0 -1 0 2.093020e-01 5.798560e-01 -3.580856e-01 -7.012377e-01
120 2 1 -7.689464e+00 1.345364e+01 1.231745e+01 0 -1 0 -2.619569e-01 -6.819534e-01 4.336243e-01 5.275301e-01
121 2 3 -7.967841e+00 1.364120e+01 1.191155e+01 0 -1 0 3.800104e-01 5.441578e-01 -5.799419e-01 -4.723894e-01
122 2 1 -8.394780e+00 1.365367e+01 1.163316e+01 0 -1 0 -6.067713e-01 -2.103633e-01 7.183855e-01 2.673914e-01
123 2 4 -8.825266e+00 1.352837e+01 1.143872e+01 0 -1 0 -6.330617e-01 -1.565400e-01 7.580600e-01 -8.558813e-03
124 2 1 -9.190671e+00 1.376275e+01 1.096298e+01 0 -1 0 -2.381521e-01 -1.930118e-01 8.424604e-01 -4.430468e-01
125 2 4 -9.558458e+00 1.387374e+01 1.007285e+01 0 -1 0 2.987505e-01 -5.617040e-01 3.538849e-01 6.855671e-01
126 2 2 -1.063854e+01 1.332917e+01 9.594705e+00 0 -1 0 4.276412e-01 8.535097e-02 8.753333e-01 2.088775e-01
127 2 4 -1.032939e+01 1.316290e+01 9.230482e+00 0 -1 0 3.065269e-01 5.090524e-01 7.331784e-01 3.306906e-01
128 2 4 -1.018946e+01 1.332170e+01 8.829284e+00 0 -1 0 6.450787e-02 8.453046e-01 3.690791e-01 3.808930e-01
129 2 1 -1.084287e+01 1.275526e+01 9.294924e+00 0 -1 0 -7.110383e-02 3.702674e-01 4.315860e-01 -8.194997e-01
130 2 2 -1.115217e+01 1.252746e+01 9.187635e+00 0 -1 0 4.311987e-01 7.700278e-01 2.434757e-01 -4.022990e-01
131 2 3 -1.148250e+01 1.127942e+01 9.546121e+00 0 -1 0 1.087035e-01 1.636453e-01 -9.551819e-01 2.214302e-01
132 2 4 -1.133637e+01 1.147118e+01 9.941753e+00 0 -1 0 1.341872e-01 4.807441e-01 9.647720e-02 8.611452e-01
133 2 4 -1.126154e+01 1.046882e+01 1.081287e+01 0 -1 0 5.346233e-01 -4.587120e-01 4.071827e-01 -5.813462e-01
134 2 3 -1.079882e+01 1.039157e+01 1.109044e+01 0 -1 0 5.101179e-01 -2.822290e-01 5.414379e-01 -6.057818e-01
135 2 4 -1.035612e+01 1.012453e+01 1.127970e+01 0 -1 0 4.906369e-01 -1.411542e-01 6.382953e-01 -5.761337e-01
136 2 3 -1.020016e+01 9.707749e+00 1.158716e+01 0 -1 0 -6.448743e-01 -1.287872e-01 -5.798864e-01 4.809187e-01
137 2 1 -1.007908e+01 9.204591e+00 1.173936e+01 0 -1 0 -6.673581e-01 -3.176574e-01 -5.384673e-01 4.046972e-01
138 2 3 -1.008884e+01 8.663933e+00 1.171079e+01 0 -1 0 -8.019453e-01 -4.368822e-01 -3.781765e-01 1.516584e-01
139 2 2 -9.924415e+00 8.229407e+00 1.163163e+01 0 -1 0 -7.536788e-01 -6.057365e-01 -2.310593e-01 -1.079957e-01
140 2 3 -9.738098e+00 7.821852e+00 1.131605e+01 0 -1 0 6.001759e-01 7.139231e-01 6.469992e-02 3.548472e-01
141 2 1 -9.434759e+00 7.448491e+00 1.115148e+01 0 -1 0 5.103101e-01 7.013650e-01 4.548628e-02 4.955822e-01
142 2 2 -8.908652e+00 7.322765e+00 1.098325e+01 0 -1 0 3.427448e-01 6.772412e-01 -1.566289e-01 6.319317e-01
143 2 4 -8.362705e+00 7.296639e+00 1.102405e+01 0 -1 0 -1.175297e-01 -5.848863e-01 3.498167e-01 -7.223040e-01
144 2 4 -7.914662e+00 7.246071e+00 1.118045e+01 0 -1 0 -9.735652e-02 4.120241e-01 -6.618325e-01 6.186563e-01
145 2 1 -7.566733e+00 6.901162e+00 1.138047e+01 0 -1 0 1.841762e-01 -2.750439e-01 6.759850e-01 -6.583877e-01
146 2 1 -7.346443e+00 6.488637e+00 1.169232e+01 0 -1 0 3.748019e-01 3.011952e-03 6.909860e-01 -6.181042e-01
147 2 1 -6.817866e+00 6.041511e+00 1.211924e+01 0 -1 0 -6.954945e-01 -9.724092e-02 3.297227e-01 6.309632e-01
148 2 2 -5.810587e+00 6.109470e+00 1.184675e+01 0 -1 0 -1.973069e-01 -4.181805e-01 8.779335e-01 1.242085e-01
149 2 4 -5.796511e+00 5.953322e+00 1.135448e+01 0 -1 0 2.368678e-01 -8.756020e-02 -9.525874e-01 -1.697175e-01
150 2 1 -4.846543e+00 5.784681e+00 1.102057e+01 0 -1 0 1.361687e-01 -5.702765e-01 6.250181e-01 -5.153592e-01
151 2 1 -4.176922e+00 5.443879e+00 1.121924e+01 0 -1 0 -9.001134e-01 3.937440e-01 -1.299492e-01 1.336964e-01
152 2 1 -4.466055e+00 5.889248e+00 1.171756e+01 0 -1 0 4.795218e-01 -2.727735e-01 -3.862355e-01 -7.392399e-01
153 2 4 -3.818105e+00 5.974568e+00 1.112488e+01 0 -1 0 6.760529e-01 1.847526e-01 3.743301e-01 -6.072034e-01
154 2 1 -2.447900e+00 5.981337e+00 1.101072e+01 0 -1 0 -7.615180e-01 -4.632438e-01 3.922064e-01 2.273098e-01
155 2 2 -2.819046e+00 5.623684e+00 1.092429e+01 0 -1 0 7.653044e-01 3.238869e-01 -5.359234e-01 1.489720e-01
156 2 4 -3.104895e+00 5.122073e+00 1.086760e+01 0 -1 0 7.695866e-01 1.296411e-01 -5.271707e-01 3.361854e-01
157 2 3 -3.179732e+00 4.868865e+00 1.127979e+01 0 -1 0 -4.266909e-01 1.662911e-01 4.980513e-01 -7.363607e-01
158 2 2 -2.544358e+00 4.796550e+00 1.088236e+01 0 -1 0 -9.184139e-02 -7.842416e-01 -6.085129e-01 -7.900854e-02
159 2 1 -2.554681e+00 3.906343e+00 1.088385e+01 0 -1 0 2.039920e-01 -5.663898e-01 5.711399e-01 5.580224e-01
160 2 3 -2.600867e+00 3.113803e+00 1.046605e+01 0 -1 0 6.977956e-01 6.444599e-01 -1.704152e-02 -3.121896e-01
161 2 1 -2.692087e+00 2.741458e+00 1.029677e+01 0 -1 0 -8.045787e-01 -4.747281e-01 3.556958e-01 -2.769218e-02
162 2 1 -2.649519e+00 2.284078e+00 1.017583e+01 0 -1 0 -6.466058e-01 -3.677858e-01 5.597396e-01 -3.651385e-01
163 2 4 -2.240928e+00 2.239371e+00 9.650486e+00 0 -1 0 -2.125455e-01 -9.643305e-01 -1.264004e-01 9.441443e-02
164 2 4 -2.243063e+00 2.322696e+00 9.135469e+00 0 -1 0 -1.141645e-01 -9.793756e-01 1.650729e-01 -2.325749e-02
165 2 3 -2.658366e+00 2.559275e+00 9.199521e+00 0 -1 0 8.517316e-01 -6.747924e-02 -4.536861e-01 2.533155e-01
166 2 3 -3.698774e+00 1.939656e+00 8.744204e+00 0 -1 0 6.161846e-01 4.628499e-01 -2.722693e-01 -5.761561e-01
167 2 4 -3.652384e+00 2.156210e+00 9.390333e+00 0 -1 0 -7.701195e-02 -9.241234e-01 -3.618100e-01 9.570116e-02
168 2 2 -4.103967e+00 1.092903e+00 1.008351e+01 0 -1 0 -7.744996e-01 -1.404357e-01 1.608966e-01 5.954330e-01
169 2 2 -4.797733e+00 1.559810e+00 1.087442e+01 0 -1 0 3.427534e-01 -7.134392e-01 -5.468301e-01 -2.729497e-01
170 2 1 -5.602913e+00 1.409160e+00 1.033089e+01 0 -1 0 1.409637e-01 6.066733e-01 6.626174e-01 4.159506e-01
171 2 1 -5.754363e+00 1.056151e+00 1.027009e+01 0 -1 0 1.604105e-01 9.695950e-01 5.694401e-03 -1.847201e-01
172 2 4 -5.731899e+00 1.378067e+00 1.147561e+01 0 -1 0 -3.678420e-02 8.574906e-01 5.910974e-02 5.097675e-01
173 2 4 -5.186164e+00 3.923368e-01 1.151126e+01 0 -1 0 -3.953218e-01 -5.319638e-01 4.668603e-01 -5.854713e-01
174 2 1 -5.254235e+00 -8.228104e-01 1.077615e+01 0 -1 0 6.196503e-01 2.543466e-01 -5.696356e-01 -4.762946e-01
175 2 1 -5.706500e+00 -9.666900e-01 1.077956e+01 0 -1 0 8.042958e-01 -1.826671e-01 -5.456353e-01 -1.484019e-01
176 2 2 -5.301452e+00 -1.456384e+00 1.023981e+01 0 -1 0 2.516902e-01 6.504478e-01 -6.237247e-01 3.528983e-01
177 2 2 -5.514731e+00 -1.763534e+00 9.679779e+00 0 -1 0 8.152738e-01 -9.858981e-02 -4.900143e-01 2.923947e-01
178 2 1 -5.898846e+00 -1.149120e+00 8.614019e+00 0 -1 0 -6.363809e-01 -7.276906e-01 -5.520922e-02 2.498754e-01
179 2 4 -6.163894e+00 -1.419156e+00 8.396375e+00 0 -1 0 6.447513e-01 6.874540e-01 -3.291525e-01 -5.797660e-02
180 2 1 -6.872213e+00 -1.376996e+00 9.239907e+00 0 -1 0 4.053061e-01 -7.783133e-01 -3.879742e-01 2.818358e-01
181 2 4 -6.105118e+00 -2.147244e+00 9.249393e+00 0 -1 0 4.932621e-01 -7.942263e-01 1.050583e-01 -3.389098e-01
182 2 2 -6.636016e+00 -2.915266e+00 8.730269e+00 0 -1 0 -3.723109e-01 5.214183e-01 -7.579571e-01 -1.225090e-01
183 2 3 -6.131227e+00 -3.503030e+00 9.184618e+00 0 -1 0 1.166692e-01 -7.534840e-01 6.436838e-01 -6.573652e-02
184 2 4 -7.587348e+00 -3.437090e+00 9.536312e+00 0 -1 0 2.689601e-01 -2.481265e-01 -7.849946e-01 -4.998771e-01
185 2 3 -7.995314e+00 -3.287497e+00 9.257669e+00 0 -1 0 4.534547e-01 -5.645864e-01 -6.340594e-01 -2.712741e-01
186 2 1 -8.602433e+00 -3.434357e+00 9.283436e+00 0 -1 0 -1.576069e-01 -3.318655e-01 -2.456639e-01 8.970366e-01
187 2 1 -8.996368e+00 -3.390970e+00 9.551316e+00 0 -1 0 4.969651e-01 3.592493e-01 1.396291e-02 -7.897915e-01
188 2 2 -9.427463e+00 -3.525493e+00 9.785864e+00 0 -1 0 -6.995111e-01 -3.683633e-01 6.036294e-02 6.093841e-01
189 2 4 -9.737803e+00 -3.787239e+00 1.002775e+01 0 -1 0 -9.230968e-01 -2.780892e-01 5.538196e-02 2.597915e-01
190 2 4 -9.776617e+00 -4.251895e+00 1.030025e+01 0 -1 0 -9.581562e-01 -2.280064e-01 7.146951e-02 -1.576130e-01
191 2 1 -9.594663e+00 -4.622207e+00 1.049392e+01 0 -1 0 7.176045e-01 1.994690e-01 -2.796806e-01 6.058338e-01
192 2 4 -1.086806e+01 -4.965609e+00 1.078686e+01 0 -1 0 -6.937127e-01 3.173926e-02 5.587408e-01 4.533916e-01
193 2 4 -1.126326e+01 -4.951431e+00 1.087587e+01 0 -1 0 -7.890230e-01 4.218233e-01 4.373863e-01 9.055913e-02
194 2 1 -1.161234e+01 -4.807669e+00 1.120206e+01 0 -1 0 7.930526e-01 -5.043587e-01 -2.515500e-01 2.311113e-01
195 2 3 -1.234516e+01 -5.020888e+00 1.159630e+01 0 -1 0 -3.165415e-01 -4.065983e-01 7.321702e-01 -4.454281e-01
196 2 4 -1.328974e+01 -5.605636e+00 1.077608e+01 0 -1 0 -4.452789e-01 7.137004e-03 -8.579169e-01 2.562311e-01
197 2 2 -1.216103e+01 -5.955692e+00 1.034092e+01 0 -1 0 -1.369662e-01 -7.223138e-01 6.674688e-01 1.182728e-01
198 2 4 -1.215617e+01 -6.118441e+00 1.087536e+01 0 -1 0 -8.107604e-01 -4.719796e-01 3.969143e-03 -3.462472e-01
199 2 3 -1.272435e+01 -5.980166e+00 1.190223e+01 0 -1 0 -4.772260e-01 -5.222350e-01 2.554352e-01 -6.589984e-01
200 2 4 -1.306326e+01 -7.213213e+00 1.183963e+01 0 -1 0 6.090393e-01 -7.996637e-02 -2.062943e-01 -7.616555e-01
