ITEM: TIMESTEP
231000000
ITEM: NUMBER OF ATOMS
200
ITEM: BOX BOUNDS pp pp pp
-2.0000000000000000e+01 2.0000000000000000e+01
-2.0000000000000000e+01 2.0000000000000000e+01
-2.0000000000000000e+01 2.0000000000000000e+01
ITEM: ATOMS id mol type x y z ix iy iz c_quat[1] c_quat[2] c_quat[3] c_quat[4]
1 1 1 -7.878276e+00 1.835881e+00 8.660219e+00 0 -1 0 -8.143100e-01 -1.009009e-01 4.907437e-01 2.930679e-01
2 1 2 -7.574630e+00 2.626924e+00 7.556978e+00 0 -1 0 8.195441e-01 1.354501e-01 5.349299e-01 1.544369e-01
3 1 1 -8.161393e+00 2.441422e+00 7.561666e+00 0 -1 0 2.425555e-01 -4.474953e-01 -8.496570e-01 1.378322e-01
4 1 3 -8.578539e+00 2.356357e+00 7.602803e+00 0 -1 0 -1.326585e-01 7.177895e-01 4.979201e-01 -4.682474e-01
5 1 1 -8.943982e+00 2.604297e+00 7.552139e+00 0 -1 0 4.992013e-02 7.845747e-01 -3.181153e-02 -6.172022e-01
6 1 2 -9.290031e+00 2.875236e+00 7.384474e+00 0 -1 0 1.535591e-01 7.621218e-01 -3.386130e-01 -5.300294e-01
7 1 4 -1.004672e+01 3.853565e+00 8.054470e+00 0 -1 0 -2.101375e-01 -7.380252e-01 -2.491203e-01 -5.908470e-01
8 1 1 -9.773930e+00 3.778401e+00 8.388319e+00 0 -1 0 -4.748832e-01 6.558043e-01 -4.578851e-01 3.670802e-01
9 1 1 -1.026022e+01 3.938846e+00 6.978342e+00 0 -1 0 4.345921e-01 4.073514e-01 -3.908550e-01 -7.017314e-01
10 1 4 -9.796386e+00 3.613037e+00 7.514518e+00 0 -1 0 5.137639e-01 -8.075193e-01 -2.895885e-01 9.889820e-03
11 1 1 -9.804658e+00 3.244037e+00 6.106719e+00 0 -1 0 -1.868398e-01 -5.863269e-01 7.054196e-01 3.517026e-01
12 1 1 -9.926825e+00 4.095246e+00 5.705759e+00 0 -1 0 -2.273587e-02 1.802502e-01 7.953766e-01 5.782465e-01
13 1 3 -9.880534e+00 4.627918e+00 5.395813e+00 0 -1 0 -2.372028e-01 2.132012e-01 7.317035e-01 6.024035e-01
14 1 4 -1.012927e+01 5.018221e+00 5.143623e+00 0 -1 0 -4.443629e-01 3.111217e-01 6.646946e-01 5.137372e-01
15 1 4 -1.047527e+01 5.425151e+00 5.135127e+00 0 -1 0 -6.694011e-01 4.706827e-01 4.581141e-01 3.471186e-01
16 1 2 -9.783921e+00 4.962158e+00 3.804382e+00 0 -1 0 -1.194746e-01 -5.854755e-01 5.770411e-01 5.567475e-01
17 1 1 -9.270866e+00 5.290268e+00 4.356454e+00 0 -1 0 3.927440e-01 -3.068306e-01 -4.886688e-01 7.161075e-01
18 1 2 -8.656141e+00 4.042737e+00 3.582087e+00 0 -1 0 -3.985448e-01 -8.133998e-01 3.814724e-01 1.844495e-01
19 1 3 -8.643280e+00 4.648996e+00 3.133345e+00 0 -1 0 -2.522484e-01 -8.671447e-01 -2.291537e-01 -3.632070e-01
20 1 1 -8.239909e+00 4.634848e+00 2.769023e+00 0 -1 0 -1.137706e-01 -8.497024e-01 -6.295790e-02 -5.109778e-01
21 1 4 -9.160152e+00 3.988977e+00 2.324566e+00 0 -1 0 -6.957920e-01 4.016215e-01 4.490529e-01 3.910565e-01
22 1 1 -8.809445e+00 3.520502e+00 2.833586e+00 0 -1 0 5.410603e-01 -7.200200e-01 -1.923206e-01 -3.896636e-01
23 1 4 -8.903287e+00 2.448554e+00 1.803752e+00 0 -1 0 -3.404791e-01 -3.549213e-01 8.683045e-01 6.443662e-02
24 1 3 -9.612254e+00 2.150820e+00 1.628678e+00 0 -1 0 -6.135751e-01 2.816331e-01 6.710741e-01 3.063788e-01
25 1 3 -1.012847e+01 1.421439e+00 1.319761e+00 0 -1 0 -8.001342e-01 4.618934e-02 -1.898396e-01 5.671091e-01
26 1 4 -1.026100e+01 1.183871e+00 1.766149e+00 0 -1 0 9.459999e-01 8.680146e-03 2.233545e-01 -2.347797e-01
27 1 4 -1.076072e+01 8.934595e-01 2.334030e+00 0 -1 0 7.804934e-01 2.520370e-01 1.736577e-01 -5.451150e-01
28 1 1 -1.095971e+01 5.456038e-01 2.582529e+00 0 -1 0 9.505029e-01 2.634264e-01 -2.005405e-02 -1.635502e-01
29 1 1 -1.220157e+01 1.204675e+00 2.600181e+00 0 -1 0 3.507405e-02 -1.676180e-01 -3.514656e-02 -9.846008e-01
30 1 4 -1.136471e+01 -1.950155e-01 2.504485e+00 0 -1 0 9.486321e-01 -2.477006e-01 8.232439e-03 -1.966566e-01
31 1 4 -1.124939e+01 -2.262800e-01 2.979930e+00 0 -1 0 8.782399e-01 -2.901505e-01 1.578653e-01 3.458119e-01
32 1 3 -1.096674e+01 -8.868323e-01 3.307199e+00 0 -1 0 8.174282e-01 -3.412817e-01 3.703083e-01 2.796600e-01
33 1 3 -1.192986e+01 -8.606195e-01 3.828550e+00 0 -1 0 -1.346687e-01 -5.467695e-01 -9.787035e-02 8.205662e-01
34 1 1 -1.239189e+01 -9.701619e-01 3.877448e+00 0 -1 0 3.715386e-01 6.724396e-01 1.530418e-02 -6.399609e-01
35 1 2 -1.209357e+01 -1.099367e+00 5.389690e+00 0 -1 0 8.664621e-02 -4.299489e-01 3.904285e-01 -8.094455e-01
36 1 2 -1.192397e+01 -1.225018e+00 5.789254e+00 0 -1 0 4.995779e-01 -2.939445e-01 5.659516e-01 -5.862741e-01
37 1 1 -1.169961e+01 9.627491e-02 5.100641e+00 0 -1 0 4.103270e-01 -7.092357e-01 1.666063e-01 5.485060e-01
38 1 1 -1.131078e+01 4.979325e-02 5.468673e+00 0 -1 0 2.268864e-01 8.550555e-01 -2.409605e-01 -3.991751e-01
39 1 4 -1.205979e+01 9.605253e-01 5.978659e+00 0 -1 0 -2.677913e-01 6.067975e-01 6.666026e-01 -3.401847e-01
40 1 4 -1.126908e+01 1.074782e+00 6.720250e+00 0 -1 0 -5.789135e-01 -3.138776e-01 4.210898e-01 -6.237174e-01
41 1 2 -1.128582e+01 9.283623e-01 7.129686e+00 0 -1 0 -1.665301e-01 -3.743511e-01 8.610474e-01 -3.012083e-01
42 1 4 -1.122678e+01 1.752228e-01 6.943960e+00 0 -1 0 -8.665457e-02 -5.961224e-01 7.900713e-01 1.136506e-01
43 1 3 -1.085465e+01 6.520568e-01 7.378448e+00 0 -1 0 4.246723e-01 -3.709629e-01 -1.374997e-01 8.143303e-01
44 1 2 -1.100211e+01 9.231617e-01 7.732350e+00 0 -1 0 -1.241920e-01 3.734408e-01 -4.794043e-02 -9.180523e-01
45 1 1 -1.087353e+01 1.421621e+00 8.095057e+00 0 -1 0 -9.798708e-02 -1.122062e-01 3.356026e-01 9.301501e-01
46 1 3 -1.080521e+01 9.055419e-01 8.749472e+00 0 -1 0 3.615973e-01 6.545793e-01 -5.937832e-01 2.969764e-01
47 1 4 -1.224240e+01 1.306986e+00 8.772126e+00 0 -1 0 -2.823013e-01 6.731960e-01 6.328238e-01 -2.581611e-01
48 1 1 -1.309238e+01 1.313166e+00 9.160366e+00 0 -1 0 -3.471814e-01 2.919723e-01 -1.218782e-01 8.828153e-01
49 1 4 -1.304008e+01 1.434767e+00 9.579904e+00 0 -1 0 6.641773e-01 -2.508290e-01 1.391179e-01 -6.903619e-01
50 1 4 -1.309242e+01 1.983713e+00 9.441812e+00 0 -1 0 -2.498176e-01 -4.246590e-01 6.931161e-01 5.261615e-01
51 1 4 -1.242714e+01 3.256220e+00 1.030471e+01 0 -1 0 6.143743e-01 -1.738083e-01 -2.086272e-01 7.408169e-01
52 1 1 -1.247817e+01 3.237012e+00 1.077176e+01 0 -1 0 2.148139e-01 -2.763802e-01 -2.141504e-01 9.119258e-01
53 1 3 -1.269162e+01 3.417482e+00 1.122980e+01 0 -1 0 2.278092e-01 4.290427e-01 1.381140e-01 -8.631048e-01
54 1 4 -1.165041e+01 3.453350e+00 1.164871e+01 0 -1 0 2.876328e-02 -6.841842e-01 7.246214e-01 -7.738566e-02
55 1 4 -1.126916e+01 4.120900e+00 1.242347e+01 0 -1 0 -5.065365e-01 8.554228e-01 -4.032705e-02 1.002312e-01
56 1 4 -1.152153e+01 3.140771e+00 1.253038e+01 0 -1 0 4.510830e-01 1.599527e-02 7.042382e-01 -5.480117e-01
57 1 1 -1.070244e+01 3.837530e+00 1.241062e+01 0 -1 0 -5.253486e-01 -4.928639e-01 -6.932870e-01 -2.114603e-02
58 1 1 -9.558576e+00 4.225568e+00 1.319144e+01 0 -1 0 4.364708e-01 -7.799266e-01 4.377265e-01 9.799622e-02
59 1 3 -9.161364e+00 4.614153e+00 1.314583e+01 0 -1 0 -3.869376e-01 6.364704e-01 -6.295202e-01 -2.211087e-01
60 1 4 -8.879791e+00 4.884074e+00 1.279189e+01 0 -1 0 2.723502e-01 -3.946405e-01 8.268627e-01 2.939087e-01
61 1 2 -8.566349e+00 4.974142e+00 1.241843e+01 0 -1 0 1.920333e-01 -1.033002e-01 9.114409e-01 3.488951e-01
62 1 3 -8.489119e+00 5.073492e+00 1.184240e+01 0 -1 0 -1.652954e-02 -1.498436e-01 -9.310411e-01 -3.323194e-01
63 1 2 -8.568237e+00 5.081154e+00 1.138539e+01 0 -1 0 -5.818244e-02 4.425017e-01 8.296235e-01 3.354578e-01
64 1 4 -8.736152e+00 5.325232e+00 1.100031e+01 0 -1 0 2.063653e-01 -5.353296e-01 -7.754385e-01 -2.636866e-01
65 1 2 -9.128099e+00 5.571157e+00 1.055988e+01 0 -1 0 3.726523e-01 -6.429081e-01 -6.507229e-01 -1.560743e-01
66 1 1 -9.560244e+00 5.971108e+00 1.045905e+01 0 -1 0 4.066457e-01 -8.483822e-01 -3.371119e-01 -3.524851e-02
67 1 2 -9.778957e+00 6.422480e+00 1.039058e+01 0 -1 0 -5.128641e-01 8.475140e-01 1.300481e-01 -4.216658e-02
68 1 1 -9.896298e+00 6.959855e+00 1.048303e+01 0 -1 0 5.614502e-01 -8.041081e-01 1.004967e-01 1.675833e-01
69 1 1 -9.822038e+00 7.452740e+00 1.059968e+01 0 -1 0 -5.817143e-01 6.705789e-01 -3.423561e-01 -3.077737e-01
70 1 2 -9.578287e+00 7.895018e+00 1.055763e+01 0 -1 0 3.819277e-01 -5.802505e-01 5.639479e-01 4.465461e-01
71 1 3 -9.252896e+00 8.215163e+00 1.027234e+01 0 -1 0 -2.303398e-01 2.379836e-01 -7.308152e-01 -5.968388e-01
72 1 4 -9.129818e+00 8.535197e+00 9.946798e+00 0 -1 0 1.073229e-02 -1.502338e-01 -7.160954e-01 -6.815585e-01
73 1 1 -8.634955e+00 9.011196e+00 9.349203e+00 0 -1 0 -5.398907e-01 4.450772e-01 -2.152110e-01 -6.812551e-01
74 1 1 -8.490744e+00 9.424911e+00 9.579539e+00 0 -1 0 -3.133264e-01 2.852926e-01 -4.186185e-01 -8.032392e-01
75 1 3 -8.445572e+00 9.895581e+00 9.580359e+00 0 -1 0 -1.918107e-01 -2.513169e-02 4.694214e-01 8.615223e-01
76 1 1 -8.241232e+00 1.004627e+01 9.793533e+00 0 -1 0 -9.774603e-01 1.445816e-01 -5.552435e-02 -1.434730e-01
77 1 4 -8.053253e+00 1.033213e+01 1.079411e+01 0 -1 0 -7.031557e-01 4.367200e-01 3.590632e-01 -4.311858e-01
78 1 1 -7.843812e+00 1.079528e+01 1.052623e+01 0 -1 0 4.292167e-02 -7.547705e-01 3.455093e-01 5.559699e-01
79 1 4 -7.974371e+00 1.119968e+01 1.027395e+01 0 -1 0 1.869037e-01 5.552572e-01 -5.856536e-01 -5.601485e-01
80 1 2 -8.283670e+00 1.144270e+01 9.963299e+00 0 -1 0 -3.657741e-01 -3.682506e-01 7.644001e-01 3.824830e-01
81 1 4 -7.434897e+00 1.221164e+01 9.852581e+00 0 -1 0 1.355315e-02 -8.346649e-01 5.468885e-01 -6.374796e-02
82 1 4 -7.528142e+00 1.332621e+01 9.294864e+00 0 -1 0 7.222791e-01 -7.131457e-02 3.282053e-01 6.045729e-01
83 1 4 -7.195446e+00 1.353393e+01 9.686945e+00 0 -1 0 -2.933957e-01 -4.811855e-03 -2.780233e-01 -9.146578e-01
84 1 4 -7.149394e+00 1.398756e+01 1.001784e+01 0 -1 0 5.093370e-02 8.631247e-02 -3.249179e-01 -9.404171e-01
85 1 1 -6.298572e+00 1.409662e+01 1.021046e+01 0 -1 0 7.365005e-01 2.584061e-01 5.659523e-01 2.655019e-01
86 1 1 -6.349061e+00 1.366872e+01 1.095009e+01 0 -1 0 5.562146e-01 6.283327e-01 -1.698214e-01 -5.167050e-01
87 1 3 -6.325324e+00 1.438134e+01 1.212164e+01 0 -1 0 7.424180e-02 -9.784056e-01 -1.468502e-02 1.923406e-01
88 1 2 -6.366454e+00 1.523492e+01 1.222377e+01 0 -1 0 -6.118651e-01 -1.151339e-01 -1.186413e-01 -7.734918e-01
89 1 2 -7.491345e+00 1.537276e+01 1.285822e+01 0 -1 0 -1.020442e-02 -6.519660e-01 -6.465510e-01 3.959899e-01
90 1 3 -7.980999e+00 1.473494e+01 1.261120e+01 0 -1 0 3.079440e-01 -1.964638e-01 1.776028e-01 -9.137996e-01
91 1 3 -8.183756e+00 1.498750e+01 1.247623e+01 0 -1 0 2.288740e-01 -7.743118e-01 -1.043012e-01 5.806714e-01
92 1 2 -8.400917e+00 1.540513e+01 1.245274e+01 0 -1 0 -2.020293e-02 6.418412e-01 -2.790194e-01 -7.139888e-01
93 1 1 -8.682499e+00 1.534320e+01 1.309571e+01 0 -1 0 8.098577e-01 1.661312e-01 4.351260e-01 -3.566459e-01
94 1 2 -9.092292e+00 1.601798e+01 1.374045e+01 0 -1 0 8.367611e-01 -4.468224e-01 -2.769021e-01 -1.533160e-01
95 1 3 -9.289775e+00 1.610366e+01 1.415239e+01 0 -1 0 -8.734715e-01 4.208145e-01 1.107760e-01 -2.183835e-01
96 1 2 -1.004153e+01 1.723663e+01 1.402655e+01 0 -1 0 -3.584140e-03 -6.938063e-01 -3.951194e-01 -6.020803e-01
97 1 2 -9.453584e+00 1.708999e+01 1.482845e+01 0 -1 0 -8.995421e-01 3.190745e-01 2.947490e-01 -4.624452e-02
98 1 4 -9.795962e+00 1.708205e+01 1.517024e+01 0 -1 0 8.120576e-01 -4.036587e-01 -1.797608e-01 3.811932e-01
99 1 2 -1.067485e+01 1.790206e+01 1.495477e+01 0 -1 0 -2.792169e-01 7.528963e-01 3.786146e-01 4.602566e-01
100 1 1 -1.004405e+01 1.861556e+01 1.439489e+01 0 -1 0 -9.038459e-02 -8.944480e-01 1.246624e-01 -4.198246e-01
101 2 4 -1.388114e+01 9.052832e+00 4.269175e+00 0 -1 0 -2.225838e-01 5.531381e-01 -7.019589e-01 3.895490e-01
102 2 3 -1.404420e+01 1.048816e+01 3.847375e+00 0 -1 0 -3.799586e-01 -8.366588e-01 -3.942997e-01 1.269697e-02
103 2 1 -1.423121e+01 1.054099e+01 3.750173e+00 0 -1 0 4.403637e-01 -8.789876e-01 2.573718e-02 1.811028e-01
104 2 3 -1.398963e+01 1.098353e+01 3.402847e+00 0 -1 0 -2.258268e-01 8.121543e-01 -5.103022e-01 -1.702920e-01
105 2 3 -1.369641e+01 1.129029e+01 3.115968e+00 0 -1 0 -3.006776e-01 5.404125e-01 -7.723358e-01 -1.450680e-01
106 2 2 -1.313841e+01 1.143273e+01 4.014969e+00 0 -1 0 -2.655328e-01 7.147298e-01 -6.441258e-01 6.128312e-02
107 2 3 -1.267588e+01 1.146302e+01 3.692895e+00 0 -1 0 -2.661580e-01 4.292557e-01 -8.581110e-01 -9.243840e-02
108 2 4 -1.230657e+01 1.139243e+01 3.370882e+00 0 -1 0 -2.285560e-01 1.298885e-01 -9.619742e-01 -7.413998e-02
109 2 3 -1.243441e+01 1.167931e+01 4.796954e+00 0 -1 0 3.382440e-01 -2.972551e-01 5.700771e-01 -6.871990e-01
110 2 2 -1.217811e+01 1.134779e+01 5.107114e+00 0 -1 0 5.955691e-01 -6.946871e-02 6.470846e-01 -4.709067e-01
111 2 2 -1.200253e+01 1.089791e+01 5.297917e+00 0 -1 0 -7.856304e-01 -2.247859e-01 -5.266936e-01 2.342006e-01
112 2 3 -1.224497e+01 1.123519e+01 5.966756e+00 0 -1 0 -4.607782e-01 -3.050745e-01 -7.545239e-02 -8.300120e-01
113 2 3 -1.204674e+01 9.812659e+00 5.750428e+00 0 -1 0 -1.176476e-01 6.325884e-01 -7.059721e-01 -2.959633e-01
114 2 2 -1.257671e+01 1.007107e+01 5.907505e+00 0 -1 0 -1.469816e-01 -8.020050e-01 2.219715e-01 -5.347084e-01
115 2 4 -1.302946e+01 9.309064e+00 5.708752e+00 0 -1 0 -7.775225e-01 4.883445e-01 -3.135787e-01 -2.421711e-01
116 2 4 -1.387412e+01 8.397802e+00 5.060922e+00 0 -1 0 -4.642182e-01 9.301106e-02 -8.806805e-01 1.588226e-02
117 2 1 -1.364230e+01 8.005205e+00 4.761346e+00 0 -1 0 4.455739e-01 3.488810e-01 8.222708e-01 6.013878e-02
118 2 1 -1.396761e+01 7.711657e+00 5.215853e+00 0 -1 0 -1.067957e-01 4.779590e-01 5.972686e-01 -6.351536e-01
119 2 1 -1.435440e+01 6.521432e+00 5.180086e+00 0 -1 0 2.636916e-03 -3.396106e-02 -9.619202e-01 2.711995e-01
120 2 1 -1.357023e+01 6.149388e+00 4.985027e+00 0 -1 0 7.264516e-01 2.088862e-01 6.503365e-01 7.547890e-02
121 2 3 -1.293165e+01 6.194541e+00 5.888021e+00 0 -1 0 3.478659e-01 -5.201593e-01 7.599609e-01 1.757357e-01
122 2 1 -1.318948e+01 6.756615e+00 6.489096e+00 0 -1 0 7.027913e-01 5.676301e-01 -3.886795e-01 1.811318e-01
123 2 4 -1.307621e+01 7.090524e+00 6.262712e+00 0 -1 0 -2.146976e-01 2.415563e-01 -5.659445e-01 -7.584605e-01
124 2 1 -1.257662e+01 6.295369e+00 7.272653e+00 0 -1 0 6.718544e-01 -6.640941e-01 2.782786e-01 1.736425e-01
125 2 4 -1.216528e+01 6.417081e+00 8.067310e+00 0 -1 0 3.141291e-01 -7.392066e-01 5.084104e-01 -3.105081e-01
126 2 2 -1.166911e+01 6.488134e+00 8.015799e+00 0 -1 0 4.149356e-01 -4.298942e-01 7.974053e-01 -8.464127e-02
127 2 4 -1.087156e+01 7.491323e+00 8.260034e+00 0 -1 0 -6.228025e-01 4.379268e-01 1.606618e-01 -6.281122e-01
128 2 4 -1.133199e+01 8.152855e+00 8.552898e+00 0 -1 0 -4.810261e-01 -1.228623e-01 3.666969e-01 -7.867986e-01
129 2 1 -1.144619e+01 8.066109e+00 9.079017e+00 0 -1 0 2.978846e-02 1.654835e-01 4.248129e-01 -8.895290e-01
130 2 2 -9.977192e+00 7.827085e+00 9.452907e+00 0 -1 0 7.047638e-01 5.814849e-01 -7.855867e-02 3.987629e-01
131 2 3 -9.525673e+00 7.577552e+00 9.406570e+00 0 -1 0 4.462950e-01 5.044285e-01 -3.273307e-01 6.627422e-01
132 2 4 -9.120914e+00 7.285822e+00 9.637818e+00 0 -1 0 2.448219e-01 3.788603e-01 -4.221948e-01 7.863070e-01
133 2 4 -8.825851e+00 6.991126e+00 9.959818e+00 0 -1 0 -8.113035e-02 -2.054631e-01 4.726435e-01 -8.531183e-01
134 2 3 -8.662905e+00 6.920841e+00 1.045379e+01 0 -1 0 2.962905e-01 -6.775153e-02 3.859651e-01 -8.710067e-01
135 2 4 -8.624494e+00 6.651323e+00 1.089909e+01 0 -1 0 3.238292e-01 8.809164e-02 2.835736e-01 -8.983098e-01
136 2 3 -8.926613e+00 6.468453e+00 1.132210e+01 0 -1 0 -6.116406e-01 -2.459278e-01 -2.499924e-01 7.091679e-01
137 2 1 -9.099109e+00 6.215061e+00 1.175738e+01 0 -1 0 -6.782311e-01 -3.933241e-01 -1.269042e-01 6.076134e-01
138 2 3 -9.431467e+00 5.815784e+00 1.177102e+01 0 -1 0 -8.370654e-01 -4.764782e-01 2.232216e-02 2.679397e-01
139 2 2 -9.622397e+00 5.370801e+00 1.200373e+01 0 -1 0 -8.395316e-01 -5.242971e-01 -1.384244e-02 1.418012e-01
140 2 3 -9.673944e+00 4.821977e+00 1.191027e+01 0 -1 0 8.309803e-01 5.277135e-01 -1.288104e-01 1.199917e-01
141 2 1 -9.528094e+00 4.282534e+00 1.197625e+01 0 -1 0 7.532763e-01 4.980944e-01 -1.698009e-01 3.945180e-01
142 2 2 -9.152206e+00 3.919209e+00 1.212707e+01 0 -1 0 5.849392e-01 3.867340e-01 -3.111577e-01 6.414544e-01
143 2 4 -8.839047e+00 3.572145e+00 1.254459e+01 0 -1 0 -4.182447e-01 -2.020244e-01 4.303570e-01 -7.739834e-01
144 2 4 -8.917894e+00 2.707830e+00 1.262980e+01 0 -1 0 7.045776e-01 3.379167e-03 6.946681e-01 -1.448970e-01
145 2 1 -8.468273e+00 3.095402e+00 1.381624e+01 0 -1 0 9.005560e-01 7.168857e-02 -4.024788e-01 1.478868e-01
146 2 1 -8.831008e+00 2.842649e+00 1.420725e+01 0 -1 0 8.739156e-01 -1.251088e-01 -3.039906e-01 3.580628e-01
147 2 1 -9.789270e+00 3.010732e+00 1.442334e+01 0 -1 0 -1.765195e-01 -4.583548e-01 -8.448889e-01 -2.119304e-01
148 2 2 -9.321886e+00 2.102657e+00 1.535088e+01 0 -1 0 -1.713088e-01 7.054970e-01 -3.978340e-01 5.609415e-01
149 2 4 -8.824353e+00 2.092349e+00 1.543117e+01 0 -1 0 2.919707e-01 -4.848263e-01 7.566181e-01 -3.274531e-01
150 2 1 -8.422076e+00 1.699815e+00 1.538944e+01 0 -1 0 4.016375e-01 -1.467825e-01 8.989902e-01 -9.465155e-02
151 2 1 -8.146064e+00 1.351359e+00 1.504830e+01 0 -1 0 -3.941802e-01 -2.909850e-01 -8.554342e-01 -1.678750e-01
152 2 1 -8.075417e+00 1.127946e+00 1.453359e+01 0 -1 0 -3.305017e-01 -5.860429e-01 -6.806170e-01 -2.899704e-01
153 2 4 -7.083323e+00 7.019109e-01 1.468161e+01 0 -1 0 -8.902852e-01 3.236366e-01 -7.046927e-02 3.125470e-01
154 2 1 -6.526765e+00 3.186210e-01 1.429744e+01 0 -1 0 -3.570881e-01 3.681595e-01 -7.942425e-01 -3.257691e-01
155 2 2 -6.202438e+00 4.894591e-01 1.387855e+01 0 -1 0 -1.572838e-01 4.172926e-02 -8.951472e-01 -4.150083e-01
156 2 4 -6.188740e+00 6.546983e-01 1.376708e+01 0 -1 0 -1.442657e-01 3.173926e-01 1.271524e-01 9.285912e-01
157 2 3 -4.953579e+00 4.483831e-01 1.310863e+01 0 -1 0 7.930814e-01 5.015442e-01 -2.968350e-01 -1.770998e-01
158 2 2 -5.135435e+00 2.337988e-02 1.301098e+01 0 -1 0 -7.993106e-01 -3.463051e-01 4.861306e-01 -6.965899e-02
159 2 1 -5.313538e+00 -4.691943e-01 1.320035e+01 0 -1 0 -8.124007e-01 -2.869336e-01 4.454775e-01 -2.433600e-01
160 2 3 -5.351886e+00 -9.127670e-01 1.338426e+01 0 -1 0 6.412302e-01 3.320998e-02 -5.747140e-01 5.073705e-01
161 2 1 -4.978075e+00 -7.339846e-01 1.232112e+01 0 -1 0 -2.169960e-02 -9.913427e-01 8.862933e-02 -9.441221e-02
162 2 1 -4.833761e+00 -4.414714e-01 1.195223e+01 0 -1 0 3.550160e-02 -8.955699e-01 4.280846e-01 -1.159216e-01
163 2 4 -4.527986e+00 -3.536543e-01 1.152694e+01 0 -1 0 -2.953742e-02 6.393304e-01 -7.660986e-01 5.896705e-02
164 2 4 -4.351874e+00 -6.560836e-01 1.145451e+01 0 -1 0 -7.282833e-01 -2.047169e-01 -4.129930e-01 5.070811e-01
165 2 3 -3.601255e+00 -2.799090e-01 1.267205e+01 0 -1 0 6.629563e-01 -6.737454e-01 3.261059e-01 -1.452609e-02
166 2 3 -3.187046e+00 -1.290524e-01 1.288633e+01 0 -1 0 7.413470e-01 -3.646664e-01 5.469667e-01 1.350944e-01
167 2 4 -2.907207e+00 9.654193e-02 1.352966e+01 0 -1 0 6.878764e-01 7.487271e-02 -7.191877e-01 -6.316020e-02
168 2 2 -2.633867e+00 6.401266e-01 1.334642e+01 0 -1 0 2.258161e-01 -1.205807e-01 9.640541e-01 7.118284e-02
169 2 2 -2.138449e+00 7.187041e-01 1.460620e+01 0 -1 0 -3.246171e-01 -2.854425e-01 7.206728e-01 -5.420121e-01
170 2 1 -2.906965e+00 1.352994e+00 1.459715e+01 0 -1 0 -4.832159e-01 -2.308561e-02 1.536505e-01 8.616037e-01
171 2 1 -3.230342e+00 1.536260e+00 1.495696e+01 0 -1 0 -7.029146e-01 -1.066960e-01 1.637775e-01 6.838888e-01
172 2 4 -3.979599e+00 2.070050e+00 1.560353e+01 0 -1 0 -2.452048e-01 5.787683e-01 7.569144e-01 -1.788362e-01
173 2 4 -3.336677e+00 2.802358e+00 1.545069e+01 0 -1 0 5.889490e-01 7.599937e-01 1.433515e-01 2.345186e-01
174 2 1 -3.358467e+00 2.189469e+00 1.679888e+01 0 -1 0 8.745994e-01 -2.376804e-01 -4.125428e-01 9.160962e-02
175 2 1 -3.732654e+00 1.942662e+00 1.603666e+01 0 -1 0 -9.219641e-01 -2.669922e-01 -1.522913e-01 -2.355946e-01
176 2 2 -4.181179e+00 2.277979e+00 1.707722e+01 0 -1 0 -5.953404e-01 8.006315e-01 -5.777946e-02 -3.493659e-02
177 2 2 -4.192413e+00 2.804530e+00 1.721114e+01 0 -1 0 6.499674e-01 -6.607017e-01 3.315384e-01 1.763458e-01
178 2 1 -4.912756e+00 3.232545e+00 1.717066e+01 0 -1 0 -1.257505e-01 5.649971e-01 -5.780106e-01 -5.752120e-01
179 2 4 -4.932702e+00 3.512872e+00 1.680622e+01 0 -1 0 1.839949e-01 1.518985e-01 -7.014249e-01 -6.716218e-01
180 2 1 -5.328559e+00 3.895593e+00 1.673043e+01 0 -1 0 -4.592456e-01 -1.460855e-01 6.366380e-01 6.020337e-01
181 2 4 -4.906859e+00 4.698237e+00 1.734316e+01 0 -1 0 3.935188e-02 8.660634e-01 -4.456964e-02 -4.963862e-01
182 2 2 -5.229566e+00 5.051373e+00 1.712805e+01 0 -1 0 1.203565e-02 7.767881e-01 -4.073857e-01 -4.800961e-01
183 2 3 -6.381765e+00 4.248694e+00 1.754090e+01 0 -1 0 -3.049581e-01 -7.975434e-02 7.778206e-01 5.437232e-01
184 2 4 -5.653757e+00 5.316301e+00 1.773914e+01 0 -1 0 9.093500e-01 -8.034835e-02 1.797527e-01 3.664912e-01
185 2 3 -5.275704e+00 5.295610e+00 1.809228e+01 0 -1 0 -7.014111e-01 7.139576e-02 -1.658100e-01 -6.895159e-01
186 2 1 -5.034869e+00 5.508756e+00 1.842189e+01 0 -1 0 4.134805e-01 -1.770173e-03 2.532292e-01 8.745889e-01
187 2 1 -5.786478e+00 4.634381e+00 1.950618e+01 0 -1 0 1.498584e-01 -1.997170e-01 5.957124e-01 -7.634018e-01
188 2 2 -5.428099e+00 4.273234e+00 1.980976e+01 0 -1 0 -3.983214e-01 -2.802072e-02 -6.028533e-01 6.907408e-01
189 2 4 -5.242817e+00 3.690013e+00 -1.984445e+01 0 -1 1 5.317271e-01 6.597531e-02 7.483627e-01 -3.909819e-01
190 2 4 -5.022326e+00 3.231944e+00 -1.982469e+01 0 -1 1 5.865876e-01 2.471937e-01 7.642707e-01 -1.034429e-01
191 2 1 -5.211164e+00 3.261369e+00 -1.867189e+01 0 -1 1 1.924971e-02 -4.348999e-01 -7.011926e-01 5.646419e-01
192 2 4 -5.716266e+00 3.140949e+00 -1.858608e+01 0 -1 1 -3.504336e-01 -5.613326e-01 -4.899402e-01 5.675039e-01
193 2 4 -6.343872e+00 3.201232e+00 -1.876443e+01 0 -1 1 -5.577678e-02 -4.058700e-01 -1.893247e-01 8.923646e-01
194 2 1 -6.736200e+00 3.338102e+00 -1.849545e+01 0 -1 1 4.260088e-01 4.146111e-01 -5.751048e-02 -8.020640e-01
195 2 3 -6.935875e+00 2.437718e+00 -1.796358e+01 0 -1 1 -9.476670e-01 -8.379843e-02 2.347357e-01 1.995097e-01
196 2 4 -7.107861e+00 2.163046e+00 -1.761015e+01 0 -1 1 9.636155e-01 8.103357e-02 -1.732744e-01 1.866941e-01
197 2 2 -8.226647e+00 2.504308e+00 -1.777506e+01 0 -1 1 3.173434e-01 -7.134807e-01 -1.301447e-01 6.109835e-01
198 2 4 -9.140439e+00 2.479790e+00 -1.816332e+01 0 -1 1 6.475577e-02 2.047020e-01 -6.184493e-01 -7.559261e-01
199 2 3 -9.374920e+00 2.881856e+00 -1.828435e+01 0 -1 1 -3.734807e-01 -7.861544e-02 6.723667e-01 6.342357e-01
200 2 4 -9.789290e+00 3.039096e+00 -1.841982e+01 0 -1 1 -6.027272e-01 1.648186e-01 6.672920e-01 4.053099e-01
