ITEM: TIMESTEP
249000000
ITEM: NUMBER OF ATOMS
200
ITEM: BOX BOUNDS pp pp pp
-2.0000000000000000e+01 2.0000000000000000e+01
-2.0000000000000000e+01 2.0000000000000000e+01
-2.0000000000000000e+01 2.0000000000000000e+01
ITEM: ATOMS id mol type x y z ix iy iz c_quat[1] c_quat[2] c_quat[3] c_quat[4]
1 1 1 1.762359e+00 1.026496e+01 -3.585808e+00 0 -1 0 8.394141e-01 -2.411314e-01 -4.758198e-01 1.040920e-01
2 1 2 1.451564e+00 1.027574e+01 -3.138657e+00 0 -1 0 -7.781560e-01 3.697527e-01 2.922653e-01 -4.151351e-01
3 1 1 5.521207e-01 1.082253e+01 -3.063317e+00 0 -1 0 1.661380e-01 -3.084783e-01 -9.240335e-01 1.529751e-01
4 1 3 1.129842e+00 1.029671e+01 -2.640086e+00 0 -1 0 7.933631e-01 9.783186e-02 -1.593619e-01 -5.793166e-01
5 1 1 7.818111e-01 1.003131e+01 -2.250635e+00 0 -1 0 9.734240e-01 6.476908e-03 -1.249491e-01 -1.918113e-01
6 1 2 6.932930e-01 9.711854e+00 -1.844937e+00 0 -1 0 -9.800936e-01 2.460182e-02 9.395755e-02 -1.731566e-01
7 1 4 -3.777120e-01 9.456905e+00 -2.152485e+00 0 -1 0 -5.212777e-01 4.317468e-01 -2.146605e-01 7.041201e-01
8 1 1 -1.227764e+00 9.636548e+00 -1.839889e+00 0 -1 0 -5.767241e-01 4.455016e-01 3.107239e-01 6.102198e-01
9 1 1 -1.463406e+00 9.438912e+00 -2.114251e+00 0 -1 0 -4.951668e-01 1.482418e-01 6.382124e-01 -5.705428e-01
10 1 4 -8.982864e-01 8.894685e+00 -2.216439e+00 0 -1 0 4.660353e-01 -5.241244e-02 -6.461380e-01 6.021376e-01
11 1 1 -5.900416e-01 9.404618e+00 -3.083900e+00 0 -1 0 2.557715e-01 4.177458e-01 -2.265599e-01 8.418670e-01
12 1 1 -1.290941e+00 8.068717e+00 -3.550454e+00 0 -1 0 -2.314774e-01 1.584602e-01 -9.581405e-01 5.723043e-02
13 1 3 -1.084925e+00 7.791516e+00 -3.872757e+00 0 -1 0 2.626243e-01 2.322232e-01 9.326940e-01 8.475164e-02
14 1 4 -1.024399e+00 7.751126e+00 -4.376398e+00 0 -1 0 2.604113e-01 7.292952e-01 5.402662e-01 3.292823e-01
15 1 4 -1.626060e+00 6.604737e+00 -4.142734e+00 0 -1 0 4.535728e-01 -3.372731e-02 -8.900542e-01 -3.062353e-02
16 1 2 -2.202507e+00 6.659891e+00 -4.030839e+00 0 -1 0 -7.274114e-02 3.194231e-01 5.168100e-01 -7.909393e-01
17 1 1 -1.895715e+00 6.758282e+00 -3.507937e+00 0 -1 0 9.445141e-01 -3.033330e-01 -5.345503e-02 1.141261e-01
18 1 2 -1.831198e+00 6.744115e+00 -3.038166e+00 0 -1 0 8.364055e-01 -2.517506e-01 1.313145e-01 4.688327e-01
19 1 3 -2.514068e+00 5.723917e+00 -2.839022e+00 0 -1 0 -7.134635e-01 3.484409e-01 6.025254e-01 8.075815e-02
20 1 1 -3.017478e+00 5.802487e+00 -2.627338e+00 0 -1 0 7.045020e-01 -5.607588e-01 -4.209168e-01 1.097977e-01
21 1 4 -4.103212e+00 6.124683e+00 -3.131123e+00 0 -1 0 -1.793151e-01 -6.600990e-01 -4.837072e-01 5.460245e-01
22 1 1 -3.880211e+00 5.380688e+00 -2.060400e+00 0 -1 0 7.135337e-01 -5.070486e-01 -4.252243e-01 2.301211e-01
23 1 4 -4.568327e+00 5.154358e+00 -2.003822e+00 0 -1 0 2.841617e-01 -8.779512e-01 -3.810430e-01 -5.709649e-02
24 1 3 -4.723132e+00 4.117349e+00 -2.193543e+00 0 -1 0 9.423512e-01 2.589602e-01 1.821132e-01 1.083913e-01
25 1 3 -5.012419e+00 3.719135e+00 -1.697721e+00 0 -1 0 -4.538414e-01 -2.277394e-01 1.803860e-01 8.423916e-01
26 1 4 -4.736241e+00 3.767756e+00 -1.002291e+00 0 -1 0 -4.292598e-01 1.530987e-01 1.358917e-01 -8.796762e-01
27 1 4 -5.406899e+00 2.971037e+00 -8.211822e-01 0 -1 0 4.732653e-02 5.809334e-01 6.278774e-01 5.157970e-01
28 1 1 -5.944674e+00 2.579251e+00 -1.011450e+00 0 -1 0 5.718227e-01 -1.855965e-01 -6.820261e-01 -4.164289e-01
29 1 1 -6.315134e+00 2.868571e+00 -1.091714e+00 0 -1 0 -7.539010e-01 3.599605e-01 5.157296e-01 1.899597e-01
30 1 4 -6.895044e+00 3.411006e+00 -1.788842e+00 0 -1 0 3.521759e-01 -6.736207e-01 -4.419647e-01 -4.763134e-01
31 1 4 -6.866707e+00 3.909454e+00 -1.809084e+00 0 -1 0 -4.980411e-01 7.640419e-01 7.097633e-02 4.039276e-01
32 1 3 -6.555796e+00 4.348643e+00 -1.772011e+00 0 -1 0 -5.268802e-01 6.965057e-01 -3.212013e-01 3.662060e-01
33 1 3 -6.502395e+00 4.616516e+00 -1.697559e+00 0 -1 0 -3.749411e-01 -9.016474e-01 -1.816866e-01 1.159357e-01
34 1 1 -6.886089e+00 4.374249e+00 -8.101240e-01 0 -1 0 6.262040e-03 -6.996988e-01 -7.095529e-01 -8.316908e-02
35 1 2 -6.385032e+00 4.011168e+00 -1.973913e-01 0 -1 0 3.172894e-02 -5.548188e-01 -6.093641e-01 5.655481e-01
36 1 2 -6.055790e+00 3.688270e+00 1.176719e-01 0 -1 0 -2.403914e-01 3.348968e-01 -2.072761e-01 -8.871825e-01
37 1 1 -6.589967e+00 2.783244e+00 1.009337e+00 0 -1 0 6.010706e-01 1.748695e-01 -6.062052e-01 -4.905609e-01
38 1 1 -6.251038e+00 3.012722e+00 1.336980e+00 0 -1 0 -5.400503e-01 -5.494088e-01 -1.066816e-01 6.285815e-01
39 1 4 -5.280438e+00 2.717117e+00 2.573285e+00 0 -1 0 -9.607733e-01 2.659244e-01 -4.452235e-02 -6.493620e-02
40 1 4 -5.139954e+00 2.847054e+00 3.109547e+00 0 -1 0 8.320075e-01 -3.602012e-01 2.648376e-01 3.284504e-01
41 1 2 -4.813293e+00 3.175599e+00 3.320034e+00 0 -1 0 -7.075267e-01 2.162629e-01 -4.835885e-01 -4.677377e-01
42 1 4 -5.064470e+00 2.784414e+00 4.728793e+00 0 -1 0 -4.093931e-01 -1.053521e-01 7.057308e-01 -5.685440e-01
43 1 3 -5.103884e+00 2.365968e+00 5.015750e+00 0 -1 0 1.403152e-01 -2.259146e-01 -7.074375e-01 6.548331e-01
44 1 2 -5.451331e+00 2.168922e+00 5.204838e+00 0 -1 0 2.120016e-01 4.819493e-01 4.824650e-01 -7.000055e-01
45 1 1 -5.069639e+00 1.707816e+00 6.025032e+00 0 -1 0 -5.480199e-01 5.519778e-01 2.945285e-01 -5.552005e-01
46 1 3 -5.279158e+00 2.171492e+00 6.208901e+00 0 -1 0 -1.477760e-01 5.780951e-01 -4.558521e-02 -8.011805e-01
47 1 4 -4.433916e+00 2.434821e+00 6.797317e+00 0 -1 0 -6.780913e-01 2.850191e-01 5.890053e-02 -6.748978e-01
48 1 1 -4.502462e+00 2.702329e+00 7.239639e+00 0 -1 0 5.574489e-01 -3.770297e-01 1.412973e-01 7.260402e-01
49 1 4 -5.685565e+00 2.656643e+00 7.096024e+00 0 -1 0 -5.382152e-01 -3.461535e-01 8.685815e-02 7.635167e-01
50 1 4 -4.865673e+00 2.934293e+00 8.044684e+00 0 -1 0 3.076987e-01 -8.349364e-01 2.903388e-01 3.520030e-01
51 1 4 -6.423794e+00 2.985590e+00 7.799748e+00 0 -1 0 3.401327e-01 5.208776e-01 3.753768e-01 -6.870870e-01
52 1 1 -6.598174e+00 3.396124e+00 7.585258e+00 0 -1 0 -3.982290e-01 -5.874924e-01 2.678014e-01 6.515740e-01
53 1 3 -7.076298e+00 4.523835e+00 8.179580e+00 0 -1 0 4.726589e-01 3.574329e-02 1.937385e-01 8.589420e-01
54 1 4 -7.704062e+00 3.706229e+00 8.536264e+00 0 -1 0 6.868633e-01 -1.184419e-01 -5.987991e-01 3.944996e-01
55 1 4 -8.009358e+00 3.448048e+00 8.847938e+00 0 -1 0 -5.788887e-01 2.405214e-01 5.002332e-01 -5.973308e-01
56 1 4 -8.404020e+00 3.421612e+00 9.194435e+00 0 -1 0 4.973232e-01 -4.400365e-01 -3.472764e-01 6.621455e-01
57 1 1 -8.738925e+00 3.568332e+00 9.603535e+00 0 -1 0 3.065107e-01 -5.034086e-01 -1.553971e-01 7.927691e-01
58 1 1 -9.100772e+00 3.675957e+00 9.814487e+00 0 -1 0 3.698390e-01 -4.703698e-01 3.643179e-02 8.004024e-01
59 1 3 -9.186684e+00 4.147511e+00 1.001133e+01 0 -1 0 -9.384725e-02 4.400314e-01 -2.552985e-01 -8.557965e-01
60 1 4 -9.453131e+00 4.684531e+00 1.008715e+01 0 -1 0 -1.928714e-01 -3.984908e-01 3.280566e-01 8.344966e-01
61 1 2 -9.972216e+00 5.043351e+00 1.005130e+01 0 -1 0 -5.106367e-01 -3.720788e-01 3.460711e-01 6.935721e-01
62 1 3 -1.047423e+01 5.026568e+00 1.006059e+01 0 -1 0 7.369874e-01 2.543262e-01 -4.507512e-01 -4.347311e-01
63 1 2 -1.100294e+01 4.888415e+00 1.013189e+01 0 -1 0 -7.562820e-01 -3.299341e-01 4.988446e-01 2.652076e-01
64 1 4 -1.140374e+01 4.576588e+00 1.014975e+01 0 -1 0 -8.583690e-01 -1.552786e-02 5.126045e-01 1.407876e-02
65 1 2 -1.195717e+01 4.930856e+00 9.524919e+00 0 -1 0 5.556048e-01 7.768594e-01 -2.841318e-01 -8.403466e-02
66 1 1 -1.211180e+01 4.447716e+00 9.238419e+00 0 -1 0 -3.742332e-01 -8.168149e-01 -2.040860e-01 3.887310e-01
67 1 2 -1.217480e+01 4.110853e+00 1.063786e+01 0 -1 0 5.721619e-02 -7.644270e-01 4.968719e-01 -4.068121e-01
68 1 1 -1.310675e+01 3.861430e+00 9.916607e+00 0 -1 0 -3.101246e-01 4.765495e-01 5.146020e-01 6.418007e-01
69 1 1 -1.329028e+01 4.309975e+00 1.003013e+01 0 -1 0 -5.700146e-01 6.372628e-01 3.161302e-01 4.111461e-01
70 1 2 -1.381638e+01 4.254729e+00 9.905077e+00 0 -1 0 4.101587e-01 -7.760755e-01 -4.789920e-01 6.572424e-03
71 1 3 -1.414464e+01 4.524749e+00 9.785708e+00 0 -1 0 -4.981584e-01 8.220542e-01 2.403981e-01 -1.351808e-01
72 1 4 -1.434530e+01 5.154629e+00 9.665828e+00 0 -1 0 4.703356e-01 -8.749718e-01 7.932793e-02 8.316138e-02
73 1 1 -1.527545e+01 5.830409e+00 9.636458e+00 0 -1 0 1.537248e-01 3.356714e-01 1.799850e-01 -9.117559e-01
74 1 1 -1.574766e+01 5.830761e+00 9.790868e+00 0 -1 0 -6.050513e-01 -3.412270e-01 2.281036e-02 7.189970e-01
75 1 3 -1.618812e+01 5.674054e+00 9.883853e+00 0 -1 0 -8.721302e-01 -2.109647e-01 1.700126e-01 4.074045e-01
76 1 1 -1.657213e+01 6.550153e+00 9.960678e+00 0 -1 0 -3.010611e-01 4.880459e-01 -4.631891e-01 6.757435e-01
77 1 4 -1.627017e+01 7.178355e+00 9.618776e+00 0 -1 0 3.864235e-01 -5.204212e-01 4.416289e-01 -6.203245e-01
78 1 1 -1.572856e+01 7.887449e+00 9.546533e+00 0 -1 0 -8.362180e-01 1.122726e-01 5.300679e-01 -8.463047e-02
79 1 4 -1.508504e+01 8.008705e+00 9.738102e+00 0 -1 0 -8.938534e-01 1.622326e-01 -2.397441e-01 -3.423879e-01
80 1 2 -1.475620e+01 8.168327e+00 1.005418e+01 0 -1 0 6.757508e-01 -8.271786e-02 3.776844e-01 6.275931e-01
81 1 4 -1.432501e+01 8.469306e+00 1.015164e+01 0 -1 0 -3.650594e-01 -3.769459e-02 -3.897261e-01 -8.446445e-01
82 1 4 -1.405834e+01 8.928206e+00 1.019798e+01 0 -1 0 1.195295e-02 -1.624705e-01 -3.137315e-01 -9.354320e-01
83 1 4 -1.396955e+01 9.244710e+00 1.057629e+01 0 -1 0 3.370771e-01 -1.135554e-01 -3.549905e-01 -8.645611e-01
84 1 4 -1.429908e+01 9.597098e+00 1.078210e+01 0 -1 0 5.946288e-01 -1.226818e-01 -3.908524e-01 -6.918094e-01
85 1 1 -1.457872e+01 9.817973e+00 1.120380e+01 0 -1 0 8.036049e-01 -1.434247e-01 -2.204481e-01 -5.339019e-01
86 1 1 -1.506408e+01 1.068373e+01 1.189699e+01 0 -1 0 3.625176e-01 -5.808251e-01 -2.688843e-01 -6.774396e-01
87 1 3 -1.533674e+01 1.086766e+01 1.138449e+01 0 -1 0 6.790382e-01 6.056936e-01 2.360613e-01 -3.410535e-01
88 1 2 -1.494712e+01 1.114356e+01 1.125041e+01 0 -1 0 8.843687e-01 -4.214081e-01 1.921077e-01 5.832551e-02
89 1 2 -1.578826e+01 1.137812e+01 1.197722e+01 0 -1 0 -7.707920e-01 1.188352e-01 5.148432e-01 -3.559415e-01
90 1 3 -1.610049e+01 1.096145e+01 1.119476e+01 0 -1 0 2.684045e-02 -9.047569e-01 4.250706e-01 3.102321e-03
91 1 3 -1.568618e+01 1.056416e+01 1.144998e+01 0 -1 0 -2.190392e-01 -8.194767e-01 3.044315e-01 -4.333604e-01
92 1 2 -1.599523e+01 9.613802e+00 1.142963e+01 0 -1 0 6.430670e-01 -2.912870e-01 -6.288869e-01 -3.257575e-01
93 1 1 -1.647174e+01 9.664967e+00 1.164516e+01 0 -1 0 6.833016e-01 -5.868446e-01 -4.336734e-01 2.529199e-02
94 1 2 -1.682964e+01 9.986788e+00 1.184529e+01 0 -1 0 -6.955290e-01 6.816818e-01 1.568580e-01 -1.641490e-01
95 1 3 -1.687328e+01 1.033714e+01 1.215227e+01 0 -1 0 6.562178e-01 -6.181193e-01 5.880656e-02 4.287755e-01
96 1 2 -1.738633e+01 9.551340e+00 1.244803e+01 0 -1 0 4.555829e-03 3.506799e-01 9.053533e-01 2.394542e-01
97 1 2 -1.722289e+01 9.202951e+00 1.362784e+01 0 -1 0 -4.901161e-01 -3.466711e-01 6.532744e-01 -4.613437e-01
98 1 4 -1.787797e+01 8.794788e+00 1.304865e+01 0 -1 0 -2.188856e-01 2.277052e-01 8.360245e-01 -4.486674e-01
99 1 2 -1.834708e+01 8.982021e+00 1.187753e+01 0 -1 0 -1.186488e-01 -6.383535e-01 -7.439841e-01 -1.578445e-01
100 1 1 -1.862865e+01 7.899769e+00 1.151274e+01 0 -1 0 8.224594e-01 7.827423e-02 6.510210e-02 -5.596386e-01
101 2 4 -1.054438e+01 1.218717e+01 1.276119e+01 0 -1 0 -1.106439e-01 8.311841e-01 -4.605221e-01 -2.912221e-01
102 2 3 -1.099810e+01 1.195435e+01 1.286431e+01 0 -1 0 -6.078525e-01 -2.119954e-01 -5.703616e-02 -7.630991e-01
103 2 1 -1.179225e+01 1.095578e+01 1.338857e+01 0 -1 0 4.508076e-01 -5.234116e-01 -4.271041e-01 -5.834338e-01
104 2 3 -1.068164e+01 1.024854e+01 1.220833e+01 0 -1 0 -1.249971e-01 7.794629e-01 -5.771760e-01 -2.090003e-01
105 2 3 -1.037840e+01 1.033911e+01 1.189278e+01 0 -1 0 -1.094024e-01 3.359193e-01 -8.748200e-01 -3.314806e-01
106 2 2 -1.028816e+01 1.027022e+01 1.142206e+01 0 -1 0 8.906591e-02 1.450727e-01 9.206784e-01 3.512442e-01
107 2 3 -9.972529e+00 1.084593e+01 1.109044e+01 0 -1 0 8.454224e-01 1.952522e-01 4.960584e-01 -3.261277e-02
108 2 4 -9.075254e+00 1.176197e+01 1.148082e+01 0 -1 0 -8.197315e-01 2.705347e-01 1.469804e-01 -4.829577e-01
109 2 3 -8.966310e+00 1.177667e+01 1.191914e+01 0 -1 0 -4.775167e-01 2.623794e-01 1.432111e-01 -8.262115e-01
110 2 2 -9.120011e+00 1.209852e+01 1.224482e+01 0 -1 0 -6.161962e-02 -2.770393e-01 -3.200406e-03 9.588754e-01
111 2 2 -8.196614e+00 1.204338e+01 1.143856e+01 0 -1 0 -6.187828e-01 -6.480631e-01 -3.937553e-01 -2.051312e-01
112 2 3 -7.092203e+00 1.214669e+01 1.188083e+01 0 -1 0 -5.480594e-01 -7.394219e-01 3.029956e-01 -2.471436e-01
113 2 3 -6.912245e+00 1.184309e+01 1.165561e+01 0 -1 0 3.053689e-01 4.958478e-01 -7.029464e-01 4.083518e-01
114 2 2 -6.449784e+00 1.229080e+01 1.145818e+01 0 -1 0 -4.166720e-01 7.860962e-01 4.412409e-01 1.172330e-01
115 2 4 -6.296040e+00 1.100191e+01 1.190796e+01 0 -1 0 -7.314204e-01 -1.268280e-01 6.632083e-01 9.536003e-02
116 2 4 -6.715553e+00 1.071630e+01 1.205966e+01 0 -1 0 -7.576965e-01 1.129125e-01 5.562252e-01 -3.221183e-01
117 2 1 -6.993690e+00 1.057078e+01 1.246092e+01 0 -1 0 -5.187136e-01 3.791314e-01 4.311046e-01 -6.335175e-01
118 2 1 -7.248294e+00 1.066053e+01 1.288037e+01 0 -1 0 -2.914983e-01 4.592546e-01 2.978386e-01 -7.844783e-01
119 2 1 -6.578787e+00 9.403462e+00 1.237102e+01 0 -1 0 1.840383e-01 -7.134871e-01 5.742987e-01 3.567170e-01
120 2 1 -7.147015e+00 8.842235e+00 1.308054e+01 0 -1 0 4.211963e-01 -4.033970e-01 -7.793881e-01 2.289512e-01
121 2 3 -8.106498e+00 8.610665e+00 1.245562e+01 0 -1 0 2.438732e-01 8.892709e-02 -3.887354e-01 -8.840264e-01
122 2 1 -8.584404e+00 8.198396e+00 1.320919e+01 0 -1 0 -3.358414e-01 2.339465e-01 4.118884e-01 8.141422e-01
123 2 4 -7.712807e+00 8.747435e+00 1.363259e+01 0 -1 0 -1.829154e-01 9.513135e-01 -2.352526e-01 -7.874481e-02
124 2 1 -7.855605e+00 9.008776e+00 1.410425e+01 0 -1 0 -6.389146e-01 -6.790861e-01 -1.308066e-01 -3.369271e-01
125 2 4 -8.967119e+00 8.107717e+00 1.432699e+01 0 -1 0 -1.791357e-01 -2.196953e-01 -6.852568e-01 6.708707e-01
126 2 2 -8.718121e+00 7.915908e+00 1.468943e+01 0 -1 0 5.217440e-01 3.186205e-01 3.523075e-01 -7.086209e-01
127 2 4 -9.065883e+00 7.578808e+00 1.483603e+01 0 -1 0 -7.380286e-01 -5.079060e-01 -4.245311e-02 4.422024e-01
128 2 4 -9.608441e+00 7.716719e+00 1.507715e+01 0 -1 0 -4.104894e-01 6.852020e-01 6.004025e-01 3.890290e-02
129 2 1 -9.981863e+00 6.856883e+00 1.469863e+01 0 -1 0 2.552377e-01 2.476435e-02 -3.704249e-01 -8.927630e-01
130 2 2 -9.094650e+00 5.973193e+00 1.430731e+01 0 -1 0 -8.156464e-01 -5.669790e-01 1.151319e-01 6.204423e-04
131 2 3 -9.049197e+00 5.477231e+00 1.419983e+01 0 -1 0 7.738457e-01 4.728159e-01 -2.731741e-01 3.209111e-01
132 2 4 -8.691090e+00 5.097654e+00 1.436091e+01 0 -1 0 5.270730e-01 4.204612e-01 -3.737413e-01 6.369646e-01
133 2 4 -8.902997e+00 4.495489e+00 1.332553e+01 0 -1 0 -5.252617e-01 5.992628e-01 -5.784194e-01 -1.743996e-01
134 2 3 -9.599991e+00 4.537844e+00 1.276409e+01 0 -1 0 -6.821585e-01 -1.868593e-01 6.280383e-01 3.245169e-01
135 2 4 -1.046692e+01 5.585908e+00 1.227205e+01 0 -1 0 -3.646594e-01 -6.839936e-01 -6.302100e-01 -4.485165e-02
136 2 3 -1.026761e+01 5.489199e+00 1.181987e+01 0 -1 0 -3.225638e-01 -8.239692e-01 -3.777741e-01 -2.726062e-01
137 2 1 -1.077168e+01 4.583771e+00 1.118929e+01 0 -1 0 -4.418465e-01 1.083358e-01 -8.866065e-01 8.345026e-02
138 2 3 -1.048946e+01 4.162180e+00 1.094146e+01 0 -1 0 -4.531628e-01 -2.516158e-01 -8.526398e-01 -6.586552e-02
139 2 2 -1.029336e+01 3.944980e+00 1.056626e+01 0 -1 0 -3.438693e-01 -5.247775e-01 -7.668278e-01 -1.354166e-01
140 2 3 -1.018037e+01 3.782953e+00 9.999489e+00 0 -1 0 2.335211e-01 7.468351e-01 5.851866e-01 2.127483e-01
141 2 1 -1.020441e+01 3.961750e+00 9.459271e+00 0 -1 0 2.096455e-01 8.869401e-01 2.494345e-01 3.273659e-01
142 2 2 -9.915893e+00 4.227412e+00 9.076079e+00 0 -1 0 8.650546e-02 8.964191e-01 -1.160645e-01 4.189016e-01
143 2 4 -9.475752e+00 4.203089e+00 8.793251e+00 0 -1 0 5.154622e-02 -8.189357e-01 1.771689e-01 -5.434137e-01
144 2 4 -8.970964e+00 4.418929e+00 8.751035e+00 0 -1 0 -1.801057e-01 7.346799e-01 -3.097483e-01 5.760758e-01
145 2 1 -8.553832e+00 4.565146e+00 8.909298e+00 0 -1 0 4.462174e-01 -6.067253e-01 4.012897e-01 -5.212879e-01
146 2 1 -8.175667e+00 4.599568e+00 9.185541e+00 0 -1 0 6.347414e-01 -4.054039e-01 5.316339e-01 -3.874486e-01
147 2 1 -7.729048e+00 4.527095e+00 9.441721e+00 0 -1 0 6.889864e-01 -2.133668e-01 6.637469e-01 -1.980213e-01
148 2 2 -7.320950e+00 4.233037e+00 9.530700e+00 0 -1 0 -7.074991e-01 -8.439091e-02 -6.981951e-01 -6.961942e-02
149 2 4 -7.037250e+00 4.229000e+00 1.086012e+01 0 -1 0 -1.277656e-03 -2.370337e-01 9.116980e-01 -3.355891e-01
150 2 1 -7.254755e+00 4.192176e+00 1.074475e+01 0 -1 0 -2.490793e-01 -4.792428e-01 6.909525e-02 8.387561e-01
151 2 1 -6.908144e+00 3.444902e+00 1.200504e+01 0 -1 0 -2.683058e-01 7.455129e-01 -5.386083e-01 2.865720e-01
152 2 1 -6.469229e+00 3.533856e+00 1.194264e+01 0 -1 0 2.984653e-01 -5.251871e-01 7.964494e-01 -2.766420e-02
153 2 4 -6.663852e+00 3.185292e+00 1.235344e+01 0 -1 0 9.555565e-02 5.567554e-01 -7.814658e-01 -2.649599e-01
154 2 1 -7.107827e+00 3.576448e+00 1.285026e+01 0 -1 0 4.060029e-01 7.126427e-01 -3.013748e-01 -4.862872e-01
155 2 2 -7.940117e+00 4.449964e+00 1.391939e+01 0 -1 0 1.165354e-01 2.858151e-01 6.859271e-01 -6.589637e-01
156 2 4 -7.331668e+00 4.773546e+00 1.408414e+01 0 -1 0 6.043447e-01 -1.158163e-01 4.161673e-01 6.694467e-01
157 2 3 -7.263066e+00 5.066569e+00 1.499731e+01 0 -1 0 8.930463e-02 -6.719474e-01 -4.420178e-01 5.874791e-01
158 2 2 -7.338484e+00 4.242292e+00 1.556143e+01 0 -1 0 -3.009049e-02 4.204478e-01 7.499752e-01 -5.097602e-01
159 2 1 -7.635447e+00 3.902642e+00 1.553615e+01 0 -1 0 -2.833373e-01 -6.567141e-01 -5.884471e-01 3.770631e-01
160 2 3 -8.094530e+00 3.834125e+00 1.530274e+01 0 -1 0 3.737431e-01 7.893012e-01 2.142898e-01 -4.374924e-01
161 2 1 -8.405520e+00 3.506282e+00 1.489703e+01 0 -1 0 5.405228e-01 8.291187e-01 3.867493e-02 -1.374829e-01
162 2 1 -9.273821e+00 2.990281e+00 1.456401e+01 0 -1 0 8.417000e-01 1.400783e-01 1.716721e-01 -4.923900e-01
163 2 4 -9.445868e+00 2.580696e+00 1.481501e+01 0 -1 0 -9.570618e-01 -2.282494e-01 -9.462145e-02 1.515971e-01
164 2 4 -9.430201e+00 2.084348e+00 1.501146e+01 0 -1 0 -9.814689e-01 -1.366750e-01 1.011159e-02 -1.339270e-01
165 2 3 -9.940558e+00 1.902529e+00 1.584864e+01 0 -1 0 4.077612e-01 -8.601807e-01 -4.503017e-02 -3.029724e-01
166 2 3 -1.033036e+01 7.779726e-01 1.554928e+01 0 -1 0 5.959664e-01 3.534986e-01 -3.542030e-01 -6.280151e-01
167 2 4 -1.106788e+01 6.224493e-01 1.579395e+01 0 -1 0 -5.757867e-01 2.110760e-02 -7.763833e-01 2.554468e-01
168 2 2 -1.077673e+01 2.442590e-01 1.565278e+01 0 -1 0 6.080799e-01 2.988357e-01 7.346475e-01 3.505855e-02
169 2 2 -1.027039e+01 2.017401e-02 1.537362e+01 0 -1 0 -4.211001e-01 -3.567993e-01 -7.593054e-01 -3.447090e-01
170 2 1 -1.003753e+01 -3.978407e-01 1.526434e+01 0 -1 0 5.371552e-01 2.597927e-01 4.400690e-01 6.710523e-01
171 2 1 -1.030113e+01 -4.344066e-01 1.474402e+01 0 -1 0 1.346252e-02 3.224916e-01 8.547291e-01 4.065171e-01
172 2 4 -9.863032e+00 -8.206473e-01 1.437780e+01 0 -1 0 3.923410e-01 7.302003e-01 -4.883043e-01 2.728277e-01
173 2 4 -9.588990e+00 -1.219111e+00 1.424969e+01 0 -1 0 2.049428e-01 4.263622e-01 -7.884761e-01 3.930892e-01
174 2 1 -9.476323e+00 -1.698229e+00 1.410187e+01 0 -1 0 1.374683e-01 3.181853e-01 -7.579799e-01 5.525640e-01
175 2 1 -9.288139e+00 -2.128555e+00 1.411768e+01 0 -1 0 9.318881e-02 1.182118e-01 8.725901e-01 -4.646808e-01
176 2 2 -9.456896e+00 -2.635536e+00 1.399334e+01 0 -1 0 -1.842848e-01 -3.897289e-01 -8.206928e-01 3.749852e-01
177 2 2 -9.709582e+00 -3.032364e+00 1.379224e+01 0 -1 0 2.007616e-01 6.152144e-01 6.266034e-01 -4.342513e-01
178 2 1 -1.021373e+01 -3.726517e+00 1.358956e+01 0 -1 0 6.144835e-01 3.969896e-01 -3.456459e-01 -5.876548e-01
179 2 4 -9.185045e+00 -4.321020e+00 1.357373e+01 0 -1 0 8.596395e-01 -3.147045e-01 3.535816e-01 1.922525e-01
180 2 1 -8.865371e+00 -4.276537e+00 1.387513e+01 0 -1 0 -8.527475e-01 6.092348e-02 -4.368862e-01 -2.797150e-01
181 2 4 -8.380882e+00 -4.470247e+00 1.392626e+01 0 -1 0 -6.877638e-01 -2.318048e-01 -4.161769e-01 -5.477630e-01
182 2 2 -8.378785e+00 -5.380946e+00 1.412279e+01 0 -1 0 -6.299716e-01 -1.058350e-01 3.617656e-01 6.790143e-01
183 2 3 -7.434250e+00 -4.997073e+00 1.347005e+01 0 -1 0 1.300567e-01 -4.148518e-01 7.355964e-01 5.195010e-01
184 2 4 -7.448012e+00 -4.677820e+00 1.305654e+01 0 -1 0 1.580772e-01 1.595578e-01 -7.420883e-01 -6.315520e-01
185 2 3 -7.543583e+00 -4.381482e+00 1.318716e+01 0 -1 0 5.719235e-01 -2.305670e-01 -6.863409e-01 3.855884e-01
186 2 1 -8.308081e+00 -3.843689e+00 1.300668e+01 0 -1 0 1.781259e-01 -2.296281e-01 -5.669277e-01 -7.708016e-01
187 2 1 -8.069640e+00 -2.814180e+00 1.317701e+01 0 -1 0 -5.087542e-01 4.344420e-01 3.163355e-01 -6.725780e-01
188 2 2 -8.492357e+00 -3.337337e+00 1.266682e+01 0 -1 0 -5.157509e-02 -9.608917e-02 3.889350e-01 -9.147876e-01
189 2 4 -7.818424e+00 -3.771474e+00 1.144835e+01 0 -1 0 3.178468e-01 -7.916647e-01 4.603124e-01 2.456681e-01
190 2 4 -8.557941e+00 -3.792429e+00 1.135751e+01 0 -1 0 8.181352e-01 -5.208722e-01 1.471001e-01 -1.941869e-01
191 2 1 -8.729421e+00 -3.608832e+00 1.074373e+01 0 -1 0 -1.148523e-01 2.834654e-01 2.477899e-02 9.517575e-01
192 2 4 -7.401212e+00 -3.605445e+00 1.054370e+01 0 -1 0 -1.966804e-01 -7.857854e-01 4.908200e-01 -3.208642e-01
193 2 4 -7.298810e+00 -3.402568e+00 1.029707e+01 0 -1 0 -4.571381e-01 -5.799961e-01 6.326674e-01 2.331547e-01
194 2 1 -6.749786e+00 -3.423359e+00 1.036071e+01 0 -1 0 8.540046e-01 1.168451e-01 4.601043e-01 -2.129022e-01
195 2 3 -6.011822e+00 -2.054674e+00 1.015880e+01 0 -1 0 1.689286e-01 -7.961551e-01 -7.164915e-02 5.765991e-01
196 2 4 -5.854766e+00 -2.052652e+00 1.008626e+01 0 -1 0 -4.347202e-01 -4.122790e-01 5.737056e-01 -5.584857e-01
197 2 2 -6.421749e+00 -2.226200e+00 8.921536e+00 0 -1 0 8.904575e-01 3.174216e-01 3.239592e-01 3.714026e-02
198 2 4 -7.921275e+00 -1.918299e+00 9.184850e+00 0 -1 0 3.256546e-01 -5.927875e-02 -2.442108e-01 -9.114802e-01
199 2 3 -7.291780e+00 -1.875773e+00 8.993882e+00 0 -1 0 -4.818492e-01 3.546160e-01 7.997794e-01 4.921122e-02
200 2 4 -6.623503e+00 -1.698202e+00 8.844364e+00 0 -1 0 7.570934e-01 -2.682134e-01 4.761321e-01 -3.580075e-01
