ITEM: TIMESTEP
256000000
ITEM: NUMBER OF ATOMS
200
ITEM: BOX BOUNDS pp pp pp
-2.0000000000000000e+01 2.0000000000000000e+01
-2.0000000000000000e+01 2.0000000000000000e+01
-2.0000000000000000e+01 2.0000000000000000e+01
ITEM: ATOMS id mol type x y z ix iy iz c_quat[1] c_quat[2] c_quat[3] c_quat[4]
1 1 1 -9.478551e+00 7.558323e+00 3.823808e-01 0 -1 0 -8.060420e-01 3.937945e-01 4.167837e-01 1.466747e-01
2 1 2 -9.742089e+00 7.729501e+00 6.830301e-01 0 -1 0 -7.048012e-01 6.218402e-01 2.042159e-01 -2.736163e-01
3 1 1 -1.034030e+01 8.080978e+00 5.980720e-01 0 -1 0 4.541356e-01 -1.465201e-01 4.343782e-01 7.639426e-01
4 1 3 -1.006411e+01 8.449557e+00 6.671511e-01 0 -1 0 1.486548e-01 1.936107e-02 4.855844e-01 8.612402e-01
5 1 1 -9.958544e+00 9.059853e+00 7.297913e-01 0 -1 0 1.674261e-01 -1.657622e-01 -4.368944e-01 -8.681098e-01
6 1 2 -1.073423e+01 8.845494e+00 8.892897e-01 0 -1 0 -3.430913e-01 8.971813e-02 8.604963e-01 3.657665e-01
7 1 4 -1.086988e+01 1.012674e+01 1.256612e+00 0 -1 0 -2.239596e-01 6.929811e-01 2.377696e-01 -6.427168e-01
8 1 1 -1.132079e+01 1.037911e+01 1.284637e+00 0 -1 0 6.818031e-02 -8.202557e-01 -4.978292e-02 5.657328e-01
9 1 1 -1.178578e+01 1.001509e+01 1.449911e+00 0 -1 0 -2.313502e-01 8.770417e-01 -4.094557e-01 -9.808691e-02
10 1 4 -1.217708e+01 1.024704e+01 2.388141e+00 0 -1 0 2.482454e-01 -2.712486e-01 -3.332553e-01 8.681816e-01
11 1 1 -1.281889e+01 1.029601e+01 2.775575e+00 0 -1 0 3.212322e-01 2.930835e-01 3.839713e-01 -8.145416e-01
12 1 1 -1.155940e+01 1.111536e+01 2.723218e+00 0 -1 0 -4.992544e-02 -8.873193e-01 -2.207692e-02 4.579132e-01
13 1 3 -1.185092e+01 1.141004e+01 2.433959e+00 0 -1 0 -2.398511e-01 -7.725586e-01 3.882561e-01 4.414543e-01
14 1 4 -1.154793e+01 1.196652e+01 3.148842e+00 0 -1 0 -3.121611e-01 7.912856e-01 -4.565689e-01 2.607056e-01
15 1 4 -1.140401e+01 1.285820e+01 3.088056e+00 0 -1 0 3.896880e-01 -3.619850e-01 2.106501e-01 8.202053e-01
16 1 2 -1.045062e+01 1.255537e+01 2.906294e+00 0 -1 0 -6.514943e-01 6.585436e-01 -1.587450e-01 -3.415780e-01
17 1 1 -1.028224e+01 1.301674e+01 3.045773e+00 0 -1 0 3.982097e-01 -5.884310e-01 3.994206e-01 5.793455e-01
18 1 2 -1.012631e+01 1.257237e+01 4.057955e+00 0 -1 0 -7.768092e-01 -5.315975e-01 3.355886e-01 3.676739e-02
19 1 3 -1.113122e+01 1.358613e+01 4.327253e+00 0 -1 0 -4.000071e-01 6.673979e-01 4.875139e-01 3.961117e-01
20 1 1 -1.117024e+01 1.413721e+01 4.402306e+00 0 -1 0 5.860751e-01 -7.217685e-01 -1.763867e-01 -3.231933e-01
21 1 4 -1.115945e+01 1.462895e+01 4.549514e+00 0 -1 0 -7.497463e-01 6.419498e-01 -3.780030e-02 1.560513e-01
22 1 1 -1.098492e+01 1.492713e+01 4.947173e+00 0 -1 0 -7.581025e-01 6.051356e-01 -2.209490e-01 -1.013556e-01
23 1 4 -1.078418e+01 1.515367e+01 5.270590e+00 0 -1 0 -6.923173e-01 3.762171e-01 -4.482228e-01 -4.222011e-01
24 1 3 -1.137672e+01 1.563627e+01 5.642555e+00 0 -1 0 5.977643e-01 -7.438540e-01 2.989286e-01 8.254677e-04
25 1 3 -1.224803e+01 1.668453e+01 5.031059e+00 0 -1 0 1.168888e-01 -8.776631e-01 -3.861596e-01 2.586990e-01
26 1 4 -1.315096e+01 1.621894e+01 4.144560e+00 0 -1 0 7.634767e-02 -1.178064e-01 8.180438e-01 5.577607e-01
27 1 4 -1.246763e+01 1.586746e+01 4.009263e+00 0 -1 0 -8.248980e-01 5.398368e-01 -1.594718e-01 -5.184913e-02
28 1 1 -1.363771e+01 1.610068e+01 3.765471e+00 0 -1 0 -1.010553e-01 8.667435e-01 4.752009e-01 -1.128167e-01
29 1 1 -1.256317e+01 1.539124e+01 3.103356e+00 0 -1 0 -7.871118e-01 2.235587e-01 -4.275006e-01 -3.843434e-01
30 1 4 -1.408227e+01 1.500558e+01 3.129260e+00 0 -1 0 3.576926e-01 -1.494084e-01 -7.774537e-01 -4.952766e-01
31 1 4 -1.409798e+01 1.572844e+01 2.698929e+00 0 -1 0 -6.668473e-01 -1.742030e-01 -3.585550e-01 -6.296080e-01
32 1 3 -1.500729e+01 1.476838e+01 3.330217e+00 0 -1 0 -4.301904e-01 -3.140184e-01 8.440588e-01 -6.239682e-02
33 1 3 -1.519116e+01 1.434167e+01 3.172275e+00 0 -1 0 3.375555e-01 -8.773480e-02 -9.005590e-01 2.595234e-01
34 1 1 -1.552626e+01 1.399979e+01 3.073686e+00 0 -1 0 -2.463959e-01 4.256202e-01 7.633762e-01 -4.187998e-01
35 1 2 -1.593912e+01 1.385206e+01 3.212015e+00 0 -1 0 7.040520e-03 -6.406633e-01 -5.368976e-01 5.488552e-01
36 1 2 -1.556243e+01 1.321256e+01 3.244826e+00 0 -1 0 1.937383e-02 5.410641e-01 3.601916e-01 7.596949e-01
37 1 1 -1.485866e+01 1.196510e+01 2.676446e+00 0 -1 0 9.578185e-01 2.390337e-01 5.798621e-02 1.486077e-01
38 1 1 -1.465506e+01 1.163386e+01 3.023427e+00 0 -1 0 9.048348e-01 1.736463e-01 9.655444e-02 3.765610e-01
39 1 4 -1.533312e+01 1.121031e+01 3.335779e+00 0 -1 0 4.932756e-02 -6.349897e-01 -3.543059e-01 6.847060e-01
40 1 4 -1.528355e+01 1.057504e+01 4.121494e+00 0 -1 0 -8.240877e-01 1.840661e-01 -3.651404e-01 3.920097e-01
41 1 2 -1.510174e+01 1.025417e+01 4.501151e+00 0 -1 0 -9.241519e-01 2.247662e-02 -3.813586e-01 1.920399e-03
42 1 4 -1.486942e+01 1.016568e+01 4.930124e+00 0 -1 0 7.748457e-01 -1.430692e-02 3.400587e-01 5.327002e-01
43 1 3 -1.557067e+01 1.092303e+01 5.497115e+00 0 -1 0 -1.587043e-01 1.047044e-01 -4.175353e-01 -8.885461e-01
44 1 2 -1.579864e+01 1.020539e+01 6.679408e+00 0 -1 0 1.568953e-01 -3.357821e-01 -9.287449e-01 8.196989e-03
45 1 1 -1.623335e+01 1.007210e+01 6.418343e+00 0 -1 0 4.665731e-04 6.816717e-01 7.107368e-01 -1.737142e-01
46 1 3 -1.482703e+01 9.244164e+00 6.097072e+00 0 -1 0 -6.128183e-01 -7.303598e-01 2.561535e-01 -1.594163e-01
47 1 4 -1.454134e+01 8.544575e+00 6.222663e+00 0 -1 0 3.194259e-01 -3.140161e-01 8.849184e-01 1.275949e-01
48 1 1 -1.356304e+01 8.713234e+00 6.307341e+00 0 -1 0 8.583593e-01 -1.581897e-01 -2.026430e-01 4.439945e-01
49 1 4 -1.356224e+01 8.865055e+00 6.964840e+00 0 -1 0 5.788549e-01 -1.485518e-01 -2.558000e-01 7.598854e-01
50 1 4 -1.364029e+01 9.088141e+00 7.363593e+00 0 -1 0 -2.934395e-02 2.715693e-01 1.288410e-01 -9.533043e-01
51 1 4 -1.376806e+01 8.095500e+00 7.476156e+00 0 -1 0 6.223210e-02 4.360887e-01 8.022878e-01 -4.028501e-01
52 1 1 -1.343775e+01 7.399616e+00 7.636438e+00 0 -1 0 -6.623197e-01 7.108924e-01 -2.012373e-01 -1.243712e-01
53 1 3 -1.349581e+01 7.351566e+00 6.869227e+00 0 -1 0 -3.726202e-01 -6.663623e-01 -6.206724e-01 1.785531e-01
54 1 4 -1.357359e+01 7.095511e+00 6.436458e+00 0 -1 0 4.083845e-01 8.846196e-01 2.233609e-01 2.793338e-02
55 1 4 -1.425514e+01 6.069560e+00 6.324107e+00 0 -1 0 6.341293e-01 6.393140e-01 -1.890744e-01 -3.916740e-01
56 1 4 -1.455916e+01 5.635686e+00 6.103728e+00 0 -1 0 7.929056e-01 4.269050e-01 -4.258002e-01 -8.801716e-02
57 1 1 -1.484480e+01 5.218009e+00 6.159687e+00 0 -1 0 8.366307e-01 2.451797e-01 -4.330376e-01 2.289421e-01
58 1 1 -1.495047e+01 4.786437e+00 6.409668e+00 0 -1 0 -7.226696e-01 -1.077828e-01 4.561288e-01 -5.080138e-01
59 1 3 -1.492551e+01 4.597524e+00 6.863562e+00 0 -1 0 -3.077782e-01 3.391919e-02 4.583028e-01 -8.331150e-01
60 1 4 -1.508709e+01 4.373118e+00 7.100929e+00 0 -1 0 1.718846e-01 1.281788e-01 4.835365e-02 -9.755449e-01
61 1 2 -1.532758e+01 4.545037e+00 7.447102e+00 0 -1 0 6.081346e-01 4.318814e-02 5.214257e-02 -7.909414e-01
62 1 3 -1.566350e+01 4.519345e+00 7.772598e+00 0 -1 0 -7.599330e-01 -7.278229e-02 4.464794e-02 6.443688e-01
63 1 2 -1.604563e+01 4.313038e+00 8.220655e+00 0 -1 0 9.237864e-01 3.489901e-02 6.377657e-02 -3.759433e-01
64 1 4 -1.616196e+01 4.045357e+00 8.659056e+00 0 -1 0 9.875056e-01 1.065519e-01 7.590866e-02 -8.784812e-02
65 1 2 -1.600498e+01 3.664355e+00 8.980689e+00 0 -1 0 9.323593e-01 9.068611e-02 4.452048e-02 3.471311e-01
66 1 1 -1.581680e+01 3.513086e+00 9.446289e+00 0 -1 0 7.845229e-01 1.218336e-01 6.434303e-02 6.045994e-01
67 1 2 -1.544948e+01 3.610950e+00 9.788970e+00 0 -1 0 -4.741232e-01 -2.454560e-02 -4.084457e-02 -8.791681e-01
68 1 1 -1.512278e+01 3.868429e+00 1.007639e+01 0 -1 0 1.533003e-01 5.725152e-02 -1.414967e-01 9.763196e-01
69 1 1 -1.518290e+01 3.989426e+00 1.060322e+01 0 -1 0 -1.405767e-01 -1.147740e-01 -1.710037e-01 9.684125e-01
70 1 2 -1.442361e+01 4.035239e+00 1.083173e+01 0 -1 0 -4.102933e-01 -7.200939e-01 2.463812e-01 5.024146e-01
71 1 3 -1.355834e+01 4.284809e+00 1.208021e+01 0 -1 0 -5.686986e-01 -4.757767e-01 5.071521e-01 -4.393349e-01
72 1 4 -1.355077e+01 4.177922e+00 1.165005e+01 0 -1 0 -3.680727e-01 1.243552e-02 -6.782408e-02 -9.272366e-01
73 1 1 -1.294369e+01 3.801800e+00 1.168265e+01 0 -1 0 -9.019937e-02 -7.468817e-01 -3.227884e-01 -5.743165e-01
74 1 1 -1.268089e+01 2.670114e+00 1.255737e+01 0 -1 0 7.777343e-01 -5.772103e-01 -1.934651e-01 -1.566172e-01
75 1 3 -1.264412e+01 3.003038e+00 1.290580e+01 0 -1 0 7.182700e-01 -6.584209e-01 1.227334e-01 1.884322e-01
76 1 1 -1.245287e+01 3.461356e+00 1.312516e+01 0 -1 0 6.175813e-01 -5.401927e-01 3.716195e-01 4.343779e-01
77 1 4 -1.215472e+01 3.863154e+00 1.319211e+01 0 -1 0 -3.378885e-01 4.166846e-01 -5.423332e-01 -6.465910e-01
78 1 1 -1.215112e+01 3.397440e+00 1.426087e+01 0 -1 0 2.461999e-01 7.732333e-02 7.819688e-01 -5.673901e-01
79 1 4 -1.235127e+01 3.567075e+00 1.439648e+01 0 -1 0 -5.972029e-01 6.133697e-02 -7.736011e-01 2.028000e-01
80 1 2 -1.229721e+01 4.397623e+00 1.472632e+01 0 -1 0 7.495863e-01 -3.841909e-01 4.336414e-01 -3.201138e-01
81 1 4 -1.218196e+01 5.668389e+00 1.409895e+01 0 -1 0 -3.384365e-01 -6.959070e-01 -6.195384e-01 1.317056e-01
82 1 4 -1.093248e+01 4.920232e+00 1.387787e+01 0 -1 0 4.899055e-01 -5.893694e-01 5.620426e-01 3.110377e-01
83 1 4 -1.061081e+01 5.242484e+00 1.381196e+01 0 -1 0 -3.683692e-01 3.432838e-01 -7.230248e-01 -4.729646e-01
84 1 4 -1.039387e+01 5.404151e+00 1.339083e+01 0 -1 0 1.818094e-01 -1.632204e-02 7.780285e-01 6.011244e-01
85 1 1 -1.041522e+01 5.747092e+00 1.303604e+01 0 -1 0 6.959077e-02 6.224612e-02 8.828612e-01 4.602593e-01
86 1 1 -1.032208e+01 5.812608e+00 1.247236e+01 0 -1 0 1.947248e-02 -3.090950e-01 -8.156641e-01 -4.886442e-01
87 1 3 -9.584903e+00 6.251567e+00 1.241795e+01 0 -1 0 1.316935e-01 -5.817760e-01 7.432773e-01 3.028734e-01
88 1 2 -1.064877e+01 6.988734e+00 1.232801e+01 0 -1 0 -1.927093e-02 -1.445057e-01 -4.869918e-01 8.611537e-01
89 1 2 -1.061867e+01 5.613760e+00 1.200995e+01 0 -1 0 7.292842e-01 -4.743569e-02 -5.607270e-02 -6.802575e-01
90 1 3 -1.055699e+01 6.180738e+00 1.142037e+01 0 -1 0 -2.710574e-01 9.603643e-01 6.489104e-02 -4.185318e-03
91 1 3 -1.160877e+01 6.763448e+00 1.091487e+01 0 -1 0 -2.423952e-01 -2.522650e-01 -5.664750e-01 -7.461320e-01
92 1 2 -1.142554e+01 7.174009e+00 1.071066e+01 0 -1 0 -1.567922e-01 4.927507e-01 3.385102e-01 7.861449e-01
93 1 1 -1.146285e+01 7.436800e+00 1.064190e+01 0 -1 0 4.420183e-01 -1.953066e-01 -8.674633e-01 -1.182478e-01
94 1 2 -1.067629e+01 8.801374e+00 9.870225e+00 0 -1 0 -4.276135e-01 3.465405e-01 1.901934e-02 -8.346823e-01
95 1 3 -1.081884e+01 9.068655e+00 1.026494e+01 0 -1 0 -1.293413e-01 3.650855e-01 -7.888251e-02 -9.185646e-01
96 1 2 -1.014159e+01 9.247820e+00 1.135734e+01 0 -1 0 8.150536e-01 -3.625468e-01 -7.210818e-02 4.461477e-01
97 1 2 -1.103095e+01 9.575791e+00 1.208460e+01 0 -1 0 1.890252e-01 -3.044449e-01 -1.671029e-02 -9.334364e-01
98 1 4 -1.098371e+01 9.895849e+00 1.264101e+01 0 -1 0 -3.675408e-01 9.010000e-01 2.212185e-01 -6.461582e-02
99 1 2 -1.105512e+01 8.721471e+00 1.246315e+01 0 -1 0 -7.921556e-01 4.234123e-01 4.391669e-01 -1.854544e-02
100 1 1 -1.139829e+01 8.830617e+00 1.285968e+01 0 -1 0 -6.504383e-01 6.082258e-01 2.079791e-01 -4.046433e-01
101 2 4 -1.940105e+01 1.520516e+01 1.146240e+01 0 -1 0 2.787309e-01 -8.313242e-01 1.946944e-01 -4.396626e-01
102 2 3 -1.977629e+01 1.524079e+01 1.212752e+01 0 -1 0 -9.555464e-02 4.856468e-01 -2.798613e-02 8.684660e-01
103 2 1 -1.945222e+01 1.542551e+01 1.248630e+01 0 -1 0 2.389225e-01 -3.266398e-01 7.728277e-02 -9.111805e-01
104 2 3 -1.847444e+01 1.499348e+01 1.293885e+01 0 -1 0 6.205513e-01 -5.010014e-01 -6.027776e-01 2.393405e-02
105 2 3 -1.800664e+01 1.584081e+01 1.246069e+01 0 -1 0 5.889989e-01 -4.810009e-01 3.303476e-01 5.590965e-01
106 2 2 -1.782981e+01 1.627527e+01 1.249234e+01 0 -1 0 -3.789265e-01 2.983514e-01 -5.761763e-01 -6.598651e-01
107 2 3 -1.684509e+01 1.639022e+01 1.287062e+01 0 -1 0 -3.077858e-01 -8.066149e-01 2.336971e-01 -4.472426e-01
108 2 4 -1.668307e+01 1.587933e+01 1.322303e+01 0 -1 0 -2.054419e-01 2.637259e-01 -6.582131e-01 6.745353e-01
109 2 3 -1.651973e+01 1.548002e+01 1.356715e+01 0 -1 0 3.167721e-01 -4.762268e-02 7.038953e-01 -6.339708e-01
110 2 2 -1.622332e+01 1.510497e+01 1.382781e+01 0 -1 0 4.357569e-01 2.147584e-01 6.911415e-01 -5.350870e-01
111 2 2 -1.568724e+01 1.525293e+01 1.414401e+01 0 -1 0 2.842753e-01 4.117085e-01 7.227485e-01 4.767790e-01
112 2 3 -1.546675e+01 1.446446e+01 1.514321e+01 0 -1 0 3.718299e-02 -5.569517e-01 3.201592e-01 -7.654543e-01
113 2 3 -1.507008e+01 1.362237e+01 1.449817e+01 0 -1 0 7.622400e-01 5.928401e-01 2.547625e-01 -5.125345e-02
114 2 2 -1.485225e+01 1.318386e+01 1.432268e+01 0 -1 0 -7.415899e-01 -5.954593e-01 -8.351527e-03 -3.088735e-01
115 2 4 -1.518985e+01 1.249192e+01 1.518839e+01 0 -1 0 4.271364e-01 -2.004073e-01 3.646272e-01 -8.027692e-01
116 2 4 -1.523203e+01 1.238732e+01 1.404579e+01 0 -1 0 3.697796e-01 3.650308e-01 7.404702e-01 4.262857e-01
117 2 1 -1.543913e+01 1.197580e+01 1.419111e+01 0 -1 0 4.533953e-01 2.351425e-02 -8.363069e-01 3.073606e-01
118 2 1 -1.499734e+01 1.223750e+01 1.348634e+01 0 -1 0 -2.543561e-01 5.290238e-01 3.997944e-01 -7.039895e-01
119 2 1 -1.448445e+01 1.107556e+01 1.248718e+01 0 -1 0 9.582098e-01 1.038369e-01 2.665282e-01 3.807356e-03
120 2 1 -1.420321e+01 1.070817e+01 1.273960e+01 0 -1 0 -8.445363e-01 -2.114657e-01 -2.166143e-01 -4.417226e-01
121 2 3 -1.431481e+01 1.020513e+01 1.305626e+01 0 -1 0 -2.356197e-01 7.790552e-02 9.478545e-01 -1.999648e-01
122 2 1 -1.402720e+01 9.564301e+00 1.293903e+01 0 -1 0 6.648504e-01 4.196023e-01 7.314072e-02 -6.136435e-01
123 2 4 -1.425734e+01 9.085562e+00 1.321475e+01 0 -1 0 -6.245260e-01 -5.866860e-01 -6.673849e-02 5.111877e-01
124 2 1 -1.449556e+01 8.608713e+00 1.365318e+01 0 -1 0 -8.370149e-01 -4.942190e-01 2.259633e-01 6.398616e-02
125 2 4 -1.518911e+01 7.916934e+00 1.408369e+01 0 -1 0 1.870052e-01 9.753257e-02 9.073364e-01 -3.636718e-01
126 2 2 -1.520022e+01 7.518449e+00 1.393543e+01 0 -1 0 -3.461284e-01 -4.844300e-01 -7.473910e-01 2.948379e-01
127 2 4 -1.537629e+01 7.137696e+00 1.358114e+01 0 -1 0 -4.421135e-01 -7.458480e-01 -4.954282e-01 5.289022e-02
128 2 4 -1.537138e+01 7.080616e+00 1.307277e+01 0 -1 0 -4.443453e-01 -8.896119e-01 1.046536e-01 -1.398194e-02
129 2 1 -1.528716e+01 6.939899e+00 1.260644e+01 0 -1 0 4.566281e-01 7.090809e-01 -4.852656e-01 2.306780e-01
130 2 2 -1.497379e+01 6.477069e+00 1.248774e+01 0 -1 0 2.380168e-01 4.066308e-01 -7.219896e-01 5.066857e-01
131 2 3 -1.511923e+01 6.295061e+00 1.156094e+01 0 -1 0 1.637067e-01 6.316072e-01 7.574548e-01 -2.312305e-02
132 2 4 -1.524446e+01 6.139500e+00 1.102580e+01 0 -1 0 -1.682785e-01 -7.486507e-01 -6.242106e-01 -1.468523e-01
133 2 4 -1.530169e+01 6.213329e+00 1.057239e+01 0 -1 0 8.925100e-02 9.463365e-01 2.559943e-01 1.759218e-01
134 2 3 -1.574038e+01 5.822225e+00 1.012667e+01 0 -1 0 -1.393990e-01 8.025213e-01 3.459724e-01 4.656508e-01
135 2 4 -1.506035e+01 4.655722e+00 9.557056e+00 0 -1 0 -9.183949e-02 -3.860786e-01 8.973009e-01 -1.932872e-01
136 2 3 -1.502689e+01 4.085115e+00 8.783861e+00 0 -1 0 -1.327365e-01 -4.069575e-01 9.037276e-01 -6.562743e-03
137 2 1 -1.501448e+01 3.819534e+00 8.416109e+00 0 -1 0 1.113035e-01 -4.747625e-02 -9.924805e-01 1.844095e-02
138 2 3 -1.526318e+01 3.418543e+00 8.166916e+00 0 -1 0 4.524000e-03 4.086118e-01 9.086286e-01 -8.608193e-02
139 2 2 -1.551735e+01 3.277322e+00 7.729695e+00 0 -1 0 -1.154630e-02 6.723289e-01 7.401541e-01 -3.514796e-03
140 2 3 -1.578016e+01 3.503523e+00 7.234977e+00 0 -1 0 3.903150e-02 -8.558838e-01 -4.942528e-01 -1.471519e-01
141 2 1 -1.629121e+01 3.119733e+00 6.530332e+00 0 -1 0 2.785217e-01 -3.245453e-03 1.544394e-01 -9.479259e-01
142 2 2 -1.572520e+01 1.813053e+00 6.038824e+00 0 -1 0 -8.918491e-01 -2.120213e-01 1.663316e-01 3.632986e-01
143 2 4 -1.573693e+01 1.715613e+00 5.480280e+00 0 -1 0 5.310316e-01 2.739762e-02 -7.825417e-01 -3.238569e-01
144 2 4 -1.623528e+01 1.675475e+00 5.342556e+00 0 -1 0 -6.679241e-01 1.301620e-01 7.079522e-01 1.890474e-01
145 2 1 -1.677707e+01 1.564204e+00 5.001756e+00 0 -1 0 9.264799e-02 -5.002211e-01 -3.610605e-01 -7.815565e-01
146 2 1 -1.612762e+01 1.023039e+00 5.778507e+00 0 -1 0 -8.573442e-01 4.319720e-01 -6.342931e-02 -2.726498e-01
147 2 1 -1.710306e+01 1.955713e-01 6.004354e+00 0 -1 0 1.779594e-01 -5.052732e-01 8.035216e-01 -2.595815e-01
148 2 2 -1.797512e+01 3.969291e-01 6.568302e+00 0 -1 0 -1.990592e-01 4.326119e-01 -6.471716e-01 5.953078e-01
149 2 4 -1.765368e+01 1.230926e-01 6.790806e+00 0 -1 0 4.520339e-01 -1.617345e-01 7.400646e-01 -4.709688e-01
150 2 1 -1.666637e+01 1.465974e-01 6.653716e+00 0 -1 0 -4.978554e-01 -8.643123e-01 -4.571378e-02 -5.490415e-02
151 2 1 -1.639902e+01 3.464512e-02 6.955052e+00 0 -1 0 5.075648e-02 -8.082057e-01 -3.688461e-01 -4.562673e-01
152 2 1 -1.566027e+01 -7.785152e-01 6.638072e+00 0 -1 0 8.253390e-01 -1.415704e-01 2.408651e-01 -4.906703e-01
153 2 4 -1.492320e+01 -6.541624e-01 7.190779e+00 0 -1 0 1.969300e-01 -9.198063e-01 -5.389810e-02 -3.350670e-01
154 2 1 -1.589390e+01 -1.139807e+00 7.707314e+00 0 -1 0 3.843095e-01 -1.610233e-02 3.624421e-01 -8.489303e-01
155 2 2 -1.600498e+01 -1.311677e+00 8.193211e+00 0 -1 0 -6.500450e-01 -1.844066e-01 -3.378432e-01 6.552081e-01
156 2 4 -1.501941e+01 -1.025721e+00 9.020108e+00 0 -1 0 -8.839401e-01 3.582805e-01 -2.440281e-01 -1.753145e-01
157 2 3 -1.475744e+01 -9.026099e-01 9.330832e+00 0 -1 0 6.495427e-01 -2.985533e-01 2.891229e-01 6.366853e-01
158 2 2 -1.464350e+01 -1.971386e+00 9.990099e+00 0 -1 0 3.339571e-01 1.831242e-01 -9.024056e-01 -2.014999e-01
159 2 1 -1.389499e+01 -1.275139e+00 1.004126e+01 0 -1 0 7.909307e-01 4.614781e-01 -3.579633e-01 -1.825618e-01
160 2 3 -1.418908e+01 -9.986173e-02 1.071847e+01 0 -1 0 -3.195291e-03 8.971058e-01 1.441385e-01 -4.176303e-01
161 2 1 -1.451640e+01 -1.490977e+00 1.139289e+01 0 -1 0 -8.097349e-02 -6.043706e-02 9.948225e-01 1.090306e-02
162 2 1 -1.381081e+01 -1.547199e+00 1.137659e+01 0 -1 0 -7.518011e-01 -1.337847e-01 -6.356531e-01 1.133225e-01
163 2 4 -1.334338e+01 -1.901606e+00 1.138303e+01 0 -1 0 6.717982e-01 2.668551e-01 6.630649e-01 1.944749e-01
164 2 4 -1.298192e+01 -2.032576e+00 1.102148e+01 0 -1 0 -5.146213e-01 -5.609494e-01 -4.772674e-01 -4.389948e-01
165 2 3 -1.252959e+01 -1.997197e+00 1.072093e+01 0 -1 0 3.455739e-01 6.825423e-01 2.496253e-01 5.936345e-01
166 2 3 -1.217015e+01 -1.714376e+00 1.057702e+01 0 -1 0 -6.653187e-02 8.114901e-01 -7.588612e-02 5.755855e-01
167 2 4 -1.199245e+01 -2.332660e+00 9.521983e+00 0 -1 0 3.462998e-01 2.238573e-01 7.336488e-01 5.401146e-01
168 2 2 -1.182730e+01 -2.149076e+00 9.113231e+00 0 -1 0 1.298424e-01 5.521378e-01 6.265103e-01 5.345743e-01
169 2 2 -1.162386e+01 -1.739794e+00 8.792459e+00 0 -1 0 8.250082e-02 -6.772196e-01 -3.937173e-01 -6.160795e-01
170 2 1 -1.149422e+01 -1.183294e+00 8.725739e+00 0 -1 0 -3.460769e-01 7.604826e-01 7.718003e-02 5.440040e-01
171 2 1 -1.221021e+01 -1.013570e+00 8.983629e+00 0 -1 0 4.037264e-01 -3.187906e-01 -7.582571e-01 -4.005294e-01
172 2 4 -1.173434e+01 -5.767770e-01 8.668608e+00 0 -1 0 7.040611e-01 4.585811e-01 -4.383358e-01 -3.191598e-01
173 2 4 -1.099837e+01 -2.031450e-01 9.272880e+00 0 -1 0 -6.199945e-01 4.533744e-01 -5.885624e-01 -2.522951e-01
174 2 1 -1.057700e+01 -6.236507e-02 9.231503e+00 0 -1 0 4.647931e-01 -6.385773e-02 7.147416e-01 5.186849e-01
175 2 1 -1.010243e+01 3.152401e-01 1.048525e+01 0 -1 0 -1.586951e-01 -6.941494e-01 5.965390e-01 -3.702888e-01
176 2 2 -9.743073e+00 1.968641e-01 1.038819e+01 0 -1 0 -1.183549e-01 4.163251e-01 -8.123010e-01 3.909380e-01
177 2 2 -8.970046e+00 5.732473e-01 1.025493e+01 0 -1 0 6.331794e-01 7.365404e-01 -1.461236e-01 -1.877232e-01
178 2 1 -9.653022e+00 1.613209e+00 1.101422e+01 0 -1 0 1.406817e-01 1.183989e-01 2.367919e-01 -9.540021e-01
179 2 4 -9.102765e+00 8.245557e-01 1.027094e+01 0 -1 0 -6.761552e-01 2.058034e-01 -6.444242e-01 2.918501e-01
180 2 1 -8.950229e+00 1.872210e+00 9.775442e+00 0 -1 0 -5.084470e-01 -3.231160e-02 2.172234e-01 -8.326173e-01
181 2 4 -8.008684e+00 8.905922e-01 9.782296e+00 0 -1 0 -8.236072e-01 -2.934724e-01 3.195096e-01 -3.653202e-01
182 2 2 -7.644267e+00 5.887912e-01 9.308053e+00 0 -1 0 -6.559925e-01 -7.168657e-01 -1.040053e-01 2.120387e-01
183 2 3 -7.594682e+00 1.849965e-01 9.066515e+00 0 -1 0 7.294751e-01 5.814263e-01 -2.855611e-01 2.196917e-01
184 2 4 -7.425922e+00 -2.235279e-01 8.885241e+00 0 -1 0 5.296858e-01 4.842320e-01 -5.209699e-01 4.621068e-01
185 2 3 -7.191716e+00 -6.483253e-01 9.019541e+00 0 -1 0 3.338249e-01 2.504397e-01 -6.965740e-01 5.836313e-01
186 2 1 -7.059427e+00 -2.095732e-01 7.756543e+00 0 -1 0 3.353897e-02 -9.134383e-01 -3.598080e-01 1.871999e-01
187 2 1 -7.614026e+00 -2.147840e-01 7.768424e+00 0 -1 0 2.880321e-01 -8.826352e-01 -2.525136e-01 -2.724509e-01
188 2 2 -7.482213e+00 -1.465766e+00 7.086047e+00 0 -1 0 1.478026e-01 5.562536e-01 -7.976826e-01 1.801076e-01
189 2 4 -7.084367e+00 -6.771828e-01 6.049008e+00 0 -1 0 -4.756461e-01 1.823078e-01 -6.728001e-01 -5.365303e-01
190 2 4 -6.800358e+00 -3.266151e-01 5.813466e+00 0 -1 0 1.705508e-01 1.662200e-01 6.425932e-01 7.282563e-01
191 2 1 -6.684609e+00 2.170687e-01 5.674125e+00 0 -1 0 -1.571079e-01 2.163077e-01 5.283259e-01 8.058535e-01
192 2 4 -6.922926e+00 6.547043e-01 5.627903e+00 0 -1 0 4.032073e-01 -3.838252e-01 -6.201940e-01 -5.526857e-01
193 2 4 -5.559493e+00 1.060775e+00 5.475758e+00 0 -1 0 6.663518e-01 5.906937e-01 -4.285837e-01 1.528797e-01
194 2 1 -6.181835e+00 1.912579e+00 4.421434e+00 0 -1 0 3.923653e-01 1.844614e-01 3.785168e-01 8.177704e-01
195 2 3 -5.922241e+00 2.277819e+00 4.438777e+00 0 -1 0 -1.912340e-03 4.464428e-01 2.491423e-01 8.594261e-01
196 2 4 -5.771777e+00 2.779923e+00 4.618792e+00 0 -1 0 -2.112743e-01 4.865445e-01 -6.828152e-03 8.476975e-01
197 2 2 -5.514405e+00 3.049887e+00 5.034465e+00 0 -1 0 5.063640e-01 -3.762163e-01 2.992865e-01 -7.158801e-01
198 2 4 -4.999361e+00 3.237654e+00 4.712478e+00 0 -1 0 -6.010729e-01 3.672326e-01 3.148082e-01 6.361976e-01
199 2 3 -4.640107e+00 3.084967e+00 3.837824e+00 0 -1 0 -7.566882e-01 8.263018e-02 1.269254e-02 6.484090e-01
200 2 4 -4.720008e+00 2.377698e+00 4.244071e+00 0 -1 0 -6.197463e-01 1.752708e-01 -3.913852e-01 6.572764e-01
