ITEM: TIMESTEP
205000000
ITEM: NUMBER OF ATOMS
200
ITEM: BOX BOUNDS pp pp pp
-2.0000000000000000e+01 2.0000000000000000e+01
-2.0000000000000000e+01 2.0000000000000000e+01
-2.0000000000000000e+01 2.0000000000000000e+01
ITEM: ATOMS id mol type x y z ix iy iz c_quat[1] c_quat[2] c_quat[3] c_quat[4]
1 1 1 -9.276899e+00 -1.863460e+01 4.432535e+00 0 0 0 7.218287e-01 6.260769e-01 -2.633386e-01 -1.328301e-01
2 1 2 -9.348814e+00 -1.902618e+01 4.162912e+00 0 0 0 -7.058417e-01 -4.355333e-01 5.200433e-01 -2.040913e-01
3 1 1 -1.074737e+01 -1.935410e+01 4.077366e+00 0 0 0 6.611035e-03 -3.641797e-01 -9.210443e-01 -1.378655e-01
4 1 3 -1.023037e+01 -2.008699e+01 3.935053e+00 0 0 0 -9.595144e-01 -4.939440e-02 1.110168e-01 -2.541016e-01
5 1 1 -1.111414e+01 -1.946358e+01 3.332948e+00 0 0 0 -3.510564e-01 6.860757e-01 -2.955559e-02 -6.365422e-01
6 1 2 -1.200600e+01 -1.976738e+01 2.528444e+00 0 0 0 -5.316831e-01 -5.296285e-01 -6.393356e-01 -1.675015e-01
7 1 4 -1.231806e+01 -1.979333e+01 2.476977e+00 0 0 0 6.452712e-01 -4.354995e-01 4.633489e-01 4.234065e-01
8 1 1 -1.362335e+01 -1.936572e+01 1.980426e+00 0 0 0 -3.207152e-01 -3.246428e-01 2.109317e-01 8.644401e-01
9 1 1 -1.249275e+01 -1.861007e+01 2.008025e+00 0 0 0 -2.075639e-01 7.946387e-01 -1.722137e-01 -5.438832e-01
10 1 4 -1.273488e+01 -1.820690e+01 1.860605e+00 0 0 0 -1.300039e-01 -6.697244e-01 5.115888e-01 5.223458e-01
11 1 1 -1.299239e+01 -1.799401e+01 1.573544e+00 0 0 0 2.790044e-01 5.708078e-01 -6.746523e-01 -3.757384e-01
12 1 1 -1.320893e+01 -1.797989e+01 1.108231e+00 0 0 0 -3.176585e-01 -4.763594e-01 8.060122e-01 1.500636e-01
13 1 3 -1.265118e+01 -1.755499e+01 1.109690e+00 0 0 0 1.581601e-01 4.444648e-01 -8.185373e-01 3.277700e-01
14 1 4 -1.235476e+01 -1.712738e+01 1.114294e-01 0 0 0 -5.891507e-01 -5.181515e-01 1.505920e-01 -6.014504e-01
15 1 4 -1.191265e+01 -1.730497e+01 2.708473e-01 0 0 0 -2.753578e-01 -4.096549e-01 4.481150e-01 -7.453549e-01
16 1 2 -1.158930e+01 -1.752287e+01 6.132803e-01 0 0 0 1.075966e-01 -2.279477e-01 5.555823e-01 -7.923327e-01
17 1 1 -1.123355e+01 -1.790079e+01 8.474792e-01 0 0 0 -1.864828e-01 4.781948e-02 -5.853076e-01 7.876246e-01
18 1 2 -9.815954e+00 -1.848495e+01 5.701109e-01 0 0 0 1.446906e-02 -7.377388e-01 6.749306e-01 -8.494698e-04
19 1 3 -9.401752e+00 -1.860319e+01 2.171449e-01 0 0 0 -1.463563e-01 3.807955e-01 -9.116173e-01 -5.028499e-02
20 1 1 -9.259210e+00 -1.884781e+01 -2.196958e-01 0 0 0 1.272414e-01 1.015440e-01 9.799689e-01 1.147144e-01
21 1 4 -8.265735e+00 -1.861638e+01 8.828271e-01 0 0 0 4.834873e-01 -8.519142e-01 -1.818741e-01 -8.604653e-02
22 1 1 -7.758192e+00 -1.851991e+01 3.518471e-01 0 0 0 -2.495985e-01 -8.524439e-01 -4.547168e-01 -6.536571e-02
23 1 4 -6.970226e+00 -1.833030e+01 3.564708e-01 0 0 0 3.829220e-01 -9.090019e-01 -1.115174e-01 -1.210380e-01
24 1 3 -7.096640e+00 -1.786646e+01 3.474024e-01 0 0 0 1.892431e-01 5.937112e-01 5.124248e-01 -5.908595e-01
25 1 3 -5.572113e+00 -1.838343e+01 8.285875e-01 0 0 0 9.031617e-01 -3.342002e-01 -2.455056e-01 1.110682e-01
26 1 4 -5.559720e+00 -1.831714e+01 1.420734e+00 0 0 0 -7.318887e-01 3.487075e-01 1.402499e-01 -5.683942e-01
27 1 4 -6.566181e+00 -1.921791e+01 1.783723e+00 0 0 0 5.441149e-01 -6.452630e-01 1.995918e-01 -4.977326e-01
28 1 1 -6.811485e+00 -1.980457e+01 1.789806e+00 0 0 0 -4.778114e-01 1.443848e-01 5.029736e-01 7.055968e-01
29 1 1 -6.890736e+00 -1.984595e+01 2.816798e+00 0 0 0 2.020156e-01 -1.048499e-01 -9.559600e-01 1.853017e-01
30 1 4 -7.250860e+00 1.974288e+01 3.056984e+00 0 -1 0 8.516864e-01 4.524864e-02 -3.824994e-01 -3.553547e-01
31 1 4 -7.547148e+00 1.954193e+01 3.375201e+00 0 -1 0 -9.331720e-01 1.010731e-01 3.408312e-01 -5.299402e-02
32 1 3 -7.751736e+00 1.931323e+01 3.738118e+00 0 -1 0 -7.475093e-01 3.229691e-01 3.217976e-01 -4.830808e-01
33 1 3 -8.252700e+00 1.874371e+01 3.101799e+00 0 -1 0 7.892738e-02 5.040835e-01 5.911701e-01 6.246505e-01
34 1 1 -6.711040e+00 1.844087e+01 3.213580e+00 0 -1 0 -7.081503e-01 -5.898393e-01 3.160698e-01 -2.251947e-01
35 1 2 -7.315800e+00 1.816236e+01 3.964556e+00 0 -1 0 -2.630298e-01 -5.213617e-01 8.085496e-01 7.242056e-02
36 1 2 -7.284956e+00 1.832938e+01 4.694304e+00 0 -1 0 -9.456529e-01 -1.951366e-01 2.474811e-01 8.009648e-02
37 1 1 -7.316980e+00 1.800107e+01 5.120968e+00 0 -1 0 9.047834e-01 1.209566e-01 -2.201563e-01 3.439007e-01
38 1 1 -7.346398e+00 1.748439e+01 5.080296e+00 0 -1 0 2.474471e-01 2.263059e-01 -8.069994e-01 4.861148e-01
39 1 4 -7.430451e+00 1.709217e+01 5.198423e+00 0 -1 0 -5.733821e-02 -2.349911e-01 -7.738362e-01 5.853794e-01
40 1 4 -7.247970e+00 1.615745e+01 4.475710e+00 0 -1 0 -7.354319e-01 1.342420e-02 -2.818217e-01 6.160652e-01
41 1 2 -6.277797e+00 1.629622e+01 5.000947e+00 0 -1 0 5.904129e-01 -6.854942e-01 -1.294991e-01 4.058821e-01
42 1 4 -6.547777e+00 1.548580e+01 4.992915e+00 0 -1 0 1.306793e-01 9.022268e-01 -3.321097e-01 2.421011e-01
43 1 3 -7.223500e+00 1.470396e+01 5.242572e+00 0 -1 0 5.803706e-01 -5.451808e-02 -6.494754e-01 4.882412e-01
44 1 2 -7.490289e+00 1.439467e+01 5.441152e+00 0 -1 0 3.701487e-01 -4.130285e-01 -5.594140e-01 6.159978e-01
45 1 1 -7.559218e+00 1.398700e+01 5.419975e+00 0 -1 0 -4.548727e-01 6.142756e-02 -7.890813e-01 -4.082501e-01
46 1 3 -7.136179e+00 1.346804e+01 6.326610e+00 0 -1 0 -9.476652e-01 -2.998219e-01 -1.899659e-02 1.080584e-01
47 1 4 -7.049768e+00 1.306348e+01 6.445517e+00 0 -1 0 8.562647e-01 3.525102e-01 -1.392975e-01 3.509180e-01
48 1 1 -6.859065e+00 1.317750e+01 6.694926e+00 0 -1 0 4.944759e-01 3.533219e-01 2.054694e-01 7.670981e-01
49 1 4 -5.889932e+00 1.276672e+01 6.805756e+00 0 -1 0 5.820981e-01 -7.233752e-01 1.172211e-01 3.523483e-01
50 1 4 -6.509754e+00 1.221400e+01 7.943678e+00 0 -1 0 6.275343e-01 -6.073441e-01 -3.664863e-01 -3.209698e-01
51 1 4 -6.137304e+00 1.173248e+01 8.461659e+00 0 -1 0 -6.229755e-01 -2.714820e-01 6.446957e-01 -3.500950e-01
52 1 1 -6.212692e+00 1.126208e+01 8.636709e+00 0 -1 0 4.114564e-01 1.968518e-03 -6.554645e-01 6.332978e-01
53 1 3 -5.906724e+00 1.031078e+01 8.964810e+00 0 -1 0 7.955776e-01 -5.577609e-01 -1.496292e-01 -1.832217e-01
54 1 4 -6.036083e+00 1.073270e+01 9.402201e+00 0 -1 0 7.137158e-01 -6.809112e-01 8.114345e-02 1.427775e-01
55 1 4 -6.809930e+00 1.154507e+01 8.841304e+00 0 -1 0 -4.131784e-01 5.012150e-01 1.190162e-01 -7.509343e-01
56 1 4 -7.087781e+00 1.188541e+01 9.083829e+00 0 -1 0 7.602987e-03 4.351591e-01 -1.832833e-01 -8.814681e-01
57 1 1 -7.208333e+00 1.201272e+01 1.020285e+01 0 -1 0 -1.636114e-01 -5.209609e-01 7.002092e-01 -4.599329e-01
58 1 1 -6.937084e+00 1.273662e+01 9.234444e+00 0 -1 0 5.317997e-02 9.669951e-01 -2.007485e-01 1.476222e-01
59 1 3 -7.276190e+00 1.327019e+01 8.995060e+00 0 -1 0 -9.623175e-02 3.837471e-02 6.575171e-01 7.462828e-01
60 1 4 -7.455305e+00 1.372258e+01 8.794216e+00 0 -1 0 3.680080e-01 -2.336611e-01 -5.380703e-01 -7.214243e-01
61 1 2 -7.770422e+00 1.417281e+01 8.804956e+00 0 -1 0 6.196829e-01 -2.807098e-01 -4.658401e-01 -5.658516e-01
62 1 3 -8.182324e+00 1.441331e+01 8.959327e+00 0 -1 0 -7.706586e-01 3.757672e-01 4.212864e-01 2.956386e-01
63 1 2 -8.567923e+00 1.464735e+01 9.267644e+00 0 -1 0 8.535029e-01 -4.451069e-01 -2.449070e-01 -1.159017e-01
64 1 4 -8.659192e+00 1.492355e+01 9.775718e+00 0 -1 0 -9.012526e-01 4.221224e-01 9.654532e-02 -1.534744e-02
65 1 2 -8.721229e+00 1.509136e+01 1.028382e+01 0 -1 0 -8.368928e-01 4.594101e-01 -8.253716e-02 -2.859029e-01
66 1 1 -8.457939e+00 1.553603e+01 1.064498e+01 0 -1 0 -6.623964e-01 4.644872e-01 -2.883341e-01 -5.121973e-01
67 1 2 -8.105211e+00 1.594941e+01 1.074560e+01 0 -1 0 4.351671e-01 -3.344014e-01 4.295256e-01 7.171563e-01
68 1 1 -7.988932e+00 1.647109e+01 1.088149e+01 0 -1 0 -2.924368e-01 3.240058e-01 -5.600611e-01 -7.041538e-01
69 1 1 -7.842353e+00 1.688733e+01 1.075093e+01 0 -1 0 -4.265649e-03 5.711243e-02 -5.796831e-01 -8.128268e-01
70 1 2 -7.987828e+00 1.740557e+01 1.045827e+01 0 -1 0 -2.570803e-01 2.058226e-01 4.956421e-01 8.036701e-01
71 1 3 -8.181890e+00 1.791255e+01 1.048676e+01 0 -1 0 4.761814e-01 -2.265891e-01 -4.621864e-01 -7.129463e-01
72 1 4 -8.570591e+00 1.829873e+01 1.071787e+01 0 -1 0 7.070105e-01 -2.405111e-01 -3.669398e-01 -5.546582e-01
73 1 1 -8.907011e+00 1.846288e+01 1.103055e+01 0 -1 0 8.694655e-01 -3.425553e-01 -2.151544e-01 -2.835385e-01
74 1 1 -9.149529e+00 1.846825e+01 1.157031e+01 0 -1 0 9.518164e-01 -2.781518e-01 -1.230058e-01 3.932848e-02
75 1 3 -9.081626e+00 1.845427e+01 1.212771e+01 0 -1 0 8.956834e-01 -2.912179e-01 3.247653e-02 3.344977e-01
76 1 1 -8.732957e+00 1.857449e+01 1.250493e+01 0 -1 0 7.539504e-01 -9.580041e-02 1.853532e-01 6.229167e-01
77 1 4 -8.438693e+00 1.882291e+01 1.292368e+01 0 -1 0 -5.371179e-01 1.345533e-01 -2.226230e-01 -8.023956e-01
78 1 1 -8.268247e+00 1.925173e+01 1.320865e+01 0 -1 0 2.819264e-01 -9.218076e-02 2.742586e-01 9.147691e-01
79 1 4 -8.147634e+00 1.962605e+01 1.330283e+01 0 -1 0 7.573917e-02 -1.608777e-01 -3.312647e-01 -9.266313e-01
80 1 2 -8.350576e+00 -1.995348e+01 1.324622e+01 0 0 0 -4.967193e-02 -2.946218e-01 -8.075366e-01 5.085424e-01
81 1 4 -7.201262e+00 -2.008281e+01 1.268631e+01 0 0 0 7.954965e-01 2.429037e-01 5.226288e-01 -1.871959e-01
82 1 4 -6.895358e+00 -1.887954e+01 1.251369e+01 0 0 0 5.884137e-01 7.142717e-01 1.660282e-01 3.406170e-01
83 1 4 -6.881080e+00 -1.972741e+01 1.165789e+01 0 0 0 -8.115545e-03 7.147140e-01 -5.532189e-01 -4.278633e-01
84 1 4 -6.865545e+00 -1.947167e+01 1.126159e+01 0 0 0 1.408235e-01 3.791261e-01 -8.047408e-01 -4.345392e-01
85 1 1 -6.439531e+00 -1.895551e+01 1.161872e+01 0 0 0 -1.351026e-01 -4.323391e-01 -7.237349e-01 -5.206131e-01
86 1 1 -5.204897e+00 -1.873526e+01 1.262677e+01 0 0 0 -3.793586e-01 -6.314414e-01 4.312425e-01 -5.209594e-01
87 1 3 -4.743548e+00 -1.832916e+01 1.179673e+01 0 0 0 -4.787431e-01 -8.090156e-01 3.370967e-01 5.162059e-02
88 1 2 -4.768148e+00 -1.857098e+01 1.136938e+01 0 0 0 -2.995945e-01 -8.229108e-01 4.155522e-01 -2.457178e-01
89 1 2 -4.440208e+00 -1.867253e+01 1.104643e+01 0 0 0 3.562280e-03 5.979965e-01 -7.030881e-01 3.847786e-01
90 1 3 -3.817466e+00 -1.812257e+01 1.027368e+01 0 0 0 3.673653e-01 -5.761357e-01 1.068124e-01 7.222891e-01
91 1 3 -3.542433e+00 -1.760765e+01 1.015947e+01 0 0 0 -1.740142e-01 3.957565e-01 -2.966171e-01 -8.515364e-01
92 1 2 -2.594096e+00 -1.716850e+01 1.070153e+01 0 0 0 3.107097e-01 8.781752e-01 -2.287427e-01 2.827448e-01
93 1 1 -2.136775e+00 -1.732524e+01 1.040967e+01 0 0 0 1.474293e-01 6.907628e-01 -5.825884e-01 4.021220e-01
94 1 2 -1.603741e+00 -1.636981e+01 9.847202e+00 0 0 0 3.941123e-01 9.123189e-01 2.515680e-02 1.082447e-01
95 1 3 -1.262753e+00 -1.677822e+01 1.041517e+01 0 0 0 8.239277e-01 -2.612635e-01 2.846595e-01 -4.145521e-01
96 1 2 -1.238769e+00 -1.530961e+01 9.516032e+00 0 0 0 -5.361031e-01 -4.698411e-01 -4.068483e-01 -5.712419e-01
97 1 2 -1.982260e+00 -1.571729e+01 1.079987e+01 0 0 0 -3.605859e-03 -4.106920e-01 3.180957e-01 -8.544789e-01
98 1 4 -2.252746e+00 -1.588509e+01 1.071568e+01 0 0 0 2.808997e-01 -7.753867e-01 5.234420e-01 -2.141943e-01
99 1 2 -3.093394e+00 -1.493130e+01 1.030665e+01 0 0 0 3.096563e-01 8.835677e-01 1.721874e-01 -3.062232e-01
100 1 1 -3.462448e+00 -1.442597e+01 1.024460e+01 0 0 0 7.413092e-01 4.613330e-01 3.587934e-01 3.299998e-01
101 2 4 -9.154687e+00 1.465860e+01 1.474827e+01 0 -1 0 8.281900e-02 -8.567076e-01 -4.870669e-01 1.481854e-01
102 2 3 -8.139535e+00 1.465323e+01 1.453969e+01 0 -1 0 2.337392e-01 -7.416881e-01 4.905455e-01 3.932301e-01
103 2 1 -8.506259e+00 1.500513e+01 1.591225e+01 0 -1 0 -6.031308e-01 5.486222e-01 4.323469e-02 5.773887e-01
104 2 3 -8.317060e+00 1.520262e+01 1.631183e+01 0 -1 0 -8.128514e-01 4.498195e-01 -2.308627e-01 2.892013e-01
105 2 3 -8.018171e+00 1.608704e+01 1.611039e+01 0 -1 0 -2.913417e-02 5.308095e-01 -3.024347e-01 -7.911547e-01
106 2 2 -7.185437e+00 1.652420e+01 1.661462e+01 0 -1 0 2.125399e-01 -5.523526e-01 3.076166e-01 7.450540e-01
107 2 3 -7.404805e+00 1.661164e+01 1.708309e+01 0 -1 0 -8.019060e-01 -2.572805e-01 -2.391893e-01 4.832618e-01
108 2 4 -7.488004e+00 1.775635e+01 1.663598e+01 0 -1 0 -4.863330e-01 -7.584520e-01 -2.085049e-01 -3.804687e-01
109 2 3 -7.029256e+00 1.775184e+01 1.642069e+01 0 -1 0 -2.641523e-01 -7.502945e-01 1.785701e-01 -5.791325e-01
110 2 2 -7.002637e+00 1.772498e+01 1.555838e+01 0 -1 0 -5.823482e-01 -1.372461e-01 -7.957902e-01 9.355236e-02
111 2 2 -7.792935e+00 1.844781e+01 1.654094e+01 0 -1 0 3.110997e-01 -6.866652e-01 -3.881890e-01 -5.301106e-01
112 2 3 -7.771574e+00 1.867398e+01 1.570903e+01 0 -1 0 -7.409856e-01 -9.507387e-02 -6.559354e-01 -1.079354e-01
113 2 3 -8.768922e+00 1.888994e+01 1.644980e+01 0 -1 0 -4.724258e-01 5.505212e-01 3.523489e-01 5.912619e-01
114 2 2 -9.362726e+00 1.891028e+01 1.544714e+01 0 -1 0 -2.992209e-01 -1.674670e-01 -9.355828e-01 -8.429984e-02
115 2 4 -8.882261e+00 1.927566e+01 1.599585e+01 0 -1 0 1.461688e-01 1.692362e-01 -9.729076e-01 5.869108e-02
116 2 4 -9.075709e+00 -1.987911e+01 1.626089e+01 0 0 0 5.044783e-01 6.496385e-01 5.264275e-02 5.663040e-01
117 2 1 -1.044068e+01 1.930324e+01 1.636091e+01 0 -1 0 -5.932872e-01 5.230729e-02 7.253137e-01 3.452453e-01
118 2 1 -1.015644e+01 1.960365e+01 1.527749e+01 0 -1 0 1.454777e-01 4.374996e-01 -8.025736e-01 -3.785576e-01
119 2 1 -1.034741e+01 1.955804e+01 1.476908e+01 0 -1 0 2.653083e-01 1.193152e-01 -9.421089e-01 -1.667520e-01
120 2 1 -1.009304e+01 1.993475e+01 1.435860e+01 0 -1 0 -4.598417e-02 5.097745e-02 -1.542658e-01 9.856413e-01
121 2 3 -9.360241e+00 1.973647e+01 1.363008e+01 0 -1 0 1.891522e-01 8.965618e-01 3.972482e-01 5.091401e-02
122 2 1 -9.325853e+00 1.981201e+01 1.315615e+01 0 -1 0 -1.976995e-01 -9.705560e-01 -7.065740e-02 -1.180823e-01
123 2 4 -9.082384e+00 1.999342e+01 1.276302e+01 0 -1 0 7.342130e-02 9.224388e-01 -3.391152e-01 1.694603e-01
124 2 1 -8.794097e+00 1.983831e+01 1.238779e+01 0 -1 0 2.585113e-02 -7.871667e-01 5.447323e-01 -2.880400e-01
125 2 4 -8.417157e+00 1.964743e+01 1.200484e+01 0 -1 0 -1.648678e-02 6.042903e-01 -7.052684e-01 3.703483e-01
126 2 2 -8.137373e+00 1.911048e+01 1.176663e+01 0 -1 0 2.874140e-02 3.301302e-01 -8.319679e-01 4.449914e-01
127 2 4 -7.969001e+00 1.862374e+01 1.179357e+01 0 -1 0 1.309671e-01 -1.975922e-02 8.052783e-01 -5.779135e-01
128 2 4 -8.039680e+00 1.806414e+01 1.174009e+01 0 -1 0 -1.485179e-01 -2.891129e-01 -7.854681e-01 5.266839e-01
129 2 1 -8.373782e+00 1.760217e+01 1.167689e+01 0 -1 0 -1.955437e-01 -5.982429e-01 -6.445253e-01 4.341143e-01
130 2 2 -8.727405e+00 1.736876e+01 1.139425e+01 0 -1 0 -3.354216e-01 -8.001741e-01 -3.980938e-01 2.978843e-01
131 2 3 -9.033519e+00 1.712786e+01 1.095551e+01 0 -1 0 -4.161219e-01 -8.926721e-01 -1.498930e-01 8.666737e-02
132 2 4 -9.054253e+00 1.688670e+01 1.051129e+01 0 -1 0 -4.704450e-01 -8.755513e-01 6.970279e-02 -8.504680e-02
133 2 4 -8.900276e+00 1.654331e+01 1.007467e+01 0 -1 0 4.226805e-01 8.604599e-01 -1.386315e-01 2.484577e-01
134 2 3 -8.540986e+00 1.639455e+01 9.706297e+00 0 -1 0 3.077309e-01 7.835275e-01 -3.781788e-01 3.851846e-01
135 2 4 -8.195971e+00 1.599634e+01 9.570271e+00 0 -1 0 1.280741e-01 6.126865e-01 -4.971721e-01 6.008595e-01
136 2 3 -7.787517e+00 1.560044e+01 9.609446e+00 0 -1 0 -1.079134e-01 -3.918474e-01 6.126141e-01 -6.778748e-01
137 2 1 -7.531401e+00 1.520418e+01 9.890420e+00 0 -1 0 1.261825e-01 -4.514946e-02 7.687285e-01 -6.253767e-01
138 2 3 -7.632524e+00 1.471722e+01 1.004221e+01 0 -1 0 4.182481e-01 2.297566e-01 7.368683e-01 -4.788586e-01
139 2 2 -7.658093e+00 1.412492e+01 1.000445e+01 0 -1 0 3.759615e-01 4.003576e-01 7.346964e-01 -3.982310e-01
140 2 3 -7.934296e+00 1.363360e+01 9.872473e+00 0 -1 0 -4.125316e-01 -5.843593e-01 -6.217248e-01 3.190613e-01
141 2 1 -8.252928e+00 1.330445e+01 9.599718e+00 0 -1 0 -5.114860e-01 -7.440297e-01 -3.676970e-01 2.227122e-01
142 2 2 -8.398790e+00 1.297565e+01 9.167654e+00 0 -1 0 -5.570228e-01 -8.093412e-01 -1.731517e-01 -6.863632e-02
143 2 4 -8.187376e+00 1.268555e+01 8.803321e+00 0 -1 0 -4.955910e-01 -8.016702e-01 1.914749e-01 -2.739558e-01
144 2 4 -8.315043e+00 1.217604e+01 8.125836e+00 0 -1 0 5.071786e-01 8.326830e-01 -8.176686e-02 2.066956e-01
145 2 1 -8.171760e+00 1.193939e+01 7.752457e+00 0 -1 0 -3.525462e-01 -8.085743e-01 3.481048e-01 -3.173987e-01
146 2 1 -7.809968e+00 1.169437e+01 7.605680e+00 0 -1 0 1.093037e-01 5.217320e-01 -6.816652e-01 5.011796e-01
147 2 1 -8.145445e+00 1.127196e+01 6.386387e+00 0 -1 0 -9.272536e-01 -3.129911e-01 -1.886267e-01 -8.159224e-02
148 2 2 -8.870864e+00 1.069114e+01 6.446301e+00 0 -1 0 1.340686e-02 -4.951730e-01 6.711964e-01 5.514702e-01
149 2 4 -8.463613e+00 1.067296e+01 7.615911e+00 0 -1 0 -7.860260e-01 1.800623e-01 4.847220e-01 3.387997e-01
150 2 1 -8.835739e+00 1.076439e+01 8.033024e+00 0 -1 0 -8.984006e-01 3.893281e-01 1.986911e-01 4.268185e-02
151 2 1 -9.503924e+00 9.802467e+00 7.455019e+00 0 -1 0 8.031882e-01 5.431561e-02 -5.268835e-02 -5.908997e-01
152 2 1 -9.555807e+00 9.608103e+00 8.097019e+00 0 -1 0 7.695692e-01 2.088858e-01 2.580743e-01 -5.454609e-01
153 2 4 -9.311678e+00 9.254834e+00 8.402778e+00 0 -1 0 -6.301528e-01 -3.177937e-01 -4.094925e-01 5.781267e-01
154 2 1 -9.423906e+00 8.732715e+00 8.331810e+00 0 -1 0 -8.852356e-01 -4.008629e-01 -1.358654e-01 1.928924e-01
155 2 2 -1.024952e+01 8.607630e+00 9.481524e+00 0 -1 0 -2.188061e-01 1.838219e-01 -2.620313e-01 9.217771e-01
156 2 4 -9.150488e+00 8.149742e+00 9.438610e+00 0 -1 0 -5.397026e-01 4.262403e-01 -6.894153e-01 2.274792e-01
157 2 3 -8.681392e+00 8.007040e+00 9.399519e+00 0 -1 0 5.781481e-01 -2.278169e-01 7.450362e-01 -2.424154e-01
158 2 2 -8.345658e+00 7.801168e+00 9.406391e+00 0 -1 0 5.392370e-01 9.137454e-03 6.751717e-01 5.032724e-01
159 2 1 -8.493940e+00 7.421771e+00 1.007427e+01 0 -1 0 -3.460942e-01 6.479309e-01 6.342636e-01 -2.410684e-01
160 2 3 -7.354044e+00 6.909313e+00 1.029524e+01 0 -1 0 6.176401e-02 -6.173108e-01 7.729126e-01 -1.331116e-01
161 2 1 -7.787471e+00 8.014033e+00 1.052334e+01 0 -1 0 -2.304396e-01 -7.538659e-02 1.008612e-01 9.649049e-01
162 2 1 -8.071832e+00 8.146613e+00 1.094731e+01 0 -1 0 6.315950e-01 7.394670e-02 1.534854e-02 -7.716113e-01
163 2 4 -8.405823e+00 7.953370e+00 1.131635e+01 0 -1 0 -9.236451e-01 -2.435283e-02 1.633693e-01 3.458283e-01
164 2 4 -8.655461e+00 7.670502e+00 1.168567e+01 0 -1 0 9.856300e-01 3.179624e-03 -1.570461e-01 6.212769e-02
165 2 3 -9.165344e+00 7.862624e+00 1.209272e+01 0 -1 0 6.567978e-01 2.337993e-01 5.649572e-01 -4.413365e-01
166 2 3 -9.121750e+00 7.272936e+00 1.298919e+01 0 -1 0 -6.925488e-01 -3.127387e-01 6.358590e-01 -1.351075e-01
167 2 4 -9.622143e+00 7.451823e+00 1.325807e+01 0 -1 0 8.772998e-01 1.853387e-01 4.025759e-02 -4.408786e-01
168 2 2 -9.732920e+00 7.002545e+00 1.360992e+01 0 -1 0 -9.821839e-01 -1.750823e-01 1.598812e-02 -6.637237e-02
169 2 2 -9.568060e+00 6.647386e+00 1.393510e+01 0 -1 0 8.407570e-01 1.986900e-01 -7.870157e-02 4.974495e-01
170 2 1 -9.345039e+00 6.498601e+00 1.433424e+01 0 -1 0 -5.699134e-01 -1.253629e-01 1.014706e-01 -8.057211e-01
171 2 1 -9.123468e+00 6.646852e+00 1.474922e+01 0 -1 0 -6.797539e-02 -3.415259e-02 1.139577e-01 -9.905688e-01
172 2 4 -9.279514e+00 6.838090e+00 1.524103e+01 0 -1 0 3.665642e-01 7.830416e-02 1.298612e-01 -9.179517e-01
173 2 4 -8.124735e+00 6.705172e+00 1.558167e+01 0 -1 0 -4.894575e-01 -2.637707e-01 8.304203e-01 3.547479e-02
174 2 1 -8.705925e+00 7.598867e+00 1.575972e+01 0 -1 0 -3.365721e-02 -8.699061e-01 -2.857183e-01 4.006190e-01
175 2 1 -9.004432e+00 7.766168e+00 1.546516e+01 0 -1 0 4.259425e-01 7.897299e-01 -2.297968e-01 -3.769524e-01
176 2 2 -9.047395e+00 8.512361e+00 1.536204e+01 0 -1 0 7.823485e-01 3.545486e-01 -7.924740e-02 5.059110e-01
177 2 2 -9.825629e+00 8.650304e+00 1.557341e+01 0 -1 0 5.321957e-01 -8.348884e-01 3.418923e-02 1.362358e-01
178 2 1 -9.787464e+00 9.056886e+00 1.557253e+01 0 -1 0 -4.090553e-01 7.209634e-01 -4.242229e-01 -3.645827e-01
179 2 4 -9.591973e+00 9.397740e+00 1.538517e+01 0 -1 0 2.370950e-01 -4.436662e-01 7.147171e-01 4.859277e-01
180 2 1 -9.886549e+00 9.657286e+00 1.605734e+01 0 -1 0 6.983574e-01 5.727231e-01 -4.072993e-01 -1.356189e-01
181 2 4 -9.103121e+00 1.035197e+01 1.619638e+01 0 -1 0 6.792803e-01 -9.221951e-02 3.287116e-01 6.496326e-01
182 2 2 -1.019512e+01 9.945933e+00 1.694306e+01 0 -1 0 -5.463870e-01 -2.393255e-01 -2.208208e-01 7.716364e-01
183 2 3 -1.063221e+01 9.703265e+00 1.713697e+01 0 -1 0 8.234502e-01 3.500323e-01 8.074627e-03 -4.464773e-01
184 2 4 -1.086940e+01 9.381047e+00 1.792100e+01 0 -1 0 6.613134e-01 5.084802e-02 7.103597e-01 -2.355167e-01
185 2 3 -1.061578e+01 9.299296e+00 1.798077e+01 0 -1 0 -3.003673e-01 -5.925412e-01 -1.670865e-01 7.285303e-01
186 2 1 -1.084138e+01 8.605280e+00 1.840924e+01 0 -1 0 8.577351e-01 -2.900512e-01 4.061995e-01 -1.231370e-01
187 2 1 -1.186089e+01 9.348754e+00 1.860755e+01 0 -1 0 4.779636e-01 -6.498105e-02 -4.313685e-01 7.623972e-01
188 2 2 -1.187777e+01 8.612662e+00 1.859452e+01 0 -1 0 2.623943e-02 -9.365026e-01 -1.877249e-01 -2.950147e-01
189 2 4 -1.207357e+01 9.155918e+00 1.906045e+01 0 -1 0 3.982335e-01 -2.682479e-01 -2.334653e-01 8.455454e-01
190 2 4 -1.166888e+01 8.406382e+00 1.946395e+01 0 -1 0 -5.182740e-01 3.869832e-01 -7.594434e-01 6.987010e-02
191 2 1 -1.123275e+01 8.316922e+00 1.940955e+01 0 -1 0 -5.770333e-01 2.073367e-02 -8.064141e-01 -1.276671e-01
192 2 4 -1.107386e+01 9.072583e+00 1.984075e+01 0 -1 0 4.686944e-01 5.673767e-01 -2.222679e-01 -6.395359e-01
193 2 4 -1.139771e+01 9.595039e+00 -1.864954e+01 0 -1 1 5.280089e-01 -5.314605e-01 -5.641611e-01 -3.471001e-01
194 2 1 -1.216435e+01 9.886421e+00 -1.926481e+01 0 -1 1 4.609691e-01 3.004455e-01 6.670300e-01 -5.023056e-01
195 2 3 -1.100875e+01 1.047571e+01 -1.988133e+01 0 -1 1 7.868847e-01 2.280836e-01 5.044386e-01 2.726390e-01
196 2 4 -1.068338e+01 1.087519e+01 -1.939176e+01 0 -1 1 -1.610884e-01 3.703199e-01 -4.450488e-01 -7.992779e-01
197 2 2 -9.586126e+00 1.076986e+01 -1.881744e+01 0 -1 1 6.845829e-01 -6.663970e-01 2.917836e-01 4.608214e-02
198 2 4 -8.994932e+00 1.046632e+01 -1.854631e+01 0 -1 1 4.393769e-01 5.984729e-01 -6.574857e-01 1.284159e-01
199 2 3 -8.863580e+00 1.022164e+01 -1.851529e+01 0 -1 1 -5.507105e-01 -3.746071e-01 4.067577e-01 -6.252485e-01
200 2 4 -8.871802e+00 9.663186e+00 -1.944491e+01 0 -1 1 4.228353e-01 8.855747e-01 1.656085e-01 -9.768153e-02
