ITEM: TIMESTEP
201000000
ITEM: NUMBER OF ATOMS
200
ITEM: BOX BOUNDS pp pp pp
-2.0000000000000000e+01 2.0000000000000000e+01
-2.0000000000000000e+01 2.0000000000000000e+01
-2.0000000000000000e+01 2.0000000000000000e+01
ITEM: ATOMS id mol type x y z ix iy iz c_quat[1] c_quat[2] c_quat[3] c_quat[4]
1 1 1 -3.146385e-01 -1.725991e+01 9.089101e+00 0 0 0 -3.286340e-01 9.239991e-01 -1.931754e-01 3.014462e-02
2 1 2 -5.546849e-01 -1.789750e+01 9.017455e+00 0 0 0 5.319574e-01 7.408424e-01 -1.131376e-01 3.941747e-01
3 1 1 -1.864182e+00 -1.785186e+01 8.964551e+00 0 0 0 -2.275642e-01 -7.868951e-01 -4.738041e-01 3.232961e-01
4 1 3 -1.988585e+00 -1.815019e+01 9.493407e+00 0 0 0 8.295724e-01 9.863004e-02 -9.368539e-02 5.415762e-01
5 1 1 -2.424585e+00 -1.877476e+01 9.548428e+00 0 0 0 -3.887279e-02 3.248667e-01 -6.789115e-01 -6.572896e-01
6 1 2 -3.038330e+00 -1.917850e+01 1.047254e+01 0 0 0 -4.027350e-01 -2.037977e-01 8.816240e-01 1.378771e-01
7 1 4 -3.510759e+00 -1.946452e+01 1.009845e+01 0 0 0 -4.812596e-01 4.086392e-02 8.744096e-01 -4.612257e-02
8 1 1 -3.948192e+00 -1.973995e+01 1.000579e+01 0 0 0 4.580334e-01 -2.438664e-01 -8.201142e-01 2.411375e-01
9 1 1 -3.834593e+00 1.981421e+01 8.925501e+00 0 -1 0 6.177921e-01 6.215626e-01 4.485279e-01 1.755436e-01
10 1 4 -3.453373e+00 1.961464e+01 8.536144e+00 0 -1 0 -5.307771e-01 -7.095216e-01 -2.013306e-01 -4.175175e-01
11 1 1 -2.780583e+00 1.949402e+01 8.867050e+00 0 -1 0 -2.028826e-01 7.072105e-01 -5.859974e-01 3.395572e-01
12 1 1 -2.285527e+00 1.937756e+01 8.778504e+00 0 -1 0 -3.609950e-01 4.233440e-01 -7.608046e-01 3.341240e-01
13 1 3 -1.747941e+00 1.918136e+01 8.651217e+00 0 -1 0 -3.062856e-01 2.066843e-01 -8.491743e-01 3.773244e-01
14 1 4 -9.147431e-01 1.949723e+01 7.961546e+00 0 -1 0 2.028380e-01 -8.527051e-01 4.578805e-01 -1.486477e-01
15 1 4 -1.551958e+00 1.928105e+01 7.752720e+00 0 -1 0 -2.080369e-02 3.992569e-01 1.534361e-01 9.036695e-01
16 1 2 -2.000362e+00 1.867458e+01 7.351315e+00 0 -1 0 1.252995e-02 2.189802e-01 -9.358618e-01 2.757777e-01
17 1 1 -2.358773e+00 1.952663e+01 6.411225e+00 0 -1 0 2.911910e-02 5.000507e-01 3.313663e-01 7.995610e-01
18 1 2 -2.400856e+00 -1.984477e+01 6.279616e+00 0 0 0 1.327359e-01 -7.642373e-01 -3.012221e-01 -5.546060e-01
19 1 3 -2.212907e+00 -1.937108e+01 6.264744e+00 0 0 0 -3.532554e-01 8.046168e-01 -1.570985e-02 4.770279e-01
20 1 1 -2.117153e+00 -1.971632e+01 5.522091e+00 0 0 0 3.496414e-01 -1.810592e-01 7.738076e-01 -4.961757e-01
21 1 4 -7.271469e-01 -1.959207e+01 5.122762e+00 0 0 0 -8.854025e-01 -1.469385e-01 6.997064e-02 -4.354028e-01
22 1 1 -1.153737e+00 1.988054e+01 4.908804e+00 0 -1 0 -3.748125e-01 -5.824845e-01 -6.928675e-01 2.004043e-01
23 1 4 -1.210047e+00 1.958790e+01 4.424769e+00 0 -1 0 2.866040e-01 7.446974e-01 6.003696e-01 5.329401e-02
24 1 3 -1.226438e+00 1.854276e+01 4.310626e+00 0 -1 0 5.238576e-01 6.971815e-01 4.165772e-01 -2.568553e-01
25 1 3 -1.310770e+00 1.820895e+01 3.907187e+00 0 -1 0 4.776745e-01 8.642517e-01 1.577830e-01 -7.406411e-04
26 1 4 -1.296283e+00 1.805080e+01 3.520206e+00 0 -1 0 4.620932e-01 8.383683e-01 -2.722533e-01 9.739921e-02
27 1 4 -1.136010e+00 1.776231e+01 3.111562e+00 0 -1 0 -2.994346e-01 -6.796616e-01 6.105415e-01 -2.750238e-01
28 1 1 -8.545732e-01 1.769166e+01 2.692861e+00 0 -1 0 -1.447519e-01 -5.740219e-01 6.869830e-01 -4.214263e-01
29 1 1 -6.439162e-01 1.800694e+01 1.849845e+00 0 -1 0 3.150272e-02 -9.479497e-01 -3.081737e-01 -7.367483e-02
30 1 4 -8.226396e-02 1.711527e+01 1.806324e+00 0 -1 0 7.833750e-01 -1.453103e-01 2.616003e-01 -5.447694e-01
31 1 4 -7.130396e-01 1.730448e+01 2.447447e+00 0 -1 0 -4.150639e-01 1.562751e-01 2.143054e-01 8.702719e-01
32 1 3 1.448898e-01 1.794809e+01 2.985172e+00 0 -1 0 5.221932e-01 5.236697e-01 2.196537e-01 6.362677e-01
33 1 3 1.457323e-01 1.701053e+01 2.921451e+00 0 -1 0 6.213924e-01 7.413899e-01 2.436309e-01 -6.968807e-02
34 1 1 -6.966788e-01 1.642005e+01 2.916095e+00 0 -1 0 -1.031894e-01 -2.907451e-01 -7.363983e-01 -6.021102e-01
35 1 2 -6.175027e-02 1.535301e+01 3.895160e+00 0 -1 0 2.596100e-01 5.606413e-01 -7.719339e-01 1.496729e-01
36 1 2 -4.414201e-01 1.592197e+01 4.310527e+00 0 -1 0 -7.275117e-01 1.448493e-02 -6.328209e-02 -6.830170e-01
37 1 1 -1.126824e+00 1.575055e+01 4.919953e+00 0 -1 0 -6.870376e-01 5.158390e-01 1.166950e-01 -4.982688e-01
38 1 1 -1.796019e+00 1.553121e+01 4.953669e+00 0 -1 0 2.738707e-01 5.721293e-01 -6.644563e-01 -3.951718e-01
39 1 4 -2.742741e+00 1.613527e+01 5.883790e+00 0 -1 0 -1.079048e-01 -6.185818e-02 7.670267e-01 -6.294443e-01
40 1 4 -2.810805e+00 1.564675e+01 6.060793e+00 0 -1 0 2.619013e-02 1.837218e-01 6.689538e-01 -7.197646e-01
41 1 2 -3.038430e+00 1.504453e+01 6.015065e+00 0 -1 0 -4.286292e-01 -4.661811e-01 6.692995e-01 3.885749e-01
42 1 4 -3.833109e+00 1.543366e+01 7.209300e+00 0 -1 0 -3.674280e-01 2.763499e-01 7.421343e-01 -4.877131e-01
43 1 3 -4.383432e+00 1.525445e+01 7.230779e+00 0 -1 0 2.956348e-01 -6.018994e-01 -5.751971e-01 4.684714e-01
44 1 2 -4.887397e+00 1.581256e+01 6.763213e+00 0 -1 0 6.290896e-02 8.315801e-01 4.724230e-01 -2.851902e-01
45 1 1 -5.124557e+00 1.509765e+01 7.142582e+00 0 -1 0 -8.270267e-01 5.307159e-01 -1.795641e-01 4.608968e-02
46 1 3 -5.398908e+00 1.487480e+01 7.817679e+00 0 -1 0 2.823712e-02 7.027204e-01 -2.224110e-01 6.752185e-01
47 1 4 -6.443217e+00 1.450888e+01 6.794558e+00 0 -1 0 -1.286892e-01 3.652469e-01 9.027779e-01 1.871518e-01
48 1 1 -6.285582e+00 1.510885e+01 7.263417e+00 0 -1 0 7.535542e-01 -3.552594e-01 -1.517951e-01 5.318883e-01
49 1 4 -7.428531e+00 1.414608e+01 6.884015e+00 0 -1 0 -1.223973e-02 -2.672363e-01 -9.301604e-01 2.514688e-01
50 1 4 -7.693961e+00 1.392311e+01 6.514310e+00 0 -1 0 5.425615e-02 -4.507899e-01 -8.580620e-01 2.399464e-01
51 1 4 -8.103609e+00 1.304771e+01 6.030149e+00 0 -1 0 -2.435636e-01 1.254766e-01 8.005577e-01 5.329537e-01
52 1 1 -8.445880e+00 1.348863e+01 6.249093e+00 0 -1 0 -5.074390e-02 -8.972035e-01 -3.840415e-01 -2.120449e-01
53 1 3 -8.769295e+00 1.279759e+01 7.169905e+00 0 -1 0 4.666503e-03 -1.264501e-01 4.835226e-01 -8.661377e-01
54 1 4 -8.744021e+00 1.251083e+01 7.585918e+00 0 -1 0 1.185652e-01 -3.897940e-02 3.779806e-01 -9.173623e-01
55 1 4 -8.772440e+00 1.239237e+01 8.032729e+00 0 -1 0 -4.985140e-01 -1.135322e-01 -2.769327e-01 8.135739e-01
56 1 4 -9.116032e+00 1.228574e+01 8.244224e+00 0 -1 0 -8.519557e-01 -1.266780e-01 -3.886381e-02 5.065706e-01
57 1 1 -9.192731e+00 1.162560e+01 8.407166e+00 0 -1 0 5.903343e-01 3.021673e-01 -4.421367e-01 -6.039168e-01
58 1 1 -9.676914e+00 1.263971e+01 8.346285e+00 0 -1 0 -2.765306e-01 1.887073e-01 -4.445408e-01 -8.308452e-01
59 1 3 -1.004484e+01 1.249828e+01 9.583665e+00 0 -1 0 -6.954242e-02 2.267842e-01 1.094501e-01 9.652738e-01
60 1 4 -9.624400e+00 1.218102e+01 1.037232e+01 0 -1 0 9.137632e-01 -3.830423e-01 -1.138179e-01 7.321847e-02
61 1 2 -9.497897e+00 1.219153e+01 1.095352e+01 0 -1 0 8.668403e-01 -3.053206e-01 8.807473e-02 3.842005e-01
62 1 3 -9.182617e+00 1.233539e+01 1.138845e+01 0 -1 0 -7.213733e-01 2.231249e-01 -2.096329e-01 -6.212004e-01
63 1 2 -8.919153e+00 1.265729e+01 1.165847e+01 0 -1 0 5.001073e-01 -7.595685e-02 4.373943e-01 7.435115e-01
64 1 4 -8.647154e+00 1.315781e+01 1.174649e+01 0 -1 0 -2.220106e-01 6.913552e-03 -5.646377e-01 -7.948885e-01
65 1 2 -8.535802e+00 1.374008e+01 1.169567e+01 0 -1 0 4.230399e-03 -3.484108e-02 -5.245275e-01 -8.506698e-01
66 1 1 -8.658632e+00 1.428450e+01 1.176853e+01 0 -1 0 1.973414e-01 -4.631293e-02 -5.876797e-01 -7.832906e-01
67 1 2 -8.934122e+00 1.467920e+01 1.166738e+01 0 -1 0 -4.798008e-01 2.222967e-01 5.497307e-01 6.466618e-01
68 1 1 -9.373612e+00 1.500808e+01 1.179333e+01 0 -1 0 7.353516e-01 -2.554337e-01 -4.673950e-01 -4.189911e-01
69 1 1 -9.776370e+00 1.514208e+01 1.210785e+01 0 -1 0 8.720331e-01 -2.623869e-01 -3.595133e-01 -2.036211e-01
70 1 2 -9.990313e+00 1.512269e+01 1.251243e+01 0 -1 0 -9.070263e-01 2.978970e-01 2.446987e-01 -1.693613e-01
71 1 3 -1.018128e+01 1.548649e+01 1.292142e+01 0 -1 0 8.772484e-01 -3.885371e-01 -7.920677e-03 2.818003e-01
72 1 4 -1.004042e+01 1.566493e+01 1.341698e+01 0 -1 0 6.906703e-01 -3.759211e-01 1.460527e-01 6.002720e-01
73 1 1 -9.949846e+00 1.604018e+01 1.375981e+01 0 -1 0 4.880230e-01 -3.797366e-01 3.040414e-01 7.247017e-01
74 1 1 -1.001611e+01 1.654259e+01 1.394501e+01 0 -1 0 2.896574e-01 -3.429602e-01 4.851899e-01 7.503783e-01
75 1 3 -1.001791e+01 1.715408e+01 1.387217e+01 0 -1 0 1.839934e-03 -2.804026e-01 5.798939e-01 7.649144e-01
76 1 1 -1.026366e+01 1.765334e+01 1.373437e+01 0 -1 0 2.824318e-01 2.066643e-01 -6.089063e-01 -7.118674e-01
77 1 4 -1.064490e+01 1.788539e+01 1.354151e+01 0 -1 0 5.565419e-01 -7.345674e-02 -6.322472e-01 -5.339744e-01
78 1 1 -1.111413e+01 1.809749e+01 1.352046e+01 0 -1 0 7.516687e-01 -1.325473e-01 -5.775929e-01 -2.895026e-01
79 1 4 -1.133682e+01 1.933052e+01 1.266154e+01 0 -1 0 9.057766e-02 9.407624e-01 2.691893e-01 -1.851997e-01
80 1 2 -1.183567e+01 1.886519e+01 1.190177e+01 0 -1 0 -1.258280e-01 -3.532388e-02 5.454254e-01 8.279074e-01
81 1 4 -1.195336e+01 1.931036e+01 1.198881e+01 0 -1 0 4.826707e-01 -1.848043e-01 -4.385621e-01 -7.352141e-01
82 1 4 -1.225954e+01 1.960307e+01 1.227546e+01 0 -1 0 7.146557e-01 -8.506300e-02 -4.010229e-01 -5.667559e-01
83 1 4 -1.264101e+01 1.966377e+01 1.262457e+01 0 -1 0 8.891144e-01 -1.638014e-01 -2.400757e-01 -3.535653e-01
84 1 4 -1.288483e+01 1.974187e+01 1.315284e+01 0 -1 0 -9.766034e-01 1.584226e-01 5.285515e-02 1.354783e-01
85 1 1 -1.327446e+01 1.951233e+01 1.397663e+01 0 -1 0 5.113463e-03 -4.879511e-01 7.860264e-01 -3.795261e-01
86 1 1 -1.358561e+01 -1.975067e+01 1.385067e+01 0 0 0 -1.407934e-01 9.750187e-01 -2.918832e-02 -1.693039e-01
87 1 3 -1.400104e+01 -1.979414e+01 1.369615e+01 0 0 0 4.896014e-01 6.761841e-01 -5.276283e-01 1.570794e-01
88 1 2 -1.465872e+01 -1.977698e+01 1.394630e+01 0 0 0 -9.002227e-01 2.716442e-01 1.213117e-01 -3.179497e-01
89 1 2 -1.460920e+01 -1.982751e+01 1.439707e+01 0 0 0 6.186181e-01 -2.209859e-01 -1.740319e-01 7.336142e-01
90 1 3 -1.479540e+01 -1.965904e+01 1.485729e+01 0 0 0 -3.022436e-01 3.587061e-01 8.626155e-02 -8.789412e-01
91 1 3 -1.575097e+01 -1.968257e+01 1.521912e+01 0 0 0 -4.634492e-01 8.602997e-02 1.856653e-01 8.621729e-01
92 1 2 -1.559434e+01 1.973781e+01 1.588810e+01 0 -1 0 -1.497395e-01 -2.406423e-02 9.877255e-01 -3.737968e-02
93 1 1 -1.553921e+01 1.997760e+01 1.643820e+01 0 -1 0 5.602564e-01 1.274261e-01 6.648656e-01 -4.773145e-01
94 1 2 -1.520619e+01 1.952731e+01 1.641313e+01 0 -1 0 -4.228823e-01 -2.738900e-01 -5.951385e-01 6.260711e-01
95 1 3 -1.540456e+01 1.905539e+01 1.650091e+01 0 -1 0 -6.063832e-01 -4.921103e-01 -5.066199e-01 3.653261e-01
96 1 2 -1.594929e+01 1.867280e+01 1.662856e+01 0 -1 0 6.793732e-01 3.260559e-01 6.571058e-01 -1.875073e-02
97 1 2 -1.544968e+01 1.833453e+01 1.650056e+01 0 -1 0 5.596754e-01 4.002646e-01 7.245493e-01 3.974793e-02
98 1 4 -1.582723e+01 1.758236e+01 1.690919e+01 0 -1 0 8.907745e-01 -1.333601e-01 4.203218e-01 -1.098427e-01
99 1 2 -1.584366e+01 1.721964e+01 1.703323e+01 0 -1 0 1.962298e-01 -9.450319e-02 7.843878e-01 -5.807743e-01
100 1 1 -1.579847e+01 1.683967e+01 1.712668e+01 0 -1 0 -4.874223e-01 -3.735528e-01 -6.823216e-01 3.966296e-01
101 2 4 -3.409980e+00 1.927460e+01 -1.874754e+01 0 -1 1 -4.567424e-01 -6.432057e-01 6.015437e-01 -1.257697e-01
102 2 3 -4.831476e+00 1.962014e+01 -1.919494e+01 0 -1 1 3.900730e-01 -1.525147e-01 -6.345924e-01 -6.495189e-01
103 2 1 -5.239646e+00 -2.007727e+01 -1.929972e+01 0 0 1 6.188347e-01 -3.690700e-01 -5.581136e-01 -4.115097e-01
104 2 3 -5.018766e+00 -2.010005e+01 1.993099e+01 0 0 0 8.345832e-01 -5.108101e-01 4.182687e-02 -2.019762e-01
105 2 3 -5.580994e+00 1.990887e+01 2.025813e+01 0 -1 0 7.610742e-01 2.359967e-01 -5.720557e-01 1.944833e-01
106 2 2 -5.984140e+00 -1.989548e+01 1.970381e+01 0 0 0 -6.039223e-01 -4.555003e-02 7.848719e-01 -1.310695e-01
107 2 3 -6.302599e+00 1.971190e+01 1.977884e+01 0 -1 0 4.899228e-01 -1.902224e-01 -7.133979e-01 4.635239e-01
108 2 4 -6.708167e+00 1.953913e+01 2.007661e+01 0 -1 0 -3.268095e-01 4.334767e-01 5.693536e-01 -6.173573e-01
109 2 3 -7.195021e+00 1.923547e+01 -2.030968e+01 0 -1 1 -1.995225e-01 -1.927295e-01 7.305648e-01 -6.239561e-01
110 2 2 -7.355315e+00 1.911136e+01 1.871209e+01 0 -1 0 -6.467403e-01 3.591891e-02 -2.788064e-01 -7.090161e-01
111 2 2 -8.487749e+00 1.820924e+01 1.851945e+01 0 -1 0 -2.869489e-01 1.105539e-01 5.345252e-01 7.872236e-01
112 2 3 -9.079154e+00 1.815644e+01 1.867930e+01 0 -1 0 -4.180862e-01 -3.046298e-01 -8.514350e-01 8.638924e-02
113 2 3 -8.615822e+00 1.937565e+01 1.851448e+01 0 -1 0 4.011519e-01 7.980234e-01 4.416066e-01 8.496728e-02
114 2 2 -8.758350e+00 2.025323e+01 1.902485e+01 0 -1 0 -4.706559e-01 -2.981723e-01 1.027361e-01 -8.240276e-01
115 2 4 -9.580974e+00 -1.992244e+01 1.847484e+01 0 0 0 -3.725613e-01 5.654698e-01 7.351829e-01 3.079112e-02
116 2 4 -1.001435e+01 -1.974913e+01 1.835439e+01 0 0 0 -2.492150e-01 8.616850e-01 4.309762e-01 -9.823577e-02
117 2 1 -1.051955e+01 1.970584e+01 1.735420e+01 0 -1 0 4.678277e-01 5.761346e-01 5.818786e-01 3.326010e-01
118 2 1 -1.017868e+01 1.957065e+01 1.702106e+01 0 -1 0 -2.898316e-01 -6.572999e-01 -3.615485e-01 -5.943376e-01
119 2 1 -1.014546e+01 1.876413e+01 1.603026e+01 0 -1 0 8.083894e-01 5.531306e-01 1.875689e-01 -7.328659e-02
120 2 1 -1.012447e+01 1.827723e+01 1.586277e+01 0 -1 0 -6.921649e-01 -6.662196e-01 6.686622e-02 -2.694218e-01
121 2 3 -9.877908e+00 1.724982e+01 1.591041e+01 0 -1 0 6.768025e-01 3.693928e-01 -6.225702e-01 1.337676e-01
122 2 1 -1.018795e+01 1.679128e+01 1.592840e+01 0 -1 0 7.430526e-01 1.922228e-01 -5.716248e-01 2.901178e-01
123 2 4 -1.158644e+01 1.722227e+01 1.539652e+01 0 -1 0 -2.292448e-01 3.145051e-01 7.091438e-01 5.879187e-01
124 2 1 -1.124916e+01 1.715365e+01 1.422079e+01 0 -1 0 6.157549e-01 3.795235e-01 6.890369e-01 -4.512266e-02
125 2 4 -1.116489e+01 1.687204e+01 1.392680e+01 0 -1 0 5.560927e-01 7.298435e-01 3.894548e-01 8.008986e-02
126 2 2 -1.101827e+01 1.672390e+01 1.339343e+01 0 -1 0 4.659359e-01 8.342054e-01 8.197551e-02 2.833463e-01
127 2 4 -1.064526e+01 1.664199e+01 1.298816e+01 0 -1 0 -2.993473e-01 -8.414825e-01 1.802271e-01 -4.120880e-01
128 2 4 -1.017525e+01 1.664330e+01 1.277429e+01 0 -1 0 8.135484e-02 7.080067e-01 -4.649159e-01 5.253200e-01
129 2 1 -9.606720e+00 1.648124e+01 1.267597e+01 0 -1 0 3.125188e-04 5.147986e-01 -6.195835e-01 5.925357e-01
130 2 2 -9.137522e+00 1.603047e+01 1.278330e+01 0 -1 0 -1.078352e-01 2.305659e-01 -7.741100e-01 5.796246e-01
131 2 3 -8.981129e+00 1.559316e+01 1.299048e+01 0 -1 0 -3.040265e-01 2.399238e-02 -8.114324e-01 4.985676e-01
132 2 4 -8.855893e+00 1.506151e+01 1.288113e+01 0 -1 0 -2.500008e-01 -1.831758e-01 -8.155162e-01 4.887531e-01
133 2 4 -9.015053e+00 1.457140e+01 1.283508e+01 0 -1 0 3.404861e-01 4.922521e-01 6.455395e-01 -4.743794e-01
134 2 3 -9.432154e+00 1.419261e+01 1.267926e+01 0 -1 0 4.173269e-01 7.469772e-01 4.360369e-01 -2.788102e-01
135 2 4 -9.580288e+00 1.383657e+01 1.233012e+01 0 -1 0 3.575546e-01 8.579996e-01 3.316013e-01 -1.613444e-01
136 2 3 -9.738663e+00 1.363850e+01 1.186889e+01 0 -1 0 -3.820931e-01 -9.202396e-01 -8.302071e-02 1.647665e-02
137 2 1 -9.651431e+00 1.363414e+01 1.144042e+01 0 -1 0 -2.774243e-01 -8.909639e-01 3.461095e-01 -9.709448e-02
138 2 3 -9.465989e+00 1.342919e+01 1.098226e+01 0 -1 0 -1.722801e-01 -8.859145e-01 3.621869e-01 -2.330145e-01
139 2 2 -9.100750e+00 1.329385e+01 1.065640e+01 0 -1 0 -1.275003e-01 -6.499771e-01 6.841112e-01 -3.053937e-01
140 2 3 -8.734861e+00 1.297927e+01 1.039915e+01 0 -1 0 1.043308e-01 4.300645e-01 -8.020778e-01 4.010371e-01
141 2 1 -8.486893e+00 1.258902e+01 1.038705e+01 0 -1 0 -8.192789e-02 1.810626e-01 -9.054690e-01 3.750067e-01
142 2 2 -8.500437e+00 1.204259e+01 1.027006e+01 0 -1 0 -2.097901e-01 -2.161113e-01 -9.180056e-01 2.579723e-01
143 2 4 -8.466755e+00 1.155455e+01 1.006742e+01 0 -1 0 4.296185e-01 4.240592e-01 7.964903e-01 3.471138e-02
144 2 4 -8.226469e+00 1.132568e+01 9.639902e+00 0 -1 0 -3.840191e-01 -6.318442e-01 -6.190078e-01 -2.648236e-01
145 2 1 -7.519408e+00 1.109952e+01 1.034627e+01 0 -1 0 1.518568e-01 6.919137e-01 2.896528e-01 6.436584e-01
146 2 1 -7.411062e+00 9.646975e+00 1.065519e+01 0 -1 0 -9.719799e-01 -8.739107e-02 2.071523e-01 6.859896e-02
147 2 1 -7.423952e+00 9.424754e+00 1.109048e+01 0 -1 0 8.909220e-01 -8.832574e-02 -1.444453e-01 4.214168e-01
148 2 2 -7.447760e+00 9.400258e+00 1.159037e+01 0 -1 0 7.222300e-01 -2.496467e-01 -4.003545e-03 6.450150e-01
149 2 4 -7.328758e+00 9.668486e+00 1.200389e+01 0 -1 0 -3.074077e-01 3.280784e-01 -4.459648e-02 -8.921189e-01
150 2 1 -6.686940e+00 9.017337e+00 1.180922e+01 0 -1 0 2.132140e-01 9.636606e-01 6.682237e-02 1.463993e-01
151 2 1 -6.460751e+00 8.929054e+00 1.134960e+01 0 -1 0 1.716859e-01 9.502437e-01 -4.573314e-02 2.558696e-01
152 2 1 -5.839563e+00 8.928664e+00 1.187118e+01 0 -1 0 -4.725839e-01 -3.497545e-01 3.534344e-01 -7.276128e-01
153 2 4 -5.497156e+00 8.855721e+00 1.202163e+01 0 -1 0 -3.404353e-02 -3.305636e-01 3.157863e-01 -8.887338e-01
154 2 1 -5.253230e+00 8.574299e+00 1.235687e+01 0 -1 0 -2.339751e-02 -2.147902e-01 1.976940e-01 -9.561563e-01
155 2 2 -5.241964e+00 8.538606e+00 1.280069e+01 0 -1 0 -5.443835e-01 1.631184e-01 -3.827317e-01 7.283924e-01
156 2 4 -4.520616e+00 9.251390e+00 1.357663e+01 0 -1 0 -4.397361e-01 3.328866e-01 5.755000e-01 -6.038364e-01
157 2 3 -4.889698e+00 9.176119e+00 1.380006e+01 0 -1 0 -3.066911e-01 4.744382e-01 3.611625e-01 -7.418966e-01
158 2 2 -4.692551e+00 7.956335e+00 1.350369e+01 0 -1 0 -9.359645e-01 -2.069944e-01 6.820144e-02 -2.765364e-01
159 2 1 -5.152994e+00 7.215330e+00 1.356548e+01 0 -1 0 -7.394485e-01 2.800558e-01 -5.479774e-01 -2.729569e-01
160 2 3 -5.433265e+00 7.005483e+00 1.413180e+01 0 -1 0 2.539349e-01 5.078106e-01 7.502079e-01 -3.388710e-01
161 2 1 -5.566353e+00 6.713053e+00 1.379530e+01 0 -1 0 2.693143e-01 8.482799e-01 4.393976e-01 -1.217402e-01
162 2 1 -6.235483e+00 6.740048e+00 1.489735e+01 0 -1 0 2.802978e-01 -6.677212e-01 -6.566201e-01 2.107881e-01
163 2 4 -6.953054e+00 6.132441e+00 1.477281e+01 0 -1 0 9.696187e-02 1.586521e-01 -5.504501e-02 -9.810188e-01
164 2 4 -6.125019e+00 5.747788e+00 1.591115e+01 0 -1 0 2.260408e-01 -8.850615e-01 2.445804e-01 -3.251954e-01
165 2 3 -6.445142e+00 4.436613e+00 1.566354e+01 0 -1 0 4.505107e-01 4.963007e-01 -7.419608e-01 -1.483049e-02
166 2 3 -6.689910e+00 4.016513e+00 1.558329e+01 0 -1 0 -6.458683e-01 -3.789893e-01 -2.750360e-01 6.029730e-01
167 2 4 -6.938064e+00 3.610783e+00 1.547339e+01 0 -1 0 -8.956843e-01 -3.983999e-01 7.646045e-02 1.821562e-01
168 2 2 -7.092343e+00 3.192555e+00 1.553058e+01 0 -1 0 8.422380e-01 4.696316e-01 -2.397042e-01 1.123527e-01
169 2 2 -7.524590e+00 2.846748e+00 1.637695e+01 0 -1 0 -3.290341e-01 9.220794e-02 8.985322e-01 2.754526e-01
170 2 1 -8.042133e+00 2.791052e+00 1.613182e+01 0 -1 0 -3.856530e-01 5.737415e-01 7.132306e-01 1.157351e-01
171 2 1 -8.001215e+00 1.864419e+00 1.564150e+01 0 -1 0 5.402787e-01 4.792514e-01 -1.598901e-01 -6.729429e-01
172 2 4 -8.730400e+00 1.943706e+00 1.597301e+01 0 -1 0 -1.332372e-01 -4.056231e-01 -4.872904e-03 9.042643e-01
173 2 4 -8.915518e+00 1.779542e+00 1.597348e+01 0 -1 0 -2.473497e-01 -4.495840e-01 3.401542e-01 -7.880276e-01
174 2 1 -9.792511e+00 1.725811e+00 1.582535e+01 0 -1 0 -3.486586e-01 3.921160e-01 -4.548066e-01 7.196063e-01
175 2 1 -9.741658e+00 1.971868e+00 1.464748e+01 0 -1 0 -7.975005e-01 1.521269e-02 -4.691733e-01 3.789959e-01
176 2 2 -9.934176e+00 3.109683e+00 1.431630e+01 0 -1 0 1.126650e-01 -4.081451e-01 -8.224200e-01 -3.799336e-01
177 2 2 -1.056623e+01 2.885013e+00 1.384679e+01 0 -1 0 1.588391e-01 3.553684e-01 6.328037e-01 -6.693600e-01
178 2 1 -1.066233e+01 2.497006e+00 1.347063e+01 0 -1 0 7.734543e-01 -2.641676e-01 -3.148121e-01 -4.825735e-01
179 2 4 -1.133875e+01 3.277069e+00 1.251067e+01 0 -1 0 1.543447e-01 4.119192e-01 7.831422e-01 4.395322e-01
180 2 1 -1.109235e+01 3.465610e+00 1.213959e+01 0 -1 0 -4.776442e-01 3.480669e-01 8.198762e-02 -8.024858e-01
181 2 4 -1.093989e+01 3.245886e+00 1.152881e+01 0 -1 0 9.682803e-01 9.550697e-02 8.087572e-02 2.162655e-01
182 2 2 -1.192783e+01 3.168202e+00 1.119954e+01 0 -1 0 -6.278438e-01 1.822643e-01 -3.398318e-01 6.760963e-01
183 2 3 -1.151185e+01 3.867701e+00 1.064449e+01 0 -1 0 8.627728e-01 1.748649e-01 -4.697630e-01 -6.609078e-02
184 2 4 -1.214717e+01 4.282913e+00 1.051199e+01 0 -1 0 2.187767e-01 8.275375e-01 -2.709997e-01 4.403153e-01
185 2 3 -1.326387e+01 3.992296e+00 9.490737e+00 0 -1 0 3.941236e-01 1.789466e-01 1.893317e-01 -8.813616e-01
186 2 1 -1.367549e+01 3.850898e+00 9.845298e+00 0 -1 0 7.035476e-01 2.521941e-01 2.475800e-01 -6.165412e-01
187 2 1 -1.443304e+01 3.556859e+00 1.067789e+01 0 -1 0 5.624512e-01 -1.832708e-01 -7.098873e-01 -3.822570e-01
188 2 2 -1.458839e+01 4.540806e+00 1.110089e+01 0 -1 0 5.214583e-01 -4.365395e-01 -4.996716e-01 5.365099e-01
189 2 4 -1.533878e+01 4.113300e+00 1.066972e+01 0 -1 0 7.407503e-01 5.481628e-01 1.586704e-01 -3.544436e-01
190 2 4 -1.545874e+01 3.630414e+00 1.053187e+01 0 -1 0 7.407587e-01 6.643903e-01 -7.200408e-02 -6.839170e-02
191 2 1 -1.583001e+01 3.260043e+00 1.144766e+01 0 -1 0 8.491745e-01 -1.190352e-01 5.110300e-01 -5.984593e-02
192 2 4 -1.545451e+01 3.007898e+00 1.170320e+01 0 -1 0 8.268048e-01 1.298644e-01 5.143944e-01 1.868887e-01
193 2 4 -1.608436e+01 2.860935e+00 1.301721e+01 0 -1 0 8.068516e-01 -3.128281e-01 1.583575e-01 -4.754493e-01
194 2 1 -1.601811e+01 2.782439e+00 1.355872e+01 0 -1 0 9.251398e-01 -1.598542e-01 2.890775e-01 -1.870751e-01
195 2 3 -1.640451e+01 3.670687e+00 1.424590e+01 0 -1 0 2.459793e-01 3.642084e-02 2.009248e-01 9.475215e-01
196 2 4 -1.598201e+01 3.136948e+00 1.456617e+01 0 -1 0 -1.325357e-01 1.509190e-01 -2.086695e-01 -9.571388e-01
197 2 2 -1.620134e+01 2.079355e+00 1.443617e+01 0 -1 0 4.469891e-01 7.028720e-01 -1.082289e-01 -5.426401e-01
198 2 4 -1.537150e+01 1.710795e+00 1.505597e+01 0 -1 0 -7.043883e-01 3.211885e-01 -2.966023e-01 -5.591978e-01
199 2 3 -1.504417e+01 2.070362e+00 1.519897e+01 0 -1 0 3.170446e-01 -2.216304e-01 2.733460e-01 8.807069e-01
200 2 4 -1.503557e+01 2.510653e+00 1.518326e+01 0 -1 0 -1.045275e-01 5.021363e-02 3.607640e-01 9.254199e-01
