ITEM: TIMESTEP
224000000
ITEM: NUMBER OF ATOMS
200
ITEM: BOX BOUNDS pp pp pp
-2.0000000000000000e+01 2.0000000000000000e+01
-2.0000000000000000e+01 2.0000000000000000e+01
-2.0000000000000000e+01 2.0000000000000000e+01
ITEM: ATOMS id mol type x y z ix iy iz c_quat[1] c_quat[2] c_quat[3] c_quat[4]
1 1 1 1.553250e+01 1.450490e+01 1.993608e+00 -1 -1 0 -8.607671e-01 1.409490e-01 4.353266e-01 2.229441e-01
2 1 2 1.565347e+01 1.551667e+01 2.487862e+00 -1 -1 0 2.145169e-01 -4.933290e-01 4.898451e-01 -6.860472e-01
3 1 1 1.592039e+01 1.525064e+01 2.802022e+00 -1 -1 0 5.197131e-01 -1.330970e-01 6.727024e-01 -5.095635e-01
4 1 3 1.615420e+01 1.483169e+01 2.991692e+00 -1 -1 0 6.024474e-01 1.838923e-01 7.388685e-01 -2.394034e-01
5 1 1 1.624595e+01 1.430608e+01 2.823322e+00 -1 -1 0 -6.105973e-01 -4.615351e-01 -6.426840e-01 3.337078e-02
6 1 2 1.714632e+01 1.327586e+01 3.280237e+00 -1 -1 0 -9.750226e-01 1.683744e-01 1.447958e-01 3.900970e-03
7 1 4 1.690892e+01 1.272823e+01 3.365889e+00 -1 -1 0 3.647886e-02 6.579923e-01 -5.285978e-01 5.350700e-01
8 1 1 1.632479e+01 1.216114e+01 2.740795e+00 -1 -1 0 -3.705994e-01 -7.075103e-01 -2.555872e-01 5.447572e-01
9 1 1 1.574462e+01 1.225966e+01 3.936506e+00 -1 -1 0 1.679383e-03 -3.360297e-01 2.806030e-01 -8.990791e-01
10 1 4 1.564288e+01 1.141695e+01 4.428490e+00 -1 -1 0 5.266262e-01 -1.732178e-01 6.597040e-01 -5.073964e-01
11 1 1 1.587785e+01 1.098645e+01 4.565478e+00 -1 -1 0 -6.695470e-01 -1.064458e-01 -7.160392e-01 1.663251e-01
12 1 1 1.615596e+01 1.054492e+01 4.570223e+00 -1 -1 0 -6.962855e-01 -3.388457e-01 -6.326404e-01 1.167380e-02
13 1 3 1.637157e+01 1.023897e+01 4.264520e+00 -1 -1 0 -6.082488e-01 -6.289959e-01 -3.847015e-01 -2.939426e-01
14 1 4 1.718305e+01 9.872104e+00 4.302746e+00 -1 -1 0 -6.263967e-01 -6.305778e-01 2.395607e-01 3.906527e-01
15 1 4 1.781945e+01 9.271194e+00 4.313969e+00 -1 -1 0 2.882848e-01 7.096300e-01 -6.386122e-01 7.410510e-02
16 1 2 1.813030e+01 9.833445e+00 4.850057e+00 -1 -1 0 4.390596e-01 2.699536e-01 -7.761163e-01 3.633114e-01
17 1 1 1.817206e+01 9.384577e+00 4.850673e+00 -1 -1 0 1.805073e-01 -1.052452e-01 -8.879918e-01 4.096475e-01
18 1 2 1.842591e+01 8.840581e+00 4.564732e+00 -1 -1 0 5.258818e-01 6.675283e-02 -6.957538e-01 4.846845e-01
19 1 3 1.836884e+01 8.880797e+00 3.569807e+00 -1 -1 0 3.830008e-03 9.100331e-01 -3.934430e-01 1.304904e-01
20 1 1 1.775367e+01 8.044250e+00 2.685926e+00 -1 -1 0 -6.478854e-01 5.449092e-02 -7.461142e-01 1.434882e-01
21 1 4 1.809270e+01 7.612150e+00 2.518422e+00 -1 -1 0 -5.998407e-01 -3.159450e-01 -7.071470e-01 -2.007809e-01
22 1 1 1.795762e+01 7.580871e+00 3.954997e+00 -1 -1 0 7.763134e-01 -3.876576e-01 -3.472158e-01 3.556688e-01
23 1 4 1.725306e+01 8.206062e+00 3.862884e+00 -1 -1 0 -4.370512e-01 8.115442e-01 2.876505e-01 -2.600757e-01
24 1 3 1.676944e+01 7.445615e+00 2.897846e+00 -1 -1 0 4.585544e-01 5.604651e-01 5.912694e-01 3.549750e-01
25 1 3 1.664056e+01 6.327285e+00 4.112521e+00 -1 -1 0 -4.727172e-01 5.406231e-01 -2.418060e-01 6.525297e-01
26 1 4 1.712099e+01 6.411116e+00 4.399830e+00 -1 -1 0 5.414585e-01 -3.846125e-01 4.243084e-01 -6.155147e-01
27 1 4 1.731715e+01 6.248913e+00 4.788551e+00 -1 -1 0 7.863518e-01 -2.059675e-01 5.022296e-01 -2.949469e-01
28 1 1 1.779797e+01 6.011958e+00 4.783582e+00 -1 -1 0 6.523772e-01 -8.529405e-03 7.532717e-01 8.314428e-02
29 1 1 1.783543e+01 5.132965e+00 5.272443e+00 -1 -1 0 -8.378011e-01 3.379787e-02 -3.544207e-01 4.139239e-01
30 1 4 1.771556e+01 4.846638e+00 5.693237e+00 -1 -1 0 3.010046e-02 3.476275e-01 -6.156746e-01 7.065366e-01
31 1 4 1.838031e+01 4.004236e+00 5.149692e+00 -1 -1 0 -8.827419e-01 -2.816477e-02 4.686194e-01 -1.921746e-02
32 1 3 1.873299e+01 4.175723e+00 4.846695e+00 -1 -1 0 -5.718143e-01 7.770990e-01 2.384815e-01 1.107801e-01
33 1 3 1.843002e+01 3.790285e+00 4.266008e+00 -1 -1 0 -2.901074e-01 5.642576e-01 5.954668e-01 -4.928188e-01
34 1 1 1.892397e+01 3.580416e+00 4.582714e+00 -1 -1 0 -1.443637e-01 4.010975e-01 -2.889085e-02 9.041268e-01
35 1 2 1.995418e+01 3.269243e+00 4.565253e+00 -1 -1 0 -8.329274e-01 -5.298464e-01 -4.348809e-02 -1.536345e-01
36 1 2 -1.973360e+01 2.927716e+00 4.455676e+00 0 -1 0 -6.562391e-01 -4.789094e-01 2.824903e-01 -5.100934e-01
37 1 1 -1.943625e+01 2.725432e+00 4.681999e+00 0 -1 0 -3.142628e-01 -3.001052e-01 5.571001e-01 -7.076830e-01
38 1 1 -1.932109e+01 2.481641e+00 5.067136e+00 0 -1 0 -1.566577e-01 1.015367e-01 -6.443635e-01 7.415823e-01
39 1 4 -1.929828e+01 2.158626e+00 5.445222e+00 0 -1 0 -3.951383e-01 -1.281619e-01 -6.213261e-01 6.643750e-01
40 1 4 -1.916612e+01 2.979380e+00 6.005229e+00 0 -1 0 7.625341e-02 -5.319317e-01 -1.644267e-01 8.271626e-01
41 1 2 -1.786204e+01 2.903511e+00 6.391474e+00 0 -1 0 -2.743597e-01 -9.005686e-01 1.818860e-01 -2.839375e-01
42 1 4 -1.825444e+01 3.008282e+00 6.181886e+00 0 -1 0 6.814625e-01 -5.017006e-01 2.019303e-01 -4.930816e-01
43 1 3 -1.765696e+01 3.270371e+00 6.450750e+00 0 -1 0 -5.898747e-01 4.164816e-01 -5.912803e-01 3.591358e-01
44 1 2 -1.718312e+01 3.113964e+00 6.484374e+00 0 -1 0 6.043353e-01 -1.616696e-01 6.460371e-01 -4.373532e-01
45 1 1 -1.727162e+01 4.410799e+00 6.738250e+00 0 -1 0 -2.051490e-01 -1.877274e-01 -5.179725e-01 -8.089356e-01
46 1 3 -1.633074e+01 4.906565e+00 7.715951e+00 0 -1 0 -3.962117e-01 9.087597e-01 -7.744797e-02 1.057071e-01
47 1 4 -1.604808e+01 5.331540e+00 7.602823e+00 0 -1 0 4.205267e-01 -7.785708e-01 4.631898e-01 4.939595e-02
48 1 1 -1.664070e+01 5.787671e+00 6.890575e+00 0 -1 0 7.980204e-02 7.940211e-01 4.118367e-01 4.399462e-01
49 1 4 -1.615845e+01 4.668966e+00 6.961135e+00 0 -1 0 -8.494245e-02 6.846405e-01 -3.013973e-01 6.581883e-01
50 1 4 -1.606311e+01 4.163925e+00 5.778979e+00 0 -1 0 -9.638619e-01 1.261531e-01 9.591675e-02 2.141394e-01
51 1 4 -1.603464e+01 4.961677e+00 5.518758e+00 0 -1 0 -1.482436e-01 3.541743e-01 8.567670e-01 3.442886e-01
52 1 1 -1.535838e+01 5.432719e+00 6.166127e+00 0 -1 0 -4.462131e-01 5.381671e-01 3.253706e-01 6.367134e-01
53 1 3 -1.549930e+01 5.848892e+00 6.311488e+00 0 -1 0 6.024787e-01 -6.795948e-01 -1.023408e-01 -4.058283e-01
54 1 4 -1.539728e+01 6.258573e+00 6.620416e+00 0 -1 0 -7.800596e-01 5.779084e-01 -1.667711e-01 1.723843e-01
55 1 4 -1.518429e+01 6.529131e+00 7.055191e+00 0 -1 0 -7.772329e-01 4.660020e-01 -4.068310e-01 -1.150636e-01
56 1 4 -1.477646e+01 6.984808e+00 7.125990e+00 0 -1 0 -6.497677e-01 4.781184e-01 -5.562350e-01 -1.995180e-01
57 1 1 -1.430073e+01 7.242003e+00 7.154626e+00 0 -1 0 -5.489852e-01 3.748146e-01 -7.002207e-01 -2.604231e-01
58 1 1 -1.385486e+01 7.402099e+00 6.910322e+00 0 -1 0 3.744821e-01 -7.717628e-02 8.381752e-01 3.889335e-01
59 1 3 -1.346618e+01 7.488571e+00 6.597167e+00 0 -1 0 -2.731219e-01 -1.225319e-01 -7.782442e-01 -5.520203e-01
60 1 4 -1.320036e+01 7.953504e+00 6.142869e+00 0 -1 0 9.316477e-02 1.568666e-01 6.751904e-01 7.147245e-01
61 1 2 -1.328119e+01 8.401009e+00 5.907294e+00 0 -1 0 -2.680249e-01 4.584988e-01 5.391615e-01 6.536409e-01
62 1 3 -1.349331e+01 8.882279e+00 5.786495e+00 0 -1 0 5.260923e-01 -5.332445e-01 -4.384543e-01 -4.966236e-01
63 1 2 -1.366518e+01 9.429558e+00 5.962908e+00 0 -1 0 -6.746060e-01 6.534805e-01 1.606786e-01 3.034014e-01
64 1 4 -1.364554e+01 9.825389e+00 6.289552e+00 0 -1 0 8.352455e-01 -5.297868e-01 2.590040e-02 -1.449826e-01
65 1 2 -1.359069e+01 1.000879e+01 6.752807e+00 0 -1 0 8.204171e-01 -5.225465e-01 2.105310e-01 9.766118e-02
66 1 1 -1.327716e+01 1.024804e+01 7.144523e+00 0 -1 0 7.262542e-01 -4.570790e-01 3.534371e-01 3.724457e-01
67 1 2 -1.285392e+01 1.056693e+01 7.194791e+00 0 -1 0 -5.387480e-01 2.730122e-01 -5.305711e-01 -5.947346e-01
68 1 1 -1.255935e+01 1.112027e+01 7.154641e+00 0 -1 0 3.766019e-01 -3.120469e-01 6.738061e-01 5.538800e-01
69 1 1 -1.235068e+01 1.146334e+01 6.902681e+00 0 -1 0 1.901035e-01 -3.123199e-02 7.662281e-01 6.130087e-01
70 1 2 -1.243406e+01 1.217871e+01 6.796239e+00 0 -1 0 1.181105e-01 -9.679283e-02 -4.704453e-01 -8.691158e-01
71 1 3 -1.104187e+01 1.208405e+01 7.096181e+00 0 -1 0 -6.494109e-01 -1.432858e-01 6.314886e-01 -3.986940e-01
72 1 4 -1.039289e+01 1.151499e+01 6.918442e+00 0 -1 0 -9.107158e-01 2.341939e-01 -2.803373e-02 -3.390636e-01
73 1 1 -1.010104e+01 1.156296e+01 7.323603e+00 0 -1 0 -6.191415e-01 1.652264e-01 -3.770159e-02 -7.667742e-01
74 1 1 -9.826965e+00 1.165163e+01 7.716862e+00 0 -1 0 2.256418e-01 -9.334740e-02 -3.303661e-02 9.691649e-01
75 1 3 -8.656994e+00 1.081363e+01 7.914801e+00 0 -1 0 6.106882e-01 -4.857975e-01 6.172438e-01 -1.003535e-01
76 1 1 -8.161742e+00 1.075256e+01 8.024217e+00 0 -1 0 6.412420e-01 -1.129707e-01 7.460862e-01 1.392898e-01
77 1 4 -8.429103e+00 1.006501e+01 8.242156e+00 0 -1 0 6.995192e-01 -1.587263e-01 6.910957e-01 8.868891e-02
78 1 1 -7.981232e+00 9.976623e+00 8.187874e+00 0 -1 0 -5.453070e-01 -1.418705e-01 -6.086326e-01 -5.586408e-01
79 1 4 -7.574761e+00 1.021698e+01 8.045780e+00 0 -1 0 2.275392e-01 3.880653e-01 4.452093e-01 7.742221e-01
80 1 2 -7.214183e+00 1.061556e+01 8.209055e+00 0 -1 0 -1.735664e-01 4.629787e-01 3.213175e-02 8.686156e-01
81 1 4 -6.405151e+00 1.077428e+01 7.877325e+00 0 -1 0 4.122558e-01 2.612786e-01 -5.906540e-01 6.425780e-01
82 1 4 -6.407619e+00 1.008280e+01 6.574837e+00 0 -1 0 -2.222224e-02 6.554976e-01 -7.536710e-01 -4.253388e-02
83 1 4 -6.996382e+00 1.088784e+01 5.634936e+00 0 -1 0 -4.541252e-01 -4.752141e-01 -1.269505e-02 7.535123e-01
84 1 4 -7.386974e+00 1.097917e+01 6.151061e+00 0 -1 0 4.727318e-01 1.025248e-01 8.747066e-01 3.002968e-02
85 1 1 -7.811497e+00 1.128885e+01 6.716581e+00 0 -1 0 -4.459778e-01 -2.469754e-01 6.538411e-01 -5.591054e-01
86 1 1 -7.992263e+00 1.244896e+01 5.770388e+00 0 -1 0 3.472032e-01 8.752087e-01 3.367917e-01 -5.571060e-03
87 1 3 -7.576739e+00 1.233280e+01 5.268757e+00 0 -1 0 -7.155932e-01 3.173854e-01 -1.672245e-01 -5.993571e-01
88 1 2 -7.200751e+00 1.193183e+01 4.910729e+00 0 -1 0 4.938624e-01 5.178251e-01 -6.936793e-01 -8.225594e-02
89 1 2 -7.844461e+00 1.276210e+01 3.845288e+00 0 -1 0 -2.161052e-01 -6.506717e-01 2.213351e-01 6.934952e-01
90 1 3 -8.240933e+00 1.284801e+01 3.604515e+00 0 -1 0 5.166502e-01 4.486541e-01 -5.300998e-01 -5.007757e-01
91 1 3 -7.973191e+00 1.402902e+01 3.907440e+00 0 -1 0 6.061773e-01 7.291232e-01 3.048363e-01 8.946123e-02
92 1 2 -8.511706e+00 1.388181e+01 4.338773e+00 0 -1 0 -8.382952e-01 -4.137441e-01 -2.022929e-01 -2.918125e-01
93 1 1 -9.140642e+00 1.410849e+01 5.071402e+00 0 -1 0 -5.431366e-01 -4.771603e-02 4.072111e-01 7.327380e-01
94 1 2 -9.562407e+00 1.416307e+01 5.739258e+00 0 -1 0 -7.185595e-01 4.129881e-01 -6.993843e-02 5.551772e-01
95 1 3 -1.015475e+01 1.412769e+01 5.169479e+00 0 -1 0 6.481632e-01 -3.863280e-01 -1.129144e-01 -6.464406e-01
96 1 2 -9.539708e+00 1.525477e+01 4.801642e+00 0 -1 0 -4.686831e-01 8.052963e-01 2.712851e-01 2.413262e-01
97 1 2 -9.599315e+00 1.572068e+01 4.831109e+00 0 -1 0 -5.156752e-01 8.548471e-01 -4.641146e-02 3.407985e-02
98 1 4 -1.001379e+01 1.591250e+01 4.490731e+00 0 -1 0 -8.465385e-01 2.949477e-01 3.702783e-01 2.434593e-01
99 1 2 -1.004217e+01 1.595891e+01 3.127670e+00 0 -1 0 -4.576417e-01 -5.375644e-01 -3.317040e-01 6.257484e-01
100 1 1 -1.034398e+01 1.554168e+01 2.972651e+00 0 -1 0 7.696286e-01 5.586063e-01 2.153688e-01 -2.219171e-01
101 2 4 -1.981970e+01 1.085372e+01 1.226857e+01 0 -1 0 -8.607569e-03 -9.521296e-01 3.045286e-01 -2.525039e-02
102 2 3 -1.968764e+01 1.119483e+01 1.252364e+01 0 -1 0 -3.035753e-01 5.616447e-01 -4.263515e-01 -6.407976e-01
103 2 1 -1.982249e+01 1.117608e+01 1.328817e+01 0 -1 0 5.323993e-01 -9.062943e-02 -2.521847e-01 -8.029571e-01
104 2 3 -1.913925e+01 1.020746e+01 1.349770e+01 0 -1 0 8.746631e-01 -4.286730e-02 -9.407895e-02 -4.735779e-01
105 2 3 -1.934996e+01 1.015936e+01 1.395649e+01 0 -1 0 9.951813e-01 -6.470474e-02 1.319932e-02 -7.247867e-02
106 2 2 -1.932321e+01 1.008793e+01 1.448715e+01 0 -1 0 9.465823e-01 -3.191641e-02 8.556505e-02 3.092603e-01
107 2 3 -1.905360e+01 9.880538e+00 1.479115e+01 0 -1 0 -7.466481e-01 4.855802e-02 3.210570e-02 -6.626673e-01
108 2 4 -1.877187e+01 9.785961e+00 1.523412e+01 0 -1 0 -4.251058e-01 -9.228488e-03 -2.050095e-02 -9.048644e-01
109 2 3 -1.822167e+01 9.588480e+00 1.507196e+01 0 -1 0 -7.690020e-01 9.663024e-02 5.094436e-01 -3.738526e-01
110 2 2 -1.875156e+01 8.523843e+00 1.488676e+01 0 -1 0 -5.283315e-01 1.939722e-01 -5.381937e-01 6.273661e-01
111 2 2 -1.868313e+01 8.737243e+00 1.421102e+01 0 -1 0 -2.061561e-01 -3.643202e-01 8.875241e-01 -1.925395e-01
112 2 3 -1.865403e+01 8.319372e+00 1.397542e+01 0 -1 0 9.131898e-02 1.092174e-02 -9.662406e-01 2.406670e-01
113 2 3 -1.775798e+01 7.803954e+00 1.394462e+01 0 -1 0 3.020034e-02 3.812915e-01 -8.582631e-01 3.421829e-01
114 2 2 -1.765140e+01 7.421110e+00 1.379511e+01 0 -1 0 -1.919858e-01 -4.486069e-02 -8.339316e-01 5.154484e-01
115 2 4 -1.726638e+01 7.213790e+00 1.271244e+01 0 -1 0 6.340298e-01 2.489473e-01 -4.418261e-01 -5.837989e-01
116 2 4 -1.689577e+01 8.332023e+00 1.307174e+01 0 -1 0 -2.520803e-01 4.766418e-01 -1.434999e-01 8.298650e-01
117 2 1 -1.580186e+01 8.890380e+00 1.221089e+01 0 -1 0 5.984459e-01 3.102273e-02 1.434742e-01 7.876010e-01
118 2 1 -1.598636e+01 9.344542e+00 1.183423e+01 0 -1 0 7.125872e-01 3.404129e-01 3.680361e-01 4.908034e-01
119 2 1 -1.604790e+01 9.858474e+00 1.181126e+01 0 -1 0 7.867782e-01 -2.310933e-01 4.152236e-01 3.939102e-01
120 2 1 -1.698246e+01 1.024001e+01 1.179175e+01 0 -1 0 -6.966752e-01 -2.652242e-01 -6.411046e-01 1.824409e-01
121 2 3 -1.709061e+01 1.013318e+01 1.138021e+01 0 -1 0 9.613598e-01 1.888913e-01 1.676228e-01 -1.095904e-01
122 2 1 -1.671749e+01 1.038934e+01 1.087314e+01 0 -1 0 4.007674e-01 4.286440e-01 -5.144327e-01 -6.253070e-01
123 2 4 -1.724639e+01 1.036707e+01 1.065784e+01 0 -1 0 -6.262658e-01 -1.934893e-01 6.526231e-01 3.800475e-01
124 2 1 -1.698465e+01 1.169042e+01 1.002533e+01 0 -1 0 -2.969637e-01 -9.531839e-01 -4.275975e-02 -3.774288e-02
125 2 4 -1.683539e+01 1.159161e+01 9.527385e+00 0 -1 0 -2.250292e-01 -9.406615e-01 2.009593e-01 -1.553483e-01
126 2 2 -1.647161e+01 1.151330e+01 9.140288e+00 0 -1 0 -2.456404e-01 -7.658390e-01 5.394558e-01 -2.492767e-01
127 2 4 -1.616472e+01 1.124641e+01 8.504617e+00 0 -1 0 8.463600e-01 -5.311095e-01 3.980108e-02 3.650954e-03
128 2 4 -1.608211e+01 1.138535e+01 7.872600e+00 0 -1 0 -6.235436e-01 -3.028230e-01 5.750325e-01 4.345449e-01
129 2 1 -1.541268e+01 1.144582e+01 7.643453e+00 0 -1 0 -8.579600e-01 1.110994e-01 2.227255e-01 -4.493939e-01
130 2 2 -1.507404e+01 1.117117e+01 6.821581e+00 0 -1 0 -8.248648e-01 -3.497672e-01 3.437875e-01 2.811959e-01
131 2 3 -1.461296e+01 1.220645e+01 6.948619e+00 0 -1 0 4.844619e-01 -6.064084e-01 -4.919174e-01 3.944399e-01
132 2 4 -1.348667e+01 1.170059e+01 6.533039e+00 0 -1 0 6.892010e-01 7.126116e-01 -1.309317e-01 6.607664e-03
133 2 4 -1.333671e+01 1.118932e+01 6.275345e+00 0 -1 0 -6.140423e-01 -6.749499e-01 3.122178e-01 -2.644140e-01
134 2 3 -1.305613e+01 1.084642e+01 6.047805e+00 0 -1 0 -4.330113e-01 -6.095715e-01 4.690965e-01 -4.699705e-01
135 2 4 -1.272959e+01 1.042299e+01 6.022195e+00 0 -1 0 -3.360562e-01 -3.905533e-01 6.238180e-01 -5.876950e-01
136 2 3 -1.251293e+01 9.959418e+00 6.227763e+00 0 -1 0 1.945482e-01 1.590310e-01 -6.856085e-01 6.832285e-01
137 2 1 -1.249208e+01 9.430662e+00 6.443560e+00 0 -1 0 1.237753e-01 -1.465384e-01 -6.675700e-01 7.194140e-01
138 2 3 -1.283003e+01 9.082075e+00 6.742650e+00 0 -1 0 -8.112858e-02 -3.922762e-01 -5.661648e-01 7.204130e-01
139 2 2 -1.329664e+01 8.949259e+00 6.978165e+00 0 -1 0 -3.246684e-01 -5.750144e-01 -3.075174e-01 6.851145e-01
140 2 3 -1.378875e+01 8.695574e+00 6.968575e+00 0 -1 0 4.562173e-01 6.918993e-01 1.224775e-01 -5.460224e-01
141 2 1 -1.416778e+01 8.458394e+00 6.654671e+00 0 -1 0 5.526381e-01 7.433096e-01 -8.224055e-02 -3.678566e-01
142 2 2 -1.444149e+01 8.196806e+00 6.273012e+00 0 -1 0 6.119884e-01 6.964778e-01 -3.618324e-01 -9.729449e-02
143 2 4 -1.459531e+01 7.694670e+00 6.055126e+00 0 -1 0 6.650259e-01 5.425858e-01 -4.763975e-01 1.907527e-01
144 2 4 -1.460094e+01 7.129249e+00 6.012069e+00 0 -1 0 6.689270e-01 4.739679e-01 -4.451922e-01 3.601321e-01
145 2 1 -1.445250e+01 6.633177e+00 6.052877e+00 0 -1 0 -5.222308e-01 -2.274287e-01 6.085727e-01 -5.524404e-01
146 2 1 -1.426733e+01 6.195364e+00 6.447407e+00 0 -1 0 -2.723738e-01 -1.993046e-02 6.875705e-01 -6.728017e-01
147 2 1 -1.436831e+01 5.775794e+00 6.816882e+00 0 -1 0 -6.051642e-02 2.611074e-01 6.620063e-01 -6.999346e-01
148 2 2 -1.472463e+01 5.413941e+00 7.111217e+00 0 -1 0 3.522194e-02 3.981137e-01 5.591325e-01 -7.263854e-01
149 2 4 -1.505770e+01 5.263431e+00 7.345588e+00 0 -1 0 -2.809307e-01 -5.478803e-01 -3.074735e-01 7.255103e-01
150 2 1 -1.372810e+01 4.708580e+00 8.198231e+00 0 -1 0 -6.998680e-01 -4.938292e-01 3.646939e-01 -3.651244e-01
151 2 1 -1.347375e+01 4.278793e+00 8.330598e+00 0 -1 0 -4.521445e-01 -2.368030e-01 6.055541e-01 -6.105685e-01
152 2 1 -1.323105e+01 4.065611e+00 8.119219e+00 0 -1 0 -4.917765e-01 -3.781270e-01 -1.862834e-01 -7.618887e-01
153 2 4 -1.362375e+01 3.277871e+00 7.931206e+00 0 -1 0 -2.988006e-02 2.861514e-01 3.608900e-01 -8.871206e-01
154 2 1 -1.310860e+01 2.616742e+00 8.991573e+00 0 -1 0 3.782152e-01 -6.709117e-01 5.461051e-01 -3.295451e-01
155 2 2 -1.258155e+01 2.586786e+00 8.934214e+00 0 -1 0 3.599830e-01 -4.282549e-01 8.132784e-01 -1.599631e-01
156 2 4 -1.217180e+01 2.359450e+00 8.757011e+00 0 -1 0 3.967839e-01 -6.297962e-02 9.085395e-01 1.146825e-01
157 2 3 -1.250014e+01 1.842754e+00 8.942859e+00 0 -1 0 -1.321363e-01 -1.865727e-01 8.262019e-01 5.148991e-01
158 2 2 -1.149879e+01 1.923000e+00 9.488830e+00 0 -1 0 -5.170804e-01 6.134678e-01 -3.070561e-01 -5.118610e-01
159 2 1 -1.133755e+01 2.463914e+00 9.454637e+00 0 -1 0 -2.020725e-01 5.175383e-01 -5.068758e-01 -6.590886e-01
160 2 3 -1.098688e+01 2.601429e+00 1.055505e+01 0 -1 0 8.738630e-01 3.319042e-01 3.612406e-02 3.534092e-01
161 2 1 -1.045141e+01 2.843905e+00 1.079140e+01 0 -1 0 2.458637e-01 5.723738e-01 -3.269347e-01 7.106708e-01
162 2 1 -1.069983e+01 2.667477e+00 1.092014e+01 0 -1 0 -5.921566e-01 -2.836822e-01 5.993970e-01 4.578190e-01
163 2 4 -9.962864e+00 3.268163e+00 1.136790e+01 0 -1 0 -2.612597e-01 7.438420e-01 4.723742e-01 3.940876e-01
164 2 4 -9.538833e+00 3.999929e+00 1.158031e+01 0 -1 0 -4.581664e-01 8.099066e-01 6.884238e-02 -3.597160e-01
165 2 3 -9.677909e+00 4.454575e+00 1.152343e+01 0 -1 0 -2.486184e-01 8.096323e-01 -2.400584e-01 -4.744012e-01
166 2 3 -9.747850e+00 4.884030e+00 1.144561e+01 0 -1 0 -7.115049e-04 6.065106e-01 -5.424859e-01 -5.812516e-01
167 2 4 -9.764916e+00 5.207942e+00 1.110203e+01 0 -1 0 3.613683e-02 -4.063062e-01 7.982805e-01 4.431226e-01
168 2 2 -1.002782e+01 6.128602e+00 1.156795e+01 0 -1 0 -4.839370e-01 2.024046e-01 5.361183e-01 6.613733e-01
169 2 2 -1.033864e+01 6.438556e+00 1.152419e+01 0 -1 0 7.089754e-01 -3.034702e-01 -4.872491e-01 -4.096927e-01
170 2 1 -9.875795e+00 7.676078e+00 1.145862e+01 0 -1 0 1.785841e-01 5.817602e-01 3.696270e-01 7.021671e-01
171 2 1 -9.393549e+00 7.891123e+00 1.127308e+01 0 -1 0 3.071119e-04 5.994466e-01 1.434648e-01 7.874525e-01
172 2 4 -8.768472e+00 7.171486e+00 1.188593e+01 0 -1 0 5.522257e-01 3.647641e-01 -7.496590e-01 -2.290043e-03
173 2 4 -8.671731e+00 8.106609e+00 1.246331e+01 0 -1 0 8.804269e-01 1.921293e-01 -2.861373e-01 3.256691e-01
174 2 1 -8.948032e+00 8.514411e+00 1.251456e+01 0 -1 0 7.485594e-01 -3.307173e-01 -4.741878e-02 -5.727446e-01
175 2 1 -9.076740e+00 8.598483e+00 1.293726e+01 0 -1 0 -9.295057e-01 3.378584e-01 -7.291082e-03 1.477081e-01
176 2 2 -9.617590e+00 8.944388e+00 1.348359e+01 0 -1 0 4.997526e-01 -2.830520e-01 5.855148e-01 -5.721025e-01
177 2 2 -9.632156e+00 9.109177e+00 1.367134e+01 0 -1 0 -4.549418e-01 -3.723465e-01 -6.140847e-02 -8.066071e-01
178 2 1 -9.577338e+00 8.639277e+00 1.412059e+01 0 -1 0 -6.882794e-01 -5.615425e-01 -1.338043e-01 -4.393608e-01
179 2 4 -1.067769e+01 7.607754e+00 1.452280e+01 0 -1 0 7.007454e-01 -3.804869e-01 6.196051e-05 -6.034780e-01
180 2 1 -1.094987e+01 7.518947e+00 1.436999e+01 0 -1 0 5.130598e-01 -1.520602e-01 7.429580e-01 4.020706e-01
181 2 4 -1.168223e+01 7.648261e+00 1.385838e+01 0 -1 0 -2.114781e-01 4.429537e-02 7.918044e-01 5.712799e-01
182 2 2 -1.206232e+01 7.946130e+00 1.365028e+01 0 -1 0 4.465740e-01 -4.450917e-01 -6.215863e-01 -4.648609e-01
183 2 3 -1.130917e+01 7.988037e+00 1.221641e+01 0 -1 0 -4.845973e-01 2.882671e-01 -6.431507e-01 -5.180971e-01
184 2 4 -1.167893e+01 8.460845e+00 1.188778e+01 0 -1 0 3.050651e-01 -5.262245e-01 -1.567598e-01 7.781063e-01
185 2 3 -1.152652e+01 8.698793e+00 1.181744e+01 0 -1 0 -8.966241e-01 1.446251e-01 -7.962409e-02 -4.108635e-01
186 2 1 -1.248626e+01 8.180976e+00 1.119474e+01 0 -1 0 -6.254866e-01 1.498186e-01 4.011809e-01 6.522077e-01
187 2 1 -1.285345e+01 8.396058e+00 1.122650e+01 0 -1 0 7.608804e-01 -3.765447e-01 -4.276931e-01 -3.104090e-01
188 2 2 -1.319617e+01 8.598114e+00 1.147628e+01 0 -1 0 -8.177327e-01 5.415534e-01 1.938486e-01 -2.135026e-02
189 2 4 -1.365018e+01 8.491075e+00 1.092085e+01 0 -1 0 8.414201e-01 1.164851e-01 -2.480909e-01 4.657192e-01
190 2 4 -1.394691e+01 7.314890e+00 1.030430e+01 0 -1 0 -9.734792e-01 5.743845e-03 1.326181e-01 1.863267e-01
191 2 1 -1.412421e+01 7.065746e+00 1.070094e+01 0 -1 0 -9.348760e-01 2.349382e-01 1.172085e-01 -2.388996e-01
192 2 4 -1.388325e+01 6.897820e+00 1.133687e+01 0 -1 0 -6.461286e-01 1.804613e-01 6.886122e-01 -2.752539e-01
193 2 4 -1.459616e+01 6.387814e+00 1.138640e+01 0 -1 0 2.364685e-01 2.668757e-01 8.969057e-01 -2.615724e-01
194 2 1 -1.536041e+01 6.563148e+00 1.197162e+01 0 -1 0 4.714208e-01 -2.098403e-01 -4.311096e-01 -7.401851e-01
195 2 3 -1.562624e+01 7.301556e+00 1.261036e+01 0 -1 0 2.619913e-01 -4.939436e-01 -7.696589e-01 3.082296e-01
196 2 4 -1.543678e+01 6.852941e+00 1.337152e+01 0 -1 0 5.574218e-01 -5.990005e-01 -3.978611e-01 -4.149529e-01
197 2 2 -1.569908e+01 5.748343e+00 1.335477e+01 0 -1 0 -3.898689e-01 1.737945e-01 9.041860e-01 1.566353e-02
198 2 4 -1.527238e+01 5.365064e+00 1.375206e+01 0 -1 0 -8.125463e-01 -2.705273e-02 -2.472946e-02 5.817431e-01
199 2 3 -1.458661e+01 5.316767e+00 1.287891e+01 0 -1 0 6.451596e-01 4.430111e-01 -4.472647e-01 -4.329718e-01
200 2 4 -1.426091e+01 5.182176e+00 1.314193e+01 0 -1 0 4.733156e-01 -4.401057e-01 3.565450e-01 -6.746517e-01
