ITEM: TIMESTEP
265000000
ITEM: NUMBER OF ATOMS
200
ITEM: BOX BOUNDS pp pp pp
-2.0000000000000000e+01 2.0000000000000000e+01
-2.0000000000000000e+01 2.0000000000000000e+01
-2.0000000000000000e+01 2.0000000000000000e+01
ITEM: ATOMS id mol type x y z ix iy iz c_quat[1] c_quat[2] c_quat[3] c_quat[4]
1 1 1 1.086545e+01 1.921025e+01 1.022446e+01 -1 -1 0 -8.234818e-01 7.350675e-02 -5.597574e-01 5.609158e-02
2 1 2 1.126925e+01 1.892509e+01 1.023796e+01 -1 -1 0 7.514749e-01 2.377233e-01 5.213071e-01 3.271268e-01
3 1 1 1.167405e+01 1.879543e+01 1.001129e+01 -1 -1 0 5.468582e-01 5.397594e-01 3.580838e-01 5.304544e-01
4 1 3 1.204679e+01 1.884422e+01 9.815840e+00 -1 -1 0 3.053277e-01 7.085122e-01 -2.342182e-02 6.357963e-01
5 1 1 1.252015e+01 1.886665e+01 9.713281e+00 -1 -1 0 1.360527e-01 6.123017e-01 -1.666322e-01 7.607956e-01
6 1 2 1.292971e+01 1.891245e+01 9.910784e+00 -1 -1 0 2.799015e-01 -4.806222e-01 3.911366e-01 -7.332596e-01
7 1 4 1.319641e+01 1.871420e+01 1.024624e+01 -1 -1 0 -5.957109e-01 2.137488e-01 -6.403110e-01 4.352491e-01
8 1 1 1.359908e+01 1.837326e+01 1.042299e+01 -1 -1 0 6.698752e-01 6.619314e-02 6.543805e-01 -3.444879e-01
9 1 1 1.382072e+01 1.974199e+01 1.062656e+01 -1 -1 0 1.848127e-01 -7.707837e-01 -5.652976e-01 -2.284194e-01
10 1 4 1.450786e+01 1.937428e+01 1.003508e+01 -1 -1 0 -3.745385e-01 -6.451467e-01 -6.652904e-01 2.992275e-02
11 1 1 1.552047e+01 1.958160e+01 1.083416e+01 -1 -1 0 -8.735956e-02 8.829406e-01 -3.988922e-01 -2.316661e-01
12 1 1 1.550822e+01 1.888263e+01 1.191269e+01 -1 -1 0 -8.167342e-01 -9.847261e-02 5.398343e-01 -1.784018e-01
13 1 3 1.595378e+01 1.965736e+01 1.103996e+01 -1 -1 0 -4.648773e-01 -2.763802e-01 -3.452476e-01 -7.670118e-01
14 1 4 1.683051e+01 1.985790e+01 1.135560e+01 -1 -1 0 5.754773e-01 -4.408699e-01 -1.955346e-01 6.604739e-01
15 1 4 1.706129e+01 1.934280e+01 1.037104e+01 -1 -1 0 -1.204759e-01 -8.202503e-01 -1.287040e-01 5.441603e-01
16 1 2 1.695473e+01 1.836576e+01 1.052079e+01 -1 -1 0 2.310725e-01 -1.642253e-01 6.385114e-01 -7.154990e-01
17 1 1 1.821223e+01 1.907314e+01 1.011543e+01 -1 -1 0 -5.876225e-01 -5.586469e-01 -3.398525e-01 -4.765646e-01
18 1 2 1.888897e+01 1.900879e+01 9.732651e+00 -1 -1 0 3.972175e-01 8.555830e-01 1.069828e-01 3.142462e-01
19 1 3 1.926887e+01 1.868455e+01 9.435581e+00 -1 -1 0 3.899451e-01 7.567622e-01 -3.409176e-02 5.235376e-01
20 1 1 1.939514e+01 1.808527e+01 8.881636e+00 -1 -1 0 4.292442e-01 6.936938e-01 4.687951e-01 3.387763e-01
21 1 4 -1.942150e+01 1.767632e+01 8.796642e+00 0 -1 0 8.589576e-01 -4.067205e-01 1.249489e-01 2.848826e-01
22 1 1 -1.931167e+01 1.790078e+01 9.260090e+00 0 -1 0 -6.249096e-01 4.569326e-01 -2.821262e-01 -5.666616e-01
23 1 4 -1.981330e+01 1.695495e+01 1.024588e+01 0 -1 0 5.797997e-01 -4.750458e-01 1.647831e-01 -6.411009e-01
24 1 3 -1.983622e+01 1.613599e+01 1.045225e+01 0 -1 0 5.500661e-01 -4.450458e-02 -7.685944e-01 -3.235881e-01
25 1 3 -1.906957e+01 1.586214e+01 1.035168e+01 0 -1 0 2.277037e-01 3.143856e-01 -7.370333e-01 -5.532582e-01
26 1 4 -1.809467e+01 1.557996e+01 1.092334e+01 0 -1 0 9.402440e-01 -3.969010e-02 2.552229e-01 2.218720e-01
27 1 4 -1.765784e+01 1.564262e+01 1.114676e+01 0 -1 0 -6.825782e-01 -6.346776e-02 -3.526649e-01 -6.369351e-01
28 1 1 -1.831316e+01 1.530295e+01 1.177815e+01 0 -1 0 4.408152e-01 3.833596e-01 -3.248253e-01 -7.437781e-01
29 1 1 -1.787138e+01 1.612078e+01 1.211545e+01 0 -1 0 2.183996e-01 -4.780166e-01 -7.632940e-02 -8.473344e-01
30 1 4 -1.754219e+01 1.636857e+01 1.246915e+01 0 -1 0 4.180578e-01 -4.983507e-01 2.662633e-01 -7.113213e-01
31 1 4 -1.626789e+01 1.634777e+01 1.202627e+01 0 -1 0 2.298713e-02 7.838769e-01 -6.062768e-01 1.320495e-01
32 1 3 -1.593157e+01 1.627697e+01 1.161785e+01 0 -1 0 1.437842e-02 -4.595059e-01 8.880289e-01 7.234310e-03
33 1 3 -1.561714e+01 1.618755e+01 1.137434e+01 0 -1 0 -1.744153e-01 2.473354e-03 -9.820180e-01 -7.220734e-02
34 1 1 -1.512507e+01 1.616564e+01 1.169869e+01 0 -1 0 -2.978684e-01 8.026570e-01 1.811637e-01 -4.839379e-01
35 1 2 -1.634182e+01 1.558322e+01 1.165189e+01 0 -1 0 -3.496989e-01 -5.891181e-01 -6.126514e-01 3.940924e-01
36 1 2 -1.611980e+01 1.431985e+01 1.205902e+01 0 -1 0 -9.048625e-01 7.639773e-02 9.580479e-02 4.076869e-01
37 1 1 -1.634162e+01 1.420866e+01 1.254113e+01 0 -1 0 -9.868273e-01 -7.640213e-02 3.785811e-02 1.374824e-01
38 1 1 -1.598885e+01 1.478471e+01 1.336233e+01 0 -1 0 3.684060e-01 -8.508888e-01 -2.263893e-01 2.983507e-01
39 1 4 -1.610982e+01 1.517151e+01 1.333470e+01 0 -1 0 1.889842e-01 -7.532723e-01 1.937323e-01 5.994445e-01
40 1 4 -1.660103e+01 1.492069e+01 1.354582e+01 0 -1 0 -8.636572e-01 5.486137e-02 8.051582e-02 -4.945742e-01
41 1 2 -1.655555e+01 1.491159e+01 1.409836e+01 0 -1 0 -4.965774e-01 2.736443e-01 7.353396e-02 -8.204404e-01
42 1 4 -1.665627e+01 1.516193e+01 1.452387e+01 0 -1 0 -1.512415e-01 3.173968e-01 -6.720340e-02 -9.337392e-01
43 1 3 -1.602645e+01 1.514744e+01 1.484463e+01 0 -1 0 -8.384646e-01 -4.570715e-01 -2.878583e-01 -7.211290e-02
44 1 2 -1.632926e+01 1.546154e+01 1.560253e+01 0 -1 0 -9.451999e-01 -2.262817e-01 -1.419258e-01 -1.877523e-01
45 1 1 -1.621923e+01 1.571907e+01 1.661300e+01 0 -1 0 1.736433e-01 -4.219810e-01 4.320034e-01 -7.779159e-01
46 1 3 -1.593828e+01 1.561561e+01 1.707133e+01 0 -1 0 -4.918127e-01 2.726754e-01 -5.926599e-01 5.766477e-01
47 1 4 -1.578621e+01 1.525789e+01 1.734331e+01 0 -1 0 -7.770296e-01 1.537622e-02 -5.625513e-01 2.820011e-01
48 1 1 -1.568051e+01 1.490652e+01 1.761453e+01 0 -1 0 8.738592e-01 1.944507e-01 4.455648e-01 -5.562223e-03
49 1 4 -1.566698e+01 1.507660e+01 1.827454e+01 0 -1 0 7.442500e-01 6.052583e-01 1.339561e-01 2.486164e-01
50 1 4 -1.549074e+01 1.455152e+01 1.843138e+01 0 -1 0 6.333121e-01 2.725486e-01 -4.359849e-01 5.784032e-01
51 1 4 -1.535264e+01 1.419858e+01 1.861795e+01 0 -1 0 -2.712811e-01 -6.904963e-02 6.375958e-01 -7.177119e-01
52 1 1 -1.538518e+01 1.369205e+01 1.886217e+01 0 -1 0 1.955810e-01 -1.997836e-01 -6.326784e-01 7.221860e-01
53 1 3 -1.575347e+01 1.350759e+01 1.914962e+01 0 -1 0 3.596473e-01 4.342625e-01 4.360010e-01 -7.014079e-01
54 1 4 -1.611910e+01 1.313035e+01 1.923267e+01 0 -1 0 5.598172e-01 6.070996e-01 2.537366e-01 -5.036394e-01
55 1 4 -1.637572e+01 1.267493e+01 1.913430e+01 0 -1 0 6.936874e-01 6.823339e-01 8.192126e-02 -2.156549e-01
56 1 4 -1.639522e+01 1.208605e+01 1.875312e+01 0 -1 0 9.575977e-01 2.452329e-01 1.068162e-01 -1.070413e-01
57 1 1 -1.725655e+01 1.199759e+01 1.834239e+01 0 -1 0 -8.679810e-01 -3.298846e-01 -3.603852e-01 8.892486e-02
58 1 1 -1.697000e+01 1.154693e+01 1.845319e+01 0 -1 0 -8.074439e-01 -4.008364e-01 -2.368600e-01 -3.623008e-01
59 1 3 -1.792431e+01 1.106733e+01 1.879468e+01 0 -1 0 -4.252289e-01 -5.790977e-01 -4.791619e-01 5.042124e-01
60 1 4 -1.763692e+01 9.808796e+00 1.917793e+01 0 -1 0 9.541949e-01 5.944822e-02 2.240874e-01 -1.891108e-01
61 1 2 -1.735258e+01 9.486588e+00 1.946166e+01 0 -1 0 9.229933e-01 2.256206e-01 2.579903e-01 1.749848e-01
62 1 3 -1.704521e+01 9.155853e+00 1.951406e+01 0 -1 0 -7.721630e-01 -4.045886e-01 -7.621252e-02 -4.840084e-01
63 1 2 -1.714846e+01 8.168153e+00 1.915925e+01 0 -1 0 -6.748028e-01 6.249713e-01 -3.701037e-01 -1.306726e-01
64 1 4 -1.713968e+01 7.362632e+00 1.877517e+01 0 -1 0 -9.678510e-01 -1.054927e-01 -2.134160e-01 -8.117524e-02
65 1 2 -1.820785e+01 7.521021e+00 1.963539e+01 0 -1 0 -1.599629e-01 2.623332e-01 5.737405e-01 7.592200e-01
66 1 1 -1.771256e+01 7.527306e+00 2.003050e+01 0 -1 0 -7.927587e-02 6.135114e-01 -2.700709e-01 -7.378216e-01
67 1 2 -1.689522e+01 8.029208e+00 -1.895978e+01 0 -1 1 1.502740e-01 -9.281012e-01 3.212844e-02 -3.391367e-01
68 1 1 -1.682719e+01 7.615982e+00 -1.844738e+01 0 -1 1 9.818142e-02 3.480374e-01 -2.240284e-01 9.050092e-01
69 1 1 -1.666475e+01 7.721084e+00 -1.800733e+01 0 -1 1 -4.474799e-01 1.948852e-01 -4.027852e-01 7.743033e-01
70 1 2 -1.559996e+01 7.547613e+00 -1.880937e+01 0 -1 1 -1.295621e-01 -8.314845e-01 2.916279e-01 4.547530e-01
71 1 3 -1.652794e+01 6.916550e+00 -1.764065e+01 0 -1 1 -2.854590e-01 1.374219e-02 9.574419e-01 -4.036405e-02
72 1 4 -1.519897e+01 7.016662e+00 -1.760941e+01 0 -1 1 9.062601e-01 -1.517797e-01 3.133487e-01 2.397252e-01
73 1 1 -1.471485e+01 7.017996e+00 -1.747895e+01 0 -1 1 6.825234e-01 1.201213e-01 3.559813e-01 6.269050e-01
74 1 1 -1.418662e+01 7.195668e+00 -1.742485e+01 0 -1 1 -3.411221e-01 -2.512574e-01 -3.554001e-01 -8.331844e-01
75 1 3 -1.315375e+01 7.033407e+00 -1.736080e+01 0 -1 1 -5.212073e-01 7.288946e-01 -4.436926e-01 -1.387622e-02
76 1 1 -1.280367e+01 7.275707e+00 -1.754808e+01 0 -1 1 4.754733e-01 -5.378801e-01 6.914075e-01 8.102998e-02
77 1 4 -1.242826e+01 7.387470e+00 -1.785467e+01 0 -1 1 -3.092700e-01 1.345701e-01 -8.937569e-01 -2.957051e-01
78 1 1 -1.127185e+01 7.872795e+00 -1.823891e+01 0 -1 1 6.655139e-01 -2.887888e-01 5.065269e-01 4.659644e-01
79 1 4 -1.081912e+01 7.973827e+00 -1.831593e+01 0 -1 1 4.924635e-01 1.373892e-01 4.904386e-01 7.057435e-01
80 1 2 -1.052855e+01 7.621152e+00 -1.800335e+01 0 -1 1 1.902014e-01 5.425329e-01 6.542331e-01 4.913863e-01
81 1 4 -9.289115e+00 7.993678e+00 -1.783367e+01 0 -1 1 7.785775e-01 -1.570909e-01 -1.850261e-01 5.787096e-01
82 1 4 -9.768976e+00 8.020327e+00 -1.856345e+01 0 -1 1 1.987120e-01 8.316159e-01 -4.797083e-01 -1.969990e-01
83 1 4 -9.808134e+00 7.910218e+00 -1.907638e+01 0 -1 1 -3.139325e-01 -4.987099e-01 7.964032e-01 1.359295e-01
84 1 4 -9.869959e+00 7.608731e+00 -1.947677e+01 0 -1 1 2.742570e-01 -1.071876e-02 -9.614823e-01 1.483146e-02
85 1 1 -1.014034e+01 8.403517e+00 1.965062e+01 0 -1 0 -3.879755e-01 1.836737e-01 -2.048974e-01 -8.796341e-01
86 1 1 -9.603497e+00 8.144259e+00 1.958422e+01 0 -1 0 1.794337e-03 -6.080157e-01 7.777789e-01 -1.592914e-01
87 1 3 -8.741494e+00 8.618506e+00 1.889268e+01 0 -1 0 -6.555463e-01 4.874605e-01 -5.403344e-01 -2.016929e-01
88 1 2 -9.196656e+00 9.247025e+00 -1.997367e+01 0 -1 1 -1.849783e-01 6.972008e-01 6.908549e-01 4.912844e-02
89 1 2 -8.314182e+00 8.060205e+00 1.979229e+01 0 -1 0 -6.485174e-01 -2.535777e-01 7.042511e-01 -1.383980e-01
90 1 3 -8.034106e+00 8.409288e+00 1.921400e+01 0 -1 0 6.393960e-01 -3.062769e-02 7.399473e-01 -2.066704e-01
91 1 3 -7.015043e+00 9.312512e+00 -1.990181e+01 0 -1 1 -9.458723e-02 -7.854743e-01 3.086605e-01 -5.280265e-01
92 1 2 -6.511298e+00 9.334026e+00 -1.988104e+01 0 -1 1 2.751744e-01 -5.600463e-01 5.990589e-01 -5.017525e-01
93 1 1 -6.851543e+00 9.973696e+00 1.909639e+01 0 -1 0 -5.761272e-01 -4.111330e-01 3.465021e-01 6.156163e-01
94 1 2 -5.817007e+00 1.113009e+01 1.944635e+01 0 -1 0 -3.521247e-01 5.998216e-01 1.323077e-01 -7.061990e-01
95 1 3 -6.155884e+00 1.156611e+01 1.951830e+01 0 -1 0 -1.034980e-01 7.085677e-01 -6.265636e-02 -6.951936e-01
96 1 2 -6.103335e+00 1.107028e+01 -1.990100e+01 0 -1 1 3.863712e-01 3.708202e-01 6.132597e-01 -5.806223e-01
97 1 2 -5.445449e+00 1.190813e+01 1.973711e+01 0 -1 0 -5.980684e-02 1.330131e-01 -5.285198e-01 -8.362999e-01
98 1 4 -5.568831e+00 1.234005e+01 1.959121e+01 0 -1 0 -2.308851e-01 2.061375e-01 5.355823e-01 7.857169e-01
99 1 2 -5.634180e+00 1.288924e+01 1.906041e+01 0 -1 0 -1.365378e-01 3.218366e-02 8.290547e-01 5.412855e-01
100 1 1 -4.126000e+00 1.366963e+01 1.978359e+01 0 -1 0 -6.324556e-01 6.252839e-01 2.003282e-01 -4.109606e-01
101 2 4 -8.841781e+00 1.331888e+01 1.054923e+01 0 -1 0 6.005840e-01 2.283784e-01 4.976719e-01 5.826361e-01
102 2 3 -9.338242e+00 1.328718e+01 1.132334e+01 0 -1 0 3.998958e-01 5.838513e-01 7.063463e-01 -1.660836e-02
103 2 1 -8.079075e+00 1.316500e+01 1.185915e+01 0 -1 0 -8.161897e-01 5.369590e-01 -2.050088e-01 5.899850e-02
104 2 3 -7.680197e+00 1.345453e+01 1.215503e+01 0 -1 0 6.359194e-01 -5.181738e-01 5.089921e-01 2.608247e-01
105 2 3 -8.720776e+00 1.365907e+01 1.310743e+01 0 -1 0 -2.899404e-01 -4.297972e-02 -1.682592e-01 9.411568e-01
106 2 2 -8.960520e+00 1.428093e+01 1.317223e+01 0 -1 0 4.441691e-01 -5.631255e-01 -6.140491e-01 3.294650e-01
107 2 3 -9.404795e+00 1.435893e+01 1.323207e+01 0 -1 0 -1.970708e-01 7.345736e-01 3.633638e-01 -5.380812e-01
108 2 4 -9.907813e+00 1.460224e+01 1.310649e+01 0 -1 0 -8.910019e-02 -8.126652e-01 -4.095912e-02 5.744204e-01
109 2 3 -1.060725e+01 1.454900e+01 1.360284e+01 0 -1 0 4.158639e-01 -5.239284e-01 -1.193950e-01 7.336900e-01
110 2 2 -1.112939e+01 1.491744e+01 1.358779e+01 0 -1 0 2.063303e-01 -6.934510e-01 9.328395e-02 6.839968e-01
111 2 2 -1.110667e+01 1.414355e+01 1.408254e+01 0 -1 0 -1.681536e-01 -9.608824e-01 1.555483e-01 -1.556733e-01
112 2 3 -1.116705e+01 1.327058e+01 1.437757e+01 0 -1 0 7.245599e-01 -6.239257e-01 -2.922871e-01 -1.725955e-02
113 2 3 -1.127809e+01 1.242972e+01 1.428690e+01 0 -1 0 -8.894938e-01 -1.225208e-01 3.258149e-01 -2.960306e-01
114 2 2 -1.174113e+01 1.149569e+01 1.437761e+01 0 -1 0 -6.685395e-01 5.539176e-01 -4.860670e-01 9.984564e-02
115 2 4 -1.249589e+01 1.165143e+01 1.416137e+01 0 -1 0 4.093797e-01 2.278346e-01 -8.359324e-01 2.858613e-01
116 2 4 -1.257051e+01 1.180741e+01 1.304212e+01 0 -1 0 -8.646718e-02 -1.120837e-01 -9.894811e-01 -2.979614e-02
117 2 1 -1.289184e+01 1.149609e+01 1.272968e+01 0 -1 0 1.520057e-01 5.350959e-01 8.304369e-01 -3.067903e-02
118 2 1 -1.247993e+01 1.124309e+01 1.213119e+01 0 -1 0 1.141073e-01 1.851242e-01 -9.721258e-01 -8.763551e-02
119 2 1 -1.249641e+01 1.097338e+01 1.165369e+01 0 -1 0 -1.131060e-01 3.356719e-02 9.928588e-01 1.765614e-02
120 2 1 -1.281527e+01 1.076445e+01 1.142214e+01 0 -1 0 -5.182679e-02 -5.680270e-01 -8.075340e-01 1.501604e-01
121 2 3 -1.171038e+01 9.819160e+00 1.174725e+01 0 -1 0 9.091908e-01 -1.525540e-01 -3.374922e-01 1.902590e-01
122 2 1 -1.185480e+01 9.676155e+00 1.222352e+01 0 -1 0 -7.556464e-01 2.510288e-01 2.675824e-01 -5.425705e-01
123 2 4 -1.182627e+01 9.348116e+00 1.253942e+01 0 -1 0 2.555319e-01 -8.237417e-01 -4.788373e-01 1.639142e-01
124 2 1 -1.095187e+01 8.935638e+00 1.276935e+01 0 -1 0 8.416144e-01 4.723748e-01 -3.931481e-02 2.588467e-01
125 2 4 -1.163706e+01 9.020866e+00 1.354143e+01 0 -1 0 5.644194e-01 5.761783e-02 -1.391272e-01 8.116369e-01
126 2 2 -1.219893e+01 7.704198e+00 1.309695e+01 0 -1 0 -2.712725e-01 -2.039791e-01 5.383011e-01 7.713856e-01
127 2 4 -1.136887e+01 8.057827e+00 1.244517e+01 0 -1 0 -6.350712e-01 -6.590090e-01 -8.796816e-02 -3.932598e-01
128 2 4 -1.097473e+01 7.843919e+00 1.224456e+01 0 -1 0 -4.010750e-01 -6.139215e-01 2.722071e-01 -6.230108e-01
129 2 1 -1.050660e+01 7.725439e+00 1.228703e+01 0 -1 0 -2.009951e-01 -5.086623e-01 5.330707e-01 -6.455225e-01
130 2 2 -1.033771e+01 7.315195e+00 1.263115e+01 0 -1 0 2.058866e-01 -1.888195e-01 6.685798e-01 -6.891726e-01
131 2 3 -1.022563e+01 6.895402e+00 1.296695e+01 0 -1 0 4.526999e-01 1.384693e-01 6.794718e-01 -5.605418e-01
132 2 4 -1.013008e+01 6.363468e+00 1.284949e+01 0 -1 0 -6.900874e-01 -4.862544e-01 -5.104890e-01 1.635143e-01
133 2 4 -1.000859e+01 5.877459e+00 1.255319e+01 0 -1 0 6.991832e-01 6.132168e-01 3.490128e-01 1.153171e-01
134 2 3 -9.609201e+00 5.580452e+00 1.229190e+01 0 -1 0 5.697661e-01 6.580365e-01 1.479437e-01 4.695393e-01
135 2 4 -9.159607e+00 5.510995e+00 1.210411e+01 0 -1 0 -3.548923e-01 -6.799554e-01 1.125847e-02 -6.415491e-01
136 2 3 -9.703344e+00 5.306909e+00 1.203299e+01 0 -1 0 -9.262548e-01 1.634759e-01 2.491994e-01 -2.307104e-01
137 2 1 -1.007826e+01 6.044322e+00 1.072368e+01 0 -1 0 -4.421103e-01 -3.234793e-01 -5.196488e-01 -6.556407e-01
138 2 3 -9.594138e+00 5.769748e+00 1.101930e+01 0 -1 0 2.000399e-01 -4.211814e-02 -6.305991e-01 -7.487022e-01
139 2 2 -8.717177e+00 5.571001e+00 1.081179e+01 0 -1 0 1.013115e-01 8.287067e-01 -4.525276e-01 3.133687e-01
140 2 3 -9.207149e+00 6.136112e+00 9.400067e+00 0 -1 0 -2.781765e-01 -8.130502e-01 -3.998617e-01 3.188696e-01
141 2 1 -9.057472e+00 5.412984e+00 8.715921e+00 0 -1 0 7.053934e-01 -2.627604e-01 5.277889e-01 3.934666e-01
142 2 2 -9.712759e+00 4.802475e+00 8.760317e+00 0 -1 0 -1.697571e-02 3.727526e-01 -8.423411e-01 3.888815e-01
143 2 4 -9.550233e+00 4.418643e+00 8.736091e+00 0 -1 0 3.514382e-01 6.896215e-02 9.006620e-01 -2.460557e-01
144 2 4 -8.727225e+00 4.570013e+00 8.088143e+00 0 -1 0 -5.494123e-01 -7.725803e-01 -1.702978e-01 -2.688204e-01
145 2 1 -9.039732e+00 4.252399e+00 7.501041e+00 0 -1 0 5.095221e-02 -2.994692e-01 -7.835138e-01 -5.420592e-01
146 2 1 -7.613802e+00 3.584441e+00 7.270576e+00 0 -1 0 7.660773e-01 4.647133e-01 -4.417955e-01 -4.453920e-02
147 2 1 -7.826268e+00 3.154830e+00 7.259986e+00 0 -1 0 7.525654e-01 1.787867e-01 -5.545068e-01 3.069249e-01
148 2 2 -7.875043e+00 2.762518e+00 7.394935e+00 0 -1 0 -4.014827e-01 9.877268e-02 6.256810e-01 -6.614974e-01
149 2 4 -8.136832e+00 2.510302e+00 7.744092e+00 0 -1 0 -1.501430e-01 3.141787e-01 5.301684e-01 -7.730913e-01
150 2 1 -7.612751e+00 1.611752e+00 7.197319e+00 0 -1 0 -2.970086e-01 -9.268532e-01 2.223083e-01 -5.751536e-02
151 2 1 -8.133999e+00 1.213813e+00 8.019936e+00 0 -1 0 -1.224901e-01 3.345297e-01 -9.343752e-01 -5.381376e-03
152 2 1 -7.859527e+00 1.461006e+00 8.350187e+00 0 -1 0 -2.009872e-01 4.175245e-01 -5.403043e-01 -7.023879e-01
153 2 4 -8.388643e+00 8.270602e-01 8.906961e+00 0 -1 0 5.611589e-01 4.559898e-01 6.680190e-01 -1.758540e-01
154 2 1 -8.267261e+00 4.022223e-01 8.609260e+00 0 -1 0 -5.442002e-01 -5.818525e-01 -6.043634e-01 6.225110e-03
155 2 2 -6.990557e+00 2.766162e-01 8.744515e+00 0 -1 0 2.684067e-01 -7.928287e-01 3.843390e-01 3.894406e-01
156 2 4 -7.576150e+00 -2.655121e-01 9.440614e+00 0 -1 0 6.936819e-02 -1.452436e-01 9.592190e-01 2.323600e-01
157 2 3 -8.004656e+00 -1.725212e-01 1.064074e+01 0 -1 0 -2.827708e-01 -4.710991e-02 9.296257e-01 -2.315542e-01
158 2 2 -8.252261e+00 -6.137121e-01 1.048257e+01 0 -1 0 6.017300e-02 -3.426805e-01 -8.937380e-01 2.831636e-01
159 2 1 -8.525832e+00 -8.997069e-01 1.020053e+01 0 -1 0 -8.056418e-02 -7.393781e-01 -6.555258e-01 1.308257e-01
160 2 3 -8.629173e+00 -8.849561e-01 9.612911e+00 0 -1 0 6.319405e-02 8.790738e-01 4.724758e-01 -1.538962e-03
161 2 1 -8.160923e+00 -2.221683e+00 1.021466e+01 0 -1 0 -2.645639e-01 -3.276290e-01 7.559203e-01 -5.012481e-01
162 2 1 -8.107250e+00 -2.635614e+00 1.029386e+01 0 -1 0 -6.639538e-02 -1.070719e-01 -8.241404e-01 5.521956e-01
163 2 4 -7.348136e+00 -2.557843e+00 1.070075e+01 0 -1 0 5.943192e-01 3.270133e-01 -1.643800e-02 7.345589e-01
164 2 4 -7.018178e+00 -2.520387e+00 1.115315e+01 0 -1 0 -2.508940e-01 -2.130706e-01 2.744801e-01 -9.035009e-01
165 2 3 -6.929661e+00 -2.589531e+00 1.163252e+01 0 -1 0 1.879102e-01 -3.424711e-02 3.047351e-01 -9.330881e-01
166 2 3 -6.984681e+00 -2.683659e+00 1.216084e+01 0 -1 0 4.558480e-01 1.655243e-01 3.471578e-01 -8.026741e-01
167 2 4 -6.785850e+00 -2.284801e+00 1.272263e+01 0 -1 0 5.139571e-01 6.490159e-01 -2.875019e-01 4.816317e-01
168 2 2 -7.761131e+00 -2.141895e+00 1.288369e+01 0 -1 0 -7.509088e-01 1.321889e-01 4.991977e-01 -4.116597e-01
169 2 2 -8.164404e+00 -2.234296e+00 1.323040e+01 0 -1 0 7.813451e-01 -1.127911e-01 -2.902140e-01 5.408824e-01
170 2 1 -8.831221e+00 -2.170716e+00 1.249511e+01 0 -1 0 6.337707e-01 6.106491e-01 -1.238344e-02 4.746462e-01
171 2 1 -9.652523e+00 -3.240973e+00 1.321093e+01 0 -1 0 -8.706610e-01 3.263140e-01 -3.150193e-02 3.667099e-01
172 2 4 -9.694006e+00 -3.632379e+00 1.200130e+01 0 -1 0 -5.465484e-01 -5.365401e-01 4.725203e-01 4.360437e-01
173 2 4 -1.001708e+01 -3.927329e+00 1.161473e+01 0 -1 0 6.676725e-01 2.678560e-01 -6.830142e-01 -1.263258e-01
174 2 1 -9.443488e+00 -3.796981e+00 1.064889e+01 0 -1 0 -3.972725e-01 -6.867749e-01 5.227749e-01 3.118032e-01
175 2 1 -9.289865e+00 -3.024368e+00 1.107133e+01 0 -1 0 -7.921525e-01 4.467591e-01 3.513685e-01 2.223532e-01
176 2 2 -9.439569e+00 -2.764376e+00 1.144466e+01 0 -1 0 -7.918697e-01 5.949124e-01 8.476789e-02 -1.087935e-01
177 2 2 -1.059908e+01 -2.756657e+00 1.159079e+01 0 -1 0 -8.142199e-01 3.807932e-01 2.944865e-01 3.245308e-01
178 2 1 -1.074770e+01 -2.585528e+00 1.206989e+01 0 -1 0 -8.665850e-01 4.894735e-01 9.719099e-02 3.289363e-04
179 2 4 -1.067265e+01 -2.407990e+00 1.249296e+01 0 -1 0 -7.907129e-01 4.608941e-01 -1.030166e-01 -3.895347e-01
180 2 1 -1.080016e+01 -2.572562e+00 1.320268e+01 0 -1 0 -4.797685e-01 4.785565e-01 -7.046835e-01 2.103020e-01
181 2 4 -1.062209e+01 -2.855042e+00 1.321214e+01 0 -1 0 5.822119e-01 -1.854805e-01 7.017119e-01 3.663697e-01
182 2 2 -1.132304e+01 -3.704240e+00 1.415664e+01 0 -1 0 7.172927e-01 -8.146613e-02 -3.281854e-01 -6.092198e-01
183 2 3 -1.038770e+01 -3.457744e+00 1.495258e+01 0 -1 0 6.277844e-01 -6.495419e-01 -1.390818e-01 -4.057565e-01
184 2 4 -1.017815e+01 -4.391157e+00 1.438863e+01 0 -1 0 -8.227250e-01 1.051813e-01 3.250357e-01 4.543261e-01
185 2 3 -1.009934e+01 -4.235719e+00 1.409918e+01 0 -1 0 -1.140441e-01 5.541158e-01 6.796458e-01 -4.669381e-01
186 2 1 -9.985372e+00 -4.915406e+00 1.385752e+01 0 -1 0 -2.271679e-01 3.672848e-01 -4.210695e-01 -7.976197e-01
187 2 1 -1.021226e+01 -4.999718e+00 1.403803e+01 0 -1 0 -5.173309e-01 6.890445e-01 -1.853738e-01 4.724648e-01
188 2 2 -1.094495e+01 -5.744847e+00 1.307124e+01 0 -1 0 -7.190042e-02 2.354385e-01 -9.623172e-01 -1.155187e-01
189 2 4 -1.069005e+01 -5.562033e+00 1.295030e+01 0 -1 0 -5.063774e-01 5.939581e-01 2.465101e-02 -6.246504e-01
190 2 4 -1.142183e+01 -6.314994e+00 1.216796e+01 0 -1 0 5.917811e-01 1.462424e-01 -5.924528e-01 -5.266953e-01
191 2 1 -1.119102e+01 -5.392612e+00 1.175261e+01 0 -1 0 -2.228400e-01 4.028053e-01 5.339673e-01 7.092032e-01
192 2 4 -9.908633e+00 -5.402849e+00 1.147100e+01 0 -1 0 1.164440e-01 7.083506e-01 -6.492605e-01 2.512787e-01
193 2 4 -9.584105e+00 -5.633206e+00 1.121474e+01 0 -1 0 5.809847e-02 3.629023e-01 -9.014305e-01 2.288002e-01
194 2 1 -9.511418e+00 -6.036637e+00 1.103227e+01 0 -1 0 -1.003373e-01 -2.115857e-01 -9.399282e-01 2.483925e-01
195 2 3 -9.626436e+00 -6.473494e+00 1.076467e+01 0 -1 0 -1.673434e-01 -5.267419e-01 -7.770382e-01 3.012487e-01
196 2 4 -9.912972e+00 -6.714730e+00 1.045531e+01 0 -1 0 3.178858e-01 7.751805e-01 4.875024e-01 -2.457342e-01
197 2 2 -1.030565e+01 -7.142608e+00 1.067108e+01 0 -1 0 7.369629e-01 -2.814103e-01 -6.076581e-01 -9.190004e-02
198 2 4 -1.099650e+01 -6.394600e+00 9.989915e+00 0 -1 0 -3.125202e-01 6.515303e-01 4.158944e-01 -5.521514e-01
199 2 3 -1.160010e+01 -6.261468e+00 9.988011e+00 0 -1 0 -3.705416e-01 7.688110e-01 2.771627e-01 -4.413722e-01
200 2 4 -1.195766e+01 -5.884580e+00 9.801953e+00 0 -1 0 -1.816116e-01 8.958384e-01 -4.449040e-02 -4.031270e-01
