ITEM: TIMESTEP
20000000
ITEM: NUMBER OF ATOMS
200
ITEM: BOX BOUNDS pp pp pp
-2.0000000000000000e+01 2.0000000000000000e+01
-2.0000000000000000e+01 2.0000000000000000e+01
-2.0000000000000000e+01 2.0000000000000000e+01
ITEM: ATOMS id mol type x y z ix iy iz c_quat[1] c_quat[2] c_quat[3] c_quat[4]
1 1 1 1.620453e+01 1.712646e+01 8.710553e+00 -1 -1 0 -9.580566e-01 5.045721e-02 1.021785e-01 -2.629470e-01
2 1 2 1.479617e+01 1.686407e+01 9.005723e+00 -1 -1 0 -3.077561e-01 -3.650658e-01 -7.568961e-01 4.462302e-01
3 1 1 1.554967e+01 1.713812e+01 9.065538e+00 -1 -1 0 4.637904e-01 3.906456e-01 -5.739229e-01 -5.503699e-01
4 1 3 1.519160e+01 1.757376e+01 9.429146e+00 -1 -1 0 -7.291747e-01 -1.854495e-01 -5.821874e-01 -3.081728e-01
5 1 1 1.574400e+01 1.827467e+01 1.023800e+01 -1 -1 0 -4.013855e-01 5.883149e-01 -1.710862e-01 -6.808118e-01
6 1 2 1.633419e+01 1.732216e+01 1.016869e+01 -1 -1 0 3.163986e-01 -6.081255e-01 6.292668e-01 3.661947e-01
7 1 4 1.618374e+01 1.740952e+01 1.120527e+01 -1 -1 0 3.456551e-01 -1.287857e-01 6.775828e-01 -6.362534e-01
8 1 1 1.612481e+01 1.697812e+01 1.136546e+01 -1 -1 0 -6.402329e-01 -2.237684e-01 -6.449007e-01 3.523246e-01
9 1 1 1.622340e+01 1.697951e+01 1.275542e+01 -1 -1 0 2.856178e-02 -5.879987e-01 3.950484e-01 -7.052506e-01
10 1 4 1.665357e+01 1.694789e+01 1.294425e+01 -1 -1 0 -3.890889e-01 4.480634e-01 -4.566214e-01 6.628317e-01
11 1 1 1.701617e+01 1.677798e+01 1.329418e+01 -1 -1 0 5.629194e-01 -1.965722e-01 5.549030e-01 -5.801412e-01
12 1 1 1.727288e+01 1.644114e+01 1.362033e+01 -1 -1 0 -6.458818e-01 -7.494207e-03 -6.112296e-01 4.573608e-01
13 1 3 1.743595e+01 1.603732e+01 1.379740e+01 -1 -1 0 -7.464231e-01 -2.336249e-01 -5.714679e-01 2.483877e-01
14 1 4 1.763041e+01 1.555707e+01 1.387332e+01 -1 -1 0 -7.728203e-01 -4.062258e-01 -4.845160e-01 5.453142e-02
15 1 4 1.798465e+01 1.512669e+01 1.367006e+01 -1 -1 0 7.466551e-01 4.460744e-01 3.874659e-01 3.056042e-01
16 1 2 1.845220e+01 1.480890e+01 1.356634e+01 -1 -1 0 5.797490e-01 5.793514e-01 3.471036e-01 4.558094e-01
17 1 1 1.891069e+01 1.477549e+01 1.330255e+01 -1 -1 0 -3.959436e-01 -6.780588e-01 -1.760397e-01 -5.936959e-01
18 1 2 1.943224e+01 1.482568e+01 1.316021e+01 -1 -1 0 -2.003058e-01 -6.624410e-01 -2.034358e-02 -7.215509e-01
19 1 3 1.987358e+01 1.514030e+01 1.317748e+01 -1 -1 0 1.464868e-01 -6.434970e-01 2.186620e-01 -7.187768e-01
20 1 1 -1.959592e+01 1.524329e+01 1.336991e+01 0 -1 0 2.348739e-01 -5.397438e-01 3.949107e-01 -7.053768e-01
21 1 4 -1.920228e+01 1.521361e+01 1.378264e+01 0 -1 0 -4.029271e-01 4.478094e-01 -5.019874e-01 6.205846e-01
22 1 1 -1.884999e+01 1.507369e+01 1.421825e+01 0 -1 0 -6.451952e-01 1.693360e-01 -5.499183e-01 5.026314e-01
23 1 4 -1.853886e+01 1.476330e+01 1.451636e+01 0 -1 0 -6.946985e-01 4.537803e-02 -6.354486e-01 3.339760e-01
24 1 3 -1.826426e+01 1.435015e+01 1.475024e+01 0 -1 0 -7.454787e-01 -1.751621e-01 -6.243065e-01 1.543414e-01
25 1 3 -1.808762e+01 1.394753e+01 1.463915e+01 0 -1 0 -7.241022e-01 -4.986207e-01 -4.723202e-01 -6.298394e-02
26 1 4 -1.775825e+01 1.349164e+01 1.444216e+01 0 -1 0 -6.404218e-01 -5.712882e-01 -4.336526e-01 -2.746547e-01
27 1 4 -1.734071e+01 1.328472e+01 1.421582e+01 0 -1 0 -4.410992e-01 -6.887797e-01 -2.706438e-01 -5.077066e-01
28 1 1 -1.689280e+01 1.339058e+01 1.398459e+01 0 -1 0 -2.987360e-01 -6.965572e-01 -1.220782e-02 -6.522391e-01
29 1 1 -1.638047e+01 1.359007e+01 1.383746e+01 0 -1 0 1.790917e-03 -7.120092e-01 -9.615946e-02 -6.955523e-01
30 1 4 -1.596446e+01 1.383137e+01 1.386609e+01 0 -1 0 -2.337984e-01 6.997294e-01 -1.514799e-01 6.578533e-01
31 1 4 -1.557905e+01 1.408227e+01 1.404918e+01 0 -1 0 -4.505480e-01 5.394801e-01 -2.503593e-01 6.657988e-01
32 1 3 -1.527458e+01 1.421763e+01 1.441507e+01 0 -1 0 -6.189400e-01 4.503691e-01 -4.799773e-01 4.286057e-01
33 1 3 -1.476813e+01 1.410014e+01 1.478100e+01 0 -1 0 -6.420490e-01 2.633902e-01 -6.739197e-01 2.534384e-01
34 1 1 -1.430869e+01 1.378222e+01 1.480868e+01 0 -1 0 -6.287307e-01 4.730577e-02 -7.755058e-01 3.241428e-02
35 1 2 -1.383151e+01 1.348039e+01 1.457352e+01 0 -1 0 -5.370774e-01 -2.684076e-01 -7.917675e-01 -1.122920e-01
36 1 2 -1.346208e+01 1.333055e+01 1.428791e+01 0 -1 0 -4.281693e-01 -4.067249e-01 -7.797911e-01 -2.077780e-01
37 1 1 -1.318963e+01 1.324249e+01 1.384207e+01 0 -1 0 -2.769017e-01 -6.016547e-01 -6.869271e-01 -2.991124e-01
38 1 1 -1.301309e+01 1.344308e+01 1.330582e+01 0 -1 0 -6.758820e-02 -7.080429e-01 -5.327016e-01 -4.586241e-01
39 1 4 -1.286040e+01 1.378840e+01 1.291892e+01 0 -1 0 -6.725359e-02 8.389236e-01 2.151449e-01 4.953755e-01
40 1 4 -1.270642e+01 1.413697e+01 1.275803e+01 0 -1 0 -2.570282e-01 8.938516e-01 2.692384e-03 3.673672e-01
41 1 2 -1.229052e+01 1.457948e+01 1.257174e+01 0 -1 0 -3.523826e-01 8.092562e-01 -2.281608e-01 4.109422e-01
42 1 4 -1.176899e+01 1.484759e+01 1.269248e+01 0 -1 0 -4.293372e-01 6.607724e-01 -5.203922e-01 3.290005e-01
43 1 3 -1.124399e+01 1.488480e+01 1.272204e+01 0 -1 0 -4.746572e-01 4.653173e-01 -7.304095e-01 1.571060e-01
44 1 2 -1.074296e+01 1.476011e+01 1.261363e+01 0 -1 0 -4.480171e-01 2.350472e-01 -8.599568e-01 -6.713935e-02
45 1 1 -1.032810e+01 1.476529e+01 1.221002e+01 0 -1 0 -3.450404e-01 6.281469e-02 -9.362405e-01 -2.133324e-02
46 1 3 -1.004366e+01 1.454274e+01 1.179894e+01 0 -1 0 -2.885862e-01 -2.689173e-01 -9.038857e-01 -1.655059e-01
47 1 4 -9.960706e+00 1.432918e+01 1.136473e+01 0 -1 0 -1.826096e-01 -5.916322e-01 -7.727481e-01 -1.395902e-01
48 1 1 -1.006076e+01 1.425172e+01 1.080275e+01 0 -1 0 1.291293e-01 7.379551e-01 6.405875e-01 1.685097e-01
49 1 4 -1.008438e+01 1.441753e+01 1.031545e+01 0 -1 0 2.287478e-02 8.981479e-01 3.609525e-01 2.500410e-01
50 1 4 -9.979056e+00 1.466229e+01 9.897635e+00 0 -1 0 -3.295301e-02 9.473287e-01 1.055274e-01 3.005768e-01
51 1 4 -9.710557e+00 1.495599e+01 9.513457e+00 0 -1 0 -1.195404e-01 9.388152e-01 -4.996022e-02 3.191241e-01
52 1 1 -9.365078e+00 1.522748e+01 9.274748e+00 0 -1 0 -2.798856e-01 8.528585e-01 -3.147170e-01 3.086253e-01
53 1 3 -8.955239e+00 1.551969e+01 9.300123e+00 0 -1 0 -4.441026e-01 6.999095e-01 -4.798525e-01 2.874738e-01
54 1 4 -8.529177e+00 1.565545e+01 9.446729e+00 0 -1 0 -5.670521e-01 4.666929e-01 -6.780950e-01 2.892866e-02
55 1 4 -7.979456e+00 1.573087e+01 9.294142e+00 0 -1 0 -4.651873e-01 3.129985e-01 -8.269614e-01 -4.204263e-02
56 1 4 -7.489248e+00 1.566094e+01 9.085535e+00 0 -1 0 -4.281093e-01 2.138252e-02 -8.865963e-01 -1.738166e-01
57 1 1 -7.117514e+00 1.564948e+01 8.629996e+00 0 -1 0 -2.386796e-01 -1.835647e-01 -9.186660e-01 -2.557124e-01
58 1 1 -6.988679e+00 1.564309e+01 8.150332e+00 0 -1 0 -1.083605e-01 -4.374189e-01 -8.020789e-01 -3.919083e-01
59 1 3 -7.001109e+00 1.589150e+01 7.614881e+00 0 -1 0 3.152107e-02 6.156807e-01 6.804099e-01 3.962147e-01
60 1 4 -7.005695e+00 1.618561e+01 7.218902e+00 0 -1 0 -1.468763e-01 7.330912e-01 5.452322e-01 3.791127e-01
61 1 2 -7.107593e+00 1.660543e+01 7.001556e+00 0 -1 0 -2.984586e-01 8.625405e-01 2.880974e-01 2.897348e-01
62 1 3 -7.084691e+00 1.706616e+01 6.829170e+00 0 -1 0 -4.617179e-01 8.447447e-01 1.227023e-01 2.411787e-01
63 1 2 -6.998595e+00 1.757382e+01 6.866701e+00 0 -1 0 -5.264968e-01 8.267810e-01 -1.787531e-01 8.533227e-02
64 1 4 -6.691255e+00 1.804949e+01 6.826214e+00 0 -1 0 -5.001479e-01 7.428797e-01 -4.437461e-01 3.273110e-02
65 1 2 -6.291904e+00 1.828082e+01 6.790217e+00 0 -1 0 -4.615387e-01 5.391892e-01 -6.897401e-01 -1.432330e-01
66 1 1 -5.914407e+00 1.851239e+01 6.514694e+00 0 -1 0 -3.530847e-01 3.314836e-01 -8.549385e-01 -1.858226e-01
67 1 2 -5.543965e+00 1.858818e+01 6.111533e+00 0 -1 0 -2.392203e-01 1.439493e-01 -9.409428e-01 -1.915174e-01
68 1 1 -5.349766e+00 1.866399e+01 5.618832e+00 0 -1 0 -3.851911e-02 -1.541569e-01 -9.625668e-01 -2.195840e-01
69 1 1 -5.375949e+00 1.863150e+01 5.139193e+00 0 -1 0 6.474472e-02 -3.625364e-01 -9.243020e-01 -1.002060e-01
70 1 2 -5.679489e+00 1.862110e+01 4.657382e+00 0 -1 0 -1.064957e-01 6.090899e-01 7.662587e-01 1.746878e-01
71 1 3 -5.994244e+00 1.875799e+01 4.322246e+00 0 -1 0 -1.486006e-01 7.680123e-01 6.140517e-01 1.049543e-01
72 1 4 -6.222574e+00 1.910461e+01 3.981381e+00 0 -1 0 -1.717640e-01 9.339594e-01 2.810166e-01 1.387324e-01
73 1 1 -6.254563e+00 1.948746e+01 3.562405e+00 0 -1 0 -2.642405e-01 9.497904e-01 4.637025e-02 1.610121e-01
74 1 1 -6.082049e+00 1.997529e+01 3.377238e+00 0 -1 0 -3.930466e-01 8.583441e-01 -2.830799e-01 1.691906e-01
75 1 3 -5.527371e+00 -1.967951e+01 3.321589e+00 0 0 0 -3.644783e-01 7.244238e-01 -5.801668e-01 7.597467e-02
76 1 1 -5.135206e+00 -1.949135e+01 3.150766e+00 0 0 0 -3.413193e-01 4.936770e-01 -7.982473e-01 -5.084676e-02
77 1 4 -4.693170e+00 -1.957046e+01 2.752238e+00 0 0 0 -3.053407e-01 1.707256e-01 -9.316476e-01 -9.824734e-02
78 1 1 -4.458262e+00 -1.967619e+01 2.257481e+00 0 0 0 -1.733593e-01 -9.447511e-02 -9.791564e-01 -4.768414e-02
79 1 4 -4.420490e+00 -1.978542e+01 1.603308e+00 0 0 0 -8.398617e-02 -3.478142e-01 -9.065451e-01 -2.239367e-01
80 1 2 -4.610174e+00 -1.967212e+01 1.154658e+00 0 0 0 -4.687367e-02 5.950654e-01 7.868184e-01 1.568978e-01
81 1 4 -4.842563e+00 -1.949977e+01 6.983443e-01 0 0 0 -1.143456e-01 8.462745e-01 4.908429e-01 1.726780e-01
82 1 4 -4.868291e+00 -1.916393e+01 3.117180e-01 0 0 0 -1.994411e-01 9.243072e-01 2.464163e-01 2.125053e-01
83 1 4 -4.781671e+00 -1.872120e+01 -3.500461e-03 0 0 0 -3.508334e-01 9.079765e-01 1.324738e-01 1.869369e-01
84 1 4 -4.656706e+00 -1.816874e+01 -1.099041e-01 0 0 0 -4.926929e-01 8.441691e-01 -9.561527e-02 1.883880e-01
85 1 1 -4.380225e+00 -1.772322e+01 -2.186263e-02 0 0 0 -5.558237e-01 7.262984e-01 -4.044072e-01 2.331738e-03
86 1 1 -3.977114e+00 -1.737513e+01 8.993544e-04 0 0 0 -5.733375e-01 5.772752e-01 -5.760757e-01 -7.857669e-02
87 1 3 -3.512220e+00 -1.709181e+01 -2.049281e-01 0 0 0 -5.403622e-01 4.079000e-01 -7.352043e-01 -3.317937e-02
88 1 2 -3.034762e+00 -1.703357e+01 -4.004936e-01 0 0 0 -3.946421e-01 1.704031e-01 -8.737918e-01 -2.273948e-01
89 1 2 -2.727800e+00 -1.710135e+01 -8.508966e-01 0 0 0 3.041859e-01 4.257973e-02 8.944372e-01 3.250231e-01
90 1 3 -2.498068e+00 -1.707316e+01 -1.310767e+00 0 0 0 9.264521e-02 3.518965e-01 8.683309e-01 3.370270e-01
91 1 3 -2.545920e+00 -1.683039e+01 -1.799635e+00 0 0 0 -9.106192e-02 7.532881e-01 5.744058e-01 3.071202e-01
92 1 2 -2.557780e+00 -1.646769e+01 -2.186642e+00 0 0 0 -1.550659e-01 9.126814e-01 2.155010e-01 3.106873e-01
93 1 1 -2.393174e+00 -1.612650e+01 -2.442293e+00 0 0 0 -4.162582e-01 8.557961e-01 8.940321e-02 2.938525e-01
94 1 2 -2.726098e+00 -1.592708e+01 -3.435571e+00 0 0 0 4.949629e-01 1.518892e-01 7.045794e-02 -8.526295e-01
95 1 3 -1.950609e+00 -1.550988e+01 -3.827408e+00 0 0 0 7.396942e-02 4.754992e-01 7.038753e-01 5.224832e-01
96 1 2 -1.421367e+00 -1.589149e+01 -3.968428e+00 0 0 0 -2.646765e-01 -2.227875e-01 -4.691705e-01 8.125214e-01
97 1 2 -1.014334e+00 -1.584200e+01 -4.730303e+00 0 0 0 6.277718e-01 -1.614406e-01 7.470557e-01 -1.474698e-01
98 1 4 -2.634484e-01 -1.588553e+01 -4.303129e+00 0 0 0 7.927436e-01 -3.635042e-01 1.855294e-01 -4.527704e-01
99 1 2 -2.435407e-03 -1.596251e+01 -3.827610e+00 0 0 0 8.919335e-01 -2.248150e-01 3.922645e-01 6.437693e-03
100 1 1 4.202758e-01 -1.610670e+01 -3.600581e+00 0 0 0 -8.310991e-01 5.367579e-02 -4.885248e-01 -2.602627e-01
101 2 4 -2.469476e+00 -1.065239e+01 -1.157078e-01 0 0 0 -2.905921e-02 -3.421861e-01 -5.311371e-01 -7.745693e-01
102 2 3 -2.531010e+00 -1.125488e+01 1.076606e+00 0 0 0 3.219980e-01 2.077568e-01 -7.970183e-01 4.668149e-01
103 2 1 -2.590156e+00 -1.171724e+01 1.097135e+00 0 0 0 1.958243e-01 -1.766801e-01 -7.621517e-01 5.912375e-01
104 2 3 -1.849235e+00 -1.260078e+01 1.094854e-01 0 0 0 8.170137e-01 3.543783e-01 -4.534274e-01 -3.617030e-02
105 2 3 -2.226371e+00 -1.312381e+01 -6.307927e-01 0 0 0 -7.280368e-01 -4.336213e-01 4.912888e-01 2.014209e-01
106 2 2 -2.411601e+00 -1.378266e+01 -9.813667e-01 0 0 0 -5.820376e-01 -1.525716e-01 -7.882300e-01 1.290256e-01
107 2 3 -2.305890e+00 -1.420925e+01 -1.285295e+00 0 0 0 -6.728589e-01 -4.705288e-01 -5.502563e-01 -1.519260e-01
108 2 4 -1.898039e+00 -1.514194e+01 -6.468745e-01 0 0 0 -6.430852e-01 -7.817558e-02 7.043815e-01 2.901320e-01
109 2 3 -2.345816e+00 -1.524152e+01 -7.372277e-01 0 0 0 -6.995665e-01 1.682390e-01 6.931480e-01 -4.299000e-02
110 2 2 -3.097311e+00 -1.582969e+01 -1.497029e+00 0 0 0 -6.267652e-01 -4.870889e-01 3.507672e-02 6.071897e-01
111 2 2 -3.435908e+00 -1.625297e+01 -1.450175e+00 0 0 0 -8.026962e-01 -4.271290e-01 2.561021e-01 3.281026e-01
112 2 3 -3.791582e+00 -1.668473e+01 -1.416397e+00 0 0 0 -8.726395e-01 -4.295721e-01 2.202766e-01 7.379883e-02
113 2 3 -3.833368e+00 -1.719668e+01 -1.351596e+00 0 0 0 -8.016706e-01 -3.815596e-01 3.813933e-01 -2.574407e-01
114 2 2 -3.699621e+00 -1.777548e+01 -1.201163e+00 0 0 0 -7.707981e-01 -2.084070e-01 4.095364e-01 -4.412671e-01
115 2 4 -3.547011e+00 -1.815608e+01 -9.062569e-01 0 0 0 -5.334899e-01 -1.598439e-01 4.547862e-01 -6.949877e-01
116 2 4 -3.563953e+00 -1.847839e+01 -5.228146e-01 0 0 0 -4.344673e-01 -5.693950e-02 3.721044e-01 -8.182508e-01
117 2 1 -3.606906e+00 -1.869256e+01 -3.447713e-02 0 0 0 -2.604802e-01 8.197176e-02 2.644696e-01 -9.249251e-01
118 2 1 -3.715306e+00 -1.860164e+01 4.719229e-01 0 0 0 1.299075e-01 1.464741e-01 1.582040e-01 -9.678021e-01
119 2 1 -4.005046e+00 -1.855655e+01 8.464062e-01 0 0 0 2.005979e-01 2.506520e-01 -4.135100e-02 -9.461628e-01
120 2 1 -4.403851e+00 -1.848928e+01 1.216271e+00 0 0 0 5.088915e-01 2.566658e-01 -4.470472e-03 -8.216643e-01
121 2 3 -4.903285e+00 -1.860180e+01 1.474278e+00 0 0 0 -7.188101e-01 -2.847164e-01 3.415940e-02 6.333102e-01
122 2 1 -5.276899e+00 -1.896839e+01 1.664162e+00 0 0 0 -8.648035e-01 -3.400237e-01 1.405270e-01 3.416884e-01
123 2 4 -5.573567e+00 -1.945144e+01 1.818298e+00 0 0 0 -9.279921e-01 -3.077167e-01 2.002140e-01 6.368290e-02
124 2 1 -5.616685e+00 -1.990504e+01 2.050818e+00 0 0 0 -8.799091e-01 -3.285257e-01 2.168713e-01 -2.660782e-01
125 2 4 -5.432109e+00 1.961633e+01 2.393816e+00 0 -1 0 -7.675076e-01 -1.909969e-01 3.119386e-01 -5.264472e-01
126 2 2 -5.288477e+00 1.923045e+01 2.878263e+00 0 -1 0 -6.551552e-01 -2.032465e-02 2.708959e-01 -7.049638e-01
127 2 4 -5.132564e+00 1.920458e+01 3.362386e+00 0 -1 0 -3.422405e-01 5.300086e-02 1.933502e-01 -9.179750e-01
128 2 4 -5.087972e+00 1.943886e+01 3.788995e+00 0 -1 0 4.499171e-02 6.904029e-02 1.324557e-01 -9.877574e-01
129 2 1 -5.246741e+00 1.961896e+01 4.338608e+00 0 -1 0 2.136400e-01 1.286814e-01 6.837045e-02 -9.659837e-01
130 2 2 -5.591889e+00 1.979310e+01 4.682138e+00 0 -1 0 5.249024e-01 1.491957e-01 2.851505e-02 -8.374993e-01
131 2 3 -5.964600e+00 1.969895e+01 5.070734e+00 0 -1 0 7.161330e-01 2.949110e-01 -1.559276e-03 -6.325967e-01
132 2 4 -6.277908e+00 1.934608e+01 5.340068e+00 0 -1 0 -8.524284e-01 -3.878549e-01 5.751315e-02 3.458709e-01
133 2 4 -6.493980e+00 1.894163e+01 5.481648e+00 0 -1 0 -8.902470e-01 -4.220118e-01 1.460685e-01 8.961220e-02
134 2 3 -6.575653e+00 1.847578e+01 5.535654e+00 0 -1 0 -8.583465e-01 -4.359369e-01 2.334679e-01 -1.367225e-01
135 2 4 -6.550121e+00 1.796111e+01 5.627488e+00 0 -1 0 8.117132e-01 3.589505e-01 -2.814964e-01 3.647411e-01
136 2 3 -6.309831e+00 1.749124e+01 5.889651e+00 0 -1 0 7.126602e-01 1.745694e-01 -3.528617e-01 5.806286e-01
137 2 1 -6.025467e+00 1.721640e+01 6.264559e+00 0 -1 0 -4.823195e-01 -2.791537e-02 3.958952e-01 -7.809325e-01
138 2 3 -5.897131e+00 1.712333e+01 6.869131e+00 0 -1 0 -1.898147e-01 9.153609e-02 4.116945e-01 -8.866223e-01
139 2 2 -6.011040e+00 1.696377e+01 7.326463e+00 0 -1 0 -8.280131e-03 2.077873e-01 3.814645e-01 -9.006890e-01
140 2 3 -6.340948e+00 1.699679e+01 7.804451e+00 0 -1 0 2.429342e-01 3.126918e-01 2.212920e-01 -8.911996e-01
141 2 1 -6.787861e+00 1.689298e+01 8.148890e+00 0 -1 0 4.422762e-01 4.496713e-01 8.041868e-02 -7.718293e-01
142 2 2 -7.337814e+00 1.689819e+01 8.179353e+00 0 -1 0 6.388707e-01 5.080208e-01 -8.065174e-02 -5.720615e-01
143 2 4 -7.751939e+00 1.657440e+01 8.130817e+00 0 -1 0 -8.225281e-01 -3.865652e-01 2.375216e-01 3.429262e-01
144 2 4 -8.082914e+00 1.616532e+01 8.208195e+00 0 -1 0 8.630832e-01 4.042804e-01 -2.816052e-01 -1.111002e-01
145 2 1 -8.278474e+00 1.568169e+01 8.229190e+00 0 -1 0 8.338850e-01 3.624161e-01 -3.725201e-01 1.857935e-01
146 2 1 -8.258566e+00 1.516487e+01 8.317426e+00 0 -1 0 7.653342e-01 1.655045e-01 -4.933216e-01 3.788214e-01
147 2 1 -8.287588e+00 1.475802e+01 8.698290e+00 0 -1 0 5.946446e-01 3.279834e-03 -4.631920e-01 6.571455e-01
148 2 2 -8.360286e+00 1.454345e+01 9.203827e+00 0 -1 0 3.777117e-01 -1.630589e-01 -3.046152e-01 8.590432e-01
149 2 4 -8.610189e+00 1.440940e+01 9.696186e+00 0 -1 0 -3.467630e-01 2.567034e-01 1.864111e-01 -8.826719e-01
150 2 1 -8.733045e+00 1.466994e+01 1.011218e+01 0 -1 0 -4.590738e-02 2.323619e-01 2.631635e-02 -9.711889e-01
151 2 1 -9.005528e+00 1.493742e+01 1.059046e+01 0 -1 0 1.009418e-01 3.147912e-01 -6.670348e-02 -9.414180e-01
152 2 1 -9.323537e+00 1.528654e+01 1.087461e+01 0 -1 0 2.555831e-01 3.617532e-01 -1.356586e-01 -8.862329e-01
153 2 4 -9.793862e+00 1.551108e+01 1.102243e+01 0 -1 0 5.530549e-01 3.319394e-01 -2.422405e-01 -7.247524e-01
154 2 1 -1.038032e+01 1.540819e+01 1.106898e+01 0 -1 0 8.283820e-01 1.640139e-01 -2.947456e-01 -4.472222e-01
155 2 2 -1.083111e+01 1.518494e+01 1.127949e+01 0 -1 0 9.067847e-01 2.111597e-01 -3.275709e-01 -1.607806e-01
156 2 4 -1.126512e+01 1.475907e+01 1.145976e+01 0 -1 0 9.055914e-01 2.533257e-01 -3.396377e-01 1.940468e-02
157 2 3 -1.124457e+01 1.425319e+01 1.173793e+01 0 -1 0 8.588424e-01 1.380800e-01 -4.433162e-01 2.163201e-01
158 2 2 -1.139458e+01 1.388353e+01 1.212846e+01 0 -1 0 7.579351e-01 -9.939926e-02 -4.024777e-01 5.036526e-01
159 2 1 -1.152991e+01 1.365814e+01 1.266139e+01 0 -1 0 5.664295e-01 -2.888786e-01 -3.315990e-01 6.969569e-01
160 2 3 -1.164268e+01 1.383988e+01 1.313912e+01 0 -1 0 -2.579923e-01 3.236969e-01 1.273751e-01 -9.013523e-01
161 2 1 -1.186154e+01 1.404769e+01 1.354300e+01 0 -1 0 6.362780e-02 3.856247e-01 6.299333e-02 -9.183011e-01
162 2 1 -1.233643e+01 1.420201e+01 1.384953e+01 0 -1 0 2.268538e-01 4.883525e-01 -9.717274e-02 -8.370225e-01
163 2 4 -1.280902e+01 1.440040e+01 1.401411e+01 0 -1 0 3.842400e-01 4.994051e-01 -2.230530e-01 -7.437752e-01
164 2 4 -1.334209e+01 1.446160e+01 1.388960e+01 0 -1 0 5.757744e-01 4.649111e-01 -3.540197e-01 -5.718493e-01
165 2 3 -1.375741e+01 1.435775e+01 1.373118e+01 0 -1 0 7.122666e-01 3.093349e-01 -5.037321e-01 -3.784735e-01
166 2 3 -1.423506e+01 1.415446e+01 1.359221e+01 0 -1 0 7.741898e-01 2.509773e-01 -5.564888e-01 -1.672146e-01
167 2 4 -1.455541e+01 1.355007e+01 1.370063e+01 0 -1 0 7.637078e-01 -5.434783e-02 -6.393588e-01 7.083145e-02
168 2 2 -1.482995e+01 1.317293e+01 1.394926e+01 0 -1 0 6.691804e-01 -2.433548e-01 -5.892979e-01 3.817120e-01
169 2 2 -1.522017e+01 1.305703e+01 1.431766e+01 0 -1 0 5.476703e-01 -4.545434e-01 -4.579637e-01 5.326508e-01
170 2 1 -1.562796e+01 1.301624e+01 1.459612e+01 0 -1 0 5.319077e-01 -5.494992e-01 -2.888388e-01 5.759314e-01
171 2 1 -1.596067e+01 1.324414e+01 1.493701e+01 0 -1 0 -1.713321e-01 6.833946e-01 1.222989e-01 -6.990423e-01
172 2 4 -1.637645e+01 1.358684e+01 1.506559e+01 0 -1 0 -9.631671e-02 7.059618e-01 -1.260513e-01 -6.902551e-01
173 2 4 -1.670166e+01 1.398586e+01 1.494851e+01 0 -1 0 3.800731e-03 6.688049e-01 -3.812250e-01 -6.382422e-01
174 2 1 -1.693500e+01 1.433492e+01 1.468997e+01 0 -1 0 1.414900e-01 5.641683e-01 -5.916000e-01 -5.583047e-01
175 2 1 -1.714931e+01 1.455202e+01 1.425959e+01 0 -1 0 3.363424e-01 3.533830e-01 -7.198118e-01 -4.938272e-01
176 2 2 -1.746829e+01 1.456869e+01 1.384778e+01 0 -1 0 4.734475e-01 1.917528e-01 -8.375348e-01 -1.939426e-01
177 2 2 -1.804213e+01 1.439654e+01 1.358931e+01 0 -1 0 6.114167e-01 1.083691e-02 -7.852210e-01 -9.736606e-02
178 2 1 -1.855641e+01 1.407710e+01 1.355517e+01 0 -1 0 6.514880e-01 -2.513000e-01 -7.127107e-01 6.674750e-02
179 2 4 -1.903955e+01 1.406013e+01 1.360111e+01 0 -1 0 6.433228e-01 -3.848096e-01 -6.236980e-01 2.214908e-01
180 2 1 -1.955475e+01 1.411131e+01 1.378325e+01 0 -1 0 6.577892e-01 -4.728581e-01 -4.510536e-01 3.745252e-01
181 2 4 -1.998627e+01 1.426858e+01 1.403626e+01 0 -1 0 -5.001039e-01 6.627693e-01 2.449717e-01 -5.006214e-01
182 2 2 1.974555e+01 1.464126e+01 1.426236e+01 -1 -1 0 -3.974440e-01 6.370794e-01 -5.532716e-02 -6.581086e-01
183 2 3 1.941185e+01 1.514376e+01 1.433954e+01 -1 -1 0 -1.098658e-01 6.969517e-01 -2.740635e-01 -6.535113e-01
184 2 4 1.921896e+01 1.565112e+01 1.414866e+01 -1 -1 0 1.568166e-01 5.850969e-01 -4.758716e-01 -6.376648e-01
185 2 3 1.883142e+01 1.592619e+01 1.379464e+01 -1 -1 0 1.782472e-01 5.321832e-01 -6.428976e-01 -5.212405e-01
186 2 1 1.859245e+01 1.609589e+01 1.332918e+01 -1 -1 0 3.394501e-01 3.882842e-01 -7.798650e-01 -3.547106e-01
187 2 1 1.831198e+01 1.604876e+01 1.294068e+01 -1 -1 0 4.653014e-01 1.096502e-01 -8.566375e-01 -1.940196e-01
188 2 2 1.779315e+01 1.600151e+01 1.265964e+01 -1 -1 0 5.593219e-01 -7.576092e-02 -8.168269e-01 -1.192187e-01
189 2 4 1.724901e+01 1.585994e+01 1.262950e+01 -1 -1 0 6.521010e-01 -2.278734e-01 -7.210082e-01 5.463746e-02
190 2 4 1.670824e+01 1.577517e+01 1.277087e+01 -1 -1 0 -6.438923e-01 5.014087e-01 5.307788e-01 -2.286174e-01
191 2 1 1.634227e+01 1.596100e+01 1.293826e+01 -1 -1 0 -4.038823e-01 7.191908e-01 2.595575e-01 -5.022684e-01
192 2 4 1.598842e+01 1.636276e+01 1.312840e+01 -1 -1 0 2.263034e-01 -6.977423e-01 1.299144e-01 6.671317e-01
193 2 4 1.510957e+01 1.619723e+01 1.302224e+01 -1 -1 0 1.436806e-01 9.448893e-01 2.029602e-01 -2.129492e-01
194 2 1 1.513914e+01 1.667147e+01 1.272391e+01 -1 -1 0 -7.409520e-01 -5.166864e-01 -3.427495e-01 -2.579694e-01
195 2 3 1.446521e+01 1.640306e+01 1.341311e+01 -1 -1 0 3.746953e-01 -5.745932e-01 7.198186e-01 -1.063359e-01
196 2 4 1.326518e+01 1.765886e+01 1.337115e+01 -1 -1 0 4.308266e-02 -5.680834e-01 -6.561003e-01 4.949319e-01
197 2 2 1.309050e+01 1.786801e+01 1.418119e+01 -1 -1 0 -2.626095e-01 -3.555660e-01 2.228846e-01 -8.688680e-01
198 2 4 1.329531e+01 1.790260e+01 1.448449e+01 -1 -1 0 -2.486429e-01 2.446875e-01 -4.791259e-01 8.054459e-01
199 2 3 1.318478e+01 1.803141e+01 1.509794e+01 -1 -1 0 -3.898871e-01 3.458906e-01 5.300247e-01 -6.688958e-01
200 2 4 1.278536e+01 1.783780e+01 1.537203e+01 -1 -1 0 -3.001681e-01 3.792403e-01 3.108407e-01 -8.182017e-01
