ITEM: TIMESTEP
264000000
ITEM: NUMBER OF ATOMS
200
ITEM: BOX BOUNDS pp pp pp
-2.0000000000000000e+01 2.0000000000000000e+01
-2.0000000000000000e+01 2.0000000000000000e+01
-2.0000000000000000e+01 2.0000000000000000e+01
ITEM: ATOMS id mol type x y z ix iy iz c_quat[1] c_quat[2] c_quat[3] c_quat[4]
1 1 1 1.423371e+01 -1.781638e+01 8.177208e+00 -1 0 0 -2.315913e-01 3.603844e-01 7.100652e-01 -5.588345e-01
2 1 2 1.436951e+01 -1.889125e+01 7.542940e+00 -1 0 0 6.677369e-01 5.530769e-01 1.786330e-01 -4.651061e-01
3 1 1 1.415724e+01 -1.934162e+01 7.412429e+00 -1 0 0 7.838688e-01 6.093214e-01 -3.212837e-02 -1.150864e-01
4 1 3 1.418437e+01 -1.982164e+01 7.397598e+00 -1 0 0 -7.778508e-01 -5.520277e-01 1.351887e-01 -2.682119e-01
5 1 1 1.375235e+01 -1.990492e+01 8.756741e+00 -1 0 0 -3.482353e-01 1.011158e-01 7.767415e-01 -5.149567e-01
6 1 2 1.358225e+01 1.968756e+01 8.960403e+00 -1 -1 0 1.326407e-03 -4.029931e-01 -6.657027e-01 6.280404e-01
7 1 4 1.483750e+01 1.980805e+01 9.054026e+00 -1 -1 0 3.336588e-01 -7.779382e-01 -1.867681e-01 4.985997e-01
8 1 1 1.499251e+01 1.924467e+01 8.713534e+00 -1 -1 0 1.334453e-01 -1.692036e-01 -9.451065e-01 -2.456341e-01
9 1 1 1.537875e+01 1.881313e+01 8.208182e+00 -1 -1 0 -3.820269e-01 -6.108359e-01 -3.068967e-01 6.218918e-01
10 1 4 1.592940e+01 1.806579e+01 8.978470e+00 -1 -1 0 -7.001234e-01 -5.138307e-02 -4.388882e-01 5.608603e-01
11 1 1 1.614639e+01 1.758343e+01 9.196927e+00 -1 -1 0 6.577626e-01 2.195739e-01 5.078792e-01 -5.110718e-01
12 1 1 1.679573e+01 1.807910e+01 8.583305e+00 -1 -1 0 1.077658e-01 5.691801e-01 6.952952e-02 -8.121491e-01
13 1 3 1.756484e+01 1.769394e+01 8.736959e+00 -1 -1 0 -1.706022e-01 -4.303807e-01 4.400885e-01 -7.694085e-01
14 1 4 1.786375e+01 1.756463e+01 9.057351e+00 -1 -1 0 -2.193913e-01 2.209858e-01 -6.774889e-01 6.663644e-01
15 1 4 1.880549e+01 1.688887e+01 8.982179e+00 -1 -1 0 -7.054382e-01 -5.845591e-01 3.595816e-01 -1.770558e-01
16 1 2 1.845540e+01 1.673716e+01 9.514550e+00 -1 -1 0 2.664695e-01 -4.623891e-01 -8.376120e-01 -1.166037e-01
17 1 1 1.897878e+01 1.566498e+01 1.004654e+01 -1 -1 0 -5.535786e-01 4.963404e-01 -4.417863e-01 5.020177e-01
18 1 2 1.947890e+01 1.587121e+01 9.880572e+00 -1 -1 0 8.196968e-01 1.232125e-01 4.641929e-01 -3.121552e-01
19 1 3 1.944946e+01 1.559890e+01 9.725986e+00 -1 -1 0 -4.719059e-01 -4.167695e-01 -7.207287e-01 2.901003e-01
20 1 1 -1.958789e+01 1.552624e+01 1.080328e+01 0 -1 0 3.657678e-01 -5.504912e-01 6.889147e-01 -2.976069e-01
21 1 4 -1.886339e+01 1.622434e+01 1.064633e+01 0 -1 0 -2.044401e-01 7.831055e-01 4.780273e-02 -5.853758e-01
22 1 1 -1.900422e+01 1.507985e+01 1.168996e+01 0 -1 0 -2.195820e-01 -4.359273e-01 5.705706e-01 -6.604546e-01
23 1 4 -1.962930e+01 1.436265e+01 1.132801e+01 0 -1 0 3.539366e-01 -4.361067e-01 8.268887e-01 -2.819426e-02
24 1 3 -1.894760e+01 1.437312e+01 1.186980e+01 0 -1 0 8.990473e-01 4.400932e-02 -1.244549e-01 4.174782e-01
25 1 3 -1.899285e+01 1.360941e+01 1.202102e+01 0 -1 0 3.654056e-01 4.111824e-02 -9.299309e-01 -4.072893e-03
26 1 4 -1.860710e+01 1.330618e+01 1.239985e+01 0 -1 0 4.600649e-01 -3.250688e-01 3.176255e-01 -7.627480e-01
27 1 4 -1.769469e+01 1.315811e+01 1.265045e+01 0 -1 0 8.034965e-01 -3.758906e-01 -8.414331e-02 4.538937e-01
28 1 1 -1.811492e+01 1.271728e+01 1.249887e+01 0 -1 0 5.773227e-01 2.183855e-01 2.971420e-01 7.285005e-01
29 1 1 -1.862374e+01 1.233478e+01 1.352316e+01 0 -1 0 -3.067079e-01 9.262809e-01 2.183501e-01 -1.603793e-02
30 1 4 -1.872952e+01 1.280822e+01 1.313358e+01 0 -1 0 -2.150110e-01 9.733767e-01 -7.161881e-02 3.433294e-02
31 1 4 -1.965503e+01 1.232803e+01 1.369534e+01 0 -1 0 4.352488e-01 8.402376e-02 -8.306342e-01 -3.369648e-01
32 1 3 1.976880e+01 1.238355e+01 1.362486e+01 -1 -1 0 -6.684999e-01 2.256067e-01 7.066356e-01 5.362361e-02
33 1 3 1.972496e+01 1.332869e+01 1.390325e+01 -1 -1 0 -6.524409e-01 4.396757e-01 5.981106e-01 -1.525446e-01
34 1 1 1.930409e+01 1.404493e+01 1.429846e+01 -1 -1 0 3.197731e-01 -7.253797e-01 -4.879997e-01 -3.652750e-01
35 1 2 1.930847e+01 1.357261e+01 1.476967e+01 -1 -1 0 5.146513e-01 -1.306580e-01 -4.556714e-01 -7.144411e-01
36 1 2 -1.986419e+01 1.445887e+01 1.530646e+01 0 -1 0 2.809407e-01 -7.388692e-01 -3.638765e-01 4.926849e-01
37 1 1 -1.956243e+01 1.461904e+01 1.590224e+01 0 -1 0 -1.609190e-01 -3.869165e-02 6.157157e-01 -7.703909e-01
38 1 1 -1.905748e+01 1.418726e+01 1.569107e+01 0 -1 0 -3.495127e-01 1.924576e-03 -3.799463e-01 8.564333e-01
39 1 4 -1.811935e+01 1.320375e+01 1.557094e+01 0 -1 0 -7.018761e-01 -5.684600e-01 4.161221e-01 -1.051932e-01
40 1 4 -1.861009e+01 1.254704e+01 1.638079e+01 0 -1 0 3.239690e-01 4.504438e-01 -8.245286e-01 1.108922e-01
41 1 2 -1.927636e+01 1.303639e+01 1.675159e+01 0 -1 0 -5.424554e-01 7.005610e-01 -1.990147e-01 4.187476e-01
42 1 4 -1.894177e+01 1.350054e+01 1.737527e+01 0 -1 0 -5.248980e-01 8.392509e-01 7.125835e-02 1.227280e-01
43 1 3 -1.867569e+01 1.444417e+01 1.721872e+01 0 -1 0 5.083548e-01 2.861067e-01 -6.257566e-02 8.098165e-01
44 1 2 -1.920600e+01 1.501729e+01 1.757025e+01 0 -1 0 2.990657e-01 -6.503341e-01 -3.381829e-01 -6.109481e-01
45 1 1 -1.832205e+01 1.435766e+01 1.811583e+01 0 -1 0 -8.532965e-01 1.546461e-01 2.929258e-01 -4.026961e-01
46 1 3 -1.830087e+01 1.422062e+01 1.865884e+01 0 -1 0 4.891554e-01 -3.012986e-01 -2.576739e-01 7.768850e-01
47 1 4 -1.811231e+01 1.343353e+01 1.802209e+01 0 -1 0 6.942998e-01 8.310354e-02 4.147449e-01 -5.822614e-01
48 1 1 -1.728180e+01 1.320716e+01 1.818423e+01 0 -1 0 2.651689e-01 -1.257355e-01 8.606023e-01 -4.162207e-01
49 1 4 -1.708776e+01 1.280535e+01 1.816437e+01 0 -1 0 -4.106024e-01 -2.052809e-01 -8.834303e-01 9.389505e-02
50 1 4 -1.702944e+01 1.243512e+01 1.782994e+01 0 -1 0 5.037216e-01 6.094376e-01 5.834805e-01 1.854748e-01
51 1 4 -1.651673e+01 1.219824e+01 1.764786e+01 0 -1 0 4.104554e-01 6.338635e-01 5.468356e-01 3.615443e-01
52 1 1 -1.744666e+01 1.115620e+01 1.802118e+01 0 -1 0 -8.896228e-02 2.441497e-01 9.631251e-01 -6.976166e-02
53 1 3 -1.762607e+01 1.101994e+01 1.745620e+01 0 -1 0 -5.500198e-02 5.955714e-01 7.725617e-01 2.131149e-01
54 1 4 -1.722736e+01 1.023528e+01 1.669760e+01 0 -1 0 -4.501627e-01 -5.424382e-01 -2.193370e-01 6.745410e-01
55 1 4 -1.770793e+01 1.002334e+01 1.662385e+01 0 -1 0 5.535167e-01 6.856825e-01 -7.040988e-02 -4.674411e-01
56 1 4 -1.814168e+01 9.584911e+00 1.743754e+01 0 -1 0 6.246784e-01 2.663564e-01 -5.321050e-01 5.056634e-01
57 1 1 -1.890259e+01 9.178450e+00 1.609940e+01 0 -1 0 4.872007e-01 2.021685e-01 -6.588477e-01 -5.363610e-01
58 1 1 -1.942543e+01 9.177452e+00 1.597372e+01 0 -1 0 6.433335e-01 -6.342162e-02 -6.783328e-01 -3.492339e-01
59 1 3 -1.994096e+01 9.352398e+00 1.604673e+01 0 -1 0 -7.724851e-01 2.569621e-01 5.807079e-01 -3.943442e-03
60 1 4 1.976839e+01 9.036877e+00 1.573818e+01 -1 -1 0 1.519015e-01 5.701311e-01 8.071180e-01 2.090508e-02
61 1 2 1.975786e+01 8.405130e+00 1.491037e+01 -1 -1 0 -1.683871e-01 6.757272e-02 -7.244207e-01 -6.650521e-01
62 1 3 1.983375e+01 7.989797e+00 1.580628e+01 -1 -1 0 1.431527e-01 8.339212e-02 2.033346e-01 -9.649912e-01
63 1 2 -1.968652e+01 7.063223e+00 1.612345e+01 0 -1 0 -2.559296e-01 1.735228e-01 -5.319072e-01 7.883303e-01
64 1 4 -1.891540e+01 6.710185e+00 1.685417e+01 0 -1 0 -5.280402e-01 7.496536e-01 -2.749922e-01 2.890887e-01
65 1 2 -1.931576e+01 6.760554e+00 1.692235e+01 0 -1 0 5.839311e-01 -1.004775e-01 8.054488e-01 1.345224e-02
66 1 1 -1.826004e+01 7.448362e+00 1.734349e+01 0 -1 0 9.354303e-01 -2.980334e-01 1.305968e-01 1.381693e-01
67 1 2 -1.826521e+01 6.715999e+00 1.758632e+01 0 -1 0 -3.084116e-01 4.864765e-01 -5.401804e-01 6.135374e-01
68 1 1 -1.745045e+01 7.163510e+00 1.796218e+01 0 -1 0 3.814247e-01 -8.674846e-01 -1.715519e-01 2.693614e-01
69 1 1 -1.723845e+01 7.071509e+00 1.811720e+01 0 -1 0 -2.022646e-01 -5.867949e-02 -2.484175e-01 -9.454811e-01
70 1 2 -1.603850e+01 6.937859e+00 1.855579e+01 0 -1 0 3.692341e-01 7.460365e-01 -1.799212e-01 5.241413e-01
71 1 3 -1.552193e+01 6.928740e+00 1.859615e+01 0 -1 0 -3.566864e-02 6.333377e-01 -4.426004e-01 6.338107e-01
72 1 4 -1.507397e+01 6.830501e+00 1.868636e+01 0 -1 0 -2.877874e-01 3.672597e-01 -6.746436e-01 5.719745e-01
73 1 1 -1.456819e+01 6.157576e+00 1.835972e+01 0 -1 0 -5.715975e-01 1.168056e-01 7.890180e-01 1.925705e-01
74 1 1 -1.410915e+01 6.650272e+00 1.771488e+01 0 -1 0 1.284613e-01 -5.101999e-01 -5.687948e-01 6.321916e-01
75 1 3 -1.446664e+01 6.503693e+00 1.720312e+01 0 -1 0 -2.231578e-01 1.087834e-01 -9.312899e-01 2.665818e-01
76 1 1 -1.392190e+01 7.498403e+00 1.622112e+01 0 -1 0 -6.700699e-01 -5.197087e-02 -4.138783e-01 -6.140115e-01
77 1 4 -1.354054e+01 7.743733e+00 1.625021e+01 0 -1 0 3.125529e-01 2.668313e-01 2.601842e-01 8.737368e-01
78 1 1 -1.331593e+01 8.106385e+00 1.646536e+01 0 -1 0 6.442852e-02 -3.030580e-01 -1.933117e-01 -9.309325e-01
79 1 4 -1.331651e+01 8.540845e+00 1.666889e+01 0 -1 0 4.330872e-01 -4.806545e-01 -4.775925e-02 -7.610031e-01
80 1 2 -1.281307e+01 9.121880e+00 1.676923e+01 0 -1 0 -4.332266e-01 5.385956e-01 -8.488972e-02 -7.176512e-01
81 1 4 -1.256206e+01 8.678794e+00 1.811213e+01 0 -1 0 3.344398e-01 6.071739e-01 -5.556319e-01 4.590893e-01
82 1 4 -1.223181e+01 8.336754e+00 1.806949e+01 0 -1 0 1.470142e-01 3.294823e-01 -7.789888e-01 5.128398e-01
83 1 4 -1.214533e+01 7.866497e+00 1.806591e+01 0 -1 0 1.388050e-02 -4.518996e-02 -8.689527e-01 4.926321e-01
84 1 4 -1.175609e+01 7.671821e+00 1.820423e+01 0 -1 0 1.095183e-01 -6.813291e-01 -6.731115e-01 2.659273e-01
85 1 1 -1.181511e+01 6.671031e+00 1.761974e+01 0 -1 0 7.959180e-01 -4.156875e-02 5.820054e-01 1.614197e-01
86 1 1 -1.191522e+01 5.836378e+00 1.839176e+01 0 -1 0 -5.501581e-01 3.690517e-01 -7.470891e-01 5.463284e-02
87 1 3 -1.162513e+01 5.932337e+00 1.891929e+01 0 -1 0 4.787483e-01 -3.503767e-01 8.009245e-01 8.097025e-02
88 1 2 -1.127324e+01 5.850733e+00 1.858049e+01 0 -1 0 3.437694e-01 9.639282e-02 9.057628e-01 2.283085e-01
89 1 2 -1.028094e+01 5.304728e+00 1.949145e+01 0 -1 0 -4.718861e-01 -3.957561e-01 7.864639e-01 4.663783e-02
90 1 3 -1.141247e+01 5.642593e+00 1.955950e+01 0 -1 0 -3.416736e-01 -5.644137e-01 -5.613438e-01 4.995893e-01
91 1 3 -1.066624e+01 5.613523e+00 -1.915374e+01 0 -1 1 -8.470854e-01 -1.256414e-01 4.212558e-01 -2.986707e-01
92 1 2 -1.044139e+01 6.093083e+00 -1.854798e+01 0 -1 1 8.814487e-01 -2.830145e-01 -3.167500e-01 2.064472e-01
93 1 1 -1.055292e+01 6.180726e+00 -1.800935e+01 0 -1 1 7.031343e-01 -4.196266e-01 -9.566255e-02 5.660074e-01
94 1 2 -1.055507e+01 6.577883e+00 -1.765310e+01 0 -1 1 -4.451287e-01 4.235378e-01 -7.549168e-02 -7.853516e-01
95 1 3 -1.084146e+01 5.601776e+00 -1.684669e+01 0 -1 1 -7.730390e-01 -2.383601e-01 3.863620e-01 -4.430796e-01
96 1 2 -1.056512e+01 5.238818e+00 -1.665407e+01 0 -1 1 -3.426469e-01 -2.481368e-01 5.350763e-01 -7.312418e-01
97 1 2 -1.034943e+01 4.929798e+00 -1.634037e+01 0 -1 1 -1.645900e-02 3.805265e-02 -5.886308e-01 8.073381e-01
98 1 4 -9.532494e+00 5.355176e+00 -1.654556e+01 0 -1 1 -3.289004e-01 -6.964184e-01 -6.165721e-01 -1.632937e-01
99 1 2 -9.459901e+00 4.377079e+00 -1.613324e+01 0 -1 1 3.104240e-01 4.580339e-01 7.510526e-01 -3.602248e-01
100 1 1 -9.302659e+00 3.874665e+00 -1.542653e+01 0 -1 1 3.251815e-01 -4.497027e-01 -7.834798e-01 2.796139e-01
101 2 4 -1.042399e+01 1.561807e+01 1.192025e+01 0 -1 0 3.181377e-01 -5.954917e-01 6.758978e-01 -2.955337e-01
102 2 3 -1.087707e+01 1.574031e+01 1.250417e+01 0 -1 0 -1.496101e-01 4.661876e-01 7.035992e-01 -5.150089e-01
103 2 1 -1.131910e+01 1.564605e+01 1.264521e+01 0 -1 0 -1.404646e-01 -7.081495e-01 -3.684449e-01 5.856982e-01
104 2 3 -1.191880e+01 1.499248e+01 1.262785e+01 0 -1 0 8.782583e-01 -1.185692e-02 1.042904e-01 -4.665247e-01
105 2 3 -1.205626e+01 1.466396e+01 1.297870e+01 0 -1 0 9.991302e-01 -7.772949e-03 3.076483e-02 -2.705490e-02
106 2 2 -1.293737e+01 1.465637e+01 1.374334e+01 0 -1 0 -2.278246e-01 -4.006518e-01 8.213240e-01 -3.361562e-01
107 2 3 -1.305940e+01 1.385142e+01 1.274454e+01 0 -1 0 2.664352e-01 5.081434e-01 -7.419279e-01 -3.469086e-01
108 2 4 -1.316131e+01 1.379105e+01 1.235504e+01 0 -1 0 2.718882e-01 1.933031e-02 -9.306576e-01 -2.440894e-01
109 2 3 -1.347697e+01 1.374114e+01 1.201256e+01 0 -1 0 2.423448e-01 -4.926426e-01 -8.159874e-01 -1.809330e-01
110 2 2 -1.287903e+01 1.367405e+01 1.137919e+01 0 -1 0 -1.580620e-01 -8.152388e-01 3.863054e-01 -4.014602e-01
111 2 2 -1.247874e+01 1.354161e+01 1.138087e+01 0 -1 0 8.277628e-02 -5.731362e-01 7.872394e-01 -2.119366e-01
112 2 3 -1.220791e+01 1.323984e+01 1.112430e+01 0 -1 0 -1.437490e-01 2.154774e-01 -9.604640e-01 1.020517e-01
113 2 3 -1.200888e+01 1.289250e+01 1.077984e+01 0 -1 0 1.870017e-01 1.083719e-01 9.761655e-01 1.966488e-02
114 2 2 -1.207620e+01 1.255838e+01 1.047479e+01 0 -1 0 4.084192e-01 5.662623e-01 6.855139e-01 2.064253e-01
115 2 4 -1.202117e+01 1.209117e+01 9.615550e+00 0 -1 0 -7.262595e-01 -4.780266e-01 -4.089076e-01 2.771863e-01
116 2 4 -1.185246e+01 1.159963e+01 9.470592e+00 0 -1 0 7.705905e-01 5.600247e-01 2.681502e-01 1.437294e-01
117 2 1 -1.154686e+01 1.115305e+01 9.351467e+00 0 -1 0 7.305062e-01 4.582437e-01 1.569987e-02 5.060898e-01
118 2 1 -1.103808e+01 1.091491e+01 9.608598e+00 0 -1 0 5.820884e-01 3.464984e-01 2.497742e-02 7.351790e-01
119 2 1 -1.064028e+01 1.105858e+01 9.855968e+00 0 -1 0 -1.832980e-01 -3.600512e-01 1.174667e-01 -9.071750e-01
120 2 1 -1.053254e+01 1.055621e+01 1.015842e+01 0 -1 0 -7.278280e-01 -1.512955e-01 1.045997e-01 6.606323e-01
121 2 3 -9.814760e+00 1.038219e+01 9.920365e+00 0 -1 0 5.417360e-01 8.400568e-01 -3.264571e-03 2.856840e-02
122 2 1 -1.061151e+01 9.499399e+00 1.093506e+01 0 -1 0 -1.193657e-01 2.539583e-01 -5.657709e-01 7.753453e-01
123 2 4 -1.013843e+01 9.404065e+00 1.061268e+01 0 -1 0 4.029721e-01 4.630354e-01 6.196107e-01 4.891772e-01
124 2 1 -9.990326e+00 9.581955e+00 1.174921e+01 0 -1 0 -7.985995e-01 5.254302e-01 -4.205638e-02 -2.905051e-01
125 2 4 -1.108668e+01 9.335624e+00 1.119859e+01 0 -1 0 -8.817192e-02 4.642585e-01 -4.039344e-01 -7.832795e-01
126 2 2 -1.137683e+01 8.888966e+00 1.245181e+01 0 -1 0 2.767581e-01 -3.724102e-01 -7.142745e-01 -5.239537e-01
127 2 4 -1.054475e+01 8.932590e+00 1.267526e+01 0 -1 0 4.737523e-01 -2.061831e-02 7.017715e-01 -5.316487e-01
128 2 4 -1.041467e+01 8.419334e+00 1.266236e+01 0 -1 0 4.595068e-01 1.627255e-01 6.146940e-01 -6.201009e-01
129 2 1 -1.025819e+01 7.972067e+00 1.278057e+01 0 -1 0 -4.305434e-01 3.517794e-01 5.058047e-01 6.595796e-01
130 2 2 -1.009142e+01 7.501412e+00 1.175655e+01 0 -1 0 5.149836e-01 9.802267e-02 5.683950e-01 6.341219e-01
131 2 3 -9.803311e+00 7.825476e+00 1.150243e+01 0 -1 0 -1.499414e-01 -4.575843e-01 -4.459490e-01 -7.544956e-01
132 2 4 -9.202474e+00 6.586491e+00 1.202520e+01 0 -1 0 7.347865e-01 4.599258e-01 -4.327156e-01 2.476172e-01
133 2 4 -8.464800e+00 6.686470e+00 1.154055e+01 0 -1 0 -6.542335e-01 5.087346e-01 -5.376176e-01 -1.553541e-01
134 2 3 -8.022133e+00 6.992538e+00 1.144854e+01 0 -1 0 -4.189730e-01 2.903452e-01 -7.696868e-01 -3.843742e-01
135 2 4 -7.686544e+00 7.190757e+00 1.112147e+01 0 -1 0 2.520605e-01 -2.038188e-02 8.902679e-01 3.787786e-01
136 2 3 -6.727304e+00 8.061194e+00 1.093460e+01 0 -1 0 -7.114820e-01 2.668065e-01 -7.917934e-02 -6.452428e-01
137 2 1 -6.652691e+00 6.900161e+00 1.051918e+01 0 -1 0 -9.120035e-01 -3.484537e-01 -2.331703e-02 -2.151418e-01
138 2 3 -6.815424e+00 6.757749e+00 1.127167e+01 0 -1 0 -4.146667e-01 7.153237e-01 3.213774e-01 -4.616060e-01
139 2 2 -6.360445e+00 5.691716e+00 1.061630e+01 0 -1 0 -6.844406e-01 8.015915e-02 -4.220451e-01 -5.890616e-01
140 2 3 -7.383131e+00 5.564192e+00 1.030572e+01 0 -1 0 -4.351717e-01 -2.387782e-01 -5.437003e-01 -6.767574e-01
141 2 1 -7.691410e+00 4.254629e+00 1.021553e+01 0 -1 0 -7.810793e-01 -2.499025e-01 4.810333e-01 3.099530e-01
142 2 2 -8.423738e+00 4.810168e+00 9.606046e+00 0 -1 0 -5.467430e-03 6.679780e-01 -1.177202e-01 -7.347908e-01
143 2 4 -8.789092e+00 5.109549e+00 9.477911e+00 0 -1 0 3.497832e-01 5.645090e-01 -3.737905e-01 -6.475044e-01
144 2 4 -9.091731e+00 5.137464e+00 9.159161e+00 0 -1 0 4.316820e-01 2.654454e-01 -7.664517e-01 -3.946405e-01
145 2 1 -9.479290e+00 5.096433e+00 8.929721e+00 0 -1 0 5.798698e-01 -1.365316e-01 -7.946104e-01 -1.170662e-01
146 2 1 -9.965423e+00 5.131377e+00 8.793438e+00 0 -1 0 6.406755e-01 -4.175432e-01 -6.436603e-01 2.990231e-02
147 2 1 -9.717114e+00 5.920989e+00 9.082655e+00 0 -1 0 -7.919328e-01 1.110756e-01 2.205916e-01 -5.584299e-01
148 2 2 -1.110435e+01 5.927352e+00 8.159771e+00 0 -1 0 3.025064e-01 2.252550e-01 4.325943e-01 -8.189092e-01
149 2 4 -1.155276e+01 5.982279e+00 8.442732e+00 0 -1 0 5.108982e-01 -4.711205e-02 -6.526930e-01 -5.574543e-01
150 2 1 -1.178461e+01 6.483402e+00 8.237169e+00 0 -1 0 6.129525e-02 -1.828044e-01 6.530569e-01 -7.323538e-01
151 2 1 -1.157756e+01 6.014419e+00 7.114383e+00 0 -1 0 4.304592e-01 6.155185e-02 8.240618e-01 -3.630957e-01
152 2 1 -1.156309e+01 5.762489e+00 6.627221e+00 0 -1 0 1.589822e-01 -5.455084e-01 7.276368e-01 3.843045e-01
153 2 4 -1.174242e+01 5.461809e+00 6.440441e+00 0 -1 0 -3.521191e-01 -7.077301e-01 -1.499512e-01 5.938391e-01
154 2 1 -1.171858e+01 4.242439e+00 6.209699e+00 0 -1 0 7.879375e-01 5.253620e-01 1.393765e-01 -2.893499e-01
155 2 2 -1.169466e+01 3.796461e+00 6.156058e+00 0 -1 0 8.385521e-01 4.699725e-01 -1.527842e-01 2.293758e-01
156 2 4 -1.153033e+01 3.279005e+00 6.327418e+00 0 -1 0 6.934532e-01 3.336353e-01 -2.954683e-01 5.661348e-01
157 2 3 -1.128808e+01 2.916195e+00 6.705432e+00 0 -1 0 -4.580369e-01 -8.466165e-02 4.350419e-01 -7.705667e-01
158 2 2 -1.091533e+01 1.692456e+00 5.950688e+00 0 -1 0 -7.172993e-01 2.042263e-01 -6.358239e-01 -1.987495e-01
159 2 1 -1.035299e+01 1.893986e+00 5.843791e+00 0 -1 0 -4.527542e-01 1.125059e-01 -7.683215e-01 -4.382216e-01
160 2 3 -1.004035e+01 1.820316e+00 5.786141e+00 0 -1 0 1.444040e-01 3.720501e-01 -5.593858e-02 -9.152033e-01
161 2 1 -9.994687e+00 1.221105e+00 4.970262e+00 0 -1 0 -6.875626e-01 -3.884003e-01 -1.734906e-01 5.884759e-01
162 2 1 -1.023651e+01 7.845176e-01 5.094898e+00 0 -1 0 9.207378e-01 3.538667e-01 2.340086e-02 -1.627041e-01
163 2 4 -1.038826e+01 3.579854e-01 5.199447e+00 0 -1 0 9.149902e-01 3.938004e-01 -6.113180e-02 6.306393e-02
164 2 4 -1.067526e+01 9.297783e-02 5.552605e+00 0 -1 0 -3.408408e-01 -9.111887e-01 1.664742e-02 2.308366e-01
165 2 3 -1.159468e+01 -2.552837e-01 6.476282e+00 0 -1 0 5.802373e-01 -4.060749e-01 4.711456e-01 -5.257849e-01
166 2 3 -1.144133e+01 -4.584755e-01 6.904715e+00 0 -1 0 -8.553099e-01 1.159811e-01 -4.202187e-01 2.800171e-01
167 2 4 -1.116435e+01 -7.457799e-01 7.111355e+00 0 -1 0 8.951486e-01 1.996741e-01 3.895752e-01 8.408518e-02
168 2 2 -1.074306e+01 -1.100258e+00 7.217511e+00 0 -1 0 -7.800659e-01 -2.748556e-01 -3.711893e-01 -4.221020e-01
169 2 2 -1.010300e+01 -1.049857e+00 7.338632e+00 0 -1 0 -5.519858e-01 -3.073816e-01 -2.299651e-01 -7.402326e-01
170 2 1 -9.643711e+00 -8.895495e-01 7.460976e+00 0 -1 0 -1.571765e-01 -3.380859e-01 -1.666235e-01 -9.128144e-01
171 2 1 -8.487114e+00 -1.644530e+00 7.222180e+00 0 -1 0 -9.014517e-01 -1.193816e-01 -3.934239e-01 -1.354642e-01
172 2 4 -8.139378e+00 -1.983799e+00 7.389256e+00 0 -1 0 -8.246226e-01 -2.455068e-01 -3.348676e-01 -3.841715e-01
173 2 4 -7.603918e+00 -1.989601e+00 7.567615e+00 0 -1 0 7.032799e-01 3.648411e-01 3.219521e-01 5.183003e-01
174 2 1 -7.749731e+00 -1.296074e+00 7.514313e+00 0 -1 0 2.184028e-01 7.361676e-01 1.293205e-01 -6.274024e-01
175 2 1 -7.288823e+00 -8.890025e-01 8.711759e+00 0 -1 0 2.407984e-01 3.556195e-01 -4.559837e-01 7.795061e-01
176 2 2 -6.991863e+00 -1.162561e+00 9.053035e+00 0 -1 0 6.710419e-02 2.230855e-01 -3.664462e-01 9.008036e-01
177 2 2 -6.801666e+00 -2.143869e+00 8.248966e+00 0 -1 0 -7.794084e-01 1.545007e-01 -5.493247e-01 -2.586397e-01
178 2 1 -6.285980e+00 -2.016827e+00 8.388584e+00 0 -1 0 -5.617564e-01 6.330647e-02 -5.998762e-01 -5.661896e-01
179 2 4 -6.221396e+00 -2.101020e+00 8.535459e+00 0 -1 0 -1.521832e-01 5.577627e-01 7.093001e-01 -4.032797e-01
180 2 1 -5.761078e+00 -2.274345e+00 7.355493e+00 0 -1 0 6.690960e-01 5.194789e-01 -2.994181e-01 -4.390911e-01
181 2 4 -6.115731e+00 -2.542196e+00 7.229101e+00 0 -1 0 -8.011517e-01 -2.651018e-01 5.220721e-01 1.237649e-01
182 2 2 -6.484888e+00 -2.933015e+00 7.390333e+00 0 -1 0 8.501266e-01 2.119750e-02 -5.101844e-01 1.286361e-01
183 2 3 -7.203015e+00 -3.123584e+00 6.337053e+00 0 -1 0 4.165380e-01 3.086135e-01 6.765130e-01 -5.230525e-01
184 2 4 -7.406056e+00 -3.609087e+00 6.394663e+00 0 -1 0 5.584812e-01 5.304816e-01 5.899317e-01 -2.422158e-01
185 2 3 -7.519203e+00 -3.746770e+00 7.492381e+00 0 -1 0 -2.887066e-01 -2.184353e-01 -5.349571e-01 7.633842e-01
186 2 1 -7.707896e+00 -4.178929e+00 7.731036e+00 0 -1 0 3.821251e-01 5.215883e-01 3.902587e-01 -6.554573e-01
187 2 1 -8.018142e+00 -4.477073e+00 7.689321e+00 0 -1 0 6.624399e-01 6.503414e-01 1.275859e-01 -3.492151e-01
188 2 2 -8.884424e+00 -4.332292e+00 8.235026e+00 0 -1 0 -7.443169e-02 3.104702e-01 -4.393005e-02 -9.466458e-01
189 2 4 -8.402841e+00 -5.148269e+00 7.913876e+00 0 -1 0 -4.105996e-01 -4.140552e-01 -7.427049e-01 -3.291741e-01
190 2 4 -8.309212e+00 -5.924051e+00 9.405040e+00 0 -1 0 7.601672e-01 -3.034804e-01 -5.658927e-01 -9.905000e-02
191 2 1 -7.621870e+00 -6.586890e+00 8.437404e+00 0 -1 0 -7.384377e-01 5.608688e-02 -6.681517e-01 -7.167478e-02
192 2 4 -7.118163e+00 -6.684743e+00 8.339988e+00 0 -1 0 -5.735485e-01 -1.400074e-01 -6.728558e-01 -4.457635e-01
193 2 4 -6.779520e+00 -6.517162e+00 8.054988e+00 0 -1 0 -2.922295e-01 -4.559843e-01 -4.870728e-01 -6.851572e-01
194 2 1 -6.463398e+00 -7.295461e+00 8.582737e+00 0 -1 0 -7.644760e-02 3.438878e-01 6.808964e-01 -6.420881e-01
195 2 3 -5.115859e+00 -7.819463e+00 8.900312e+00 0 -1 0 5.759111e-01 -7.581151e-01 2.580025e-01 1.643855e-01
196 2 4 -4.849476e+00 -6.969568e+00 9.011104e+00 0 -1 0 -4.703229e-01 2.838397e-01 1.624396e-01 -8.196614e-01
197 2 2 -4.978821e+00 -6.641897e+00 9.341979e+00 0 -1 0 1.808600e-01 -2.949941e-01 4.788695e-02 9.370032e-01
198 2 4 -4.590553e+00 -6.665131e+00 1.067945e+01 0 -1 0 -6.138461e-01 4.034712e-01 4.043039e-01 -5.449241e-01
199 2 3 -4.035443e+00 -6.850729e+00 9.553553e+00 0 -1 0 6.594575e-01 6.139322e-01 -3.697422e-01 -2.269225e-01
200 2 4 -4.438165e+00 -6.013331e+00 9.420183e+00 0 -1 0 -2.581808e-01 8.401505e-02 5.920415e-01 7.587958e-01
