ITEM: TIMESTEP
257000000
ITEM: NUMBER OF ATOMS
200
ITEM: BOX BOUNDS pp pp pp
-2.0000000000000000e+01 2.0000000000000000e+01
-2.0000000000000000e+01 2.0000000000000000e+01
-2.0000000000000000e+01 2.0000000000000000e+01
ITEM: ATOMS id mol type x y z ix iy iz c_quat[1] c_quat[2] c_quat[3] c_quat[4]
1 1 1 -1.007039e+01 1.257851e+01 5.591043e+00 0 -1 0 1.753751e-01 -5.785146e-02 -8.167225e-01 5.466819e-01
2 1 2 -1.027105e+01 1.208569e+01 5.540586e+00 0 -1 0 -2.676659e-01 1.737934e-01 7.241997e-01 -6.112983e-01
3 1 1 -9.807265e+00 1.177443e+01 4.958649e+00 0 -1 0 -5.470231e-02 -1.006378e-01 8.164222e-01 -5.659810e-01
4 1 3 -9.810612e+00 1.133519e+01 5.043873e+00 0 -1 0 1.244466e-01 1.271740e-01 8.213432e-01 -5.419734e-01
5 1 1 -9.313679e+00 1.036411e+01 4.574864e+00 0 -1 0 9.545216e-01 2.891704e-01 7.013298e-02 -1.871829e-02
6 1 2 -9.060620e+00 9.996271e+00 4.690903e+00 0 -1 0 -8.238864e-01 -4.966185e-01 -4.188114e-02 -2.698652e-01
7 1 4 -9.559981e+00 9.193395e+00 4.956656e+00 0 -1 0 3.942934e-01 -2.485904e-01 8.011738e-01 3.753079e-01
8 1 1 -9.810996e+00 8.204252e+00 5.189899e+00 0 -1 0 -6.107201e-01 -3.444404e-02 -7.414593e-01 2.758128e-01
9 1 1 -9.354136e+00 7.693235e+00 5.054203e+00 0 -1 0 -5.560096e-01 4.128090e-02 -7.537579e-01 3.478479e-01
10 1 4 -9.354168e+00 8.454109e+00 4.099644e+00 0 -1 0 6.322405e-01 6.591724e-01 -2.616212e-03 -4.071325e-01
11 1 1 -9.640036e+00 8.257896e+00 3.822330e+00 0 -1 0 -7.811694e-01 -4.774214e-01 3.598705e-01 1.798233e-01
12 1 1 -1.069365e+01 8.349224e+00 3.720665e+00 0 -1 0 -6.541602e-01 -6.022534e-01 -2.028183e-01 4.101585e-01
13 1 3 -1.053572e+01 8.688270e+00 3.389499e+00 0 -1 0 5.440304e-01 -2.400893e-01 1.112581e-01 7.962472e-01
14 1 4 -1.052912e+01 8.631516e+00 2.888188e+00 0 -1 0 6.895794e-01 6.094405e-01 -1.516190e-01 -3.606580e-01
15 1 4 -1.126649e+01 8.302212e+00 3.307649e+00 0 -1 0 3.414891e-01 -6.141713e-01 1.937932e-01 -6.845604e-01
16 1 2 -1.162814e+01 7.484780e+00 3.313357e+00 0 -1 0 8.706795e-01 1.575327e-01 -2.629616e-01 -3.846450e-01
17 1 1 -1.203510e+01 7.270942e+00 3.538740e+00 0 -1 0 8.543942e-01 2.979579e-01 -3.823302e-01 -1.872305e-01
18 1 2 -1.275501e+01 7.145403e+00 4.496830e+00 0 -1 0 5.109071e-01 4.614139e-02 -8.469228e-01 1.398812e-01
19 1 3 -1.305968e+01 6.984105e+00 4.301883e+00 0 -1 0 -3.864947e-01 7.350303e-01 5.548991e-01 4.938848e-02
20 1 1 -1.355736e+01 6.253987e+00 4.514692e+00 0 -1 0 -5.726455e-01 -1.857322e-01 6.803790e-01 4.179296e-01
21 1 4 -1.369204e+01 7.268817e+00 3.599271e+00 0 -1 0 -2.826430e-01 -4.800305e-01 1.618988e-01 8.145382e-01
22 1 1 -1.411354e+01 7.318882e+00 3.510371e+00 0 -1 0 -6.229117e-01 -2.487022e-01 4.928747e-01 5.542588e-01
23 1 4 -1.459563e+01 7.250467e+00 3.583759e+00 0 -1 0 -8.210277e-01 -9.182613e-02 5.056690e-01 2.485566e-01
24 1 3 -1.470302e+01 8.004064e+00 3.932586e+00 0 -1 0 4.555301e-01 -4.934468e-01 6.573493e-01 -3.418985e-01
25 1 3 -1.464716e+01 8.815795e+00 2.503353e+00 0 -1 0 -4.094065e-01 1.860596e-01 -6.539878e-01 -6.083322e-01
26 1 4 -1.443173e+01 9.195375e+00 2.159757e+00 0 -1 0 -6.412626e-02 -1.785485e-01 -7.000147e-01 -6.884676e-01
27 1 4 -1.387745e+01 9.818340e+00 1.695236e+00 0 -1 0 -2.721198e-03 9.065071e-01 -3.255966e-01 -2.687457e-01
28 1 1 -1.549316e+01 9.917651e+00 1.825532e+00 0 -1 0 2.755876e-01 1.566924e-01 -9.462002e-02 -9.436875e-01
29 1 1 -1.588228e+01 1.002368e+01 2.151169e+00 0 -1 0 7.480958e-01 -5.447955e-03 -3.164773e-02 -6.628132e-01
30 1 4 -1.610648e+01 9.716440e+00 2.933363e+00 0 -1 0 4.191540e-01 -2.203484e-01 -8.691087e-01 -1.428517e-01
31 1 4 -1.640309e+01 1.061504e+01 3.126480e+00 0 -1 0 1.487238e-02 -5.650865e-01 -8.112868e-01 -1.492309e-01
32 1 3 -1.637001e+01 1.056000e+01 3.395879e+00 0 -1 0 -3.916437e-01 -5.622644e-01 4.945949e-01 -5.346493e-01
33 1 3 -1.731073e+01 1.074725e+01 2.736975e+00 0 -1 0 -7.662836e-02 1.265298e-01 -6.558465e-01 7.402592e-01
34 1 1 -1.775176e+01 1.139550e+01 2.772552e+00 0 -1 0 3.370211e-01 -6.679497e-01 5.782472e-02 -6.609965e-01
35 1 2 -1.830039e+01 1.162399e+01 3.261801e+00 0 -1 0 3.009741e-01 -3.367827e-01 -5.851953e-01 6.734527e-01
36 1 2 -1.868740e+01 1.162089e+01 3.546367e+00 0 -1 0 6.994169e-02 5.678851e-01 3.057041e-01 -7.610254e-01
37 1 1 -1.915638e+01 1.163728e+01 3.643014e+00 0 -1 0 3.560068e-01 6.154919e-01 3.970615e-02 -7.020344e-01
38 1 1 2.006804e+01 1.166221e+01 4.189546e+00 -1 -1 0 4.406963e-01 3.291570e-01 -1.323570e-01 -8.245751e-01
39 1 4 1.964304e+01 1.172303e+01 4.596182e+00 -1 -1 0 4.646035e-01 4.510997e-01 -1.069211e-01 -7.544670e-01
40 1 4 -2.004205e+01 1.160374e+01 6.154566e+00 0 -1 0 8.465224e-01 -3.583565e-01 -2.500226e-01 -3.040875e-01
41 1 2 1.974571e+01 1.155951e+01 6.575050e+00 -1 -1 0 -7.891544e-01 4.914656e-01 2.862249e-01 -2.318882e-01
42 1 4 1.957300e+01 1.078496e+01 6.650628e+00 -1 -1 0 2.887956e-02 -6.937457e-01 4.176692e-01 -5.860335e-01
43 1 3 1.839207e+01 1.053325e+01 6.572574e+00 -1 -1 0 3.743096e-02 4.060790e-01 6.598130e-01 -6.311462e-01
44 1 2 1.896273e+01 9.914719e+00 6.199714e+00 -1 -1 0 -7.949026e-01 -1.119161e-01 4.990774e-01 -3.263839e-01
45 1 1 1.815409e+01 8.998115e+00 5.329314e+00 -1 -1 0 -1.478339e-01 -3.127008e-01 8.692137e-01 3.533143e-01
46 1 3 1.799052e+01 9.019837e+00 4.880799e+00 -1 -1 0 -2.601795e-01 -1.671239e-02 9.484958e-01 1.799531e-01
47 1 4 1.811850e+01 8.651263e+00 4.475729e+00 -1 -1 0 3.703313e-01 3.593445e-01 6.618093e-01 -5.438150e-01
48 1 1 1.864200e+01 8.386436e+00 4.940226e+00 -1 -1 0 7.568513e-01 2.222911e-03 -1.624313e-01 6.330776e-01
49 1 4 1.873807e+01 8.300390e+00 5.435672e+00 -1 -1 0 5.259432e-01 -9.979005e-02 -1.128824e-01 8.370683e-01
50 1 4 1.911553e+01 7.916298e+00 6.312609e+00 -1 -1 0 6.210170e-03 4.156043e-01 -5.117607e-01 7.518880e-01
51 1 4 1.894516e+01 7.405992e+00 6.842062e+00 -1 -1 0 -3.193869e-01 2.426842e-01 -4.188429e-01 8.146576e-01
52 1 1 1.903999e+01 7.103478e+00 7.165721e+00 -1 -1 0 -7.166860e-01 3.183905e-02 -5.291717e-01 4.531278e-01
53 1 3 1.917226e+01 6.626103e+00 7.396822e+00 -1 -1 0 8.392758e-01 2.325268e-01 4.771290e-01 -1.178781e-01
54 1 4 1.996213e+01 6.621006e+00 7.877569e+00 -1 -1 0 9.013157e-01 -2.378017e-02 4.322084e-01 1.613583e-02
55 1 4 -1.950553e+01 6.721199e+00 8.545276e+00 0 -1 0 3.687902e-02 -9.800903e-01 5.419943e-02 -1.874178e-01
56 1 4 -1.985013e+01 6.599624e+00 8.908603e+00 0 -1 0 -1.982375e-02 -6.611155e-01 -3.524737e-01 6.620390e-01
57 1 1 -1.864160e+01 6.572537e+00 9.504794e+00 0 -1 0 3.914706e-02 8.670222e-01 -2.212018e-02 4.962366e-01
58 1 1 -1.801552e+01 6.382408e+00 8.803073e+00 0 -1 0 -1.808040e-01 7.687369e-01 1.093320e-01 -6.036555e-01
59 1 3 -1.847076e+01 5.687606e+00 9.789561e+00 0 -1 0 2.474086e-02 -2.398087e-01 -7.613330e-01 6.018736e-01
60 1 4 -1.838863e+01 6.404845e+00 1.032240e+01 0 -1 0 -7.759501e-02 3.273705e-02 1.308702e-01 -9.878159e-01
61 1 2 -1.747370e+01 5.704398e+00 1.044308e+01 0 -1 0 1.398802e-01 -3.288107e-01 9.006553e-01 2.472591e-01
62 1 3 -1.675380e+01 6.333138e+00 1.079425e+01 0 -1 0 -9.514120e-01 -5.505388e-02 -2.848965e-01 -1.030450e-01
63 1 2 -1.634509e+01 6.176740e+00 1.100464e+01 0 -1 0 7.885912e-01 2.008901e-01 2.265304e-01 5.352112e-01
64 1 4 -1.592721e+01 6.119046e+00 1.120690e+01 0 -1 0 4.755299e-01 2.505591e-01 6.921865e-02 8.404167e-01
65 1 2 -1.663185e+01 4.668148e+00 1.094113e+01 0 -1 0 3.969114e-01 8.783974e-02 -6.769629e-01 -6.135689e-01
66 1 1 -1.602458e+01 4.288300e+00 1.106105e+01 0 -1 0 7.714400e-01 3.154990e-01 4.210070e-01 3.579020e-01
67 1 2 -1.549416e+01 4.171197e+00 1.106166e+01 0 -1 0 6.050942e-01 4.559740e-01 4.691030e-01 4.537522e-01
68 1 1 -1.537140e+01 4.306544e+00 1.138288e+01 0 -1 0 2.357248e-01 1.468865e-01 7.100270e-01 -6.470857e-01
69 1 1 -1.452396e+01 3.411142e+00 1.170390e+01 0 -1 0 8.001957e-01 -1.218891e-01 -5.453525e-01 -2.177627e-01
70 1 2 -1.516262e+01 3.307589e+00 1.225347e+01 0 -1 0 -2.348976e-01 6.940806e-02 -8.006906e-01 5.467176e-01
71 1 3 -1.524085e+01 2.678919e+00 1.203104e+01 0 -1 0 2.625648e-01 -3.906794e-01 8.496818e-01 2.376345e-01
72 1 4 -1.582466e+01 3.877026e+00 1.281232e+01 0 -1 0 -1.636080e-01 3.744144e-01 6.266905e-01 -6.635550e-01
73 1 1 -1.622426e+01 3.768115e+00 1.303318e+01 0 -1 0 3.014777e-01 5.609200e-01 3.606127e-01 -6.814972e-01
74 1 1 -1.503768e+01 4.165564e+00 1.372758e+01 0 -1 0 -7.013697e-01 -1.913332e-01 4.608947e-01 -5.089679e-01
75 1 3 -1.532338e+01 4.107923e+00 1.379076e+01 0 -1 0 2.576271e-01 2.490896e-01 -8.355339e-01 -4.164922e-01
76 1 1 -1.472389e+01 4.046619e+00 1.461979e+01 0 -1 0 -8.989080e-01 -5.399724e-02 -3.251523e-02 4.335798e-01
77 1 4 -1.421152e+01 4.767400e+00 1.519569e+01 0 -1 0 6.770985e-02 -3.818599e-01 5.451226e-01 -7.432629e-01
78 1 1 -1.369725e+01 5.033925e+00 1.440574e+01 0 -1 0 -1.324270e-01 -3.500943e-01 -5.171337e-02 -9.258633e-01
79 1 4 -1.293653e+01 4.620727e+00 1.361602e+01 0 -1 0 -4.629518e-01 -7.501102e-01 -1.842562e-01 -4.348103e-01
80 1 2 -1.239491e+01 4.762786e+00 1.288440e+01 0 -1 0 8.150565e-01 3.518841e-01 4.036696e-01 2.211591e-01
81 1 4 -1.154416e+01 5.135720e+00 1.344232e+01 0 -1 0 -5.981197e-01 7.541451e-01 1.519245e-01 -2.245818e-01
82 1 4 -1.128439e+01 4.657173e+00 1.363756e+01 0 -1 0 -7.984845e-01 2.059523e-01 -5.544271e-01 1.123244e-01
83 1 4 -1.075020e+01 4.482235e+00 1.364633e+01 0 -1 0 -7.302361e-01 -5.240934e-02 -6.513923e-01 -1.992401e-01
84 1 4 -1.017083e+01 4.489337e+00 1.348576e+01 0 -1 0 -5.171371e-01 -1.362209e-01 -7.714113e-01 -3.448734e-01
85 1 1 -9.710153e+00 5.185566e+00 1.363109e+01 0 -1 0 -6.161553e-01 -6.100282e-01 1.787457e-02 4.978943e-01
86 1 1 -9.014086e+00 5.213276e+00 1.451627e+01 0 -1 0 1.411636e-02 2.429375e-01 -8.403560e-01 4.843385e-01
87 1 3 -8.636143e+00 6.097545e+00 1.321134e+01 0 -1 0 -4.399295e-01 -7.228461e-01 -3.012755e-02 5.320225e-01
88 1 2 -8.636837e+00 7.032609e+00 1.423675e+01 0 -1 0 -1.744836e-01 9.823448e-01 6.482376e-02 1.876445e-02
89 1 2 -9.018860e+00 7.002123e+00 1.413671e+01 0 -1 0 -2.132620e-01 4.801340e-01 -8.006454e-01 -2.880236e-01
90 1 3 -9.666187e+00 7.761949e+00 1.529968e+01 0 -1 0 -6.200029e-02 -5.349498e-01 4.143236e-02 -8.415866e-01
91 1 3 -9.235490e+00 7.825085e+00 1.566681e+01 0 -1 0 2.924904e-01 -4.451193e-01 1.648515e-01 -8.301459e-01
92 1 2 -8.889651e+00 7.763658e+00 1.612297e+01 0 -1 0 3.035520e-01 -3.208474e-01 9.070072e-02 -8.925730e-01
93 1 1 -8.881906e+00 7.818074e+00 1.663080e+01 0 -1 0 -7.014391e-01 1.842748e-01 -2.079544e-01 6.563390e-01
94 1 2 -8.428669e+00 8.336318e+00 1.688009e+01 0 -1 0 7.195993e-01 3.416601e-01 -5.971812e-01 -9.391408e-02
95 1 3 -7.617237e+00 9.281167e+00 1.724090e+01 0 -1 0 8.085127e-01 2.332024e-01 -3.583733e-01 4.043419e-01
96 1 2 -7.423686e+00 9.010172e+00 1.754972e+01 0 -1 0 -4.799640e-01 -1.176722e-01 4.542567e-01 -7.412413e-01
97 1 2 -7.380027e+00 8.871505e+00 1.797414e+01 0 -1 0 8.649276e-02 -1.215105e-02 -4.557854e-01 8.857940e-01
98 1 4 -7.501079e+00 8.739036e+00 1.847204e+01 0 -1 0 -3.754309e-01 -1.141725e-01 -4.612269e-01 7.957927e-01
99 1 2 -7.630048e+00 8.244565e+00 1.887605e+01 0 -1 0 -5.889152e-01 -2.347446e-01 -5.591642e-01 5.342370e-01
100 1 1 -7.697982e+00 7.748735e+00 1.896450e+01 0 -1 0 7.456983e-01 4.810716e-01 4.114068e-01 -2.079632e-01
101 2 4 -1.892691e+01 1.699056e+01 8.508369e+00 0 -1 0 9.340884e-01 9.616095e-02 1.835283e-01 2.907737e-01
102 2 3 -1.864970e+01 1.682138e+01 8.807478e+00 0 -1 0 8.016554e-01 1.833138e-01 1.909966e-01 5.359711e-01
103 2 1 -1.820635e+01 1.670545e+01 9.031036e+00 0 -1 0 -5.539634e-01 -2.811682e-01 -2.673477e-01 -7.366099e-01
104 2 3 -1.778059e+01 1.679758e+01 9.231414e+00 0 -1 0 1.954637e-01 2.835480e-01 1.396105e-01 9.283875e-01
105 2 3 -1.755381e+01 1.711489e+01 9.376867e+00 0 -1 0 -2.267069e-01 4.585503e-01 -2.468823e-02 8.589098e-01
106 2 2 -1.712450e+01 1.703049e+01 8.741873e+00 0 -1 0 5.915607e-01 2.888190e-02 -6.203725e-01 5.141593e-01
107 2 3 -1.664235e+01 1.648497e+01 8.485949e+00 0 -1 0 1.920646e-01 -2.023991e-01 9.599889e-01 -2.381406e-02
108 2 4 -1.649350e+01 1.616527e+01 8.076586e+00 0 -1 0 2.094941e-01 1.346677e-01 9.681131e-01 2.709066e-02
109 2 3 -1.539265e+01 1.678953e+01 8.532473e+00 0 -1 0 -1.906071e-01 -2.818072e-01 4.749468e-01 -8.115905e-01
110 2 2 -1.498899e+01 1.596651e+01 8.540235e+00 0 -1 0 -5.326296e-01 3.258598e-01 6.456255e-01 4.396462e-01
111 2 2 -1.462202e+01 1.585120e+01 9.088522e+00 0 -1 0 7.753547e-01 1.680637e-01 -3.107584e-01 5.234586e-01
112 2 3 -1.458537e+01 1.550675e+01 9.420895e+00 0 -1 0 -6.448496e-01 -1.614963e-01 2.272914e-01 -7.116366e-01
113 2 3 -1.497242e+01 1.435836e+01 9.308690e+00 0 -1 0 8.387805e-02 1.947105e-01 9.768449e-01 2.874749e-02
114 2 2 -1.418727e+01 1.437991e+01 9.702814e+00 0 -1 0 3.753963e-01 7.995198e-01 -1.883212e-01 -4.293958e-01
115 2 4 -1.450145e+01 1.515359e+01 1.019511e+01 0 -1 0 1.537367e-01 9.576989e-01 -1.167768e-01 -2.134035e-01
116 2 4 -1.467364e+01 1.482395e+01 1.099107e+01 0 -1 0 -1.470652e-01 -5.769823e-01 7.152357e-01 3.659251e-01
117 2 1 -1.458521e+01 1.416688e+01 1.164262e+01 0 -1 0 -3.256343e-02 -1.754613e-01 8.953864e-01 -4.079660e-01
118 2 1 -1.396689e+01 1.464952e+01 1.178740e+01 0 -1 0 -1.062863e-01 3.309372e-01 -2.276102e-03 9.376452e-01
119 2 1 -1.376305e+01 1.403915e+01 1.086493e+01 0 -1 0 -1.323745e-01 -4.798580e-01 -8.544468e-01 -1.487750e-01
120 2 1 -1.392713e+01 1.396709e+01 1.047893e+01 0 -1 0 -7.498342e-02 -8.346413e-01 -5.397449e-01 -8.016729e-02
121 2 3 -1.367865e+01 1.277731e+01 9.781377e+00 0 -1 0 2.568319e-01 5.778420e-01 -4.951273e-01 -5.958061e-01
122 2 1 -1.406389e+01 1.286002e+01 9.441441e+00 0 -1 0 -5.502619e-01 -3.354360e-01 6.623854e-01 3.820210e-01
123 2 4 -1.466994e+01 1.284856e+01 8.950020e+00 0 -1 0 3.377721e-01 4.315176e-01 7.394128e-01 3.911154e-01
124 2 1 -1.570052e+01 1.295438e+01 9.360229e+00 0 -1 0 -3.362991e-01 -1.924352e-01 -2.011330e-01 8.996761e-01
125 2 4 -1.595426e+01 1.280047e+01 9.739425e+00 0 -1 0 -7.060825e-01 -2.113882e-01 -1.076937e-01 6.672065e-01
126 2 2 -1.552303e+01 1.244908e+01 1.085200e+01 0 -1 0 6.975461e-01 2.348813e-01 -6.282495e-01 2.521167e-01
127 2 4 -1.600618e+01 1.207991e+01 1.077733e+01 0 -1 0 -6.736231e-01 -1.112498e-01 5.628349e-01 -4.659102e-01
128 2 4 -1.601682e+01 1.151691e+01 1.078881e+01 0 -1 0 6.457128e-01 -1.969048e-01 -5.471889e-01 4.948411e-01
129 2 1 -1.604705e+01 1.031699e+01 1.086108e+01 0 -1 0 -9.892578e-01 6.599289e-02 1.258158e-01 -3.441493e-02
130 2 2 -1.642411e+01 9.936610e+00 1.149335e+01 0 -1 0 2.375943e-01 4.160289e-02 -7.466779e-01 6.199115e-01
131 2 3 -1.664098e+01 9.502984e+00 1.168528e+01 0 -1 0 -6.697317e-03 3.561283e-01 6.963208e-01 -6.231093e-01
132 2 4 -1.702642e+01 8.955368e+00 1.128800e+01 0 -1 0 -3.613631e-01 2.206439e-01 2.457805e-02 9.056097e-01
133 2 4 -1.657226e+01 8.513505e+00 1.209671e+01 0 -1 0 -8.074769e-01 -1.923163e-01 5.284536e-01 -1.781353e-01
134 2 3 -1.665482e+01 8.131837e+00 1.234260e+01 0 -1 0 -5.692004e-01 8.024583e-02 6.415256e-01 -5.079533e-01
135 2 4 -1.707750e+01 7.827094e+00 1.234182e+01 0 -1 0 -2.334044e-01 -5.566306e-01 -7.947990e-01 6.308262e-02
136 2 3 -1.592040e+01 7.167754e+00 1.168957e+01 0 -1 0 1.526365e-01 7.421871e-01 -5.197029e-01 -3.946761e-01
137 2 1 -1.579857e+01 6.981392e+00 1.113645e+01 0 -1 0 7.615532e-02 7.991802e-01 -5.774428e-01 -1.485636e-01
138 2 3 -1.581099e+01 6.969775e+00 1.063171e+01 0 -1 0 -1.976374e-01 -6.122512e-01 7.654754e-01 -1.163104e-02
139 2 2 -1.566350e+01 6.697071e+00 1.027572e+01 0 -1 0 -1.609391e-01 -1.615684e-01 9.730239e-01 -3.490928e-02
140 2 3 -1.564451e+01 6.329875e+00 1.006072e+01 0 -1 0 -1.375790e-02 -1.914290e-01 -9.634959e-01 1.866581e-01
141 2 1 -1.527869e+01 6.136990e+00 8.863858e+00 0 -1 0 -1.141222e-01 1.499320e-01 -5.745140e-01 -7.965113e-01
142 2 2 -1.421045e+01 6.224445e+00 8.931041e+00 0 -1 0 -8.065629e-01 -4.058730e-01 -4.277542e-01 -4.183080e-02
143 2 4 -1.373295e+01 5.873431e+00 8.899524e+00 0 -1 0 -6.784176e-01 -5.162091e-01 -4.745224e-01 -2.193312e-01
144 2 4 -1.329427e+01 5.811554e+00 8.730610e+00 0 -1 0 -3.787165e-01 -6.551148e-01 -4.097102e-01 -5.094468e-01
145 2 1 -1.356189e+01 4.343502e+00 9.053077e+00 0 -1 0 -7.414524e-01 -2.650701e-01 5.832150e-01 1.996156e-01
146 2 1 -1.358688e+01 4.362435e+00 9.484803e+00 0 -1 0 -2.400201e-01 7.197970e-01 6.086939e-01 -2.318931e-01
147 2 1 -1.358768e+01 3.299291e+00 9.736687e+00 0 -1 0 -7.375974e-01 -1.407506e-01 -5.577471e-01 3.536346e-01
148 2 2 -1.335240e+01 2.883311e+00 9.749684e+00 0 -1 0 7.312030e-01 4.797706e-01 4.732542e-01 -1.057962e-01
149 2 4 -1.297151e+01 2.442487e+00 9.440053e+00 0 -1 0 -7.321063e-01 -5.653965e-01 -3.291765e-01 -1.897103e-01
150 2 1 -1.313850e+01 2.336964e+00 9.399431e+00 0 -1 0 4.436292e-01 -5.640736e-02 -1.225421e-01 -8.859993e-01
151 2 1 -1.284759e+01 2.346431e+00 8.979873e+00 0 -1 0 4.364788e-01 -5.294826e-01 -3.763999e-01 -6.224609e-01
152 2 1 -1.253191e+01 2.616965e+00 7.951376e+00 0 -1 0 3.322595e-01 8.935563e-01 -2.760851e-01 -1.222201e-01
153 2 4 -1.258407e+01 2.436446e+00 7.429614e+00 0 -1 0 -3.492943e-01 -7.520511e-01 5.477876e-01 -1.110919e-01
154 2 1 -1.259299e+01 2.006470e+00 7.026273e+00 0 -1 0 -4.412496e-01 -5.759180e-01 6.493380e-01 -2.279855e-01
155 2 2 -1.254062e+01 1.586043e+00 6.789903e+00 0 -1 0 -3.303234e-01 -2.250877e-01 8.380845e-01 -3.712631e-01
156 2 4 -1.257490e+01 1.155581e+00 6.669874e+00 0 -1 0 -8.437046e-02 1.605492e-01 8.333785e-01 -5.220976e-01
157 2 3 -1.281166e+01 6.979962e-01 6.752189e+00 0 -1 0 2.024419e-01 4.709718e-01 6.820381e-01 -5.215620e-01
158 2 2 -1.313360e+01 3.746381e-01 6.812088e+00 0 -1 0 -4.234433e-01 -6.698233e-01 -3.916655e-01 4.675796e-01
159 2 1 -1.274925e+01 -6.442475e-01 7.966498e+00 0 -1 0 -2.843723e-01 -4.813238e-01 6.921097e-01 -4.565566e-01
160 2 3 -1.273315e+01 -1.124217e+00 8.114679e+00 0 -1 0 -5.731827e-03 2.795270e-02 -8.205587e-01 5.708495e-01
161 2 1 -1.296405e+01 -1.615447e+00 8.237688e+00 0 -1 0 -2.490245e-01 -3.161905e-01 -7.255123e-01 5.582494e-01
162 2 1 -1.328230e+01 -1.998547e+00 8.302144e+00 0 -1 0 5.993226e-01 5.650729e-01 4.297343e-01 -3.699100e-01
163 2 4 -1.221598e+01 -2.743809e+00 8.686236e+00 0 -1 0 2.859541e-01 -8.072229e-01 4.926756e-01 -1.545710e-01
164 2 4 -1.204430e+01 -3.088743e+00 7.937180e+00 0 -1 0 -9.530071e-02 9.181389e-01 -3.813392e-01 5.019139e-02
165 2 3 -1.221336e+01 -3.566055e+00 8.467845e+00 0 -1 0 5.581661e-01 -1.606186e-02 -5.286480e-01 6.393152e-01
166 2 3 -1.241406e+01 -3.639536e+00 8.914633e+00 0 -1 0 -1.744248e-01 5.292201e-02 3.178920e-01 -9.304407e-01
167 2 4 -1.111147e+01 -4.421558e+00 8.277070e+00 0 -1 0 -7.275865e-02 7.051817e-01 -6.199755e-01 -3.362371e-01
168 2 2 -1.071997e+01 -4.023162e+00 9.234223e+00 0 -1 0 6.954364e-01 -6.166026e-01 3.470181e-01 -1.254905e-01
169 2 2 -1.043903e+01 -2.881470e+00 8.431133e+00 0 -1 0 3.442797e-01 9.109019e-01 1.562025e-01 -1.653179e-01
170 2 1 -1.004403e+01 -2.501374e+00 9.387167e+00 0 -1 0 2.702525e-01 -8.551937e-01 -4.212833e-01 -1.346390e-01
171 2 1 -9.661826e+00 -2.976753e+00 9.360370e+00 0 -1 0 -5.184441e-01 -7.581141e-01 -3.825903e-01 -1.005157e-01
172 2 4 -9.286513e+00 -4.105136e+00 9.947129e+00 0 -1 0 -3.739081e-01 5.899050e-01 -6.353922e-01 -3.293652e-01
173 2 4 -1.014398e+01 -4.092219e+00 1.126582e+01 0 -1 0 -3.333906e-01 5.549866e-01 -2.865962e-01 7.061892e-01
174 2 1 -9.822227e+00 -4.239018e+00 1.171177e+01 0 -1 0 6.542486e-01 -3.089082e-01 5.247066e-01 -4.485728e-01
175 2 1 -9.316767e+00 -2.982413e+00 1.231797e+01 0 -1 0 3.539309e-01 -9.105848e-01 9.795882e-02 -1.896638e-01
176 2 2 -9.285119e+00 -2.516517e+00 1.189879e+01 0 -1 0 -3.253489e-01 8.242005e-01 -4.634999e-01 -3.083368e-03
177 2 2 -8.658007e+00 -2.933212e+00 1.188458e+01 0 -1 0 -1.549342e-01 -7.736002e-01 5.757441e-01 2.146089e-01
178 2 1 -8.786353e+00 -3.188354e+00 1.305943e+01 0 -1 0 -6.236591e-01 4.811914e-01 -5.230986e-01 3.253797e-01
179 2 4 -8.334418e+00 -3.271196e+00 1.331058e+01 0 -1 0 -6.600777e-01 2.902816e-01 -6.489580e-01 2.426676e-01
180 2 1 -7.947872e+00 -2.448795e+00 1.350727e+01 0 -1 0 -1.086787e-01 -6.484867e-01 6.205829e-01 4.272362e-01
181 2 4 -7.712417e+00 -2.084128e+00 1.277918e+01 0 -1 0 -2.111921e-02 -8.079834e-01 2.690768e-01 5.237504e-01
182 2 2 -7.915169e+00 -1.810577e+00 1.229535e+01 0 -1 0 1.191399e-01 7.270826e-01 -5.704735e-01 -3.629278e-01
183 2 3 -7.857137e+00 -1.826108e+00 1.176880e+01 0 -1 0 1.951398e-01 2.848241e-01 -9.058630e-01 -2.453732e-01
184 2 4 -7.942799e+00 -1.282911e+00 1.100030e+01 0 -1 0 -8.319084e-01 8.001054e-02 -5.206901e-01 -1.743806e-01
185 2 3 -7.337791e+00 -2.574232e-01 1.106667e+01 0 -1 0 -7.331958e-01 -3.643613e-01 -3.033923e-01 -4.874607e-01
186 2 1 -8.168690e+00 4.709757e-01 1.092469e+01 0 -1 0 2.036522e-01 5.303842e-01 8.212774e-01 -5.217141e-02
187 2 1 -8.274084e+00 3.797295e-01 1.043910e+01 0 -1 0 3.022245e-01 8.131828e-01 4.960054e-01 3.704943e-02
188 2 2 -8.866597e+00 4.700523e-01 1.046831e+01 0 -1 0 2.243979e-01 -2.127399e-01 4.790350e-01 -8.215307e-01
189 2 4 -9.081867e+00 6.163225e-01 9.047326e+00 0 -1 0 2.143179e-01 2.654822e-01 -2.203894e-01 -9.137918e-01
190 2 4 -7.752957e+00 9.163615e-01 9.979729e+00 0 -1 0 -4.090581e-01 -5.793583e-01 5.196747e-01 -4.763965e-01
191 2 1 -8.213861e+00 6.927211e-01 8.865772e+00 0 -1 0 2.224025e-01 6.310532e-01 2.671455e-01 -6.935000e-01
192 2 4 -8.386920e+00 1.079275e-01 8.661346e+00 0 -1 0 4.522812e-01 -1.881540e-01 -1.163973e-01 -8.639974e-01
193 2 4 -8.011090e+00 -4.180189e-01 8.243442e+00 0 -1 0 2.013220e-01 -3.167787e-01 -9.061058e-01 -1.951741e-01
194 2 1 -7.314581e+00 -7.115818e-01 7.043016e+00 0 -1 0 6.129179e-01 -2.013375e-01 7.561129e-01 1.099459e-01
195 2 3 -8.130450e+00 -2.196743e-02 7.099830e+00 0 -1 0 -3.496692e-01 -7.905497e-01 -1.143305e-01 4.895825e-01
196 2 4 -8.494549e+00 -1.820597e-01 6.774719e+00 0 -1 0 -6.258600e-01 -6.885553e-01 1.530436e-01 3.328191e-01
197 2 2 -9.037313e+00 9.008513e-01 7.193787e+00 0 -1 0 4.450752e-01 -1.425175e-02 -3.293096e-01 8.326224e-01
198 2 4 -9.305964e+00 1.465247e+00 6.942427e+00 0 -1 0 1.158688e-01 -5.623459e-01 6.301486e-02 -8.163153e-01
199 2 3 -8.974865e+00 1.604949e+00 7.371074e+00 0 -1 0 3.609240e-01 -4.486341e-01 1.612959e-01 -8.015266e-01
200 2 4 -9.107192e+00 1.587024e+00 7.278371e+00 0 -1 0 -5.619389e-01 -1.060355e-01 -8.183193e-01 -5.774648e-02
