ITEM: TIMESTEP
227000000
ITEM: NUMBER OF ATOMS
200
ITEM: BOX BOUNDS pp pp pp
-2.0000000000000000e+01 2.0000000000000000e+01
-2.0000000000000000e+01 2.0000000000000000e+01
-2.0000000000000000e+01 2.0000000000000000e+01
ITEM: ATOMS id mol type x y z ix iy iz c_quat[1] c_quat[2] c_quat[3] c_quat[4]
1 1 1 -1.213159e+01 7.687762e+00 -1.780031e+00 0 -1 0 5.983379e-01 -7.288871e-02 1.987225e-01 -7.727796e-01
2 1 2 -1.294263e+01 8.145359e+00 -2.272258e+00 0 -1 0 3.396772e-01 4.518054e-01 6.763233e-01 -4.723114e-01
3 1 1 -1.281468e+01 9.215488e+00 -2.650651e+00 0 -1 0 -2.711181e-01 -2.629330e-01 -5.209202e-01 -7.655086e-01
4 1 3 -1.265784e+01 9.768180e+00 -2.613390e+00 0 -1 0 5.104667e-02 -3.088426e-01 -4.414666e-01 -8.409029e-01
5 1 1 -1.136539e+01 9.995034e+00 -2.565077e+00 0 -1 0 8.955252e-02 9.103266e-01 7.224782e-03 4.040217e-01
6 1 2 -1.177442e+01 1.041192e+01 -2.202971e+00 0 -1 0 1.009421e-01 -4.796485e-02 -8.175831e-03 9.937018e-01
7 1 4 -1.189057e+01 1.056091e+01 -1.689798e+00 0 -1 0 -3.689573e-01 -1.534944e-01 -2.466626e-02 9.163523e-01
8 1 1 -1.087864e+01 1.028790e+01 -1.178135e+00 0 -1 0 -7.236065e-02 7.241737e-01 -1.606809e-01 6.667219e-01
9 1 1 -1.113483e+01 9.551992e+00 -5.886077e-01 0 -1 0 -3.625964e-01 5.308273e-01 -2.132687e-02 7.656966e-01
10 1 4 -1.099173e+01 9.150733e+00 -8.906134e-01 0 -1 0 1.957065e-01 -7.719342e-01 7.660064e-02 5.999575e-01
11 1 1 -1.218203e+01 8.602832e+00 -1.385687e-02 0 -1 0 -6.326614e-02 -4.216348e-03 -6.173526e-01 7.841271e-01
12 1 1 -1.230763e+01 8.142417e+00 2.360675e-01 0 -1 0 3.109848e-01 1.853031e-01 6.448105e-01 -6.731795e-01
13 1 3 -1.235839e+01 7.675661e+00 2.510407e-01 0 -1 0 -5.495893e-01 -4.503675e-01 -5.746370e-01 4.060949e-01
14 1 4 -1.184642e+01 7.033609e+00 6.949164e-01 0 -1 0 -6.476514e-01 -3.548486e-01 -6.137937e-01 2.790832e-01
15 1 4 -1.227489e+01 7.183340e+00 1.317471e+00 0 -1 0 2.761249e-01 1.486038e-01 5.473648e-01 7.759276e-01
16 1 2 -1.249596e+01 6.906695e+00 1.796557e+00 0 -1 0 2.878519e-01 -5.898242e-01 -4.702824e-02 7.530187e-01
17 1 1 -1.289737e+01 6.220942e+00 2.666512e+00 0 -1 0 -4.551808e-01 8.597795e-01 1.554017e-01 1.715807e-01
18 1 2 -1.334825e+01 5.693287e+00 2.798239e+00 0 -1 0 2.681144e-01 -8.676329e-01 -1.605403e-01 -3.867229e-01
19 1 3 -1.288018e+01 5.087224e+00 1.792940e+00 0 -1 0 -3.603501e-01 -6.100117e-01 6.855883e-01 -1.673384e-01
20 1 1 -1.325979e+01 4.588959e+00 1.332874e+00 0 -1 0 6.021913e-01 5.295696e-01 -5.729793e-01 1.691640e-01
21 1 4 -1.387778e+01 4.636363e+00 1.150377e+00 0 -1 0 3.264597e-01 2.491053e-02 -7.639973e-02 9.417890e-01
22 1 1 -1.425577e+01 3.962396e+00 1.374761e+00 0 -1 0 3.802296e-01 5.495390e-01 -4.983744e-01 5.523181e-01
23 1 4 -1.476115e+01 2.743828e+00 7.801512e-01 0 -1 0 -4.893527e-01 -2.490319e-01 8.222675e-01 1.496439e-01
24 1 3 -1.459643e+01 3.298315e+00 9.533011e-01 0 -1 0 3.322155e-01 3.859011e-01 8.006538e-02 -8.569147e-01
25 1 3 -1.442077e+01 2.312028e+00 1.581555e+00 0 -1 0 5.217938e-01 3.495164e-01 -6.427964e-01 -4.386141e-01
26 1 4 -1.546707e+01 2.712717e+00 2.334662e+00 0 -1 0 -1.996444e-01 -1.627287e-01 -5.754858e-01 7.761943e-01
27 1 4 -1.467680e+01 3.110752e+00 2.814860e+00 0 -1 0 -6.359972e-01 1.136483e-01 -1.424194e-01 -7.498722e-01
28 1 1 -1.407308e+01 2.738322e+00 3.175547e+00 0 -1 0 -3.338668e-02 8.069608e-01 -5.093770e-01 -2.970433e-01
29 1 1 -1.496537e+01 2.158835e+00 4.111607e+00 0 -1 0 -4.805894e-01 1.257792e-02 7.200725e-01 -5.003710e-01
30 1 4 -1.576328e+01 1.687967e+00 3.121175e+00 0 -1 0 2.058031e-01 3.870688e-01 8.509457e-01 2.893342e-01
31 1 4 -1.523174e+01 1.359405e+00 3.485251e+00 0 -1 0 -3.028873e-01 2.589301e-01 4.012177e-01 -8.247659e-01
32 1 3 -1.506757e+01 -1.683644e-01 2.805046e+00 0 -1 0 -5.120567e-01 2.467383e-01 -7.549320e-01 -3.271022e-01
33 1 3 -1.463924e+01 8.419174e-02 2.562971e+00 0 -1 0 -3.217791e-01 -2.153479e-02 -8.104073e-01 -4.891160e-01
34 1 1 -1.449764e+01 -4.441119e-01 3.055182e+00 0 -1 0 -8.294584e-01 -3.857465e-01 -2.221395e-01 -3.374202e-01
35 1 2 -1.435551e+01 2.754086e-02 4.208788e+00 0 -1 0 -3.468303e-01 -2.213217e-01 3.161275e-01 -8.548619e-01
36 1 2 -1.417725e+01 -6.939702e-02 4.638695e+00 0 -1 0 -7.885305e-04 -1.159815e-01 3.523932e-01 -9.286370e-01
37 1 1 -1.405255e+01 -8.457709e-02 5.321299e+00 0 -1 0 -1.827178e-01 5.217742e-01 6.006004e-01 -5.776201e-01
38 1 1 -1.300036e+01 -1.952412e-01 5.018454e+00 0 -1 0 -7.994124e-01 2.474758e-01 -5.333479e-01 -1.234322e-01
39 1 4 -1.314665e+01 6.447773e-01 5.781766e+00 0 -1 0 -4.913436e-01 8.487475e-01 -1.875374e-01 5.512661e-02
40 1 4 -1.322018e+01 1.276628e+00 5.435426e+00 0 -1 0 -4.317642e-01 -6.846563e-01 -5.871210e-01 1.069572e-02
41 1 2 -1.226863e+01 1.162938e+00 6.843107e+00 0 -1 0 -7.573877e-01 -8.789972e-02 3.840682e-01 -5.207006e-01
42 1 4 -1.241666e+01 9.312431e-01 7.351543e+00 0 -1 0 7.318667e-01 7.192727e-03 -1.376915e-01 6.673533e-01
43 1 3 -1.180578e+01 7.117441e-01 7.124709e+00 0 -1 0 8.745456e-01 3.926139e-01 2.771779e-01 6.478208e-02
44 1 2 -1.139323e+01 3.392577e-01 7.311182e+00 0 -1 0 -7.858816e-01 -4.454786e-01 -4.132138e-01 -1.148617e-01
45 1 1 -1.113474e+01 -1.309844e-02 7.113753e+00 0 -1 0 -6.736238e-01 -5.970746e-01 -6.231146e-02 -4.311035e-01
46 1 3 -1.212054e+01 -1.420954e-01 6.386564e+00 0 -1 0 -1.908343e-01 -6.564129e-01 -7.262912e-01 -7.214859e-02
47 1 4 -1.176391e+01 -2.596676e-01 5.744488e+00 0 -1 0 -3.694691e-01 -1.509297e-01 8.605954e-02 9.128563e-01
48 1 1 -1.078340e+01 5.533830e-01 5.313186e+00 0 -1 0 7.058812e-03 5.761875e-01 -2.191221e-01 -7.873650e-01
49 1 4 -1.103396e+01 9.581323e-01 5.172336e+00 0 -1 0 2.831758e-01 3.801529e-01 -5.083891e-01 -7.189129e-01
50 1 4 -1.090458e+01 1.335220e+00 6.750456e+00 0 -1 0 -1.885290e-01 -7.170065e-01 2.259558e-01 -6.319038e-01
51 1 4 -1.042154e+01 1.493534e+00 6.650820e+00 0 -1 0 -1.284801e-01 6.298460e-01 -4.275671e-01 6.355889e-01
52 1 1 -1.068371e+01 2.582654e+00 5.993792e+00 0 -1 0 -7.490815e-02 2.112896e-01 -3.131946e-01 -9.228514e-01
53 1 3 -1.070931e+01 2.625557e+00 7.000563e+00 0 -1 0 -5.463937e-01 1.218657e-01 8.231707e-01 9.483013e-02
54 1 4 -1.076213e+01 3.255120e+00 7.597728e+00 0 -1 0 -5.193883e-01 3.947875e-01 5.646774e-01 5.054879e-01
55 1 4 -1.103400e+01 3.637036e+00 7.736984e+00 0 -1 0 -6.798521e-01 5.264243e-01 3.788773e-01 3.422435e-01
56 1 4 -1.130670e+01 4.036640e+00 7.998687e+00 0 -1 0 -7.416041e-01 6.216542e-01 1.750341e-01 1.814730e-01
57 1 1 -1.146126e+01 4.183500e+00 8.523801e+00 0 -1 0 -7.909461e-01 5.922846e-01 1.067224e-01 -1.105149e-01
58 1 1 -1.143573e+01 4.616644e+00 8.871108e+00 0 -1 0 6.235065e-01 -6.913196e-01 1.855417e-01 3.144697e-01
59 1 3 -1.130797e+01 5.156589e+00 8.968631e+00 0 -1 0 -5.270928e-01 6.071675e-01 -4.160827e-01 -4.247305e-01
60 1 4 -1.110449e+01 5.590896e+00 8.987578e+00 0 -1 0 2.910445e-01 -4.911488e-01 5.657597e-01 5.949638e-01
61 1 2 -1.088634e+01 6.004997e+00 8.676057e+00 0 -1 0 1.744770e-01 -3.078706e-01 7.531672e-01 5.545382e-01
62 1 3 -1.085060e+01 6.438360e+00 8.280522e+00 0 -1 0 2.704336e-02 1.686839e-01 -7.895809e-01 -5.893865e-01
63 1 2 -1.115552e+01 6.801078e+00 7.847742e+00 0 -1 0 -4.005556e-01 2.828577e-02 7.660379e-01 5.019373e-01
64 1 4 -1.156299e+01 7.048347e+00 7.612336e+00 0 -1 0 6.288822e-01 -2.412644e-01 -6.442676e-01 -3.622401e-01
65 1 2 -1.206735e+01 7.229160e+00 7.763253e+00 0 -1 0 7.086592e-01 -4.772623e-01 -4.968134e-01 -1.523133e-01
66 1 1 -1.249130e+01 7.449869e+00 7.985500e+00 0 -1 0 7.259650e-01 -6.205710e-01 -2.929910e-01 4.497526e-02
67 1 2 -1.268214e+01 7.879134e+00 8.304038e+00 0 -1 0 -6.930917e-01 6.927710e-01 3.917872e-02 -1.953391e-01
68 1 1 -1.264520e+01 8.203099e+00 8.608061e+00 0 -1 0 6.363717e-01 -6.197001e-01 1.981741e-01 4.144030e-01
69 1 1 -1.246225e+01 8.729892e+00 8.781967e+00 0 -1 0 -4.840226e-01 5.137086e-01 -4.765599e-01 -5.241338e-01
70 1 2 -1.227827e+01 9.144017e+00 8.777277e+00 0 -1 0 2.496246e-01 -2.084704e-01 6.723953e-01 6.649152e-01
71 1 3 -1.215540e+01 9.622683e+00 8.548817e+00 0 -1 0 1.146421e-01 -8.784692e-03 -6.559984e-01 -7.459531e-01
72 1 4 -1.139355e+01 1.006842e+01 9.036211e+00 0 -1 0 -1.196370e-01 2.776342e-01 4.239171e-01 8.537567e-01
73 1 1 -1.142663e+01 1.053016e+01 9.141086e+00 0 -1 0 -5.331306e-01 4.727097e-01 2.398735e-01 6.593771e-01
74 1 1 -1.174833e+01 1.131930e+01 9.096489e+00 0 -1 0 -2.723525e-01 -8.809406e-02 2.665310e-01 -9.203395e-01
75 1 3 -1.065160e+01 1.125520e+01 8.141316e+00 0 -1 0 9.228650e-02 -7.782886e-01 4.778644e-01 3.967312e-01
76 1 1 -1.085946e+01 1.082971e+01 7.704143e+00 0 -1 0 -1.562555e-03 -5.551334e-01 8.308725e-01 -3.840895e-02
77 1 4 -1.085744e+01 1.057449e+01 7.248766e+00 0 -1 0 -1.366581e-01 -4.790366e-01 8.295313e-01 -2.524408e-01
78 1 1 -1.065422e+01 1.018316e+01 6.988571e+00 0 -1 0 5.627591e-02 -1.323030e-01 9.487800e-01 -2.813282e-01
79 1 4 -1.018194e+01 1.088592e+01 5.657541e+00 0 -1 0 -6.452826e-01 -7.173611e-01 -5.562912e-02 2.567272e-01
80 1 2 -1.021979e+01 1.055149e+01 5.414395e+00 0 -1 0 7.267133e-01 5.798426e-01 -3.577975e-01 8.747171e-02
81 1 4 -1.006180e+01 1.017403e+01 5.249894e+00 0 -1 0 4.521786e-01 3.531698e-01 -7.215035e-01 3.876059e-01
82 1 4 -9.103303e+00 1.016194e+01 4.472931e+00 0 -1 0 9.608852e-01 -8.863492e-02 8.114332e-02 2.495182e-01
83 1 4 -9.721303e+00 1.003113e+01 4.394661e+00 0 -1 0 -3.493931e-01 -8.241991e-01 2.952934e-01 -3.337995e-01
84 1 4 -1.026981e+01 8.786243e+00 4.452011e+00 0 -1 0 -3.835150e-01 -2.379151e-01 8.903741e-01 -5.955354e-02
85 1 1 -1.020409e+01 9.239437e+00 3.630212e+00 0 -1 0 8.943272e-02 -4.101976e-01 -2.178455e-01 8.810693e-01
86 1 1 -9.031952e+00 8.951801e+00 3.962628e+00 0 -1 0 2.964628e-01 9.431545e-01 3.128554e-02 -1.469377e-01
87 1 3 -8.250967e+00 8.129958e+00 4.520927e+00 0 -1 0 2.919167e-01 -8.287470e-01 4.772925e-01 -1.244578e-02
88 1 2 -7.878312e+00 8.315447e+00 4.309382e+00 0 -1 0 2.746807e-01 -5.334251e-01 7.775443e-01 1.882365e-01
89 1 2 -7.590892e+00 8.289461e+00 3.849960e+00 0 -1 0 -7.750013e-02 7.961997e-02 -9.516138e-01 -2.865058e-01
90 1 3 -7.523387e+00 8.061807e+00 3.377894e+00 0 -1 0 2.586061e-02 -1.477195e-01 -9.850181e-01 -8.514425e-02
91 1 3 -6.807971e+00 9.351722e+00 3.901875e+00 0 -1 0 -3.603271e-01 7.142777e-01 4.397863e-01 -4.081173e-01
92 1 2 -7.210730e+00 9.369928e+00 4.801154e+00 0 -1 0 -5.536079e-02 -6.246656e-02 4.528314e-01 -8.876806e-01
93 1 1 -7.292501e+00 9.180952e+00 5.190659e+00 0 -1 0 4.122655e-01 1.777842e-01 4.787498e-01 -7.544724e-01
94 1 2 -6.543960e+00 1.018134e+01 5.317912e+00 0 -1 0 2.402369e-01 7.169305e-01 -3.045401e-01 5.792687e-01
95 1 3 -7.045792e+00 1.036228e+01 4.302735e+00 0 -1 0 -3.989464e-01 -1.809674e-01 -2.549448e-01 8.620300e-01
96 1 2 -7.086452e+00 1.105432e+01 4.555725e+00 0 -1 0 5.309520e-01 -1.771179e-02 -4.184615e-01 7.366588e-01
97 1 2 -7.933940e+00 1.104236e+01 4.099833e+00 0 -1 0 -5.736534e-01 -2.438355e-02 7.328237e-01 3.650982e-01
98 1 4 -6.860180e+00 1.190154e+01 3.832641e+00 0 -1 0 -2.048296e-01 8.654310e-01 3.052424e-01 -3.404426e-01
99 1 2 -6.875464e+00 1.213480e+01 4.000294e+00 0 -1 0 -4.146472e-01 -6.964735e-02 7.404803e-01 -5.243146e-01
100 1 1 -6.853381e+00 1.268295e+01 3.605673e+00 0 -1 0 4.645466e-01 1.261831e-01 -8.556357e-01 1.901625e-01
101 2 4 -1.266915e+01 7.847174e+00 1.242395e+01 0 -1 0 1.158312e-01 -4.357356e-01 4.776510e-01 -7.540339e-01
102 2 3 -1.322683e+01 7.311443e+00 1.230729e+01 0 -1 0 7.650339e-01 1.466241e-01 -6.247004e-01 -5.453294e-02
103 2 1 -1.364613e+01 6.947162e+00 1.246139e+01 0 -1 0 7.259463e-01 -2.729248e-01 -6.276910e-01 6.721621e-02
104 2 3 -1.405994e+01 7.000869e+00 1.264139e+01 0 -1 0 8.125428e-01 -2.386993e-01 -4.514580e-01 2.810383e-01
105 2 3 -1.438353e+01 6.999747e+00 1.303375e+01 0 -1 0 -7.009625e-01 4.671221e-01 3.014928e-01 -4.467109e-01
106 2 2 -1.520164e+01 7.272107e+00 1.293539e+01 0 -1 0 4.305010e-01 7.107250e-01 4.638514e-01 -3.072146e-01
107 2 3 -1.542893e+01 7.070463e+00 1.269125e+01 0 -1 0 -4.710749e-01 -8.474424e-01 -3.011480e-02 2.429462e-01
108 2 4 -1.643312e+01 7.037613e+00 1.343065e+01 0 -1 0 1.229514e-01 2.469490e-01 6.082920e-02 9.592700e-01
109 2 3 -1.651862e+01 7.445592e+00 1.366853e+01 0 -1 0 2.952537e-01 -4.553701e-01 -8.147625e-02 8.359575e-01
110 2 2 -1.682857e+01 7.878079e+00 1.381121e+01 0 -1 0 1.696642e-01 4.593828e-01 -1.543786e-01 -8.581076e-01
111 2 2 -1.733936e+01 7.985429e+00 1.378502e+01 0 -1 0 2.718979e-01 5.538697e-01 -3.613084e-01 -6.991110e-01
112 2 3 -1.772756e+01 8.370383e+00 1.436234e+01 0 -1 0 -4.589759e-01 -4.224297e-01 3.420635e-01 -7.027708e-01
113 2 3 -1.697945e+01 8.438968e+00 1.331903e+01 0 -1 0 -3.490139e-01 7.294039e-01 -2.203975e-01 -5.455128e-01
114 2 2 -1.704708e+01 8.919499e+00 1.309096e+01 0 -1 0 3.663103e-03 -5.852087e-01 5.497462e-01 5.960675e-01
115 2 4 -1.709734e+01 9.100937e+00 1.271946e+01 0 -1 0 -1.255847e-01 -1.224895e-01 8.443503e-01 5.062582e-01
116 2 4 -1.732334e+01 9.153467e+00 1.232864e+01 0 -1 0 -2.586417e-01 2.912751e-01 8.700929e-01 3.019960e-01
117 2 1 -1.770252e+01 9.453494e+00 1.206563e+01 0 -1 0 4.449866e-01 -4.640224e-01 -6.983204e-01 -3.146726e-01
118 2 1 -1.804913e+01 9.879161e+00 1.196279e+01 0 -1 0 -5.215032e-01 7.394977e-01 3.578394e-01 2.304961e-01
119 2 1 -1.768308e+01 9.385636e+00 1.104639e+01 0 -1 0 1.709793e-01 -3.607904e-01 8.521599e-01 -3.382600e-01
120 2 1 -1.764655e+01 9.633745e+00 9.922717e+00 0 -1 0 1.164849e-01 -5.249691e-01 8.228540e-01 1.837117e-01
121 2 3 -1.760792e+01 1.093249e+01 9.592398e+00 0 -1 0 -3.203480e-01 4.439233e-01 -4.017224e-01 -7.341174e-01
122 2 1 -1.780136e+01 1.080284e+01 9.611533e+00 0 -1 0 -6.347458e-02 5.488689e-01 1.889555e-01 8.117941e-01
123 2 4 -1.659361e+01 9.718203e+00 9.162799e+00 0 -1 0 7.328171e-01 4.667732e-01 -4.482022e-01 2.102777e-01
124 2 1 -1.667402e+01 9.770016e+00 9.315607e+00 0 -1 0 3.374212e-01 -2.885196e-01 -8.898569e-01 -1.051576e-01
125 2 4 -1.641856e+01 1.034419e+01 8.557507e+00 0 -1 0 -8.452459e-01 -3.184544e-01 -4.240743e-01 6.562954e-02
126 2 2 -1.585920e+01 1.089870e+01 8.689482e+00 0 -1 0 -3.811868e-01 8.944221e-01 9.552138e-02 2.134979e-01
127 2 4 -1.573857e+01 9.613373e+00 8.478459e+00 0 -1 0 8.105258e-01 -6.796847e-02 -5.684751e-01 -1.235487e-01
128 2 4 -1.485689e+01 9.171243e+00 7.863931e+00 0 -1 0 -6.854940e-01 2.400926e-01 -6.873321e-01 -5.295135e-03
129 2 1 -1.432857e+01 9.269071e+00 7.722632e+00 0 -1 0 -4.913630e-01 1.002067e-01 -8.383340e-01 -2.138156e-01
130 2 2 -1.315271e+01 9.354158e+00 7.771293e+00 0 -1 0 6.931838e-01 6.781261e-01 2.347161e-02 2.430850e-01
131 2 3 -1.283786e+01 9.024914e+00 7.514010e+00 0 -1 0 5.065092e-01 6.870004e-01 -1.313965e-01 5.041962e-01
132 2 4 -1.236953e+01 8.798153e+00 7.563666e+00 0 -1 0 2.884865e-01 5.673176e-01 -3.612313e-01 6.814971e-01
133 2 4 -1.187199e+01 8.595328e+00 7.776818e+00 0 -1 0 -3.660942e-02 -3.653676e-01 5.287803e-01 -7.652174e-01
134 2 3 -1.153085e+01 8.290264e+00 8.054335e+00 0 -1 0 4.224628e-02 -2.061158e-01 5.129481e-01 -8.322354e-01
135 2 4 -1.150568e+01 7.975239e+00 8.495123e+00 0 -1 0 3.826735e-01 1.465959e-02 6.092313e-01 -6.943942e-01
136 2 3 -1.144678e+01 7.500776e+00 8.700358e+00 0 -1 0 -4.703224e-01 -2.815531e-01 -5.977629e-01 5.849823e-01
137 2 1 -1.165615e+01 7.082932e+00 8.763995e+00 0 -1 0 -5.878082e-01 -5.399625e-01 -4.021919e-01 4.485128e-01
138 2 3 -1.188686e+01 6.494437e+00 8.690431e+00 0 -1 0 -5.782645e-01 -6.658671e-01 -4.054850e-01 2.404436e-01
139 2 2 -1.199841e+01 6.109619e+00 8.274512e+00 0 -1 0 -7.417298e-01 -6.585434e-01 -1.237808e-01 -2.890863e-02
140 2 3 -1.180871e+01 5.675226e+00 8.039982e+00 0 -1 0 6.303215e-01 6.943480e-01 -6.851775e-02 3.404130e-01
141 2 1 -1.144482e+01 5.429607e+00 7.962571e+00 0 -1 0 3.640876e-01 5.455129e-01 -4.549260e-01 6.024104e-01
142 2 2 -1.096236e+01 5.151793e+00 7.847550e+00 0 -1 0 1.981369e-01 5.125321e-01 -3.760128e-01 7.461012e-01
143 2 4 -1.059038e+01 4.955697e+00 8.161933e+00 0 -1 0 -5.016419e-02 3.190722e-01 -5.778079e-01 7.495429e-01
144 2 4 -1.024433e+01 4.548697e+00 8.328699e+00 0 -1 0 -8.127328e-02 1.110493e-01 -6.620145e-01 7.367492e-01
145 2 1 -1.029597e+01 4.017782e+00 8.579500e+00 0 -1 0 2.364769e-01 1.853747e-01 7.010016e-01 -6.467702e-01
146 2 1 -1.049515e+01 3.526377e+00 8.842835e+00 0 -1 0 3.798022e-01 3.355960e-01 7.009285e-01 -5.018215e-01
147 2 1 -1.086768e+01 3.127231e+00 8.802693e+00 0 -1 0 4.754649e-01 6.095890e-01 4.402071e-01 -4.566749e-01
148 2 2 -1.113743e+01 2.768587e+00 8.517757e+00 0 -1 0 -6.120077e-01 -7.328570e-01 -1.557145e-01 2.532197e-01
149 2 4 -1.110800e+01 1.682622e+00 9.614209e+00 0 -1 0 6.480771e-01 1.047352e-01 -6.788054e-01 -3.290135e-01
150 2 1 -1.151559e+01 2.873528e+00 9.901981e+00 0 -1 0 -2.309822e-01 -3.531313e-01 -4.958347e-01 -7.590082e-01
151 2 1 -1.091639e+01 3.051276e+00 1.107955e+01 0 -1 0 -3.598009e-01 2.348775e-02 5.024299e-01 -7.858472e-01
152 2 1 -1.105044e+01 2.836594e+00 1.155112e+01 0 -1 0 -1.905394e-02 -3.101299e-01 -4.711840e-01 8.254950e-01
153 2 4 -1.020578e+01 3.512184e+00 1.115367e+01 0 -1 0 2.441267e-01 -3.765584e-01 3.137933e-01 8.367435e-01
154 2 1 -9.612570e+00 3.855197e+00 1.208906e+01 0 -1 0 -1.752630e-01 8.042104e-01 3.167852e-01 -4.713551e-01
155 2 2 -9.117586e+00 3.423302e+00 1.271558e+01 0 -1 0 1.514149e-01 5.518752e-01 -8.163529e-01 7.794351e-02
156 2 4 -9.121111e+00 2.701707e+00 1.268632e+01 0 -1 0 -7.453433e-01 -3.961809e-01 4.808284e-01 2.372932e-01
157 2 3 -8.680862e+00 3.272926e+00 1.309748e+01 0 -1 0 1.589902e-01 7.152288e-01 2.074268e-01 6.481852e-01
158 2 2 -8.418879e+00 2.863230e+00 1.410343e+01 0 -1 0 -5.303628e-01 7.227218e-01 3.944902e-01 -2.019058e-01
159 2 1 -8.779539e+00 3.191383e+00 1.413902e+01 0 -1 0 -6.137703e-01 7.172776e-01 1.877517e-01 -2.711975e-01
160 2 3 -9.607211e+00 4.084433e+00 1.382628e+01 0 -1 0 -1.498449e-01 8.115587e-01 5.180931e-01 -2.247186e-01
161 2 1 -9.977762e+00 4.270049e+00 1.350882e+01 0 -1 0 3.734008e-02 -9.485369e-01 -2.088787e-01 2.350601e-01
162 2 1 -9.865561e+00 3.563065e+00 1.425896e+01 0 -1 0 8.230546e-01 4.857752e-01 -2.456588e-01 1.620352e-01
163 2 4 -9.795727e+00 3.073384e+00 1.423672e+01 0 -1 0 7.524075e-01 2.576580e-01 -4.106566e-01 4.459332e-01
164 2 4 -9.820977e+00 2.753727e+00 1.464296e+01 0 -1 0 6.181512e-01 5.832582e-02 -3.254257e-01 7.131517e-01
165 2 3 -1.004670e+01 2.604694e+00 1.525665e+01 0 -1 0 4.375045e-01 -1.656005e-01 -2.439137e-01 8.495130e-01
166 2 3 -1.015729e+01 2.868766e+00 1.572742e+01 0 -1 0 2.043052e-03 2.307549e-01 1.116170e-01 -9.665866e-01
167 2 4 -1.053488e+01 2.929522e+00 1.608377e+01 0 -1 0 3.188528e-01 3.767400e-01 -1.190108e-02 -8.696311e-01
168 2 2 -9.791505e+00 3.464653e+00 1.673967e+01 0 -1 0 8.948038e-01 -4.331214e-01 1.061507e-01 -2.154327e-02
169 2 2 -9.627611e+00 3.590577e+00 1.717912e+01 0 -1 0 8.314802e-01 -3.982352e-01 1.947820e-01 3.348275e-01
170 2 1 -1.030210e+01 4.439683e+00 1.778853e+01 0 -1 0 -2.958930e-02 1.728403e-01 -7.067613e-03 9.844799e-01
171 2 1 -9.541218e+00 4.348082e+00 1.774503e+01 0 -1 0 8.486705e-02 -3.630417e-01 7.575496e-01 5.358330e-01
172 2 4 -9.091613e+00 4.059230e+00 1.814934e+01 0 -1 0 -7.467843e-02 3.796367e-01 -6.900632e-01 -6.116469e-01
173 2 4 -9.450985e+00 4.153595e+00 1.958576e+01 0 -1 0 -7.779180e-04 -5.347423e-01 1.096486e-01 -8.378707e-01
174 2 1 -8.998554e+00 4.266224e+00 1.982979e+01 0 -1 0 -2.224032e-01 3.346723e-01 -1.585322e-01 9.018862e-01
175 2 1 -8.911112e+00 4.335657e+00 -1.975821e+01 0 -1 1 -5.862217e-01 2.543650e-01 -2.090707e-01 7.402243e-01
176 2 2 -8.984863e+00 5.702811e+00 -1.997788e+01 0 -1 1 -1.011547e-01 -9.419535e-01 -2.769023e-01 1.606751e-01
177 2 2 -9.174850e+00 5.395786e+00 -1.944290e+01 0 -1 1 7.712082e-01 -3.200415e-01 2.449485e-01 4.927591e-01
178 2 1 -1.034958e+01 5.508333e+00 -1.968277e+01 0 -1 1 -6.173897e-01 -2.455142e-01 -6.877031e-01 -2.926040e-01
179 2 4 -1.041255e+01 5.691361e+00 -1.965679e+01 0 -1 1 6.539157e-01 3.156325e-01 -5.762732e-01 -3.750728e-01
180 2 1 -1.081887e+01 6.249925e+00 1.976998e+01 0 -1 0 -9.076409e-02 -8.561544e-01 -6.456999e-02 5.045714e-01
181 2 4 -1.193055e+01 5.760554e+00 -1.932916e+01 0 -1 1 5.850579e-02 3.976944e-01 8.428448e-01 -3.578113e-01
182 2 2 -1.223512e+01 5.461756e+00 -1.949334e+01 0 -1 1 1.487183e-01 7.136195e-01 5.231523e-01 -4.415219e-01
183 2 3 -1.293221e+01 4.884589e+00 -1.978538e+01 0 -1 1 2.817532e-01 2.473422e-01 -7.001733e-01 -6.076136e-01
184 2 4 -1.355665e+01 4.586140e+00 -1.999312e+01 0 -1 1 -6.827732e-01 6.350432e-02 -2.376862e-01 6.879631e-01
185 2 3 -1.323472e+01 4.064628e+00 1.962210e+01 0 -1 0 9.359395e-01 2.443329e-02 2.769409e-01 2.161574e-01
186 2 1 -1.283492e+01 3.860272e+00 1.972356e+01 0 -1 0 7.188186e-01 2.050443e-01 1.059888e-01 6.557614e-01
187 2 1 -1.247929e+01 3.992176e+00 -1.974288e+01 0 -1 1 3.588482e-01 -2.768991e-01 -4.284600e-01 7.816501e-01
188 2 2 -1.259960e+01 3.991445e+00 -1.928857e+01 0 -1 1 7.265667e-02 3.271978e-01 2.689698e-01 -9.029495e-01
189 2 4 -1.300701e+01 3.858717e+00 -1.894406e+01 0 -1 1 -5.240866e-01 -4.723581e-01 -1.374507e-01 6.952110e-01
190 2 4 -1.345858e+01 3.578508e+00 -1.886212e+01 0 -1 1 7.541887e-01 5.564411e-01 1.613164e-03 -3.486689e-01
191 2 1 -1.456723e+01 4.583558e+00 -1.869255e+01 0 -1 1 1.019627e-01 5.713218e-01 6.818531e-01 -4.452767e-01
192 2 4 -1.467085e+01 4.624384e+00 -1.773026e+01 0 -1 1 1.314010e-01 1.348744e-01 -2.220729e-01 9.566746e-01
193 2 4 -1.521661e+01 4.765388e+00 -1.768310e+01 0 -1 1 -4.147098e-01 -5.545397e-01 -5.125618e-01 5.077224e-01
194 2 1 -1.535726e+01 4.355747e+00 -1.804609e+01 0 -1 1 3.582853e-01 7.801486e-01 3.452070e-01 -3.792517e-01
195 2 3 -1.565066e+01 5.074230e+00 -1.798345e+01 0 -1 1 -3.966856e-01 -7.513565e-01 -5.186130e-01 -9.562650e-02
196 2 4 -1.563239e+01 5.200631e+00 -1.710523e+01 0 -1 1 -7.589392e-01 6.304020e-01 -1.429104e-02 -1.624818e-01
197 2 2 -1.651496e+01 5.136621e+00 -1.746623e+01 0 -1 1 -2.535491e-01 8.608356e-01 1.286149e-01 4.220582e-01
198 2 4 -1.657722e+01 5.105413e+00 -1.774309e+01 0 -1 1 -8.671980e-01 4.258289e-02 -4.226749e-01 -2.598083e-01
199 2 3 -1.732481e+01 5.452105e+00 -1.791866e+01 0 -1 1 8.548446e-01 4.280934e-01 2.517574e-01 1.503165e-01
200 2 4 -1.795127e+01 5.346434e+00 -1.733149e+01 0 -1 1 -7.516434e-03 -4.025313e-01 1.159100e-01 9.080071e-01
