ITEM: TIMESTEP
258000000
ITEM: NUMBER OF ATOMS
200
ITEM: BOX BOUNDS pp pp pp
-2.0000000000000000e+01 2.0000000000000000e+01
-2.0000000000000000e+01 2.0000000000000000e+01
-2.0000000000000000e+01 2.0000000000000000e+01
ITEM: ATOMS id mol type x y z ix iy iz c_quat[1] c_quat[2] c_quat[3] c_quat[4]
1 1 1 -1.278154e+01 1.551561e+01 2.956554e+00 0 -1 0 -6.283033e-01 6.908780e-01 -2.816383e-01 2.204595e-01
2 1 2 -1.311705e+01 1.566271e+01 1.584554e+00 0 -1 0 -8.602969e-01 -1.566025e-01 -4.116087e-01 -2.567940e-01
3 1 1 -1.436870e+01 1.603424e+01 1.767982e+00 0 -1 0 4.401778e-01 5.171885e-01 6.732100e-01 2.924857e-01
4 1 3 -1.357975e+01 1.505123e+01 1.328955e+00 0 -1 0 3.289358e-01 7.316136e-01 -5.722731e-01 -1.704294e-01
5 1 1 -1.423526e+01 1.535900e+01 1.052636e+00 0 -1 0 2.082965e-02 -8.708274e-01 -4.588958e-01 -1.750440e-01
6 1 2 -1.420456e+01 1.393870e+01 1.188142e+00 0 -1 0 -7.654804e-01 5.817387e-02 6.186255e-01 -1.672065e-01
7 1 4 -1.413903e+01 1.461435e+01 2.279692e-01 0 -1 0 -2.571205e-02 -2.301271e-01 -2.071714e-01 9.505053e-01
8 1 1 -1.287733e+01 1.413535e+01 -2.042352e-01 0 -1 0 8.097137e-01 3.780867e-01 -4.283751e-02 4.467428e-01
9 1 1 -1.244916e+01 1.402800e+01 7.230970e-02 0 -1 0 4.124282e-01 2.708934e-01 -3.666586e-01 7.887212e-01
10 1 4 -1.216270e+01 1.382935e+01 5.124047e-01 0 -1 0 -7.780518e-02 -7.733874e-02 4.973481e-01 -8.605869e-01
11 1 1 -1.224450e+01 1.352692e+01 9.851815e-01 0 -1 0 2.612496e-01 1.584183e-01 4.652109e-01 -8.308015e-01
12 1 1 -1.132255e+01 1.255770e+01 1.209968e+00 0 -1 0 8.278560e-01 -1.174905e-01 2.263731e-01 -4.996055e-01
13 1 3 -1.177800e+01 1.224702e+01 1.088334e+00 0 -1 0 4.383217e-01 4.858702e-01 5.178389e-01 -5.510418e-01
14 1 4 -1.190403e+01 1.164460e+01 1.087711e+00 0 -1 0 -5.070845e-01 -6.762519e-01 -4.057152e-01 3.477697e-01
15 1 4 -1.215478e+01 1.122538e+01 9.190942e-01 0 -1 0 5.529018e-01 8.172318e-01 1.362382e-01 -8.871815e-02
16 1 2 -1.337927e+01 1.093300e+01 1.614762e+00 0 -1 0 -7.076399e-01 3.405614e-01 1.876520e-01 5.899580e-01
17 1 1 -1.324448e+01 1.151602e+01 1.258818e+00 0 -1 0 -9.009181e-01 -5.062580e-02 -3.910830e-01 1.812116e-01
18 1 2 -1.400845e+01 1.220807e+01 2.160555e+00 0 -1 0 1.656753e-01 3.403473e-01 4.659786e-01 -7.997370e-01
19 1 3 -1.430929e+01 1.209905e+01 2.284582e+00 0 -1 0 -6.870264e-01 -3.892681e-01 -1.978684e-01 5.807866e-01
20 1 1 -1.462818e+01 1.168803e+01 2.306991e+00 0 -1 0 -8.976740e-01 -4.014365e-01 1.042497e-01 1.488693e-01
21 1 4 -1.460016e+01 1.112921e+01 2.662643e+00 0 -1 0 -8.638249e-01 -4.310327e-01 -1.029778e-01 2.396100e-01
22 1 1 -1.460616e+01 1.063489e+01 2.677737e+00 0 -1 0 -8.624976e-01 -4.841815e-01 3.598295e-02 -1.427283e-01
23 1 4 -1.435605e+01 1.014637e+01 2.666580e+00 0 -1 0 -6.924013e-01 -5.040985e-01 2.278615e-01 -4.631893e-01
24 1 3 -1.389348e+01 9.633831e+00 2.332326e+00 0 -1 0 7.168690e-01 5.870174e-01 -2.014306e-01 3.177028e-01
25 1 3 -1.443138e+01 8.420788e+00 2.624655e+00 0 -1 0 -7.444785e-01 4.164601e-01 -2.896430e-01 4.340733e-01
26 1 4 -1.414380e+01 7.991241e+00 2.919285e+00 0 -1 0 -2.844042e-01 7.689138e-01 -5.567613e-01 1.338011e-01
27 1 4 -1.567211e+01 8.235179e+00 2.039559e+00 0 -1 0 -3.312797e-01 -3.739626e-01 -8.643650e-01 5.726221e-02
28 1 1 -1.540068e+01 7.728712e+00 1.844895e+00 0 -1 0 -5.718514e-02 8.257312e-01 -3.852859e-01 -4.079861e-01
29 1 1 -1.590597e+01 7.441084e+00 1.930763e+00 0 -1 0 -1.481020e-01 7.583888e-01 -3.358494e-01 5.386255e-01
30 1 4 -1.579204e+01 7.126653e+00 5.694263e-01 0 -1 0 4.996705e-01 4.368067e-01 -3.302910e-01 -6.711461e-01
31 1 4 -1.562328e+01 6.572330e+00 1.001495e+00 0 -1 0 9.519202e-01 2.433016e-01 -8.415289e-02 1.660440e-01
32 1 3 -1.549618e+01 6.191965e+00 1.405061e+00 0 -1 0 8.569768e-01 1.708005e-01 -2.723689e-02 4.854648e-01
33 1 3 -1.648087e+01 5.650312e+00 1.124067e+00 0 -1 0 6.519736e-01 7.109731e-01 2.251876e-01 -1.368878e-01
34 1 1 -1.677716e+01 5.322039e+00 2.136118e+00 0 -1 0 -3.815829e-01 8.717759e-01 -3.071102e-01 9.194334e-03
35 1 2 -1.801828e+01 5.614708e+00 2.757969e+00 0 -1 0 4.528386e-02 2.541388e-01 6.685028e-01 -6.974718e-01
36 1 2 -1.786546e+01 5.687710e+00 2.440696e+00 0 -1 0 3.815545e-01 -5.268954e-01 7.298352e-01 2.100902e-01
37 1 1 -1.765382e+01 6.554212e+00 2.707897e+00 0 -1 0 -6.261347e-01 -5.436134e-01 -4.996532e-01 -2.505722e-01
38 1 1 -1.708187e+01 6.981021e+00 3.742059e+00 0 -1 0 8.304430e-01 -2.998314e-01 -1.109603e-01 4.562382e-01
39 1 4 -1.691280e+01 7.053424e+00 4.164102e+00 0 -1 0 5.304519e-01 -2.021123e-01 -1.112960e-01 8.157111e-01
40 1 4 -1.692238e+01 7.214534e+00 4.635002e+00 0 -1 0 2.349990e-01 -2.814425e-01 -7.610603e-02 9.272397e-01
41 1 2 -1.711554e+01 7.363154e+00 5.063982e+00 0 -1 0 -1.752889e-01 -3.570223e-01 2.519659e-03 9.174980e-01
42 1 4 -1.757767e+01 7.506026e+00 5.388185e+00 0 -1 0 4.552774e-01 4.542827e-01 -5.562366e-02 -7.637118e-01
43 1 3 -1.756334e+01 7.398582e+00 6.868247e+00 0 -1 0 6.091436e-01 -7.109029e-01 6.268534e-02 -3.458781e-01
44 1 2 -1.656766e+01 7.571166e+00 6.596458e+00 0 -1 0 9.538318e-01 -8.043324e-02 8.907146e-02 2.753211e-01
45 1 1 -1.602822e+01 7.693533e+00 6.884350e+00 0 -1 0 7.282698e-01 2.256093e-01 1.036693e-01 6.387302e-01
46 1 3 -1.568152e+01 7.750288e+00 7.244664e+00 0 -1 0 4.827271e-01 1.516767e-01 1.302339e-01 8.526475e-01
47 1 4 -1.556515e+01 7.573034e+00 8.172988e+00 0 -1 0 6.124773e-01 -6.543623e-01 2.472210e-01 -3.681892e-01
48 1 1 -1.522529e+01 7.944106e+00 8.381307e+00 0 -1 0 -6.040594e-01 6.029343e-01 -5.210494e-01 -9.483660e-03
49 1 4 -1.481409e+01 8.123740e+00 8.515673e+00 0 -1 0 6.421976e-01 -2.672952e-01 6.929541e-01 1.896052e-01
50 1 4 -1.437965e+01 8.446204e+00 8.338708e+00 0 -1 0 -7.817420e-03 -9.746685e-01 -1.941428e-01 -1.107646e-01
51 1 4 -1.468310e+01 7.776225e+00 9.407014e+00 0 -1 0 -2.930280e-01 7.127604e-03 9.077879e-01 -3.000081e-01
52 1 1 -1.516005e+01 7.496700e+00 9.742146e+00 0 -1 0 -4.903637e-01 2.532040e-02 -6.245701e-01 6.073010e-01
53 1 3 -1.566383e+01 8.449577e+00 1.017978e+01 0 -1 0 2.104908e-01 -5.674264e-01 -6.157665e-01 5.045320e-01
54 1 4 -1.615459e+01 7.676125e+00 9.852147e+00 0 -1 0 -9.181640e-01 -1.173864e-02 -1.301011e-01 3.740464e-01
55 1 4 -1.674620e+01 8.252545e+00 9.598357e+00 0 -1 0 -4.692737e-02 6.703719e-01 -3.750087e-01 -6.385671e-01
56 1 4 -1.752101e+01 8.470238e+00 9.480777e+00 0 -1 0 7.080780e-01 6.710001e-01 1.950404e-01 -1.017037e-01
57 1 1 -1.815874e+01 8.317901e+00 1.103233e+01 0 -1 0 -3.511782e-01 2.975920e-01 8.536182e-01 -2.438212e-01
58 1 1 -1.799344e+01 7.512930e+00 1.152369e+01 0 -1 0 1.913547e-01 1.786680e-01 -9.279119e-01 2.654065e-01
59 1 3 -1.803474e+01 6.964133e+00 1.191123e+01 0 -1 0 7.691288e-01 -1.449650e-01 8.557378e-02 -6.165250e-01
60 1 4 -1.817321e+01 6.932882e+00 1.244661e+01 0 -1 0 9.302339e-01 -1.882674e-01 1.385019e-01 -2.829092e-01
61 1 2 -1.748400e+01 7.777401e+00 1.307655e+01 0 -1 0 6.746983e-01 -2.320254e-01 -3.329376e-01 6.165216e-01
62 1 3 -1.781464e+01 7.812211e+00 1.348585e+01 0 -1 0 5.341097e-01 -4.755365e-01 -1.361119e-01 6.856131e-01
63 1 2 -1.878557e+01 7.875285e+00 1.300005e+01 0 -1 0 3.467498e-01 3.171840e-01 8.664613e-01 -1.685343e-01
64 1 4 -1.842368e+01 8.179870e+00 1.426003e+01 0 -1 0 2.808764e-01 -8.525423e-01 -3.859162e-01 -2.129525e-01
65 1 2 -1.762093e+01 7.720175e+00 1.415073e+01 0 -1 0 5.069114e-01 -2.442476e-01 4.090173e-01 7.183932e-01
66 1 1 -1.779601e+01 7.349757e+00 1.482293e+01 0 -1 0 6.299247e-01 6.608969e-01 1.552694e-01 3.772288e-01
67 1 2 -1.860911e+01 6.965764e+00 1.590934e+01 0 -1 0 -9.358145e-02 3.091012e-01 7.364178e-01 -5.944643e-01
68 1 1 -1.891669e+01 6.650553e+00 1.598661e+01 0 -1 0 2.313760e-02 -4.949866e-01 -5.377288e-01 6.821296e-01
69 1 1 -1.777636e+01 6.078088e+00 1.664021e+01 0 -1 0 -4.096871e-01 6.038176e-01 -5.681980e-01 3.804100e-01
70 1 2 -1.735542e+01 5.922149e+00 1.663969e+01 0 -1 0 5.103425e-01 -3.098123e-01 7.995630e-01 -6.531348e-02
71 1 3 -1.692004e+01 5.692609e+00 1.650496e+01 0 -1 0 -5.422153e-01 -1.051609e-01 -8.116662e-01 -1.901097e-01
72 1 4 -1.652244e+01 5.632801e+00 1.615211e+01 0 -1 0 3.740964e-01 4.532420e-01 7.651132e-01 2.631073e-01
73 1 1 -1.558987e+01 5.408084e+00 1.643244e+01 0 -1 0 6.856713e-01 2.420181e-01 6.668552e-01 -1.630531e-01
74 1 1 -1.531001e+01 4.932940e+00 1.618383e+01 0 -1 0 -6.557403e-01 -4.551807e-01 -5.323019e-01 -2.819040e-01
75 1 3 -1.497654e+01 4.705995e+00 1.594602e+01 0 -1 0 -5.158267e-01 -6.257612e-01 -3.549190e-01 -4.651648e-01
76 1 1 -1.447379e+01 4.657434e+00 1.576660e+01 0 -1 0 -2.712171e-01 -6.997311e-01 -2.090246e-01 -6.269979e-01
77 1 4 -1.348968e+01 4.210707e+00 1.557026e+01 0 -1 0 6.187867e-01 -2.768413e-01 5.941117e-01 4.330048e-01
78 1 1 -1.313790e+01 4.536883e+00 1.547415e+01 0 -1 0 -3.237671e-01 1.372577e-02 -6.188039e-01 -7.155894e-01
79 1 4 -1.275200e+01 5.017212e+00 1.542037e+01 0 -1 0 -1.265933e-01 -1.150109e-01 -5.111842e-01 -8.422810e-01
80 1 2 -1.264082e+01 5.462900e+00 1.537935e+01 0 -1 0 2.071316e-01 -3.371612e-01 -4.357590e-01 -8.084138e-01
81 1 4 -1.179010e+01 5.646399e+00 1.496325e+01 0 -1 0 8.869302e-01 -4.595011e-01 2.217284e-02 4.149494e-02
82 1 4 -1.176301e+01 5.947355e+00 1.358393e+01 0 -1 0 4.226590e-01 -4.883241e-01 5.809292e-01 4.953991e-01
83 1 4 -1.166687e+01 6.413401e+00 1.337289e+01 0 -1 0 -7.927028e-03 -3.292653e-01 6.963830e-01 6.376302e-01
84 1 4 -1.138600e+01 6.819459e+00 1.351917e+01 0 -1 0 2.274518e-01 -4.288672e-01 -3.330974e-01 -8.083221e-01
85 1 1 -1.128067e+01 7.498460e+00 1.289684e+01 0 -1 0 -1.481414e-03 6.260365e-01 7.777848e-01 5.591838e-02
86 1 1 -1.144773e+01 7.144115e+00 1.193764e+01 0 -1 0 3.648797e-01 2.983883e-01 7.051901e-02 -8.791213e-01
87 1 3 -1.113659e+01 7.512131e+00 1.206777e+01 0 -1 0 7.049789e-01 4.879667e-02 -6.988099e-01 1.108529e-01
88 1 2 -1.030758e+01 8.368097e+00 1.183259e+01 0 -1 0 -6.341250e-01 4.851099e-01 3.623587e-01 -4.808846e-01
89 1 2 -1.061582e+01 8.959322e+00 1.093141e+01 0 -1 0 7.245899e-02 2.948467e-01 2.623588e-01 -9.159601e-01
90 1 3 -9.980612e+00 8.292012e+00 1.048780e+01 0 -1 0 2.992093e-02 8.291500e-01 -5.232268e-01 1.945475e-01
91 1 3 -9.589829e+00 8.187408e+00 1.013283e+01 0 -1 0 -7.812332e-02 5.303966e-01 -8.027929e-01 2.609593e-01
92 1 2 -9.254131e+00 7.929920e+00 9.897566e+00 0 -1 0 -1.724165e-01 2.020504e-01 -9.013798e-01 3.419979e-01
93 1 1 -8.380731e+00 8.797527e+00 9.905054e+00 0 -1 0 -2.433421e-01 -8.028667e-01 -5.154743e-01 -1.745733e-01
94 1 2 -8.475706e+00 7.458313e+00 9.396126e+00 0 -1 0 3.694322e-01 -1.054319e-01 9.207024e-01 -6.863686e-02
95 1 3 -8.174610e+00 7.394704e+00 8.914055e+00 0 -1 0 -1.389757e-01 -2.913105e-01 -9.035163e-01 -2.819261e-01
96 1 2 -8.142956e+00 7.500775e+00 8.458217e+00 0 -1 0 -6.445638e-02 5.959114e-01 7.593499e-01 2.532246e-01
97 1 2 -7.880878e+00 6.216076e+00 8.123814e+00 0 -1 0 6.511231e-01 1.767756e-01 2.872691e-01 -6.799012e-01
98 1 4 -8.038264e+00 5.754691e+00 8.313253e+00 0 -1 0 9.214794e-01 2.758282e-01 1.699935e-01 -2.142351e-01
99 1 2 -7.997027e+00 5.286676e+00 8.494403e+00 0 -1 0 9.239992e-01 3.120211e-01 -2.106839e-02 2.200554e-01
100 1 1 -7.747213e+00 4.879845e+00 8.746912e+00 0 -1 0 7.849034e-01 2.330049e-01 -1.251947e-01 5.603228e-01
101 2 4 -1.703177e+01 1.358560e+01 1.400791e+01 0 -1 0 5.562086e-01 -4.918432e-01 4.177602e-01 -5.236397e-01
102 2 3 -1.674118e+01 1.362607e+01 1.440301e+01 0 -1 0 -8.239697e-01 2.891709e-01 -4.505865e-01 1.855423e-01
103 2 1 -1.638707e+01 1.405871e+01 1.406103e+01 0 -1 0 3.620604e-01 5.138117e-01 6.639978e-01 4.049897e-01
104 2 3 -1.589094e+01 1.361697e+01 1.407302e+01 0 -1 0 -4.440026e-01 6.042680e-01 -3.545567e-01 5.585799e-01
105 2 3 -1.573804e+01 1.486641e+01 1.375763e+01 0 -1 0 7.190772e-01 -4.716058e-01 -2.669721e-01 4.350194e-01
106 2 2 -1.569855e+01 1.385367e+01 1.282347e+01 0 -1 0 8.819221e-01 -3.339712e-01 3.288887e-01 5.008782e-02
107 2 3 -1.576402e+01 1.414353e+01 1.280109e+01 0 -1 0 -2.626011e-01 3.904871e-01 -2.982507e-01 8.304258e-01
108 2 4 -1.546037e+01 1.360924e+01 1.167485e+01 0 -1 0 4.610240e-01 3.507388e-01 -3.557921e-02 -8.143545e-01
109 2 3 -1.493633e+01 1.370380e+01 1.142793e+01 0 -1 0 4.821484e-01 -2.564933e-01 -3.483831e-01 7.618224e-01
110 2 2 -1.532827e+01 1.266882e+01 1.068325e+01 0 -1 0 9.610948e-01 -1.545031e-01 1.428793e-01 -1.789167e-01
111 2 2 -1.587288e+01 1.335165e+01 1.001037e+01 0 -1 0 2.338430e-01 8.394693e-01 2.428107e-01 4.262063e-01
112 2 3 -1.612418e+01 1.208412e+01 9.326714e+00 0 -1 0 1.746025e-01 1.104393e-01 9.488115e-01 2.389014e-01
113 2 3 -1.612602e+01 1.200037e+01 8.861180e+00 0 -1 0 1.788538e-01 4.556900e-01 8.142271e-01 3.120772e-01
114 2 2 -1.562009e+01 1.177114e+01 8.217209e+00 0 -1 0 3.392691e-01 5.224890e-01 -7.261686e-01 -2.908279e-01
115 2 4 -1.567932e+01 1.321470e+01 7.968281e+00 0 -1 0 1.864640e-01 4.774204e-01 2.963987e-02 8.581506e-01
116 2 4 -1.524546e+01 1.377767e+01 8.187019e+00 0 -1 0 -4.084614e-01 -7.727105e-01 -1.691316e-01 -4.554912e-01
117 2 1 -1.445707e+01 1.268577e+01 8.138685e+00 0 -1 0 9.477990e-01 1.501015e-01 2.765733e-01 5.151530e-02
118 2 1 -1.419571e+01 1.325028e+01 8.715227e+00 0 -1 0 -8.683246e-02 -1.788827e-01 8.750083e-02 -9.761172e-01
119 2 1 -1.419308e+01 1.329494e+01 9.271160e+00 0 -1 0 -3.315261e-01 -7.069087e-02 -1.960491e-01 9.201402e-01
120 2 1 -1.296962e+01 1.317622e+01 9.967718e+00 0 -1 0 2.137713e-01 4.560104e-01 -7.077194e-01 4.954690e-01
121 2 3 -1.270557e+01 1.317744e+01 9.988052e+00 0 -1 0 6.852493e-01 -2.694287e-01 4.177314e-02 6.753493e-01
122 2 1 -1.259781e+01 1.227270e+01 1.103931e+01 0 -1 0 -6.878172e-01 -3.349753e-01 5.581858e-01 -3.211349e-01
123 2 4 -1.265157e+01 1.174991e+01 1.130478e+01 0 -1 0 5.787103e-01 4.411884e-02 -5.773964e-01 5.742485e-01
124 2 1 -1.265752e+01 1.148224e+01 1.161380e+01 0 -1 0 2.478049e-01 -5.083490e-02 -5.780038e-01 7.758351e-01
125 2 4 -1.281162e+01 1.065339e+01 1.215355e+01 0 -1 0 1.641447e-01 -2.219841e-03 -7.595645e-01 6.293753e-01
126 2 2 -1.316659e+01 1.032440e+01 1.234720e+01 0 -1 0 2.056172e-01 4.077313e-01 5.625597e-01 -6.892049e-01
127 2 4 -1.351737e+01 9.872481e+00 1.242506e+01 0 -1 0 -3.933673e-01 -7.049844e-01 -3.779571e-01 4.532192e-01
128 2 4 -1.382588e+01 9.594102e+00 1.219581e+01 0 -1 0 4.667342e-01 8.216426e-01 1.684697e-01 -2.805006e-01
129 2 1 -1.435313e+01 9.568256e+00 1.241919e+01 0 -1 0 -6.567874e-02 4.591228e-01 -7.344223e-01 -4.954962e-01
130 2 2 -1.499134e+01 9.090512e+00 1.205942e+01 0 -1 0 5.912629e-01 4.915154e-03 -4.253110e-01 -6.851967e-01
131 2 3 -1.520963e+01 8.444354e+00 1.195692e+01 0 -1 0 -5.800689e-01 -7.453126e-02 -8.550978e-02 8.066308e-01
132 2 4 -1.421029e+01 7.917119e+00 1.249300e+01 0 -1 0 -6.104555e-01 7.761368e-01 -6.931778e-02 1.419534e-01
133 2 4 -1.403703e+01 8.011820e+00 1.285792e+01 0 -1 0 3.912590e-01 5.661611e-02 -3.676894e-01 8.417336e-01
134 2 3 -1.424036e+01 6.845607e+00 1.182319e+01 0 -1 0 -6.195904e-01 -2.177762e-01 -8.102692e-03 7.540661e-01
135 2 4 -1.361719e+01 7.364041e+00 1.164376e+01 0 -1 0 6.895586e-01 2.945629e-01 -3.259335e-01 5.757682e-01
136 2 3 -1.309170e+01 6.722114e+00 1.069536e+01 0 -1 0 -8.849116e-01 -5.215387e-02 -4.219048e-01 -1.902836e-01
137 2 1 -1.342265e+01 6.303842e+00 1.117166e+01 0 -1 0 1.673699e-01 6.982756e-01 -4.970640e-01 4.871611e-01
138 2 3 -1.327394e+01 5.424243e+00 1.085484e+01 0 -1 0 3.762956e-01 1.762904e-01 -8.698191e-01 -2.659663e-01
139 2 2 -1.365512e+01 5.269648e+00 1.058694e+01 0 -1 0 -4.529990e-01 1.547995e-01 8.752247e-01 6.936028e-02
140 2 3 -1.411290e+01 5.194837e+00 1.043780e+01 0 -1 0 -5.293440e-01 4.327002e-01 7.115580e-01 -1.620207e-01
141 2 1 -1.454751e+01 5.222570e+00 1.056250e+01 0 -1 0 -3.081333e-01 7.129829e-01 4.944309e-01 -3.901889e-01
142 2 2 -1.403680e+01 3.674007e+00 1.035698e+01 0 -1 0 -4.080469e-01 3.659395e-01 -8.108120e-01 2.053534e-01
143 2 4 -1.431460e+01 4.175970e+00 1.039858e+01 0 -1 0 2.908277e-01 -9.100340e-01 2.490578e-01 1.588320e-01
144 2 4 -1.517446e+01 4.458109e+00 9.828252e+00 0 -1 0 -3.038909e-01 4.919075e-01 3.648968e-01 -7.297449e-01
145 2 1 -1.624222e+01 4.263101e+00 9.961943e+00 0 -1 0 2.326274e-02 -4.632767e-01 -5.307327e-01 -7.093352e-01
146 2 1 -1.582381e+01 3.472595e+00 1.033125e+01 0 -1 0 1.401826e-01 -3.199316e-01 8.314331e-02 -9.333166e-01
147 2 1 -1.510285e+01 2.496926e+00 9.492384e+00 0 -1 0 4.624356e-02 3.287923e-01 -9.418739e-01 -5.129042e-02
148 2 2 -1.512050e+01 2.227481e+00 9.012833e+00 0 -1 0 -9.204987e-02 5.917550e-02 9.934194e-01 -3.380728e-02
149 2 4 -1.530847e+01 1.924993e+00 8.759574e+00 0 -1 0 8.473451e-03 4.135943e-01 9.006030e-01 -1.333500e-01
150 2 1 -1.453653e+01 1.898817e+00 9.697044e+00 0 -1 0 -7.903983e-01 3.196035e-01 1.459227e-01 -5.018274e-01
151 2 1 -1.466537e+01 1.946642e+00 1.027231e+01 0 -1 0 -5.947154e-01 3.994628e-01 5.329014e-02 -6.956315e-01
152 2 1 -1.466287e+01 6.114730e-01 9.677990e+00 0 -1 0 1.199542e-02 -4.816431e-01 7.233238e-01 4.946502e-01
153 2 4 -1.463185e+01 1.700368e-01 1.071802e+01 0 -1 0 6.199923e-01 -1.606195e-01 5.035473e-01 -5.798716e-01
154 2 1 -1.463360e+01 -2.481158e-01 1.104952e+01 0 -1 0 8.720341e-01 6.323477e-03 3.966489e-01 -2.866813e-01
155 2 2 -1.437968e+01 -6.534646e-01 1.118947e+01 0 -1 0 -9.312271e-01 -1.173067e-01 -2.852601e-01 -1.941181e-01
156 2 4 -1.445120e+01 -8.274377e-01 1.056009e+01 0 -1 0 5.597122e-01 7.827904e-01 2.583705e-01 -8.488936e-02
157 2 3 -1.540649e+01 -4.738734e-01 1.102915e+01 0 -1 0 -1.166020e-01 8.618286e-01 4.919504e-01 4.050086e-02
158 2 2 -1.531538e+01 -6.684541e-01 1.007758e+01 0 -1 0 5.312375e-01 8.120070e-01 -9.627742e-02 2.217251e-01
159 2 1 -1.486599e+01 -1.100267e+00 1.001477e+01 0 -1 0 -5.091968e-01 -4.804777e-01 5.978774e-01 -3.903875e-01
160 2 3 -1.522236e+01 -6.362965e-01 9.374416e+00 0 -1 0 8.038038e-01 3.768069e-01 -2.322923e-01 3.974372e-01
161 2 1 -1.560547e+01 -1.764951e+00 9.409541e+00 0 -1 0 -3.237338e-01 -3.661083e-01 8.505810e-01 -1.940959e-01
162 2 1 -1.573423e+01 -9.824739e-01 7.992718e+00 0 -1 0 7.121203e-01 5.028170e-01 4.865865e-01 5.738670e-02
163 2 4 -1.548277e+01 -1.337859e+00 7.759235e+00 0 -1 0 -6.961924e-01 -5.622394e-01 -2.004945e-01 -3.987543e-01
164 2 4 -1.494713e+01 -1.058221e+00 7.170821e+00 0 -1 0 -1.377317e-01 -9.683071e-01 6.601547e-02 1.976191e-01
165 2 3 -1.430730e+01 -1.814841e+00 7.363008e+00 0 -1 0 9.443618e-01 -1.797287e-01 -2.347563e-01 1.441104e-01
166 2 3 -1.389033e+01 -1.892014e+00 6.901928e+00 0 -1 0 1.695729e-01 6.480764e-01 -6.760647e-01 3.068853e-01
167 2 4 -1.388205e+01 -1.561434e+00 7.115499e+00 0 -1 0 -3.494757e-01 -5.496141e-01 -2.345234e-01 -7.216577e-01
168 2 2 -1.340610e+01 -1.775208e+00 7.571503e+00 0 -1 0 5.373011e-01 5.425918e-01 3.633256e-01 5.337567e-01
169 2 2 -1.257863e+01 -2.792593e+00 7.619521e+00 0 -1 0 9.503408e-01 6.200769e-02 3.018837e-01 4.328641e-02
170 2 1 -1.222863e+01 -3.072768e+00 7.756288e+00 0 -1 0 8.368444e-01 2.798594e-01 2.299624e-01 4.104722e-01
171 2 1 -1.179957e+01 -3.253083e+00 7.768770e+00 0 -1 0 -6.105885e-01 -4.250206e-01 -1.072750e-01 -6.595690e-01
172 2 4 -1.205309e+01 -3.424294e+00 7.202835e+00 0 -1 0 -6.070208e-01 -1.552815e-01 -5.273594e-01 5.738514e-01
173 2 4 -1.147101e+01 -3.229312e+00 7.251064e+00 0 -1 0 -1.487955e-01 6.806061e-01 6.869902e-01 -2.065906e-01
174 2 1 -1.122846e+01 -3.343530e+00 8.258056e+00 0 -1 0 5.417085e-01 -4.946057e-01 -1.525445e-01 -6.623045e-01
175 2 1 -1.115106e+01 -2.947945e+00 8.560475e+00 0 -1 0 -7.572215e-01 3.917366e-01 -6.684873e-02 5.183524e-01
176 2 2 -1.116356e+01 -2.931296e+00 8.982874e+00 0 -1 0 -9.129645e-01 3.588878e-01 -1.721976e-01 8.968501e-02
177 2 2 -1.098610e+01 -2.933526e+00 9.426461e+00 0 -1 0 -8.528146e-01 2.954014e-01 -2.290162e-01 -3.646873e-01
178 2 1 -1.192515e+01 -3.358136e+00 9.803334e+00 0 -1 0 2.284928e-01 4.654192e-01 -7.289928e-01 -4.469290e-01
179 2 4 -1.143377e+01 -3.359603e+00 1.084968e+01 0 -1 0 5.919968e-01 -3.269046e-01 6.354168e-01 -3.727178e-01
180 2 1 -1.095379e+01 -2.565365e+00 1.008531e+01 0 -1 0 -1.172889e-01 7.976198e-01 -5.833290e-01 -9.885976e-02
181 2 4 -1.071288e+01 -2.501952e+00 9.728719e+00 0 -1 0 -5.388041e-02 4.242586e-01 -8.901805e-01 -1.570992e-01
182 2 2 -1.095068e+01 -1.079721e+00 1.059553e+01 0 -1 0 -1.059418e-01 -6.416077e-01 1.881914e-01 -7.360026e-01
183 2 3 -9.963040e+00 -1.884912e+00 1.055961e+01 0 -1 0 -8.080453e-01 4.953699e-01 -3.150133e-01 4.937654e-02
184 2 4 -9.572371e+00 -1.869047e+00 1.082606e+01 0 -1 0 -8.048735e-01 2.060889e-01 -4.268243e-01 -3.571092e-01
185 2 3 -9.097019e+00 -1.772336e+00 1.094296e+01 0 -1 0 6.161931e-01 4.493166e-02 5.024946e-01 6.048027e-01
186 2 1 -8.672737e+00 -1.443099e+00 1.096274e+01 0 -1 0 2.969793e-01 1.990963e-01 3.904300e-01 8.483680e-01
187 2 1 -7.899010e+00 -1.499148e+00 1.139505e+01 0 -1 0 -3.491339e-01 6.414468e-01 -4.121819e-01 5.447546e-01
188 2 2 -7.501633e+00 -1.848318e+00 1.181436e+01 0 -1 0 7.051189e-01 -5.430782e-01 4.004421e-01 -2.179897e-01
189 2 4 -6.997464e+00 -1.791866e+00 1.210631e+01 0 -1 0 -7.145386e-01 4.004448e-01 -5.545829e-01 -1.466845e-01
190 2 4 -6.599107e+00 -1.426937e+00 1.216245e+01 0 -1 0 6.210443e-01 -3.466146e-01 6.950402e-01 1.052682e-01
191 2 1 -7.145789e+00 -1.044231e-01 1.292457e+01 0 -1 0 -3.263965e-01 -8.468221e-02 3.077700e-02 -9.409288e-01
192 2 4 -7.800655e+00 -2.410705e-01 1.293995e+01 0 -1 0 -2.436100e-02 -1.060213e-01 -9.386007e-01 -3.274060e-01
193 2 4 -7.598985e+00 -4.587682e-01 1.341560e+01 0 -1 0 6.277027e-01 5.167993e-01 -6.720441e-02 -5.782658e-01
194 2 1 -7.045473e+00 -3.130959e-01 1.458935e+01 0 -1 0 6.982796e-01 -1.487251e-01 -1.573790e-01 6.822891e-01
195 2 3 -6.793266e+00 -1.362299e+00 1.394029e+01 0 -1 0 3.170334e-01 -3.479746e-01 6.674657e-01 5.769689e-01
196 2 4 -6.434189e+00 -1.537142e+00 1.411436e+01 0 -1 0 -5.309503e-01 -5.472803e-01 2.581659e-02 -6.464592e-01
197 2 2 -5.955577e+00 -1.691642e+00 1.409589e+01 0 -1 0 2.266100e-01 5.790665e-01 -1.896838e-01 7.598355e-01
198 2 4 -5.600326e+00 -2.643702e+00 1.295022e+01 0 -1 0 7.885712e-01 3.789256e-01 2.839793e-01 -3.923349e-01
199 2 3 -4.853760e+00 -2.619451e+00 1.407348e+01 0 -1 0 -5.663409e-01 -9.450192e-02 8.138014e-01 -8.974753e-02
200 2 4 -4.283552e+00 -1.350462e+00 1.367965e+01 0 -1 0 2.837205e-02 -8.933005e-01 -1.489918e-01 -4.230966e-01
