ITEM: TIMESTEP
225000000
ITEM: NUMBER OF ATOMS
200
ITEM: BOX BOUNDS pp pp pp
-2.0000000000000000e+01 2.0000000000000000e+01
-2.0000000000000000e+01 2.0000000000000000e+01
-2.0000000000000000e+01 2.0000000000000000e+01
ITEM: ATOMS id mol type x y z ix iy iz c_quat[1] c_quat[2] c_quat[3] c_quat[4]
1 1 1 1.489777e+01 1.077888e+01 2.614474e+00 -1 -1 0 -1.519480e-01 -1.249061e-01 2.446010e-01 9.494634e-01
2 1 2 1.543379e+01 1.165936e+01 2.498122e+00 -1 -1 0 -5.795078e-01 -2.875238e-01 -5.277223e-01 -5.504635e-01
3 1 1 1.600759e+01 1.097494e+01 2.684075e+00 -1 -1 0 -1.823473e-01 8.597158e-01 -3.180676e-01 3.556278e-01
4 1 3 1.651081e+01 1.114936e+01 2.533959e+00 -1 -1 0 2.500380e-01 -6.828953e-01 5.958562e-01 -3.407204e-01
5 1 1 1.698306e+01 1.074186e+01 2.568166e+00 -1 -1 0 -7.441890e-01 3.868510e-01 -4.613190e-01 2.893332e-01
6 1 2 1.731569e+01 1.036742e+01 2.090805e+00 -1 -1 0 -2.160864e-01 1.597435e-01 -9.569586e-01 -1.096308e-01
7 1 4 1.739311e+01 1.012546e+01 1.675672e+00 -1 -1 0 -2.106289e-01 -3.393673e-01 -8.773709e-01 -2.658677e-01
8 1 1 1.868248e+01 9.628219e+00 1.890846e+00 -1 -1 0 -6.824130e-01 2.205676e-01 -6.506280e-01 -2.496910e-01
9 1 1 1.862819e+01 9.307011e+00 1.310500e+00 -1 -1 0 -1.970243e-01 2.757043e-01 -6.915781e-01 -6.378780e-01
10 1 4 1.879874e+01 9.631170e+00 1.090255e+00 -1 -1 0 -6.396348e-02 8.460597e-02 7.523589e-01 6.501589e-01
11 1 1 1.893266e+01 9.591443e+00 5.299723e-01 -1 -1 0 2.094216e-01 -9.102730e-02 9.668328e-01 1.144161e-01
12 1 1 1.915711e+01 9.447689e+00 1.765060e-01 -1 -1 0 -1.331130e-01 -2.864588e-01 -9.299544e-01 -1.881681e-01
13 1 3 1.910256e+01 9.471398e+00 -3.472297e-01 -1 -1 0 -3.355946e-02 -7.079217e-01 -6.411871e-01 -2.942784e-01
14 1 4 2.010432e+01 9.332431e+00 -7.701759e-01 -1 -1 0 4.424610e-01 6.069477e-01 -4.583692e-01 4.751215e-01
15 1 4 -1.958975e+01 8.960010e+00 -7.381756e-01 0 -1 0 -2.317746e-01 -3.327880e-01 6.929416e-01 -5.961246e-01
16 1 2 -1.950269e+01 8.509864e+00 -5.799811e-01 0 -1 0 -1.211166e-01 -1.467862e-01 -7.700656e-01 6.089200e-01
17 1 1 -1.956668e+01 8.086292e+00 -4.446872e-01 0 -1 0 3.961752e-01 3.907841e-01 7.035260e-01 -4.420228e-01
18 1 2 -1.904185e+01 6.921288e+00 -2.446356e-02 0 -1 0 -7.728273e-01 1.614344e-01 -1.433978e-01 5.967529e-01
19 1 3 -1.906725e+01 6.740965e+00 3.471637e-01 0 -1 0 -9.726897e-01 -3.749786e-02 -1.222984e-01 1.936795e-01
20 1 1 -1.990598e+01 6.727637e+00 1.288622e+00 0 -1 0 -3.077864e-03 -3.975076e-01 8.113732e-01 -4.285461e-01
21 1 4 -1.958810e+01 6.386774e+00 1.232484e+00 0 -1 0 1.792030e-01 -4.952016e-02 8.848885e-01 -4.270906e-01
22 1 1 -1.945345e+01 5.909914e+00 1.183627e+00 0 -1 0 -3.752974e-01 -3.618524e-01 -7.307423e-01 4.407157e-01
23 1 4 -1.995322e+01 5.602381e+00 8.092934e-01 0 -1 0 -2.056397e-02 3.439510e-01 8.481236e-01 4.024441e-01
24 1 3 1.961540e+01 4.846050e+00 1.074820e+00 -1 -1 0 -7.002892e-01 5.476159e-03 6.565496e-01 2.801923e-01
25 1 3 1.917900e+01 4.970625e+00 1.369962e+00 -1 -1 0 8.791545e-01 -2.966192e-01 -3.698126e-01 -4.840566e-02
26 1 4 1.876143e+01 4.941762e+00 1.822539e+00 -1 -1 0 8.826739e-01 -3.434263e-01 -2.795708e-01 1.574337e-01
27 1 4 1.863708e+01 4.958417e+00 2.316043e+00 -1 -1 0 6.554164e-01 -4.982699e-01 -9.530342e-02 5.595299e-01
28 1 1 1.836351e+01 3.611902e+00 2.919221e+00 -1 -1 0 8.432017e-01 -3.680958e-01 -2.028722e-02 -3.912860e-01
29 1 1 1.837626e+01 3.560991e+00 3.391249e+00 -1 -1 0 -9.513080e-01 2.829637e-01 -4.835145e-02 -1.122801e-01
30 1 4 1.864406e+01 3.569017e+00 3.843557e+00 -1 -1 0 -8.034093e-01 7.781321e-02 -2.057824e-01 -5.532921e-01
31 1 4 1.900080e+01 3.639851e+00 4.163107e+00 -1 -1 0 -5.972422e-01 -4.365550e-03 -3.303061e-01 -7.308766e-01
32 1 3 1.936734e+01 3.410734e+00 4.109322e+00 -1 -1 0 -4.527340e-01 -5.392276e-01 -6.568943e-01 -2.697321e-01
33 1 3 -1.952963e+01 3.257002e+00 4.137516e+00 0 -1 0 1.951880e-01 8.281554e-01 -2.087973e-01 -4.821452e-01
34 1 1 -1.996112e+01 2.330830e+00 3.900008e+00 0 -1 0 6.933369e-01 -3.265924e-01 6.227059e-01 -1.576666e-01
35 1 2 1.961488e+01 2.321145e+00 4.004699e+00 -1 -1 0 -2.682316e-01 -5.316700e-01 -1.944011e-01 7.794787e-01
36 1 2 1.914434e+01 2.153361e+00 4.099390e+00 -1 -1 0 -5.980912e-01 -5.913041e-01 -1.007122e-02 5.408742e-01
37 1 1 1.954669e+01 1.960929e+00 5.829481e+00 -1 -1 0 -1.053630e-01 -4.289424e-01 6.057778e-01 -6.617706e-01
38 1 1 1.982916e+01 1.607431e+00 6.026130e+00 -1 -1 0 1.415295e-01 -1.961350e-01 7.466811e-01 -6.196513e-01
39 1 4 -1.987404e+01 1.684553e+00 6.861435e+00 0 -1 0 -2.781168e-01 -2.446914e-01 5.020200e-01 -7.815069e-01
40 1 4 -1.998449e+01 1.455123e+00 7.399553e+00 0 -1 0 1.751692e-01 5.800049e-02 5.644780e-01 -8.045597e-01
41 1 2 -1.915028e+01 9.572992e-01 7.439828e+00 0 -1 0 -6.433437e-01 4.709188e-03 -5.913537e-01 -4.861970e-01
42 1 4 -1.825318e+01 9.555239e-01 7.700737e+00 0 -1 0 9.809750e-02 8.796401e-01 -2.030446e-01 4.187876e-01
43 1 3 -1.781215e+01 9.919439e-01 7.428916e+00 0 -1 0 1.646628e-01 -7.089873e-01 3.833207e-01 -5.685846e-01
44 1 2 -1.731785e+01 9.318150e-01 7.598828e+00 0 -1 0 3.412531e-01 -4.437258e-01 7.094236e-01 -4.282194e-01
45 1 1 -1.619785e+01 1.843324e+00 7.540259e+00 0 -1 0 -3.641281e-01 -8.949749e-01 1.104449e-01 -2.328789e-01
46 1 3 -1.579978e+01 1.823739e+00 7.204763e+00 0 -1 0 2.353821e-01 7.915645e-01 -4.413996e-01 3.509805e-01
47 1 4 -1.552551e+01 1.055931e+00 6.669539e+00 0 -1 0 -1.963749e-01 4.928943e-01 -8.471823e-01 -2.782529e-02
48 1 1 -1.616379e+01 4.793041e-01 6.755540e+00 0 -1 0 -1.267914e-01 8.793012e-02 -9.277026e-01 3.399413e-01
49 1 4 -1.610623e+01 1.166828e+00 5.775981e+00 0 -1 0 4.883921e-02 6.170729e-01 7.169423e-01 3.206705e-01
50 1 4 -1.598487e+01 1.399855e+00 5.336073e+00 0 -1 0 7.187673e-02 -7.834141e-01 -4.115068e-01 -4.601720e-01
51 1 4 -1.580701e+01 1.844730e+00 5.133508e+00 0 -1 0 2.718414e-01 -8.384822e-01 -1.246272e-01 -4.555412e-01
52 1 1 -1.546959e+01 2.195965e+00 4.976945e+00 0 -1 0 4.182594e-01 -7.162972e-01 2.183552e-01 -5.140997e-01
53 1 3 -1.497078e+01 2.735825e+00 4.697536e+00 0 -1 0 -5.756852e-01 5.993525e-01 5.229169e-01 -1.895284e-01
54 1 4 -1.401486e+01 2.555106e+00 5.176275e+00 0 -1 0 -7.417775e-01 6.648982e-01 -2.159469e-02 -8.491269e-02
55 1 4 -1.389048e+01 2.902901e+00 5.555374e+00 0 -1 0 -7.678614e-01 4.968626e-01 -2.551943e-01 -3.136756e-01
56 1 4 -1.365735e+01 3.239814e+00 5.835731e+00 0 -1 0 -7.475605e-01 3.192874e-01 -4.263838e-01 -3.967439e-01
57 1 1 -1.317747e+01 3.512254e+00 5.962062e+00 0 -1 0 -6.040296e-01 1.833624e-01 -5.452384e-01 -5.515810e-01
58 1 1 -1.287437e+01 3.884577e+00 6.001497e+00 0 -1 0 3.726519e-01 -1.544385e-01 6.185143e-01 6.743288e-01
59 1 3 -1.269556e+01 4.321407e+00 5.848796e+00 0 -1 0 -1.393613e-01 2.261896e-02 -7.062440e-01 -6.937479e-01
60 1 4 -1.262350e+01 4.783715e+00 5.595920e+00 0 -1 0 -1.635124e-01 1.271567e-01 6.907762e-01 6.927648e-01
61 1 2 -1.293285e+01 5.207031e+00 5.376768e+00 0 -1 0 -4.827939e-01 3.537696e-01 6.028192e-01 5.276042e-01
62 1 3 -1.332639e+01 5.655751e+00 5.375837e+00 0 -1 0 6.320796e-01 -4.363031e-01 -4.425886e-01 -4.628503e-01
63 1 2 -1.361227e+01 6.090167e+00 5.481395e+00 0 -1 0 -6.879267e-01 6.204847e-01 2.116750e-01 3.113666e-01
64 1 4 -1.365002e+01 6.543646e+00 5.740510e+00 0 -1 0 7.042561e-01 -6.839334e-01 6.076681e-03 -1.903194e-01
65 1 2 -1.354153e+01 6.897473e+00 6.147717e+00 0 -1 0 7.390721e-01 -6.253411e-01 2.378664e-01 7.836169e-02
66 1 1 -1.320282e+01 7.147921e+00 6.498258e+00 0 -1 0 6.889204e-01 -4.339991e-01 4.500884e-01 3.666795e-01
67 1 2 -1.285589e+01 7.566374e+00 6.536609e+00 0 -1 0 -5.614535e-01 3.315766e-01 -6.408331e-01 -4.051665e-01
68 1 1 -1.240884e+01 7.838516e+00 6.443342e+00 0 -1 0 4.124490e-01 -1.213412e-01 7.105722e-01 5.570003e-01
69 1 1 -1.212481e+01 8.184846e+00 6.160613e+00 0 -1 0 1.981421e-01 3.998992e-02 7.255499e-01 6.578129e-01
70 1 2 -1.205361e+01 8.605501e+00 5.866919e+00 0 -1 0 1.022823e-01 -2.367539e-01 -6.847291e-01 -6.816392e-01
71 1 3 -1.182426e+01 9.211917e+00 6.071747e+00 0 -1 0 1.343142e-01 -1.001162e-01 6.463922e-01 7.443880e-01
72 1 4 -1.173086e+01 9.107832e+00 7.522958e+00 0 -1 0 5.256486e-03 6.656523e-01 -6.168364e-01 4.199908e-01
73 1 1 -1.101359e+01 9.444669e+00 7.012140e+00 0 -1 0 7.574044e-02 7.781226e-01 -4.332368e-01 -4.484356e-01
74 1 1 -1.092118e+01 1.056315e+01 7.428007e+00 0 -1 0 -3.719319e-01 8.526132e-01 3.367459e-01 -1.460125e-01
75 1 3 -1.010941e+01 1.049282e+01 7.023547e+00 0 -1 0 5.968364e-01 7.804511e-01 -6.913018e-02 -1.729260e-01
76 1 1 -9.777204e+00 1.029113e+01 7.530750e+00 0 -1 0 7.536802e-01 -4.149509e-01 -4.811300e-01 1.682137e-01
77 1 4 -9.221745e+00 1.066916e+01 7.363939e+00 0 -1 0 2.294447e-01 -7.890277e-01 4.308376e-01 3.730541e-01
78 1 1 -9.027297e+00 1.095240e+01 7.076671e+00 0 -1 0 -6.923743e-02 4.131803e-01 -7.362873e-01 -5.313842e-01
79 1 4 -8.798922e+00 1.159228e+01 7.854228e+00 0 -1 0 -7.782249e-01 4.366507e-01 5.400980e-02 4.480906e-01
80 1 2 -9.693217e+00 1.225091e+01 7.749415e+00 0 -1 0 -5.606722e-01 2.133073e-01 2.698477e-01 7.532124e-01
81 1 4 -9.978593e+00 1.253543e+01 8.078173e+00 0 -1 0 8.362724e-01 -2.185686e-01 -1.766571e-01 -4.708169e-01
82 1 4 -9.214787e+00 1.358959e+01 7.925141e+00 0 -1 0 -5.823615e-03 7.985651e-01 9.812326e-02 -5.938280e-01
83 1 4 -8.867808e+00 1.347283e+01 8.200263e+00 0 -1 0 2.672290e-01 1.004219e-01 7.973300e-01 5.317603e-01
84 1 4 -8.619955e+00 1.453800e+01 8.038104e+00 0 -1 0 -1.814879e-01 -8.749788e-02 -3.276927e-01 -9.230513e-01
85 1 1 -9.384459e+00 1.459904e+01 8.073890e+00 0 -1 0 -1.036180e-01 4.219206e-01 5.981076e-01 6.734342e-01
86 1 1 -9.458571e+00 1.488314e+01 7.740332e+00 0 -1 0 -2.748550e-01 7.136711e-01 3.842751e-01 5.171662e-01
87 1 3 -9.699681e+00 1.523934e+01 8.246872e+00 0 -1 0 -5.673539e-01 6.849771e-01 1.529115e-01 4.307365e-01
88 1 2 -9.435476e+00 1.574905e+01 6.704597e+00 0 -1 0 6.848057e-01 5.182530e-01 4.892793e-01 1.518577e-01
89 1 2 -8.938424e+00 1.621862e+01 7.023441e+00 0 -1 0 -3.574616e-01 8.054896e-01 -4.720570e-01 2.387121e-02
90 1 3 -8.512736e+00 1.656442e+01 6.779695e+00 0 -1 0 -2.121601e-01 6.502417e-01 -7.175329e-01 -1.316071e-01
91 1 3 -8.416614e+00 1.727121e+01 5.946237e+00 0 -1 0 -4.009902e-01 1.622209e-01 -6.953276e-01 -5.739431e-01
92 1 2 -8.151614e+00 1.768229e+01 5.827596e+00 0 -1 0 -2.431878e-01 2.275213e-03 -8.680284e-01 -4.328754e-01
93 1 1 -7.733106e+00 1.762402e+01 5.777632e+00 0 -1 0 -2.845460e-01 -3.138895e-01 -5.629511e-01 -7.096429e-01
94 1 2 -7.065682e+00 1.719913e+01 5.115773e+00 0 -1 0 5.765907e-01 -2.026627e-02 7.983846e-01 1.723789e-01
95 1 3 -6.674794e+00 1.703088e+01 4.729171e+00 0 -1 0 -5.083037e-01 -4.117776e-01 -6.811201e-01 -3.288494e-01
96 1 2 -5.727550e+00 1.678413e+01 5.052335e+00 0 -1 0 3.581002e-01 6.225710e-01 -5.164234e-01 -4.663438e-01
97 1 2 -6.336664e+00 1.778719e+01 5.029430e+00 0 -1 0 -1.220993e-01 -1.941072e-01 -8.271510e-01 -5.130648e-01
98 1 4 -6.107996e+00 1.804270e+01 4.663484e+00 0 -1 0 7.064722e-02 -3.990229e-01 -7.849232e-01 -4.687059e-01
99 1 2 -6.074386e+00 1.825926e+01 4.283898e+00 0 -1 0 -1.804156e-01 6.287557e-01 6.294353e-01 4.194375e-01
100 1 1 -6.580423e+00 1.871776e+01 4.035898e+00 0 -1 0 1.123885e-01 -6.572844e-01 -5.599178e-01 4.917704e-01
101 2 4 -1.949531e+01 4.059710e+00 8.593991e+00 0 -1 0 -4.601730e-01 3.286897e-01 2.634591e-01 7.815326e-01
102 2 3 -1.846731e+01 3.975692e+00 7.900397e+00 0 -1 0 4.078311e-02 3.035089e-01 -5.803674e-01 -7.545812e-01
103 2 1 -1.803089e+01 4.264690e+00 9.397560e+00 0 -1 0 -4.755155e-01 8.470661e-01 2.084626e-01 -1.136106e-01
104 2 3 -1.806053e+01 4.455444e+00 9.259571e+00 0 -1 0 6.379002e-01 -1.852989e-01 -7.119600e-01 2.277291e-01
105 2 3 -1.911000e+01 4.732386e+00 9.106442e+00 0 -1 0 -2.281886e-01 4.305495e-02 -4.943190e-01 8.376902e-01
106 2 2 -1.925598e+01 4.323574e+00 9.460884e+00 0 -1 0 5.483103e-01 1.557746e-01 5.940950e-01 -5.675749e-01
107 2 3 -1.946000e+01 5.334280e+00 1.031932e+01 0 -1 0 -4.473787e-01 6.125045e-01 5.189755e-01 3.941510e-01
108 2 4 -1.871840e+01 5.551717e+00 9.518627e+00 0 -1 0 3.776371e-01 -5.141068e-01 7.589746e-01 1.305450e-01
109 2 3 -1.874964e+01 6.816243e+00 9.984178e+00 0 -1 0 -1.017641e-01 -2.194908e-01 -1.701202e-01 -9.552628e-01
110 2 2 -1.869176e+01 7.154214e+00 1.029719e+01 0 -1 0 4.532337e-01 -2.418883e-01 -1.434019e-01 -8.458754e-01
111 2 2 -1.882686e+01 7.519442e+00 1.061471e+01 0 -1 0 7.608964e-01 -2.575322e-01 -7.621208e-02 -5.906823e-01
112 2 3 -1.900895e+01 7.272517e+00 9.914604e+00 0 -1 0 -7.015034e-01 4.095793e-01 -5.612650e-01 1.584908e-01
113 2 3 -1.896852e+01 8.583204e+00 9.834091e+00 0 -1 0 2.284569e-01 -7.898400e-01 -1.070500e-01 -5.590175e-01
114 2 2 -1.865182e+01 8.977412e+00 9.854584e+00 0 -1 0 3.367949e-01 -7.425310e-01 2.682526e-01 -5.130861e-01
115 2 4 -1.820478e+01 9.265844e+00 9.819791e+00 0 -1 0 -4.389739e-01 6.168825e-01 -4.910579e-01 4.308365e-01
116 2 4 -1.878280e+01 8.980046e+00 8.711428e+00 0 -1 0 -6.319496e-02 9.156177e-02 9.825145e-01 1.492920e-01
117 2 1 -1.802664e+01 9.150921e+00 8.366498e+00 0 -1 0 -7.588249e-01 7.671314e-02 6.385955e-01 1.024482e-01
118 2 1 -1.848904e+01 9.599962e+00 7.126949e+00 0 -1 0 6.975258e-01 5.162138e-01 -1.648961e-02 -4.966983e-01
119 2 1 -1.842941e+01 9.701588e+00 6.554701e+00 0 -1 0 -4.341403e-01 -3.978752e-01 -7.816989e-01 -2.053397e-01
120 2 1 -1.780088e+01 9.666229e+00 5.919131e+00 0 -1 0 -5.376952e-01 -3.668203e-01 -4.628996e-01 -6.017065e-01
121 2 3 -1.699703e+01 8.832349e+00 5.829329e+00 0 -1 0 -2.675261e-01 7.783989e-01 -5.466098e-01 1.540866e-01
122 2 1 -1.727921e+01 9.805864e+00 5.895050e+00 0 -1 0 -4.135700e-01 -4.406907e-01 -6.251592e-01 -4.938902e-01
123 2 4 -1.681116e+01 9.495740e+00 7.097083e+00 0 -1 0 5.033669e-01 -5.590685e-01 -3.576047e-01 -5.533381e-01
124 2 1 -1.689972e+01 9.949445e+00 7.253961e+00 0 -1 0 -7.216596e-01 5.357657e-01 2.158093e-01 3.815611e-01
125 2 4 -1.589069e+01 1.075757e+01 6.795758e+00 0 -1 0 -1.519204e-01 9.716871e-01 1.784225e-01 -3.016374e-02
126 2 2 -1.578230e+01 1.135746e+01 6.593105e+00 0 -1 0 1.794823e-02 -4.214828e-01 -2.865388e-01 8.601893e-01
127 2 4 -1.537780e+01 1.018742e+01 5.726168e+00 0 -1 0 -8.213365e-01 -3.550788e-01 -4.430107e-01 5.538044e-02
128 2 4 -1.506135e+01 9.743563e+00 5.664736e+00 0 -1 0 -7.768823e-01 -4.664545e-01 -2.315431e-01 -3.539236e-01
129 2 1 -1.428881e+01 9.872490e+00 5.714919e+00 0 -1 0 6.878179e-01 4.294874e-01 -2.636729e-02 5.845955e-01
130 2 2 -1.399410e+01 9.649355e+00 6.137860e+00 0 -1 0 -6.781086e-01 -3.739509e-01 -1.365552e-01 -6.178043e-01
131 2 3 -1.362724e+01 8.571534e+00 6.893022e+00 0 -1 0 8.286978e-01 1.413267e-01 -5.415132e-01 -7.085253e-03
132 2 4 -1.327133e+01 8.497988e+00 5.828379e+00 0 -1 0 6.031577e-01 7.881268e-01 -1.224346e-01 -8.163096e-03
133 2 4 -1.321725e+01 8.111165e+00 5.482180e+00 0 -1 0 -5.978562e-01 -6.840120e-01 3.485827e-01 -2.306201e-01
134 2 3 -1.303887e+01 7.622556e+00 5.375579e+00 0 -1 0 -5.369393e-01 -5.375882e-01 4.652500e-01 -4.541340e-01
135 2 4 -1.267837e+01 7.245641e+00 5.353315e+00 0 -1 0 -2.732798e-01 -3.887307e-01 6.208374e-01 -6.235123e-01
136 2 3 -1.247583e+01 6.726541e+00 5.594866e+00 0 -1 0 1.416773e-01 1.394757e-01 -6.175051e-01 7.610266e-01
137 2 1 -1.253721e+01 6.375052e+00 5.985468e+00 0 -1 0 -2.375467e-02 -1.170138e-01 -5.433983e-01 8.309403e-01
138 2 3 -1.278931e+01 5.990957e+00 6.378063e+00 0 -1 0 -2.910981e-01 -3.728478e-01 -5.404233e-01 6.958369e-01
139 2 2 -1.308853e+01 5.479427e+00 6.545440e+00 0 -1 0 -3.862127e-01 -5.093156e-01 -5.190231e-01 5.674965e-01
140 2 3 -1.339362e+01 5.050437e+00 6.483062e+00 0 -1 0 4.575463e-01 7.180404e-01 3.479762e-01 -3.924053e-01
141 2 1 -1.366494e+01 4.836828e+00 6.202168e+00 0 -1 0 5.350087e-01 8.140414e-01 2.848781e-02 -2.242560e-01
142 2 2 -1.385724e+01 4.573627e+00 5.723676e+00 0 -1 0 4.891901e-01 8.583537e-01 -1.425495e-01 -6.001394e-02
143 2 4 -1.378177e+01 4.278674e+00 5.330771e+00 0 -1 0 4.106370e-01 8.737716e-01 -2.287518e-01 1.247925e-01
144 2 4 -1.347285e+01 4.002410e+00 4.948448e+00 0 -1 0 5.251035e-01 6.722063e-01 -4.603632e-01 2.459080e-01
145 2 1 -1.321011e+01 3.605843e+00 4.765608e+00 0 -1 0 -3.441048e-01 -4.416218e-01 6.972625e-01 -4.476462e-01
146 2 1 -1.298736e+01 3.088634e+00 4.922672e+00 0 -1 0 -1.437751e-01 -2.362249e-01 7.748114e-01 -5.685013e-01
147 2 1 -1.275874e+01 2.635984e+00 5.161464e+00 0 -1 0 1.067676e-01 -1.122842e-02 9.028472e-01 -4.163431e-01
148 2 2 -1.167078e+01 2.524480e+00 4.310043e+00 0 -1 0 -6.997906e-01 -5.792024e-02 -5.744074e-01 -4.207071e-01
149 2 4 -1.113501e+01 2.677390e+00 4.299697e+00 0 -1 0 -4.090970e-01 -1.245658e-01 -4.301235e-01 -7.950577e-01
150 2 1 -1.059197e+01 1.786567e+00 5.433097e+00 0 -1 0 -3.136084e-01 4.863547e-01 -6.497476e-01 4.928863e-01
151 2 1 -1.119032e+01 2.048848e+00 5.658105e+00 0 -1 0 -6.466779e-01 -2.439295e-02 6.240718e-01 4.378893e-01
152 2 1 -1.159232e+01 2.557400e+00 6.436034e+00 0 -1 0 -1.914659e-01 2.082604e-01 9.581901e-01 4.289743e-02
153 2 4 -1.135367e+01 2.922984e+00 7.182124e+00 0 -1 0 6.260812e-01 1.762395e-01 -3.302142e-01 6.840472e-01
154 2 1 -1.134649e+01 2.625457e+00 7.604637e+00 0 -1 0 -3.237693e-01 2.946974e-02 3.500392e-01 -8.785087e-01
155 2 2 -1.153052e+01 1.703658e+00 7.391502e+00 0 -1 0 9.311137e-01 -3.332652e-01 1.298894e-01 7.134604e-02
156 2 4 -1.202880e+01 1.674935e+00 8.260861e+00 0 -1 0 -8.799760e-01 1.102636e-01 4.594073e-01 4.928545e-02
157 2 3 -1.310163e+01 1.846911e+00 8.311757e+00 0 -1 0 6.028851e-01 -5.639507e-01 -4.975992e-01 -2.662409e-01
158 2 2 -1.332447e+01 2.268575e+00 8.400520e+00 0 -1 0 6.566181e-01 -7.126592e-01 -2.457720e-01 -2.378333e-02
159 2 1 -1.349970e+01 2.755673e+00 8.482235e+00 0 -1 0 6.861845e-01 -7.185287e-01 -4.549874e-02 1.039093e-01
160 2 3 -1.348657e+01 3.072889e+00 8.719951e+00 0 -1 0 6.292338e-01 -5.204260e-01 2.148905e-01 5.357646e-01
161 2 1 -1.376445e+01 2.906894e+00 9.958355e+00 0 -1 0 4.867792e-01 -4.577409e-01 -6.287819e-01 3.976840e-01
162 2 1 -1.420593e+01 3.030355e+00 1.015479e+01 0 -1 0 -1.571148e-01 7.084822e-01 4.024224e-01 -5.580539e-01
163 2 4 -1.468175e+01 3.151258e+00 9.968754e+00 0 -1 0 7.765611e-02 8.617604e-01 4.742518e-02 -4.990886e-01
164 2 4 -1.484993e+01 2.932440e+00 1.099460e+01 0 -1 0 8.835480e-01 -3.782818e-01 1.652947e-01 -2.211867e-01
165 2 3 -1.475121e+01 3.108309e+00 1.139490e+01 0 -1 0 9.298422e-01 -2.673900e-01 2.524530e-01 -1.278906e-02
166 2 3 -1.443521e+01 2.945529e+00 1.167417e+01 0 -1 0 -8.641780e-01 1.541061e-02 -2.698520e-01 -4.244275e-01
167 2 4 -1.413699e+01 3.097064e+00 1.203415e+01 0 -1 0 7.552035e-01 1.221217e-01 4.441213e-01 4.663800e-01
168 2 2 -1.357938e+01 3.137675e+00 1.203483e+01 0 -1 0 -5.057246e-01 -2.709041e-01 -5.172156e-01 -6.350918e-01
169 2 2 -1.310118e+01 3.388172e+00 1.190101e+01 0 -1 0 -2.912431e-01 -4.432958e-01 -4.093238e-01 -7.423748e-01
170 2 1 -1.275727e+01 3.813374e+00 1.193784e+01 0 -1 0 -8.460174e-02 5.109735e-01 3.349913e-01 7.871019e-01
171 2 1 -1.226469e+01 3.756666e+00 1.176451e+01 0 -1 0 2.071507e-01 -1.287757e-01 8.442662e-01 -4.772002e-01
172 2 4 -1.161151e+01 3.420156e+00 1.209693e+01 0 -1 0 -4.948028e-01 2.205328e-01 -5.641727e-01 6.230928e-01
173 2 4 -1.052523e+01 4.494408e+00 1.229378e+01 0 -1 0 -5.194464e-01 5.012902e-01 -1.383377e-01 -6.780459e-01
174 2 1 -1.059016e+01 4.881673e+00 1.249619e+01 0 -1 0 -2.061361e-01 3.937378e-01 -3.655174e-01 -8.178480e-01
175 2 1 -1.059004e+01 5.320212e+00 1.249393e+01 0 -1 0 -1.270366e-01 -1.765760e-01 5.366530e-01 8.152829e-01
176 2 2 -1.111909e+01 5.606885e+00 1.200663e+01 0 -1 0 5.170657e-01 5.640443e-01 3.409589e-01 -5.461172e-01
177 2 2 -1.091507e+01 6.112297e+00 1.321428e+01 0 -1 0 5.622593e-01 -5.544742e-01 -1.590110e-01 5.925692e-01
178 2 1 -1.109747e+01 6.522965e+00 1.352567e+01 0 -1 0 3.327192e-01 -5.086777e-01 1.915521e-01 7.706184e-01
179 2 4 -1.131867e+01 6.841740e+00 1.449040e+01 0 -1 0 -2.513463e-01 2.112479e-01 -2.966594e-01 8.967679e-01
180 2 1 -1.152286e+01 7.591981e+00 1.445117e+01 0 -1 0 -3.715184e-01 3.194007e-01 3.033775e-02 -8.712272e-01
181 2 4 -1.177010e+01 7.915147e+00 1.472289e+01 0 -1 0 2.924470e-03 -3.052022e-01 2.671333e-01 9.140475e-01
182 2 2 -1.214847e+01 7.449499e+00 1.501563e+01 0 -1 0 -7.607400e-01 -5.422941e-01 1.813932e-01 3.070638e-01
183 2 3 -1.239157e+01 7.665159e+00 1.575334e+01 0 -1 0 -4.741235e-01 -4.832633e-01 -7.888248e-02 -7.317383e-01
184 2 4 -1.290264e+01 7.698551e+00 1.482369e+01 0 -1 0 4.320033e-02 8.315115e-01 -1.796204e-01 -5.238882e-01
185 2 3 -1.339676e+01 8.114551e+00 1.497531e+01 0 -1 0 -7.221857e-01 -6.455387e-01 -1.637312e-01 -1.868679e-01
186 2 1 -1.364643e+01 7.927600e+00 1.611720e+01 0 -1 0 2.311695e-01 -2.769584e-01 7.890643e-02 -9.293161e-01
187 2 1 -1.363548e+01 8.124027e+00 1.657404e+01 0 -1 0 6.081038e-01 -2.219419e-01 2.810144e-01 -7.085072e-01
188 2 2 -1.366715e+01 7.949728e+00 1.700849e+01 0 -1 0 8.908382e-01 -1.989271e-01 2.879093e-01 -2.897300e-01
189 2 4 -1.459188e+01 7.952346e+00 1.752249e+01 0 -1 0 -1.257785e-01 2.060998e-02 7.828970e-01 -6.089559e-01
190 2 4 -1.472115e+01 7.571492e+00 1.779925e+01 0 -1 0 2.291304e-01 2.511754e-01 6.793261e-01 -6.503278e-01
191 2 1 -1.449375e+01 6.697289e+00 1.767469e+01 0 -1 0 9.617093e-01 1.257321e-02 -2.608216e-01 8.324246e-02
192 2 4 -1.467732e+01 6.790872e+00 1.716581e+01 0 -1 0 1.646269e-01 -4.325055e-01 -2.858310e-01 8.391291e-01
193 2 4 -1.440484e+01 5.851859e+00 1.699049e+01 0 -1 0 -6.609982e-01 -5.165428e-01 -1.581034e-01 -5.208341e-01
194 2 1 -1.551691e+01 5.325258e+00 1.807481e+01 0 -1 0 3.800361e-01 -4.729762e-01 -4.103943e-02 -7.938399e-01
195 2 3 -1.573384e+01 4.362881e+00 1.754398e+01 0 -1 0 -7.400619e-01 -1.855184e-01 -5.852347e-01 2.745755e-01
196 2 4 -1.553132e+01 3.857409e+00 1.755709e+01 0 -1 0 -6.911079e-01 -4.581397e-01 -5.587237e-01 1.748378e-02
197 2 2 -1.553539e+01 2.920275e+00 1.756576e+01 0 -1 0 6.089165e-01 6.538932e-02 -6.603617e-01 -4.345887e-01
198 2 4 -1.605816e+01 2.789202e+00 1.743562e+01 0 -1 0 -7.297053e-01 1.378936e-01 6.571820e-01 1.289472e-01
199 2 3 -1.544967e+01 3.860305e+00 1.646353e+01 0 -1 0 3.120362e-01 9.023752e-01 6.585938e-02 2.898534e-01
200 2 4 -1.514550e+01 3.880795e+00 1.609367e+01 0 -1 0 -2.070762e-01 -8.521615e-01 2.325171e-01 -4.205663e-01
