ITEM: TIMESTEP
24000000
ITEM: NUMBER OF ATOMS
200
ITEM: BOX BOUNDS pp pp pp
-2.0000000000000000e+01 2.0000000000000000e+01
-2.0000000000000000e+01 2.0000000000000000e+01
-2.0000000000000000e+01 2.0000000000000000e+01
ITEM: ATOMS id mol type x y z ix iy iz c_quat[1] c_quat[2] c_quat[3] c_quat[4]
1 1 1 1.980626e+01 -1.950793e+01 1.312457e+01 -1 0 0 4.661383e-01 2.859656e-01 -3.791661e-01 -7.464394e-01
2 1 2 1.950386e+01 -1.959776e+01 1.415792e+01 -1 0 0 -3.142988e-01 6.924776e-01 2.889828e-01 5.815325e-01
3 1 1 1.881465e+01 2.023798e+01 1.346697e+01 -1 -1 0 1.136803e-02 5.184954e-01 4.779555e-01 -7.089372e-01
4 1 3 1.875358e+01 1.959075e+01 1.246471e+01 -1 -1 0 4.552353e-01 4.105806e-01 -5.277402e-01 -5.879410e-01
5 1 1 1.828958e+01 1.962253e+01 1.227727e+01 -1 -1 0 -5.774565e-01 -3.327036e-01 6.451604e-01 3.736580e-01
6 1 2 1.815591e+01 1.914995e+01 1.169566e+01 -1 -1 0 -4.085659e-02 -1.997945e-01 9.580352e-01 2.014483e-01
7 1 4 1.795516e+01 1.927647e+01 1.125204e+01 -1 -1 0 3.288627e-01 4.085739e-02 -9.292491e-01 -1.633285e-01
8 1 1 1.875276e+01 -1.978946e+01 1.017387e+01 -1 0 0 -5.626157e-01 -6.060747e-01 -3.651995e-01 -4.275119e-01
9 1 1 1.923679e+01 -1.978486e+01 9.988715e+00 -1 0 0 3.088290e-01 6.837698e-01 1.046278e-01 6.527913e-01
10 1 4 1.971781e+01 -1.956467e+01 9.843084e+00 -1 0 0 6.842615e-02 6.972158e-01 -9.834538e-02 7.067787e-01
11 1 1 -1.968047e+01 -1.947868e+01 9.927130e+00 0 0 0 7.891589e-02 -5.778544e-01 2.175999e-01 -7.826282e-01
12 1 1 -1.926764e+01 -1.942334e+01 1.031353e+01 0 0 0 -2.951405e-01 3.791375e-01 -4.356809e-01 7.611366e-01
13 1 3 -1.887869e+01 -1.969000e+01 1.077038e+01 0 0 0 -3.887317e-01 1.950993e-01 -6.053325e-01 6.666307e-01
14 1 4 -1.876592e+01 2.005777e+01 1.116036e+01 0 -1 0 -6.131413e-01 1.961782e-02 -5.721341e-01 5.443670e-01
15 1 4 -1.876578e+01 1.966042e+01 1.149350e+01 0 -1 0 7.607454e-01 1.799577e-01 4.875858e-01 -3.887695e-01
16 1 2 -1.851089e+01 1.919112e+01 1.160986e+01 0 -1 0 7.324661e-01 3.144138e-01 5.222713e-01 -3.031009e-01
17 1 1 -1.863130e+01 1.864836e+01 1.163018e+01 0 -1 0 -7.547986e-01 -5.538789e-01 -3.393854e-01 9.118584e-02
18 1 2 -1.842358e+01 1.815807e+01 1.142140e+01 0 -1 0 -6.595143e-01 -6.760375e-01 -3.090788e-01 -1.117339e-01
19 1 3 -1.822760e+01 1.780463e+01 1.111578e+01 0 -1 0 -6.057821e-01 -6.888374e-01 -2.865253e-02 -3.971272e-01
20 1 1 -1.775720e+01 1.762121e+01 1.085402e+01 0 -1 0 -4.351983e-01 -7.262899e-01 5.628202e-02 -5.290915e-01
21 1 4 -1.725593e+01 1.755841e+01 1.074564e+01 0 -1 0 2.379034e-01 6.150189e-01 -3.420413e-01 6.694486e-01
22 1 1 -1.678989e+01 1.743290e+01 1.098070e+01 0 -1 0 -1.430582e-02 5.350957e-01 -4.301503e-01 7.269379e-01
23 1 4 -1.633955e+01 1.715347e+01 1.108792e+01 0 -1 0 -1.040286e-01 4.213694e-01 -4.159759e-01 7.991182e-01
24 1 3 -1.599225e+01 1.692512e+01 1.151513e+01 0 -1 0 -3.519111e-01 1.474985e-01 -6.612730e-01 6.458488e-01
25 1 3 -1.581087e+01 1.641277e+01 1.171748e+01 0 -1 0 -4.217498e-01 -9.054640e-02 -7.788858e-01 4.552640e-01
26 1 4 -1.579308e+01 1.595565e+01 1.178835e+01 0 -1 0 -4.528943e-01 -3.197636e-01 -6.918439e-01 4.625905e-01
27 1 4 -1.602223e+01 1.547264e+01 1.166403e+01 0 -1 0 -6.314673e-01 -5.107943e-01 -5.510918e-01 1.914053e-01
28 1 1 -1.593894e+01 1.492154e+01 1.158923e+01 0 -1 0 -6.511024e-01 -6.280365e-01 -4.254705e-01 -2.471341e-02
29 1 1 -1.577325e+01 1.455146e+01 1.125263e+01 0 -1 0 -5.220832e-01 -7.693061e-01 -3.180654e-01 -1.855578e-01
30 1 4 -1.551776e+01 1.432553e+01 1.086681e+01 0 -1 0 4.186732e-01 8.099294e-01 1.212498e-01 3.924609e-01
31 1 4 -1.506741e+01 1.435072e+01 1.060762e+01 0 -1 0 2.691393e-01 7.927418e-01 -2.321307e-01 4.952169e-01
32 1 3 -1.461573e+01 1.411960e+01 1.037630e+01 0 -1 0 2.515616e-01 6.485375e-01 -3.499542e-01 6.274137e-01
33 1 3 -1.414787e+01 1.393710e+01 1.037653e+01 0 -1 0 4.829391e-02 5.158668e-01 -3.764335e-01 7.680149e-01
34 1 1 -1.376911e+01 1.392408e+01 1.081437e+01 0 -1 0 -2.981834e-01 4.034387e-01 -4.703242e-01 7.260296e-01
35 1 2 -1.331778e+01 1.368925e+01 1.103985e+01 0 -1 0 -3.781458e-01 1.639873e-01 -7.396061e-01 5.320683e-01
36 1 2 -1.304202e+01 1.329155e+01 1.120104e+01 0 -1 0 -5.028177e-01 -4.708096e-02 -7.581162e-01 4.125743e-01
37 1 1 -1.291655e+01 1.279633e+01 1.113799e+01 0 -1 0 -6.390757e-01 -2.838232e-01 -7.027380e-01 1.310949e-01
38 1 1 -1.254135e+01 1.240755e+01 1.095368e+01 0 -1 0 -5.537114e-01 -4.503563e-01 -7.003909e-01 5.962385e-03
39 1 4 -1.238539e+01 1.203267e+01 1.059455e+01 0 -1 0 4.910560e-01 6.353474e-01 5.733325e-01 1.627502e-01
40 1 4 -1.211891e+01 1.183787e+01 1.015122e+01 0 -1 0 4.188493e-01 7.088648e-01 4.533650e-01 3.413738e-01
41 1 2 -1.187715e+01 1.187656e+01 9.711210e+00 0 -1 0 2.013252e-01 8.508063e-01 2.899129e-01 3.892907e-01
42 1 4 -1.160816e+01 1.209203e+01 9.296584e+00 0 -1 0 1.847192e-02 8.526877e-01 2.158505e-01 4.753851e-01
43 1 3 -1.138050e+01 1.236758e+01 9.052175e+00 0 -1 0 -2.443952e-01 8.581618e-01 -6.546306e-02 4.467034e-01
44 1 2 -1.103494e+01 1.279029e+01 9.057809e+00 0 -1 0 -3.377703e-01 7.984030e-01 -4.091147e-01 2.847615e-01
45 1 1 -1.060213e+01 1.293959e+01 9.087193e+00 0 -1 0 -5.426322e-01 5.299738e-01 -5.948104e-01 2.662304e-01
46 1 3 -1.013976e+01 1.284453e+01 9.222366e+00 0 -1 0 -6.462115e-01 3.117816e-01 -6.699199e-01 1.908146e-01
47 1 4 -9.610439e+00 1.268974e+01 9.417243e+00 0 -1 0 -6.414389e-01 1.594725e-01 -7.503916e-01 -6.091952e-03
48 1 1 -9.144950e+00 1.255248e+01 9.213654e+00 0 -1 0 5.103053e-01 1.230727e-01 8.198584e-01 2.286347e-01
49 1 4 -8.710495e+00 1.254890e+01 8.868375e+00 0 -1 0 3.026433e-01 2.801377e-01 8.543221e-01 3.163284e-01
50 1 4 -8.625282e+00 1.267722e+01 8.357658e+00 0 -1 0 1.094159e-01 5.269965e-01 7.295845e-01 4.219116e-01
51 1 4 -8.560827e+00 1.300958e+01 8.019779e+00 0 -1 0 -1.614753e-01 7.415771e-01 5.490841e-01 3.499940e-01
52 1 1 -8.656172e+00 1.340926e+01 7.670364e+00 0 -1 0 -3.233939e-01 7.931508e-01 4.250650e-01 2.926566e-01
53 1 3 -8.766949e+00 1.397226e+01 7.455230e+00 0 -1 0 -3.462518e-01 8.881502e-01 1.689104e-01 2.505357e-01
54 1 4 -8.704718e+00 1.449874e+01 7.438072e+00 0 -1 0 -4.768582e-01 8.553942e-01 8.060490e-04 2.022533e-01
55 1 4 -8.538350e+00 1.504850e+01 7.593033e+00 0 -1 0 -5.752338e-01 7.545699e-01 -2.847534e-01 1.365494e-01
56 1 4 -8.154681e+00 1.531935e+01 7.753763e+00 0 -1 0 -6.613855e-01 5.207743e-01 -5.342759e-01 -7.689384e-02
57 1 1 -7.633791e+00 1.558318e+01 7.755049e+00 0 -1 0 -5.880644e-01 3.663935e-01 -6.890989e-01 -2.123175e-01
58 1 1 -7.148523e+00 1.575276e+01 7.603927e+00 0 -1 0 -4.883295e-01 1.660156e-01 -8.022876e-01 -3.005123e-01
59 1 3 -6.759310e+00 1.576544e+01 7.277952e+00 0 -1 0 3.501135e-01 1.433913e-01 8.203427e-01 4.288324e-01
60 1 4 -6.572945e+00 1.588341e+01 6.812753e+00 0 -1 0 1.592908e-01 3.836875e-01 7.943623e-01 4.431691e-01
61 1 2 -6.445282e+00 1.611029e+01 6.346147e+00 0 -1 0 4.397059e-03 4.875092e-01 7.450378e-01 4.552297e-01
62 1 3 -6.508179e+00 1.637838e+01 5.987691e+00 0 -1 0 -1.431162e-01 7.204797e-01 5.732617e-01 3.630395e-01
63 1 2 -6.486504e+00 1.697418e+01 5.811660e+00 0 -1 0 -2.929543e-01 8.210876e-01 2.799242e-01 4.020390e-01
64 1 4 -6.370945e+00 1.748927e+01 5.634940e+00 0 -1 0 -3.299095e-01 8.427749e-01 3.852282e-02 4.235637e-01
65 1 2 -6.069306e+00 1.793240e+01 5.667230e+00 0 -1 0 -4.267185e-01 7.988068e-01 -2.657263e-01 3.304670e-01
66 1 1 -5.626230e+00 1.818817e+01 5.790403e+00 0 -1 0 -5.312890e-01 6.534308e-01 -5.228155e-01 1.320005e-01
67 1 2 -5.079040e+00 1.831304e+01 5.871266e+00 0 -1 0 -5.819022e-01 4.240816e-01 -6.737783e-01 1.660342e-01
68 1 1 -4.595258e+00 1.817975e+01 5.818276e+00 0 -1 0 -5.345513e-01 1.601566e-01 -8.245529e-01 -9.336604e-02
69 1 1 -4.116506e+00 1.804672e+01 5.585611e+00 0 -1 0 -4.623198e-01 -4.924430e-03 -8.620013e-01 -2.078220e-01
70 1 2 -3.827277e+00 1.793240e+01 5.193139e+00 0 -1 0 3.293277e-01 3.353776e-01 8.541084e-01 2.226299e-01
71 1 3 -3.594518e+00 1.798707e+01 4.600275e+00 0 -1 0 1.596860e-01 5.363464e-01 7.533104e-01 3.454799e-01
72 1 4 -3.567090e+00 1.820701e+01 4.144818e+00 0 -1 0 2.459810e-03 7.681111e-01 4.826166e-01 4.208093e-01
73 1 1 -3.448167e+00 1.860154e+01 3.754555e+00 0 -1 0 -1.722497e-01 7.946630e-01 3.611320e-01 4.565352e-01
74 1 1 -3.400349e+00 1.906923e+01 3.526436e+00 0 -1 0 -3.222885e-01 8.539733e-01 2.964435e-02 4.074076e-01
75 1 3 -3.196781e+00 1.948964e+01 3.545574e+00 0 -1 0 -4.874871e-01 8.017091e-01 -1.589350e-01 3.071783e-01
76 1 1 -2.670163e+00 1.983476e+01 3.547289e+00 0 -1 0 -3.840097e-01 8.003083e-01 -4.294616e-01 1.661505e-01
77 1 4 -2.234337e+00 -1.990640e+01 3.518639e+00 0 0 0 -4.223420e-01 6.760139e-01 -5.937139e-01 1.101645e-01
78 1 1 -1.821764e+00 -1.982071e+01 3.581146e+00 0 0 0 -5.848792e-01 3.653054e-01 -7.196619e-01 8.096328e-02
79 1 4 -1.299983e+00 -1.994116e+01 3.512912e+00 0 0 0 -6.142925e-01 1.319317e-01 -7.740971e-01 -7.753905e-02
80 1 2 -8.184507e-01 -2.013136e+01 3.338887e+00 0 0 0 5.199246e-01 1.069504e-01 8.220836e-01 2.059576e-01
81 1 4 -4.076110e-01 1.980565e+01 2.958493e+00 0 -1 0 3.498260e-01 2.810758e-01 8.356543e-01 3.167019e-01
82 1 4 -3.011115e-01 1.978936e+01 2.463455e+00 0 -1 0 2.527353e-01 5.960411e-01 6.414167e-01 4.116364e-01
83 1 4 -3.975468e-02 2.008769e+01 1.915891e+00 0 -1 0 8.634463e-02 7.070360e-01 5.087944e-01 4.835007e-01
84 1 4 1.052898e-01 -1.954736e+01 1.561871e+00 0 0 0 -8.806637e-02 8.478232e-01 2.092821e-01 4.792089e-01
85 1 1 4.409645e-01 -1.914745e+01 1.340624e+00 0 0 0 -2.224860e-01 8.261011e-01 1.125882e-01 5.053522e-01
86 1 1 7.683257e-01 -1.873520e+01 1.359201e+00 0 0 0 -3.830400e-01 7.715791e-01 -1.784997e-01 4.754828e-01
87 1 3 1.244964e+00 -1.848616e+01 1.409748e+00 0 0 0 -4.984555e-01 6.420138e-01 -3.512086e-01 4.647719e-01
88 1 2 1.704174e+00 -1.841356e+01 1.757230e+00 0 0 0 -6.048710e-01 4.651919e-01 -6.008094e-01 2.382343e-01
89 1 2 2.180536e+00 -1.853474e+01 1.858217e+00 0 0 0 6.053951e-01 -2.396505e-01 7.575334e-01 -4.698551e-02
90 1 3 2.612843e+00 -1.869179e+01 1.633543e+00 0 0 0 -5.640369e-01 -1.335111e-01 -7.501103e-01 -3.183893e-01
91 1 3 3.287501e+00 -1.845186e+01 1.921102e+00 0 0 0 -7.354903e-01 -5.394266e-01 -4.052679e-01 6.189405e-02
92 1 2 3.476300e+00 -1.870728e+01 2.706147e+00 0 0 0 -2.558115e-02 -7.473191e-01 -3.001826e-01 -5.922417e-01
93 1 1 3.653650e+00 -1.908750e+01 3.144724e+00 0 0 0 2.740302e-01 -1.630998e-01 9.105216e-01 -2.631660e-01
94 1 2 4.049506e+00 -1.804337e+01 3.991453e+00 0 0 0 1.672075e-01 -6.045529e-01 2.896254e-01 -7.229624e-01
95 1 3 4.465940e+00 -1.803309e+01 4.274408e+00 0 0 0 -4.020554e-01 4.766092e-01 -4.666627e-01 6.272329e-01
96 1 2 4.967198e+00 -1.835240e+01 4.408144e+00 0 0 0 3.406468e-01 -2.998780e-01 5.536878e-01 -6.981853e-01
97 1 2 5.372235e+00 -1.830030e+01 4.298212e+00 0 0 0 5.914942e-02 5.960345e-03 6.468729e-01 7.602771e-01
98 1 4 6.728973e+00 -1.833579e+01 5.188329e+00 0 0 0 -7.840222e-01 -2.361405e-01 4.022726e-01 -4.095406e-01
99 1 2 6.583901e+00 -1.875926e+01 5.581216e+00 0 0 0 -8.363156e-01 -2.312276e-01 2.257421e-01 -4.428888e-01
100 1 1 6.316572e+00 -1.847889e+01 6.263543e+00 0 0 0 -6.219239e-01 9.283235e-02 7.708954e-01 -1.015533e-01
101 2 4 3.459731e+00 -1.680614e+01 -4.084996e+00 0 0 0 -6.009149e-01 -4.437074e-01 4.229120e-01 -5.130015e-01
102 2 3 3.503041e+00 -1.716797e+01 -3.604629e+00 0 0 0 8.154521e-01 4.199450e-01 -3.921690e-01 6.991137e-02
103 2 1 3.428719e+00 -1.770592e+01 -3.563870e+00 0 0 0 -7.693671e-01 -1.894445e-01 5.016094e-01 -3.472362e-01
104 2 3 2.131443e+00 -1.804637e+01 -4.270567e+00 0 0 0 -6.876056e-01 -4.589196e-01 -3.135070e-01 4.672309e-01
105 2 3 2.563764e+00 -1.805962e+01 -3.187033e+00 0 0 0 -5.994113e-01 -7.218571e-01 2.753475e-01 -2.093136e-01
106 2 2 2.302285e+00 -1.838437e+01 -2.802060e+00 0 0 0 -4.760886e-01 4.873522e-01 -2.787539e-02 -7.314714e-01
107 2 3 1.836148e+00 -1.905529e+01 -2.697204e+00 0 0 0 1.008849e-01 8.865312e-01 2.797092e-01 -3.544677e-01
108 2 4 1.468292e+00 -1.936729e+01 -2.048531e+00 0 0 0 4.462548e-01 5.027051e-01 1.008758e-01 -7.334632e-01
109 2 3 1.483041e+00 -1.843328e+01 -1.933135e+00 0 0 0 1.770465e-01 5.693642e-01 7.840232e-01 -1.725883e-01
110 2 2 1.628559e+00 -1.864135e+01 -1.147828e+00 0 0 0 3.796945e-01 1.234446e-01 3.243217e-01 -8.575599e-01
111 2 2 1.903080e+00 -1.899188e+01 -9.255944e-01 0 0 0 -5.007866e-01 -1.924790e-01 -7.963417e-01 -2.792927e-01
112 2 3 2.109304e+00 -1.919074e+01 8.630872e-01 0 0 0 -6.830983e-01 1.805905e-01 6.521830e-01 -2.746289e-01
113 2 3 1.793445e+00 -1.941674e+01 1.193284e+00 0 0 0 -7.310392e-01 1.598398e-01 4.758047e-01 -4.622151e-01
114 2 2 1.591186e+00 -1.958432e+01 1.647847e+00 0 0 0 -4.681156e-01 4.003756e-01 4.263876e-01 -6.623902e-01
115 2 4 1.374333e+00 -1.946385e+01 2.058467e+00 0 0 0 -2.396560e-01 4.132711e-01 2.085835e-01 -8.533844e-01
116 2 4 9.873222e-01 -1.935768e+01 2.347201e+00 0 0 0 -1.942489e-01 4.879332e-01 7.751120e-03 -8.509574e-01
117 2 1 6.075816e-01 -1.907273e+01 2.540771e+00 0 0 0 1.069994e-01 5.470402e-01 -1.894970e-01 -8.083248e-01
118 2 1 3.941488e-02 -1.888294e+01 2.512185e+00 0 0 0 5.335995e-01 4.346069e-01 -2.111545e-01 -6.941197e-01
119 2 1 -5.474549e-01 -1.904839e+01 2.548431e+00 0 0 0 6.425264e-01 4.812764e-01 -3.348310e-01 -4.933772e-01
120 2 1 -1.086995e+00 -1.934425e+01 2.453093e+00 0 0 0 7.727387e-01 3.923647e-01 -4.101030e-01 -2.841485e-01
121 2 3 -1.455208e+00 -1.963096e+01 2.406945e+00 0 0 0 -7.650390e-01 -4.212163e-01 4.857785e-01 3.621330e-02
122 2 1 -1.696216e+00 1.981113e+01 2.435478e+00 0 -1 0 -8.352550e-01 -2.086616e-01 4.493782e-01 -2.384713e-01
123 2 4 -1.791914e+00 1.932086e+01 2.677862e+00 0 -1 0 -7.254780e-01 -3.257599e-02 4.925317e-01 -4.796176e-01
124 2 1 -1.924268e+00 1.902020e+01 3.031327e+00 0 -1 0 -6.206968e-01 5.615935e-02 3.847552e-01 -6.808414e-01
125 2 4 -1.984323e+00 1.884151e+01 3.482820e+00 0 -1 0 -4.597552e-01 1.191930e-01 3.118555e-01 -8.229000e-01
126 2 2 -2.240664e+00 1.890570e+01 4.004696e+00 0 -1 0 -1.385558e-01 2.946532e-01 2.924217e-01 -8.991503e-01
127 2 4 -2.614388e+00 1.903227e+01 4.427382e+00 0 -1 0 7.180081e-02 4.185226e-01 1.624637e-01 -8.906677e-01
128 2 4 -2.961603e+00 1.915307e+01 4.781386e+00 0 -1 0 2.770327e-01 4.656202e-01 2.336703e-02 -8.401813e-01
129 2 1 -3.474957e+00 1.916294e+01 4.856209e+00 0 -1 0 4.782509e-01 4.955268e-01 -1.531382e-01 -7.087157e-01
130 2 2 -3.972426e+00 1.910100e+01 4.772663e+00 0 -1 0 6.720539e-01 4.725871e-01 -3.426148e-01 -4.556535e-01
131 2 3 -4.391873e+00 1.883524e+01 4.651992e+00 0 -1 0 7.644080e-01 3.690677e-01 -4.789950e-01 -2.236811e-01
132 2 4 -4.865430e+00 1.842986e+01 4.686245e+00 0 -1 0 -8.323024e-01 -3.441226e-01 4.338231e-01 -2.549101e-02
133 2 4 -5.037296e+00 1.792474e+01 4.740248e+00 0 -1 0 -7.945701e-01 -1.534511e-01 4.970163e-01 -3.131866e-01
134 2 3 -5.144860e+00 1.745828e+01 5.097706e+00 0 -1 0 -7.328805e-01 -7.109879e-02 4.664511e-01 -4.901577e-01
135 2 4 -5.136584e+00 1.718857e+01 5.503665e+00 0 -1 0 5.331643e-01 -1.452376e-01 -4.493973e-01 7.019144e-01
136 2 3 -5.269368e+00 1.709835e+01 5.936889e+00 0 -1 0 2.491254e-01 -2.524923e-01 -2.784738e-01 8.925450e-01
137 2 1 -5.514791e+00 1.709805e+01 6.491058e+00 0 -1 0 -9.832935e-02 3.926630e-01 1.985227e-01 -8.926006e-01
138 2 3 -5.939216e+00 1.716444e+01 6.821040e+00 0 -1 0 1.301803e-01 5.191203e-01 1.395948e-01 -8.331149e-01
139 2 2 -6.457530e+00 1.712873e+01 6.983173e+00 0 -1 0 4.041144e-01 5.912740e-01 5.825891e-02 -6.954800e-01
140 2 3 -7.012855e+00 1.699367e+01 6.906114e+00 0 -1 0 6.006786e-01 6.136831e-01 -1.034974e-01 -5.018630e-01
141 2 1 -7.381128e+00 1.671125e+01 6.794879e+00 0 -1 0 7.631712e-01 5.341339e-01 -2.217952e-01 -2.882318e-01
142 2 2 -7.679287e+00 1.626315e+01 6.662483e+00 0 -1 0 8.094258e-01 5.152268e-01 -2.786768e-01 -4.135783e-02
143 2 4 -7.743483e+00 1.581186e+01 6.543152e+00 0 -1 0 -7.269230e-01 -4.487576e-01 4.695945e-01 -2.228912e-01
144 2 4 -7.738055e+00 1.525781e+01 6.616439e+00 0 -1 0 6.566970e-01 2.378376e-01 -5.472879e-01 4.611489e-01
145 2 1 -7.730336e+00 1.478099e+01 6.808744e+00 0 -1 0 5.568246e-01 2.196054e-01 -4.695680e-01 6.490191e-01
146 2 1 -7.598466e+00 1.432641e+01 7.259923e+00 0 -1 0 3.844518e-01 9.823996e-02 -4.121850e-01 8.201519e-01
147 2 1 -7.556257e+00 1.418783e+01 7.708516e+00 0 -1 0 8.699790e-02 -1.379039e-01 -3.721643e-01 9.137328e-01
148 2 2 -7.760087e+00 1.404665e+01 8.182824e+00 0 -1 0 -1.389997e-01 -2.965016e-01 -2.424592e-01 9.132247e-01
149 2 4 -8.081904e+00 1.395245e+01 8.588160e+00 0 -1 0 2.823254e-01 3.882855e-01 1.128645e-01 -8.699358e-01
150 2 1 -8.602568e+00 1.392195e+01 8.708808e+00 0 -1 0 6.233883e-01 4.685727e-01 -1.041467e-01 -6.172359e-01
151 2 1 -9.062834e+00 1.368203e+01 8.778618e+00 0 -1 0 5.844170e-01 6.058809e-01 -2.261084e-01 -4.901430e-01
152 2 1 -9.473663e+00 1.350785e+01 8.522940e+00 0 -1 0 7.231163e-01 5.229079e-01 -3.909354e-01 -2.254765e-01
153 2 4 -9.690066e+00 1.306176e+01 8.299628e+00 0 -1 0 7.209290e-01 4.196816e-01 -5.508076e-01 2.719821e-02
154 2 1 -9.900681e+00 1.249386e+01 8.280113e+00 0 -1 0 7.845380e-01 1.320483e-01 -5.724551e-01 1.983901e-01
155 2 2 -1.023934e+01 1.204432e+01 8.398603e+00 0 -1 0 7.522641e-01 -9.839025e-02 -5.385454e-01 3.665883e-01
156 2 4 -1.048761e+01 1.177194e+01 8.807431e+00 0 -1 0 6.749110e-01 -1.833648e-01 -3.573167e-01 6.190293e-01
157 2 3 -1.051494e+01 1.175748e+01 9.335706e+00 0 -1 0 4.411975e-01 -2.650632e-01 -2.413911e-01 8.226887e-01
158 2 2 -1.061478e+01 1.193008e+01 9.867532e+00 0 -1 0 1.842238e-01 -3.745332e-01 -1.026659e-01 9.029099e-01
159 2 1 -1.087266e+01 1.226175e+01 1.014476e+01 0 -1 0 4.941937e-02 -4.322672e-01 1.647868e-01 8.851825e-01
160 2 3 -1.118596e+01 1.260030e+01 1.029039e+01 0 -1 0 1.360125e-01 4.298133e-01 -3.792404e-01 -8.080457e-01
161 2 1 -1.162911e+01 1.295887e+01 1.018691e+01 0 -1 0 4.660071e-01 2.966361e-01 -5.103316e-01 -6.590949e-01
162 2 1 -1.210484e+01 1.310097e+01 1.019347e+01 0 -1 0 5.480992e-01 3.591627e-01 -5.539316e-01 -5.135652e-01
163 2 4 -1.259550e+01 1.313585e+01 1.000629e+01 0 -1 0 7.152216e-01 1.477535e-01 -5.935997e-01 -3.380331e-01
164 2 4 -1.305287e+01 1.301064e+01 1.001717e+01 0 -1 0 7.923951e-01 -6.928852e-02 -5.822782e-01 -1.681107e-01
165 2 3 -1.356126e+01 1.284553e+01 1.020126e+01 0 -1 0 7.912202e-01 -2.801466e-01 -5.383339e-01 7.539931e-02
166 2 3 -1.404578e+01 1.284705e+01 1.051877e+01 0 -1 0 7.251075e-01 -4.892908e-01 -4.378272e-01 2.076560e-01
167 2 4 -1.443730e+01 1.301411e+01 1.093515e+01 0 -1 0 6.429297e-01 -6.178322e-01 -1.788804e-01 4.158444e-01
168 2 2 -1.464419e+01 1.334826e+01 1.129411e+01 0 -1 0 5.869044e-01 -5.700081e-01 4.672341e-02 5.731064e-01
169 2 2 -1.471991e+01 1.383680e+01 1.150003e+01 0 -1 0 4.659508e-01 -5.920133e-01 2.410126e-01 6.118194e-01
170 2 1 -1.454315e+01 1.449713e+01 1.154968e+01 0 -1 0 2.319152e-01 -5.115378e-01 3.393060e-01 7.545965e-01
171 2 1 -1.472199e+01 1.499629e+01 1.141029e+01 0 -1 0 1.329396e-01 3.988963e-01 -5.218572e-01 -7.422088e-01
172 2 4 -1.485965e+01 1.536488e+01 1.116488e+01 0 -1 0 2.865366e-01 2.196982e-01 -7.212275e-01 -5.911517e-01
173 2 4 -1.522220e+01 1.564911e+01 1.089277e+01 0 -1 0 4.428733e-01 9.140039e-02 -7.591880e-01 -4.681268e-01
174 2 1 -1.566839e+01 1.590162e+01 1.063525e+01 0 -1 0 6.076099e-01 -9.135111e-02 -6.990427e-01 -3.657929e-01
175 2 1 -1.617934e+01 1.588336e+01 1.062860e+01 0 -1 0 7.170679e-01 -3.708112e-01 -5.832543e-01 -9.015083e-02
176 2 2 -1.664027e+01 1.612950e+01 1.084031e+01 0 -1 0 8.204864e-01 -4.109915e-01 -3.869903e-01 -9.014782e-02
177 2 2 -1.690757e+01 1.612416e+01 1.119793e+01 0 -1 0 7.440687e-01 -5.569104e-01 -2.781016e-01 2.426357e-01
178 2 1 -1.713280e+01 1.647108e+01 1.161851e+01 0 -1 0 6.692476e-01 -6.337296e-01 -5.973187e-02 3.833100e-01
179 2 4 -1.731470e+01 1.688038e+01 1.185168e+01 0 -1 0 5.260881e-01 -6.430853e-01 1.390953e-01 5.388183e-01
180 2 1 -1.740464e+01 1.744294e+01 1.198540e+01 0 -1 0 4.035158e-01 -6.359660e-01 3.206734e-01 5.743611e-01
181 2 4 -1.729168e+01 1.791276e+01 1.189437e+01 0 -1 0 -1.937839e-01 4.687900e-01 -5.741565e-01 -6.426725e-01
182 2 2 -1.723656e+01 1.834331e+01 1.155164e+01 0 -1 0 4.388914e-02 2.373097e-01 -6.932824e-01 -6.790563e-01
183 2 3 -1.748971e+01 1.880536e+01 1.139854e+01 0 -1 0 1.462704e-01 3.342712e-01 -6.985320e-01 -6.155655e-01
184 2 4 -1.772150e+01 1.899960e+01 1.089245e+01 0 -1 0 3.376427e-01 4.461075e-02 -8.175028e-01 -4.644312e-01
185 2 3 -1.803484e+01 1.914187e+01 1.053106e+01 0 -1 0 4.356748e-01 -1.325580e-01 -8.369159e-01 -3.036242e-01
186 2 1 -1.852145e+01 1.914294e+01 1.038774e+01 0 -1 0 5.176816e-01 -2.892423e-01 -7.958065e-01 -1.226241e-01
187 2 1 -1.906989e+01 1.924153e+01 1.034459e+01 0 -1 0 6.195252e-01 -4.990270e-01 -6.046870e-01 3.891291e-02
188 2 2 -1.954787e+01 1.938923e+01 1.056891e+01 0 -1 0 5.826820e-01 -6.447736e-01 -3.606982e-01 3.385934e-01
189 2 4 -1.998613e+01 1.970737e+01 1.064003e+01 0 -1 0 6.420915e-01 -6.615468e-01 -2.322601e-01 3.100478e-01
190 2 4 1.985723e+01 2.004269e+01 1.099444e+01 -1 -1 0 -3.762264e-01 7.319142e-01 -2.460827e-02 -5.675824e-01
191 2 1 1.969914e+01 -1.948005e+01 1.103788e+01 -1 0 0 -1.772877e-01 7.025809e-01 -2.376368e-01 -6.468987e-01
192 2 4 1.948172e+01 -1.905135e+01 1.090521e+01 -1 0 0 -3.872296e-02 -6.242664e-01 4.379817e-01 6.457275e-01
193 2 4 1.931021e+01 -1.876399e+01 1.048197e+01 -1 0 0 -2.717376e-01 -4.020726e-01 6.241868e-01 6.122803e-01
194 2 1 1.898120e+01 -1.850982e+01 1.025738e+01 -1 0 0 -4.483760e-01 -2.269673e-01 7.464024e-01 4.362662e-01
195 2 3 1.858867e+01 -1.768511e+01 1.020030e+01 -1 0 0 -2.197902e-01 -8.877935e-01 -7.526226e-02 3.973042e-01
196 2 4 1.832559e+01 -1.760665e+01 9.833687e+00 -1 0 0 -2.458475e-01 -8.311749e-01 3.109218e-01 3.899165e-01
197 2 2 1.815946e+01 -1.755766e+01 9.434887e+00 -1 0 0 3.466787e-01 6.157077e-01 -6.666098e-01 -2.373801e-01
198 2 4 1.801383e+01 -1.711699e+01 9.134076e+00 -1 0 0 -7.779693e-01 3.700311e-01 -4.989115e-01 9.448866e-02
199 2 3 1.698729e+01 -1.631481e+01 8.658189e+00 -1 0 0 -4.037434e-01 -2.621980e-01 -4.653154e-01 7.427820e-01
200 2 4 1.807394e+01 -1.537847e+01 8.139709e+00 -1 0 0 -6.120273e-01 -7.161848e-01 -2.391715e-01 -2.351573e-01
