ITEM: TIMESTEP
25000000
ITEM: NUMBER OF ATOMS
200
ITEM: BOX BOUNDS pp pp pp
-2.0000000000000000e+01 2.0000000000000000e+01
-2.0000000000000000e+01 2.0000000000000000e+01
-2.0000000000000000e+01 2.0000000000000000e+01
ITEM: ATOMS id mol type x y z ix iy iz c_quat[1] c_quat[2] c_quat[3] c_quat[4]
1 1 1 1.182542e+01 1.850768e+01 1.337007e+01 -1 -1 0 3.501785e-01 7.030667e-01 -5.976746e-01 -1.608022e-01
2 1 2 1.105192e+01 1.803243e+01 1.426860e+01 -1 -1 0 4.760834e-01 2.230624e-01 -8.494196e-01 4.554298e-02
3 1 1 1.177625e+01 1.768272e+01 1.466613e+01 -1 -1 0 -1.323220e-01 5.215926e-01 -8.000298e-01 2.653006e-01
4 1 3 1.268826e+01 1.763836e+01 1.409389e+01 -1 -1 0 -6.308023e-02 -8.194617e-01 5.689576e-01 -2.811805e-02
5 1 1 1.297973e+01 1.760860e+01 1.373179e+01 -1 -1 0 5.942259e-02 4.731424e-01 -8.788847e-01 -1.292089e-02
6 1 2 1.335827e+01 1.781790e+01 1.412223e+01 -1 -1 0 4.789220e-01 -7.451059e-01 -4.260636e-01 1.841758e-01
7 1 4 1.368875e+01 1.691695e+01 1.323261e+01 -1 -1 0 -4.002851e-01 -4.125177e-01 8.129417e-01 -9.341744e-02
8 1 1 1.397735e+01 1.685582e+01 1.291005e+01 -1 -1 0 -6.532893e-01 8.776608e-03 -5.548396e-01 5.150622e-01
9 1 1 1.483602e+01 1.729553e+01 1.263091e+01 -1 -1 0 -3.249833e-01 -8.192640e-01 -3.545469e-01 -3.122321e-01
10 1 4 1.520873e+01 1.735676e+01 1.219456e+01 -1 -1 0 2.591133e-01 8.374544e-01 4.393336e-02 4.791663e-01
11 1 1 1.561966e+01 1.751441e+01 1.199733e+01 -1 -1 0 1.775232e-03 -8.573851e-01 1.553868e-01 -4.906553e-01
12 1 1 1.617225e+01 1.761483e+01 1.178331e+01 -1 -1 0 -1.034872e-01 7.948010e-01 -2.276372e-01 5.529585e-01
13 1 3 1.669394e+01 1.768995e+01 1.186385e+01 -1 -1 0 -2.194851e-01 6.271998e-01 -4.949719e-01 5.598656e-01
14 1 4 1.719627e+01 1.764922e+01 1.192834e+01 -1 -1 0 -3.594970e-01 4.350829e-01 -6.532459e-01 5.047124e-01
15 1 4 1.747559e+01 1.737385e+01 1.228841e+01 -1 -1 0 6.143535e-01 -1.469399e-01 7.059504e-01 -3.203318e-01
16 1 2 1.781786e+01 1.691580e+01 1.237444e+01 -1 -1 0 6.100112e-01 -3.743128e-02 7.723871e-01 -1.729256e-01
17 1 1 1.819764e+01 1.660535e+01 1.227611e+01 -1 -1 0 -5.864979e-01 -2.412119e-01 -7.631665e-01 1.241527e-01
18 1 2 1.840563e+01 1.621927e+01 1.205927e+01 -1 -1 0 -5.649141e-01 -4.734769e-01 -6.757713e-01 4.984390e-03
19 1 3 1.860175e+01 1.581826e+01 1.166511e+01 -1 -1 0 -4.958734e-01 -6.543475e-01 -5.624939e-01 -9.767034e-02
20 1 1 1.882179e+01 1.575393e+01 1.117077e+01 -1 -1 0 -4.305701e-01 -7.703545e-01 -2.103231e-01 -4.206274e-01
21 1 4 1.924063e+01 1.575347e+01 1.083875e+01 -1 -1 0 1.855697e-01 8.075191e-01 3.075331e-02 5.590447e-01
22 1 1 1.978877e+01 1.578797e+01 1.064252e+01 -1 -1 0 4.498254e-02 7.743289e-01 7.310339e-02 6.269347e-01
23 1 4 -1.973558e+01 1.610144e+01 1.062194e+01 0 -1 0 -1.276770e-01 6.921429e-01 -2.616406e-01 6.604400e-01
24 1 3 -1.922348e+01 1.610041e+01 1.088378e+01 0 -1 0 -3.254901e-01 5.570569e-01 -4.560450e-01 6.129982e-01
25 1 3 -1.875846e+01 1.605261e+01 1.108513e+01 0 -1 0 -4.284840e-01 3.119987e-01 -7.178818e-01 4.513359e-01
26 1 4 -1.845238e+01 1.576267e+01 1.123370e+01 0 -1 0 -5.803876e-01 7.026745e-02 -7.189274e-01 3.759736e-01
27 1 4 -1.813418e+01 1.531470e+01 1.134155e+01 0 -1 0 -6.196751e-01 -1.581584e-01 -7.534921e-01 1.524414e-01
28 1 1 -1.795785e+01 1.493929e+01 1.110292e+01 0 -1 0 -5.963061e-01 -4.915701e-01 -6.309546e-01 -6.836720e-02
29 1 1 -1.771655e+01 1.465842e+01 1.077517e+01 0 -1 0 -5.210506e-01 -6.439909e-01 -4.907564e-01 -2.700744e-01
30 1 4 -1.741117e+01 1.458579e+01 1.036517e+01 0 -1 0 3.204899e-01 8.027359e-01 2.600625e-01 4.304287e-01
31 1 4 -1.699849e+01 1.451439e+01 9.985280e+00 0 -1 0 1.494770e-01 7.640095e-01 2.830603e-01 5.601990e-01
32 1 3 -1.661015e+01 1.485282e+01 9.819421e+00 0 -1 0 -9.423277e-02 8.076286e-01 1.689808e-01 5.570473e-01
33 1 3 -1.627291e+01 1.530171e+01 9.766898e+00 0 -1 0 -2.426503e-01 7.988563e-01 -2.283845e-01 5.007894e-01
34 1 1 -1.581760e+01 1.557777e+01 9.990086e+00 0 -1 0 -3.816087e-01 7.075247e-01 -4.827519e-01 3.474682e-01
35 1 2 -1.527154e+01 1.566476e+01 9.957314e+00 0 -1 0 -4.836752e-01 4.934106e-01 -5.887438e-01 4.195058e-01
36 1 2 -1.481105e+01 1.557683e+01 1.012703e+01 0 -1 0 -5.339997e-01 2.575171e-01 -7.559749e-01 2.775450e-01
37 1 1 -1.429411e+01 1.524225e+01 1.002805e+01 0 -1 0 -4.793562e-01 7.643231e-02 -8.706038e-01 8.015395e-02
38 1 1 -1.401204e+01 1.496172e+01 9.809412e+00 0 -1 0 -5.257864e-01 -1.996977e-01 -8.256834e-01 -4.377696e-02
39 1 4 -1.362628e+01 1.478756e+01 9.522121e+00 0 -1 0 3.581042e-01 3.522446e-01 8.591019e-01 9.812736e-02
40 1 4 -1.355192e+01 1.460921e+01 9.070216e+00 0 -1 0 2.709229e-01 6.358173e-01 7.006176e-01 1.774038e-01
41 1 2 -1.343994e+01 1.455804e+01 8.511353e+00 0 -1 0 1.884707e-01 7.869905e-01 4.909497e-01 3.226347e-01
42 1 4 -1.323432e+01 1.484222e+01 8.024084e+00 0 -1 0 4.978981e-02 8.777554e-01 1.473482e-01 4.531611e-01
43 1 3 -1.296012e+01 1.520888e+01 7.814662e+00 0 -1 0 -1.316270e-01 8.919187e-01 -1.007848e-01 4.207110e-01
44 1 2 -1.254937e+01 1.553196e+01 7.827770e+00 0 -1 0 -3.813757e-01 7.879262e-01 -3.141553e-01 3.674661e-01
45 1 1 -1.208170e+01 1.573430e+01 7.833116e+00 0 -1 0 -4.792584e-01 6.250397e-01 -5.134343e-01 3.406200e-01
46 1 3 -1.159213e+01 1.581856e+01 7.813451e+00 0 -1 0 -4.794412e-01 4.301836e-01 -7.166432e-01 2.673963e-01
47 1 4 -1.113335e+01 1.563133e+01 7.777719e+00 0 -1 0 -5.631473e-01 1.787852e-01 -7.857510e-01 1.830203e-01
48 1 1 -1.075022e+01 1.525636e+01 7.676626e+00 0 -1 0 6.119973e-01 1.747210e-01 7.709348e-01 2.432100e-02
49 1 4 -1.031352e+01 1.501095e+01 7.411843e+00 0 -1 0 5.203746e-01 2.915585e-01 7.866405e-01 1.593757e-01
50 1 4 -1.001343e+01 1.488387e+01 7.024673e+00 0 -1 0 3.353946e-01 5.466207e-01 6.863085e-01 3.430698e-01
51 1 4 -9.874586e+00 1.506414e+01 6.512538e+00 0 -1 0 1.617725e-01 7.337063e-01 4.938804e-01 4.377063e-01
52 1 1 -9.610279e+00 1.537569e+01 6.129751e+00 0 -1 0 -3.714200e-02 8.288690e-01 2.162552e-01 5.146166e-01
53 1 3 -9.181750e+00 1.577506e+01 5.821384e+00 0 -1 0 -1.263999e-01 7.817405e-01 7.789079e-02 6.056714e-01
54 1 4 -8.887401e+00 1.615145e+01 5.818286e+00 0 -1 0 -3.812648e-01 7.490319e-01 -2.155495e-01 4.971185e-01
55 1 4 -8.515458e+00 1.652752e+01 6.081053e+00 0 -1 0 -4.828785e-01 6.619670e-01 -4.521753e-01 3.523713e-01
56 1 4 -7.967503e+00 1.655577e+01 6.122937e+00 0 -1 0 -4.732975e-01 5.486595e-01 -5.844260e-01 3.652512e-01
57 1 1 -7.492048e+00 1.646153e+01 6.279912e+00 0 -1 0 -5.830656e-01 3.116346e-01 -7.368518e-01 1.413076e-01
58 1 1 -6.927519e+00 1.625191e+01 6.144369e+00 0 -1 0 -5.317859e-01 8.352249e-02 -8.366958e-01 1.008359e-01
59 1 3 -6.553481e+00 1.598084e+01 5.803237e+00 0 -1 0 4.261914e-01 2.423297e-01 8.566323e-01 1.606807e-01
60 1 4 -6.418333e+00 1.582136e+01 5.269322e+00 0 -1 0 2.505553e-01 5.230626e-01 7.793595e-01 2.371210e-01
61 1 2 -6.306291e+00 1.581000e+01 4.775702e+00 0 -1 0 7.577520e-02 7.050845e-01 6.593890e-01 2.496397e-01
62 1 3 -6.251292e+00 1.606655e+01 4.214178e+00 0 -1 0 1.817651e-02 7.814124e-01 4.851437e-01 3.920458e-01
63 1 2 -6.150491e+00 1.644454e+01 3.883700e+00 0 -1 0 -5.724012e-02 9.045892e-01 1.889640e-01 3.778023e-01
64 1 4 -5.808359e+00 1.688609e+01 3.573246e+00 0 -1 0 -2.437795e-01 8.750928e-01 1.342849e-02 4.178563e-01
65 1 2 -5.391893e+00 1.724557e+01 3.528033e+00 0 -1 0 -3.534673e-01 7.768108e-01 -3.411898e-01 3.939738e-01
66 1 1 -4.997446e+00 1.744311e+01 3.778721e+00 0 -1 0 -5.593413e-01 5.936226e-01 -5.481919e-01 1.850274e-01
67 1 2 -4.479931e+00 1.754083e+01 3.894436e+00 0 -1 0 -5.423769e-01 4.076501e-01 -7.346037e-01 2.453785e-03
68 1 1 -4.057413e+00 1.745428e+01 3.737323e+00 0 -1 0 -5.582926e-01 6.763244e-02 -8.257986e-01 -4.233122e-02
69 1 1 -3.602920e+00 1.731517e+01 3.438470e+00 0 -1 0 -4.167100e-01 -1.312219e-01 -8.870451e-01 -1.492805e-01
70 1 2 -3.286781e+00 1.713315e+01 3.029402e+00 0 -1 0 3.497518e-01 2.960856e-01 8.752639e-01 1.546609e-01
71 1 3 -3.092130e+00 1.708530e+01 2.512186e+00 0 -1 0 1.076404e-01 4.563314e-01 8.427512e-01 2.644724e-01
72 1 4 -3.128012e+00 1.716934e+01 1.926174e+00 0 -1 0 -2.480671e-02 7.316058e-01 6.129666e-01 2.973375e-01
73 1 1 -3.023796e+00 1.744673e+01 1.465045e+00 0 -1 0 -2.127881e-01 7.813709e-01 5.008757e-01 3.054576e-01
74 1 1 -3.218054e+00 1.790313e+01 1.184067e+00 0 -1 0 -3.691398e-01 8.644776e-01 2.400208e-01 2.424958e-01
75 1 3 -3.174779e+00 1.844302e+01 1.152189e+00 0 -1 0 -4.452176e-01 8.759905e-01 -4.183829e-02 1.807527e-01
76 1 1 -2.963851e+00 1.892510e+01 1.036329e+00 0 -1 0 -3.791272e-01 8.654190e-01 -3.243180e-01 4.615544e-02
77 1 4 -2.579300e+00 1.919939e+01 9.773957e-01 0 -1 0 -4.645645e-01 6.268765e-01 -6.181417e-01 -9.542871e-02
78 1 1 -2.221419e+00 1.950785e+01 7.278196e-01 0 -1 0 -4.462662e-01 5.169513e-01 -7.304098e-01 -1.046249e-02
79 1 4 -1.784063e+00 1.953106e+01 4.647255e-01 0 -1 0 -4.229861e-01 2.629952e-01 -8.485429e-01 -1.785811e-01
80 1 2 -1.401035e+00 1.945756e+01 2.065931e-01 0 -1 0 3.628669e-01 2.421176e-02 9.025494e-01 2.305342e-01
81 1 4 -1.225899e+00 1.929495e+01 -3.032141e-01 0 -1 0 2.790449e-01 3.985409e-01 7.872732e-01 3.788140e-01
82 1 4 -9.634120e-01 1.950329e+01 -7.461297e-01 0 -1 0 9.716593e-02 4.878145e-01 7.502253e-01 4.356120e-01
83 1 4 -9.075265e-01 1.978843e+01 -1.162408e+00 0 -1 0 -8.687231e-02 6.765046e-01 6.072759e-01 4.074442e-01
84 1 4 -9.312553e-01 -1.975839e+01 -1.455721e+00 0 0 0 -2.536377e-01 8.097949e-01 3.267276e-01 4.161120e-01
85 1 1 -9.080512e-01 -1.922350e+01 -1.549379e+00 0 0 0 -4.374286e-01 8.176426e-01 8.483095e-02 3.645827e-01
86 1 1 -7.461980e-01 -1.876039e+01 -1.584355e+00 0 0 0 -5.169441e-01 7.899826e-01 -1.713157e-01 2.816864e-01
87 1 3 -3.447397e-01 -1.841029e+01 -1.521106e+00 0 0 0 -5.811271e-01 6.426207e-01 -4.175889e-01 2.737688e-01
88 1 2 1.383170e-01 -1.825326e+01 -1.415592e+00 0 0 0 -5.591446e-01 5.319915e-01 -6.232692e-01 1.260076e-01
89 1 2 6.496689e-01 -1.823958e+01 -1.350979e+00 0 0 0 5.635232e-01 -2.535076e-01 7.782825e-01 1.115880e-01
90 1 3 1.138937e+00 -1.828260e+01 -1.532710e+00 0 0 0 -4.808931e-01 3.861105e-02 -8.710633e-01 -9.219399e-02
91 1 3 2.160646e+00 -1.738930e+01 -1.776138e+00 0 0 0 -1.324995e-01 9.649771e-01 -1.939612e-01 -1.167997e-01
92 1 2 1.577229e+00 -1.882991e+01 -2.079054e+00 0 0 0 6.661899e-01 2.269582e-01 -5.156446e-01 -4.886631e-01
93 1 1 2.183689e+00 -1.797693e+01 -2.679498e+00 0 0 0 -3.264776e-01 -3.308735e-01 -5.981022e-01 -6.528467e-01
94 1 2 2.472643e+00 -1.747493e+01 -2.811106e+00 0 0 0 9.194034e-04 4.655283e-01 4.293548e-01 7.739102e-01
95 1 3 2.538204e+00 -1.702622e+01 -2.865554e+00 0 0 0 2.366179e-01 -6.643299e-01 -1.481452e-01 -6.933475e-01
96 1 2 2.452269e+00 -1.699332e+01 -3.285082e+00 0 0 0 5.662023e-01 5.518928e-01 -2.377208e-01 -5.641968e-01
97 1 2 2.781585e+00 -1.624096e+01 -2.706078e+00 0 0 0 2.315206e-01 -7.185375e-01 6.557678e-01 -8.408625e-03
98 1 4 2.766419e+00 -1.587570e+01 -3.123792e+00 0 0 0 7.938213e-01 2.059183e-01 -4.417687e-01 -3.637113e-01
99 1 2 2.266331e+00 -1.522732e+01 -4.170854e+00 0 0 0 -5.760760e-01 -6.062034e-01 -4.501750e-01 3.130435e-01
100 1 1 1.822460e+00 -1.465064e+01 -3.172870e+00 0 0 0 -4.199844e-02 -3.182177e-01 4.506623e-01 -8.329928e-01
101 2 4 -1.168945e+00 -1.649407e+01 -7.072300e+00 0 0 0 2.024489e-01 7.105178e-01 -6.738005e-01 -1.310677e-02
102 2 3 -8.371843e-01 -1.612266e+01 -6.041209e+00 0 0 0 6.129687e-01 2.393855e-01 -6.090717e-01 4.427139e-01
103 2 1 -8.627062e-01 -1.652573e+01 -5.735578e+00 0 0 0 -3.413930e-01 4.974113e-02 7.133765e-01 -6.099759e-01
104 2 3 -9.677389e-01 -1.685659e+01 -5.431297e+00 0 0 0 -5.531267e-03 -2.584432e-01 -6.126346e-01 7.468971e-01
105 2 3 -4.120487e-01 -1.719228e+01 -5.047468e+00 0 0 0 -6.812390e-01 -4.437740e-01 5.129656e-01 2.753985e-01
106 2 2 -2.607182e-01 -1.718748e+01 -4.418840e+00 0 0 0 -6.225662e-01 7.030199e-01 2.157518e-01 -2.676294e-01
107 2 3 -9.902924e-01 -1.813596e+01 -4.593923e+00 0 0 0 4.486011e-01 -3.985445e-02 8.730290e-01 1.870535e-01
108 2 4 -3.513589e-01 -1.777254e+01 -3.871511e+00 0 0 0 3.254011e-01 8.340237e-01 2.753897e-01 3.502557e-01
109 2 3 2.807715e-01 -1.734153e+01 -3.721134e+00 0 0 0 -5.635620e-01 2.413133e-01 1.842133e-02 -7.898268e-01
110 2 2 1.556421e-01 -1.699760e+01 -3.394606e+00 0 0 0 -3.188063e-01 2.100254e-01 -1.813221e-01 -9.062970e-01
111 2 2 5.275637e-01 -1.832309e+01 -2.536305e+00 0 0 0 -8.502550e-01 -2.674275e-01 4.315717e-01 -1.389061e-01
112 2 3 4.363309e-01 -1.878243e+01 -2.332320e+00 0 0 0 -7.560881e-01 -1.525729e-01 4.393351e-01 -4.604747e-01
113 2 3 4.017454e-01 -1.921624e+01 -1.974290e+00 0 0 0 -6.285014e-01 8.413358e-02 4.383642e-01 -6.369807e-01
114 2 2 3.051652e-01 -1.940923e+01 -1.547097e+00 0 0 0 -4.120244e-01 2.076461e-01 3.674653e-01 -8.075198e-01
115 2 4 1.292144e-01 -1.938500e+01 -1.103608e+00 0 0 0 -2.089130e-01 3.116552e-01 2.574389e-01 -8.904783e-01
116 2 4 -1.278039e-01 -1.930264e+01 -6.505296e-01 0 0 0 8.971785e-02 4.113553e-01 2.634027e-01 -8.679612e-01
117 2 1 -5.871468e-01 -1.937568e+01 -4.068523e-01 0 0 0 2.183210e-01 5.542463e-01 1.403437e-01 -7.908544e-01
118 2 1 -1.067589e+00 -1.928634e+01 -3.720648e-01 0 0 0 5.215266e-01 5.491812e-01 -5.418824e-02 -6.507485e-01
119 2 1 -1.610997e+00 -1.940705e+01 -4.389372e-01 0 0 0 7.024863e-01 5.039807e-01 -2.400928e-01 -4.414429e-01
120 2 1 -2.010543e+00 -1.976753e+01 -5.922651e-01 0 0 0 7.900566e-01 4.819891e-01 -3.072452e-01 -2.215796e-01
121 2 3 -2.252252e+00 1.971429e+01 -5.892577e-01 0 -1 0 -8.117175e-01 -4.354407e-01 3.870054e-01 -4.162903e-02
122 2 1 -2.395476e+00 1.915442e+01 -4.715294e-01 0 -1 0 -8.271982e-01 -2.385404e-01 3.798190e-01 -3.384955e-01
123 2 4 -2.356649e+00 1.861162e+01 -2.276255e-01 0 -1 0 -7.444023e-01 -1.568811e-01 3.933326e-01 -5.162780e-01
124 2 1 -2.304063e+00 1.827492e+01 2.863216e-01 0 -1 0 -6.037935e-01 -9.605860e-02 3.173205e-01 -7.249234e-01
125 2 4 -2.098189e+00 1.816367e+01 7.780930e-01 0 -1 0 -2.929367e-01 3.919600e-02 3.256068e-01 -8.981269e-01
126 2 2 -2.007249e+00 1.816144e+01 1.382319e+00 0 -1 0 -1.081054e-01 6.204603e-02 2.600053e-01 -9.575285e-01
127 2 4 -2.180937e+00 1.809343e+01 1.858455e+00 0 -1 0 7.514104e-02 3.122355e-01 1.395704e-01 -9.366872e-01
128 2 4 -2.558381e+00 1.819381e+01 2.278668e+00 0 -1 0 3.790046e-01 3.551822e-01 5.762516e-02 -8.525728e-01
129 2 1 -2.974183e+00 1.817597e+01 2.522734e+00 0 -1 0 5.305671e-01 4.152908e-01 -9.356402e-02 -7.329924e-01
130 2 2 -3.472081e+00 1.817090e+01 2.527302e+00 0 -1 0 6.460870e-01 4.536636e-01 -2.940550e-01 -5.387881e-01
131 2 3 -3.928787e+00 1.794631e+01 2.472863e+00 0 -1 0 8.163096e-01 3.313094e-01 -4.011913e-01 -2.508351e-01
132 2 4 -4.313617e+00 1.765829e+01 2.493393e+00 0 -1 0 -8.442870e-01 -2.768534e-01 4.553945e-01 5.610224e-02
133 2 4 -4.452716e+00 1.721953e+01 2.690111e+00 0 -1 0 -8.043516e-01 -1.651310e-01 4.979968e-01 -2.788360e-01
134 2 3 -4.532423e+00 1.676279e+01 2.946605e+00 0 -1 0 -6.780565e-01 5.616747e-03 4.912037e-01 -5.467420e-01
135 2 4 -4.547719e+00 1.648350e+01 3.327163e+00 0 -1 0 4.225517e-01 -9.419590e-02 -4.936676e-01 7.542344e-01
136 2 3 -4.757403e+00 1.633968e+01 3.813438e+00 0 -1 0 2.805206e-01 -2.959796e-01 -3.580513e-01 8.399425e-01
137 2 1 -5.037932e+00 1.648458e+01 4.308566e+00 0 -1 0 -1.469586e-01 3.501785e-01 1.572922e-01 -9.116125e-01
138 2 3 -5.332557e+00 1.684131e+01 4.621278e+00 0 -1 0 2.363729e-01 3.079080e-01 -1.302617e-02 -9.214938e-01
139 2 2 -5.897432e+00 1.692244e+01 4.983331e+00 0 -1 0 3.866396e-01 4.165437e-01 3.463341e-02 -8.220716e-01
140 2 3 -6.393357e+00 1.695698e+01 5.038072e+00 0 -1 0 6.193664e-01 3.807401e-01 -1.743259e-01 -6.641029e-01
141 2 1 -6.953631e+00 1.682038e+01 4.974656e+00 0 -1 0 8.067215e-01 2.882103e-01 -2.890963e-01 -4.272689e-01
142 2 2 -7.279094e+00 1.656322e+01 5.076932e+00 0 -1 0 8.859822e-01 2.159898e-01 -3.814778e-01 -1.511909e-01
143 2 4 -7.524580e+00 1.612725e+01 5.068681e+00 0 -1 0 -8.635118e-01 -1.348923e-01 4.590117e-01 -1.595608e-01
144 2 4 -7.703928e+00 1.570943e+01 5.401317e+00 0 -1 0 8.163263e-01 -3.083120e-02 -4.188064e-01 3.965628e-01
145 2 1 -7.828624e+00 1.542488e+01 5.802818e+00 0 -1 0 6.321785e-01 -1.532645e-01 -3.847867e-01 6.548278e-01
146 2 1 -8.167064e+00 1.540412e+01 6.206516e+00 0 -1 0 4.415765e-01 -3.887660e-01 -3.151241e-01 7.446932e-01
147 2 1 -8.468513e+00 1.538286e+01 6.637053e+00 0 -1 0 3.248684e-01 -4.902723e-01 -1.500654e-01 7.947163e-01
148 2 2 -8.800166e+00 1.571377e+01 6.949337e+00 0 -1 0 6.931612e-02 -5.525872e-01 4.128014e-02 8.295412e-01
149 2 4 -9.255831e+00 1.598758e+01 7.053352e+00 0 -1 0 2.109217e-01 5.235275e-01 -1.958886e-01 -8.019094e-01
150 2 1 -9.741182e+00 1.615912e+01 7.010801e+00 0 -1 0 4.344788e-01 5.327994e-01 -3.695633e-01 -6.251207e-01
151 2 1 -1.020503e+01 1.612276e+01 6.830850e+00 0 -1 0 6.069119e-01 4.439762e-01 -4.955674e-01 -4.346908e-01
152 2 1 -1.065711e+01 1.578144e+01 6.592852e+00 0 -1 0 7.361498e-01 2.725228e-01 -5.683612e-01 -2.465366e-01
153 2 4 -1.110761e+01 1.542584e+01 6.608167e+00 0 -1 0 8.170686e-01 1.647234e-01 -5.517813e-01 2.832749e-02
154 2 1 -1.144545e+01 1.500320e+01 6.855602e+00 0 -1 0 7.951638e-01 -1.483706e-02 -5.174190e-01 3.158669e-01
155 2 2 -1.168778e+01 1.472793e+01 7.270593e+00 0 -1 0 7.377705e-01 -1.900635e-01 -4.570154e-01 4.590289e-01
156 2 4 -1.180034e+01 1.456331e+01 7.805079e+00 0 -1 0 5.366144e-01 -2.720907e-01 -3.338694e-01 7.256327e-01
157 2 3 -1.201515e+01 1.457547e+01 8.293181e+00 0 -1 0 4.448333e-01 -3.498078e-01 -2.111768e-01 7.969706e-01
158 2 2 -1.225492e+01 1.486924e+01 8.691660e+00 0 -1 0 1.808227e-01 -4.456061e-01 2.119237e-02 8.765211e-01
159 2 1 -1.252639e+01 1.532462e+01 8.910531e+00 0 -1 0 -1.196011e-01 -4.317049e-01 1.731840e-01 8.771167e-01
160 2 3 -1.296547e+01 1.557272e+01 8.967107e+00 0 -1 0 3.812110e-01 4.072114e-01 -3.378025e-01 -7.581204e-01
161 2 1 -1.348129e+01 1.578096e+01 8.912707e+00 0 -1 0 6.189429e-01 2.906273e-01 -4.396969e-01 -5.823334e-01
162 2 1 -1.400999e+01 1.574311e+01 8.924723e+00 0 -1 0 6.793720e-01 4.156625e-01 -4.178987e-01 -4.370802e-01
163 2 4 -1.445967e+01 1.543833e+01 8.839155e+00 0 -1 0 7.987033e-01 1.881875e-01 -5.463701e-01 -1.677443e-01
164 2 4 -1.492911e+01 1.508491e+01 9.053131e+00 0 -1 0 8.497470e-01 1.505516e-01 -5.033104e-01 4.407815e-02
165 2 3 -1.517312e+01 1.470944e+01 9.348743e+00 0 -1 0 8.200649e-01 -1.020832e-01 -4.533646e-01 3.339658e-01
166 2 3 -1.531383e+01 1.447430e+01 9.815596e+00 0 -1 0 5.964556e-01 -2.964141e-01 -3.754009e-01 6.445568e-01
167 2 4 -1.548780e+01 1.444792e+01 1.028246e+01 0 -1 0 4.017328e-01 -4.499025e-01 -3.118887e-01 7.341144e-01
168 2 2 -1.587210e+01 1.455975e+01 1.065037e+01 0 -1 0 3.004375e-01 -5.124721e-01 -1.527794e-01 7.897899e-01
169 2 2 -1.616706e+01 1.487756e+01 1.090529e+01 0 -1 0 4.875540e-02 -5.652511e-01 1.125199e-01 8.157533e-01
170 2 1 -1.663036e+01 1.522038e+01 1.098760e+01 0 -1 0 -8.203583e-02 -5.989033e-01 2.736994e-01 7.481134e-01
171 2 1 -1.704007e+01 1.559125e+01 1.082179e+01 0 -1 0 3.081637e-01 5.547254e-01 -4.451737e-01 -6.317715e-01
172 2 4 -1.736484e+01 1.573529e+01 1.046565e+01 0 -1 0 5.381539e-01 3.113972e-01 -6.420279e-01 -4.485781e-01
173 2 4 -1.783460e+01 1.566711e+01 1.019666e+01 0 -1 0 6.609985e-01 2.394522e-01 -6.861952e-01 -1.867612e-01
174 2 1 -1.830432e+01 1.537973e+01 1.013625e+01 0 -1 0 7.701267e-01 2.127481e-02 -6.375297e-01 2.835816e-03
175 2 1 -1.877127e+01 1.505595e+01 1.031855e+01 0 -1 0 7.867218e-01 -1.715364e-01 -5.427762e-01 2.388266e-01
176 2 2 -1.919176e+01 1.496395e+01 1.069764e+01 0 -1 0 7.448387e-01 -3.483475e-01 -4.321263e-01 3.703192e-01
177 2 2 -1.944976e+01 1.501620e+01 1.112556e+01 0 -1 0 6.297387e-01 -4.355137e-01 -2.726982e-01 5.825741e-01
178 2 1 -1.974095e+01 1.527080e+01 1.155090e+01 0 -1 0 4.117730e-01 -5.615087e-01 -7.329245e-02 7.139883e-01
179 2 4 1.985421e+01 1.565196e+01 1.182291e+01 -1 -1 0 3.135998e-01 -6.301534e-01 1.185588e-01 7.003610e-01
180 2 1 1.969593e+01 1.613601e+01 1.187588e+01 -1 -1 0 -2.611515e-02 -5.625432e-01 3.710854e-01 7.383487e-01
181 2 4 1.952510e+01 1.657514e+01 1.161555e+01 -1 -1 0 1.979606e-01 3.980964e-01 -6.228761e-01 -6.437051e-01
182 2 2 1.912327e+01 1.689683e+01 1.136893e+01 -1 -1 0 4.248447e-01 2.550550e-01 -6.885145e-01 -5.295297e-01
183 2 3 1.858681e+01 1.708003e+01 1.124490e+01 -1 -1 0 6.292754e-01 1.608068e-01 -6.400544e-01 -4.104681e-01
184 2 4 1.807071e+01 1.701851e+01 1.113024e+01 -1 -1 0 7.363978e-01 1.661640e-02 -6.489145e-01 -1.906624e-01
185 2 3 1.756022e+01 1.682973e+01 1.119477e+01 -1 -1 0 7.996744e-01 -2.256071e-02 -5.978024e-01 5.142122e-02
186 2 1 1.714810e+01 1.660641e+01 1.148770e+01 -1 -1 0 8.145982e-01 -1.788765e-01 -4.776133e-01 2.762580e-01
187 2 1 1.680201e+01 1.644740e+01 1.185120e+01 -1 -1 0 7.084838e-01 -3.727324e-01 -4.128383e-01 4.343798e-01
188 2 2 1.651070e+01 1.658065e+01 1.224777e+01 -1 -1 0 6.207359e-01 -4.404290e-01 -2.581479e-01 5.950369e-01
189 2 4 1.632194e+01 1.687731e+01 1.268249e+01 -1 -1 0 4.396435e-01 -4.499732e-01 -4.455074e-02 7.760496e-01
190 2 4 1.608426e+01 1.726533e+01 1.301064e+01 -1 -1 0 -2.562596e-01 5.393613e-01 -1.196556e-01 -7.931601e-01
191 2 1 1.588026e+01 1.773876e+01 1.311512e+01 -1 -1 0 -5.066754e-02 4.628049e-01 -3.660145e-01 -8.057778e-01
192 2 4 1.557210e+01 1.814001e+01 1.297080e+01 -1 -1 0 -2.594529e-01 -3.441563e-01 4.787766e-01 7.648619e-01
193 2 4 1.607905e+01 1.932207e+01 1.307250e+01 -1 -1 0 2.578897e-02 8.623953e-01 3.123239e-01 -3.975715e-01
194 2 1 1.606303e+01 1.928791e+01 1.358604e+01 -1 -1 0 -1.205342e-01 -4.176898e-01 -8.594695e-01 -2.689217e-01
195 2 3 1.718493e+01 1.935384e+01 1.411745e+01 -1 -1 0 -3.210835e-01 -6.074054e-01 7.126310e-01 1.418490e-01
196 2 4 1.747801e+01 -1.927575e+01 1.382463e+01 -1 0 0 -4.594349e-01 6.455015e-01 2.492059e-02 -6.096116e-01
197 2 2 1.746950e+01 -1.910282e+01 1.459722e+01 -1 0 0 -1.643687e-01 -8.576754e-02 3.265826e-01 -9.268067e-01
198 2 4 1.736117e+01 -1.946637e+01 1.502357e+01 -1 0 0 -8.289617e-02 1.015176e-01 3.256158e-01 -9.363743e-01
199 2 3 1.733695e+01 -1.972305e+01 1.557262e+01 -1 0 0 4.345918e-01 -9.773254e-02 -8.219477e-01 -3.549370e-01
200 2 4 1.865508e+01 -1.957443e+01 1.593311e+01 -1 0 0 1.945565e-01 -8.459125e-01 2.141869e-01 -4.479998e-01
