ITEM: TIMESTEP
294000000
ITEM: NUMBER OF ATOMS
200
ITEM: BOX BOUNDS pp pp pp
-2.0000000000000000e+01 2.0000000000000000e+01
-2.0000000000000000e+01 2.0000000000000000e+01
-2.0000000000000000e+01 2.0000000000000000e+01
ITEM: ATOMS id mol type x y z ix iy iz c_quat[1] c_quat[2] c_quat[3] c_quat[4]
1 1 1 1.209164e+01 -1.247894e+01 9.398799e+00 -1 0 0 -1.146344e-02 -8.191848e-01 -5.515444e-01 1.568558e-01
2 1 2 1.179708e+01 -1.246007e+01 9.005890e+00 -1 0 0 -1.645309e-01 -9.646254e-01 -1.955468e-01 6.472184e-02
3 1 1 1.080339e+01 -1.280097e+01 9.234989e+00 -1 0 0 -1.542916e-01 1.129388e-01 -7.808337e-02 -9.784385e-01
4 1 3 1.145408e+01 -1.394895e+01 8.705299e+00 -1 0 0 -3.439716e-01 -7.519154e-01 1.772829e-01 5.337392e-01
5 1 1 1.183837e+01 -1.324460e+01 8.719957e+00 -1 0 0 -2.582610e-01 -7.607938e-01 -5.626095e-01 1.948448e-01
6 1 2 1.294709e+01 -1.383545e+01 8.585933e+00 -1 0 0 5.843157e-01 7.344639e-01 -1.132106e-02 3.449779e-01
7 1 4 1.248849e+01 -1.422470e+01 8.180421e+00 -1 0 0 -7.310150e-01 1.606861e-01 -2.156263e-01 6.271383e-01
8 1 1 1.232849e+01 -1.426689e+01 7.462288e+00 -1 0 0 -5.162554e-01 -7.351739e-01 -2.559581e-01 3.570506e-01
9 1 1 1.214098e+01 -1.452204e+01 7.104842e+00 -1 0 0 -6.105929e-01 -7.660364e-01 1.861551e-01 7.557047e-02
10 1 4 1.146593e+01 -1.506127e+01 7.528718e+00 -1 0 0 -4.531747e-01 6.767594e-01 -5.491077e-01 1.873771e-01
11 1 1 1.180401e+01 -1.456194e+01 6.688527e+00 -1 0 0 -4.004828e-01 -2.653656e-01 -3.637406e-01 -7.980523e-01
12 1 1 1.210630e+01 -1.499243e+01 6.344953e+00 -1 0 0 3.210515e-01 -6.688705e-01 -2.500508e-01 6.221035e-01
13 1 3 1.266545e+01 -1.528138e+01 6.725057e+00 -1 0 0 1.418197e-01 4.129433e-01 -2.236743e-01 8.713982e-01
14 1 4 1.296449e+01 -1.520905e+01 7.127869e+00 -1 0 0 2.455581e-01 -3.563259e-01 2.758985e-01 -8.582617e-01
15 1 4 1.314556e+01 -1.519330e+01 7.620936e+00 -1 0 0 -5.409382e-01 1.940913e-01 -4.661261e-01 6.726373e-01
16 1 2 1.296495e+01 -1.552147e+01 7.846010e+00 -1 0 0 -2.751946e-01 2.365588e-01 7.292014e-01 -5.801493e-01
17 1 1 1.248123e+01 -1.575420e+01 7.797847e+00 -1 0 0 4.905638e-01 -3.446796e-01 -5.146658e-01 6.129129e-01
18 1 2 1.199469e+01 -1.665110e+01 7.631812e+00 -1 0 0 -4.074931e-01 6.081976e-01 -4.171123e-01 5.385745e-01
19 1 3 1.135156e+01 -1.589770e+01 8.062216e+00 -1 0 0 1.009515e-01 -6.844874e-02 -1.917029e-01 9.738447e-01
20 1 1 1.127391e+01 -1.571621e+01 8.573777e+00 -1 0 0 -2.802736e-01 -1.091402e-01 -1.621190e-01 9.398152e-01
21 1 4 1.098367e+01 -1.574166e+01 8.992708e+00 -1 0 0 5.454296e-01 2.260639e-01 1.047094e-01 -8.002734e-01
22 1 1 1.057667e+01 -1.589835e+01 9.230174e+00 -1 0 0 8.455164e-01 2.093109e-01 -1.034357e-01 -4.802000e-01
23 1 4 1.097079e+01 -1.589761e+01 1.006591e+01 -1 0 0 -5.292291e-01 6.812702e-01 -4.698181e-01 -1.872389e-01
24 1 3 1.017481e+01 -1.637922e+01 9.847779e+00 -1 0 0 -4.263577e-02 -4.183631e-01 -8.718456e-01 -2.510774e-01
25 1 3 1.056660e+01 -1.760157e+01 9.556638e+00 -1 0 0 7.206466e-01 1.736030e-01 6.012379e-01 -2.984017e-01
26 1 4 1.091058e+01 -1.814096e+01 9.484970e+00 -1 0 0 -6.609275e-01 -3.232427e-01 -6.622921e-01 1.416267e-01
27 1 4 1.138036e+01 -1.856295e+01 9.382162e+00 -1 0 0 -5.347003e-01 -2.571519e-01 -7.641833e-01 2.529672e-01
28 1 1 1.194058e+01 -1.834534e+01 8.918571e+00 -1 0 0 -8.123890e-02 -1.842765e-01 3.460042e-01 9.163643e-01
29 1 1 1.287980e+01 -1.854774e+01 9.768941e+00 -1 0 0 1.274335e-01 9.644884e-01 6.487276e-02 2.220683e-01
30 1 4 1.370565e+01 -1.930936e+01 9.701801e+00 -1 0 0 7.279682e-01 -4.920196e-01 2.912045e-01 3.783900e-01
31 1 4 1.396318e+01 -1.906561e+01 9.842578e+00 -1 0 0 -5.820382e-01 2.218596e-01 -4.805928e-01 -6.172847e-01
32 1 3 1.464519e+01 -1.847256e+01 1.034137e+01 -1 0 0 6.458389e-01 -6.730928e-01 -2.289957e-02 3.596023e-01
33 1 3 1.499459e+01 -1.900120e+01 9.698332e+00 -1 0 0 -9.189634e-01 3.617106e-02 2.043712e-01 -3.353062e-01
34 1 1 1.519049e+01 -1.910869e+01 1.012418e+01 -1 0 0 6.147946e-01 6.227571e-03 -2.185317e-01 7.577814e-01
35 1 2 1.518437e+01 -2.009739e+01 9.720704e+00 -1 0 0 -3.475711e-01 7.398907e-01 -3.454655e-01 4.608792e-01
36 1 2 1.523692e+01 1.943125e+01 8.603497e+00 -1 -1 0 -2.087116e-01 4.019679e-01 -8.807724e-01 1.382073e-01
37 1 1 1.539739e+01 1.912190e+01 8.130439e+00 -1 -1 0 1.333919e-01 -8.473695e-02 9.788868e-01 -1.296417e-01
38 1 1 1.538467e+01 1.869678e+01 7.888724e+00 -1 -1 0 1.928350e-01 3.205478e-01 9.213737e-01 -1.055189e-01
39 1 4 1.529387e+01 1.834938e+01 7.463491e+00 -1 -1 0 -1.563427e-01 -6.393203e-01 -7.491851e-01 7.448570e-02
40 1 4 1.574007e+01 1.768747e+01 8.344519e+00 -1 -1 0 -8.530441e-01 4.184896e-01 9.491953e-02 -2.969385e-01
41 1 2 1.572557e+01 1.816251e+01 8.538048e+00 -1 -1 0 -2.909016e-01 -9.236473e-01 1.943306e-01 1.564851e-01
42 1 4 1.538545e+01 1.740487e+01 9.362427e+00 -1 -1 0 -7.532653e-01 -4.062627e-01 4.964726e-01 1.451103e-01
43 1 3 1.499759e+01 1.703527e+01 9.398739e+00 -1 -1 0 7.667720e-01 4.448327e-01 -4.547787e-01 8.579542e-02
44 1 2 1.498068e+01 1.658025e+01 9.638926e+00 -1 -1 0 7.388845e-01 1.662421e-01 -4.998744e-01 4.201653e-01
45 1 1 1.493911e+01 1.625709e+01 9.980247e+00 -1 -1 0 4.331061e-01 -8.673541e-02 -5.315146e-01 7.227644e-01
46 1 3 1.524988e+01 1.509744e+01 9.698947e+00 -1 -1 0 -7.206561e-01 4.448304e-01 3.846653e-01 3.671694e-01
47 1 4 1.593097e+01 1.435820e+01 9.878993e+00 -1 -1 0 -9.456459e-01 3.563016e-02 3.231200e-01 8.817903e-03
48 1 1 1.586395e+01 1.420186e+01 1.028152e+01 -1 -1 0 8.091820e-01 -1.818135e-01 -2.372799e-01 5.058326e-01
49 1 4 1.587606e+01 1.416159e+01 1.079371e+01 -1 -1 0 5.036521e-01 -2.734508e-01 -1.589702e-01 8.039202e-01
50 1 4 1.612020e+01 1.275757e+01 1.102244e+01 -1 -1 0 2.001041e-01 2.841937e-01 -8.242627e-01 4.469713e-01
51 1 4 1.616472e+01 1.215884e+01 1.103560e+01 -1 -1 0 3.842591e-02 -6.747876e-03 -8.636403e-01 5.025966e-01
52 1 1 1.602785e+01 1.161214e+01 1.104640e+01 -1 -1 0 -1.677548e-02 -2.857368e-01 -7.743184e-01 5.643616e-01
53 1 3 1.706783e+01 1.051164e+01 1.102038e+01 -1 -1 0 9.331038e-01 -2.851324e-01 -1.014053e-02 -2.188925e-01
54 1 4 1.705489e+01 1.048976e+01 1.155054e+01 -1 -1 0 8.885934e-01 -3.659553e-01 1.253927e-01 2.464855e-01
55 1 4 1.675511e+01 1.091686e+01 1.223232e+01 -1 -1 0 2.668017e-03 -9.769882e-01 -2.117298e-01 -2.564012e-02
56 1 4 1.708349e+01 9.872680e+00 1.245956e+01 -1 -1 0 -4.890779e-01 5.585727e-01 -2.263040e-01 6.305441e-01
57 1 1 1.721929e+01 9.048804e+00 1.261756e+01 -1 -1 0 -9.195597e-01 1.617757e-01 -2.289311e-02 3.573717e-01
58 1 1 1.723325e+01 8.984660e+00 1.308762e+01 -1 -1 0 9.757530e-01 -1.306547e-01 1.682271e-01 5.034970e-02
59 1 3 1.751236e+01 8.835527e+00 1.360993e+01 -1 -1 0 -8.485900e-01 5.699857e-03 -2.667412e-01 -4.568497e-01
60 1 4 1.799882e+01 8.876449e+00 1.381713e+01 -1 -1 0 -5.822582e-01 -6.752753e-02 -1.610841e-01 -7.940198e-01
61 1 2 1.852908e+01 8.714498e+00 1.460982e+01 -1 -1 0 -5.707741e-01 1.960455e-03 2.169006e-01 -7.919389e-01
62 1 3 1.858015e+01 8.631843e+00 1.511494e+01 -1 -1 0 -1.671101e-01 1.831217e-01 2.236297e-01 -9.426189e-01
63 1 2 1.955389e+01 7.776178e+00 1.556884e+01 -1 -1 0 4.936383e-02 -6.431618e-01 7.639710e-01 -1.594775e-02
64 1 4 1.980690e+01 7.664405e+00 1.513466e+01 -1 -1 0 7.558414e-02 -2.869428e-01 9.529654e-01 -6.170732e-02
65 1 2 -1.925071e+01 8.312276e+00 1.448736e+01 0 -1 0 -1.391491e-01 9.795365e-01 -3.733661e-02 -1.405411e-01
66 1 1 1.984516e+01 7.455332e+00 1.360770e+01 -1 -1 0 -9.005630e-02 -4.209556e-01 5.944396e-01 6.792111e-01
67 1 2 -2.014230e+01 7.109893e+00 1.313274e+01 0 -1 0 -4.756414e-01 -5.207298e-01 -6.906036e-01 1.602260e-01
68 1 1 1.993470e+01 6.796786e+00 1.276255e+01 -1 -1 0 -5.095848e-01 -7.487303e-01 -3.705892e-01 -2.058882e-01
69 1 1 -1.964735e+01 6.125922e+00 1.313630e+01 0 -1 0 4.924553e-01 5.428326e-01 -3.225128e-02 6.795442e-01
70 1 2 -1.907904e+01 6.262959e+00 1.308273e+01 0 -1 0 -8.600225e-01 -4.519312e-01 -1.025880e-01 -2.135303e-01
71 1 3 -1.926626e+01 6.047411e+00 1.358874e+01 0 -1 0 -1.638774e-01 1.514233e-01 7.433019e-01 6.306484e-01
72 1 4 -1.761058e+01 6.101088e+00 1.374035e+01 0 -1 0 9.357729e-01 -2.906975e-01 9.373029e-02 1.761779e-01
73 1 1 -1.741667e+01 6.143706e+00 1.413283e+01 0 -1 0 -7.822183e-01 2.170040e-01 -1.374291e-01 -5.675888e-01
74 1 1 -1.722049e+01 6.334334e+00 1.449049e+01 0 -1 0 -5.770792e-01 1.467024e-01 -2.779727e-01 -7.537832e-01
75 1 3 -1.729827e+01 5.844004e+00 1.565068e+01 0 -1 0 8.994514e-01 -1.895407e-01 4.223777e-02 -3.915066e-01
76 1 1 -1.740464e+01 6.699908e+00 1.675985e+01 0 -1 0 -2.487788e-01 7.620983e-01 1.435276e-01 5.802716e-01
77 1 4 -1.670375e+01 6.719715e+00 1.676456e+01 0 -1 0 3.023420e-01 8.493353e-01 -3.306415e-01 -2.790968e-01
78 1 1 -1.749078e+01 6.798109e+00 1.767806e+01 0 -1 0 -6.686506e-01 -5.935833e-02 6.150866e-01 4.135836e-01
79 1 4 -1.645124e+01 7.039464e+00 1.753228e+01 0 -1 0 -8.812407e-01 3.231463e-01 -2.970233e-01 1.754094e-01
80 1 2 -1.608065e+01 6.928782e+00 1.779739e+01 0 -1 0 8.759959e-01 -3.302216e-02 4.417187e-01 1.908543e-01
81 1 4 -1.536145e+01 7.437492e+00 1.745899e+01 0 -1 0 -7.095937e-01 -6.437678e-01 2.013453e-01 -2.037153e-01
82 1 4 -1.501093e+01 7.223543e+00 1.738231e+01 0 -1 0 -3.188780e-01 -5.526495e-01 6.473454e-01 -4.169405e-01
83 1 4 -1.483041e+01 6.734985e+00 1.745728e+01 0 -1 0 3.464618e-02 7.233131e-02 -9.058202e-01 4.160020e-01
84 1 4 -1.398334e+01 7.036515e+00 1.656965e+01 0 -1 0 -1.900158e-01 -8.771215e-01 -1.388735e-01 -4.186478e-01
85 1 1 -1.363388e+01 7.211572e+00 1.630490e+01 0 -1 0 -4.341310e-02 8.369341e-01 -2.337879e-01 4.929501e-01
86 1 1 -1.314178e+01 7.269216e+00 1.616002e+01 0 -1 0 -1.679532e-01 6.762491e-01 -4.903614e-01 5.234735e-01
87 1 3 -1.274149e+01 7.225639e+00 1.638149e+01 0 -1 0 5.121571e-01 -4.060859e-01 6.112439e-01 -4.462849e-01
88 1 2 -1.209017e+01 7.234923e+00 1.715941e+01 0 -1 0 -5.785775e-01 6.516921e-01 -4.299778e-01 2.359334e-01
89 1 2 -1.247257e+01 7.750400e+00 1.805123e+01 0 -1 0 1.176266e-01 2.924531e-01 -4.859452e-01 8.151641e-01
90 1 3 -1.226771e+01 7.456034e+00 1.850905e+01 0 -1 0 -1.866443e-01 1.600945e-01 -5.881776e-01 7.704420e-01
91 1 3 -1.209757e+01 7.034751e+00 1.885185e+01 0 -1 0 -3.418379e-01 -2.730184e-02 -5.618937e-01 7.527795e-01
92 1 2 -1.118658e+01 7.522980e+00 1.950831e+01 0 -1 0 -4.239011e-01 3.456087e-01 3.965557e-01 -7.372965e-01
93 1 1 -1.102853e+01 6.129074e+00 1.896427e+01 0 -1 0 -8.259403e-02 -6.534672e-01 6.668616e-01 3.485030e-01
94 1 2 -1.083392e+01 6.540406e+00 -1.970825e+01 0 -1 1 2.998562e-01 2.394784e-01 -5.038740e-01 7.738523e-01
95 1 3 -1.077217e+01 6.212529e+00 -1.937219e+01 0 -1 1 1.475367e-01 1.503363e-02 -5.453364e-01 8.249940e-01
96 1 2 -1.084952e+01 6.106750e+00 -1.893186e+01 0 -1 1 3.529666e-01 1.365208e-01 4.623669e-01 -8.018687e-01
97 1 2 -9.666480e+00 5.502926e+00 -1.938302e+01 0 -1 1 1.978779e-01 3.516023e-01 -8.710801e-01 -2.800709e-01
98 1 4 -9.116200e+00 5.439638e+00 -1.951143e+01 0 -1 1 -7.752550e-01 4.198596e-01 -2.269468e-01 4.137543e-01
99 1 2 -8.453204e+00 4.850156e+00 -1.994104e+01 0 -1 1 -1.811197e-01 -4.429922e-01 8.771111e-01 4.036872e-02
100 1 1 -8.400695e+00 4.511945e+00 1.979514e+01 0 -1 0 -1.389277e-02 -4.708013e-02 -9.963313e-01 7.010322e-02
101 2 4 -1.163407e+01 1.808545e+01 6.329133e+00 0 -1 0 1.251125e-02 3.461089e-01 -9.335461e-01 9.243308e-02
102 2 3 -1.091646e+01 1.827094e+01 7.046865e+00 0 -1 0 -1.667030e-02 7.030238e-01 -2.573448e-01 6.627619e-01
103 2 1 -1.013489e+01 1.803868e+01 6.933097e+00 0 -1 0 9.169447e-01 3.780484e-01 8.034429e-02 9.917997e-02
104 2 3 -1.013512e+01 1.761331e+01 7.041738e+00 0 -1 0 8.064149e-01 5.132541e-01 1.739876e-03 2.937041e-01
105 2 3 -9.712649e+00 1.721425e+01 7.202258e+00 0 -1 0 6.652972e-01 6.530235e-01 1.617341e-01 3.237005e-01
106 2 2 -9.199920e+00 1.683497e+01 7.030638e+00 0 -1 0 -5.303674e-01 -6.681235e-01 -2.295390e-01 -4.686504e-01
107 2 3 -9.566335e+00 1.560910e+01 7.936523e+00 0 -1 0 8.850755e-01 -3.606661e-01 1.482220e-02 -2.938395e-01
108 2 4 -1.043236e+01 1.636757e+01 6.882644e+00 0 -1 0 -5.545066e-01 -6.095207e-01 -5.370200e-01 1.806003e-01
109 2 3 -1.052998e+01 1.612657e+01 6.452906e+00 0 -1 0 -4.836432e-01 -8.466502e-01 -2.177822e-01 4.293665e-02
110 2 2 -1.027095e+01 1.547161e+01 6.111619e+00 0 -1 0 2.191794e-01 -3.169025e-01 9.184895e-01 8.893974e-02
111 2 2 -1.008152e+01 1.540973e+01 5.605866e+00 0 -1 0 -9.942964e-02 5.102602e-02 -9.927169e-01 -4.498098e-02
112 2 3 -9.396395e+00 1.561908e+01 4.960675e+00 0 -1 0 4.031859e-01 7.452882e-01 5.306239e-01 2.061402e-02
113 2 3 -9.194801e+00 1.543897e+01 4.429374e+00 0 -1 0 -3.613210e-01 -8.273978e-01 -2.369942e-01 -3.587391e-01
114 2 2 -8.747782e+00 1.552850e+01 4.200100e+00 0 -1 0 -2.062241e-01 -8.266728e-01 -1.706060e-01 -4.949518e-01
115 2 4 -9.003875e+00 1.512691e+01 3.524559e+00 0 -1 0 -5.358027e-01 7.210008e-01 9.268373e-02 -4.295149e-01
116 2 4 -9.349007e+00 1.559307e+01 3.297264e+00 0 -1 0 5.698902e-01 -7.428829e-01 -1.060679e-01 3.348129e-01
117 2 1 -1.023098e+01 1.610577e+01 3.003607e+00 0 -1 0 -3.921164e-01 5.142274e-01 4.874884e-01 -5.866600e-01
118 2 1 -1.092296e+01 1.506971e+01 2.682224e+00 0 -1 0 2.432686e-01 -2.467357e-01 7.349251e-01 -5.829468e-01
119 2 1 -1.095992e+01 1.556875e+01 1.620862e+00 0 -1 0 3.892719e-01 6.123284e-01 3.181064e-01 6.101881e-01
120 2 1 -1.038249e+01 1.567643e+01 1.506335e+00 0 -1 0 1.274950e-01 6.178921e-01 4.271417e-02 7.746805e-01
121 2 3 -9.983717e+00 1.584503e+01 1.693572e+00 0 -1 0 -1.746889e-01 5.550917e-01 -1.383494e-01 8.013841e-01
122 2 1 -9.645069e+00 1.521358e+01 5.722352e-01 0 -1 0 5.576226e-01 8.388505e-02 -1.228365e-01 -8.166588e-01
123 2 4 -8.292830e+00 1.531258e+01 6.295123e-01 0 -1 0 -4.223897e-01 3.678468e-01 -6.882631e-01 -4.610527e-01
124 2 1 -7.960029e+00 1.557608e+01 2.322531e-01 0 -1 0 2.054229e-01 -1.055785e-02 7.821003e-01 5.882254e-01
125 2 4 -7.904767e+00 1.594258e+01 -1.620117e-01 0 -1 0 -6.523596e-02 3.611819e-01 6.546324e-01 6.608694e-01
126 2 2 -6.835558e+00 1.620735e+01 -3.671987e-01 0 -1 0 -8.538705e-01 -5.155936e-01 -6.884939e-02 -1.811646e-02
127 2 4 -6.266182e+00 1.671189e+01 1.262662e-01 0 -1 0 -2.164513e-01 -9.566745e-01 -1.925680e-01 2.898648e-02
128 2 4 -5.792293e+00 1.689581e+01 6.731523e-01 0 -1 0 -4.882493e-02 -6.369728e-01 3.206291e-01 -6.993417e-01
129 2 1 -5.366742e+00 1.606012e+01 5.264313e-01 0 -1 0 9.459584e-01 2.133844e-01 1.295214e-01 -2.070120e-01
130 2 2 -4.777266e+00 1.680977e+01 8.133160e-03 0 -1 0 5.796791e-01 5.473451e-01 2.055134e-01 5.675824e-01
131 2 3 -5.144474e+00 1.600539e+01 -4.161279e-01 0 -1 0 3.601720e-01 -4.127569e-01 2.983017e-01 7.816163e-01
132 2 4 -4.963023e+00 1.561579e+01 -1.085863e+00 0 -1 0 -5.501429e-01 -8.091418e-01 -2.064052e-01 -5.404788e-03
133 2 4 -4.787505e+00 1.544790e+01 -8.272878e-01 0 -1 0 1.872038e-01 -1.696628e-01 5.245922e-01 -8.130020e-01
134 2 3 -4.517045e+00 1.496888e+01 -6.040519e-01 0 -1 0 2.444070e-01 5.351249e-02 6.199800e-01 -7.436575e-01
135 2 4 -4.642740e+00 1.458886e+01 -4.111412e-01 0 -1 0 -5.703206e-01 -2.803415e-01 -6.088787e-01 4.747734e-01
136 2 3 -4.733130e+00 1.404500e+01 -4.094336e-01 0 -1 0 7.351807e-01 4.668462e-01 4.339605e-01 -2.307429e-01
137 2 1 -4.023355e+00 1.355616e+01 8.148403e-01 0 -1 0 1.840112e-01 5.772414e-01 -5.601379e-01 5.649582e-01
138 2 3 -5.088036e+00 1.331871e+01 1.009100e+00 0 -1 0 1.017018e-01 3.733730e-01 -7.332414e-01 5.591122e-01
139 2 2 -5.930842e+00 1.351364e+01 1.434860e+00 0 -1 0 -3.339395e-01 4.275314e-01 8.270892e-01 -1.470538e-01
140 2 3 -6.448920e+00 1.392735e+01 1.724966e+00 0 -1 0 9.608909e-02 1.660616e-01 2.426690e-01 -9.509480e-01
141 2 1 -6.398844e+00 1.374222e+01 1.959624e+00 0 -1 0 -7.925277e-01 -2.363810e-01 3.648326e-01 -4.276926e-01
142 2 2 -6.823577e+00 1.260124e+01 1.388113e+00 0 -1 0 3.179004e-01 4.231134e-01 -8.479249e-01 3.062218e-02
143 2 4 -7.038881e+00 1.227558e+01 1.163202e+00 0 -1 0 3.221637e-01 -1.610323e-01 -9.224479e-01 1.391727e-01
144 2 4 -7.524820e+00 1.230476e+01 1.057815e+00 0 -1 0 9.674727e-02 -7.889382e-01 -5.823343e-01 1.705969e-01
145 2 1 -7.353295e+00 1.127213e+01 1.884283e+00 0 -1 0 8.156382e-01 -6.065666e-02 -2.210919e-01 -5.312000e-01
146 2 1 -7.629528e+00 1.104333e+01 2.267468e+00 0 -1 0 -9.722596e-01 8.587452e-02 1.758902e-01 1.280606e-01
147 2 1 -7.798373e+00 1.030333e+01 1.762114e+00 0 -1 0 6.134588e-01 6.534929e-02 -7.039116e-01 -3.520031e-01
148 2 2 -7.075888e+00 1.062248e+01 5.666030e-01 0 -1 0 9.691859e-02 8.021675e-01 -2.213283e-01 -5.460291e-01
149 2 4 -7.792757e+00 9.894228e+00 1.036536e+00 0 -1 0 -6.019436e-01 -5.531704e-01 -1.513396e-01 5.556642e-01
150 2 1 -8.074094e+00 9.597391e+00 9.735509e-01 0 -1 0 -8.667004e-01 -4.464069e-01 1.354019e-01 1.766848e-01
151 2 1 -8.495371e+00 9.792995e+00 1.670784e+00 0 -1 0 2.574055e-01 -4.283602e-01 8.575237e-01 1.220777e-01
152 2 1 -9.153276e+00 9.944155e+00 1.657075e+00 0 -1 0 -4.512274e-01 -7.738680e-01 -4.375409e-01 7.797494e-02
153 2 4 -9.105949e+00 8.705859e+00 1.841876e+00 0 -1 0 -5.324124e-01 -1.571564e-01 8.638836e-02 8.272702e-01
154 2 1 -9.182955e+00 9.190222e+00 2.880030e+00 0 -1 0 -3.187907e-02 -4.521909e-01 -3.093845e-01 -8.359356e-01
155 2 2 -8.943977e+00 8.627589e+00 4.053651e+00 0 -1 0 4.708791e-02 4.613359e-01 -6.634056e-01 5.872350e-01
156 2 4 -8.519095e+00 8.247522e+00 4.154583e+00 0 -1 0 1.125774e-01 -1.980552e-01 7.274806e-01 -6.472035e-01
157 2 3 -7.277450e+00 8.832378e+00 3.908340e+00 0 -1 0 4.957409e-01 7.066601e-01 1.985145e-01 4.641816e-01
158 2 2 -7.516673e+00 8.443491e+00 5.064258e+00 0 -1 0 -2.264349e-01 1.451366e-01 6.085313e-01 -7.465603e-01
159 2 1 -6.078846e+00 8.011081e+00 4.814308e+00 0 -1 0 -7.223654e-01 -6.637788e-01 1.753954e-01 -8.259739e-02
160 2 3 -5.857451e+00 7.558859e+00 4.723879e+00 0 -1 0 -6.535907e-01 -4.096133e-01 4.863501e-01 -4.104871e-01
161 2 1 -5.641388e+00 6.906772e+00 4.355133e+00 0 -1 0 5.463409e-01 3.537791e-01 -5.888284e-01 -4.792005e-01
162 2 1 -5.931032e+00 6.914051e+00 4.228471e+00 0 -1 0 -6.186489e-01 1.214294e-01 7.727917e-01 7.294844e-02
163 2 4 -6.426455e+00 6.805109e+00 4.197373e+00 0 -1 0 -6.008423e-01 3.814503e-01 6.780748e-01 -1.835720e-01
164 2 4 -6.780310e+00 6.841375e+00 4.352522e+00 0 -1 0 -3.331422e-01 6.386023e-01 4.862599e-01 -4.947268e-01
165 2 3 -7.077198e+00 6.286140e+00 5.114875e+00 0 -1 0 -4.290183e-01 -2.301903e-02 5.708286e-01 -6.996915e-01
166 2 3 -7.009343e+00 5.412550e+00 3.834685e+00 0 -1 0 7.704502e-01 3.916935e-01 5.026688e-01 -1.751396e-02
167 2 4 -6.919813e+00 5.003091e+00 3.534549e+00 0 -1 0 -7.252378e-01 -5.538642e-01 -3.823657e-01 -1.451245e-01
168 2 2 -6.643079e+00 4.588778e+00 3.261805e+00 0 -1 0 -5.637143e-01 -6.738215e-01 -2.616248e-02 -4.769762e-01
169 2 2 -7.222513e+00 3.137058e+00 3.594644e+00 0 -1 0 7.787000e-01 -3.327715e-01 -2.580523e-01 -4.650790e-01
170 2 1 -7.573329e+00 3.344662e+00 3.945313e+00 0 -1 0 -8.858017e-01 3.986518e-01 1.268140e-01 2.008740e-01
171 2 1 -8.568813e+00 3.119810e+00 3.350780e+00 0 -1 0 6.932330e-01 -7.673636e-02 3.111198e-01 -6.455572e-01
172 2 4 -8.664116e+00 3.445303e+00 3.988078e+00 0 -1 0 -6.852769e-01 5.591516e-01 -3.752865e-01 2.773175e-01
173 2 4 -9.280419e+00 3.370341e+00 4.833438e+00 0 -1 0 3.729970e-01 -5.239068e-01 3.335567e-01 -6.893002e-01
174 2 1 -9.872286e+00 2.988922e+00 4.131638e+00 0 -1 0 3.573517e-01 4.439327e-01 8.100036e-01 1.382668e-01
175 2 1 -9.996767e+00 3.007499e+00 4.553728e+00 0 -1 0 3.644744e-01 -6.146612e-01 -2.665637e-01 6.467564e-01
176 2 2 -1.078516e+01 2.293209e+00 3.866227e+00 0 -1 0 8.079787e-01 4.244035e-01 1.612209e-01 -3.755794e-01
177 2 2 -1.167823e+01 2.797977e+00 5.084993e+00 0 -1 0 -3.490444e-01 3.890242e-01 8.426753e-01 -1.293311e-01
178 2 1 -1.217646e+01 2.720966e+00 5.043306e+00 0 -1 0 2.446169e-01 -7.075824e-01 -5.965928e-01 2.890792e-01
179 2 4 -1.246798e+01 3.005638e+00 4.862672e+00 0 -1 0 -1.100311e-01 9.148059e-01 9.974725e-02 -3.755978e-01
180 2 1 -1.281293e+01 3.344316e+00 4.582952e+00 0 -1 0 -4.869965e-02 -9.258266e-01 1.815809e-01 3.278746e-01
181 2 4 -1.369675e+01 3.471293e+00 5.745739e+00 0 -1 0 -5.782323e-01 4.145047e-01 4.970260e-01 -4.967880e-01
182 2 2 -1.408729e+01 3.351224e+00 4.922164e+00 0 -1 0 7.871971e-01 -1.885235e-01 3.356230e-01 4.818058e-01
183 2 3 -1.461889e+01 3.530910e+00 3.952131e+00 0 -1 0 -3.086169e-01 1.807287e-01 -6.241227e-01 -6.946679e-01
184 2 4 -1.526183e+01 3.575550e+00 4.718411e+00 0 -1 0 -2.980519e-02 -8.461508e-01 -7.715315e-02 -5.264863e-01
185 2 3 -1.579191e+01 3.362426e+00 3.529554e+00 0 -1 0 2.449388e-01 1.186168e-01 9.426626e-01 1.931898e-01
186 2 1 -1.567588e+01 3.271195e+00 3.066578e+00 0 -1 0 1.571309e-01 4.788008e-01 7.789093e-01 3.733095e-01
187 2 1 -1.467708e+01 2.980032e+00 2.633963e+00 0 -1 0 3.084822e-01 8.581203e-01 -2.600413e-01 3.175637e-01
188 2 2 -1.436799e+01 2.237217e+00 1.767004e+00 0 -1 0 -3.308586e-01 6.570659e-01 -6.691159e-01 -1.052657e-01
189 2 4 -1.420135e+01 3.389370e+00 1.168028e+00 0 -1 0 7.092218e-01 2.336018e-01 9.233734e-02 6.587173e-01
190 2 4 -1.517382e+01 3.335054e+00 9.155011e-01 0 -1 0 8.141590e-02 5.018823e-01 -5.822556e-01 -6.344005e-01
191 2 1 -1.538597e+01 3.698187e+00 5.765701e-01 0 -1 0 2.680102e-01 2.943132e-01 -7.850953e-01 -4.745268e-01
192 2 4 -1.564603e+01 3.779522e+00 1.670324e-01 0 -1 0 -4.201712e-01 -2.548454e-02 8.702425e-01 2.558998e-01
193 2 4 -1.532074e+01 5.117963e+00 -1.611756e-01 0 -1 0 -1.791701e-01 -5.811652e-01 -3.300382e-01 7.219556e-01
194 2 1 -1.531849e+01 4.491455e+00 -6.879051e-01 0 -1 0 6.585388e-01 8.973123e-02 -4.856754e-01 -5.677979e-01
195 2 3 -1.580844e+01 4.521155e+00 -6.590700e-01 0 -1 0 -8.262640e-01 2.049605e-01 4.737336e-01 2.255115e-01
196 2 4 -1.617423e+01 4.572335e+00 -3.251966e-01 0 -1 0 8.648246e-01 -3.758903e-01 -3.322860e-01 1.926050e-02
197 2 2 -1.681419e+01 4.994592e+00 -3.457124e-01 0 -1 0 -4.362408e-01 -3.107520e-01 -4.616880e-01 -7.070865e-01
198 2 4 -1.731282e+01 4.298276e+00 -1.623961e-01 0 -1 0 -4.844442e-01 -5.224457e-01 7.016717e-01 4.600274e-03
199 2 3 -1.753236e+01 4.293824e+00 -1.251306e+00 0 -1 0 -5.440755e-01 -6.530186e-01 4.346727e-01 2.976712e-01
200 2 4 -1.824062e+01 4.116943e+00 -4.380089e-01 0 -1 0 9.033634e-01 1.944436e-01 -3.455349e-01 -1.634987e-01
