ITEM: TIMESTEP
316000000
ITEM: NUMBER OF ATOMS
200
ITEM: BOX BOUNDS pp pp pp
-2.0000000000000000e+01 2.0000000000000000e+01
-2.0000000000000000e+01 2.0000000000000000e+01
-2.0000000000000000e+01 2.0000000000000000e+01
ITEM: ATOMS id mol type x y z ix iy iz c_quat[1] c_quat[2] c_quat[3] c_quat[4]
1 1 1 1.901596e+01 1.767770e+01 7.420786e+00 -1 -1 0 1.934380e-01 8.234270e-01 -4.850845e-01 2.219071e-01
2 1 2 1.774830e+01 1.680243e+01 7.387673e+00 -1 -1 0 -3.276989e-01 -3.346472e-02 -8.779237e-01 3.474817e-01
3 1 1 1.785536e+01 1.798370e+01 8.077191e+00 -1 -1 0 -2.559052e-01 3.514351e-02 1.229622e-02 -9.659846e-01
4 1 3 1.787171e+01 1.813698e+01 8.603157e+00 -1 -1 0 3.939274e-02 1.674998e-01 -6.375554e-02 -9.830195e-01
5 1 1 1.909788e+01 1.811489e+01 9.053086e+00 -1 -1 0 -3.953977e-02 -9.141170e-01 2.503148e-01 3.164951e-01
6 1 2 1.883145e+01 1.750079e+01 9.675804e+00 -1 -1 0 -1.189088e-01 -9.397000e-01 3.096918e-01 -8.315967e-02
7 1 4 1.926377e+01 1.677611e+01 9.630954e+00 -1 -1 0 -8.956595e-01 1.997439e-01 -1.874337e-01 -3.503785e-01
8 1 1 1.852352e+01 1.650095e+01 9.882661e+00 -1 -1 0 7.508539e-02 -4.186396e-01 -4.108893e-01 8.063951e-01
9 1 1 1.794486e+01 1.644144e+01 1.005359e+01 -1 -1 0 -4.658444e-02 -6.415731e-01 -2.538765e-01 7.223300e-01
10 1 4 1.746875e+01 1.646529e+01 1.009447e+01 -1 -1 0 4.330354e-01 6.452821e-01 2.657657e-02 -6.287965e-01
11 1 1 1.698976e+01 1.629481e+01 9.800914e+00 -1 -1 0 -6.540995e-01 -6.694690e-01 1.563766e-01 3.154544e-01
12 1 1 1.619031e+01 1.564164e+01 1.010965e+01 -1 -1 0 -1.391848e-01 -1.503299e-01 9.275116e-01 -3.126510e-01
13 1 3 1.609536e+01 1.519040e+01 9.816673e+00 -1 -1 0 -1.487754e-01 1.587193e-01 8.980995e-01 -3.822191e-01
14 1 4 1.649868e+01 1.537206e+01 9.027223e+00 -1 -1 0 -3.765761e-01 3.344395e-01 7.685837e-01 3.944867e-01
15 1 4 1.620645e+01 1.575835e+01 8.872580e+00 -1 -1 0 5.513384e-01 -5.541931e-01 -5.631517e-01 -2.678731e-01
16 1 2 1.594464e+01 1.688477e+01 8.480299e+00 -1 -1 0 -1.015964e-02 -7.868590e-01 -5.880327e-01 -1.869955e-01
17 1 1 1.578008e+01 1.710968e+01 8.077588e+00 -1 -1 0 -3.337629e-02 -9.782238e-01 -1.672351e-01 -1.183076e-01
18 1 2 1.537405e+01 1.709786e+01 8.151006e+00 -1 -1 0 -1.358796e-02 8.952545e-01 -1.933440e-01 -4.011894e-01
19 1 3 1.492411e+01 1.687482e+01 9.259289e+00 -1 -1 0 9.381558e-01 -2.392614e-01 -1.606668e-01 1.918432e-01
20 1 1 1.501291e+01 1.690109e+01 9.695753e+00 -1 -1 0 7.319916e-01 -1.251389e-01 -2.474255e-03 6.697182e-01
21 1 4 1.517569e+01 1.714766e+01 1.017567e+01 -1 -1 0 -4.143603e-01 1.487193e-01 -9.000955e-02 -8.933568e-01
22 1 1 1.545598e+01 1.710955e+01 1.102977e+01 -1 -1 0 -2.320764e-01 7.454689e-01 6.093068e-01 -1.384262e-01
23 1 4 1.546557e+01 1.749894e+01 1.089190e+01 -1 -1 0 -5.088203e-01 -7.194065e-01 -4.704401e-01 -4.735264e-02
24 1 3 1.530055e+01 1.679752e+01 1.099384e+01 -1 -1 0 -5.547919e-01 1.757703e-01 -4.662533e-01 -6.662722e-01
25 1 3 1.577664e+01 1.635107e+01 1.196896e+01 -1 -1 0 3.749455e-01 6.889059e-01 -6.121970e-01 -1.001969e-01
26 1 4 1.492796e+01 1.558193e+01 1.203082e+01 -1 -1 0 -6.066985e-01 -1.421610e-01 3.746690e-02 7.812192e-01
27 1 4 1.548806e+01 1.481758e+01 1.192578e+01 -1 -1 0 -8.591938e-02 5.940207e-01 -7.823939e-01 1.661838e-01
28 1 1 1.500151e+01 1.442212e+01 1.191945e+01 -1 -1 0 5.612437e-01 -4.265893e-01 -7.049673e-01 -7.776919e-02
29 1 1 1.544755e+01 1.505479e+01 1.128437e+01 -1 -1 0 -2.752900e-01 5.207264e-01 6.536311e-01 -4.752113e-01
30 1 4 1.501556e+01 1.493948e+01 1.106690e+01 -1 -1 0 -3.704530e-01 5.863511e-01 5.275936e-01 -4.905120e-01
31 1 4 1.557194e+01 1.335648e+01 1.091162e+01 -1 -1 0 9.497881e-01 -2.638470e-01 -5.038411e-02 -1.604643e-01
32 1 3 1.558966e+01 1.265450e+01 1.015411e+01 -1 -1 0 -8.773094e-01 -3.770623e-01 -2.193747e-01 2.000674e-01
33 1 3 1.574686e+01 1.217461e+01 1.019249e+01 -1 -1 0 8.803844e-01 3.993143e-01 8.550295e-03 2.557308e-01
34 1 1 1.517368e+01 1.207214e+01 9.749342e+00 -1 -1 0 -7.004692e-01 -4.228298e-01 -1.422258e-01 -5.570725e-01
35 1 2 1.506102e+01 1.171024e+01 1.021891e+01 -1 -1 0 3.491937e-01 1.733311e-01 1.562593e-01 9.075258e-01
36 1 2 1.583353e+01 1.136303e+01 1.058878e+01 -1 -1 0 3.531940e-01 1.285048e-01 -3.870405e-01 8.419858e-01
37 1 1 1.593640e+01 1.130830e+01 1.111978e+01 -1 -1 0 -5.852021e-03 3.572186e-02 -3.063345e-01 9.512355e-01
38 1 1 1.608470e+01 1.129080e+01 1.157863e+01 -1 -1 0 -4.087104e-01 3.852813e-02 -1.707149e-01 8.957275e-01
39 1 4 1.605929e+01 1.117194e+01 1.205483e+01 -1 -1 0 -5.071047e-01 -1.091661e-01 -1.657982e-01 8.387124e-01
40 1 4 1.586057e+01 1.199812e+01 1.233212e+01 -1 -1 0 -1.114933e-01 3.729291e-02 -5.801996e-01 8.059447e-01
41 1 2 1.592153e+01 1.167607e+01 1.266387e+01 -1 -1 0 -4.746523e-01 -2.047152e-01 -6.081393e-01 6.024645e-01
42 1 4 1.600042e+01 1.163739e+01 1.291650e+01 -1 -1 0 -8.234088e-02 -3.706597e-01 2.723892e-01 8.841015e-01
43 1 3 1.548402e+01 1.074172e+01 1.403780e+01 -1 -1 0 5.495671e-01 -3.805636e-01 4.624384e-02 -7.422997e-01
44 1 2 1.562221e+01 1.051021e+01 1.462886e+01 -1 -1 0 1.364970e-01 -9.130953e-02 -9.850662e-01 5.172800e-02
45 1 1 1.682567e+01 1.044383e+01 1.478066e+01 -1 -1 0 -2.914684e-01 8.280151e-01 -2.240076e-01 -4.233885e-01
46 1 3 1.753819e+01 1.053913e+01 1.482133e+01 -1 -1 0 -9.532518e-01 -1.925612e-01 -1.375631e-01 -1.879030e-01
47 1 4 1.794231e+01 1.025580e+01 1.501626e+01 -1 -1 0 -7.420743e-01 -4.020548e-01 -1.084934e-01 -5.252683e-01
48 1 1 1.842439e+01 1.016916e+01 1.500996e+01 -1 -1 0 -3.719154e-01 -4.878030e-01 1.039251e-01 -7.828964e-01
49 1 4 1.867904e+01 9.079882e+00 1.433815e+01 -1 -1 0 -6.584981e-01 -1.491590e-01 7.256714e-01 1.324116e-01
50 1 4 1.877800e+01 1.057975e+01 1.340677e+01 -1 -1 0 -4.753941e-01 -4.081577e-01 -4.433565e-01 -6.409702e-01
51 1 4 1.854341e+01 1.036120e+01 1.260258e+01 -1 -1 0 1.342748e-01 -5.181546e-01 1.125184e-01 8.371533e-01
52 1 1 1.832307e+01 1.080990e+01 1.251922e+01 -1 -1 0 2.041295e-01 2.640954e-01 -4.121616e-01 -8.477662e-01
53 1 3 1.803583e+01 1.114377e+01 1.246098e+01 -1 -1 0 -4.806087e-01 -8.763668e-02 5.768063e-01 6.546981e-01
54 1 4 1.800154e+01 1.184261e+01 1.158487e+01 -1 -1 0 3.819596e-01 4.916809e-01 6.958658e-01 3.579492e-01
55 1 4 1.824586e+01 1.206091e+01 1.116658e+01 -1 -1 0 6.349208e-02 7.210197e-01 4.917319e-01 4.840445e-01
56 1 4 1.844332e+01 1.178099e+01 1.052491e+01 -1 -1 0 8.334169e-03 1.823046e-01 9.754995e-01 1.228672e-01
57 1 1 1.980323e+01 1.166481e+01 1.030729e+01 -1 -1 0 8.361042e-01 5.005414e-01 -8.013856e-02 -2.096804e-01
58 1 1 -1.943601e+01 1.267044e+01 1.078311e+01 0 -1 0 -8.162202e-01 1.340755e-01 6.568917e-03 -5.619299e-01
59 1 3 -1.926321e+01 1.274601e+01 1.124289e+01 0 -1 0 -7.582036e-01 -1.559086e-01 -1.669665e-01 -6.106898e-01
60 1 4 -2.000307e+01 1.325244e+01 1.232929e+01 0 -1 0 1.697360e-01 -8.746486e-01 -2.172182e-01 -3.987427e-01
61 1 2 1.962188e+01 1.320190e+01 1.212623e+01 -1 -1 0 4.372723e-01 1.699419e-01 8.821019e-01 -4.253142e-02
62 1 3 1.964727e+01 1.340299e+01 1.347820e+01 -1 -1 0 5.930633e-01 -3.732659e-01 2.156139e-01 -6.800434e-01
63 1 2 1.978824e+01 1.348936e+01 1.388502e+01 -1 -1 0 7.894873e-01 -2.228192e-01 3.059071e-01 -4.832000e-01
64 1 4 1.912444e+01 1.412295e+01 1.447313e+01 -1 -1 0 7.208088e-01 -2.526618e-01 -4.609039e-01 -4.518454e-01
65 1 2 1.979484e+01 1.499917e+01 1.491930e+01 -1 -1 0 -4.283556e-01 1.853790e-02 5.947111e-02 -9.014605e-01
66 1 1 1.946092e+01 1.507708e+01 1.552405e+01 -1 -1 0 9.627809e-02 -2.838539e-01 -1.073306e-01 9.479650e-01
67 1 2 1.891245e+01 1.377396e+01 1.568457e+01 -1 -1 0 4.349997e-01 1.190100e-01 -7.245206e-01 -5.212310e-01
68 1 1 1.844040e+01 1.395337e+01 1.549391e+01 -1 -1 0 5.293387e-01 8.559542e-02 -7.280920e-01 -4.270317e-01
69 1 1 1.810254e+01 1.450341e+01 1.555778e+01 -1 -1 0 -6.487603e-01 -9.251587e-02 7.553465e-01 1.586955e-03
70 1 2 1.702316e+01 1.531664e+01 1.476907e+01 -1 -1 0 1.378945e-02 2.700454e-01 9.431947e-01 1.930519e-01
71 1 3 1.729354e+01 1.495329e+01 1.535705e+01 -1 -1 0 7.973877e-01 4.022993e-01 -3.794316e-01 -2.415777e-01
72 1 4 1.789783e+01 1.567911e+01 1.611382e+01 -1 -1 0 6.300563e-01 -6.312500e-01 4.454509e-01 -7.826815e-02
73 1 1 1.830836e+01 1.583859e+01 1.621382e+01 -1 -1 0 -6.262238e-01 3.714119e-01 -6.712010e-01 -1.392339e-01
74 1 1 1.875169e+01 1.671896e+01 1.732695e+01 -1 -1 0 1.700476e-01 4.816602e-01 -3.915164e-01 7.653772e-01
75 1 3 1.907359e+01 1.656514e+01 1.765864e+01 -1 -1 0 -1.551341e-01 3.550030e-01 -4.847299e-01 7.841831e-01
76 1 1 1.935458e+01 1.629822e+01 1.798241e+01 -1 -1 0 4.626591e-01 -5.904056e-02 6.705591e-01 -5.768979e-01
77 1 4 1.937951e+01 1.587245e+01 1.822793e+01 -1 -1 0 -7.630425e-01 -2.600445e-01 -4.825143e-01 3.425244e-01
78 1 1 1.946909e+01 1.543221e+01 1.815571e+01 -1 -1 0 -8.631369e-01 -4.344996e-01 -2.397039e-01 -9.352464e-02
79 1 4 1.885393e+01 1.556029e+01 1.898448e+01 -1 -1 0 -2.439580e-01 6.931777e-01 2.194952e-01 -6.417250e-01
80 1 2 1.853063e+01 1.593896e+01 1.901849e+01 -1 -1 0 6.755999e-02 -7.246061e-01 1.404785e-01 6.713027e-01
81 1 4 1.923698e+01 1.647949e+01 1.919264e+01 -1 -1 0 -1.628384e-01 -9.308958e-01 2.051935e-01 -2.545826e-01
82 1 4 1.892202e+01 1.661222e+01 1.918225e+01 -1 -1 0 7.611352e-01 3.639804e-01 2.043490e-01 -4.964202e-01
83 1 4 1.803685e+01 1.747085e+01 1.964832e+01 -1 -1 0 8.149467e-02 -4.403676e-01 -7.924935e-01 4.139916e-01
84 1 4 1.763573e+01 1.720543e+01 1.956811e+01 -1 -1 0 -4.240585e-03 7.193139e-01 5.256628e-01 -4.541455e-01
85 1 1 1.723958e+01 1.722221e+01 1.928654e+01 -1 -1 0 -1.074794e-01 -8.837654e-01 -1.629601e-01 4.252657e-01
86 1 1 1.689710e+01 1.754589e+01 1.911967e+01 -1 -1 0 -1.763410e-01 -8.331303e-01 2.147904e-01 4.781870e-01
87 1 3 1.683975e+01 1.823284e+01 1.880209e+01 -1 -1 0 -3.078314e-01 8.305859e-01 -1.941042e-01 -4.215334e-01
88 1 2 1.598421e+01 1.787029e+01 1.872498e+01 -1 -1 0 1.884624e-01 -6.303777e-01 7.313451e-01 1.795554e-01
89 1 2 1.515101e+01 1.812630e+01 1.935994e+01 -1 -1 0 -3.847258e-01 -3.897646e-01 -4.320623e-01 7.165137e-01
90 1 3 1.481842e+01 1.778723e+01 1.950610e+01 -1 -1 0 -4.682062e-01 -5.657415e-01 -3.215204e-01 5.977827e-01
91 1 3 1.460929e+01 1.734243e+01 1.967514e+01 -1 -1 0 3.178728e-01 -4.590320e-01 7.807093e-01 -2.806055e-01
92 1 2 1.374729e+01 1.842001e+01 1.925916e+01 -1 -1 0 -4.881626e-01 -6.374538e-01 -5.960855e-01 5.656529e-03
93 1 1 1.395425e+01 1.822217e+01 1.883831e+01 -1 -1 0 -4.524540e-01 -7.997028e-01 -2.785841e-01 -2.795563e-01
94 1 2 1.410104e+01 1.813836e+01 1.840183e+01 -1 -1 0 2.248405e-01 8.673282e-01 -2.298541e-03 4.440532e-01
95 1 3 1.420382e+01 1.771645e+01 1.713855e+01 -1 -1 0 -1.178563e-01 5.756463e-01 -6.187722e-01 -5.214041e-01
96 1 2 1.371605e+01 1.751885e+01 1.730496e+01 -1 -1 0 -2.692999e-02 3.504418e-01 -5.428745e-01 7.627271e-01
97 1 2 1.327087e+01 1.736233e+01 1.593555e+01 -1 -1 0 2.295619e-01 3.548711e-01 6.134644e-01 6.671051e-01
98 1 4 1.441334e+01 1.761216e+01 1.555719e+01 -1 -1 0 -6.241072e-01 5.795479e-01 -1.589076e-01 -4.993625e-01
99 1 2 1.416152e+01 1.655608e+01 1.603159e+01 -1 -1 0 -2.882799e-01 6.940561e-01 -3.159065e-01 5.791234e-01
100 1 1 1.462443e+01 1.663517e+01 1.624047e+01 -1 -1 0 -4.764276e-01 4.986328e-01 -6.039966e-01 3.994623e-01
101 2 4 4.324509e+00 1.327012e+01 -2.327985e-01 0 -1 0 -6.255756e-01 7.267684e-01 -2.834648e-01 1.051558e-02
102 2 3 3.732654e+00 1.258119e+01 2.306030e-01 0 -1 0 -8.500977e-01 4.299603e-01 2.902023e-01 9.083281e-02
103 2 1 3.815016e+00 1.323681e+01 -1.172905e+00 0 -1 0 -7.533805e-01 -5.365730e-01 -1.572849e-01 -3.460761e-01
104 2 3 4.327631e+00 1.303893e+01 -1.018670e+00 0 -1 0 -5.975289e-01 -5.093327e-01 -2.969608e-01 -5.434646e-01
105 2 3 4.766053e+00 1.309520e+01 -1.204294e+00 0 -1 0 3.773520e-01 5.688344e-01 -5.724269e-02 7.285301e-01
106 2 2 4.969977e+00 1.203117e+01 -1.981944e+00 0 -1 0 -8.704121e-01 -3.922288e-01 -6.865338e-02 -2.895274e-01
107 2 3 3.743334e+00 1.210777e+01 -2.253619e+00 0 -1 0 7.554771e-02 7.920052e-01 3.055700e-01 -5.231131e-01
108 2 4 3.243011e+00 1.203896e+01 -1.692198e+00 0 -1 0 6.268689e-01 9.006642e-02 -2.041336e-01 7.464937e-01
109 2 3 2.756338e+00 1.111552e+01 -1.171617e+00 0 -1 0 -1.790160e-01 1.858676e-01 9.652571e-01 4.105250e-02
110 2 2 2.331941e+00 1.085059e+01 -1.504909e+00 0 -1 0 1.668556e-01 -5.858329e-01 -7.910514e-01 5.653929e-02
111 2 2 2.231051e+00 9.865626e+00 -9.966723e-01 0 -1 0 -3.131180e-01 4.480261e-02 8.942427e-01 -3.166700e-01
112 2 3 2.203432e+00 9.398593e+00 -9.717024e-01 0 -1 0 -1.057817e-01 3.923657e-01 7.975524e-01 -4.458357e-01
113 2 3 1.787200e+00 9.142362e+00 -1.231748e+00 0 -1 0 -2.371388e-01 5.080706e-01 6.712348e-01 -4.848436e-01
114 2 2 2.214970e+00 8.046266e+00 -1.436355e+00 0 -1 0 -3.729638e-01 6.780144e-01 -4.117353e-01 4.813196e-01
115 2 4 2.181648e+00 8.586586e+00 -2.806139e+00 0 -1 0 7.809204e-01 3.317833e-01 5.291768e-01 7.426706e-03
116 2 4 2.503449e+00 8.203389e+00 -2.982274e+00 0 -1 0 7.105905e-01 5.076907e-01 3.426370e-01 3.462820e-01
117 2 1 2.376578e+00 7.536848e+00 -1.952719e+00 0 -1 0 -9.512449e-02 4.172192e-01 -3.367745e-01 8.387267e-01
118 2 1 2.615035e+00 7.358185e+00 -1.428496e+00 0 -1 0 -2.552575e-01 1.633148e-01 -5.832160e-01 7.536783e-01
119 2 1 2.855213e+00 6.964768e+00 -1.176150e+00 0 -1 0 4.042574e-01 5.893139e-02 6.993484e-01 -5.865278e-01
120 2 1 2.942867e+00 6.523647e+00 -1.072565e+00 0 -1 0 -6.259087e-01 -3.346928e-01 -6.480800e-01 2.760640e-01
121 2 3 2.898487e+00 6.020771e+00 -1.232854e+00 0 -1 0 -6.556638e-01 -5.733551e-01 -4.863472e-01 6.953602e-02
122 2 1 3.101172e+00 5.626411e+00 -1.633061e+00 0 -1 0 6.786012e-01 6.466310e-01 2.367554e-01 2.555692e-01
123 2 4 3.873974e+00 5.255198e+00 -8.900009e-01 0 -1 0 -8.643214e-01 2.318347e-01 4.166113e-01 -1.601134e-01
124 2 1 3.479736e+00 4.326825e+00 -9.271530e-01 0 -1 0 -3.098392e-01 3.397864e-01 -8.861916e-01 -5.665042e-02
125 2 4 2.842399e+00 4.517825e+00 -1.105022e+00 0 -1 0 -5.639176e-02 4.975581e-01 5.006852e-01 7.060951e-01
126 2 2 2.503406e+00 3.803975e+00 -9.761874e-01 0 -1 0 -3.177156e-01 8.585887e-02 7.219603e-01 -6.086529e-01
127 2 4 3.514013e+00 2.965325e+00 -1.195661e+00 0 -1 0 -3.317702e-03 -8.246142e-01 5.305103e-01 -1.963651e-01
128 2 4 2.774384e+00 2.152955e+00 -1.141359e+00 0 -1 0 2.302577e-01 -5.972931e-01 7.440360e-01 -1.913970e-01
129 2 1 1.441890e+00 2.795821e+00 -6.490162e-01 0 -1 0 1.899532e-01 -4.879578e-01 -8.499212e-01 -5.872710e-02
130 2 2 1.188522e+00 2.933432e+00 -1.062759e+00 0 -1 0 1.826297e-01 -8.089641e-01 -5.537086e-01 -7.503568e-02
131 2 3 8.841488e-01 3.236066e+00 -1.394816e+00 0 -1 0 1.659142e-01 -9.592292e-01 -2.283138e-01 1.498690e-02
132 2 4 8.141960e-01 3.817734e+00 -1.176659e+00 0 -1 0 -3.193742e-02 9.180675e-01 -8.524119e-02 3.858315e-01
133 2 4 3.725471e-01 4.260519e+00 -1.655643e+00 0 -1 0 3.603647e-01 2.466430e-01 8.599199e-01 2.642770e-01
134 2 3 -2.900449e-01 4.850137e+00 -9.016606e-01 0 -1 0 1.560075e-01 -7.918019e-01 -5.620375e-01 1.811774e-01
135 2 4 -3.748453e-01 4.058521e+00 -2.229328e+00 0 -1 0 -7.382837e-01 -3.529836e-01 -5.697099e-01 7.596282e-02
136 2 3 -7.905935e-01 4.735321e+00 -1.452191e+00 0 -1 0 7.029399e-01 -4.885732e-01 -3.452872e-01 -3.846407e-01
137 2 1 -1.134798e+00 5.041199e+00 -1.133607e+00 0 -1 0 8.052742e-01 -5.824547e-01 -8.649805e-02 -6.926757e-02
138 2 3 -7.930131e-01 5.528002e+00 -2.335471e+00 0 -1 0 5.316249e-01 8.135679e-01 -2.293160e-01 5.381833e-02
139 2 2 -1.328792e+00 5.326784e+00 -3.394195e+00 0 -1 0 7.491972e-01 5.295159e-01 3.863174e-01 -9.526493e-02
140 2 3 -1.155542e+00 4.979331e+00 -3.658447e+00 0 -1 0 7.402747e-01 6.188063e-01 -8.484651e-03 2.626788e-01
141 2 1 -7.984516e-01 4.015411e+00 -3.894992e+00 0 -1 0 -8.546646e-01 -4.612072e-01 2.278289e-01 7.021696e-02
142 2 2 -1.124334e+00 3.525583e+00 -3.861322e+00 0 -1 0 -7.908911e-01 -4.504018e-01 3.788556e-01 -1.676245e-01
143 2 4 -9.744099e-01 3.538228e+00 -4.944606e+00 0 -1 0 -6.053907e-01 -6.469531e-01 -1.773622e-01 4.283648e-01
144 2 4 -1.107789e+00 2.645858e+00 -4.260520e+00 0 -1 0 -5.036078e-01 -6.827208e-01 5.180552e-01 1.090429e-01
145 2 1 -1.140743e+00 2.324185e+00 -4.669509e+00 0 -1 0 -4.854010e-01 -4.438994e-01 7.516670e-01 -4.833083e-02
146 2 1 -1.422340e+00 2.286893e+00 -5.231006e+00 0 -1 0 7.155896e-01 6.315439e-01 -2.832329e-01 9.414314e-02
147 2 1 -1.306869e+00 1.779326e+00 -5.413261e+00 0 -1 0 -6.442213e-01 -5.400771e-01 4.402929e-01 -3.153376e-01
148 2 2 -1.740690e+00 1.836736e+00 -4.819642e+00 0 -1 0 -2.292199e-01 -5.745514e-01 -7.049144e-02 -7.825471e-01
149 2 4 -1.841934e+00 1.145124e+00 -4.719021e+00 0 -1 0 -5.156238e-01 7.633141e-01 -3.146264e-01 -2.291156e-01
150 2 1 -3.272073e+00 1.554243e+00 -5.073091e+00 0 -1 0 -1.120312e-02 5.563242e-01 5.633383e-01 -6.107600e-01
151 2 1 -3.729166e+00 1.560840e+00 -5.069533e+00 0 -1 0 2.987740e-01 7.144167e-01 1.913123e-01 -6.031106e-01
152 2 1 -4.143762e+00 1.509485e+00 -5.287366e+00 0 -1 0 -4.424921e-01 -7.487748e-01 1.569903e-01 4.678580e-01
153 2 4 -5.088422e+00 1.751821e+00 -4.271196e+00 0 -1 0 -1.541759e-01 -1.610710e-01 -7.004811e-02 -9.723061e-01
154 2 1 -5.044088e+00 1.669103e-01 -4.136395e+00 0 -1 0 8.029239e-01 -1.329015e-01 1.920613e-02 -5.807595e-01
155 2 2 -5.115763e+00 -2.064168e-04 -3.727839e+00 0 -1 0 9.880310e-01 -1.971910e-02 -6.400219e-02 -1.389594e-01
156 2 4 -5.759762e+00 3.176426e-01 -2.736403e+00 0 -1 0 -7.157829e-01 4.892911e-01 4.663966e-01 1.752805e-01
157 2 3 -6.096612e+00 5.477818e-01 -2.415931e+00 0 -1 0 7.693791e-01 -6.035953e-01 -1.978619e-01 6.766988e-02
158 2 2 -6.177598e+00 -2.910662e-01 -2.626208e+00 0 -1 0 9.309558e-01 3.636963e-01 -2.851266e-02 -1.527376e-02
159 2 1 -7.370086e+00 -4.947549e-01 -2.456970e+00 0 -1 0 -1.763546e-01 -1.148570e-01 8.499897e-01 -4.829331e-01
160 2 3 -7.376783e+00 -1.010511e+00 -2.379401e+00 0 -1 0 9.262162e-03 1.385989e-01 7.983410e-01 -5.859661e-01
161 2 1 -7.690049e+00 -1.375915e+00 -2.347540e+00 0 -1 0 3.357357e-01 5.205604e-01 6.543027e-01 -4.338046e-01
162 2 1 -6.979480e+00 -1.586855e+00 -1.112608e+00 0 -1 0 4.565571e-01 -2.772929e-01 -6.703791e-01 5.150302e-01
163 2 4 -7.305295e+00 -1.830108e+00 -8.298768e-01 0 -1 0 -1.372701e-01 5.180382e-01 6.287927e-01 -5.633942e-01
164 2 4 -7.586249e+00 -2.477259e+00 -7.475446e-01 0 -1 0 3.042958e-01 4.700158e-01 -7.705637e-01 3.045008e-01
165 2 3 -8.533920e+00 -1.956964e+00 -1.392077e+00 0 -1 0 7.229171e-02 -6.654632e-01 8.112212e-02 7.384794e-01
166 2 3 -8.921268e+00 -1.640269e+00 -1.414740e+00 0 -1 0 -3.078465e-01 -5.581460e-01 3.745973e-01 6.733353e-01
167 2 4 -9.446763e+00 -1.587326e+00 -1.581628e+00 0 -1 0 -5.126578e-01 -4.220606e-01 5.856714e-01 4.647966e-01
168 2 2 -1.037008e+01 -1.128260e+00 -6.167320e-01 0 -1 0 -9.286105e-02 2.800771e-01 6.257195e-01 -7.220864e-01
169 2 2 -1.079208e+01 -1.357166e+00 -4.329513e-01 0 -1 0 3.182528e-01 5.796719e-01 4.169157e-01 -6.236000e-01
170 2 1 -1.078546e+01 -2.357831e+00 -7.328158e-02 0 -1 0 7.416559e-01 2.611430e-01 5.900977e-01 -1.831272e-01
171 2 1 -1.061523e+01 -2.807936e+00 -1.097559e-01 0 -1 0 -7.005072e-01 -5.459133e-01 -4.512630e-01 -8.735018e-02
172 2 4 -1.035731e+01 -3.069085e+00 -3.827586e-01 0 -1 0 6.805039e-01 6.059143e-01 5.574400e-03 4.120088e-01
173 2 4 -1.091951e+01 -3.989265e+00 -4.797149e-01 0 -1 0 -1.780306e-01 -6.374439e-01 2.191175e-01 7.169086e-01
174 2 1 -1.073183e+01 -4.443539e+00 1.972886e-01 0 -1 0 -5.163395e-01 1.264321e-02 5.344773e-02 -8.546210e-01
175 2 1 -1.144477e+01 -5.827321e+00 7.282988e-02 0 -1 0 9.325461e-01 8.324986e-02 2.051632e-01 -2.851934e-01
176 2 2 -1.112021e+01 -6.424251e+00 -7.170219e-02 0 -1 0 -5.399267e-01 1.703555e-01 -8.150159e-01 1.233175e-01
177 2 2 -1.039512e+01 -5.797354e+00 -9.078104e-01 0 -1 0 -3.356381e-01 -9.363876e-01 7.291263e-02 7.217382e-02
178 2 1 -1.155561e+01 -6.744242e+00 -6.593238e-01 0 -1 0 3.741180e-01 -1.777187e-01 3.403714e-01 -8.441559e-01
179 2 4 -1.117424e+01 -6.649771e+00 -1.367628e+00 0 -1 0 -1.066841e-01 2.781880e-01 9.134994e-01 2.770359e-01
180 2 1 -1.141024e+01 -6.528902e+00 -1.805352e+00 0 -1 0 2.890430e-01 -5.306328e-01 -7.920543e-01 -8.679262e-02
181 2 4 -1.184612e+01 -6.447500e+00 -2.012883e+00 0 -1 0 3.061802e-01 -8.178244e-01 -4.810461e-01 7.753463e-02
182 2 2 -1.187779e+01 -6.748451e+00 -2.611151e+00 0 -1 0 7.733339e-01 2.103395e-01 -5.929005e-01 7.861924e-02
183 2 3 -1.199836e+01 -5.627656e+00 -3.727215e+00 0 -1 0 -3.007196e-01 6.522490e-01 -5.910247e-02 -6.932863e-01
184 2 4 -1.193009e+01 -6.170106e+00 -4.406217e+00 0 -1 0 1.010222e-01 -5.261658e-01 8.183040e-01 2.081410e-01
185 2 3 -1.300854e+01 -5.191400e+00 -4.514150e+00 0 -1 0 -2.491997e-01 -6.262022e-01 -6.367567e-01 -3.745814e-01
186 2 1 -1.288635e+01 -4.998662e+00 -4.961097e+00 0 -1 0 6.179994e-02 7.727254e-01 4.458574e-01 4.475348e-01
187 2 1 -1.272994e+01 -4.644189e+00 -5.163688e+00 0 -1 0 1.014755e-01 -9.281838e-01 1.643863e-01 -3.180483e-01
188 2 2 -1.244328e+01 -4.408744e+00 -6.276425e+00 0 -1 0 1.965311e-02 -7.429339e-01 -2.672313e-02 6.685424e-01
189 2 4 -1.281290e+01 -4.003418e+00 -6.418129e+00 0 -1 0 -1.647490e-01 -7.399326e-01 2.931416e-01 5.826024e-01
190 2 4 -1.315897e+01 -3.906185e+00 -6.855136e+00 0 -1 0 4.921455e-01 5.449434e-01 -5.570424e-01 -3.879861e-01
191 2 1 -1.349819e+01 -4.141061e+00 -7.136445e+00 0 -1 0 6.448061e-01 3.302206e-01 -6.852753e-01 -7.468132e-02
192 2 4 -1.382758e+01 -4.501506e+00 -7.271663e+00 0 -1 0 6.883508e-01 9.979023e-02 -6.964890e-01 1.764032e-01
193 2 4 -1.280821e+01 -4.599848e+00 -8.011134e+00 0 -1 0 9.743022e-01 6.302227e-02 9.862312e-02 1.924499e-01
194 2 1 -1.258500e+01 -4.823406e+00 -7.686574e+00 0 -1 0 -8.218509e-01 -2.318390e-01 -6.697990e-02 -5.160672e-01
195 2 3 -1.343167e+01 -5.437233e+00 -8.533435e+00 0 -1 0 5.169329e-01 4.344223e-01 1.887111e-01 -7.130539e-01
196 2 4 -1.382818e+01 -5.616835e+00 -8.556831e+00 0 -1 0 -7.292371e-01 -5.062329e-01 1.060210e-01 4.479966e-01
197 2 2 -1.393939e+01 -5.279982e+00 -9.353839e+00 0 -1 0 -3.617802e-01 6.996351e-02 -8.190321e-01 -4.397803e-01
198 2 4 -1.368520e+01 -4.841852e+00 -9.643625e+00 0 -1 0 -7.198654e-02 -6.917227e-02 -8.201190e-01 -5.634164e-01
199 2 3 -1.318882e+01 -4.525876e+00 -9.892349e+00 0 -1 0 -8.494522e-02 9.861167e-01 -1.257628e-01 -6.739354e-02
200 2 4 -1.316923e+01 -5.106772e+00 -1.051655e+01 0 -1 0 -3.613729e-01 1.302037e-01 -9.174776e-01 1.033992e-01
