ITEM: TIMESTEP
382000000
ITEM: NUMBER OF ATOMS
200
ITEM: BOX BOUNDS pp pp pp
-2.0000000000000000e+01 2.0000000000000000e+01
-2.0000000000000000e+01 2.0000000000000000e+01
-2.0000000000000000e+01 2.0000000000000000e+01
ITEM: ATOMS id mol type x y z ix iy iz c_quat[1] c_quat[2] c_quat[3] c_quat[4]
1 1 1 1.004002e+01 1.645939e+01 5.512469e+00 -1 0 0 5.846512e-01 6.475473e-01 2.393333e-01 -4.261280e-01
2 1 2 1.019270e+01 1.598525e+01 6.300112e+00 -1 0 0 6.097701e-01 2.622076e-01 7.332101e-01 -1.477520e-01
3 1 1 1.030782e+01 1.637284e+01 6.964949e+00 -1 0 0 5.284065e-01 7.452523e-01 -2.058260e-01 -3.507438e-01
4 1 3 1.069320e+01 1.736194e+01 7.571566e+00 -1 0 0 4.902088e-01 7.425049e-01 -3.337467e-01 3.114401e-01
5 1 1 1.021287e+01 1.779578e+01 6.398856e+00 -1 0 0 -7.760373e-01 -5.001240e-01 -2.320232e-01 -3.062798e-01
6 1 2 1.067034e+01 1.769559e+01 6.326225e+00 -1 0 0 -4.459500e-01 -5.584344e-01 7.945995e-02 -6.949573e-01
7 1 4 1.114253e+01 1.770953e+01 6.520261e+00 -1 0 0 5.795003e-02 4.226405e-01 -3.850455e-01 8.183867e-01
8 1 1 1.072519e+01 1.809683e+01 5.161809e+00 -1 0 0 -4.242353e-01 -3.939215e-02 -6.395963e-01 -6.398353e-01
9 1 1 1.082798e+01 1.801258e+01 4.448123e+00 -1 0 0 -6.110157e-01 7.436842e-02 -6.810877e-01 -3.965460e-01
10 1 4 1.081755e+01 1.748290e+01 5.019607e+00 -1 0 0 5.004516e-01 -2.575539e-01 1.067844e-01 -8.196410e-01
11 1 1 1.127265e+01 1.732798e+01 5.058226e+00 -1 0 0 -4.316504e-01 -4.488790e-01 -1.458639e-01 -7.687062e-01
12 1 1 1.173648e+01 1.742276e+01 5.207615e+00 -1 0 0 -2.043496e-01 -4.263280e-01 -4.255190e-02 -8.801562e-01
13 1 3 1.294374e+01 1.673761e+01 4.708819e+00 -1 0 0 7.795377e-01 6.166636e-01 -9.673532e-02 -5.185803e-02
14 1 4 1.240704e+01 1.675182e+01 4.607754e+00 -1 0 0 -7.598609e-02 8.319320e-01 5.148040e-01 1.925930e-01
15 1 4 1.301460e+01 1.555831e+01 4.053258e+00 -1 0 0 -8.814505e-01 -3.698818e-01 9.463777e-02 -2.779858e-01
16 1 2 1.277652e+01 1.483684e+01 4.604561e+00 -1 0 0 9.463329e-01 2.023965e-02 2.569467e-01 1.949945e-01
17 1 1 1.267403e+01 1.507152e+01 4.634378e+00 -1 0 0 -3.703602e-02 7.204510e-01 5.007614e-01 4.783480e-01
18 1 2 1.247086e+01 1.386525e+01 5.387856e+00 -1 0 0 6.183038e-01 -6.578900e-02 -7.734509e-01 -1.230687e-01
19 1 3 1.202848e+01 1.352574e+01 5.153631e+00 -1 0 0 -7.351630e-01 -1.446122e-01 -6.564889e-01 8.743521e-02
20 1 1 1.164726e+01 1.434327e+01 5.827229e+00 -1 0 0 2.995285e-01 1.345075e-01 -3.596969e-01 -8.733891e-01
21 1 4 1.123566e+01 1.452014e+01 5.883944e+00 -1 0 0 -5.881172e-01 -2.833862e-02 5.030118e-01 6.326881e-01
22 1 1 1.081008e+01 1.448995e+01 5.944871e+00 -1 0 0 7.122390e-01 -2.346103e-01 -6.070877e-01 -2.629031e-01
23 1 4 1.007129e+01 1.438915e+01 5.523769e+00 -1 0 0 -1.349577e-01 4.531259e-01 4.982332e-01 7.267922e-01
24 1 3 1.073534e+01 1.399974e+01 4.380634e+00 -1 0 0 -5.310413e-01 -4.185082e-01 -6.999880e-01 -2.299191e-01
25 1 3 1.104774e+01 1.382141e+01 4.039295e+00 -1 0 0 -3.710333e-01 -6.603201e-01 -4.528055e-01 -4.704028e-01
26 1 4 1.142982e+01 1.404037e+01 3.745751e+00 -1 0 0 -2.008495e-01 -7.521704e-01 -1.378713e-01 -6.122832e-01
27 1 4 1.154181e+01 1.289996e+01 3.823505e+00 -1 0 0 -6.914925e-01 -2.528172e-01 -3.686277e-02 6.756942e-01
28 1 1 1.213118e+01 1.256790e+01 3.515829e+00 -1 0 0 3.676297e-01 -7.773499e-01 3.919470e-01 3.270368e-01
29 1 1 1.187306e+01 1.150867e+01 4.155923e+00 -1 0 0 -4.095044e-01 3.149455e-01 -6.526758e-01 5.541928e-01
30 1 4 1.212984e+01 1.117314e+01 4.369292e+00 -1 0 0 6.233161e-01 -5.494433e-02 7.007975e-01 -3.425508e-01
31 1 4 1.291290e+01 1.105291e+01 4.169779e+00 -1 0 0 3.674488e-01 -1.649545e-01 8.379896e-01 3.681642e-01
32 1 3 1.314922e+01 1.125469e+01 3.710921e+00 -1 0 0 -1.130647e-01 -1.744769e-01 -8.094168e-01 -5.491982e-01
33 1 3 1.448882e+01 1.068625e+01 4.302654e+00 -1 0 0 -1.154804e-01 9.004631e-01 -4.003633e-01 -1.246589e-01
34 1 1 1.354591e+01 1.109143e+01 5.449229e+00 -1 0 0 -1.793884e-01 3.069864e-01 -4.537400e-01 8.171286e-01
35 1 2 1.401268e+01 1.010195e+01 5.635497e+00 -1 0 0 -6.115719e-01 5.104877e-01 -5.324929e-01 2.860656e-01
36 1 2 1.344431e+01 1.046093e+01 6.043849e+00 -1 0 0 5.315720e-01 -7.863413e-03 -3.322238e-01 7.791000e-01
37 1 1 1.386745e+01 9.121897e+00 5.584099e+00 -1 0 0 6.121395e-01 -3.893303e-01 6.001197e-01 3.369918e-01
38 1 1 1.429022e+01 9.351175e+00 5.410122e+00 -1 0 0 4.714088e-01 7.009027e-03 6.848460e-01 5.556173e-01
39 1 4 1.544080e+01 9.508153e+00 5.729513e+00 -1 0 0 -4.345972e-01 5.925537e-01 -5.726359e-01 -3.634466e-01
40 1 4 1.575206e+01 8.780214e+00 5.855283e+00 -1 0 0 -8.775061e-01 -1.677403e-01 2.524758e-01 3.716211e-01
41 1 2 1.601432e+01 8.951346e+00 4.958373e+00 -1 0 0 -5.534504e-01 -4.010211e-02 -4.599874e-01 -6.931782e-01
42 1 4 1.633574e+01 9.314745e+00 5.058081e+00 -1 0 0 2.407347e-01 1.709020e-01 3.817596e-01 8.758418e-01
43 1 3 1.659886e+01 8.993002e+00 5.969434e+00 -1 0 0 6.029007e-01 -2.097361e-01 -4.088197e-01 -6.522177e-01
44 1 2 1.785795e+01 9.160486e+00 6.117923e+00 -1 0 0 9.164500e-01 -3.718122e-01 -5.053453e-02 -1.390010e-01
45 1 1 1.794224e+01 9.014915e+00 5.340655e+00 -1 0 0 -4.818613e-01 -8.431565e-01 -2.377545e-01 1.922657e-02
46 1 3 1.817215e+01 8.817587e+00 4.925033e+00 -1 0 0 -3.993214e-01 -8.889421e-01 6.996453e-02 -2.131417e-01
47 1 4 1.849508e+01 8.665270e+00 4.565376e+00 -1 0 0 -2.944470e-01 -7.226739e-01 4.800140e-01 -4.007867e-01
48 1 1 1.866763e+01 7.894435e+00 4.703341e+00 -1 0 0 -2.871877e-01 8.182620e-01 -4.118106e-01 2.799687e-01
49 1 4 1.915624e+01 7.964709e+00 4.556605e+00 -1 0 0 -3.003503e-01 5.778811e-01 -7.428656e-01 1.548993e-01
50 1 4 1.958220e+01 7.875882e+00 4.206308e+00 -1 0 0 2.414047e-01 -3.710771e-01 8.787109e-01 -1.785851e-01
51 1 4 -1.978300e+01 8.024566e+00 4.612427e+00 0 0 0 6.315166e-01 -1.061772e-01 -4.512722e-01 6.215035e-01
52 1 1 -1.974736e+01 8.003968e+00 4.034655e+00 0 0 0 -3.372222e-01 3.991054e-01 3.498727e-01 7.775507e-01
53 1 3 -1.887354e+01 7.895874e+00 4.652082e+00 0 0 0 -6.928355e-01 -6.446437e-01 1.911483e-01 -2.605298e-01
54 1 4 -1.859175e+01 7.286776e+00 4.889638e+00 0 0 0 1.571892e-01 -6.205415e-01 7.324906e-01 2.316839e-01
55 1 4 -1.919421e+01 7.651167e+00 5.506713e+00 0 0 0 -3.914114e-01 -3.084325e-01 8.308750e-01 2.476150e-01
56 1 4 -1.900054e+01 8.904188e+00 4.752237e+00 0 0 0 1.442606e-01 6.880428e-01 2.067829e-01 -6.804608e-01
57 1 1 -1.798918e+01 8.726454e+00 4.960362e+00 0 0 0 5.644745e-01 4.034420e-01 3.942427e-01 6.026407e-01
58 1 1 -1.756968e+01 8.755847e+00 4.836094e+00 0 0 0 2.225530e-01 6.734407e-01 1.918308e-01 6.783426e-01
59 1 3 -1.707188e+01 8.948390e+00 4.664974e+00 0 0 0 3.076794e-02 6.810111e-01 -3.421961e-02 7.308257e-01
60 1 4 -1.669496e+01 9.199445e+00 4.855313e+00 0 0 0 -4.032579e-01 6.000546e-01 -3.831139e-01 5.749272e-01
61 1 2 -1.632528e+01 9.370035e+00 5.071784e+00 0 0 0 -6.443443e-01 3.923111e-01 -4.992258e-01 4.262463e-01
62 1 3 -1.582606e+01 9.271254e+00 5.207365e+00 0 0 0 -5.766835e-01 2.137284e-01 -5.805589e-01 5.335800e-01
63 1 2 -1.549889e+01 1.074223e+01 5.282159e+00 0 0 0 1.871539e-01 -1.420837e-01 -1.090976e-01 9.658589e-01
64 1 4 -1.576420e+01 1.091965e+01 5.777798e+00 0 0 0 1.813049e-01 1.931335e-01 3.594853e-02 -9.636056e-01
65 1 2 -1.476911e+01 1.039710e+01 6.853942e+00 0 0 0 6.966492e-01 -6.148617e-01 -1.992003e-01 -3.113588e-01
66 1 1 -1.360361e+01 1.088625e+01 6.767875e+00 0 0 0 -1.373117e-01 -9.090926e-01 2.726757e-01 -2.834504e-01
67 1 2 -1.407063e+01 1.181348e+01 6.486041e+00 0 0 0 2.505728e-01 -3.860016e-02 -3.125749e-01 9.154345e-01
68 1 1 -1.370339e+01 1.194459e+01 6.332780e+00 0 0 0 5.278031e-02 -2.568612e-01 6.726551e-01 -6.919333e-01
69 1 1 -1.353040e+01 1.302651e+01 5.222963e+00 0 0 0 2.736952e-01 -4.710865e-01 1.644813e-01 8.222618e-01
70 1 2 -1.272207e+01 1.228450e+01 6.137628e+00 0 0 0 6.539059e-01 -5.334817e-01 3.250156e-01 -4.268129e-01
71 1 3 -1.236818e+01 1.224629e+01 6.448217e+00 0 0 0 7.620812e-01 -3.728953e-01 5.200700e-01 9.853206e-02
72 1 4 -1.250728e+01 1.221886e+01 6.327503e+00 0 0 0 -1.189274e-01 2.666493e-01 9.514811e-01 9.714984e-02
73 1 1 -1.162457e+01 1.263523e+01 5.706057e+00 0 0 0 8.431911e-03 -8.156674e-01 -5.176497e-01 2.581749e-01
74 1 1 -1.161077e+01 1.143902e+01 5.007160e+00 0 0 0 -1.888126e-02 -1.495200e-01 9.884197e-01 1.771188e-02
75 1 3 -1.176339e+01 1.268176e+01 4.182843e+00 0 0 0 2.985186e-01 6.589964e-01 -2.001936e-02 -6.900794e-01
76 1 1 -1.115964e+01 1.281133e+01 4.247195e+00 0 0 0 -9.800204e-01 -8.238140e-02 -9.129047e-02 1.563310e-01
77 1 4 -1.091844e+01 1.352463e+01 3.742523e+00 0 0 0 3.061245e-01 7.730319e-01 5.406029e-01 1.282886e-01
78 1 1 -1.047192e+01 1.294723e+01 3.444292e+00 0 0 0 7.464774e-01 2.213011e-01 -5.630145e-01 -2.771497e-01
79 1 4 -1.088682e+01 1.325272e+01 3.181065e+00 0 0 0 -2.762096e-01 -8.104391e-01 -4.415189e-01 -2.682495e-01
80 1 2 -1.135182e+01 1.308447e+01 2.447135e+00 0 0 0 5.578968e-01 7.045500e-01 3.902664e-01 2.001317e-01
81 1 4 -1.230919e+01 1.209679e+01 2.368908e+00 0 0 0 -6.312571e-01 -1.946836e-01 -5.922926e-01 4.613049e-01
82 1 4 -1.168839e+01 1.211504e+01 1.774399e+00 0 0 0 -4.479432e-01 4.649333e-01 -2.605498e-01 -7.178423e-01
83 1 4 -1.219273e+01 1.156946e+01 2.197549e+00 0 0 0 1.756874e-01 8.817930e-01 2.207450e-01 3.779507e-01
84 1 4 -1.290531e+01 1.065144e+01 2.285285e+00 0 0 0 -3.454063e-02 3.353147e-01 -4.742760e-01 8.132855e-01
85 1 1 -1.247705e+01 1.109466e+01 1.304890e+00 0 0 0 -1.128074e-01 -7.342676e-01 -6.130021e-01 2.689870e-01
86 1 1 -1.199864e+01 1.033521e+01 7.000267e-01 0 0 0 -8.117840e-01 9.191029e-03 -2.554680e-01 5.250318e-01
87 1 3 -1.209221e+01 1.043685e+01 5.937872e-01 0 0 0 7.757204e-01 -5.897592e-01 2.244140e-01 8.957633e-03
88 1 2 -1.385991e+01 1.056176e+01 3.386561e-01 0 0 0 2.824323e-01 2.993445e-01 8.253768e-01 -3.864944e-01
89 1 2 -1.372503e+01 1.078899e+01 4.874702e-01 0 0 0 8.125709e-01 3.918335e-01 -1.240708e-01 -4.132814e-01
90 1 3 -1.407339e+01 1.040948e+01 8.241151e-01 0 0 0 8.283357e-01 4.623703e-01 7.801669e-02 -3.065732e-01
91 1 3 -1.475881e+01 1.136404e+01 1.485506e+00 0 0 0 6.256901e-01 -3.198940e-01 -4.588166e-01 5.437528e-01
92 1 2 -1.503793e+01 1.144538e+01 1.861494e+00 0 0 0 -2.686264e-01 5.597504e-01 2.823599e-01 -7.312949e-01
93 1 1 -1.540557e+01 1.173822e+01 2.035743e+00 0 0 0 -2.538113e-01 -5.260369e-01 1.273673e-01 8.016499e-01
94 1 2 -1.556015e+01 1.212670e+01 1.687040e+00 0 0 0 6.481528e-01 4.508022e-01 5.687557e-01 -2.306346e-01
95 1 3 -1.504704e+01 1.227566e+01 2.175110e+00 0 0 0 4.594272e-01 -2.593575e-01 -7.899678e-01 -3.124279e-01
96 1 2 -1.419907e+01 1.333728e+01 2.026743e+00 0 0 0 -4.782257e-01 8.722898e-01 1.020330e-01 -1.694599e-04
97 1 2 -1.438317e+01 1.376256e+01 1.902473e+00 0 0 0 -6.796702e-01 7.237737e-01 1.191152e-01 -3.417297e-03
98 1 4 -1.426117e+01 1.419724e+01 2.240508e+00 0 0 0 5.885432e-01 -6.507015e-01 2.112103e-01 4.308070e-01
99 1 2 -1.527647e+01 1.398217e+01 2.073078e+00 0 0 0 5.748177e-01 -1.072511e-01 -8.111637e-01 -9.762325e-03
100 1 1 -1.562884e+01 1.475316e+01 2.600679e+00 0 0 0 3.131810e-01 -4.805998e-01 -7.757303e-01 -2.630285e-01
101 2 4 7.964099e+00 -7.915470e+00 -1.696675e+01 0 -1 0 1.991765e-02 -1.907295e-01 -4.989175e-01 -8.451668e-01
102 2 3 7.543551e+00 -7.661670e+00 -1.635275e+01 0 -1 0 3.943316e-01 -6.662388e-01 -4.381755e-01 -4.567610e-01
103 2 1 7.419145e+00 -7.217451e+00 -1.621844e+01 0 -1 0 5.860123e-01 -7.957753e-01 -8.130741e-02 -1.293072e-01
104 2 3 7.502793e+00 -6.383305e+00 -1.610112e+01 0 -1 0 1.970156e-01 -3.881362e-01 -3.442402e-01 8.318857e-01
105 2 3 7.107404e+00 -6.330199e+00 -1.581239e+01 0 -1 0 -2.680026e-01 -4.487250e-01 -2.030334e-01 8.280084e-01
106 2 2 6.661122e+00 -6.374603e+00 -1.565598e+01 0 -1 0 -6.037843e-01 -4.500833e-01 -1.984724e-02 6.576288e-01
107 2 3 6.875788e+00 -6.979042e+00 -1.436559e+01 0 -1 0 -3.857091e-01 6.102545e-01 -5.606114e-01 4.056264e-01
108 2 4 5.893128e+00 -7.166745e+00 -1.426227e+01 0 -1 0 -1.160146e-01 -5.005964e-02 -9.025129e-01 4.117099e-01
109 2 3 5.832095e+00 -7.780681e+00 -1.457268e+01 0 -1 0 -2.195919e-01 -4.354583e-01 -8.616016e-01 1.407062e-01
110 2 2 5.538378e+00 -7.913868e+00 -1.498184e+01 0 -1 0 3.106684e-01 7.966432e-01 5.137826e-01 -6.980024e-02
111 2 2 4.837500e+00 -8.317425e+00 -1.446920e+01 0 -1 0 -5.752990e-03 6.406896e-01 4.079397e-01 6.504375e-01
112 2 3 5.196373e+00 -9.629877e+00 -1.388079e+01 0 -1 0 8.191838e-01 -3.074612e-01 6.159490e-02 -4.802204e-01
113 2 3 5.363528e+00 -9.680271e+00 -1.335232e+01 0 -1 0 9.328931e-01 -1.330254e-01 3.114164e-01 -1.226151e-01
114 2 2 5.287786e+00 -9.800408e+00 -1.296404e+01 0 -1 0 -4.165566e-01 -7.627117e-01 4.211272e-01 2.596217e-01
115 2 4 4.542157e+00 -9.388336e+00 -1.229722e+01 0 -1 0 -2.391558e-01 1.043542e-01 -9.616543e-01 8.447362e-02
116 2 4 4.772007e+00 -8.400976e+00 -1.214908e+01 0 -1 0 -8.743868e-01 -2.044448e-01 -5.837199e-02 -4.361682e-01
117 2 1 4.269194e+00 -7.747533e+00 -1.198081e+01 0 -1 0 -2.065131e-01 -7.830319e-01 1.553438e-01 5.657575e-01
118 2 1 3.697689e+00 -6.862287e+00 -1.122837e+01 0 -1 0 -1.298168e-01 -6.467024e-01 -1.248702e-01 -7.411687e-01
119 2 1 3.698469e+00 -6.829650e+00 -1.218077e+01 0 -1 0 -2.280340e-01 -9.370651e-01 2.528433e-01 7.732882e-02
120 2 1 3.403023e+00 -7.410288e+00 -1.285252e+01 0 -1 0 6.588334e-01 6.817318e-01 3.069862e-01 -8.330469e-02
121 2 3 3.267857e+00 -7.615171e+00 -1.318691e+01 0 -1 0 7.197968e-01 6.702682e-01 -1.786504e-01 2.678019e-02
122 2 1 3.367154e+00 -7.973784e+00 -1.336581e+01 0 -1 0 -5.544436e-01 -5.713163e-01 4.804512e-01 -3.679085e-01
123 2 4 3.171391e+00 -9.002132e+00 -1.336335e+01 0 -1 0 7.000222e-01 3.938539e-01 -5.604959e-01 -2.017234e-01
124 2 1 2.740500e+00 -9.317084e+00 -1.347789e+01 0 -1 0 6.782576e-01 4.496531e-01 -5.811401e-01 7.407096e-03
125 2 4 2.602343e+00 -9.767272e+00 -1.353917e+01 0 -1 0 -5.845516e-01 -2.475406e-01 6.722108e-01 -3.809932e-01
126 2 2 2.505084e+00 -1.023607e+01 -1.342498e+01 0 -1 0 -2.755628e-01 1.506087e-01 8.208912e-01 -4.769903e-01
127 2 4 2.263177e+00 -1.033576e+01 -1.274726e+01 0 -1 0 5.359897e-01 -7.137617e-01 -3.140928e-01 -3.234270e-01
128 2 4 2.806891e+00 -1.130494e+01 -1.380179e+01 0 -1 0 7.210764e-01 5.987210e-01 1.784621e-01 -2.995552e-01
129 2 1 2.862927e+00 -1.108121e+01 -1.437057e+01 0 -1 0 3.252109e-01 9.024294e-01 -2.449826e-01 -1.408638e-01
130 2 2 2.854191e+00 -1.120427e+01 -1.490336e+01 0 -1 0 3.720272e-01 7.837286e-01 -4.973515e-01 2.589829e-03
131 2 3 2.739056e+00 -1.155307e+01 -1.529547e+01 0 -1 0 3.809126e-01 6.969427e-01 -5.770043e-01 1.903749e-01
132 2 4 2.521138e+00 -1.121212e+01 -1.589861e+01 0 -1 0 7.075008e-01 -3.403539e-01 -2.349190e-01 5.730749e-01
133 2 4 2.254496e+00 -1.252607e+01 -1.629794e+01 0 -1 0 -9.844897e-01 -9.872419e-02 -1.450206e-01 -1.619649e-03
134 2 3 2.511070e+00 -1.278538e+01 -1.585940e+01 0 -1 0 -9.036952e-01 -7.388563e-02 -6.748689e-02 -4.163188e-01
135 2 4 2.767055e+00 -1.283879e+01 -1.512353e+01 0 -1 0 -2.992747e-01 -7.878466e-01 5.317233e-01 -8.368258e-02
136 2 3 2.863106e+00 -1.259616e+01 -1.453231e+01 0 -1 0 -7.786659e-01 2.982955e-01 4.441318e-01 3.277898e-01
137 2 1 3.768647e+00 -1.267880e+01 -1.549820e+01 0 -1 0 -5.591142e-01 -7.235049e-01 3.102213e-01 -2.601823e-01
138 2 3 4.096459e+00 -1.287668e+01 -1.572296e+01 0 -1 0 -2.719886e-01 -6.489039e-01 5.650250e-01 -4.309206e-01
139 2 2 3.821180e+00 -1.321104e+01 -1.651289e+01 0 -1 0 -1.631885e-01 3.164139e-01 -4.053591e-01 -8.419832e-01
140 2 3 5.111389e+00 -1.381986e+01 -1.589216e+01 0 -1 0 -7.056161e-02 8.581028e-01 -4.741850e-01 1.839273e-01
141 2 1 4.810191e+00 -1.334406e+01 -1.703036e+01 0 -1 0 -5.916342e-01 2.703164e-01 -2.390396e-01 -7.209425e-01
142 2 2 5.342450e+00 -1.371385e+01 -1.717860e+01 0 -1 0 -5.279786e-01 5.684253e-01 -6.163893e-01 1.348909e-01
143 2 4 5.760029e+00 -1.374013e+01 -1.767183e+01 0 -1 0 -6.932157e-01 -3.175560e-01 5.859854e-01 -2.742833e-01
144 2 4 6.215715e+00 -1.436789e+01 -1.825562e+01 0 -1 0 -9.277914e-01 3.423179e-01 -1.358968e-01 -5.961321e-02
145 2 1 6.692791e+00 -1.466727e+01 -1.788608e+01 0 -1 0 6.281629e-01 5.903376e-01 -3.035648e-01 4.059081e-01
146 2 1 5.159282e+00 -1.550433e+01 -1.792605e+01 0 -1 0 -5.722331e-01 6.866800e-02 6.405303e-01 5.074987e-01
147 2 1 5.812319e+00 -1.573333e+01 -1.809867e+01 0 -1 0 -6.650419e-01 -4.802315e-01 -1.851588e-01 5.411223e-01
148 2 2 6.228724e+00 -1.657907e+01 -1.778346e+01 0 -1 0 8.348755e-01 3.640314e-01 2.709297e-01 -3.115464e-01
149 2 4 6.446739e+00 -1.601905e+01 -1.699934e+01 0 -1 0 -6.869230e-01 2.387641e-01 -3.842675e-01 -5.687416e-01
150 2 1 6.620785e+00 -1.554107e+01 -1.699947e+01 0 -1 0 2.380146e-01 -1.631771e-01 4.595222e-01 8.399772e-01
151 2 1 6.507198e+00 -1.504432e+01 -1.688260e+01 0 -1 0 1.630646e-01 1.410163e-01 -3.933709e-01 -8.937470e-01
152 2 1 7.309287e+00 -1.496615e+01 -1.650745e+01 0 -1 0 2.009075e-01 -3.561554e-04 5.397426e-01 8.175047e-01
153 2 4 7.838590e+00 -1.510017e+01 -1.553007e+01 0 -1 0 1.846384e-01 4.273112e-01 2.204837e-01 8.571469e-01
154 2 1 7.720639e+00 -1.512378e+01 -1.486154e+01 0 -1 0 -4.075133e-02 1.830498e-01 1.323457e-01 -9.733020e-01
155 2 2 7.536857e+00 -1.492851e+01 -1.449173e+01 0 -1 0 -4.356790e-01 -1.351545e-01 -8.044631e-02 8.862536e-01
156 2 4 8.139004e+00 -1.430708e+01 -1.513793e+01 0 -1 0 4.369207e-01 9.333076e-02 8.613563e-01 2.417749e-01
157 2 3 8.218687e+00 -1.397364e+01 -1.444042e+01 0 -1 0 -5.380484e-01 -6.324715e-01 4.534472e-01 3.238355e-01
158 2 2 7.773375e+00 -1.332364e+01 -1.468281e+01 0 -1 0 -8.087448e-01 -5.584295e-01 -1.256611e-01 -1.352687e-01
159 2 1 7.425213e+00 -1.262716e+01 -1.454976e+01 0 -1 0 -2.547485e-01 1.283657e-01 -8.464041e-02 9.547049e-01
160 2 3 7.217125e+00 -1.250701e+01 -1.416707e+01 0 -1 0 6.138756e-01 -1.111788e-01 -2.615251e-02 -7.810967e-01
161 2 1 7.403341e+00 -1.193096e+01 -1.469488e+01 0 -1 0 1.832900e-01 -3.344671e-01 8.770821e-01 2.919993e-01
162 2 1 6.675933e+00 -1.128701e+01 -1.517341e+01 0 -1 0 1.712825e-01 4.620224e-01 8.545974e-01 -1.638932e-01
163 2 4 7.938282e+00 -1.141617e+01 -1.555658e+01 0 -1 0 -3.115588e-01 7.506016e-01 -5.803691e-01 5.196272e-02
164 2 4 8.314565e+00 -1.127722e+01 -1.581716e+01 0 -1 0 3.226696e-01 -4.524126e-01 8.230979e-01 -1.171197e-01
165 2 3 8.736374e+00 -1.150709e+01 -1.602862e+01 0 -1 0 -2.620580e-01 1.397078e-01 -9.545679e-01 -2.464706e-02
166 2 3 8.956748e+00 -1.163555e+01 -1.650893e+01 0 -1 0 -1.888764e-01 -3.728929e-01 -8.883879e-01 -1.898514e-01
167 2 4 9.481987e+00 -1.088156e+01 -1.556472e+01 0 -1 0 -7.557000e-02 7.165460e-01 5.346956e-01 4.415333e-01
168 2 2 1.030476e+01 -1.111225e+01 -1.507719e+01 0 -1 0 7.344033e-01 -4.812562e-01 3.566425e-01 3.191400e-01
169 2 2 1.070584e+01 -1.081934e+01 -1.500510e+01 0 -1 0 -5.807809e-01 2.011537e-01 -5.368812e-01 -5.779181e-01
170 2 1 1.105006e+01 -1.043538e+01 -1.495954e+01 0 -1 0 -2.758198e-01 1.897995e-02 -4.965591e-01 -8.227954e-01
171 2 1 1.111002e+01 -9.974270e+00 -1.494794e+01 0 -1 0 -1.964237e-01 2.318134e-01 4.388857e-01 8.456120e-01
172 2 4 1.097193e+01 -9.608999e+00 -1.469413e+01 0 -1 0 -5.339855e-01 2.827013e-01 3.773640e-01 7.018090e-01
173 2 4 1.069565e+01 -9.278244e+00 -1.434599e+01 0 -1 0 7.695326e-01 -4.334897e-01 -1.818072e-01 -4.322644e-01
174 2 1 1.067459e+01 -8.890583e+00 -1.389806e+01 0 -1 0 8.294629e-01 -4.873200e-01 1.186865e-01 -2.458130e-01
175 2 1 1.038813e+01 -8.538264e+00 -1.331232e+01 0 -1 0 -2.939490e-01 4.161301e-01 3.562373e-01 7.832782e-01
176 2 2 1.125671e+01 -7.688038e+00 -1.300694e+01 0 -1 0 1.378381e-01 8.645593e-01 1.836559e-01 4.469992e-01
177 2 2 1.161223e+01 -7.237300e+00 -1.319834e+01 0 -1 0 7.552954e-01 -4.537545e-01 -2.265111e-01 4.151246e-01
178 2 1 1.172770e+01 -7.037806e+00 -1.237405e+01 0 -1 0 2.734504e-01 6.479369e-01 -5.303616e-01 4.734124e-01
179 2 4 1.126101e+01 -6.121669e+00 -1.312914e+01 0 -1 0 1.410745e-01 -8.931987e-01 -9.293182e-04 4.269580e-01
180 2 1 1.163132e+01 -5.747797e+00 -1.253358e+01 0 -1 0 9.069009e-02 5.640514e-01 -2.973741e-01 7.649771e-01
181 2 4 1.193899e+01 -5.761641e+00 -1.211864e+01 0 -1 0 3.671786e-01 -3.914586e-01 4.890473e-01 -6.875847e-01
182 2 2 1.211340e+01 -5.969302e+00 -1.174669e+01 0 -1 0 7.365610e-01 -8.460047e-02 5.685046e-01 -3.565435e-01
183 2 3 1.172451e+01 -5.856582e+00 -1.138568e+01 0 -1 0 -4.756942e-01 3.953645e-02 -7.901033e-01 -3.845630e-01
184 2 4 1.125667e+01 -5.234155e+00 -1.112402e+01 0 -1 0 -5.182460e-01 -2.362092e-01 3.541900e-01 7.417384e-01
185 2 3 1.160502e+01 -4.393212e+00 -1.050000e+01 0 -1 0 7.389093e-01 -6.486243e-01 -4.709425e-02 -1.763001e-01
186 2 1 1.159039e+01 -4.102694e+00 -1.016576e+01 0 -1 0 -6.585837e-01 6.729376e-01 -2.310531e-01 -2.450244e-01
187 2 1 1.192768e+01 -3.874764e+00 -1.034815e+01 0 -1 0 -8.189796e-01 -1.297886e-02 -5.478091e-01 -1.703208e-01
188 2 2 1.241582e+01 -4.008160e+00 -1.043232e+01 0 -1 0 -6.742370e-01 -1.731702e-01 -5.181530e-01 -4.969245e-01
189 2 4 1.290563e+01 -4.055671e+00 -1.054313e+01 0 -1 0 4.706513e-01 4.108678e-01 3.268283e-01 7.091250e-01
190 2 4 1.347400e+01 -4.019584e+00 -1.064044e+01 0 -1 0 2.429141e-01 -1.459163e-01 4.690588e-01 8.364718e-01
191 2 1 1.410387e+01 -3.428569e+00 -1.025168e+01 0 -1 0 -7.531913e-01 3.623414e-01 -2.655448e-01 -4.805180e-01
192 2 4 1.430058e+01 -3.734004e+00 -9.131729e+00 0 -1 0 -3.236245e-01 -3.249925e-01 5.776639e-01 -6.752417e-01
193 2 4 1.454142e+01 -4.101343e+00 -8.915670e+00 0 -1 0 -7.028714e-02 -2.458751e-02 7.597008e-01 -6.459953e-01
194 2 1 1.501741e+01 -5.047820e+00 -9.442374e+00 0 -1 0 8.094622e-01 -2.868353e-01 -3.739109e-01 -3.502671e-01
195 2 3 1.478155e+01 -4.941566e+00 -9.015307e+00 0 -1 0 8.637305e-01 -4.639076e-01 -1.873389e-01 -6.052570e-02
196 2 4 1.438423e+01 -5.388339e+00 -9.643328e+00 0 -1 0 -3.225318e-01 7.772573e-02 -3.114951e-01 8.904509e-01
197 2 2 1.521553e+01 -5.621105e+00 -1.066671e+01 0 -1 0 -2.765002e-01 8.578679e-01 -3.965619e-01 -1.742096e-01
198 2 4 1.511537e+01 -5.288126e+00 -1.109150e+01 0 -1 0 4.686763e-01 -7.699260e-01 4.298134e-01 -5.307445e-02
199 2 3 1.416757e+01 -5.523842e+00 -1.211189e+01 0 -1 0 3.176767e-02 4.273766e-01 -8.056359e-01 -4.090120e-01
200 2 4 1.330981e+01 -5.104269e+00 -1.167038e+01 0 -1 0 -6.087276e-02 -3.620839e-02 -3.070681e-01 -9.490483e-01
