ITEM: TIMESTEP
377000000
ITEM: NUMBER OF ATOMS
200
ITEM: BOX BOUNDS pp pp pp
-2.0000000000000000e+01 2.0000000000000000e+01
-2.0000000000000000e+01 2.0000000000000000e+01
-2.0000000000000000e+01 2.0000000000000000e+01
ITEM: ATOMS id mol type x y z ix iy iz c_quat[1] c_quat[2] c_quat[3] c_quat[4]
1 1 1 1.621994e+01 1.041747e+01 7.815814e+00 -1 0 0 -2.293574e-01 5.446428e-01 -3.861667e-02 -8.057718e-01
2 1 2 1.707635e+01 9.590938e+00 8.446415e+00 -1 0 0 -9.733568e-02 8.702946e-01 -4.232828e-01 -2.322601e-01
3 1 1 1.722297e+01 9.857691e+00 8.071601e+00 -1 0 0 -2.746581e-04 6.500457e-01 -7.189421e-01 -2.460949e-01
4 1 3 1.698495e+01 1.121885e+01 8.848680e+00 -1 0 0 -2.208402e-01 -9.708628e-02 3.069937e-01 -9.206295e-01
5 1 1 1.673913e+01 1.104858e+01 8.370627e+00 -1 0 0 -9.343112e-01 -2.957032e-03 -1.419738e-01 3.269515e-01
6 1 2 1.658702e+01 1.249630e+01 8.217748e+00 -1 0 0 -5.452503e-01 -6.670854e-01 -3.356171e-01 -3.808679e-01
7 1 4 1.691866e+01 1.276683e+01 8.310691e+00 -1 0 0 3.496691e-02 5.566465e-01 9.726587e-02 8.242944e-01
8 1 1 1.662701e+01 1.267036e+01 7.524433e+00 -1 0 0 3.997493e-01 -2.279786e-01 -6.920442e-01 -5.561484e-01
9 1 1 1.733201e+01 1.199062e+01 7.129466e+00 -1 0 0 -9.615580e-01 2.486344e-01 2.740476e-02 -1.132969e-01
10 1 4 1.739135e+01 1.190076e+01 7.536651e+00 -1 0 0 8.713853e-01 -2.262202e-02 1.081326e-01 4.779992e-01
11 1 1 1.690823e+01 1.090942e+01 7.154402e+00 -1 0 0 -3.736272e-01 5.994138e-01 -7.047785e-01 -6.628010e-02
12 1 1 1.734903e+01 1.119534e+01 7.317269e+00 -1 0 0 6.023010e-01 1.925784e-02 -7.704570e-01 2.079872e-01
13 1 3 1.695168e+01 1.163681e+01 6.514933e+00 -1 0 0 -7.025902e-01 2.452121e-01 4.449609e-01 4.982448e-01
14 1 4 1.741526e+01 1.260048e+01 5.635207e+00 -1 0 0 -1.715354e-02 -7.226658e-01 -6.243114e-01 2.961336e-01
15 1 4 1.773745e+01 1.200702e+01 4.434343e+00 -1 0 0 -1.579406e-01 -4.372143e-01 5.062341e-01 7.263783e-01
16 1 2 1.756024e+01 1.226691e+01 4.450755e+00 -1 0 0 4.251498e-01 -4.428787e-01 -6.641125e-01 4.266857e-01
17 1 1 1.771651e+01 1.108931e+01 3.931629e+00 -1 0 0 -7.522087e-01 -3.608566e-01 -2.542888e-01 4.891848e-01
18 1 2 1.854231e+01 1.088469e+01 4.363444e+00 -1 0 0 8.346219e-01 2.809369e-01 3.335070e-02 4.726187e-01
19 1 3 1.893847e+01 1.065827e+01 4.528705e+00 -1 0 0 5.103783e-01 3.381243e-01 -7.868811e-02 7.867618e-01
20 1 1 1.886195e+01 9.251865e+00 4.281429e+00 -1 0 0 1.059056e-01 1.716055e-01 -9.787448e-01 3.733897e-02
21 1 4 1.878606e+01 8.939897e+00 3.965222e+00 -1 0 0 -7.807957e-02 2.045528e-01 9.544419e-01 -2.027374e-01
22 1 1 1.895655e+01 7.857637e+00 3.749694e+00 -1 0 0 -5.819806e-01 -1.457625e-01 5.651098e-01 5.663063e-01
23 1 4 1.954798e+01 8.329777e+00 4.604570e+00 -1 0 0 -1.669844e-01 -1.149875e-01 3.761009e-01 -9.041251e-01
24 1 3 1.957195e+01 8.251221e+00 5.104777e+00 -1 0 0 8.767122e-02 7.913882e-02 2.911046e-01 -9.493729e-01
25 1 3 -1.985557e+01 7.144360e+00 5.336968e+00 0 0 0 -6.427883e-01 -1.037199e-02 4.552090e-01 6.160360e-01
26 1 4 -1.852790e+01 7.538643e+00 5.927110e+00 0 0 0 5.166186e-01 7.352869e-01 -1.550261e-01 4.103965e-01
27 1 4 -1.815507e+01 7.427276e+00 5.690904e+00 0 0 0 -1.694168e-01 -7.032489e-01 4.605267e-01 -5.144454e-01
28 1 1 -1.768959e+01 7.223906e+00 5.691742e+00 0 0 0 7.374643e-02 -4.270175e-01 6.306065e-01 -6.438579e-01
29 1 1 -1.734806e+01 8.120772e+00 4.888753e+00 0 0 0 3.122690e-02 2.630661e-01 -1.901526e-01 -9.453376e-01
30 1 4 -1.686630e+01 7.598705e+00 5.088146e+00 0 0 0 3.529930e-01 7.867071e-01 4.866586e-01 -1.401828e-01
31 1 4 -1.710570e+01 7.371306e+00 6.570530e+00 0 0 0 2.531413e-01 -6.012323e-01 -2.768829e-01 -7.055318e-01
32 1 3 -1.638550e+01 6.816065e+00 6.658439e+00 0 0 0 5.473799e-01 -2.750813e-01 2.884232e-01 -7.358788e-01
33 1 3 -1.633203e+01 6.680011e+00 7.188550e+00 0 0 0 -7.977632e-01 3.095901e-03 -2.912613e-01 5.279499e-01
34 1 1 -1.626599e+01 6.248677e+00 7.568658e+00 0 0 0 -8.885656e-01 -1.581548e-01 -3.755423e-01 2.107277e-01
35 1 2 -1.606436e+01 5.824631e+00 7.720626e+00 0 0 0 -8.529558e-01 -3.508596e-01 -3.751056e-01 -9.305779e-02
36 1 2 -1.584659e+01 5.620756e+00 9.113471e+00 0 0 0 -4.982202e-01 8.592052e-01 -9.897480e-02 -6.121299e-02
37 1 1 -1.562319e+01 6.139307e+00 8.963601e+00 0 0 0 3.778334e-01 -7.845623e-01 4.822987e-01 9.535107e-02
38 1 1 -1.532080e+01 6.448187e+00 8.838823e+00 0 0 0 1.999952e-01 -4.532067e-01 7.945306e-01 3.511789e-01
39 1 4 -1.484179e+01 7.110578e+00 9.706460e+00 0 0 0 -7.512821e-01 3.893240e-01 5.310638e-01 4.442131e-02
40 1 4 -1.422277e+01 7.218593e+00 9.177262e+00 0 0 0 1.219748e-01 7.293625e-01 3.748103e-01 5.591687e-01
41 1 2 -1.414607e+01 5.600106e+00 8.890597e+00 0 0 0 -6.218626e-01 -3.357580e-01 5.444128e-01 4.518498e-01
42 1 4 -1.455891e+01 5.494780e+00 8.765775e+00 0 0 0 -7.252850e-01 -1.939087e-01 6.497645e-01 1.190265e-01
43 1 3 -1.419479e+01 5.849115e+00 8.663034e+00 0 0 0 2.979913e-02 -1.427054e-01 7.702107e-01 -6.209047e-01
44 1 2 -1.336566e+01 6.475964e+00 7.634849e+00 0 0 0 -1.852095e-01 2.575340e-01 -2.770190e-01 -9.069918e-01
45 1 1 -1.353375e+01 6.230582e+00 6.755326e+00 0 0 0 -6.276498e-01 -1.232851e-01 -6.844268e-01 -3.498806e-01
46 1 3 -1.309801e+01 6.297348e+00 6.479930e+00 0 0 0 -4.264790e-01 -4.101252e-01 -5.748802e-01 -5.651776e-01
47 1 4 -1.204877e+01 5.388336e+00 6.744846e+00 0 0 0 5.894129e-01 5.564140e-01 -5.379758e-01 -2.314689e-01
48 1 1 -1.187335e+01 5.677467e+00 6.309136e+00 0 0 0 -3.536623e-01 -7.409207e-01 5.114077e-01 -2.538142e-01
49 1 4 -1.165818e+01 5.443152e+00 5.935739e+00 0 0 0 2.095201e-01 6.382593e-01 -5.955083e-01 4.405636e-01
50 1 4 -1.168242e+01 5.221173e+00 5.490199e+00 0 0 0 -8.689257e-02 -9.132231e-01 -1.698118e-01 3.600516e-01
51 1 4 -1.185262e+01 4.947855e+00 4.959840e+00 0 0 0 -5.290497e-01 1.070145e-01 -1.890605e-01 -8.203112e-01
52 1 1 -1.177526e+01 5.173223e+00 4.141661e+00 0 0 0 -6.068396e-02 8.098383e-01 -3.081751e-01 -4.954872e-01
53 1 3 -1.150028e+01 4.548378e+00 4.196623e+00 0 0 0 -6.504895e-01 -8.064234e-02 -7.493506e-01 9.398888e-02
54 1 4 -1.113918e+01 4.030502e+00 4.001077e+00 0 0 0 -6.641819e-01 -4.865174e-01 5.597036e-01 -9.431371e-02
55 1 4 -1.115239e+01 4.762692e+00 2.896907e+00 0 0 0 -7.070642e-01 -3.400011e-01 -4.843387e-01 -3.871375e-01
56 1 4 -1.129059e+01 4.705233e+00 2.934922e+00 0 0 0 -2.693039e-01 -6.750642e-01 5.710141e-01 -3.817154e-01
57 1 1 -1.228351e+01 5.522825e+00 2.823574e+00 0 0 0 -8.682842e-02 -9.416097e-01 -3.204509e-01 5.606411e-02
58 1 1 -1.257270e+01 5.800651e+00 2.459808e+00 0 0 0 -1.635182e-01 -9.839901e-01 -6.586468e-02 2.621316e-02
59 1 3 -1.246908e+01 5.908536e+00 1.948885e+00 0 0 0 1.471080e-01 9.513009e-01 -2.676623e-01 4.174483e-02
60 1 4 -1.299873e+01 6.384952e+00 1.124303e+00 0 0 0 -7.372820e-01 -5.150001e-01 -4.364232e-01 2.692689e-02
61 1 2 -1.388921e+01 5.962786e+00 1.841127e+00 0 0 0 -4.443122e-01 5.686226e-01 6.903569e-01 5.159763e-02
62 1 3 -1.431000e+01 6.295234e+00 1.724775e+00 0 0 0 -4.140598e-01 8.165119e-01 3.810172e-01 -1.291848e-01
63 1 2 -1.453849e+01 6.695811e+00 1.675549e+00 0 0 0 -4.746592e-01 8.159781e-01 4.931655e-02 -3.262608e-01
64 1 4 -1.504263e+01 7.052916e+00 5.597092e-01 0 0 0 -5.289142e-01 -6.918369e-01 -4.719812e-01 -1.372778e-01
65 1 2 -1.554837e+01 6.403873e+00 6.516368e-01 0 0 0 -5.562847e-01 -1.131835e-01 8.231904e-01 -9.714246e-03
66 1 1 -1.618071e+01 7.023282e+00 -6.964177e-01 0 0 0 -1.465294e-01 -1.075327e-01 -7.095692e-01 -6.807917e-01
67 1 2 -1.573715e+01 7.094580e+00 -2.364313e-01 0 0 0 -1.949952e-01 2.822926e-01 9.359404e-01 7.939331e-02
68 1 1 -1.584123e+01 7.646426e+00 -7.343954e-01 0 0 0 6.808427e-01 5.356630e-02 1.653644e-01 -7.115044e-01
69 1 1 -1.501336e+01 8.537155e+00 -2.126091e-01 0 0 0 -4.606980e-01 7.926058e-01 -3.053803e-01 -2.574417e-01
70 1 2 -1.518009e+01 8.605873e+00 9.787002e-01 0 0 0 -5.885466e-01 4.314557e-01 6.285559e-01 -2.690287e-01
71 1 3 -1.572536e+01 8.872201e+00 1.040701e+00 0 0 0 4.018684e-01 -7.767907e-01 -3.246558e-01 3.601341e-01
72 1 4 -1.592955e+01 9.361340e+00 1.051299e+00 0 0 0 2.279913e-01 -7.621050e-01 8.274620e-02 6.003075e-01
73 1 1 -1.652976e+01 9.083234e+00 4.023322e-01 0 0 0 6.967721e-01 -1.737359e-01 5.940906e-01 3.624649e-01
74 1 1 -1.665717e+01 9.718589e+00 8.475743e-02 0 0 0 -8.596454e-01 4.519088e-02 -2.510312e-01 -4.426635e-01
75 1 3 -1.713474e+01 1.079544e+01 1.715041e-01 0 0 0 -1.333398e-01 -8.459690e-01 -2.140797e-01 4.698157e-01
76 1 1 -1.690568e+01 1.102271e+01 1.117280e+00 0 0 0 4.063856e-03 -8.707058e-01 -3.254004e-01 3.687404e-01
77 1 4 -1.659906e+01 1.048256e+01 1.441082e+00 0 0 0 1.935106e-01 4.114535e-02 4.852713e-01 8.516880e-01
78 1 1 -1.649946e+01 1.098339e+01 1.489678e+00 0 0 0 -1.782382e-01 1.758438e-01 4.034942e-01 8.800583e-01
79 1 4 -1.633245e+01 1.136445e+01 2.000412e+00 0 0 0 -2.214834e-01 -8.710845e-01 -4.379245e-01 1.946839e-02
80 1 2 -1.629292e+01 1.103188e+01 2.697864e+00 0 0 0 -1.165781e-01 2.015737e-01 -6.202448e-02 -9.705311e-01
81 1 4 -1.636956e+01 1.139101e+01 3.012463e+00 0 0 0 -1.464319e-01 -2.219553e-01 2.841743e-01 9.211615e-01
82 1 4 -1.664481e+01 1.173323e+01 3.166857e+00 0 0 0 5.226463e-01 1.826964e-01 -2.834314e-01 -7.830259e-01
83 1 4 -1.548603e+01 1.239327e+01 2.854425e+00 0 0 0 -5.290625e-01 6.635959e-01 -4.152437e-01 -3.275760e-01
84 1 4 -1.499247e+01 1.225058e+01 3.598245e+00 0 0 0 7.204948e-01 -5.739058e-01 2.020639e-01 3.327006e-01
85 1 1 -1.485933e+01 1.278791e+01 3.787032e+00 0 0 0 4.267518e-01 -3.990682e-01 4.119234e-01 6.992472e-01
86 1 1 -1.479253e+01 1.361121e+01 4.072831e+00 0 0 0 -1.681136e-01 2.582507e-01 -1.353426e-01 -9.416617e-01
87 1 3 -1.401783e+01 1.363831e+01 4.177275e+00 0 0 0 7.113868e-01 -5.752290e-01 4.022857e-01 3.473551e-02
88 1 2 -1.403416e+01 1.441475e+01 3.221884e+00 0 0 0 3.414294e-01 7.279205e-01 3.018298e-01 -5.123051e-01
89 1 2 -1.358676e+01 1.461964e+01 2.698607e+00 0 0 0 3.153208e-01 6.780491e-01 6.609828e-01 -6.264152e-02
90 1 3 -1.315762e+01 1.494926e+01 3.976665e+00 0 0 0 -4.546709e-01 3.908220e-01 5.862412e-01 -5.448429e-01
91 1 3 -1.349553e+01 1.498464e+01 4.292620e+00 0 0 0 5.040178e-02 -6.012822e-01 -3.262903e-01 7.276359e-01
92 1 2 -1.308482e+01 1.488273e+01 5.453835e+00 0 0 0 2.346953e-01 2.389543e-02 -3.756029e-01 8.962531e-01
93 1 1 -1.315441e+01 1.484480e+01 5.934413e+00 0 0 0 1.158272e-01 1.462189e-01 2.457807e-01 -9.512076e-01
94 1 2 -1.282691e+01 1.471794e+01 6.490593e+00 0 0 0 5.785939e-01 3.965187e-01 -6.712824e-01 -2.395451e-01
95 1 3 -1.217126e+01 1.491705e+01 7.016895e+00 0 0 0 -6.411577e-01 3.700612e-01 -6.440584e-01 -1.927699e-01
96 1 2 -1.172680e+01 1.503987e+01 6.920332e+00 0 0 0 5.346989e-01 -1.433250e-01 6.803337e-01 4.803135e-01
97 1 2 -1.135636e+01 1.533409e+01 6.684557e+00 0 0 0 2.820923e-01 1.555961e-01 5.619158e-01 7.618822e-01
98 1 4 -1.024760e+01 1.517150e+01 7.251254e+00 0 0 0 -1.252493e-01 9.095684e-01 -1.691541e-01 -3.583083e-01
99 1 2 -1.008361e+01 1.439101e+01 7.505478e+00 0 0 0 -4.755976e-01 8.041540e-01 -1.366658e-01 -3.293414e-01
100 1 1 -1.074659e+01 1.358109e+01 7.502859e+00 0 0 0 4.666788e-01 -5.151725e-01 -3.595473e-01 -6.225222e-01
101 2 4 -3.106272e+00 -1.266637e+01 -1.120425e+01 0 -1 0 -3.654626e-01 -2.041450e-01 9.022073e-01 1.038458e-01
102 2 3 -2.032816e+00 -1.182523e+01 -1.138774e+01 0 -1 0 7.106247e-01 6.303476e-01 -3.088035e-01 -4.811234e-02
103 2 1 -1.266012e+00 -1.116856e+01 -1.098445e+01 0 -1 0 5.580342e-01 -7.794151e-01 1.484674e-01 2.430377e-01
104 2 3 -1.405070e+00 -1.101266e+01 -1.151143e+01 0 -1 0 4.037958e-01 -6.215699e-01 -3.755205e-01 5.564029e-01
105 2 3 -1.054073e+00 -1.117095e+01 -1.270752e+01 0 -1 0 -3.544049e-01 4.102298e-01 -1.955945e-01 -8.172218e-01
106 2 2 -1.029796e+00 -1.073364e+01 -1.256043e+01 0 -1 0 4.145534e-02 2.538624e-01 -2.698036e-01 -9.279231e-01
107 2 3 -8.400915e-01 -1.038039e+01 -1.312086e+01 0 -1 0 -2.970927e-01 -2.121658e-01 -8.165914e-01 -4.471018e-01
108 2 4 -7.306818e-01 -1.018082e+01 -1.358481e+01 0 -1 0 7.028363e-02 4.989862e-01 7.373605e-01 4.498583e-01
109 2 3 -4.292024e-01 -1.105910e+01 -1.419062e+01 0 -1 0 1.939539e-01 -4.829773e-01 8.411624e-01 1.468354e-01
110 2 2 -1.152272e+00 -1.135478e+01 -1.485912e+01 0 -1 0 -3.865049e-01 -3.777400e-01 5.252974e-01 6.572588e-01
111 2 2 -1.644501e+00 -1.129488e+01 -1.503802e+01 0 -1 0 5.918432e-01 2.242594e-01 -6.440235e-01 -4.297244e-01
112 2 3 -1.777170e+00 -1.075361e+01 -1.542947e+01 0 -1 0 1.041292e-02 9.567780e-01 2.627666e-01 -1.241815e-01
113 2 3 -2.012937e+00 -1.039958e+01 -1.578019e+01 0 -1 0 -6.553425e-02 -9.831166e-01 9.877363e-02 1.393943e-01
114 2 2 -1.983008e+00 -1.041323e+01 -1.633982e+01 0 -1 0 -1.501554e-01 -9.233324e-01 3.491781e-01 -5.463787e-02
115 2 4 -1.621844e+00 -1.052234e+01 -1.673323e+01 0 -1 0 1.280751e-01 6.276807e-01 -7.458920e-01 1.823701e-01
116 2 4 -2.425791e+00 -8.943014e+00 -1.685243e+01 0 -1 0 -1.688429e-01 -4.498786e-01 -3.116463e-01 -8.197426e-01
117 2 1 -2.415956e+00 -8.519378e+00 -1.696749e+01 0 -1 0 2.138014e-01 -7.481388e-01 -2.170415e-01 -5.894661e-01
118 2 1 -2.761471e+00 -7.873129e+00 -1.731021e+01 0 -1 0 6.482222e-02 7.299339e-01 2.880028e-01 -6.164811e-01
119 2 1 -3.452375e+00 -7.784133e+00 -1.644175e+01 0 -1 0 8.314735e-02 -6.764875e-01 -6.798673e-01 2.706133e-01
120 2 1 -3.850526e+00 -7.689042e+00 -1.667055e+01 0 -1 0 -1.044725e-01 8.703008e-01 3.512786e-01 -3.290369e-01
121 2 3 -3.491765e+00 -7.176717e+00 -1.713926e+01 0 -1 0 4.482341e-01 1.938400e-01 1.812849e-01 8.536088e-01
122 2 1 -3.240600e+00 -7.683063e+00 -1.806952e+01 0 -1 0 -2.552735e-01 6.937911e-01 -5.053629e-01 -4.450817e-01
123 2 4 -3.195310e+00 -7.380750e+00 -1.842391e+01 0 -1 0 -9.420630e-02 -3.379596e-01 7.993680e-01 4.877697e-01
124 2 1 -2.820357e+00 -6.607645e+00 -1.698275e+01 0 -1 0 2.501605e-01 2.584477e-01 -6.633520e-01 6.561925e-01
125 2 4 -2.056275e+00 -6.458335e+00 -1.749744e+01 0 -1 0 3.687912e-01 -3.524653e-01 -3.962726e-02 8.591804e-01
126 2 2 -1.567153e+00 -7.409576e+00 -1.787089e+01 0 -1 0 -5.521715e-01 -7.510497e-01 -1.344391e-01 3.360909e-01
127 2 4 -1.886937e+00 -7.789520e+00 -1.808474e+01 0 -1 0 -3.833967e-01 -7.329710e-01 -5.573414e-01 7.163113e-02
128 2 4 -1.228681e+00 -8.405274e+00 -1.692761e+01 0 -1 0 3.352194e-01 7.220971e-01 -5.442971e-01 2.644701e-01
129 2 1 -9.832959e-01 -8.860024e+00 -1.702666e+01 0 -1 0 8.581737e-02 6.989588e-01 -4.650561e-01 5.364837e-01
130 2 2 -5.329266e-01 -9.107153e+00 -1.711443e+01 0 -1 0 1.945203e-02 4.869944e-01 -5.745444e-01 6.575385e-01
131 2 3 -1.857952e-01 -9.563092e+00 -1.698272e+01 0 -1 0 2.828359e-01 -1.735597e-02 8.317172e-01 -4.774402e-01
132 2 4 6.450248e-01 -1.023199e+01 -1.701989e+01 0 -1 0 -4.857376e-01 -6.076149e-01 5.899973e-01 -2.162551e-01
133 2 4 6.869524e-01 -1.067198e+01 -1.709082e+01 0 -1 0 3.154548e-01 1.201302e-01 -8.421301e-01 4.205638e-01
134 2 3 -4.537973e-02 -1.092782e+01 -1.711839e+01 0 -1 0 -4.433245e-01 1.731790e-01 8.116035e-01 -3.387804e-01
135 2 4 6.816366e-01 -1.155955e+01 -1.829529e+01 0 -1 0 -4.597671e-01 5.181411e-01 -6.802208e-01 -2.396741e-01
136 2 3 8.774108e-01 -1.225860e+01 -1.824271e+01 0 -1 0 -4.893598e-01 4.094873e-01 -7.044629e-01 3.107720e-01
137 2 1 1.223452e+00 -1.256417e+01 -1.822515e+01 0 -1 0 6.685903e-01 -3.580339e-02 7.411629e-01 4.881330e-02
138 2 3 1.603455e+00 -1.270234e+01 -1.843029e+01 0 -1 0 5.448202e-01 3.450353e-01 6.128354e-01 4.566775e-01
139 2 2 1.922078e+00 -1.329798e+01 -1.817187e+01 0 -1 0 2.393330e-02 -6.487187e-02 -9.459333e-01 3.169053e-01
140 2 3 2.814663e+00 -1.321426e+01 -1.902636e+01 0 -1 0 2.635376e-01 -9.254603e-01 2.649014e-01 6.243700e-02
141 2 1 2.625346e+00 -1.305649e+01 -1.907837e+01 0 -1 0 -5.449427e-01 4.526874e-02 -6.811451e-01 4.868568e-01
142 2 2 2.416630e+00 -1.205256e+01 -1.885973e+01 0 -1 0 -3.033556e-01 1.703979e-01 8.834758e-01 -3.137042e-01
143 2 4 3.645905e+00 -1.113011e+01 -1.936276e+01 0 -1 0 7.220914e-01 1.433231e-01 1.221888e-02 6.766781e-01
144 2 4 2.765835e+00 -1.065409e+01 1.984728e+01 0 -1 -1 4.187663e-01 7.331800e-01 5.356858e-01 1.107666e-02
145 2 1 2.538339e+00 -1.036236e+01 2.002002e+01 0 -1 -1 -5.813115e-01 5.968866e-01 4.711797e-01 -2.894702e-01
146 2 1 2.190141e+00 -1.009322e+01 -1.984989e+01 0 -1 0 4.220203e-01 -7.493875e-01 -7.454146e-02 5.047384e-01
147 2 1 1.985279e+00 -9.681732e+00 -1.986340e+01 0 -1 0 -7.078747e-02 7.434563e-01 -2.074954e-01 -6.318287e-01
148 2 2 1.630510e+00 -9.323829e+00 -2.001152e+01 0 -1 0 2.365431e-01 6.098727e-01 -4.631751e-01 -5.979727e-01
149 2 4 1.280913e+00 -9.215757e+00 1.961464e+01 0 -1 -1 -4.356219e-01 -5.079644e-01 6.645572e-01 3.325199e-01
150 2 1 1.457675e+00 -8.444403e+00 1.955876e+01 0 -1 -1 3.606093e-01 -7.209726e-01 -5.212384e-01 -2.801250e-01
151 2 1 1.722370e+00 -7.972519e+00 1.921651e+01 0 -1 -1 -2.493697e-01 5.982414e-01 4.739727e-01 5.960469e-01
152 2 1 2.456744e+00 -7.852714e+00 1.897352e+01 0 -1 -1 1.562586e-01 5.514197e-01 -6.468557e-02 -8.169060e-01
153 2 4 3.564457e+00 -8.010480e+00 -1.974757e+01 0 -1 0 -4.402722e-01 8.570667e-01 -4.214878e-02 2.642359e-01
154 2 1 3.802985e+00 -7.544219e+00 -1.969239e+01 0 -1 0 -5.620255e-01 7.023265e-01 -4.344823e-01 4.571733e-02
155 2 2 2.899480e+00 -7.458554e+00 -1.986248e+01 0 -1 0 -3.824702e-01 -6.344559e-01 6.274030e-01 2.398908e-01
156 2 4 2.304829e+00 -7.417795e+00 -1.918135e+01 0 -1 0 -6.853182e-02 5.543248e-01 7.196917e-01 4.123969e-01
157 2 3 2.638498e+00 -8.013404e+00 -1.849371e+01 0 -1 0 -8.199550e-01 -3.380001e-01 4.191775e-01 1.942160e-01
158 2 2 2.774466e+00 -8.333239e+00 -1.755482e+01 0 -1 0 7.211937e-01 -3.582213e-01 -5.922194e-01 -2.886742e-02
159 2 1 3.798710e+00 -8.126163e+00 -1.798326e+01 0 -1 0 4.671501e-01 -8.710266e-01 -1.271188e-01 8.321260e-02
160 2 3 3.944470e+00 -7.923982e+00 -1.769224e+01 0 -1 0 -4.784190e-01 6.398638e-01 5.118803e-01 3.157027e-01
161 2 1 3.729280e+00 -7.522248e+00 -1.744054e+01 0 -1 0 -5.284070e-01 7.889717e-01 3.057534e-01 -6.945936e-02
162 2 1 3.465975e+00 -7.067727e+00 -1.734023e+01 0 -1 0 -4.185360e-01 8.496410e-01 -5.593643e-02 -3.159254e-01
163 2 4 3.355292e+00 -6.876129e+00 -1.643297e+01 0 -1 0 -6.418883e-01 4.780832e-02 1.225558e-01 -7.554296e-01
164 2 4 3.429927e+00 -6.377750e+00 -1.682658e+01 0 -1 0 4.585418e-01 -6.885942e-01 3.962378e-01 3.982123e-01
165 2 3 2.559409e+00 -6.172046e+00 -1.622403e+01 0 -1 0 -3.884169e-01 2.931976e-01 -8.171508e-01 3.089209e-01
166 2 3 2.966396e+00 -5.592374e+00 -1.609356e+01 0 -1 0 -3.839367e-01 -8.175776e-01 -1.050945e-01 4.160704e-01
167 2 4 3.377673e+00 -5.947505e+00 -1.520418e+01 0 -1 0 -8.611381e-01 -1.456101e-01 -1.803460e-01 -4.524535e-01
168 2 2 3.817642e+00 -5.928851e+00 -1.489265e+01 0 -1 0 -5.800389e-01 -4.608202e-02 -1.067755e-01 -8.062446e-01
169 2 2 4.223118e+00 -5.560670e+00 -1.419128e+01 0 -1 0 -5.422183e-01 5.444912e-01 1.291000e-01 -6.267870e-01
170 2 1 4.119974e+00 -6.161865e+00 -1.315995e+01 0 -1 0 -8.387702e-01 1.344600e-01 5.250390e-01 5.214411e-02
171 2 1 4.353397e+00 -5.876113e+00 -1.317272e+01 0 -1 0 8.228876e-01 4.230724e-02 -1.668453e-01 -5.415061e-01
172 2 4 4.728681e+00 -5.454585e+00 -1.314225e+01 0 -1 0 -1.284713e-01 -1.557552e-01 -4.125279e-01 8.882884e-01
173 2 4 5.286832e+00 -6.149803e+00 -1.277902e+01 0 -1 0 -9.192037e-02 1.316216e-02 -5.287785e-01 8.436650e-01
174 2 1 5.203775e+00 -6.344756e+00 -1.241072e+01 0 -1 0 5.394422e-01 1.570134e-01 4.634377e-01 -6.852550e-01
175 2 1 6.277252e+00 -5.701394e+00 -1.233248e+01 0 -1 0 1.048900e-01 6.222436e-01 1.517279e-01 7.607823e-01
176 2 2 6.574304e+00 -5.365178e+00 -1.219100e+01 0 -1 0 3.189922e-01 -6.290728e-01 1.294020e-01 -6.969695e-01
177 2 2 6.568401e+00 -4.849811e+00 -1.170412e+01 0 -1 0 9.182819e-02 -1.318253e-01 -6.010820e-01 7.828730e-01
178 2 1 7.570704e+00 -5.069279e+00 -1.133429e+01 0 -1 0 -1.716784e-01 7.667497e-01 -6.006737e-01 1.476903e-01
179 2 4 7.357374e+00 -4.850578e+00 -1.098996e+01 0 -1 0 -1.819420e-02 4.704561e-01 8.136982e-01 -3.409330e-01
180 2 1 7.643336e+00 -5.165899e+00 -1.061524e+01 0 -1 0 4.109650e-01 -6.242832e-01 6.557522e-01 1.066178e-01
181 2 4 7.775835e+00 -5.808290e+00 -9.964769e+00 0 -1 0 9.547664e-01 -1.946618e-01 -2.041985e-01 -9.397228e-02
182 2 2 7.429017e+00 -5.713811e+00 -9.641614e+00 0 -1 0 9.464253e-01 -1.133834e-01 -1.017691e-01 2.847218e-01
183 2 3 6.721726e+00 -6.254717e+00 -9.857109e+00 0 -1 0 -4.569440e-01 -5.388844e-01 -4.293425e-01 5.625574e-01
184 2 4 7.420435e+00 -6.201781e+00 -8.754854e+00 0 -1 0 5.170777e-01 5.566423e-01 4.267171e-02 6.488137e-01
185 2 3 7.116481e+00 -7.532108e+00 -9.039972e+00 0 -1 0 -6.507004e-01 -1.189598e-01 7.487055e-01 4.333067e-02
186 2 1 6.652821e+00 -7.815704e+00 -9.007231e+00 0 -1 0 7.144405e-01 -1.884108e-01 -6.371257e-01 2.194242e-01
187 2 1 5.915029e+00 -7.834928e+00 -1.027262e+01 0 -1 0 -4.896930e-01 -7.558013e-01 -2.450697e-01 3.590349e-01
188 2 2 5.677836e+00 -8.052426e+00 -1.062589e+01 0 -1 0 -5.655409e-01 -7.984757e-01 1.071013e-01 1.764351e-01
189 2 4 4.670965e+00 -7.236459e+00 -1.004220e+01 0 -1 0 1.704402e-01 -6.545408e-01 -3.640417e-01 6.403125e-01
190 2 4 4.727704e+00 -8.238131e+00 -8.925911e+00 0 -1 0 8.150537e-01 -1.080261e-01 -5.193501e-01 2.330095e-01
191 2 1 3.655691e+00 -7.624977e+00 -8.684763e+00 0 -1 0 -2.923989e-01 3.946850e-01 5.742504e-01 -6.549527e-01
192 2 4 3.145436e+00 -8.137562e+00 -9.539872e+00 0 -1 0 4.097051e-01 7.242218e-01 5.125367e-02 -5.522840e-01
193 2 4 2.685231e+00 -7.907582e+00 -8.858467e+00 0 -1 0 -2.670878e-01 -9.389561e-01 -1.419946e-01 -1.638993e-01
194 2 1 1.871500e+00 -7.444508e+00 -9.044411e+00 0 -1 0 3.414366e-01 8.187157e-01 3.216565e-01 -3.311536e-01
195 2 3 8.040286e-01 -7.627429e+00 -8.106428e+00 0 -1 0 1.232841e-01 -3.816753e-01 -9.121351e-01 8.446603e-02
196 2 4 1.282771e+00 -8.165509e+00 -7.340755e+00 0 -1 0 8.820401e-01 -3.357368e-02 -4.204962e-01 2.099074e-01
197 2 2 3.416321e-01 -8.822723e+00 -7.314348e+00 0 -1 0 -8.082278e-01 1.514961e-01 5.534163e-01 1.324659e-01
198 2 4 -2.032656e-01 -8.653132e+00 -7.115101e+00 0 -1 0 -8.656183e-01 2.696860e-01 4.211111e-01 -2.529723e-02
199 2 3 -1.097904e-01 -8.953765e+00 -6.809551e+00 0 -1 0 -6.682067e-01 -4.765847e-01 5.525134e-01 -1.452440e-01
200 2 4 -2.385856e-02 -9.452581e+00 -6.870227e+00 0 -1 0 -4.686687e-01 -1.309154e-01 7.497810e-01 -4.483741e-01
