ITEM: TIMESTEP
357000000
ITEM: NUMBER OF ATOMS
200
ITEM: BOX BOUNDS pp pp pp
-2.0000000000000000e+01 2.0000000000000000e+01
-2.0000000000000000e+01 2.0000000000000000e+01
-2.0000000000000000e+01 2.0000000000000000e+01
ITEM: ATOMS id mol type x y z ix iy iz c_quat[1] c_quat[2] c_quat[3] c_quat[4]
1 1 1 -1.185618e+01 -8.702802e+00 -1.962848e+01 0 0 1 -3.395748e-01 2.814137e-02 -1.264938e-02 -9.400729e-01
2 1 2 -1.217933e+01 -8.857376e+00 1.995232e+01 0 0 0 -7.046198e-01 1.339302e-01 2.608420e-01 6.461695e-01
3 1 1 -1.259012e+01 -8.851180e+00 1.971786e+01 0 0 0 7.714687e-01 -2.254370e-01 -3.052204e-01 -5.107394e-01
4 1 3 -1.286877e+01 -9.196775e+00 1.936446e+01 0 0 0 9.183231e-01 -3.304606e-01 7.259588e-03 -2.177744e-01
5 1 1 -1.349929e+01 -9.386536e+00 1.994267e+01 0 0 0 5.425973e-01 1.465704e-01 -8.271059e-01 -1.062214e-03
6 1 2 -1.401519e+01 -9.564571e+00 1.979527e+01 0 0 0 6.672658e-01 -2.141914e-01 -6.854525e-01 1.975683e-01
7 1 4 -1.464612e+01 -9.794069e+00 1.962969e+01 0 0 0 -5.543435e-01 6.917976e-01 4.614102e-01 3.492793e-02
8 1 1 -1.497010e+01 -9.376894e+00 1.970999e+01 0 0 0 3.643517e-01 -9.129828e-01 -1.095810e-01 1.473169e-01
9 1 1 -1.508468e+01 -9.648346e+00 1.919538e+01 0 0 0 -2.940525e-01 -4.741343e-01 5.434943e-01 -6.271712e-01
10 1 4 -1.556451e+01 -9.341126e+00 1.766028e+01 0 0 0 3.344706e-02 2.037384e-01 7.613007e-01 6.146489e-01
11 1 1 -1.432347e+01 -9.060908e+00 1.701591e+01 0 0 0 9.123131e-02 -6.428540e-01 4.738454e-01 5.948833e-01
12 1 1 -1.533105e+01 -8.306355e+00 1.783675e+01 0 0 0 -2.305628e-02 -3.653680e-01 -6.836925e-01 6.312996e-01
13 1 3 -1.485881e+01 -7.658298e+00 1.689006e+01 0 0 0 -5.639596e-01 -1.405816e-03 -5.688531e-01 -5.986266e-01
14 1 4 -1.403689e+01 -8.364807e+00 1.768900e+01 0 0 0 -4.622258e-02 5.653227e-01 -8.109515e-01 1.436365e-01
15 1 4 -1.375579e+01 -8.611696e+00 1.731948e+01 0 0 0 2.758405e-02 -1.415988e-01 9.879340e-01 5.634987e-02
16 1 2 -1.378600e+01 -8.764350e+00 1.684432e+01 0 0 0 4.022030e-02 -2.058829e-01 -9.669714e-01 -1.447786e-01
17 1 1 -1.330221e+01 -7.726844e+00 1.643456e+01 0 0 0 -3.012242e-01 -5.046136e-01 -7.789842e-01 -2.186612e-01
18 1 2 -1.330886e+01 -7.185263e+00 1.600423e+01 0 0 0 2.019632e-01 3.231612e-01 7.775223e-01 5.002368e-01
19 1 3 -1.340668e+01 -7.437441e+00 1.593713e+01 0 0 0 -1.953862e-02 6.452496e-02 2.492714e-01 -9.660841e-01
20 1 1 -1.284774e+01 -7.784850e+00 1.493312e+01 0 0 0 4.153990e-01 -6.380263e-01 6.441869e-01 7.341196e-02
21 1 4 -1.244276e+01 -7.795589e+00 1.462947e+01 0 0 0 2.861437e-01 -2.364442e-01 8.921174e-01 2.575704e-01
22 1 1 -1.219884e+01 -7.748379e+00 1.418690e+01 0 0 0 1.444293e-01 4.345182e-02 9.333771e-01 3.256676e-01
23 1 4 -1.223277e+01 -7.714364e+00 1.361475e+01 0 0 0 -5.301487e-02 3.572968e-01 8.765470e-01 3.181097e-01
24 1 3 -1.244305e+01 -7.740477e+00 1.321821e+01 0 0 0 -1.172081e-01 6.423611e-01 7.547506e-01 6.313580e-02
25 1 3 -1.123429e+01 -8.471751e+00 1.365235e+01 0 0 0 -1.075300e-02 -9.357282e-01 3.305405e-01 -1.226379e-01
26 1 4 -1.154112e+01 -8.977759e+00 1.328371e+01 0 0 0 1.062007e-01 -9.834147e-02 6.221450e-01 7.694063e-01
27 1 4 -1.161646e+01 -9.978084e+00 1.405349e+01 0 0 0 5.543627e-01 2.883636e-03 -3.356596e-01 -7.615815e-01
28 1 1 -1.148732e+01 -9.984634e+00 1.406590e+01 0 0 0 -6.868690e-01 7.063467e-01 -1.616705e-01 5.610669e-02
29 1 1 -1.194668e+01 -9.997155e+00 1.310721e+01 0 0 0 -9.671934e-02 3.448599e-01 -9.318370e-01 5.828294e-02
30 1 4 -1.124498e+01 -1.012915e+01 1.216812e+01 0 0 0 -6.661857e-01 -5.976994e-01 1.070177e-01 4.330118e-01
31 1 4 -1.163810e+01 -1.035493e+01 1.196457e+01 0 0 0 7.186567e-01 5.662422e-01 -3.383763e-01 -2.200087e-01
32 1 3 -1.198544e+01 -1.036492e+01 1.112604e+01 0 0 0 -7.433910e-01 -1.151631e-01 -5.699711e-01 -3.305151e-01
33 1 3 -1.179759e+01 -1.040854e+01 1.152210e+01 0 0 0 -6.812850e-01 4.510938e-01 4.668583e-01 3.382431e-01
34 1 1 -1.133512e+01 -1.128062e+01 1.103635e+01 0 0 0 -3.876136e-01 6.694527e-01 -6.219206e-01 -1.216698e-01
35 1 2 -1.179543e+01 -1.182170e+01 1.064093e+01 0 0 0 1.779763e-01 -5.516848e-01 6.655354e-01 4.701392e-01
36 1 2 -1.177796e+01 -1.154738e+01 1.008924e+01 0 0 0 1.484029e-01 2.415317e-01 -7.891841e-01 -5.448187e-01
37 1 1 -1.166837e+01 -1.131276e+01 9.791489e+00 0 0 0 2.118088e-01 9.623460e-01 -7.256655e-02 -1.541472e-01
38 1 1 -1.319889e+01 -1.186626e+01 9.850615e+00 0 0 0 -4.953293e-01 -7.065246e-02 6.605933e-01 5.597085e-01
39 1 4 -1.338728e+01 -1.124460e+01 9.033430e+00 0 0 0 -7.249761e-01 -3.680388e-01 -5.820194e-02 5.792837e-01
40 1 4 -1.289270e+01 -9.943696e+00 8.828115e+00 0 0 0 -4.960932e-02 8.587049e-01 3.618463e-01 -3.594886e-01
41 1 2 -1.324313e+01 -1.018985e+01 8.095977e+00 0 0 0 -8.346695e-01 -1.248278e-01 -4.360869e-01 -3.123668e-01
42 1 4 -1.464112e+01 -1.013084e+01 9.097923e+00 0 0 0 -2.534206e-01 3.834307e-01 7.167814e-01 5.243885e-01
43 1 3 -1.486289e+01 -9.740792e+00 8.840329e+00 0 0 0 -4.641611e-01 6.550865e-01 4.753924e-01 3.597475e-01
44 1 2 -1.425390e+01 -9.843085e+00 7.346296e+00 0 0 0 5.402832e-01 -2.283028e-01 7.179102e-01 3.749357e-01
45 1 1 -1.351023e+01 -8.984457e+00 8.474537e+00 0 0 0 -6.472147e-01 -3.054742e-01 3.160389e-01 -6.228307e-01
46 1 3 -1.403270e+01 -9.128220e+00 9.135904e+00 0 0 0 2.676705e-01 -7.603759e-01 4.584300e-01 -3.741964e-01
47 1 4 -1.367355e+01 -8.504488e+00 8.748764e+00 0 0 0 2.745597e-01 -4.892333e-01 6.992084e-01 4.431426e-01
48 1 1 -1.357375e+01 -8.157448e+00 8.385616e+00 0 0 0 -7.784199e-02 -1.336440e-01 8.532017e-01 4.981232e-01
49 1 4 -1.283712e+01 -7.103824e+00 9.077530e+00 0 0 0 3.935976e-01 -8.871621e-01 2.390254e-01 2.985211e-02
50 1 4 -1.255678e+01 -6.755737e+00 9.016674e+00 0 0 0 3.055453e-01 -6.532570e-01 6.008565e-01 3.447736e-01
51 1 4 -1.308029e+01 -6.009267e+00 9.773828e+00 0 0 0 1.213013e-01 -1.769662e-01 -7.878192e-01 5.773300e-01
52 1 1 -1.268410e+01 -5.246541e+00 9.872657e+00 0 0 0 -7.275897e-01 4.073793e-02 -6.507566e-02 -6.817028e-01
53 1 3 -1.283168e+01 -5.279001e+00 9.781313e+00 0 0 0 2.517104e-01 9.250733e-02 9.633686e-01 -2.274872e-03
54 1 4 -1.194567e+01 -4.094403e+00 1.013818e+01 0 0 0 -6.668280e-01 -1.406531e-01 3.614980e-01 -6.362990e-01
55 1 4 -1.190201e+01 -3.592510e+00 1.005398e+01 0 0 0 -2.745980e-01 3.173910e-01 -3.824743e-01 -8.231478e-01
56 1 4 -1.163929e+01 -2.923646e+00 1.055263e+01 0 0 0 4.327889e-01 8.952449e-01 -6.506025e-02 8.365120e-02
57 1 1 -1.129947e+01 -3.230648e+00 1.018818e+01 0 0 0 -3.751074e-01 -7.226068e-01 4.307248e-01 -3.893713e-01
58 1 1 -1.107354e+01 -2.729291e+00 9.211584e+00 0 0 0 5.976607e-01 -1.901155e-01 -2.122178e-02 7.785932e-01
59 1 3 -1.106245e+01 -2.993795e+00 9.409539e+00 0 0 0 2.498198e-01 4.429728e-01 7.743483e-01 -3.764968e-01
60 1 4 -9.885731e+00 -2.322222e+00 9.800643e+00 0 0 0 4.691861e-01 -4.581090e-01 -2.122366e-01 7.245386e-01
61 1 2 -1.004849e+01 -1.966510e+00 1.006902e+01 0 0 0 4.544119e-02 -4.070987e-01 2.447618e-02 9.119247e-01
62 1 3 -1.036426e+01 -1.779412e+00 1.035162e+01 0 0 0 -3.176236e-01 -4.508302e-01 1.580843e-01 8.190707e-01
63 1 2 -9.699833e+00 -1.869908e+00 1.186850e+01 0 0 0 2.271281e-01 -6.393381e-01 5.795213e-01 -4.514584e-01
64 1 4 -1.045939e+01 -1.118599e+00 1.207746e+01 0 0 0 -2.467163e-01 3.371986e-01 5.941733e-01 6.873036e-01
65 1 2 -1.053751e+01 -6.339892e-01 1.217716e+01 0 0 0 5.384889e-01 -6.036396e-01 -2.048730e-01 -5.510681e-01
66 1 1 -1.055850e+01 -2.117218e-01 1.237053e+01 0 0 0 -6.959695e-01 6.457307e-01 -1.109476e-01 2.938519e-01
67 1 2 -1.032520e+01 7.109118e-02 1.272862e+01 0 0 0 -7.122927e-01 5.865680e-01 -3.844240e-01 -2.820105e-02
68 1 1 -9.912350e+00 2.392492e-01 1.278644e+01 0 0 0 -6.800792e-01 3.425562e-01 -6.295570e-01 -1.542905e-01
69 1 1 -1.002798e+01 1.032790e+00 1.308803e+01 0 0 0 2.406170e-01 -9.025659e-02 -9.143247e-01 3.129976e-01
70 1 2 -9.126319e+00 8.151287e-01 1.185730e+01 0 0 0 7.656391e-01 4.331490e-01 4.511880e-01 -1.503599e-01
71 1 3 -8.538876e+00 1.561962e+00 1.216128e+01 0 0 0 6.009376e-02 7.749668e-01 3.634722e-01 5.135204e-01
72 1 4 -7.779616e+00 1.634269e+00 1.257302e+01 0 0 0 -3.257952e-01 -2.718818e-01 3.671078e-01 -8.277497e-01
73 1 1 -7.793506e+00 1.851656e+00 1.153536e+01 0 0 0 3.101067e-01 1.714612e-01 -3.476406e-01 -8.680904e-01
74 1 1 -8.249902e+00 1.513265e+00 1.103935e+01 0 0 0 5.044624e-01 2.679401e-01 5.716857e-01 -5.889832e-01
75 1 3 -7.353841e+00 1.405474e+00 1.063684e+01 0 0 0 3.179986e-01 -4.615931e-01 1.603156e-01 8.124700e-01
76 1 1 -7.547860e+00 6.373665e-01 1.188904e+01 0 0 0 -5.320590e-02 -6.256149e-02 -7.819129e-01 6.179543e-01
77 1 4 -7.768470e+00 2.327746e-01 1.202341e+01 0 0 0 -3.751455e-01 -4.430749e-01 -5.519912e-01 5.985450e-01
78 1 1 -6.963467e+00 -6.959184e-01 1.161873e+01 0 0 0 -6.570138e-01 -3.825908e-01 6.157497e-01 2.069047e-01
79 1 4 -7.310338e+00 -3.698517e-01 1.140285e+01 0 0 0 3.378006e-01 -1.536257e-01 -7.607120e-01 5.325478e-01
80 1 2 -6.522345e+00 -1.421296e+00 1.098732e+01 0 0 0 -1.977290e-01 5.856819e-01 -7.649649e-01 1.808553e-01
81 1 4 -6.971237e+00 -1.892313e+00 1.096526e+01 0 0 0 -7.355630e-01 1.002747e-01 -6.683348e-01 -4.712348e-02
82 1 4 -7.575806e+00 -1.894396e+00 1.112149e+01 0 0 0 3.886358e-02 1.941139e-01 3.899252e-01 -8.993152e-01
83 1 4 -6.606467e+00 -3.116009e+00 1.126589e+01 0 0 0 2.602571e-01 5.332592e-01 -6.785859e-01 4.329227e-01
84 1 4 -6.373301e+00 -3.604532e+00 1.132723e+01 0 0 0 1.033610e-02 1.734073e-01 -8.339831e-01 5.237321e-01
85 1 1 -6.315764e+00 -4.073070e+00 1.134566e+01 0 0 0 -1.510322e-01 -2.079983e-01 -8.407372e-01 4.765365e-01
86 1 1 -6.211806e+00 -4.325361e+00 1.190373e+01 0 0 0 3.288747e-01 2.306129e-01 7.839536e-01 -4.733664e-01
87 1 3 -5.219054e+00 -5.064308e+00 1.238512e+01 0 0 0 -4.218586e-01 -4.854615e-01 7.412402e-01 1.921598e-01
88 1 2 -5.318980e+00 -5.309114e+00 1.207801e+01 0 0 0 -4.911048e-02 6.009024e-01 -4.595402e-01 -6.521712e-01
89 1 2 -5.601015e+00 -5.397040e+00 1.202490e+01 0 0 0 -1.958083e-01 5.936356e-01 5.160193e-01 5.856449e-01
90 1 3 -5.566395e+00 -5.782028e+00 1.139872e+01 0 0 0 2.715154e-01 2.542337e-01 -8.850252e-01 2.799554e-01
91 1 3 -5.407177e+00 -5.766077e+00 1.091192e+01 0 0 0 2.372043e-01 -5.898479e-01 -7.680177e-01 7.721576e-02
92 1 2 -5.134089e+00 -6.537838e+00 9.590564e+00 0 0 0 4.714432e-01 5.634355e-01 -7.386468e-02 -6.744077e-01
93 1 1 -5.352589e+00 -6.701708e+00 9.139709e+00 0 0 0 -6.032261e-01 -1.491890e-01 1.585459e-01 7.672836e-01
94 1 2 -5.729532e+00 -6.891989e+00 9.474086e+00 0 0 0 -8.912017e-01 -1.499682e-01 1.742930e-01 3.910128e-01
95 1 3 -6.012242e+00 -7.220818e+00 9.839882e+00 0 0 0 -9.677969e-01 -1.299993e-01 2.118032e-01 4.011001e-02
96 1 2 -6.064270e+00 -7.621863e+00 1.015713e+01 0 0 0 -8.614181e-01 5.724802e-02 2.666595e-01 -4.284556e-01
97 1 2 -6.181640e+00 -7.814486e+00 1.062208e+01 0 0 0 -7.328811e-01 2.066792e-01 1.183478e-01 -6.373090e-01
98 1 4 -6.377054e+00 -7.572542e+00 1.109866e+01 0 0 0 7.344269e-01 -2.865435e-01 1.025882e-01 6.066182e-01
99 1 2 -6.462864e+00 -8.095947e+00 1.129499e+01 0 0 0 1.662826e-01 -8.831382e-01 -3.147684e-01 3.055123e-01
100 1 1 -7.055156e+00 -8.953975e+00 1.120589e+01 0 0 0 -4.667848e-01 -6.055817e-01 6.261604e-01 1.526627e-01
101 2 4 5.804895e+00 -7.518281e+00 -1.162767e+01 0 -1 0 1.795256e-01 -4.196036e-01 2.000605e-01 8.669943e-01
102 2 3 5.965216e+00 -8.033351e+00 -1.182218e+01 0 -1 0 2.570541e-01 8.895254e-01 3.498379e-01 1.424120e-01
103 2 1 5.970585e+00 -9.296518e+00 -1.218537e+01 0 -1 0 -1.284391e-02 -2.577072e-02 9.109012e-01 4.116187e-01
104 2 3 6.723814e+00 -9.316449e+00 -1.298368e+01 0 -1 0 2.935130e-01 5.514986e-01 -6.143354e-01 -4.819663e-01
105 2 3 6.393817e+00 -9.290946e+00 -1.336539e+01 0 -1 0 -3.579833e-01 -2.419677e-01 8.629963e-01 2.617957e-01
106 2 2 5.995317e+00 -9.314341e+00 -1.378085e+01 0 -1 0 -5.420320e-01 -9.217926e-03 8.346155e-01 9.763871e-02
107 2 3 5.473545e+00 -8.594345e+00 -1.425286e+01 0 -1 0 6.334389e-01 -1.957475e-01 -3.996189e-02 -7.475568e-01
108 2 4 5.231861e+00 -8.493063e+00 -1.391900e+01 0 -1 0 8.669756e-01 -1.970953e-01 -6.673047e-02 -4.528287e-01
109 2 3 4.805824e+00 -8.510598e+00 -1.375142e+01 0 -1 0 -7.225339e-01 1.335486e-01 6.444353e-01 -2.116903e-01
110 2 2 4.481209e+00 -8.794061e+00 -1.350306e+01 0 -1 0 -7.359031e-01 1.574940e-01 4.567211e-01 -4.743924e-01
111 2 2 3.345812e+00 -8.947489e+00 -1.418237e+01 0 -1 0 7.219627e-01 2.227818e-01 6.453902e-01 -1.122926e-01
112 2 3 3.325824e+00 -9.660658e+00 -1.407012e+01 0 -1 0 7.397132e-01 3.356369e-01 -5.815575e-01 -4.430837e-02
113 2 3 2.351699e+00 -8.667318e+00 -1.424404e+01 0 -1 0 -5.688995e-01 -4.926741e-01 -4.718173e-01 4.593626e-01
114 2 2 2.078221e+00 -9.038589e+00 -1.446141e+01 0 -1 0 -7.896419e-01 -5.977832e-01 -8.665115e-02 1.077611e-01
115 2 4 2.043429e+00 -9.468284e+00 -1.459979e+01 0 -1 0 -7.592027e-01 -5.822755e-01 2.476374e-01 -1.524541e-01
116 2 4 2.180522e+00 -1.000582e+01 -1.453671e+01 0 -1 0 6.963375e-01 3.852488e-01 -3.162682e-01 5.164028e-01
117 2 1 2.326081e+00 -1.056421e+01 -1.428736e+01 0 -1 0 5.794382e-01 1.939020e-01 -4.895491e-01 6.220893e-01
118 2 1 2.161688e+00 -1.120806e+01 -1.365558e+01 0 -1 0 -7.958110e-01 2.695159e-01 2.911853e-01 4.574463e-01
119 2 1 2.368373e+00 -1.159280e+01 -1.309295e+01 0 -1 0 -4.935132e-01 3.079039e-01 -3.809625e-01 7.186846e-01
120 2 1 3.106898e+00 -1.197530e+01 -1.415859e+01 0 -1 0 -7.373236e-01 -5.239829e-01 -4.226899e-01 -5.593757e-02
121 2 3 2.508399e+00 -1.284402e+01 -1.292327e+01 0 -1 0 -3.323320e-01 2.162969e-01 -5.641908e-01 7.241960e-01
122 2 1 2.231843e+00 -1.321381e+01 -1.413172e+01 0 -1 0 4.601480e-01 3.352071e-01 8.034071e-01 1.744623e-01
123 2 4 2.430119e+00 -1.328576e+01 -1.450987e+01 0 -1 0 -3.108150e-01 -6.877745e-01 -5.151694e-01 -4.061538e-01
124 2 1 3.573394e+00 -1.411408e+01 -1.403774e+01 0 -1 0 8.516241e-01 9.560957e-02 -4.712593e-01 2.085901e-01
125 2 4 4.077751e+00 -1.341807e+01 -1.488165e+01 0 -1 0 5.769926e-01 -6.687202e-01 2.659886e-01 3.861902e-01
126 2 2 4.260911e+00 -1.309832e+01 -1.482671e+01 0 -1 0 -2.949574e-01 3.317998e-01 -5.445665e-01 -7.115872e-01
127 2 4 4.816004e+00 -1.390939e+01 -1.374949e+01 0 -1 0 -8.285657e-01 3.040292e-01 -2.312744e-01 4.093375e-01
128 2 4 5.003134e+00 -1.292018e+01 -1.350541e+01 0 -1 0 -4.940948e-01 3.901658e-01 7.614086e-01 1.545896e-01
129 2 1 5.420866e+00 -1.208119e+01 -1.446576e+01 0 -1 0 7.252539e-01 5.376618e-01 4.175094e-02 4.279993e-01
130 2 2 5.920918e+00 -1.249285e+01 -1.498331e+01 0 -1 0 3.907576e-01 -6.642691e-01 3.839025e-01 5.086000e-01
131 2 3 5.804819e+00 -1.189970e+01 -1.518794e+01 0 -1 0 -2.298064e-01 7.339670e-01 -5.046374e-01 -3.922023e-01
132 2 4 5.229903e+00 -1.098094e+01 -1.484533e+01 0 -1 0 -4.306712e-01 3.249209e-01 6.664962e-01 -5.145207e-01
133 2 4 4.718305e+00 -1.046263e+01 -1.581867e+01 0 -1 0 1.217289e-01 8.694157e-01 3.959039e-01 -2.693668e-01
134 2 3 4.476655e+00 -1.102022e+01 -1.565694e+01 0 -1 0 -2.012733e-01 8.944364e-01 3.355306e-01 -2.165451e-01
135 2 4 4.183776e+00 -1.068646e+01 -1.594048e+01 0 -1 0 1.917676e-01 -9.384908e-01 7.126443e-02 2.781754e-01
136 2 3 3.920490e+00 -1.030997e+01 -1.630299e+01 0 -1 0 8.568225e-02 -8.814904e-01 4.086205e-01 2.205959e-01
137 2 1 4.052580e+00 -1.002689e+01 -1.672899e+01 0 -1 0 -1.123522e-01 7.706718e-01 -6.210480e-01 -8.798499e-02
138 2 3 4.349946e+00 -9.916288e+00 -1.705581e+01 0 -1 0 1.200039e-01 -3.798853e-01 8.922077e-01 2.127244e-01
139 2 2 4.594120e+00 -9.162585e+00 -1.724430e+01 0 -1 0 -4.252643e-01 8.892932e-01 -1.170799e-01 1.208314e-01
140 2 3 3.606787e+00 -8.661655e+00 -1.735049e+01 0 -1 0 4.054744e-01 -6.131695e-01 -5.481378e-01 3.989468e-01
141 2 1 3.364196e+00 -8.743468e+00 -1.869443e+01 0 -1 0 -1.632602e-01 3.516548e-01 -9.395425e-02 -9.169829e-01
142 2 2 3.415890e+00 -9.903912e+00 -1.795770e+01 0 -1 0 -4.349124e-01 5.684351e-01 1.435614e-01 6.834638e-01
143 2 4 2.603811e+00 -1.027497e+01 -1.788285e+01 0 -1 0 3.963673e-01 -4.741406e-01 -6.882922e-01 -3.799178e-01
144 2 4 2.171481e+00 -9.901841e+00 -1.793714e+01 0 -1 0 5.619501e-01 -6.965488e-01 -3.980349e-01 -2.014946e-01
145 2 1 2.037075e+00 -9.441512e+00 -1.786493e+01 0 -1 0 6.362847e-01 -7.686023e-01 -5.399020e-02 -3.843527e-02
146 2 1 1.654830e+00 -9.795382e+00 -1.816057e+01 0 -1 0 4.791050e-01 5.677169e-01 -3.401561e-02 6.685797e-01
147 2 1 1.259161e+00 -1.054682e+01 -1.881122e+01 0 -1 0 6.482867e-01 -6.319903e-01 3.637630e-01 2.190642e-01
148 2 2 3.314599e-01 -1.141839e+01 -1.935978e+01 0 -1 0 -6.799388e-01 -3.482433e-01 -5.453224e-01 3.450121e-01
149 2 4 3.491368e-01 -1.196102e+01 -1.946010e+01 0 -1 0 -7.902941e-01 -4.847880e-01 -3.740703e-01 2.207233e-02
150 2 1 -2.471336e-01 -1.253833e+01 -1.920196e+01 0 -1 0 -4.375774e-01 4.808352e-01 -7.163102e-01 2.534230e-01
151 2 1 -1.220257e+00 -1.281975e+01 -1.969715e+01 0 -1 0 -1.821872e-01 -5.363285e-02 9.510842e-01 2.436598e-01
152 2 1 -1.539059e+00 -1.287846e+01 1.989083e+01 0 -1 -1 3.632945e-01 -4.101789e-01 -8.172373e-01 -1.785878e-01
153 2 4 -2.091390e-01 -1.304553e+01 1.948070e+01 0 -1 -1 6.313173e-01 -6.220387e-01 3.629885e-01 -2.876555e-01
154 2 1 -4.716785e-01 -1.280093e+01 1.827224e+01 0 -1 -1 -9.192768e-01 -1.196249e-01 -3.656655e-01 -8.311885e-02
155 2 2 -9.253551e-01 -1.294945e+01 1.818007e+01 0 -1 -1 4.716463e-01 4.516393e-01 -6.822621e-01 3.287705e-01
156 2 4 -9.112677e-01 -1.309986e+01 1.704297e+01 0 -1 -1 -4.311650e-01 -4.475094e-01 -7.509825e-01 -2.232877e-01
157 2 3 -4.969793e-01 -1.382289e+01 1.715489e+01 0 -1 -1 -5.302222e-01 -8.188775e-01 5.061390e-02 -2.138744e-01
158 2 2 -1.179175e+00 -1.475611e+01 1.789564e+01 0 -1 -1 2.436260e-01 -7.331736e-03 7.195924e-01 -6.502148e-01
159 2 1 -2.700466e-01 -1.434428e+01 1.803057e+01 0 -1 -1 -2.699356e-01 -8.874519e-02 -9.687654e-02 -9.538732e-01
160 2 3 -3.546610e-01 -1.430093e+01 1.892511e+01 0 -1 -1 2.562910e-01 6.710525e-01 1.059466e-01 6.875891e-01
161 2 1 -2.100532e-01 -1.496001e+01 1.928832e+01 0 -1 -1 -4.431464e-01 1.626393e-01 -8.524531e-01 2.247074e-01
162 2 1 1.700355e-01 -1.389302e+01 -1.963663e+01 0 -1 0 -5.009869e-01 -2.167592e-01 2.270226e-01 -8.065286e-01
163 2 4 4.602795e-01 -1.392541e+01 -1.916072e+01 0 -1 0 -9.826427e-02 4.268782e-03 3.802532e-01 -9.196376e-01
164 2 4 2.846117e-01 -1.399061e+01 -1.870795e+01 0 -1 0 -1.832593e-01 -9.917121e-02 -2.499105e-01 9.455823e-01
165 2 3 3.632506e-02 -1.411995e+01 -1.829306e+01 0 -1 0 -5.824277e-01 -2.759774e-01 -2.524059e-01 7.217379e-01
166 2 3 -2.687712e-01 -1.445726e+01 -1.813911e+01 0 -1 0 -8.296829e-01 -3.566032e-01 -9.440080e-02 4.189857e-01
167 2 4 -3.990778e-01 -1.316531e+01 -1.720602e+01 0 -1 0 -3.049947e-01 1.843600e-01 3.872873e-03 -9.343311e-01
168 2 2 -4.217796e-01 -1.288260e+01 -1.673741e+01 0 -1 0 1.249749e-01 1.600662e-01 1.173423e-02 -9.790926e-01
169 2 2 -7.376415e-01 -1.260172e+01 -1.641243e+01 0 -1 0 -5.666892e-01 -1.030290e-01 1.365207e-01 8.059841e-01
170 2 1 -1.144551e+00 -1.155011e+01 -1.593591e+01 0 -1 0 1.711364e-01 -6.753156e-01 -6.799081e-01 -2.288801e-01
171 2 1 -1.963968e+00 -1.195392e+01 -1.588725e+01 0 -1 0 -7.996102e-02 -2.775369e-01 -7.575509e-01 5.854025e-01
172 2 4 -2.356761e+00 -1.229389e+01 -1.583322e+01 0 -1 0 -3.489243e-01 -6.163519e-01 -4.773805e-01 5.200672e-01
173 2 4 -2.763271e+00 -1.269407e+01 -1.609969e+01 0 -1 0 -3.506987e-01 -7.062979e-01 -3.428882e-01 5.104716e-01
174 2 1 -3.071611e+00 -1.293839e+01 -1.643898e+01 0 -1 0 5.073182e-01 8.289981e-01 2.019742e-02 -2.344836e-01
175 2 1 -3.437625e+00 -1.278964e+01 -1.537045e+01 0 -1 0 2.109436e-01 8.016246e-01 5.067856e-01 2.367895e-01
176 2 2 -3.601276e+00 -1.343598e+01 -1.518335e+01 0 -1 0 -4.433420e-01 -7.189278e-01 8.820939e-02 -5.280245e-01
177 2 2 -3.042046e+00 -1.367315e+01 -1.519933e+01 0 -1 0 3.104881e-01 6.564184e-01 -1.450874e-01 6.720578e-01
178 2 1 -3.028367e+00 -1.421859e+01 -1.508848e+01 0 -1 0 4.727623e-01 -5.624780e-01 4.444027e-02 6.768599e-01
179 2 4 -4.004324e+00 -1.456153e+01 -1.507412e+01 0 -1 0 -2.732117e-01 -2.526128e-01 -3.431809e-01 -8.624205e-01
180 2 1 -3.583736e+00 -1.538919e+01 -1.402083e+01 0 -1 0 -6.024524e-01 2.197022e-01 5.748734e-01 -5.082348e-01
181 2 4 -3.817464e+00 -1.544221e+01 -1.363812e+01 0 -1 0 2.686549e-01 -4.642795e-01 -4.696735e-01 7.011961e-01
182 2 2 -3.297649e+00 -1.590620e+01 -1.347903e+01 0 -1 0 1.819329e-01 -3.542327e-01 9.138335e-01 7.954824e-02
183 2 3 -3.003951e+00 -1.487152e+01 -1.256176e+01 0 -1 0 4.726458e-01 -7.238863e-01 2.113159e-02 5.021435e-01
184 2 4 -3.127956e+00 -1.442466e+01 -1.260237e+01 0 -1 0 -1.980315e-01 6.460045e-01 -3.039916e-01 -6.716032e-01
185 2 3 -3.360616e+00 -1.401123e+01 -1.276105e+01 0 -1 0 -1.376070e-01 -4.848989e-01 5.335698e-01 6.791470e-01
186 2 1 -3.268330e+00 -1.335605e+01 -1.166560e+01 0 -1 0 -1.016427e-01 -1.172640e-01 -4.041729e-02 -9.870584e-01
187 2 1 -4.003948e+00 -1.398615e+01 -1.199145e+01 0 -1 0 5.606446e-01 3.861299e-01 7.113775e-01 -1.747093e-01
188 2 2 -4.427775e+00 -1.353454e+01 -1.167186e+01 0 -1 0 -7.100354e-01 -3.959679e-01 -4.610760e-01 3.556236e-01
189 2 4 -3.825704e+00 -1.343617e+01 -1.014960e+01 0 -1 0 -5.104028e-01 -5.506824e-01 4.803087e-01 -4.533667e-01
190 2 4 -4.331163e+00 -1.405591e+01 -9.376835e+00 0 -1 0 -4.521554e-01 5.236128e-01 -4.577462e-01 5.584385e-01
191 2 1 -3.720713e+00 -1.461896e+01 -8.997529e+00 0 -1 0 -8.470083e-01 4.020857e-01 -1.581949e-01 3.096423e-01
192 2 4 -3.468176e+00 -1.458766e+01 -8.557440e+00 0 -1 0 -9.083269e-01 2.128009e-01 -3.536892e-01 -6.754226e-02
193 2 4 -3.520766e+00 -1.457520e+01 -7.943623e+00 0 -1 0 1.150358e-02 8.015456e-01 2.144256e-01 5.580448e-01
194 2 1 -3.780655e+00 -1.530386e+01 -8.014242e+00 0 -1 0 -5.203634e-01 8.355905e-01 1.611587e-01 -7.098115e-02
195 2 3 -4.914712e+00 -1.519140e+01 -8.985290e+00 0 -1 0 1.368793e-01 3.122716e-01 3.373530e-01 -8.774642e-01
196 2 4 -5.287548e+00 -1.530498e+01 -8.714857e+00 0 -1 0 -4.415607e-01 -4.355880e-01 -2.372144e-01 7.476741e-01
197 2 2 -4.860612e+00 -1.580229e+01 -7.312913e+00 0 -1 0 7.735371e-01 -2.269506e-01 -5.123885e-01 2.959591e-01
198 2 4 -5.335790e+00 -1.572840e+01 -7.044293e+00 0 -1 0 -8.216600e-01 2.444187e-01 3.417635e-01 -3.851390e-01
199 2 3 -6.366103e+00 -1.614575e+01 -6.937179e+00 0 -1 0 -6.481619e-01 -1.517736e-01 1.114227e-02 7.461413e-01
200 2 4 -6.983423e+00 -1.668419e+01 -6.617320e+00 0 -1 0 4.337839e-01 -7.357532e-02 7.846220e-01 -4.367912e-01
