ITEM: TIMESTEP
322000000
ITEM: NUMBER OF ATOMS
200
ITEM: BOX BOUNDS pp pp pp
-2.0000000000000000e+01 2.0000000000000000e+01
-2.0000000000000000e+01 2.0000000000000000e+01
-2.0000000000000000e+01 2.0000000000000000e+01
ITEM: ATOMS id mol type x y z ix iy iz c_quat[1] c_quat[2] c_quat[3] c_quat[4]
1 1 1 1.752780e+01 7.603022e+00 1.086023e+00 -1 -1 0 -2.761815e-01 -5.725157e-01 5.332106e-01 5.582436e-01
2 1 2 1.821840e+01 7.224040e+00 9.321846e-01 -1 -1 0 -8.791769e-01 -2.135650e-01 -3.071759e-01 -2.950947e-01
3 1 1 1.871564e+01 7.015349e+00 1.120919e+00 -1 -1 0 7.269941e-01 2.966556e-01 2.169477e-01 5.800076e-01
4 1 3 1.915062e+01 7.069898e+00 1.329655e+00 -1 -1 0 5.032473e-01 3.365014e-01 1.946117e-01 7.717741e-01
5 1 1 1.956192e+01 7.237950e+00 1.646275e+00 -1 -1 0 3.970791e-01 2.893515e-01 2.905016e-01 8.211046e-01
6 1 2 1.983382e+01 7.620941e+00 1.774412e+00 -1 -1 0 7.093675e-02 -4.208707e-01 2.311719e-02 -9.040472e-01
7 1 4 -1.990546e+01 7.937774e+00 7.475266e-01 0 -1 0 -2.829519e-01 -5.398536e-01 -2.067364e-01 -7.653472e-01
8 1 1 -1.949533e+01 8.134956e+00 7.911283e-01 0 -1 0 -2.368103e-02 5.659847e-01 -1.025333e-01 8.176720e-01
9 1 1 -1.912876e+01 7.180144e+00 9.004087e-01 0 -1 0 5.412737e-01 -7.409240e-01 -1.176933e-01 -3.797404e-01
10 1 4 -1.850637e+01 7.331740e+00 2.958831e-01 0 -1 0 3.871131e-01 1.833203e-01 2.155877e-01 8.775301e-01
11 1 1 -1.796418e+01 6.723272e+00 1.352677e+00 0 -1 0 2.493505e-01 2.456010e-01 -5.904332e-01 7.272504e-01
12 1 1 -1.764534e+01 7.664870e+00 1.149530e+00 0 -1 0 -3.077104e-01 6.463967e-01 -1.150612e-01 -6.886556e-01
13 1 3 -1.762134e+01 8.103531e+00 2.167999e+00 0 -1 0 -1.131928e-01 7.297096e-01 2.035920e-01 6.428543e-01
14 1 4 -1.749756e+01 8.591193e+00 2.249389e+00 0 -1 0 3.531919e-01 -8.349766e-01 1.938236e-01 -3.748360e-01
15 1 4 -1.718420e+01 8.926336e+00 2.365054e+00 0 -1 0 6.175695e-01 -6.214716e-01 3.992594e-01 -2.701351e-01
16 1 2 -1.670026e+01 9.041048e+00 2.457182e+00 0 -1 0 -6.218530e-01 4.047523e-01 -6.668556e-01 6.912325e-02
17 1 1 -1.636607e+01 1.055015e+01 2.835851e+00 0 -1 0 -5.252336e-01 -1.893267e-01 -7.897599e-02 -8.258619e-01
18 1 2 -1.602072e+01 1.070439e+01 3.097183e+00 0 -1 0 8.301776e-02 2.568622e-01 -9.885982e-03 9.628251e-01
19 1 3 -1.542866e+01 1.056136e+01 3.836657e+00 0 -1 0 7.730403e-01 3.268498e-01 -1.543709e-01 5.212940e-01
20 1 1 -1.556550e+01 1.089523e+01 3.871065e+00 0 -1 0 -5.826986e-01 4.331346e-01 -6.501665e-01 -2.239201e-01
21 1 4 -1.594661e+01 1.046180e+01 4.918841e+00 0 -1 0 6.680343e-01 -6.914151e-02 -6.652365e-01 -3.262055e-01
22 1 1 -1.590406e+01 1.061393e+01 4.971369e+00 0 -1 0 -3.610918e-01 -3.349716e-01 -8.211782e-01 -2.882242e-01
23 1 4 -1.568453e+01 1.065539e+01 5.931279e+00 0 -1 0 -4.288301e-01 7.897959e-01 -2.688700e-01 -3.464623e-01
24 1 3 -1.607624e+01 1.122139e+01 6.365334e+00 0 -1 0 -5.151013e-01 -2.864945e-01 -4.630927e-01 -6.619190e-01
25 1 3 -1.559935e+01 1.150402e+01 6.358011e+00 0 -1 0 1.901129e-01 3.192452e-01 3.559110e-01 8.574771e-01
26 1 4 -1.450760e+01 1.135442e+01 6.716915e+00 0 -1 0 -7.636388e-01 -1.249770e-02 -1.957002e-01 -6.151431e-01
27 1 4 -1.455472e+01 1.127262e+01 7.357214e+00 0 -1 0 -3.808841e-01 4.165383e-01 -1.905869e-01 -8.031811e-01
28 1 1 -1.466230e+01 1.177605e+01 7.515088e+00 0 -1 0 -1.567789e-01 3.821268e-01 -4.519182e-01 -7.906765e-01
29 1 1 -1.390011e+01 1.156125e+01 8.101856e+00 0 -1 0 7.124085e-01 -2.687827e-01 6.051539e-01 2.324194e-01
30 1 4 -1.333964e+01 1.172200e+01 8.015325e+00 0 -1 0 5.125550e-01 -5.420047e-02 6.941798e-01 5.024581e-01
31 1 4 -1.328250e+01 1.092398e+01 9.025893e+00 0 -1 0 -7.385796e-01 1.537233e-01 4.134090e-01 5.098650e-01
32 1 3 -1.372948e+01 1.088869e+01 9.272070e+00 0 -1 0 8.616997e-01 -3.158622e-01 -3.890076e-01 -7.986077e-02
33 1 3 -1.397536e+01 1.107785e+01 9.717408e+00 0 -1 0 -7.802156e-01 5.270938e-01 1.239334e-01 -3.131712e-01
34 1 1 -1.416888e+01 1.003912e+01 1.015551e+01 0 -1 0 -9.653317e-01 2.273571e-01 1.091516e-02 1.277663e-01
35 1 2 -1.419629e+01 1.007256e+01 1.066218e+01 0 -1 0 -9.816954e-01 1.528990e-01 -1.124167e-01 -1.608161e-02
36 1 2 -1.397644e+01 9.924652e+00 1.104902e+01 0 -1 0 8.862771e-01 -8.046624e-02 1.465989e-01 4.319107e-01
37 1 1 -1.442581e+01 9.677553e+00 1.150547e+01 0 -1 0 -5.541619e-01 -3.992753e-01 -2.696478e-01 6.788033e-01
38 1 1 -1.464215e+01 9.191580e+00 1.167974e+01 0 -1 0 -4.399201e-01 -6.050010e-01 -2.750091e-01 6.039984e-01
39 1 4 -1.449162e+01 9.804410e+00 1.241043e+01 0 -1 0 -7.159028e-02 9.726586e-01 -1.330584e-01 1.763677e-01
40 1 4 -1.541302e+01 9.468698e+00 1.256413e+01 0 -1 0 8.066919e-01 -5.428211e-01 9.541743e-02 -2.132814e-01
41 1 2 -1.601230e+01 1.089057e+01 1.178527e+01 0 -1 0 2.395522e-01 -1.458770e-01 1.559490e-01 9.471085e-01
42 1 4 -1.544568e+01 1.094412e+01 1.287922e+01 0 -1 0 6.479568e-01 -5.866745e-01 -4.853114e-01 2.092315e-02
43 1 3 -1.577468e+01 1.133467e+01 1.300752e+01 0 -1 0 6.668352e-01 -6.918330e-01 -2.453321e-01 1.284916e-01
44 1 2 -1.601787e+01 1.177328e+01 1.313028e+01 0 -1 0 -6.384830e-01 7.246334e-01 -8.079280e-02 -2.464110e-01
45 1 1 -1.601261e+01 1.223262e+01 1.322026e+01 0 -1 0 4.133108e-01 -6.237881e-01 4.281348e-01 5.067180e-01
46 1 3 -1.587222e+01 1.265165e+01 1.306211e+01 0 -1 0 1.983827e-01 -3.414739e-01 7.016354e-01 5.930832e-01
47 1 4 -1.571813e+01 1.337280e+01 1.350028e+01 0 -1 0 -8.335275e-01 2.314205e-02 3.457595e-01 -4.302868e-01
48 1 1 -1.660238e+01 1.407697e+01 1.337190e+01 0 -1 0 -3.575605e-01 7.431149e-01 2.636905e-01 -5.003979e-01
49 1 4 -1.748981e+01 1.374528e+01 1.269842e+01 0 -1 0 7.063485e-01 4.662659e-01 4.880364e-01 -2.132802e-01
50 1 4 -1.809588e+01 1.374433e+01 1.279745e+01 0 -1 0 -7.723837e-01 -4.330111e-01 -4.988827e-02 4.619913e-01
51 1 4 -1.824440e+01 1.490744e+01 1.238549e+01 0 -1 0 -5.666080e-01 -5.848443e-01 -5.135743e-01 2.704700e-01
52 1 1 -1.741207e+01 1.535455e+01 1.353782e+01 0 -1 0 4.585842e-01 6.477805e-02 -1.792491e-01 8.679712e-01
53 1 3 -1.728237e+01 1.542938e+01 1.400854e+01 0 -1 0 1.074877e-01 -6.818371e-03 -2.372342e-01 9.654635e-01
54 1 4 -1.747992e+01 1.553317e+01 1.449398e+01 0 -1 0 3.623296e-01 1.108372e-01 3.022488e-01 -8.746874e-01
55 1 4 -1.764397e+01 1.544227e+01 1.495076e+01 0 -1 0 -6.403431e-01 -2.524344e-01 -2.295053e-01 6.881606e-01
56 1 4 -1.705100e+01 1.554663e+01 1.565352e+01 0 -1 0 4.674278e-01 -1.175518e-01 -7.923189e-02 -8.725910e-01
57 1 1 -1.732191e+01 1.563787e+01 1.604461e+01 0 -1 0 -8.714249e-01 9.731239e-02 8.806507e-02 4.726453e-01
58 1 1 -1.803794e+01 1.646085e+01 1.615740e+01 0 -1 0 2.350620e-01 -3.039875e-02 -9.271992e-02 9.670702e-01
59 1 3 -1.819366e+01 1.665623e+01 1.604864e+01 0 -1 0 -4.238618e-01 -1.416667e-01 -7.425841e-02 8.914917e-01
60 1 4 -1.849046e+01 1.660626e+01 1.642336e+01 0 -1 0 6.422944e-01 3.066078e-01 -3.056006e-02 -7.017946e-01
61 1 2 -1.884849e+01 1.669090e+01 1.662523e+01 0 -1 0 2.803221e-01 -3.869231e-01 8.658086e-01 1.486122e-01
62 1 3 -1.983309e+01 1.756110e+01 1.658144e+01 0 -1 0 -4.910844e-01 -2.076286e-03 2.117926e-01 8.449708e-01
63 1 2 -1.973704e+01 1.751369e+01 1.572987e+01 0 -1 0 -2.171394e-01 -2.261932e-01 -9.363319e-01 -1.580182e-01
64 1 4 -1.841375e+01 1.811018e+01 1.552458e+01 0 -1 0 4.995362e-02 8.162674e-01 -3.515597e-01 -4.556511e-01
65 1 2 -1.897612e+01 1.863309e+01 1.637762e+01 0 -1 0 2.807684e-01 -1.613518e-01 -9.459468e-01 1.787000e-02
66 1 1 -1.910091e+01 1.907701e+01 1.662877e+01 0 -1 0 6.975088e-01 -3.060943e-01 2.385003e-01 -6.024163e-01
67 1 2 -1.880692e+01 1.911912e+01 1.708283e+01 0 -1 0 -8.071327e-01 1.676976e-01 -3.375097e-01 4.544244e-01
68 1 1 -1.863899e+01 1.905102e+01 1.722387e+01 0 -1 0 -7.511419e-02 6.445704e-01 -5.949166e-01 -4.743006e-01
69 1 1 -1.844491e+01 1.917040e+01 1.799970e+01 0 -1 0 -4.903884e-01 1.962394e-01 -7.979238e-01 2.903911e-01
70 1 2 -1.830168e+01 1.851229e+01 1.771373e+01 0 -1 0 6.848754e-01 3.398182e-01 -3.611059e-01 -5.339212e-01
71 1 3 -1.811162e+01 1.893332e+01 1.866146e+01 0 -1 0 3.637853e-01 1.549644e-01 -1.083494e-01 9.120892e-01
72 1 4 -1.816171e+01 1.911831e+01 1.925447e+01 0 -1 0 -2.750685e-02 1.704058e-02 5.941826e-02 -9.977086e-01
73 1 1 -1.874473e+01 1.837059e+01 1.855628e+01 0 -1 0 -5.263610e-01 -3.003561e-01 -7.474557e-01 -2.721034e-01
74 1 1 -1.859494e+01 1.843203e+01 1.954815e+01 0 -1 0 -1.871926e-01 6.451365e-01 4.126232e-01 -6.152235e-01
75 1 3 -1.764973e+01 1.728254e+01 1.989424e+01 0 -1 0 1.225752e-01 7.437056e-01 -6.555072e-01 -4.677311e-02
76 1 1 -1.892526e+01 1.717576e+01 -1.942535e+01 0 -1 1 3.321386e-01 -2.390512e-01 -8.024920e-01 -4.342178e-01
77 1 4 -1.818734e+01 1.689166e+01 -1.948118e+01 0 -1 1 -6.033913e-01 2.505053e-01 -3.101302e-02 -7.564418e-01
78 1 1 -1.831837e+01 1.561645e+01 -1.954141e+01 0 -1 1 -9.648936e-01 2.153065e-01 1.432477e-01 -4.586524e-02
79 1 4 -1.831295e+01 1.556748e+01 -1.899339e+01 0 -1 1 -8.779076e-01 2.795603e-01 -1.810712e-02 -3.883251e-01
80 1 2 -1.870468e+01 1.511070e+01 -1.912423e+01 0 -1 1 3.778105e-01 8.223958e-02 5.017877e-01 7.737603e-01
81 1 4 -1.859141e+01 1.447578e+01 -1.879635e+01 0 -1 1 2.881996e-01 7.876903e-02 -4.539142e-01 8.394631e-01
82 1 4 -1.874478e+01 1.396504e+01 -2.009475e+01 0 -1 1 2.609920e-02 -7.140416e-01 2.278934e-01 6.614590e-01
83 1 4 -1.892448e+01 1.428954e+01 1.964718e+01 0 -1 0 8.316958e-02 5.835119e-01 -5.632691e-01 -5.790722e-01
84 1 4 -1.930299e+01 1.459325e+01 1.936415e+01 0 -1 0 8.504754e-02 7.005298e-01 -5.881974e-01 -3.950301e-01
85 1 1 -1.948855e+01 1.583308e+01 1.969166e+01 0 -1 0 -6.059069e-02 5.794691e-01 3.015579e-01 7.547232e-01
86 1 1 1.970407e+01 1.586407e+01 1.958316e+01 -1 -1 0 3.898898e-01 5.915097e-01 7.008092e-01 -8.347856e-02
87 1 3 1.978314e+01 1.617915e+01 -1.948528e+01 -1 -1 1 -6.792150e-01 3.577642e-01 3.134252e-01 5.589601e-01
88 1 2 1.942638e+01 1.633423e+01 -1.915821e+01 -1 -1 1 8.471767e-01 -4.937492e-01 -1.792591e-01 -7.980978e-02
89 1 2 1.901825e+01 1.739789e+01 -1.933660e+01 -1 -1 1 1.206646e-02 4.803574e-01 -5.539116e-02 -8.752388e-01
90 1 3 1.986805e+01 1.727214e+01 -1.974094e+01 -1 -1 1 2.511121e-01 8.268546e-01 -5.020714e-01 -3.433054e-02
91 1 3 1.918083e+01 1.816696e+01 -1.979118e+01 -1 -1 1 5.606241e-01 8.168744e-01 -7.410609e-02 1.136889e-01
92 1 2 1.860369e+01 1.833538e+01 -1.976436e+01 -1 -1 1 7.099927e-01 -2.231838e-01 2.797734e-01 -6.064867e-01
93 1 1 1.947708e+01 1.976954e+01 1.968065e+01 -1 -1 0 -2.642812e-01 8.587134e-01 2.091994e-01 -3.860082e-01
94 1 2 1.894453e+01 1.951960e+01 1.866052e+01 -1 -1 0 7.682716e-01 5.189262e-01 1.724975e-01 -3.327445e-01
95 1 3 1.941005e+01 -1.939607e+01 1.943166e+01 -1 0 0 -5.728272e-01 7.970535e-01 1.003687e-01 -1.627910e-01
96 1 2 1.949125e+01 -1.896589e+01 1.962802e+01 -1 0 0 4.359196e-01 -6.982377e-01 2.063878e-01 5.290012e-01
97 1 2 1.948597e+01 -1.845561e+01 1.964675e+01 -1 0 0 2.254831e-01 -4.980460e-01 5.139781e-01 6.610099e-01
98 1 4 -1.974356e+01 -1.842546e+01 1.952567e+01 0 0 0 4.841143e-01 -5.589170e-01 6.622890e-01 1.209067e-01
99 1 2 -1.935828e+01 -1.816473e+01 1.923937e+01 0 0 0 -3.135410e-01 3.966851e-01 -7.721327e-01 -3.848949e-01
100 1 1 -1.911677e+01 -1.798032e+01 1.889739e+01 0 0 0 1.499674e-01 5.841892e-02 8.234601e-01 5.440685e-01
101 2 4 5.514601e+00 1.115492e+01 -3.945332e+00 0 -1 0 -7.297112e-01 -8.804744e-02 -6.778712e-01 -1.612036e-02
102 2 3 5.190837e+00 1.189324e+01 -2.992394e+00 0 -1 0 -7.439953e-01 2.894608e-01 4.589537e-01 3.899294e-01
103 2 1 5.531866e+00 1.210182e+01 -2.907202e+00 0 -1 0 2.209285e-01 -7.387461e-01 4.092192e-03 6.367323e-01
104 2 3 5.230024e+00 1.080554e+01 -2.802582e+00 0 -1 0 4.569164e-01 5.685979e-01 -3.586487e-01 -5.824903e-01
105 2 3 4.180029e+00 1.126929e+01 -2.252096e+00 0 -1 0 -9.035439e-02 1.319325e-01 8.554982e-01 -4.924965e-01
106 2 2 3.907867e+00 1.088603e+01 -2.208083e+00 0 -1 0 -2.002024e-01 -5.051372e-01 -7.077662e-01 4.514670e-01
107 2 3 3.602140e+00 1.071923e+01 -2.373552e+00 0 -1 0 4.209381e-01 7.883553e-01 2.742426e-01 -3.551028e-01
108 2 4 3.472023e+00 1.037915e+01 -2.756843e+00 0 -1 0 -4.602577e-01 -8.814834e-01 -7.632360e-02 7.297047e-02
109 2 3 3.363637e+00 9.764931e+00 -2.688523e+00 0 -1 0 -6.608579e-01 2.113260e-01 1.955495e-01 -6.930862e-01
110 2 2 2.786141e+00 8.337588e+00 -2.160680e+00 0 -1 0 5.938886e-01 -9.738237e-03 -7.546386e-01 -2.787868e-01
111 2 2 2.816643e+00 8.401152e+00 -2.381573e+00 0 -1 0 8.777102e-01 3.815627e-01 2.438104e-01 1.568157e-01
112 2 3 1.808627e+00 8.414287e+00 -1.329076e+00 0 -1 0 4.177511e-01 6.777381e-02 -6.271673e-01 6.538746e-01
113 2 3 1.577648e+00 7.517509e+00 -1.879689e+00 0 -1 0 5.228597e-01 6.642727e-01 -3.596700e-01 -3.949645e-01
114 2 2 1.290142e+00 7.242182e+00 -2.130448e+00 0 -1 0 6.654012e-01 3.802667e-01 -6.361739e-01 -8.900156e-02
115 2 4 1.216263e+00 6.984438e+00 -2.360920e+00 0 -1 0 5.348575e-01 -3.353479e-02 -8.259380e-01 1.750120e-01
116 2 4 1.141180e+00 7.317233e+00 -3.201546e+00 0 -1 0 -2.448527e-01 -8.943283e-01 1.206593e-01 -3.544932e-01
117 2 1 1.696127e+00 7.542211e+00 -3.865788e+00 0 -1 0 4.885747e-01 7.857314e-01 1.553257e-01 3.461139e-01
118 2 1 2.472260e+00 7.039485e+00 -4.334647e+00 0 -1 0 8.651848e-02 -8.801616e-01 4.404099e-01 1.544966e-01
119 2 1 1.617251e+00 6.120079e+00 -4.301069e+00 0 -1 0 -6.969630e-01 -3.454797e-01 6.201440e-01 1.015270e-01
120 2 1 9.955806e-01 6.768037e+00 -4.826349e+00 0 -1 0 1.953082e-01 -3.097393e-01 -9.068387e-01 2.087100e-01
121 2 3 5.992030e-01 6.626931e+00 -5.418815e+00 0 -1 0 -3.158977e-01 4.181341e-01 8.287529e-01 -1.963191e-01
122 2 1 6.481282e-02 6.575167e+00 -5.527530e+00 0 -1 0 1.594945e-01 -7.697988e-01 -5.376051e-01 3.048803e-01
123 2 4 -4.018828e-01 6.825288e+00 -5.774016e+00 0 -1 0 -5.562522e-02 9.313762e-01 2.314133e-01 -2.754853e-01
124 2 1 9.444449e-02 6.284563e+00 -6.652077e+00 0 -1 0 3.041933e-02 -8.835485e-01 4.031112e-01 2.364701e-01
125 2 4 1.205511e-01 6.361421e+00 -7.152283e+00 0 -1 0 -6.972378e-02 -7.274116e-01 6.756252e-01 9.768065e-02
126 2 2 -9.396111e-01 6.873821e+00 -7.592533e+00 0 -1 0 6.285573e-01 8.641799e-02 4.299998e-01 -6.422988e-01
127 2 4 -1.144410e+00 8.354703e+00 -7.428034e+00 0 -1 0 1.859701e-01 5.483958e-01 4.798715e-01 6.590906e-01
128 2 4 -9.813151e-01 8.234590e+00 -8.229614e+00 0 -1 0 -3.267331e-01 -5.026822e-01 -3.660842e-01 -7.117151e-01
129 2 1 -1.660311e+00 8.058418e+00 -8.299655e+00 0 -1 0 7.011115e-01 1.055112e-02 5.152970e-01 -4.927477e-01
130 2 2 -2.486981e+00 8.253757e+00 -8.271953e+00 0 -1 0 -3.268037e-01 2.442553e-01 9.123327e-01 3.446366e-02
131 2 3 -2.712119e+00 9.154440e+00 -8.542058e+00 0 -1 0 -2.885081e-01 -5.341295e-01 -7.884350e-01 -9.919170e-02
132 2 4 -2.423236e+00 9.276861e+00 -7.885299e+00 0 -1 0 4.601620e-01 -7.337805e-01 4.094792e-01 2.866076e-01
133 2 4 -3.345633e+00 8.922212e+00 -7.183944e+00 0 -1 0 -6.289331e-01 -2.677169e-01 1.266999e-01 7.188309e-01
134 2 3 -3.514605e+00 9.098698e+00 -5.979264e+00 0 -1 0 3.408183e-01 -5.591595e-01 -7.532238e-01 -6.194666e-02
135 2 4 -3.805992e+00 8.173098e+00 -5.739572e+00 0 -1 0 6.524574e-01 -9.862513e-02 -7.382573e-01 1.398162e-01
136 2 3 -4.229624e+00 7.931614e+00 -5.487957e+00 0 -1 0 -6.041839e-01 3.467592e-01 6.164721e-01 -3.669904e-01
137 2 1 -4.588332e+00 7.977396e+00 -5.129423e+00 0 -1 0 -3.682690e-01 5.518844e-01 3.897674e-01 -6.386571e-01
138 2 3 -4.991849e+00 8.262480e+00 -4.946986e+00 0 -1 0 -2.899780e-02 6.790713e-01 -5.504147e-03 -7.334787e-01
139 2 2 -5.546292e+00 8.339284e+00 -5.113604e+00 0 -1 0 -1.815637e-02 -8.180181e-01 1.658321e-01 5.504693e-01
140 2 3 -5.827064e+00 7.394572e+00 -4.381949e+00 0 -1 0 -6.065399e-01 7.452414e-01 -1.916282e-01 2.000078e-01
141 2 1 -6.911284e+00 6.814230e+00 -4.481777e+00 0 -1 0 -8.374373e-01 2.421056e-01 8.380128e-02 4.827640e-01
142 2 2 -7.058124e+00 6.479699e+00 -4.384975e+00 0 -1 0 -6.547907e-01 4.694219e-01 5.859348e-01 -8.702108e-02
143 2 4 -7.439743e+00 6.545096e+00 -4.034675e+00 0 -1 0 -6.539874e-01 5.419362e-01 3.711772e-01 -3.752774e-01
144 2 4 -8.552943e+00 5.872411e+00 -4.163564e+00 0 -1 0 -5.889638e-01 7.351563e-02 7.648170e-01 2.505435e-01
145 2 1 -9.120923e+00 5.839468e+00 -4.116339e+00 0 -1 0 7.112890e-01 -2.739850e-01 -6.464131e-01 -3.391524e-02
146 2 1 -9.526013e+00 5.775772e+00 -3.963584e+00 0 -1 0 -6.225565e-01 5.702865e-01 4.297041e-01 -3.202360e-01
147 2 1 -1.068116e+01 5.942880e+00 -3.918598e+00 0 -1 0 1.143176e-01 -7.115033e-01 -6.663717e-01 -1.914243e-01
148 2 2 -1.122800e+01 5.232637e+00 -4.090946e+00 0 -1 0 5.971450e-01 -4.451702e-01 -2.840297e-01 -6.037951e-01
149 2 4 -1.102948e+01 4.806852e+00 -3.945247e+00 0 -1 0 9.955614e-01 8.963151e-02 2.483300e-02 1.438593e-02
150 2 1 -1.135277e+01 4.199139e+00 -3.051381e+00 0 -1 0 8.440121e-01 -1.481660e-01 -4.419762e-01 -2.652309e-01
151 2 1 -1.190303e+01 4.342575e+00 -2.830592e+00 0 -1 0 2.452144e-01 2.181568e-01 -4.175008e-01 -8.473314e-01
152 2 1 -1.157006e+01 4.761665e+00 -2.200791e+00 0 -1 0 -2.069098e-01 -6.144586e-01 7.551591e-01 -9.676604e-02
153 2 4 -1.238894e+01 5.536376e+00 -2.051855e+00 0 -1 0 3.847682e-01 2.019761e-01 -5.026985e-01 7.472973e-01
154 2 1 -1.340449e+01 5.104458e+00 -2.491449e+00 0 -1 0 -4.180738e-01 1.983669e-01 8.845357e-01 -5.883420e-02
155 2 2 -1.372495e+01 4.846604e+00 -2.647069e+00 0 -1 0 2.814033e-01 -5.450316e-01 -7.525647e-01 2.395814e-01
156 2 4 -1.409687e+01 4.918318e+00 -3.191777e+00 0 -1 0 -2.295195e-01 7.888391e-01 5.675923e-01 -5.378325e-02
157 2 3 -1.369741e+01 4.193576e+00 -3.859431e+00 0 -1 0 -3.543745e-01 -3.409294e-01 -3.812419e-01 7.828413e-01
158 2 2 -1.293025e+01 4.023188e+00 -4.079300e+00 0 -1 0 -7.698319e-01 1.996963e-01 -3.392947e-01 5.023539e-01
159 2 1 -1.279918e+01 4.382898e+00 -5.261438e+00 0 -1 0 5.752296e-01 6.848544e-01 4.457407e-01 -3.742365e-02
160 2 3 -1.266713e+01 4.059036e+00 -5.556262e+00 0 -1 0 5.584061e-01 7.759734e-01 1.575996e-01 2.474069e-01
161 2 1 -1.237529e+01 3.971611e+00 -5.880912e+00 0 -1 0 -3.792904e-01 -7.813297e-01 2.220579e-01 -4.431173e-01
162 2 1 -1.207425e+01 3.419906e+00 -6.874936e+00 0 -1 0 7.263901e-01 6.022152e-01 -2.474144e-01 -2.201826e-01
163 2 4 -1.217936e+01 3.052469e+00 -7.085508e+00 0 -1 0 7.506072e-01 2.975689e-01 -5.816106e-01 9.884667e-02
164 2 4 -1.137946e+01 3.642318e+00 -7.668991e+00 0 -1 0 7.822755e-01 1.432959e-01 1.064974e-01 5.967995e-01
165 2 3 -1.102115e+01 2.904319e+00 -8.315162e+00 0 -1 0 7.111869e-01 5.406872e-01 -1.674341e-01 -4.169369e-01
166 2 3 -1.129694e+01 2.451300e+00 -8.356612e+00 0 -1 0 8.716032e-01 4.283066e-01 -1.965131e-01 -1.350699e-01
167 2 4 -1.140592e+01 2.651189e+00 -7.293683e+00 0 -1 0 -5.431055e-02 -8.913570e-02 3.924486e-01 -9.138322e-01
168 2 2 -1.067997e+01 2.151230e+00 -7.922232e+00 0 -1 0 3.028861e-01 1.907271e-01 -5.737755e-01 -7.366579e-01
169 2 2 -1.069053e+01 1.752260e+00 -7.093704e+00 0 -1 0 -6.363181e-02 1.098785e-01 6.514407e-01 -7.479991e-01
170 2 1 -1.076302e+01 1.861074e+00 -6.561380e+00 0 -1 0 6.973246e-01 -1.334779e-01 -3.255550e-01 6.244486e-01
171 2 1 -1.082689e+01 1.828562e+00 -6.124969e+00 0 -1 0 -3.794046e-01 2.817356e-01 1.731551e-01 -8.641149e-01
172 2 4 -1.028980e+01 1.306210e+00 -5.876968e+00 0 -1 0 -4.313748e-01 7.903716e-01 4.184220e-01 -1.189605e-01
173 2 4 -9.774191e+00 3.586821e-01 -5.901073e+00 0 -1 0 6.571144e-01 -6.287916e-01 2.194506e-01 3.530767e-01
174 2 1 -9.962842e+00 1.551873e-01 -5.705723e+00 0 -1 0 1.209957e-01 1.657990e-01 -4.195856e-02 9.778089e-01
175 2 1 -9.905224e+00 2.992656e-01 -5.190308e+00 0 -1 0 1.418879e-01 -8.254935e-02 8.579864e-02 -9.826963e-01
176 2 2 -9.623015e+00 2.816005e-01 -5.085171e+00 0 -1 0 2.387425e-02 4.600620e-01 -4.956806e-01 -7.362566e-01
177 2 2 -8.969699e+00 2.237682e-01 -4.349877e+00 0 -1 0 9.708865e-02 1.888876e-01 -4.105898e-01 8.867420e-01
178 2 1 -8.878922e+00 8.172819e-02 -3.927043e+00 0 -1 0 3.244965e-01 -6.172230e-02 4.653016e-01 -8.212105e-01
179 2 4 -8.460035e+00 -2.144826e-01 -3.534065e+00 0 -1 0 -1.320610e-01 4.908411e-01 8.441098e-01 1.706269e-01
180 2 1 -7.406667e+00 -7.859857e-01 -3.407287e+00 0 -1 0 -7.856685e-01 6.329377e-03 -4.404590e-01 4.343742e-01
181 2 4 -7.416445e+00 -1.017231e+00 -2.479198e+00 0 -1 0 -1.163872e-01 1.412506e-01 8.757001e-01 -4.468238e-01
182 2 2 -6.645536e+00 -1.254991e+00 -1.990504e+00 0 -1 0 4.233676e-01 -8.215589e-01 -3.606901e-01 -1.253139e-01
183 2 3 -5.816791e+00 -1.281271e+00 -2.383218e+00 0 -1 0 5.286575e-01 -2.520052e-02 4.307085e-01 7.310105e-01
184 2 4 -5.498244e+00 -5.910236e-01 -1.994091e+00 0 -1 0 4.596874e-01 -1.166444e-01 4.776623e-01 7.395406e-01
185 2 3 -5.578982e+00 -3.144681e-01 -2.315074e+00 0 -1 0 5.391017e-02 -5.186592e-02 -3.867696e-01 -9.191370e-01
186 2 1 -5.835447e+00 1.426573e-01 -2.249500e+00 0 -1 0 -4.691499e-01 3.159887e-01 2.847075e-01 7.739451e-01
187 2 1 -5.354765e+00 1.623153e-01 -3.646755e+00 0 -1 0 -3.041014e-01 -3.201384e-01 5.365911e-01 7.190993e-01
188 2 2 -5.873225e+00 6.610581e-01 -3.405000e+00 0 -1 0 3.239755e-01 -1.018918e-01 -6.753175e-01 6.546787e-01
189 2 4 -6.684862e+00 5.139400e-01 -3.686905e+00 0 -1 0 -2.141618e-01 -3.414540e-01 -8.840545e-01 -2.366253e-01
190 2 4 -6.450052e+00 2.794622e-01 -3.081961e+00 0 -1 0 4.750898e-01 6.443751e-01 -2.179400e-01 -5.581869e-01
191 2 1 -6.438053e+00 7.161459e-01 -1.565329e+00 0 -1 0 4.529162e-01 -2.755794e-01 -8.029805e-01 2.722964e-01
192 2 4 -6.147527e+00 1.848482e+00 -1.713953e+00 0 -1 0 -2.033628e-01 9.511029e-01 1.953650e-01 1.260136e-01
193 2 4 -6.059351e+00 2.271676e+00 -2.029544e+00 0 -1 0 -2.848681e-01 9.286007e-01 -1.918856e-01 1.404668e-01
194 2 1 -5.794282e+00 2.559918e+00 -2.316170e+00 0 -1 0 3.407551e-01 -7.386567e-01 5.478784e-01 -1.951962e-01
195 2 3 -5.830439e+00 3.454309e+00 -2.144666e+00 0 -1 0 3.871796e-01 6.857955e-01 5.139764e-01 3.400070e-01
196 2 4 -4.692881e+00 2.967253e+00 -2.183075e+00 0 -1 0 -4.140173e-01 8.391129e-01 -3.507203e-01 3.839944e-02
197 2 2 -5.052990e+00 3.398857e+00 -2.799912e+00 0 -1 0 4.507843e-01 -1.958326e-01 -2.379559e-01 8.377470e-01
198 2 4 -4.403943e+00 3.803855e+00 -2.825787e+00 0 -1 0 -4.733706e-01 2.373005e-01 2.449326e-01 -8.121679e-01
199 2 3 -4.497346e+00 3.911083e+00 -2.438600e+00 0 -1 0 1.955455e-02 2.748526e-01 1.973374e-01 -9.408143e-01
200 2 4 -4.920041e+00 3.885201e+00 -2.076085e+00 0 -1 0 3.182508e-01 4.443019e-01 1.092770e-01 -8.302836e-01
