ITEM: TIMESTEP
395000000
ITEM: NUMBER OF ATOMS
200
ITEM: BOX BOUNDS pp pp pp
-2.0000000000000000e+01 2.0000000000000000e+01
-2.0000000000000000e+01 2.0000000000000000e+01
-2.0000000000000000e+01 2.0000000000000000e+01
ITEM: ATOMS id mol type x y z ix iy iz c_quat[1] c_quat[2] c_quat[3] c_quat[4]
1 1 1 2.484042e-01 4.237751e+00 2.153121e+00 -1 0 0 -8.868385e-02 1.561242e-01 4.038501e-01 -8.970315e-01
2 1 2 1.524340e-02 3.999428e+00 2.514019e+00 -1 0 0 1.277551e-01 -2.831736e-01 -2.554804e-01 9.155442e-01
3 1 1 -3.162779e-01 4.192641e+00 2.886722e+00 -1 0 0 2.471103e-01 3.651998e-01 1.132415e-01 -8.903606e-01
4 1 3 -7.193460e-01 4.163520e+00 3.155384e+00 -1 0 0 6.313997e-01 2.798977e-01 -7.208287e-02 -7.195803e-01
5 1 1 -1.356972e-01 5.403520e+00 3.717981e+00 -1 0 0 4.765254e-01 -7.861881e-01 -7.546931e-02 3.861816e-01
6 1 2 -1.311465e-01 5.447166e+00 3.645069e+00 -1 0 0 -2.329732e-01 6.469804e-01 7.439008e-02 7.222229e-01
7 1 4 -3.222109e-02 5.341423e+00 2.427340e+00 -1 0 0 4.639184e-01 -2.596352e-01 8.392971e-01 1.137962e-01
8 1 1 3.276953e-01 5.255899e+00 2.109525e+00 -1 0 0 3.886922e-01 1.117836e-01 8.415667e-01 3.580338e-01
9 1 1 1.312044e+00 5.546323e+00 3.195284e+00 -1 0 0 -7.310940e-02 6.708627e-01 -3.337893e-01 6.581664e-01
10 1 4 2.425357e+00 5.740531e+00 2.604185e+00 -1 0 0 -7.549095e-01 5.185258e-01 -2.791422e-01 -2.886559e-01
11 1 1 2.547753e+00 6.566742e+00 1.945941e+00 -1 0 0 1.787614e-02 9.306672e-01 -2.784187e-01 -2.366896e-01
12 1 1 2.712248e+00 6.688355e+00 1.394993e+00 -1 0 0 -4.445988e-02 -7.910716e-01 5.742568e-01 2.060539e-01
13 1 3 2.906325e+00 6.720538e+00 9.551987e-01 -1 0 0 4.048208e-02 4.004298e-01 -8.762375e-01 -2.649999e-01
14 1 4 3.382218e+00 7.452557e+00 6.348655e-01 -1 0 0 -6.036691e-01 -2.709510e-01 1.974007e-01 -7.233271e-01
15 1 4 3.532572e+00 7.273489e+00 -6.491402e-01 -1 0 0 -8.154623e-01 -3.591523e-01 -4.316174e-01 -1.404896e-01
16 1 2 3.623677e+00 6.916927e+00 -4.526420e-01 -1 0 0 3.160155e-01 -4.530806e-02 -9.300207e-01 -1.820521e-01
17 1 1 4.401639e+00 7.998930e+00 -3.201059e-02 -1 0 0 4.209591e-01 -7.825428e-01 1.215560e-02 -4.585547e-01
18 1 2 4.931524e+00 7.129545e+00 -9.832717e-01 -1 0 0 -9.138018e-01 -1.004874e-01 -2.226241e-01 3.245105e-01
19 1 3 5.185148e+00 8.007191e+00 -1.798951e+00 -1 0 0 -3.874876e-01 -7.220010e-01 2.482549e-01 5.166599e-01
20 1 1 4.849950e+00 7.809385e+00 -2.034618e+00 -1 0 0 7.069098e-01 3.978158e-01 -5.488848e-01 -2.018579e-01
21 1 4 4.899424e+00 9.054186e+00 -2.559136e+00 -1 0 0 1.929512e-01 5.341978e-01 -1.782641e-01 -8.035076e-01
22 1 1 4.637497e+00 9.605311e+00 -2.916822e+00 -1 0 0 3.634794e-01 2.020850e-01 8.028867e-01 4.271035e-01
23 1 4 4.960988e+00 9.697022e+00 -3.277386e+00 -1 0 0 2.738866e-01 4.680277e-01 5.514846e-01 6.338777e-01
24 1 3 5.348534e+00 9.963891e+00 -3.623521e+00 -1 0 0 -9.103041e-02 -6.325408e-01 -2.886742e-01 -7.129326e-01
25 1 3 5.767787e+00 1.034193e+01 -3.660439e+00 -1 0 0 1.961022e-01 -6.819295e-01 1.276618e-01 -6.929780e-01
26 1 4 6.085685e+00 1.056686e+01 -3.485085e+00 -1 0 0 -4.201782e-01 6.529434e-01 -4.193692e-01 4.703665e-01
27 1 4 6.523934e+00 1.056432e+01 -3.319515e+00 -1 0 0 6.015576e-01 -4.133005e-01 6.407084e-01 -2.383356e-01
28 1 1 6.995116e+00 1.055319e+01 -3.173511e+00 -1 0 0 -6.564388e-01 1.357659e-01 -7.418080e-01 -1.940546e-02
29 1 1 6.880478e+00 1.140426e+01 -3.100307e+00 -1 0 0 -2.936665e-01 -1.250917e-01 -9.432294e-01 -9.181699e-02
30 1 4 7.538633e+00 1.219375e+01 -2.280066e+00 -1 0 0 -8.787104e-02 2.749641e-01 -2.093958e-01 9.342520e-01
31 1 4 8.706050e+00 1.240810e+01 -3.306011e+00 -1 0 0 8.888020e-01 1.069172e-01 1.523045e-01 4.188116e-01
32 1 3 9.076116e+00 1.228240e+01 -2.978445e+00 -1 0 0 7.018616e-01 1.820500e-01 2.447245e-01 6.437065e-01
33 1 3 9.397464e+00 1.199624e+01 -2.592716e+00 -1 0 0 1.887778e-01 3.122695e-01 -6.474944e-01 6.690304e-01
34 1 1 9.542968e+00 1.162480e+01 -2.406512e+00 -1 0 0 -2.174502e-01 -3.618458e-02 -8.109975e-01 5.419309e-01
35 1 2 9.625003e+00 1.107828e+01 -2.464186e+00 -1 0 0 -3.231107e-01 -3.757775e-01 -8.002425e-01 3.376429e-01
36 1 2 9.571183e+00 1.071853e+01 -2.759708e+00 -1 0 0 -4.453752e-01 -6.478558e-01 -6.040036e-01 1.307801e-01
37 1 1 1.007351e+01 9.528598e+00 -1.785917e+00 -1 0 0 3.532372e-01 -5.003388e-01 7.766273e-01 -1.474268e-01
38 1 1 1.051020e+01 9.345020e+00 -1.876833e+00 -1 0 0 3.710640e-01 -1.283738e-01 9.168399e-01 -7.236249e-02
39 1 4 1.073039e+01 8.954575e+00 -2.049316e+00 -1 0 0 -4.944255e-01 -2.680490e-01 -8.220193e-01 -8.931588e-02
40 1 4 1.074785e+01 8.737907e+00 -1.930070e+00 -1 0 0 3.123214e-01 3.389493e-01 -7.425478e-01 4.859954e-01
41 1 2 1.080618e+01 8.229172e+00 -1.789937e+00 -1 0 0 -1.419077e-01 2.235007e-02 8.049666e-01 -5.756661e-01
42 1 4 1.022160e+01 7.540837e+00 -1.793072e+00 -1 0 0 -3.827873e-01 9.258326e-02 -7.646164e-01 5.101608e-01
43 1 3 1.041900e+01 7.116701e+00 -1.733691e+00 -1 0 0 4.424997e-01 1.708964e-01 7.892245e-01 -3.900169e-01
44 1 2 1.152929e+01 6.834500e+00 -1.888152e+00 -1 0 0 -7.585366e-01 -5.791465e-01 -4.524433e-02 -2.952365e-01
45 1 1 1.188662e+01 6.463485e+00 -1.935165e+00 -1 0 0 -5.721735e-01 -5.690654e-01 1.243402e-01 -5.773401e-01
46 1 3 1.227650e+01 6.207107e+00 -1.677865e+00 -1 0 0 -3.844337e-01 -4.114411e-01 2.172003e-01 -7.973399e-01
47 1 4 1.249597e+01 5.150105e+00 -1.653889e+00 -1 0 0 5.282831e-01 -1.639500e-01 8.244149e-01 -1.199057e-01
48 1 1 1.214773e+01 5.155132e+00 -1.253153e+00 -1 0 0 4.007851e-01 6.314003e-01 -6.490454e-01 1.394453e-01
49 1 4 1.074918e+01 5.147335e+00 -1.229154e+00 -1 0 0 3.484029e-01 -4.879619e-01 -3.060961e-01 -7.394686e-01
50 1 4 1.040705e+01 4.443952e+00 -2.041468e+00 -1 0 0 4.738323e-01 5.090144e-01 6.987729e-01 -1.676416e-01
51 1 4 1.052864e+01 4.201730e+00 -2.464745e+00 -1 0 0 4.788469e-01 7.259389e-01 4.778696e-01 1.239313e-01
52 1 1 1.087956e+01 3.955327e+00 -1.993123e+00 -1 0 0 -1.653649e-01 -3.527297e-01 -7.869640e-01 4.784599e-01
53 1 3 1.175304e+01 3.692677e+00 -2.112392e+00 -1 0 0 1.219760e-01 9.570745e-01 2.132778e-01 -1.537623e-01
54 1 4 1.109992e+01 2.887830e+00 -1.832321e+00 -1 0 0 2.333718e-01 -6.086639e-01 1.889842e-01 -7.344051e-01
55 1 4 1.046236e+01 2.836726e+00 -3.235829e+00 -1 0 0 3.947941e-01 1.521800e-01 -3.527033e-01 -8.346132e-01
56 1 4 1.104741e+01 2.461570e+00 -2.995628e+00 -1 0 0 4.220597e-01 -3.820163e-01 -5.725354e-02 -8.201531e-01
57 1 1 1.133933e+01 3.196131e+00 -4.132568e+00 -1 0 0 -5.621946e-01 -4.704886e-01 -5.398880e-01 -4.136406e-01
58 1 1 1.165906e+01 3.148572e+00 -4.463936e+00 -1 0 0 3.246645e-01 6.808331e-01 2.499121e-01 6.071271e-01
59 1 3 1.211639e+01 3.295274e+00 -4.603229e+00 -1 0 0 -1.057151e-01 -7.207843e-01 -3.918901e-02 -6.839287e-01
60 1 4 1.269509e+01 2.475276e+00 -4.668963e+00 -1 0 0 6.449745e-01 3.789349e-01 -3.339803e-01 5.734748e-01
61 1 2 1.297976e+01 2.113345e+00 -4.380614e+00 -1 0 0 -3.733871e-01 -2.139231e-01 3.634213e-01 -8.262832e-01
62 1 3 1.257780e+01 1.529833e+00 -4.783630e+00 -1 0 0 2.751647e-01 -6.987764e-01 -6.534024e-01 9.519045e-02
63 1 2 1.213586e+01 3.719475e-01 -4.882854e+00 -1 0 0 5.715862e-02 2.872776e-02 9.478429e-01 -3.122523e-01
64 1 4 1.327382e+01 5.220967e-01 -5.930790e+00 -1 0 0 -9.402898e-01 -4.204982e-02 -1.627888e-01 -2.959504e-01
65 1 2 1.377976e+01 5.087689e-01 -5.807919e+00 -1 0 0 6.752910e-01 1.926708e-01 1.015217e-01 7.046655e-01
66 1 1 1.357947e+01 2.903391e-01 -6.363288e+00 -1 0 0 6.603378e-02 -4.302049e-01 -5.460555e-01 7.158119e-01
67 1 2 1.423309e+01 -9.858978e-01 -5.950356e+00 -1 0 0 8.827224e-01 2.929313e-01 -3.497827e-01 -1.124477e-01
68 1 1 1.423002e+01 -1.423289e+00 -5.565355e+00 -1 0 0 8.482376e-01 -3.480404e-02 -3.666422e-01 3.805983e-01
69 1 1 1.305260e+01 -1.688037e+00 -6.565774e+00 -1 0 0 9.765527e-02 -3.321308e-01 -9.343289e-01 -8.474707e-02
70 1 2 1.344559e+01 -1.618340e+00 -7.529239e+00 -1 0 0 6.036582e-01 2.790036e-01 3.370094e-01 -6.664671e-01
71 1 3 1.351094e+01 -7.318111e-01 -7.686810e+00 -1 0 0 -2.825963e-01 -2.975508e-02 -3.278989e-01 9.009641e-01
72 1 4 1.402977e+01 -1.573745e-01 -8.504954e+00 -1 0 0 4.216679e-01 7.673792e-01 -2.395190e-01 -4.194711e-01
73 1 1 1.371522e+01 -3.111163e-01 -8.887055e+00 -1 0 0 4.959912e-01 6.424992e-01 -5.721514e-01 -1.176019e-01
74 1 1 1.308550e+01 2.370875e-01 -9.955934e+00 -1 0 0 -4.161031e-02 3.163383e-01 -3.932640e-01 -8.622889e-01
75 1 3 1.245720e+01 3.208426e-01 -1.047564e+01 -1 0 0 -6.004846e-02 1.446412e-01 -4.759905e-01 -8.653936e-01
76 1 1 1.226484e+01 7.808175e-01 -1.044048e+01 -1 0 0 -2.588121e-01 -8.241036e-02 4.743539e-01 8.373848e-01
77 1 4 1.245789e+01 1.099694e+00 -1.044928e+01 -1 0 0 -5.064727e-01 -1.899318e-01 7.456568e-01 3.891109e-01
78 1 1 1.333195e+01 2.117916e+00 -1.110701e+01 -1 0 0 5.428434e-01 -4.318174e-01 4.786886e-01 5.382490e-01
79 1 4 1.355819e+01 2.543241e+00 -1.120486e+01 -1 0 0 1.396452e-01 -1.917123e-01 5.622378e-01 7.922337e-01
80 1 2 1.332632e+01 1.604300e+00 -1.120772e+01 -1 0 0 -3.478380e-01 -3.825040e-01 -6.798568e-01 5.200905e-01
81 1 4 1.455024e+01 2.022483e+00 -1.104672e+01 -1 0 0 4.506721e-01 2.434322e-02 -1.859078e-01 8.727774e-01
82 1 4 1.509255e+01 1.263656e+00 -1.144557e+01 -1 0 0 5.496025e-01 5.848607e-01 1.328733e-01 5.815666e-01
83 1 4 1.548761e+01 1.346061e+00 -1.148325e+01 -1 0 0 -1.993520e-01 -6.382394e-01 3.127993e-01 -6.745857e-01
84 1 4 1.441657e+01 1.767171e+00 -1.175177e+01 -1 0 0 1.215805e-01 -2.974629e-01 -9.245948e-01 -2.045934e-01
85 1 1 1.502963e+01 2.202444e+00 -1.229215e+01 -1 0 0 4.665623e-01 3.480043e-01 5.502633e-01 -5.986843e-01
86 1 1 1.534514e+01 2.897078e+00 -1.155112e+01 -1 0 0 6.473274e-02 3.106085e-01 4.326299e-01 8.438978e-01
87 1 3 1.548972e+01 3.408777e+00 -1.138192e+01 -1 0 0 1.923502e-01 -2.802091e-01 -3.403259e-01 -8.767340e-01
88 1 2 1.536332e+01 3.774346e+00 -1.107028e+01 -1 0 0 -5.083533e-01 2.803453e-01 3.456124e-01 7.372486e-01
89 1 2 1.509458e+01 4.113763e+00 -1.080059e+01 -1 0 0 -7.935548e-01 3.764710e-01 1.685712e-01 4.473523e-01
90 1 3 1.544241e+01 4.507409e+00 -1.066061e+01 -1 0 0 8.845910e-01 -2.027116e-01 2.577783e-01 -3.315979e-01
91 1 3 1.550244e+01 5.684047e+00 -1.032353e+01 -1 0 0 -1.125435e-01 2.183791e-02 -2.788279e-01 9.534737e-01
92 1 2 1.532017e+01 5.679991e+00 -9.866171e+00 -1 0 0 -5.895874e-01 -1.435863e-01 -1.823861e-01 7.736310e-01
93 1 1 1.510312e+01 5.944356e+00 -9.448241e+00 -1 0 0 4.089686e-01 2.382580e-01 -7.636318e-01 4.391404e-01
94 1 2 1.491918e+01 7.114108e+00 -1.015110e+01 -1 0 0 3.162665e-01 6.904794e-01 5.961352e-01 -2.604545e-01
95 1 3 1.463168e+01 6.958475e+00 -1.055492e+01 -1 0 0 -3.484540e-01 -9.182894e-01 -1.551426e-01 1.060905e-01
96 1 2 1.454038e+01 6.826726e+00 -1.102161e+01 -1 0 0 4.808731e-01 8.627660e-01 -1.528185e-01 3.228636e-02
97 1 2 1.378480e+01 7.699846e+00 -1.075906e+01 -1 0 0 -1.452432e-01 -6.560816e-01 -7.385458e-01 5.487697e-02
98 1 4 1.399352e+01 7.780890e+00 -1.099657e+01 -1 0 0 2.348516e-01 -4.995997e-01 -8.305292e-01 7.393366e-02
99 1 2 1.358810e+01 7.746101e+00 -1.120493e+01 -1 0 0 7.528440e-02 -8.261507e-01 -5.305899e-01 1.740162e-01
100 1 1 1.279142e+01 7.206874e+00 -1.101155e+01 -1 0 0 8.660114e-02 2.393311e-01 7.429467e-01 6.190727e-01
101 2 4 4.364789e+00 -1.629562e+01 1.370228e+01 0 -1 -1 -9.449624e-01 1.121239e-01 8.020996e-04 3.073657e-01
102 2 3 5.190199e+00 -1.606665e+01 1.401548e+01 0 -1 -1 -3.543737e-01 9.125070e-01 -1.226811e-01 -1.634001e-01
103 2 1 5.303609e+00 -1.562322e+01 1.377059e+01 0 -1 -1 2.427591e-01 -7.835179e-01 4.959791e-01 2.849077e-01
104 2 3 5.515851e+00 -1.526901e+01 1.353077e+01 0 -1 -1 -1.566618e-01 5.315193e-01 -7.367316e-01 -3.875189e-01
105 2 3 5.852033e+00 -1.411744e+01 1.448499e+01 0 -1 -1 -1.019431e-01 -7.942232e-01 2.967935e-01 -5.203178e-01
106 2 2 5.601583e+00 -1.347171e+01 1.418266e+01 0 -1 -1 -8.228711e-01 3.997168e-01 -6.398826e-02 -3.987671e-01
107 2 3 5.661704e+00 -1.327241e+01 1.457078e+01 0 -1 -1 -4.931143e-01 3.840690e-01 -2.137552e-01 -7.507583e-01
108 2 4 5.699421e+00 -1.270701e+01 1.470170e+01 0 -1 -1 -1.537045e-01 3.779469e-01 -3.594682e-01 -8.392340e-01
109 2 3 5.316030e+00 -1.230128e+01 1.487126e+01 0 -1 -1 3.761769e-01 3.424059e-01 -4.435152e-01 -7.379318e-01
110 2 2 5.026950e+00 -1.196410e+01 1.492627e+01 0 -1 -1 -3.830714e-02 4.105204e-01 -8.677021e-01 -2.776663e-01
111 2 2 4.894214e+00 -1.106972e+01 1.550715e+01 0 -1 -1 7.161802e-01 -4.111430e-01 2.918251e-01 -4.825821e-01
112 2 3 5.291269e+00 -1.120126e+01 1.584979e+01 0 -1 -1 -8.464753e-01 2.305958e-01 -4.661478e-01 1.140676e-01
113 2 3 5.692213e+00 -1.141435e+01 1.605273e+01 0 -1 -1 8.468296e-01 3.919308e-02 4.546594e-01 2.731821e-01
114 2 2 6.331794e+00 -1.210897e+01 1.625792e+01 0 -1 -1 -9.966668e-01 -9.415579e-03 6.909875e-02 -4.233239e-02
115 2 4 6.455000e+00 -1.230155e+01 1.666486e+01 0 -1 -1 -8.516512e-01 9.297965e-03 5.210486e-02 -5.214296e-01
116 2 4 6.588676e+00 -1.230935e+01 1.718218e+01 0 -1 -1 -6.801736e-01 5.375922e-02 -9.898598e-03 -7.310102e-01
117 2 1 6.295198e+00 -1.293888e+01 1.797894e+01 0 -1 -1 5.944825e-01 -6.953052e-01 4.038569e-01 6.389461e-03
118 2 1 6.025147e+00 -1.345273e+01 1.776956e+01 0 -1 -1 -4.032761e-01 -2.470551e-01 -8.651441e-01 1.669066e-01
119 2 1 5.310108e+00 -1.376008e+01 1.783254e+01 0 -1 -1 3.831278e-01 6.437344e-02 5.547496e-01 -7.357459e-01
120 2 1 5.211087e+00 -1.429268e+01 1.810589e+01 0 -1 -1 6.911911e-01 2.451182e-01 3.735205e-01 -5.680267e-01
121 2 3 5.101466e+00 -1.511523e+01 1.855531e+01 0 -1 -1 -6.312730e-01 2.164594e-01 -6.965295e-01 2.636026e-01
122 2 1 5.612109e+00 -1.543603e+01 1.849224e+01 0 -1 -1 4.905464e-01 1.863118e-02 8.675316e-01 8.003697e-02
123 2 4 5.956691e+00 -1.564475e+01 1.819973e+01 0 -1 -1 3.944998e-01 3.746872e-01 7.759693e-01 3.191410e-01
124 2 1 6.283021e+00 -1.575119e+01 1.780267e+01 0 -1 -1 -2.596573e-01 -5.760491e-01 -6.536448e-01 -4.165262e-01
125 2 4 7.377815e+00 -1.585518e+01 1.855317e+01 0 -1 -1 -6.598020e-01 -4.658316e-01 -2.485198e-02 -5.891049e-01
126 2 2 7.307761e+00 -1.716754e+01 1.941014e+01 0 -1 -1 3.280136e-01 -6.245648e-01 4.933095e-01 -5.088925e-01
127 2 4 7.862723e+00 -1.732194e+01 1.946738e+01 0 -1 -1 -3.530783e-01 3.517481e-01 -7.256112e-01 4.744442e-01
128 2 4 8.846233e+00 -1.647737e+01 1.868550e+01 0 -1 -1 8.564448e-01 3.945885e-01 2.893086e-01 1.646292e-01
129 2 1 8.445058e+00 -1.587870e+01 1.920051e+01 0 -1 -1 -1.513076e-01 -9.374242e-01 2.932106e-01 -1.112179e-01
130 2 2 8.158272e+00 -1.618381e+01 -1.961582e+01 0 -1 0 7.863559e-01 -1.943382e-01 -5.858453e-01 -2.573722e-02
131 2 3 8.529554e+00 -1.664616e+01 -1.979566e+01 0 -1 0 4.397139e-01 -5.621627e-01 5.883235e-01 3.801319e-01
132 2 4 8.044861e+00 -1.696915e+01 -1.851009e+01 0 -1 0 6.690040e-01 -3.067223e-01 3.944093e-01 -5.502693e-01
133 2 4 8.314907e+00 -1.720467e+01 -1.816705e+01 0 -1 0 8.621923e-01 3.599927e-02 4.220410e-01 -2.778665e-01
134 2 3 7.426335e+00 -1.690710e+01 -1.744535e+01 0 -1 0 2.821262e-01 -6.341908e-01 -6.879890e-01 2.118441e-01
135 2 4 8.245201e+00 -1.760611e+01 -1.797366e+01 0 -1 0 -2.688472e-01 -2.832025e-01 5.416002e-01 7.444372e-01
136 2 3 8.948388e+00 -1.679012e+01 -1.688573e+01 0 -1 0 -4.666078e-01 7.352581e-01 -8.403660e-02 4.843662e-01
137 2 1 9.262073e+00 -1.640738e+01 -1.677889e+01 0 -1 0 -6.217977e-01 5.708303e-01 -4.279586e-01 3.230662e-01
138 2 3 9.408283e+00 -1.516321e+01 -1.679156e+01 0 -1 0 -1.297828e-01 -6.337631e-01 3.787726e-01 -6.618400e-01
139 2 2 9.968116e+00 -1.453341e+01 -1.679333e+01 0 -1 0 -5.380019e-01 4.105362e-01 3.655878e-01 -6.390301e-01
140 2 3 9.825466e+00 -1.498841e+01 -1.792420e+01 0 -1 0 2.220431e-01 2.497109e-01 5.904040e-01 7.346867e-01
141 2 1 1.087589e+01 -1.539613e+01 -1.738656e+01 0 -1 0 6.017061e-01 -1.680448e-01 -3.939780e-02 7.798452e-01
142 2 2 1.097921e+01 -1.513507e+01 -1.695975e+01 0 -1 0 2.964806e-01 -1.555933e-01 1.106978e-01 9.357542e-01
143 2 4 1.056496e+01 -1.522321e+01 -1.653021e+01 0 -1 0 1.755848e-01 3.252970e-01 -3.261692e-01 -8.700377e-01
144 2 4 1.080078e+01 -1.454189e+01 -1.619928e+01 0 -1 0 2.257882e-01 -5.934962e-01 3.872872e-01 6.684240e-01
145 2 1 1.134531e+01 -1.447906e+01 -1.473731e+01 0 -1 0 -6.340803e-01 -2.844526e-01 4.103398e-01 -5.904661e-01
146 2 1 1.125358e+01 -1.374144e+01 -1.511545e+01 0 -1 0 -8.892126e-02 5.126875e-01 4.594590e-01 7.198208e-01
147 2 1 1.184470e+01 -1.442079e+01 -1.609550e+01 0 -1 0 -7.915665e-01 -3.179257e-01 1.975369e-01 4.830371e-01
148 2 2 1.271613e+01 -1.349539e+01 -1.506756e+01 0 -1 0 -4.043537e-01 9.050469e-01 5.158014e-02 1.213576e-01
149 2 4 1.196804e+01 -1.285128e+01 -1.480237e+01 0 -1 0 3.362837e-01 -4.751367e-01 -1.277494e-01 -8.030184e-01
150 2 1 1.206676e+01 -1.249389e+01 -1.457173e+01 0 -1 0 -6.204066e-01 6.718816e-01 -1.933339e-01 3.553768e-01
151 2 1 1.160867e+01 -1.216131e+01 -1.588974e+01 0 -1 0 4.427113e-02 -5.693001e-01 6.072475e-01 5.524382e-01
152 2 1 1.191093e+01 -1.260107e+01 -1.570739e+01 0 -1 0 8.738673e-01 -1.275858e-01 -3.200698e-01 3.429769e-01
153 2 4 1.125466e+01 -1.231636e+01 -1.590846e+01 0 -1 0 8.471728e-01 -3.001333e-01 -3.241211e-02 -4.372273e-01
154 2 1 1.194936e+01 -1.179920e+01 -1.616973e+01 0 -1 0 5.576674e-01 -3.520611e-01 7.509442e-01 3.380717e-02
155 2 2 1.238897e+01 -1.186870e+01 -1.619601e+01 0 -1 0 -6.246215e-01 -2.640258e-02 -7.415147e-01 -2.435297e-01
156 2 4 1.315004e+01 -1.085519e+01 -1.583479e+01 0 -1 0 -6.767735e-01 4.274068e-01 -8.037425e-03 -5.993633e-01
157 2 3 1.321547e+01 -1.058892e+01 -1.553894e+01 0 -1 0 3.643165e-01 -2.550102e-01 1.426269e-01 8.842516e-01
158 2 2 1.415503e+01 -1.049206e+01 -1.549437e+01 0 -1 0 -4.357337e-01 5.040092e-01 3.297666e-02 -7.449990e-01
159 2 1 1.422256e+01 -1.081622e+01 -1.590779e+01 0 -1 0 -8.621336e-01 -1.301081e-01 -1.041477e-01 4.784881e-01
160 2 3 1.504592e+01 -9.933917e+00 -1.497022e+01 0 -1 0 -7.046640e-01 5.248059e-01 4.679459e-01 -9.515291e-02
161 2 1 1.514787e+01 -8.867929e+00 -1.544745e+01 0 -1 0 3.383931e-01 6.896984e-01 4.176152e-01 4.851843e-01
162 2 1 1.552841e+01 -8.630476e+00 -1.572904e+01 0 -1 0 1.334818e-01 8.153877e-01 1.544427e-01 5.417314e-01
163 2 4 1.604904e+01 -8.328433e+00 -1.562304e+01 0 -1 0 -1.214472e-01 7.267626e-01 -2.358068e-01 6.336101e-01
164 2 4 1.636827e+01 -8.430536e+00 -1.570770e+01 0 -1 0 1.835590e-01 -1.973520e-01 4.368250e-01 -8.582204e-01
165 2 3 1.640297e+01 -8.461784e+00 -1.526319e+01 0 -1 0 -5.635797e-01 8.931087e-02 -4.504867e-01 6.866318e-01
166 2 3 1.667513e+01 -8.707736e+00 -1.486271e+01 0 -1 0 -5.738224e-01 -1.392150e-02 -6.271064e-01 5.265659e-01
167 2 4 1.727869e+01 -9.151329e+00 -1.411536e+01 0 -1 0 -2.739293e-02 -3.717420e-01 7.091739e-01 -5.984395e-01
168 2 2 1.704854e+01 -9.345927e+00 -1.412568e+01 0 -1 0 -5.261452e-01 -4.344720e-01 3.928821e-02 7.299738e-01
169 2 2 1.819019e+01 -9.250677e+00 -1.322054e+01 0 -1 0 -9.069835e-01 -2.914663e-01 3.026952e-01 2.835274e-02
170 2 1 1.866642e+01 -8.346212e+00 -1.290416e+01 0 -1 0 6.085758e-01 -7.375338e-01 -2.918101e-01 -2.293830e-02
171 2 1 1.886358e+01 -8.924756e+00 -1.219833e+01 0 -1 0 7.940367e-01 -3.676529e-01 -4.203265e-01 -2.401308e-01
172 2 4 1.845298e+01 -8.980650e+00 -1.181831e+01 0 -1 0 -8.650985e-01 3.664631e-01 3.419053e-01 -2.025294e-02
173 2 4 1.831931e+01 -8.550401e+00 -1.135900e+01 0 -1 0 -8.638291e-01 4.972935e-01 7.447949e-02 -3.084305e-02
174 2 1 1.720556e+01 -8.954037e+00 -1.160673e+01 0 -1 0 7.059391e-01 1.700180e-01 6.053998e-01 -3.259370e-01
175 2 1 1.741310e+01 -9.465468e+00 -1.153692e+01 0 -1 0 -7.453067e-01 -3.658741e-01 -5.573475e-01 4.224319e-03
176 2 2 1.771481e+01 -9.701423e+00 -1.179533e+01 0 -1 0 6.606633e-01 6.299426e-01 2.537675e-01 3.198413e-01
177 2 2 1.805344e+01 -9.646071e+00 -1.174245e+01 0 -1 0 -3.040892e-02 8.623058e-01 2.646275e-01 4.306697e-01
178 2 1 1.801570e+01 -1.085407e+01 -1.099764e+01 0 -1 0 -3.905366e-01 6.473732e-01 -5.027674e-01 4.190633e-01
179 2 4 1.722083e+01 -1.104449e+01 -1.131183e+01 0 -1 0 5.542267e-01 3.897466e-01 -7.251710e-01 -1.227087e-01
180 2 1 1.699908e+01 -1.142271e+01 -1.152200e+01 0 -1 0 -5.613274e-01 -6.074944e-02 7.995976e-01 -2.046087e-01
181 2 4 1.663855e+01 -1.169905e+01 -1.142768e+01 0 -1 0 4.378547e-01 -3.248203e-01 -6.961658e-01 4.670420e-01
182 2 2 1.713614e+01 -1.209967e+01 -1.120332e+01 0 -1 0 -2.090128e-01 -3.700379e-01 1.183575e-01 -8.974281e-01
183 2 3 1.711650e+01 -1.289693e+01 -1.195927e+01 0 -1 0 -1.388426e-01 2.079272e-01 5.365759e-01 8.059624e-01
184 2 4 1.703642e+01 -1.375688e+01 -1.173452e+01 0 -1 0 7.306608e-01 3.107831e-01 2.635720e-01 -5.477941e-01
185 2 3 1.684602e+01 -1.412537e+01 -1.155258e+01 0 -1 0 -8.615916e-01 -4.458532e-01 -2.918440e-02 2.408797e-01
186 2 1 1.688176e+01 -1.460914e+01 -1.152923e+01 0 -1 0 -8.500487e-01 -4.575576e-01 2.277490e-01 -1.272350e-01
187 2 1 1.635596e+01 -1.514190e+01 -1.154106e+01 0 -1 0 -6.778815e-01 5.540513e-01 -3.811238e-01 -2.970664e-01
188 2 2 1.601212e+01 -1.575978e+01 -1.057495e+01 0 -1 0 4.784951e-01 -2.916392e-01 7.648850e-01 -3.177105e-01
189 2 4 1.665054e+01 -1.633758e+01 -1.044164e+01 0 -1 0 -2.688867e-01 -7.065148e-01 6.129931e-01 -2.297307e-01
190 2 4 1.653851e+01 -1.621331e+01 -1.097299e+01 0 -1 0 -2.490111e-01 -1.626437e-01 -5.550238e-01 7.768456e-01
191 2 1 1.691811e+01 -1.644101e+01 -1.175141e+01 0 -1 0 3.554819e-01 2.124024e-01 3.642446e-01 -8.341724e-01
192 2 4 1.651169e+01 -1.630422e+01 -1.193967e+01 0 -1 0 -3.676934e-01 -7.583808e-01 -5.140290e-01 -1.594811e-01
193 2 4 1.711123e+01 -1.649403e+01 -1.288593e+01 0 -1 0 1.959908e-01 7.139879e-01 -2.615288e-01 -6.192024e-01
194 2 1 1.675713e+01 -1.639314e+01 -1.306913e+01 0 -1 0 4.776434e-01 5.208758e-01 -4.718810e-01 -5.271371e-01
195 2 3 1.628441e+01 -1.637358e+01 -1.323796e+01 0 -1 0 5.888083e-01 4.808663e-01 -5.443879e-01 -3.545620e-01
196 2 4 1.582111e+01 -1.664272e+01 -1.340627e+01 0 -1 0 -7.484815e-01 -3.432264e-01 5.621041e-01 7.752512e-02
197 2 2 1.537685e+01 -1.677099e+01 -1.362254e+01 0 -1 0 -8.416481e-01 -4.960731e-01 1.869638e-01 -1.028813e-01
198 2 4 1.464907e+01 -1.656410e+01 -1.296085e+01 0 -1 0 1.296629e-01 1.330400e-01 8.949479e-01 4.056553e-01
199 2 3 1.399123e+01 -1.593466e+01 -1.259363e+01 0 -1 0 -4.355018e-03 3.622248e-01 9.204832e-01 1.465770e-01
200 2 4 1.412674e+01 -1.605379e+01 -1.244107e+01 0 -1 0 8.287533e-01 1.781139e-01 5.256786e-01 7.145159e-02
