ITEM: TIMESTEP
371000000
ITEM: NUMBER OF ATOMS
200
ITEM: BOX BOUNDS pp pp pp
-2.0000000000000000e+01 2.0000000000000000e+01
-2.0000000000000000e+01 2.0000000000000000e+01
-2.0000000000000000e+01 2.0000000000000000e+01
ITEM: ATOMS id mol type x y z ix iy iz c_quat[1] c_quat[2] c_quat[3] c_quat[4]
1 1 1 -1.966289e+01 1.262564e+01 1.184113e+01 0 0 0 -3.168283e-03 3.092971e-01 -6.404126e-01 7.029914e-01
2 1 2 -1.924468e+01 1.329808e+01 1.236336e+01 0 0 0 3.222408e-01 -7.965976e-01 5.303712e-02 -5.087045e-01
3 1 1 -1.913580e+01 1.371315e+01 1.220090e+01 0 0 0 -6.875018e-01 -4.511773e-01 -5.162953e-01 -2.392060e-01
4 1 3 -1.911613e+01 1.379389e+01 1.161129e+01 0 0 0 3.106433e-02 -2.204350e-01 7.514372e-01 6.211164e-01
5 1 1 -1.918852e+01 1.408237e+01 1.118210e+01 0 0 0 -1.016190e-01 1.202666e-01 8.731824e-01 4.612613e-01
6 1 2 -1.954399e+01 1.419974e+01 1.082490e+01 0 0 0 2.474205e-01 -6.090543e-01 -6.846097e-01 -3.148739e-01
7 1 4 -1.932175e+01 1.449507e+01 1.081471e+01 0 0 0 -3.771022e-01 1.604856e-01 8.185046e-01 4.026022e-01
8 1 1 -1.980911e+01 1.467637e+01 1.056578e+01 0 0 0 -5.185401e-01 5.882116e-01 5.697508e-01 2.459825e-01
9 1 1 -1.891191e+01 1.464896e+01 9.815430e+00 0 0 0 7.082579e-01 -6.157711e-01 -1.999792e-01 2.814338e-01
10 1 4 -1.843001e+01 1.498184e+01 9.073213e+00 0 0 0 -1.926795e-01 -8.841731e-01 4.232044e-01 4.483903e-02
11 1 1 -1.828277e+01 1.487692e+01 8.604090e+00 0 0 0 1.572559e-01 5.935938e-01 -7.881776e-01 4.114688e-02
12 1 1 -1.819033e+01 1.447617e+01 8.209567e+00 0 0 0 -1.469112e-01 -1.795796e-01 9.549371e-01 -1.851036e-01
13 1 3 -1.844976e+01 1.454879e+01 7.353301e+00 0 0 0 4.360601e-01 3.231135e-01 -8.224736e-01 -1.702540e-01
14 1 4 -1.887525e+01 1.442997e+01 7.055380e+00 0 0 0 5.287157e-01 2.427402e-01 -8.095530e-01 7.849122e-02
15 1 4 -1.933578e+01 1.410895e+01 6.986299e+00 0 0 0 6.737729e-01 -3.785673e-02 -7.032813e-01 2.235896e-01
16 1 2 -1.943523e+01 1.398273e+01 6.503823e+00 0 0 0 -1.870635e-02 5.996263e-01 4.418333e-01 -6.669945e-01
17 1 1 -1.983964e+01 1.359250e+01 7.407968e+00 0 0 0 -7.501775e-02 -5.022750e-01 5.024503e-01 -6.997399e-01
18 1 2 1.951426e+01 1.398919e+01 6.956731e+00 -1 0 0 -2.480163e-01 -6.093613e-01 4.130689e-02 -7.519711e-01
19 1 3 1.957869e+01 1.277191e+01 6.518190e+00 -1 0 0 -9.452498e-01 1.381749e-01 7.674172e-02 -2.855192e-01
20 1 1 1.978573e+01 1.283228e+01 6.045239e+00 -1 0 0 6.771955e-01 3.126810e-01 -4.408531e-01 4.992849e-01
21 1 4 1.906464e+01 1.326262e+01 4.781170e+00 -1 0 0 1.597445e-01 1.722974e-02 4.808635e-01 8.619484e-01
22 1 1 1.894152e+01 1.328726e+01 4.113401e+00 -1 0 0 -6.891780e-01 -5.535430e-01 -3.938025e-01 -2.520783e-01
23 1 4 1.805471e+01 1.230648e+01 3.930900e+00 -1 0 0 -5.048904e-01 1.231896e-01 -8.536461e-01 3.461754e-02
24 1 3 1.839986e+01 1.203014e+01 3.721309e+00 -1 0 0 4.844378e-01 1.537187e-01 8.540240e-01 1.110570e-01
25 1 3 1.859740e+01 1.179545e+01 3.407845e+00 -1 0 0 4.369793e-01 5.693113e-01 6.430284e-01 2.672979e-01
26 1 4 1.874981e+01 1.159349e+01 2.990067e+00 -1 0 0 -4.009870e-01 -7.568968e-01 -4.318487e-01 -2.825303e-01
27 1 4 1.921756e+01 1.021969e+01 3.245105e+00 -1 0 0 6.813368e-01 -5.114144e-01 5.160842e-01 8.883992e-02
28 1 1 1.948625e+01 1.001741e+01 3.097764e+00 -1 0 0 7.100407e-01 1.843762e-01 6.793230e-01 1.917866e-02
29 1 1 1.979084e+01 9.694859e+00 2.981574e+00 -1 0 0 6.822622e-01 4.233793e-01 5.320030e-01 2.687768e-01
30 1 4 -1.979299e+01 9.330530e+00 2.821298e+00 0 0 0 -4.975392e-01 -6.042362e-01 -4.501935e-01 -4.297432e-01
31 1 4 1.937782e+01 8.586594e+00 3.301259e+00 -1 0 0 3.355236e-01 -5.373947e-01 -7.732318e-01 2.726641e-02
32 1 3 1.895524e+01 8.629194e+00 3.096843e+00 -1 0 0 -4.599824e-01 6.195029e-01 6.174479e-01 -1.529390e-01
33 1 3 1.879939e+01 7.487873e+00 2.774256e+00 -1 0 0 -4.705185e-01 2.141552e-01 8.535758e-01 6.448439e-02
34 1 1 1.915133e+01 6.796252e+00 1.999085e+00 -1 0 0 3.719197e-01 9.943463e-02 8.670030e-01 3.163768e-01
35 1 2 1.958445e+01 6.191736e+00 3.261556e+00 -1 0 0 1.802582e-01 -5.210341e-01 7.575914e-01 -3.494076e-01
36 1 2 1.997841e+01 5.955192e+00 3.130622e+00 -1 0 0 -2.862791e-01 7.441795e-02 -9.107160e-01 2.882754e-01
37 1 1 -1.976964e+01 5.462250e+00 2.927738e+00 0 0 0 -3.330207e-01 -2.591778e-01 -9.045728e-01 6.059766e-02
38 1 1 -1.876329e+01 5.117582e+00 2.200733e+00 0 0 0 8.415413e-01 5.247770e-01 3.547642e-03 -1.280813e-01
39 1 4 -1.877175e+01 4.641140e+00 2.119631e+00 0 0 0 7.974309e-01 5.336448e-01 -2.054979e-01 1.926078e-01
40 1 4 -1.852954e+01 4.184731e+00 2.119761e+00 0 0 0 -5.562050e-01 -4.171511e-01 4.882899e-01 -5.274410e-01
41 1 2 -1.823567e+01 3.847041e+00 2.197244e+00 0 0 0 -3.291756e-01 -2.660692e-01 5.506330e-01 -7.194817e-01
42 1 4 -1.803528e+01 3.545115e+00 2.496949e+00 0 0 0 -5.683670e-02 -1.892899e-02 5.806511e-01 -8.119456e-01
43 1 3 -1.743191e+01 3.939404e+00 1.335544e+00 0 0 0 -5.133942e-01 -2.267927e-01 -7.817799e-01 -2.716829e-01
44 1 2 -1.683551e+01 5.040514e+00 1.658143e+00 0 0 0 6.904380e-02 7.290910e-01 3.495138e-01 5.843794e-01
45 1 1 -1.614898e+01 4.928201e+00 9.023724e-01 0 0 0 5.762393e-01 6.436431e-01 3.561902e-01 -3.560904e-01
46 1 3 -1.610188e+01 5.981226e+00 1.000095e+00 0 0 0 6.307334e-02 7.334832e-01 6.355586e-01 -2.325713e-01
47 1 4 -1.636899e+01 6.102991e+00 5.308327e-01 0 0 0 1.436372e-01 9.473036e-01 2.531841e-01 -1.337237e-01
48 1 1 -1.680837e+01 6.261205e+00 5.145036e-01 0 0 0 -2.641732e-01 -7.621978e-01 2.084680e-01 5.529992e-01
49 1 4 -1.716024e+01 6.233710e+00 6.801364e-02 0 0 0 -5.641864e-01 -5.763697e-01 4.999774e-01 3.154587e-01
50 1 4 -1.741507e+01 5.927571e+00 -1.382716e-01 0 0 0 -5.459621e-01 -5.229262e-01 6.541772e-01 2.293058e-02
51 1 4 -1.750925e+01 5.450855e+00 -1.368061e-01 0 0 0 4.153087e-01 -5.417938e-03 -8.359685e-01 3.586726e-01
52 1 1 -1.808174e+01 5.283928e+00 -6.197082e-01 0 0 0 2.828708e-01 -2.164743e-01 -6.972122e-01 6.221078e-01
53 1 3 -1.790761e+01 4.569583e+00 -1.431292e+00 0 0 0 8.420351e-01 1.302350e-01 3.650663e-01 3.751565e-01
54 1 4 -1.864686e+01 4.056117e+00 -2.170764e+00 0 0 0 2.323104e-01 3.319828e-01 -4.744234e-01 -7.814996e-01
55 1 4 -1.918156e+01 3.799039e+00 -2.059579e+00 0 0 0 -3.562523e-01 6.204457e-03 9.297428e-01 -9.286651e-02
56 1 4 -1.951129e+01 3.510432e+00 -2.454552e+00 0 0 0 4.649522e-01 -1.212286e-01 -8.683244e-01 1.230275e-01
57 1 1 -2.000729e+01 3.344476e+00 -2.625285e+00 0 0 0 -5.204019e-01 2.208607e-01 7.604641e-01 -3.195259e-01
58 1 1 1.961670e+01 3.024820e+00 -2.508845e+00 -1 0 0 -3.371640e-01 4.772680e-01 6.204417e-01 -5.230561e-01
59 1 3 1.952134e+01 2.240329e+00 -2.154264e+00 -1 0 0 2.176041e-02 -4.307506e-01 -8.980185e-01 8.685147e-02
60 1 4 -1.917191e+01 2.711795e+00 -2.460362e+00 0 0 0 4.468770e-01 1.909915e-03 4.177016e-01 7.910895e-01
61 1 2 -1.845146e+01 2.460995e+00 -2.130168e+00 0 0 0 -1.977004e-01 -5.263287e-01 8.232883e-01 -7.803250e-02
62 1 3 -1.831410e+01 2.115460e+00 -2.462167e+00 0 0 0 1.117629e-01 8.135837e-02 -9.903624e-01 8.501199e-03
63 1 2 -1.818835e+01 1.789530e+00 -1.938420e+00 0 0 0 5.458764e-01 -5.433311e-01 -4.767414e-01 -4.237074e-01
64 1 4 -1.758900e+01 1.751816e+00 -3.477698e+00 0 0 0 3.296024e-01 -5.733584e-01 4.548470e-01 5.964366e-01
65 1 2 -1.851000e+01 1.353220e+00 -3.944919e+00 0 0 0 4.380841e-02 -8.163187e-02 -6.478272e-01 -7.561329e-01
66 1 1 -1.760409e+01 1.601215e+00 -4.520274e+00 0 0 0 -3.719460e-01 8.529775e-01 -4.773803e-02 -3.630520e-01
67 1 2 -1.784292e+01 2.048884e+00 -4.564074e+00 0 0 0 -2.201804e-01 8.481907e-01 -2.585718e-01 -4.064895e-01
68 1 1 -1.785756e+01 2.420120e+00 -4.751800e+00 0 0 0 1.832846e-02 5.284890e-01 -6.532133e-01 -5.419186e-01
69 1 1 -1.797180e+01 2.704291e+00 -5.171433e+00 0 0 0 2.563362e-01 2.772459e-01 -7.943342e-01 -4.758777e-01
70 1 2 -1.795219e+01 3.438768e+00 -5.879288e+00 0 0 0 1.686859e-01 1.736111e-01 -4.259995e-01 -8.717389e-01
71 1 3 -1.812176e+01 3.818938e+00 -6.001989e+00 0 0 0 4.465094e-01 -1.208270e-01 -5.560805e-01 -6.905104e-01
72 1 4 -1.698234e+01 4.155348e+00 -6.573782e+00 0 0 0 -8.434277e-02 7.875034e-01 -6.104312e-01 -9.920170e-03
73 1 1 -1.666458e+01 4.095708e+00 -7.006401e+00 0 0 0 -7.328159e-02 4.992651e-01 -8.621393e-01 4.560728e-02
74 1 1 -1.670516e+01 4.041275e+00 -7.926347e+00 0 0 0 -9.808784e-01 -6.007041e-02 -2.566083e-02 1.833322e-01
75 1 3 -1.798683e+01 4.820756e+00 -8.097058e+00 0 0 0 -9.605438e-02 -2.118797e-01 -2.152537e-01 -9.484442e-01
76 1 1 -1.892590e+01 4.215620e+00 -7.695622e+00 0 0 0 4.823846e-01 -4.178833e-01 -1.134976e-01 -7.614440e-01
77 1 4 -1.900752e+01 4.968629e+00 -7.275508e+00 0 0 0 5.376289e-01 -4.827075e-01 -6.517691e-01 2.305334e-01
78 1 1 -1.948158e+01 4.938978e+00 -7.292946e+00 0 0 0 -5.024098e-01 6.225234e-01 4.656821e-01 -3.784035e-01
79 1 4 1.970818e+01 4.348903e+00 -7.537653e+00 -1 0 0 2.056887e-01 1.778018e-01 -6.035777e-01 7.495150e-01
80 1 2 1.946550e+01 3.392864e+00 -7.592063e+00 -1 0 0 -8.130396e-01 -6.615739e-02 -2.331194e-01 5.293818e-01
81 1 4 -1.984095e+01 3.462732e+00 -6.926705e+00 0 0 0 9.435451e-01 -1.859949e-03 3.067371e-01 1.250260e-01
82 1 4 -1.934812e+01 3.320302e+00 -6.767914e+00 0 0 0 7.411806e-01 2.817491e-01 2.552999e-01 5.532546e-01
83 1 4 -1.859140e+01 3.385061e+00 -6.627282e+00 0 0 0 7.185679e-01 2.306664e-01 2.502110e-01 6.065044e-01
84 1 4 -1.896548e+01 2.305994e+00 -6.721758e+00 0 0 0 -5.412069e-01 8.060251e-02 5.744639e-01 6.087607e-01
85 1 1 -1.803014e+01 3.734355e+00 -6.825012e+00 0 0 0 4.355408e-01 5.709536e-01 7.510348e-02 6.918639e-01
86 1 1 -1.760731e+01 2.866714e+00 -7.321294e+00 0 0 0 3.210548e-01 -8.938842e-01 3.109247e-01 -3.493717e-02
87 1 3 -1.770043e+01 2.429013e+00 -7.486655e+00 0 0 0 5.955350e-01 -8.070322e-02 1.043632e-01 -7.924225e-01
88 1 2 -1.645586e+01 1.787527e+00 -7.650474e+00 0 0 0 9.164798e-01 -3.170083e-01 1.922756e-01 -1.503353e-01
89 1 2 -1.579396e+01 2.414303e+00 -8.421388e+00 0 0 0 2.579715e-01 -6.251687e-01 3.981438e-01 6.197551e-01
90 1 3 -1.579178e+01 2.938053e+00 -7.739110e+00 0 0 0 1.236117e-01 3.276238e-01 5.865442e-01 7.303073e-01
91 1 3 -1.566236e+01 3.387965e+00 -7.798399e+00 0 0 0 -1.968050e-01 4.822273e-01 3.468950e-01 7.799926e-01
92 1 2 -1.505711e+01 3.726822e+00 -8.615509e+00 0 0 0 -7.437290e-01 -1.222384e-01 -6.402661e-01 -1.482712e-01
93 1 1 -1.595273e+01 4.370304e+00 -8.178889e+00 0 0 0 2.138613e-01 -8.636074e-02 -9.060591e-01 -3.547704e-01
94 1 2 -1.468185e+01 4.989522e+00 -8.373329e+00 0 0 0 4.013846e-01 6.568644e-01 -4.351924e-01 4.669337e-01
95 1 3 -1.475504e+01 5.248816e+00 -8.483421e+00 0 0 0 -2.431656e-01 8.747570e-02 3.356268e-01 9.058549e-01
96 1 2 -1.428049e+01 4.728547e+00 -8.836791e+00 0 0 0 -5.305514e-01 -9.841314e-02 8.395313e-01 6.338141e-02
97 1 2 -1.415586e+01 5.944868e+00 -8.660335e+00 0 0 0 2.432742e-02 5.473188e-01 -4.028090e-01 7.332089e-01
98 1 4 -1.429047e+01 6.198603e+00 -9.340016e+00 0 0 0 -5.457642e-01 7.786093e-01 -3.048026e-01 -5.481252e-02
99 1 2 -1.524227e+01 7.018312e+00 -1.030450e+01 0 0 0 3.124520e-01 7.148013e-01 4.958068e-01 3.815867e-01
100 1 1 -1.484781e+01 7.608438e+00 -1.011258e+01 0 0 0 1.162899e-01 -8.380943e-01 -2.970776e-01 4.425149e-01
101 2 4 7.210984e-01 -1.661827e+01 1.632368e+01 0 -1 -1 -1.631602e-01 -5.695341e-01 7.854716e-01 1.790086e-01
102 2 3 9.954088e-01 -1.682378e+01 1.698523e+01 0 -1 -1 6.795854e-01 -1.954548e-01 4.765697e-01 -5.223432e-01
103 2 1 1.481174e+00 -1.600684e+01 1.739214e+01 0 -1 -1 -1.798902e-01 6.977370e-01 6.931391e-01 -1.899320e-02
104 2 3 2.232673e+00 -1.653961e+01 1.741261e+01 0 -1 -1 -1.454640e-01 4.484008e-01 -2.876582e-01 8.336845e-01
105 2 3 2.999914e+00 -1.607290e+01 1.712237e+01 0 -1 -1 -3.394671e-01 8.237226e-01 -4.071724e-01 2.011315e-01
106 2 2 2.873632e+00 -1.489132e+01 1.686554e+01 0 -1 -1 -9.946535e-02 8.800064e-01 -2.355031e-02 -4.638326e-01
107 2 3 2.598337e+00 -1.457026e+01 1.658392e+01 0 -1 -1 1.279338e-01 8.437161e-01 -3.001595e-01 -4.262398e-01
108 2 4 1.677678e+00 -1.416208e+01 1.787966e+01 0 -1 -1 3.461761e-02 -1.565084e-02 2.868565e-01 -9.572199e-01
109 2 3 1.546160e+00 -1.419195e+01 1.837534e+01 0 -1 -1 -3.762329e-01 -1.198673e-01 -2.589027e-01 8.815044e-01
110 2 2 1.249279e+00 -1.395629e+01 1.852436e+01 0 -1 -1 -3.349694e-01 3.040186e-02 9.208356e-01 1.973146e-01
111 2 2 1.078966e+00 -1.348466e+01 1.922853e+01 0 -1 -1 4.066547e-01 -8.413497e-01 -1.545847e-01 -3.207276e-01
112 2 3 9.947911e-01 -1.397461e+01 -2.011703e+01 0 -1 0 -2.188608e-01 4.286364e-01 -3.641966e-01 7.973278e-01
113 2 3 8.826454e-01 -1.341305e+01 1.985326e+01 0 -1 -1 -6.878325e-01 -3.990832e-01 2.706566e-01 -5.425532e-01
114 2 2 -5.595932e-01 -1.312536e+01 1.951300e+01 0 -1 -1 5.225080e-02 -7.091785e-01 -4.998051e-01 4.945003e-01
115 2 4 -1.018273e+00 -1.304852e+01 1.939688e+01 0 -1 -1 -1.542684e-01 -8.309575e-01 -1.656059e-01 5.082181e-01
116 2 4 -1.730398e+00 -1.361420e+01 -1.946853e+01 0 -1 0 -6.367554e-01 2.121638e-02 7.033133e-01 -3.153455e-01
117 2 1 -2.030355e+00 -1.382148e+01 -1.917664e+01 0 -1 0 -3.973680e-01 3.433963e-01 6.107974e-01 -5.925404e-01
118 2 1 -1.834729e+00 -1.437416e+01 -1.912982e+01 0 -1 0 6.366125e-01 -1.480759e-01 7.483593e-01 1.129440e-01
119 2 1 -8.474383e-01 -1.405294e+01 -1.910877e+01 0 -1 0 -7.482414e-01 1.662300e-01 -4.732159e-01 -4.342453e-01
120 2 1 -3.375615e-01 -1.396649e+01 -1.901874e+01 0 -1 0 -9.287333e-01 1.116857e-01 -3.521952e-01 3.064734e-02
121 2 3 -7.591600e-01 -1.248535e+01 -1.902843e+01 0 -1 0 4.979531e-02 9.448398e-01 -1.999649e-02 -3.231072e-01
122 2 1 -5.390810e-01 -1.221597e+01 -1.821549e+01 0 -1 0 -1.173877e-01 -9.681108e-01 2.211799e-01 -7.817604e-03
123 2 4 -6.559689e-01 -1.181713e+01 -1.869864e+01 0 -1 0 -3.021478e-01 -8.300910e-01 3.418092e-01 3.206588e-01
124 2 1 -7.681834e-01 -1.181761e+01 -1.912006e+01 0 -1 0 -3.695562e-01 -5.985195e-01 6.733818e-01 2.275074e-01
125 2 4 -5.342982e-01 -1.085797e+01 -1.899875e+01 0 -1 0 2.980933e-01 8.482670e-01 -3.837478e-01 -2.105256e-01
126 2 2 -4.274895e-01 -1.105505e+01 -1.949687e+01 0 -1 0 -2.616661e-01 -5.631396e-01 7.832066e-01 3.149597e-02
127 2 4 9.882803e-02 -1.043153e+01 -1.993868e+01 0 -1 0 -8.210148e-02 -7.662302e-01 6.372906e-01 3.351884e-03
128 2 4 -6.455744e-02 -1.017145e+01 1.917517e+01 0 -1 -1 -3.866472e-01 6.076735e-02 -3.511819e-01 -8.505778e-01
129 2 1 3.825218e-01 -9.990065e+00 1.847865e+01 0 -1 -1 -1.896156e-01 7.928343e-01 -3.832714e-01 -4.342382e-01
130 2 2 -2.834867e-01 -1.012995e+01 1.796334e+01 0 -1 -1 -4.696981e-01 -8.555496e-03 -8.215221e-01 3.231284e-01
131 2 3 2.000355e-01 -9.572666e+00 1.827209e+01 0 -1 -1 -3.183059e-01 2.568511e-01 8.352794e-01 3.674469e-01
132 2 4 -2.665526e-01 -9.148007e+00 1.846879e+01 0 -1 -1 -4.544224e-01 3.788580e-01 7.860053e-01 1.793393e-01
133 2 4 -7.867388e-01 -8.867877e+00 1.836380e+01 0 -1 -1 5.753094e-01 -4.773735e-01 -6.486464e-01 -1.427986e-01
134 2 3 -2.687092e-01 -8.176995e+00 1.870750e+01 0 -1 -1 6.436013e-01 -7.137181e-01 -1.214394e-01 -2.482665e-01
135 2 4 -1.867553e-01 -7.740546e+00 1.899727e+01 0 -1 -1 7.277604e-01 -6.494985e-01 1.843702e-01 -1.205159e-01
136 2 3 1.903759e-01 -7.264076e+00 1.824453e+01 0 -1 -1 -7.383760e-01 -6.038074e-01 -2.543026e-01 1.598365e-01
137 2 1 8.452771e-01 -6.973000e+00 1.767719e+01 0 -1 -1 7.768119e-02 7.781677e-01 -4.093509e-01 -4.699495e-01
138 2 3 1.242392e+00 -7.658454e+00 1.801431e+01 0 -1 -1 6.059470e-01 7.842972e-01 -1.287981e-01 -3.342401e-02
139 2 2 8.611291e-01 -7.635586e+00 1.938502e+01 0 -1 -1 -1.094836e-01 4.380257e-01 -1.334586e-01 8.822333e-01
140 2 3 1.148404e+00 -7.427641e+00 1.965036e+01 0 -1 -1 4.768164e-01 -3.957789e-01 2.879474e-01 -7.301312e-01
141 2 1 8.736960e-01 -6.203056e+00 1.908724e+01 0 -1 -1 9.042459e-02 -1.825619e-01 2.357735e-01 9.502133e-01
142 2 2 6.804367e-01 -5.752379e+00 1.925939e+01 0 -1 -1 2.862674e-01 4.192112e-03 -2.019185e-01 -9.366228e-01
143 2 4 2.286315e-01 -5.712562e+00 1.970892e+01 0 -1 -1 -7.279607e-01 -2.267435e-02 5.032528e-03 6.852254e-01
144 2 4 3.933447e-01 -5.577274e+00 -1.922367e+01 0 -1 0 -6.930581e-01 1.106099e-01 4.827018e-01 -5.238653e-01
145 2 1 5.573806e-01 -6.283432e+00 -1.902906e+01 0 -1 0 7.876851e-01 -1.662015e-01 1.697231e-01 -5.684393e-01
146 2 1 5.860053e-01 -6.520644e+00 -1.866914e+01 0 -1 0 9.738878e-01 -7.116997e-02 1.997448e-01 -8.111322e-02
147 2 1 8.020437e-01 -6.645670e+00 -1.823217e+01 0 -1 0 -9.481987e-01 3.256670e-02 -2.742504e-01 -1.569886e-01
148 2 2 1.176311e+00 -6.870335e+00 -1.794430e+01 0 -1 0 -8.347299e-01 -1.692628e-01 -2.970677e-01 -4.316560e-01
149 2 4 1.639801e+00 -6.947517e+00 -1.791776e+01 0 -1 0 5.552946e-01 3.095018e-01 1.459699e-01 7.579903e-01
150 2 1 2.096728e+00 -6.889014e+00 -1.764917e+01 0 -1 0 2.284957e-01 3.034509e-01 6.633810e-02 9.226627e-01
151 2 1 2.393659e+00 -6.557870e+00 -1.746803e+01 0 -1 0 1.059091e-01 -4.045756e-01 9.078352e-02 -9.038032e-01
152 2 1 3.235387e+00 -5.980562e+00 -1.709963e+01 0 -1 0 5.758746e-01 -1.959004e-01 -5.862927e-01 5.350256e-01
153 2 4 4.225892e+00 -6.111631e+00 -1.705215e+01 0 -1 0 5.385857e-01 3.346022e-01 -7.159651e-01 2.921656e-01
154 2 1 4.231530e+00 -6.610082e+00 -1.710651e+01 0 -1 0 3.612568e-01 -1.500102e-02 -8.568637e-01 3.674956e-01
155 2 2 4.645037e+00 -7.029402e+00 -1.648936e+01 0 -1 0 -3.976922e-01 -2.707559e-01 8.750516e-01 -5.307424e-02
156 2 4 4.762818e+00 -6.052328e+00 -1.612079e+01 0 -1 0 3.065026e-01 6.130254e-01 5.221482e-01 5.075601e-01
157 2 3 5.124968e+00 -6.510426e+00 -1.568695e+01 0 -1 0 3.232683e-02 9.947574e-02 -1.224054e-01 9.869531e-01
158 2 2 5.047496e+00 -6.348339e+00 -1.521036e+01 0 -1 0 4.352298e-01 -1.009318e-01 1.852742e-01 -8.752493e-01
159 2 1 5.256147e+00 -6.496540e+00 -1.497801e+01 0 -1 0 5.153248e-01 5.196222e-01 5.067959e-01 -4.556216e-01
160 2 3 4.583543e+00 -6.903894e+00 -1.488391e+01 0 -1 0 -2.112142e-01 -3.004337e-01 -2.039630e-01 9.074840e-01
161 2 1 4.146545e+00 -6.897207e+00 -1.469553e+01 0 -1 0 -6.433072e-01 -3.116833e-01 5.183903e-02 6.973680e-01
162 2 1 3.583711e+00 -6.319759e+00 -1.410640e+01 0 -1 0 2.458261e-01 3.076091e-02 -7.580688e-01 -6.032868e-01
163 2 4 3.224486e+00 -6.067971e+00 -1.434660e+01 0 -1 0 5.122269e-01 -2.406273e-01 -6.714010e-01 -4.784797e-01
164 2 4 2.674510e+00 -5.925189e+00 -1.435040e+01 0 -1 0 7.029847e-01 -2.988866e-01 -5.256042e-01 -3.744589e-01
165 2 3 2.250879e+00 -4.986086e+00 -1.444121e+01 0 -1 0 2.845263e-01 -1.331863e-01 2.766312e-01 -9.081748e-01
166 2 3 1.849898e+00 -4.808151e+00 -1.438448e+01 0 -1 0 -4.888515e-01 6.266756e-01 6.051141e-01 -4.624623e-02
167 2 4 1.563342e+00 -4.405341e+00 -1.456287e+01 0 -1 0 6.009172e-01 -6.409920e-01 -4.658138e-01 1.050968e-01
168 2 2 1.420118e+00 -4.699760e+00 -1.370764e+01 0 -1 0 -1.095988e-01 6.329202e-01 -2.765087e-01 7.148028e-01
169 2 2 3.802857e-01 -5.365066e+00 -1.437830e+01 0 -1 0 6.184844e-01 8.970491e-02 -3.487321e-01 -6.984382e-01
170 2 1 1.657039e-02 -4.461645e+00 -1.340341e+01 0 -1 0 -1.186466e-01 8.134937e-02 8.163974e-01 -5.592858e-01
171 2 1 -2.399728e-01 -4.812836e+00 -1.322505e+01 0 -1 0 -2.995833e-01 -3.983007e-01 -6.464510e-01 5.776742e-01
172 2 4 -5.580691e-01 -5.220668e+00 -1.327429e+01 0 -1 0 -5.068529e-01 -6.397886e-01 -3.912107e-01 4.251175e-01
173 2 4 -7.130438e-01 -6.304618e+00 -1.309009e+01 0 -1 0 6.855778e-01 -1.671475e-01 -3.950804e-01 -5.881805e-01
174 2 1 -5.947028e-01 -6.422981e+00 -1.413281e+01 0 -1 0 -3.258073e-01 -7.185271e-01 7.175575e-02 6.102618e-01
175 2 1 -1.326823e+00 -7.313199e+00 -1.363708e+01 0 -1 0 -2.162836e-01 -1.186503e-01 9.289199e-01 -2.761365e-01
176 2 2 -1.509536e+00 -7.746528e+00 -1.382563e+01 0 -1 0 -9.285344e-02 2.601320e-01 9.100491e-01 -3.090636e-01
177 2 2 -1.858467e+00 -7.979015e+00 -1.400291e+01 0 -1 0 -9.425903e-02 -7.136494e-01 -6.274114e-01 2.969424e-01
178 2 1 -2.250035e+00 -8.180028e+00 -1.441455e+01 0 -1 0 -1.644159e-02 8.157025e-01 5.188083e-01 -2.553370e-01
179 2 4 -2.408895e+00 -7.810451e+00 -1.401893e+01 0 -1 0 5.323628e-01 3.906075e-01 1.420125e-01 7.374606e-01
180 2 1 -3.280166e+00 -8.004676e+00 -1.331334e+01 0 -1 0 7.158053e-01 -3.732025e-01 -3.007799e-01 -5.078131e-01
181 2 4 -3.980882e+00 -7.965470e+00 -1.300643e+01 0 -1 0 -5.154769e-01 3.290594e-01 7.276754e-01 3.106316e-01
182 2 2 -4.399346e+00 -7.587529e+00 -1.301090e+01 0 -1 0 6.729673e-01 -4.462438e-01 -5.396012e-01 -2.383530e-01
183 2 3 -4.304945e+00 -7.707709e+00 -1.406188e+01 0 -1 0 7.437724e-01 5.315718e-01 -3.986200e-01 7.304897e-02
184 2 4 -5.705776e+00 -7.824547e+00 -1.406218e+01 0 -1 0 -8.198458e-03 -1.785111e-01 -8.805725e-01 4.389289e-01
185 2 3 -5.880850e+00 -8.278382e+00 -1.417516e+01 0 -1 0 1.273772e-01 5.523538e-01 7.104351e-01 -4.170878e-01
186 2 1 -6.186863e+00 -8.543160e+00 -1.448145e+01 0 -1 0 4.748201e-02 6.786873e-01 6.220116e-01 -3.875958e-01
187 2 1 -6.600788e+00 -8.651077e+00 -1.417821e+01 0 -1 0 -3.230176e-01 -1.475913e-01 7.543564e-01 -5.521077e-01
188 2 2 -7.241517e+00 -9.206915e+00 -1.408823e+01 0 -1 0 3.888763e-01 -2.955470e-01 -5.985791e-01 -6.349253e-01
189 2 4 -7.896930e+00 -9.577858e+00 -1.374598e+01 0 -1 0 -6.248070e-01 -2.255382e-02 -1.494655e-01 7.660075e-01
190 2 4 -7.838187e+00 -9.112528e+00 -1.275701e+01 0 -1 0 6.131727e-01 -6.164171e-01 2.578593e-01 -4.213761e-01
191 2 1 -7.652528e+00 -7.880854e+00 -1.350261e+01 0 -1 0 7.022132e-01 -1.068492e-01 3.674563e-01 6.003797e-01
192 2 4 -7.324081e+00 -7.573867e+00 -1.342799e+01 0 -1 0 -3.518373e-01 -2.170921e-01 -3.244456e-01 -8.507741e-01
193 2 4 -7.053410e+00 -7.135965e+00 -1.339300e+01 0 -1 0 -1.199111e-01 4.626191e-01 -2.869540e-03 8.784057e-01
194 2 1 -6.858394e+00 -6.957882e+00 -1.294050e+01 0 -1 0 -4.490317e-01 3.710071e-01 -1.962219e-01 7.888100e-01
195 2 3 -6.740680e+00 -6.895065e+00 -1.249396e+01 0 -1 0 -7.265511e-01 3.233390e-01 -3.794644e-01 4.728448e-01
196 2 4 -7.682979e+00 -5.944985e+00 -1.281647e+01 0 -1 0 3.164342e-01 2.051325e-01 -2.404487e-02 -9.258574e-01
197 2 2 -7.486268e+00 -5.377026e+00 -1.340037e+01 0 -1 0 -1.749018e-01 -7.375954e-01 2.439735e-01 6.048465e-01
198 2 4 -7.848863e+00 -5.203997e+00 -1.367242e+01 0 -1 0 -4.921554e-01 -4.193658e-01 5.489436e-01 5.296945e-01
199 2 3 -8.406670e+00 -5.252830e+00 -1.374563e+01 0 -1 0 -6.648252e-01 -3.801344e-01 5.571798e-01 3.210234e-01
200 2 4 -8.925404e+00 -4.909724e+00 -1.436828e+01 0 -1 0 -3.599350e-01 -6.607833e-01 -5.401757e-01 -3.768587e-01
