ITEM: TIMESTEP
37000000
ITEM: NUMBER OF ATOMS
200
ITEM: BOX BOUNDS pp pp pp
-2.0000000000000000e+01 2.0000000000000000e+01
-2.0000000000000000e+01 2.0000000000000000e+01
-2.0000000000000000e+01 2.0000000000000000e+01
ITEM: ATOMS id mol type x y z ix iy iz c_quat[1] c_quat[2] c_quat[3] c_quat[4]
1 1 1 1.953797e+01 1.349384e+01 1.670776e+01 -1 -1 0 -4.169665e-01 2.110823e-01 8.055392e-01 -3.642661e-01
2 1 2 1.865000e+01 1.341476e+01 1.589542e+01 -1 -1 0 -1.453126e-01 -2.149364e-01 -7.468971e-01 -6.122347e-01
3 1 1 1.874440e+01 1.380918e+01 1.569768e+01 -1 -1 0 -3.014761e-01 4.416874e-01 6.000611e-01 5.949379e-01
4 1 3 1.919671e+01 1.343999e+01 1.505456e+01 -1 -1 0 1.921564e-01 -4.629140e-02 -9.659871e-01 1.667392e-01
5 1 1 1.950849e+01 1.375216e+01 1.379166e+01 -1 -1 0 -4.914512e-01 -7.636089e-01 3.357815e-01 2.502557e-01
6 1 2 1.942143e+01 1.345220e+01 1.349339e+01 -1 -1 0 -5.182500e-01 -5.547345e-01 6.495156e-01 -4.261631e-02
7 1 4 1.939636e+01 1.300868e+01 1.335683e+01 -1 -1 0 3.998656e-01 1.690057e-01 -8.691035e-01 2.370734e-01
8 1 1 1.906333e+01 1.279426e+01 1.301951e+01 -1 -1 0 -9.720821e-02 3.933653e-01 8.363771e-01 -3.691716e-01
9 1 1 1.934441e+01 1.325328e+01 1.203597e+01 -1 -1 0 -1.984506e-01 -2.427262e-01 1.468490e-01 9.381560e-01
10 1 4 -1.942014e+01 1.359666e+01 1.272689e+01 0 -1 0 5.871682e-01 2.884373e-01 -5.934888e-01 4.688374e-01
11 1 1 -1.947081e+01 1.314237e+01 1.298921e+01 0 -1 0 2.366560e-01 -1.451536e-01 -7.175314e-01 6.388060e-01
12 1 1 2.001328e+01 1.220261e+01 1.284303e+01 -1 -1 0 3.302441e-01 -8.117651e-03 6.950696e-01 -6.385540e-01
13 1 3 2.003396e+01 1.174919e+01 1.290439e+01 -1 -1 0 -5.813275e-01 -2.889066e-01 -6.973746e-01 3.037433e-01
14 1 4 -1.979976e+01 1.134117e+01 1.271057e+01 0 -1 0 5.590332e-01 5.366459e-01 6.007448e-01 -1.964656e-01
15 1 4 -1.872455e+01 1.115373e+01 1.314117e+01 0 -1 0 3.389198e-01 -5.324803e-01 7.566395e-01 1.705718e-01
16 1 2 -1.828071e+01 1.227009e+01 1.373847e+01 0 -1 0 4.622362e-02 -9.479242e-01 -2.202589e-01 -2.253645e-01
17 1 1 -1.816271e+01 1.273213e+01 1.345273e+01 0 -1 0 -9.976070e-02 9.721356e-01 -9.419506e-02 1.900721e-01
18 1 2 -1.794364e+01 1.304160e+01 1.314341e+01 0 -1 0 -3.125806e-01 8.624695e-01 -3.590016e-01 1.719232e-01
19 1 3 -1.748699e+01 1.325969e+01 1.293199e+01 0 -1 0 -3.448196e-01 7.136802e-01 -5.907380e-01 1.509594e-01
20 1 1 -1.699470e+01 1.334711e+01 1.256288e+01 0 -1 0 -2.993286e-01 5.435010e-01 -7.375862e-01 2.664125e-01
21 1 4 -1.652089e+01 1.316828e+01 1.232100e+01 0 -1 0 2.942152e-01 -2.507814e-01 8.914672e-01 -2.362887e-01
22 1 1 -1.615920e+01 1.283536e+01 1.188758e+01 0 -1 0 1.483922e-01 -6.562757e-02 9.791783e-01 -1.219945e-01
23 1 4 -1.619783e+01 1.242805e+01 1.151566e+01 0 -1 0 1.247894e-01 3.024055e-01 9.401278e-01 -9.559397e-02
24 1 3 -1.653564e+01 1.213709e+01 1.111385e+01 0 -1 0 1.721491e-01 6.563815e-01 7.337561e-01 -3.361513e-02
25 1 3 -1.658598e+01 1.209919e+01 1.052799e+01 0 -1 0 -3.847686e-02 7.518417e-01 6.552785e-01 6.215830e-02
26 1 4 -1.680930e+01 1.220300e+01 1.007981e+01 0 -1 0 -5.712981e-03 9.228090e-01 3.658308e-01 1.206595e-01
27 1 4 -1.680851e+01 1.258365e+01 9.660071e+00 0 -1 0 -1.359724e-01 9.831897e-01 -3.367545e-03 1.218122e-01
28 1 1 -1.654068e+01 1.301270e+01 9.317607e+00 0 -1 0 -2.331956e-01 9.334719e-01 -2.048959e-01 1.796319e-01
29 1 1 -1.615111e+01 1.328237e+01 9.048414e+00 0 -1 0 -3.115653e-01 8.195580e-01 -4.375227e-01 1.995636e-01
30 1 4 -1.560685e+01 1.334503e+01 8.889854e+00 0 -1 0 3.085634e-01 -6.096388e-01 7.246028e-01 -8.988868e-02
31 1 4 -1.512278e+01 1.322485e+01 8.609102e+00 0 -1 0 2.431097e-01 -4.084456e-01 8.794613e-01 2.485125e-02
32 1 3 -1.480125e+01 1.300458e+01 8.258916e+00 0 -1 0 2.385725e-01 -3.177648e-02 9.693461e-01 4.941186e-02
33 1 3 -1.474651e+01 1.266232e+01 7.893628e+00 0 -1 0 2.536596e-01 2.915568e-01 9.218253e-01 2.982466e-02
34 1 1 -1.481343e+01 1.245301e+01 7.394016e+00 0 -1 0 1.555625e-01 5.512860e-01 8.157866e-01 7.985168e-02
35 1 2 -1.491455e+01 1.247574e+01 6.851246e+00 0 -1 0 6.976748e-02 7.459493e-01 6.334484e-01 1.934820e-01
36 1 2 -1.513141e+01 1.277929e+01 6.433069e+00 0 -1 0 -6.469321e-02 9.258306e-01 3.388599e-01 1.543582e-01
37 1 1 -1.523472e+01 1.311138e+01 6.109930e+00 0 -1 0 -2.159583e-01 9.667243e-01 1.019962e-01 9.166757e-02
38 1 1 -1.508470e+01 1.350113e+01 5.775007e+00 0 -1 0 -3.182968e-01 9.346204e-01 -1.228445e-01 1.004050e-01
39 1 4 -1.487070e+01 1.397497e+01 5.597469e+00 0 -1 0 2.922969e-01 -8.696829e-01 3.937363e-01 -5.644396e-02
40 1 4 -1.450460e+01 1.425281e+01 5.445463e+00 0 -1 0 3.382808e-01 -7.257784e-01 5.975850e-01 -4.127858e-02
41 1 2 -1.399723e+01 1.431043e+01 5.273987e+00 0 -1 0 3.791208e-01 -4.397814e-01 8.140477e-01 -1.364075e-02
42 1 4 -1.348776e+01 1.414733e+01 5.017563e+00 0 -1 0 3.396004e-01 -1.860068e-01 9.179809e-01 8.593084e-02
43 1 3 -1.321601e+01 1.398992e+01 4.566309e+00 0 -1 0 1.841399e-01 1.451745e-01 9.685473e-01 8.326453e-02
44 1 2 -1.324952e+01 1.369109e+01 4.120446e+00 0 -1 0 1.565333e-01 4.371355e-01 8.834333e-01 6.289275e-02
45 1 1 -1.332060e+01 1.361786e+01 3.665711e+00 0 -1 0 1.257768e-01 6.636771e-01 7.240528e-01 1.395006e-01
46 1 3 -1.349720e+01 1.363203e+01 3.192229e+00 0 -1 0 2.247095e-02 8.618987e-01 5.009681e-01 7.521110e-02
47 1 4 -1.357225e+01 1.383107e+01 2.652755e+00 0 -1 0 -1.158633e-01 9.237595e-01 3.594410e-01 6.360976e-02
48 1 1 -1.356376e+01 1.434130e+01 2.269015e+00 0 -1 0 2.073055e-01 -9.592943e-01 -8.456653e-02 -1.721260e-01
49 1 4 -1.334036e+01 1.488071e+01 2.211449e+00 0 -1 0 3.169205e-01 -9.123868e-01 2.482776e-01 -7.395855e-02
50 1 4 -1.300770e+01 1.525526e+01 1.995776e+00 0 -1 0 2.585079e-01 -8.209907e-01 5.076441e-01 -3.801767e-02
51 1 4 -1.259362e+01 1.549230e+01 1.783465e+00 0 -1 0 2.031572e-01 -6.213352e-01 7.476047e-01 1.172901e-01
52 1 1 -1.225076e+01 1.559386e+01 1.507034e+00 0 -1 0 2.252812e-01 -3.949047e-01 8.820835e-01 1.233992e-01
53 1 3 -1.195828e+01 1.557796e+01 1.074735e+00 0 -1 0 1.798488e-01 -1.446923e-01 9.693799e-01 8.379250e-02
54 1 4 -1.175092e+01 1.545067e+01 5.732295e-01 0 -1 0 6.421029e-02 1.027217e-01 9.761192e-01 1.803235e-01
55 1 4 -1.177335e+01 1.532584e+01 6.654141e-02 0 -1 0 8.892598e-03 3.633031e-01 9.165704e-01 1.668247e-01
56 1 4 -1.187913e+01 1.548946e+01 -5.424135e-01 0 -1 0 -9.578591e-02 5.253705e-01 8.085824e-01 2.469925e-01
57 1 1 -1.219947e+01 1.548174e+01 -9.005734e-01 0 -1 0 -5.147946e-02 7.780429e-01 6.094543e-01 1.434038e-01
58 1 1 -1.228805e+01 1.586081e+01 -1.293926e+00 0 -1 0 -9.893009e-02 8.998719e-01 3.656746e-01 2.161606e-01
59 1 3 -1.234995e+01 1.620440e+01 -1.658130e+00 0 -1 0 1.439202e-01 -9.738122e-01 -1.058643e-01 -1.406043e-01
60 1 4 -1.229613e+01 1.660268e+01 -2.004195e+00 0 -1 0 3.063479e-01 -9.343397e-01 7.149304e-02 -1.674783e-01
61 1 2 -1.196814e+01 1.699570e+01 -2.239571e+00 0 -1 0 2.130642e-01 -8.802129e-01 4.102213e-01 -1.074587e-01
62 1 3 -1.152588e+01 1.725294e+01 -2.417115e+00 0 -1 0 2.910983e-01 -6.806982e-01 6.716541e-01 -2.815143e-02
63 1 2 -1.103910e+01 1.728788e+01 -2.629793e+00 0 -1 0 2.998997e-01 -4.525032e-01 8.382177e-01 5.188605e-02
64 1 4 -1.065994e+01 1.728338e+01 -2.990261e+00 0 -1 0 2.492468e-01 -2.361572e-01 9.371831e-01 6.159282e-02
65 1 2 -1.040607e+01 1.706522e+01 -3.345478e+00 0 -1 0 2.432997e-01 1.144745e-01 9.629553e-01 2.044434e-02
66 1 1 -1.032988e+01 1.689716e+01 -3.965377e+00 0 -1 0 8.342297e-02 1.913157e-01 9.777766e-01 1.979622e-02
67 1 2 -1.055410e+01 1.662593e+01 -4.502025e+00 0 -1 0 -2.737564e-02 5.140925e-01 8.569594e-01 2.408584e-02
68 1 1 -1.087317e+01 1.666817e+01 -4.903824e+00 0 -1 0 -5.445659e-02 8.008554e-01 5.960840e-01 1.867810e-02
69 1 1 -1.113364e+01 1.691787e+01 -5.268997e+00 0 -1 0 -1.533688e-01 9.333239e-01 3.116506e-01 -9.087586e-02
70 1 2 -1.125157e+01 1.732443e+01 -5.666483e+00 0 -1 0 2.387555e-01 -9.691622e-01 -4.132834e-02 4.486033e-02
71 1 3 -1.119141e+01 1.779187e+01 -5.934426e+00 0 -1 0 1.751419e-01 -9.599597e-01 2.031223e-01 8.089516e-02
72 1 4 -1.098166e+01 1.812117e+01 -6.295762e+00 0 -1 0 1.925698e-01 -8.478893e-01 4.931933e-01 -2.758511e-02
73 1 1 -1.065079e+01 1.832783e+01 -6.674321e+00 0 -1 0 5.814676e-02 -6.275748e-01 7.753795e-01 3.943958e-02
74 1 1 -1.037925e+01 1.824293e+01 -7.061195e+00 0 -1 0 1.057429e-01 -4.113679e-01 9.048497e-01 -2.901581e-02
75 1 3 -1.016290e+01 1.801828e+01 -7.446299e+00 0 -1 0 9.392622e-02 -1.078253e-01 9.896912e-01 -7.931649e-03
76 1 1 -1.014616e+01 1.776606e+01 -7.886355e+00 0 -1 0 5.524904e-02 2.301846e-01 9.713014e-01 -2.315580e-02
77 1 4 -1.034399e+01 1.753552e+01 -8.452782e+00 0 -1 0 -3.787593e-02 4.197365e-01 9.023911e-01 8.987274e-02
78 1 1 -1.043698e+01 1.760803e+01 -8.918159e+00 0 -1 0 -3.035931e-01 5.156574e-01 8.010126e-01 -1.753506e-02
79 1 4 -1.093328e+01 1.768283e+01 -9.107664e+00 0 -1 0 -2.196769e-01 7.726688e-01 5.818418e-01 -1.272208e-01
80 1 2 -1.126272e+01 1.786416e+01 -9.465892e+00 0 -1 0 2.822095e-01 -8.830014e-01 -3.538340e-01 1.243694e-01
81 1 4 -1.156953e+01 1.818704e+01 -9.596275e+00 0 -1 0 2.289891e-01 -9.435829e-01 -7.896995e-03 2.390668e-01
82 1 4 -1.167454e+01 1.867061e+01 -9.954731e+00 0 -1 0 5.057223e-02 -9.257936e-01 3.003168e-01 2.239609e-01
83 1 4 -1.165999e+01 1.899775e+01 -1.044652e+01 0 -1 0 9.592947e-02 -8.732882e-01 4.698480e-01 8.606988e-02
84 1 4 -1.147865e+01 1.919098e+01 -1.088531e+01 0 -1 0 5.035159e-02 -7.250118e-01 6.868640e-01 -6.359907e-03
85 1 1 -1.107454e+01 1.911277e+01 -1.123075e+01 0 -1 0 8.783750e-02 -3.808909e-01 9.140898e-01 1.079188e-01
86 1 1 -1.098167e+01 1.901170e+01 -1.168219e+01 0 -1 0 -4.399196e-02 -1.329377e-02 9.848079e-01 1.674559e-01
87 1 3 -1.050590e+01 -1.963100e+01 -1.169254e+01 0 0 0 1.490251e-03 3.907844e-01 5.076482e-02 -9.190801e-01
88 1 2 -1.091882e+01 -1.943979e+01 -1.146647e+01 0 0 0 -2.701518e-01 -4.466598e-01 9.575791e-02 8.475515e-01
89 1 2 -9.989029e+00 -1.897784e+01 -1.147644e+01 0 0 0 2.456754e-01 -1.184159e-01 4.113170e-01 8.697353e-01
90 1 3 -9.917306e+00 -1.851606e+01 -1.143477e+01 0 0 0 2.601497e-01 -1.263843e-01 -3.698907e-01 -8.829100e-01
91 1 3 -8.666092e+00 -1.805764e+01 -1.225690e+01 0 0 0 -3.386907e-01 -9.108636e-01 -8.218385e-02 2.210474e-01
92 1 2 -8.819006e+00 -1.824196e+01 -1.269196e+01 0 0 0 5.345499e-01 8.140542e-01 -2.270337e-01 5.278121e-03
93 1 1 -9.518418e+00 -1.855162e+01 -1.296407e+01 0 0 0 -1.480198e-01 3.729511e-01 3.156757e-01 8.598526e-01
94 1 2 -8.370517e+00 -1.880238e+01 -1.298245e+01 0 0 0 6.525494e-01 -5.193436e-02 3.945314e-01 6.448465e-01
95 1 3 -8.015570e+00 -1.850005e+01 -1.301444e+01 0 0 0 -3.188865e-01 -2.441322e-01 -4.007749e-01 -8.234624e-01
96 1 2 -7.712457e+00 -1.812664e+01 -1.290041e+01 0 0 0 2.537709e-02 -3.108229e-01 -3.250695e-01 -8.927906e-01
97 1 2 -7.713442e+00 -1.767783e+01 -1.273098e+01 0 0 0 -4.643524e-01 4.809139e-01 1.975883e-01 7.169781e-01
98 1 4 -6.612504e+00 -1.660167e+01 -1.310773e+01 0 0 0 9.216624e-02 9.622046e-01 1.424267e-01 2.130315e-01
99 1 2 -6.794969e+00 -1.694108e+01 -1.207723e+01 0 0 0 -5.228628e-01 5.930405e-01 3.943728e-01 4.683881e-01
100 1 1 -6.296554e+00 -1.628799e+01 -1.201801e+01 0 0 0 1.226136e-01 7.026955e-01 5.564739e-01 4.260537e-01
101 2 4 -1.741339e+01 1.735751e+01 -1.268203e+01 0 -1 0 4.607075e-01 -3.423865e-02 -8.607436e-01 2.137679e-01
102 2 3 -1.693980e+01 1.799786e+01 -1.350885e+01 0 -1 0 -8.595705e-01 2.045384e-01 -4.419081e-01 -1.549831e-01
103 2 1 -1.651652e+01 1.847716e+01 -1.274592e+01 0 -1 0 6.971712e-01 6.078839e-01 -2.830828e-02 3.789831e-01
104 2 3 -1.631842e+01 1.890291e+01 -1.206249e+01 0 -1 0 3.157822e-01 1.772959e-01 -6.963343e-02 9.295155e-01
105 2 3 -1.612951e+01 1.896859e+01 -1.168219e+01 0 -1 0 1.033219e-01 -1.368810e-01 1.914133e-01 -9.664104e-01
106 2 2 -1.612131e+01 1.910368e+01 -1.112730e+01 0 -1 0 5.815484e-01 -1.607156e-01 1.957759e-01 -7.730742e-01
107 2 3 -1.551838e+01 1.931024e+01 -1.030160e+01 0 -1 0 6.127209e-01 -4.246223e-01 2.434067e-01 -6.205016e-01
108 2 4 -1.434065e+01 1.932378e+01 -1.097802e+01 0 -1 0 5.028923e-01 -4.282089e-01 6.730631e-01 3.327499e-01
109 2 3 -1.437695e+01 1.947734e+01 -1.122000e+01 0 -1 0 -4.223056e-01 -1.395484e-01 8.128703e-01 3.760666e-01
110 2 2 -1.439918e+01 -1.935466e+01 -1.091855e+01 0 0 0 -6.097356e-02 -8.487503e-02 -7.309291e-01 6.744042e-01
111 2 2 -1.355019e+01 -1.911314e+01 -1.102789e+01 0 0 0 2.382923e-02 6.447077e-01 2.968428e-01 -7.040373e-01
112 2 3 -1.247669e+01 1.986653e+01 -1.098451e+01 0 -1 0 -3.033690e-01 -5.208599e-01 7.377806e-01 3.038947e-01
113 2 3 -1.281417e+01 1.943773e+01 -1.153533e+01 0 -1 0 -6.304113e-01 -1.683736e-01 -6.344339e-01 4.143978e-01
114 2 2 -1.201369e+01 1.896459e+01 -1.187419e+01 0 -1 0 -9.037933e-01 -1.392461e-01 -1.814550e-01 3.617214e-01
115 2 4 -1.203401e+01 1.856594e+01 -1.156374e+01 0 -1 0 -9.750376e-01 -1.429704e-01 -1.698773e-01 -1.663604e-03
116 2 4 -1.183140e+01 1.820544e+01 -1.139612e+01 0 -1 0 8.935978e-01 1.710605e-01 1.360483e-02 4.147724e-01
117 2 1 -1.159944e+01 1.796938e+01 -1.098258e+01 0 -1 0 7.556739e-01 2.130976e-01 1.226076e-01 6.070533e-01
118 2 1 -1.109730e+01 1.802207e+01 -1.075261e+01 0 -1 0 4.971341e-01 2.040804e-01 9.110002e-02 8.383971e-01
119 2 1 -1.073090e+01 1.808120e+01 -1.040297e+01 0 -1 0 2.691635e-01 1.971417e-01 1.187977e-01 9.351862e-01
120 2 1 -1.045469e+01 1.844953e+01 -1.003263e+01 0 -1 0 -4.551028e-02 2.129885e-01 2.150746e-02 9.757572e-01
121 2 3 -1.042542e+01 1.866665e+01 -9.545687e+00 0 -1 0 4.105686e-01 -1.133262e-01 1.077658e-01 -8.983190e-01
122 2 1 -1.046131e+01 1.869317e+01 -9.044023e+00 0 -1 0 5.381833e-01 1.898199e-03 1.741819e-01 -8.246307e-01
123 2 4 -1.068684e+01 1.866568e+01 -8.585745e+00 0 -1 0 7.184375e-01 8.584453e-02 1.086404e-01 -6.816711e-01
124 2 1 -1.104751e+01 1.848836e+01 -8.286438e+00 0 -1 0 8.825363e-01 1.808694e-01 -5.176100e-02 -4.309720e-01
125 2 4 -1.127488e+01 1.818196e+01 -7.943252e+00 0 -1 0 9.762543e-01 1.528923e-01 -6.060973e-02 -1.409891e-01
126 2 2 -1.130206e+01 1.768918e+01 -7.650689e+00 0 -1 0 9.725394e-01 5.382525e-02 -7.607790e-02 2.132653e-01
127 2 4 -1.128212e+01 1.750751e+01 -7.174643e+00 0 -1 0 9.095851e-01 1.012781e-01 3.156492e-02 4.017480e-01
128 2 4 -1.103354e+01 1.716862e+01 -6.764247e+00 0 -1 0 7.983479e-01 1.228057e-01 5.395601e-02 5.870674e-01
129 2 1 -1.056469e+01 1.707236e+01 -6.585026e+00 0 -1 0 5.546268e-01 2.440073e-01 4.067152e-02 7.944781e-01
130 2 2 -1.015197e+01 1.730987e+01 -6.234950e+00 0 -1 0 2.612446e-01 1.607813e-01 -1.440963e-02 9.516790e-01
131 2 3 -1.000556e+01 1.745396e+01 -5.748226e+00 0 -1 0 -8.243286e-02 4.826394e-02 -4.026163e-02 9.946127e-01
132 2 4 -1.017256e+01 1.761542e+01 -5.317159e+00 0 -1 0 3.531961e-01 4.378401e-02 -8.640709e-02 -9.305210e-01
133 2 4 -1.042972e+01 1.775236e+01 -4.816445e+00 0 -1 0 5.827985e-01 1.298302e-01 -1.276282e-01 -7.919602e-01
134 2 3 -1.085486e+01 1.774264e+01 -4.409501e+00 0 -1 0 7.181434e-01 2.174477e-01 -8.272289e-02 -6.558532e-01
135 2 4 -1.123762e+01 1.753836e+01 -4.222211e+00 0 -1 0 -9.065918e-01 -1.275545e-01 2.090657e-01 3.436753e-01
136 2 3 -1.148467e+01 1.724868e+01 -3.844082e+00 0 -1 0 -9.654021e-01 -1.565758e-01 1.969212e-01 6.859131e-02
137 2 1 -1.165799e+01 1.680543e+01 -3.515343e+00 0 -1 0 9.544980e-01 1.289957e-01 -1.794761e-01 2.002048e-01
138 2 3 -1.150974e+01 1.645766e+01 -3.252740e+00 0 -1 0 8.065336e-01 1.523720e-01 -2.644763e-01 5.062989e-01
139 2 2 -1.142669e+01 1.614624e+01 -2.774746e+00 0 -1 0 6.850521e-01 9.699644e-02 -1.348772e-01 7.092979e-01
140 2 3 -1.127015e+01 1.606158e+01 -2.254956e+00 0 -1 0 4.401570e-01 -4.338423e-02 -1.059383e-01 8.905935e-01
141 2 1 -1.119390e+01 1.622258e+01 -1.740757e+00 0 -1 0 2.205227e-01 -8.099485e-02 2.867979e-03 9.720089e-01
142 2 2 -1.124452e+01 1.646934e+01 -1.288756e+00 0 -1 0 -7.004734e-02 -1.513570e-01 5.248251e-02 9.845964e-01
143 2 4 -1.157569e+01 1.672184e+01 -8.848236e-01 0 -1 0 4.256756e-01 2.024711e-01 -1.175360e-01 -8.740658e-01
144 2 4 -1.203807e+01 1.672675e+01 -5.387095e-01 0 -1 0 -6.890631e-01 -2.067723e-01 6.092440e-02 6.918999e-01
145 2 1 -1.219714e+01 1.646407e+01 6.954227e-03 0 -1 0 -6.463295e-01 -3.599190e-01 2.751926e-02 6.722791e-01
146 2 1 -1.259610e+01 1.618313e+01 1.042620e-01 0 -1 0 -8.406419e-01 -3.173303e-01 1.733128e-01 4.032188e-01
147 2 1 -1.291633e+01 1.576074e+01 3.555199e-01 0 -1 0 -9.014867e-01 -3.854177e-01 1.812953e-01 7.685628e-02
148 2 2 -1.289076e+01 1.521060e+01 5.231379e-01 0 -1 0 -9.033574e-01 -2.048523e-01 2.488635e-01 -2.829274e-01
149 2 4 -1.290898e+01 1.480703e+01 8.703582e-01 0 -1 0 8.726157e-01 2.717064e-01 -1.687602e-01 3.691036e-01
150 2 1 -1.267766e+01 1.440915e+01 1.212785e+00 0 -1 0 7.169268e-01 4.530692e-02 -2.868630e-01 6.337766e-01
151 2 1 -1.250710e+01 1.428673e+01 1.628103e+00 0 -1 0 4.606956e-01 6.189560e-02 -2.084494e-01 8.605099e-01
152 2 1 -1.234880e+01 1.422460e+01 2.212614e+00 0 -1 0 3.025456e-01 -5.622248e-02 -1.418760e-01 9.408381e-01
153 2 4 -1.246816e+01 1.439848e+01 2.654609e+00 0 -1 0 -3.781157e-02 -1.807206e-01 -1.397155e-01 9.728257e-01
154 2 1 -1.273140e+01 1.458147e+01 3.080136e+00 0 -1 0 -2.534004e-01 -2.390206e-01 1.048476e-02 9.373086e-01
155 2 2 -1.302275e+01 1.473518e+01 3.252913e+00 0 -1 0 -5.859202e-01 -1.623040e-01 2.534308e-01 7.524146e-01
156 2 4 -1.338109e+01 1.478927e+01 3.659546e+00 0 -1 0 -7.091782e-01 -2.733851e-01 1.930410e-01 6.205337e-01
157 2 3 -1.387044e+01 1.466657e+01 3.819607e+00 0 -1 0 -8.253897e-01 -2.841998e-01 2.705047e-01 4.059427e-01
158 2 2 -1.425321e+01 1.434195e+01 4.067985e+00 0 -1 0 -9.293520e-01 -2.300559e-01 2.783394e-01 7.685212e-02
159 2 1 -1.435468e+01 1.384125e+01 4.189165e+00 0 -1 0 -8.548691e-01 -2.432204e-01 3.648179e-01 -2.773995e-01
160 2 3 -1.447209e+01 1.347008e+01 4.530024e+00 0 -1 0 8.288785e-01 2.078068e-01 -2.041346e-01 4.776043e-01
161 2 1 -1.431478e+01 1.319195e+01 4.915683e+00 0 -1 0 6.602236e-01 1.050876e-01 -2.216590e-01 7.098793e-01
162 2 1 -1.405894e+01 1.310763e+01 5.396734e+00 0 -1 0 3.302236e-01 2.386711e-02 -2.130727e-01 9.192295e-01
163 2 4 -1.400080e+01 1.306897e+01 5.888091e+00 0 -1 0 2.126069e-01 -7.712419e-02 -3.704723e-02 9.733846e-01
164 2 4 -1.407351e+01 1.324183e+01 6.400536e+00 0 -1 0 -4.484561e-02 -1.469460e-01 9.057961e-03 9.880859e-01
165 2 3 -1.434076e+01 1.354537e+01 6.819822e+00 0 -1 0 -4.073245e-01 -1.397529e-01 -2.829907e-02 9.020837e-01
166 2 3 -1.470690e+01 1.357445e+01 7.166620e+00 0 -1 0 -5.887144e-01 -2.501753e-01 5.630932e-02 7.665879e-01
167 2 4 -1.521422e+01 1.353209e+01 7.193741e+00 0 -1 0 -8.028354e-01 -1.885772e-01 2.723826e-01 4.956830e-01
168 2 2 -1.569126e+01 1.322890e+01 7.377316e+00 0 -1 0 -9.348753e-01 -1.913760e-01 2.201802e-01 2.022478e-01
169 2 2 -1.579315e+01 1.274935e+01 7.703595e+00 0 -1 0 -9.637315e-01 -1.034866e-01 2.199519e-01 -1.101512e-01
170 2 1 -1.581175e+01 1.239172e+01 8.119705e+00 0 -1 0 -9.028242e-01 -6.666625e-02 1.598632e-01 -3.935833e-01
171 2 1 -1.569970e+01 1.213846e+01 8.587144e+00 0 -1 0 7.236144e-01 -6.995834e-02 -1.913922e-01 6.594369e-01
172 2 4 -1.554868e+01 1.220353e+01 9.101247e+00 0 -1 0 5.047867e-01 -1.676081e-01 -1.621618e-01 8.311447e-01
173 2 4 -1.552482e+01 1.240322e+01 9.604519e+00 0 -1 0 1.684043e-01 -1.885601e-01 -5.339246e-02 9.660405e-01
174 2 1 -1.560503e+01 1.256147e+01 1.003201e+01 0 -1 0 -7.354407e-03 -1.992888e-01 1.211711e-01 9.723926e-01
175 2 1 -1.583009e+01 1.296012e+01 1.030467e+01 0 -1 0 -2.783558e-01 -1.433836e-01 2.004157e-01 9.283279e-01
176 2 2 -1.629852e+01 1.325054e+01 1.056100e+01 0 -1 0 -5.874579e-01 -1.667895e-01 1.823535e-01 7.705983e-01
177 2 2 -1.679449e+01 1.320844e+01 1.073264e+01 0 -1 0 -8.486829e-01 -9.024264e-03 2.775222e-01 4.501526e-01
178 2 1 -1.709674e+01 1.317699e+01 1.116048e+01 0 -1 0 -9.295759e-01 -7.098089e-02 1.667370e-01 3.210126e-01
179 2 4 -1.724579e+01 1.284082e+01 1.154162e+01 0 -1 0 -9.811970e-01 -1.086061e-01 1.588058e-01 -1.542171e-02
180 2 1 -1.738294e+01 1.245437e+01 1.189426e+01 0 -1 0 -9.357919e-01 -4.547758e-02 1.639704e-01 -3.087702e-01
181 2 4 -1.721722e+01 1.218176e+01 1.230688e+01 0 -1 0 7.484500e-01 -1.558089e-02 -1.686482e-01 6.412001e-01
182 2 2 -1.706413e+01 1.214220e+01 1.281355e+01 0 -1 0 5.031079e-01 -4.144335e-02 -1.273061e-01 8.537904e-01
183 2 3 -1.702277e+01 1.225083e+01 1.335138e+01 0 -1 0 2.766208e-01 -1.156925e-01 -8.504738e-02 9.501911e-01
184 2 4 -1.706195e+01 1.246150e+01 1.385484e+01 0 -1 0 -9.126664e-02 1.548567e-01 -3.728091e-02 -9.830056e-01
185 2 3 -1.727611e+01 1.282457e+01 1.424422e+01 0 -1 0 -2.097673e-01 -1.951445e-01 4.015021e-02 9.572378e-01
186 2 1 -1.690455e+01 1.273826e+01 1.535248e+01 0 -1 0 -5.400467e-01 3.266693e-01 2.611837e-02 7.752126e-01
187 2 1 -1.679799e+01 1.298651e+01 1.584511e+01 0 -1 0 7.703045e-01 -2.114803e-01 1.606381e-01 -5.797434e-01
188 2 2 -1.695674e+01 1.290521e+01 1.629490e+01 0 -1 0 -9.572910e-01 1.939661e-01 -9.951094e-02 1.899176e-01
189 2 4 -1.674527e+01 1.303290e+01 1.682133e+01 0 -1 0 9.313805e-01 -9.809894e-02 3.411209e-01 -8.089227e-02
190 2 4 -1.635597e+01 1.285818e+01 1.717240e+01 0 -1 0 8.994433e-01 7.772812e-02 4.273785e-01 4.803875e-02
191 2 1 -1.668962e+01 1.270394e+01 1.807655e+01 0 -1 0 -1.727458e-01 -2.463459e-01 1.703671e-01 -9.383217e-01
192 2 4 -1.635279e+01 1.263832e+01 1.772633e+01 0 -1 0 -3.084217e-01 -9.118517e-02 3.851605e-01 8.649929e-01
193 2 4 -1.531522e+01 1.269181e+01 1.714348e+01 0 -1 0 -1.654127e-01 7.832674e-01 3.405659e-02 -5.983067e-01
194 2 1 -1.466040e+01 1.257713e+01 1.781888e+01 0 -1 0 4.297029e-01 -8.395001e-01 -3.198035e-01 -9.121759e-02
195 2 3 -1.398170e+01 1.250455e+01 1.743237e+01 0 -1 0 -4.665114e-01 -4.865691e-01 6.594903e-01 -3.327013e-01
196 2 4 -1.361606e+01 1.265209e+01 1.645604e+01 0 -1 0 -5.789038e-01 -6.296271e-01 -5.139124e-01 6.583453e-02
197 2 2 -1.326490e+01 1.228316e+01 1.608306e+01 0 -1 0 -4.713475e-01 -7.389536e-01 -4.700601e-01 -1.040317e-01
198 2 4 -1.291606e+01 1.209041e+01 1.578920e+01 0 -1 0 3.417780e-01 7.166543e-01 5.681839e-01 2.162438e-01
199 2 3 -1.253233e+01 1.143151e+01 1.585289e+01 0 -1 0 -2.796664e-01 -4.679439e-01 -5.254587e-01 -6.532292e-01
200 2 4 -1.220002e+01 1.174604e+01 1.565107e+01 0 -1 0 7.067055e-02 -6.668985e-01 -1.407458e-01 -7.283150e-01
