ITEM: TIMESTEP
331000000
ITEM: NUMBER OF ATOMS
200
ITEM: BOX BOUNDS pp pp pp
-2.0000000000000000e+01 2.0000000000000000e+01
-2.0000000000000000e+01 2.0000000000000000e+01
-2.0000000000000000e+01 2.0000000000000000e+01
ITEM: ATOMS id mol type x y z ix iy iz c_quat[1] c_quat[2] c_quat[3] c_quat[4]
1 1 1 -5.145671e+00 1.289185e+01 4.278314e-01 0 -1 0 -7.563801e-01 3.176969e-01 -1.468290e-01 5.526293e-01
2 1 2 -5.057374e+00 1.280601e+01 1.023755e+00 0 -1 0 -9.221790e-01 2.843304e-01 -2.402104e-01 1.050767e-01
3 1 1 -5.874705e+00 1.376400e+01 7.149423e-01 0 -1 0 7.385363e-02 4.925592e-01 -1.253370e-01 8.580336e-01
4 1 3 -5.745839e+00 1.338576e+01 -7.564711e-01 0 -1 0 -4.479884e-02 -6.132090e-01 2.677830e-01 7.417951e-01
5 1 1 -6.019104e+00 1.365991e+01 -9.795181e-01 0 -1 0 -2.483563e-01 -3.908109e-01 6.916618e-01 5.542473e-01
6 1 2 -6.380028e+00 1.372838e+01 -1.381516e+00 0 -1 0 4.630661e-01 -3.691458e-03 -8.037276e-01 -3.736015e-01
7 1 4 -7.239951e+00 1.384860e+01 -1.542098e+00 0 -1 0 1.710491e-01 -1.047751e-01 -9.623217e-01 -1.835794e-01
8 1 1 -7.626773e+00 1.379052e+01 -1.929260e+00 0 -1 0 -3.358588e-01 3.781158e-01 8.569134e-01 9.963279e-02
9 1 1 -7.441963e+00 1.431913e+01 -2.552274e+00 0 -1 0 1.231998e-01 -9.324813e-01 2.049815e-01 2.707083e-01
10 1 4 -8.155981e+00 1.360689e+01 -2.136245e+00 0 -1 0 6.168709e-01 5.870211e-01 -4.967423e-01 1.677009e-01
11 1 1 -8.952923e+00 1.430760e+01 -2.243837e+00 0 -1 0 1.823314e-01 8.744680e-01 -2.091846e-01 -3.978727e-01
12 1 1 -9.568082e+00 1.457176e+01 -1.659513e+00 0 -1 0 -3.909665e-01 5.824744e-01 -3.234659e-01 -6.350107e-01
13 1 3 -1.033749e+01 1.542934e+01 -1.641955e+00 0 -1 0 -1.325479e-01 -1.078235e-01 -1.593035e-01 -9.723310e-01
14 1 4 -1.043426e+01 1.618001e+01 -1.854358e+00 0 -1 0 -6.421682e-02 -6.531341e-01 -6.189527e-01 4.314970e-01
15 1 4 -9.359203e+00 1.545695e+01 -2.301093e+00 0 -1 0 8.059480e-01 2.433229e-01 -2.366959e-01 -4.849915e-01
16 1 2 -9.218501e+00 1.625778e+01 -1.225660e+00 0 -1 0 3.419002e-01 6.797335e-01 -5.258336e-01 3.802178e-01
17 1 1 -9.398790e+00 1.678064e+01 -5.650363e-01 0 -1 0 2.136094e-01 8.247391e-01 -3.819110e-01 3.582184e-01
18 1 2 -1.017869e+01 1.685006e+01 -5.642881e-01 0 -1 0 9.102845e-01 1.106731e-01 3.686666e-02 -3.972084e-01
19 1 3 -1.048002e+01 1.784822e+01 5.845795e-01 0 -1 0 4.648218e-01 -5.545994e-01 -4.616315e-01 5.130853e-01
20 1 1 -1.093207e+01 1.801868e+01 7.994158e-01 0 -1 0 -2.034974e-01 7.043241e-01 2.618674e-01 -6.276479e-01
21 1 4 -1.143446e+01 1.817334e+01 6.828006e-01 0 -1 0 -3.308314e-02 8.094253e-01 -3.687271e-02 -5.851295e-01
22 1 1 -1.185885e+01 1.845250e+01 3.655634e-01 0 -1 0 -3.191717e-01 -7.324024e-01 2.926618e-01 5.254191e-01
23 1 4 -1.140506e+01 1.872053e+01 1.260874e+00 0 -1 0 -5.618301e-01 5.855506e-01 -4.744701e-01 -3.411093e-01
24 1 3 -1.118504e+01 1.958060e+01 1.303400e+00 0 -1 0 -5.568890e-01 -8.218566e-01 -1.161853e-01 -3.045152e-02
25 1 3 -1.178310e+01 -2.009239e+01 2.216783e+00 0 0 0 4.160388e-01 6.509496e-01 1.096155e-01 6.254285e-01
26 1 4 -1.269008e+01 -2.009128e+01 1.686027e+00 0 0 0 2.997364e-01 1.562685e-01 8.876276e-01 -3.128187e-01
27 1 4 -1.268003e+01 1.950499e+01 2.238004e+00 0 -1 0 -7.657756e-01 -2.293291e-01 1.093615e-01 5.907927e-01
28 1 1 -1.252173e+01 -2.010083e+01 3.039246e+00 0 0 0 -7.341926e-01 -6.408162e-01 1.127140e-01 -1.939364e-01
29 1 1 -1.337212e+01 -2.021073e+01 4.086111e+00 0 0 0 -5.641059e-01 7.122647e-01 4.096794e-01 -8.140202e-02
30 1 4 -1.349854e+01 1.873957e+01 3.918391e+00 0 -1 0 -9.643592e-01 1.342243e-01 -2.273663e-01 -1.731469e-02
31 1 4 -1.387299e+01 1.898521e+01 4.468055e+00 0 -1 0 8.913507e-01 2.172961e-01 1.128046e-01 -3.815121e-01
32 1 3 -1.389328e+01 1.852770e+01 4.754726e+00 0 -1 0 -9.847648e-01 -1.595617e-01 -6.272768e-02 -2.904577e-02
33 1 3 -1.355366e+01 1.827225e+01 5.027614e+00 0 -1 0 -8.251208e-01 -3.081191e-01 -8.294071e-02 -4.662178e-01
34 1 1 -1.374704e+01 1.744768e+01 5.496914e+00 0 -1 0 -9.374391e-01 -1.352621e-01 -4.204758e-02 -3.180315e-01
35 1 2 -1.346836e+01 1.717079e+01 5.850571e+00 0 -1 0 7.477553e-01 4.883737e-02 3.649267e-02 6.611696e-01
36 1 2 -1.366367e+01 1.594254e+01 6.664189e+00 0 -1 0 6.331539e-01 1.454722e-01 -7.602304e-01 -1.921538e-03
37 1 1 -1.372142e+01 1.580582e+01 5.287839e+00 0 -1 0 -9.167163e-02 -4.733917e-01 6.282566e-01 6.105655e-01
38 1 1 -1.356046e+01 1.498918e+01 6.076931e+00 0 -1 0 -9.272843e-01 3.721133e-01 -3.732150e-02 1.681231e-02
39 1 4 -1.378451e+01 1.533245e+01 5.166098e+00 0 -1 0 -8.259620e-02 5.053912e-02 2.063096e-01 9.736837e-01
40 1 4 -1.324236e+01 1.497802e+01 4.933755e+00 0 -1 0 2.550284e-01 -5.017665e-01 1.721521e-01 -8.084272e-01
41 1 2 -1.283561e+01 1.493886e+01 5.301766e+00 0 -1 0 3.827953e-01 -3.437139e-01 3.866666e-01 -7.653871e-01
42 1 4 -1.254853e+01 1.477726e+01 5.735706e+00 0 -1 0 6.015075e-01 -1.367226e-01 5.487307e-01 -5.642608e-01
43 1 3 -1.212486e+01 1.455205e+01 5.825325e+00 0 -1 0 -5.206017e-01 -1.101726e-01 -7.858246e-01 3.151438e-01
44 1 2 -1.128767e+01 1.465793e+01 5.629439e+00 0 -1 0 -2.122623e-01 3.151676e-01 -9.244911e-01 3.050020e-02
45 1 1 -1.113575e+01 1.418400e+01 5.405462e+00 0 -1 0 3.814761e-01 1.299482e-01 9.125162e-01 7.002532e-02
46 1 3 -1.045373e+01 1.425797e+01 6.123559e+00 0 -1 0 -1.242180e-01 -8.495942e-01 3.390327e-01 3.844690e-01
47 1 4 -1.052884e+01 1.383696e+01 6.640437e+00 0 -1 0 7.365565e-01 4.147946e-01 4.629162e-01 2.667181e-01
48 1 1 -1.018731e+01 1.291136e+01 6.503163e+00 0 -1 0 3.279043e-01 5.343841e-01 -5.748203e-01 -5.258271e-01
49 1 4 -9.428080e+00 1.330596e+01 6.869171e+00 0 -1 0 -1.085736e-01 -9.371364e-01 -2.319044e-01 -2.370813e-01
50 1 4 -8.993638e+00 1.316915e+01 7.163078e+00 0 -1 0 6.574443e-01 -5.847750e-01 4.706292e-01 6.567631e-02
51 1 4 -8.538221e+00 1.342364e+01 7.077155e+00 0 -1 0 -5.393182e-01 3.131769e-01 -7.085788e-01 -3.301094e-01
52 1 1 -8.093323e+00 1.359988e+01 6.895089e+00 0 -1 0 -3.217606e-01 5.949720e-03 -8.012733e-01 -5.043767e-01
53 1 3 -7.114188e+00 1.315717e+01 6.545072e+00 0 -1 0 3.263470e-01 8.349484e-01 -4.134706e-01 -1.593762e-01
54 1 4 -7.076337e+00 1.431480e+01 6.543666e+00 0 -1 0 -7.441217e-01 -4.613118e-01 -8.995550e-02 -4.747444e-01
55 1 4 -6.526575e+00 1.429250e+01 6.521802e+00 0 -1 0 4.154218e-01 5.502993e-01 -1.229647e-01 7.137752e-01
56 1 4 -6.178748e+00 1.416776e+01 6.696446e+00 0 -1 0 -7.057266e-02 -4.824117e-01 5.081010e-02 -8.716174e-01
57 1 1 -5.905895e+00 1.439326e+01 6.866433e+00 0 -1 0 3.486269e-01 -5.135243e-01 1.980458e-01 -7.586369e-01
58 1 1 -5.640136e+00 1.468264e+01 7.247624e+00 0 -1 0 -5.992431e-01 4.856993e-01 -4.233195e-01 4.751890e-01
59 1 3 -4.904094e+00 1.552451e+01 6.943861e+00 0 -1 0 -9.352605e-01 2.656270e-01 -1.525769e-01 -1.773427e-01
60 1 4 -4.490124e+00 1.562393e+01 7.204966e+00 0 -1 0 7.737959e-01 -1.057221e-01 2.653399e-01 5.653826e-01
61 1 2 -4.124485e+00 1.589651e+01 7.510875e+00 0 -1 0 5.837812e-01 -1.643084e-01 3.897838e-01 6.930158e-01
62 1 3 -4.945925e+00 1.610355e+01 8.886684e+00 0 -1 0 -4.036961e-01 2.545125e-01 8.306738e-01 -2.867644e-01
63 1 2 -5.454731e+00 1.589248e+01 9.035807e+00 0 -1 0 -1.823138e-01 5.731978e-01 6.243205e-01 -4.984274e-01
64 1 4 -5.926066e+00 1.578661e+01 8.932873e+00 0 -1 0 4.891259e-03 -8.005155e-01 -4.282585e-01 4.192203e-01
65 1 2 -6.461106e+00 1.542891e+01 1.000927e+01 0 -1 0 -4.088652e-02 1.050953e-01 7.094289e-01 -6.956967e-01
66 1 1 -6.638057e+00 1.521788e+01 1.036553e+01 0 -1 0 4.553061e-01 3.136259e-01 5.810239e-01 -5.972825e-01
67 1 2 -6.571062e+00 1.522833e+01 1.016337e+01 0 -1 0 2.172790e-01 8.914046e-01 -3.225864e-01 -2.326494e-01
68 1 1 -6.573703e+00 1.452279e+01 1.023110e+01 0 -1 0 8.786438e-01 3.090409e-01 1.201342e-01 3.435789e-01
69 1 1 -7.314145e+00 1.392727e+01 1.029477e+01 0 -1 0 6.756105e-01 9.926668e-02 -6.801598e-01 2.666068e-01
70 1 2 -7.491366e+00 1.343046e+01 1.037633e+01 0 -1 0 1.181071e-01 3.259054e-01 -5.227023e-01 7.788573e-01
71 1 3 -7.278622e+00 1.312754e+01 1.075736e+01 0 -1 0 -1.232291e-01 6.877005e-02 -7.149037e-01 6.848342e-01
72 1 4 -7.367382e+00 1.272995e+01 1.102857e+01 0 -1 0 4.958963e-01 2.065977e-01 6.177708e-01 -5.742503e-01
73 1 1 -7.476730e+00 1.232108e+01 1.101944e+01 0 -1 0 7.722320e-01 4.600681e-01 3.744166e-01 -2.276121e-01
74 1 1 -7.527895e+00 1.178592e+01 1.100041e+01 0 -1 0 7.540371e-01 6.101112e-01 2.390680e-01 4.515423e-02
75 1 3 -8.275241e+00 1.228058e+01 1.099570e+01 0 -1 0 3.121916e-01 -5.272407e-01 3.046427e-01 7.292095e-01
76 1 1 -9.371754e+00 1.246420e+01 1.093849e+01 0 -1 0 1.765752e-01 -1.675943e-01 4.382007e-01 8.652823e-01
77 1 4 -9.446128e+00 1.295491e+01 1.091213e+01 0 -1 0 3.018429e-01 -6.375764e-02 -3.842524e-01 -8.701586e-01
78 1 1 -9.597570e+00 1.325143e+01 1.101201e+01 0 -1 0 -3.705285e-01 2.852364e-01 -3.864597e-01 -7.949829e-01
79 1 4 -1.004120e+01 1.313373e+01 1.190773e+01 0 -1 0 5.474881e-01 -6.977016e-01 -7.318865e-02 4.561936e-01
80 1 2 -1.016465e+01 1.357695e+01 1.205469e+01 0 -1 0 -3.067367e-01 6.440213e-01 -2.280566e-01 -6.626759e-01
81 1 4 -1.146545e+01 1.385163e+01 1.268670e+01 0 -1 0 -2.446118e-02 -1.861764e-01 -5.251314e-01 8.300464e-01
82 1 4 -1.173129e+01 1.378052e+01 1.305749e+01 0 -1 0 -3.735204e-01 -2.697568e-01 -3.871242e-01 7.986542e-01
83 1 4 -1.205233e+01 1.363297e+01 1.343320e+01 0 -1 0 6.279242e-01 3.595352e-01 2.349304e-01 -6.490403e-01
84 1 4 -1.132220e+01 1.302116e+01 1.429573e+01 0 -1 0 6.458127e-01 -6.713931e-01 3.567665e-01 -6.981983e-02
85 1 1 -1.089458e+01 1.331529e+01 1.440275e+01 0 -1 0 -5.167762e-01 5.301489e-01 -5.456429e-01 -3.926300e-01
86 1 1 -1.063494e+01 1.426776e+01 1.479294e+01 0 -1 0 -8.014320e-01 4.243156e-01 2.357756e-01 -3.493892e-01
87 1 3 -1.184701e+01 1.446237e+01 1.509882e+01 0 -1 0 -5.766689e-01 6.053961e-01 1.693855e-01 5.217826e-01
88 1 2 -1.175290e+01 1.485704e+01 1.539412e+01 0 -1 0 -7.024588e-01 6.508593e-01 -1.914903e-01 2.150937e-01
89 1 2 -1.140259e+01 1.572671e+01 1.456771e+01 0 -1 0 6.124802e-01 -6.427098e-01 -3.405714e-02 4.589468e-01
90 1 3 -1.131629e+01 1.649271e+01 1.454013e+01 0 -1 0 -2.951052e-01 -6.340534e-01 -3.521911e-01 -6.219732e-01
91 1 3 -1.107046e+01 1.698471e+01 1.485826e+01 0 -1 0 -2.243790e-01 9.716798e-01 -7.340323e-02 1.022063e-02
92 1 2 -1.035008e+01 1.643787e+01 1.409067e+01 0 -1 0 8.923762e-01 2.063535e-01 2.568978e-01 3.083609e-01
93 1 1 -1.083141e+01 1.605093e+01 1.331200e+01 0 -1 0 -3.828445e-01 4.012967e-01 -8.046046e-01 -2.121379e-01
94 1 2 -1.046829e+01 1.605831e+01 1.298313e+01 0 -1 0 2.461579e-01 9.477412e-03 8.992010e-01 3.615992e-01
95 1 3 -1.034406e+01 1.607207e+01 1.247558e+01 0 -1 0 1.152382e-01 4.708874e-01 7.711053e-01 4.127733e-01
96 1 2 -1.019981e+01 1.616787e+01 1.200712e+01 0 -1 0 -1.066712e-01 6.178932e-01 7.234832e-01 2.887928e-01
97 1 2 -9.810188e+00 1.657675e+01 1.224473e+01 0 -1 0 2.769762e-01 8.721478e-02 -7.925874e-01 5.361744e-01
98 1 4 -9.371978e+00 1.683061e+01 1.222245e+01 0 -1 0 -2.252673e-01 -8.709768e-01 2.482273e-01 3.592176e-01
99 1 2 -9.656325e+00 1.776289e+01 1.299761e+01 0 -1 0 -2.678802e-01 -5.562183e-02 -5.501436e-02 -9.602707e-01
100 1 1 -9.575868e+00 1.802000e+01 1.336585e+01 0 -1 0 -2.053374e-01 1.000619e-01 -2.385520e-02 9.732703e-01
101 2 4 -2.701069e+00 2.402769e+00 -1.311528e+01 0 -1 0 2.963207e-01 4.717806e-02 -8.447318e-01 -4.431663e-01
102 2 3 -1.504914e+00 3.026842e+00 -1.279564e+01 0 -1 0 5.440139e-01 -5.032069e-01 5.478091e-01 3.882485e-01
103 2 1 -2.264293e+00 2.247044e+00 -1.176185e+01 0 -1 0 6.411407e-01 -3.000107e-01 -1.543946e-01 -6.892710e-01
104 2 3 -2.703263e+00 2.509262e+00 -1.254385e+01 0 -1 0 7.431168e-01 3.138797e-01 -2.802628e-01 -5.202978e-01
105 2 3 -3.070956e+00 2.302946e+00 -1.224566e+01 0 -1 0 9.378216e-01 -7.733644e-02 -3.337425e-01 -5.590728e-02
106 2 2 -3.266750e+00 2.237151e+00 -1.175086e+01 0 -1 0 -9.402960e-01 1.205067e-01 1.356184e-01 -2.879744e-01
107 2 3 -4.069910e+00 3.300814e+00 -1.133069e+01 0 -1 0 -3.925434e-02 4.217759e-01 -1.201336e-02 9.057703e-01
108 2 4 -4.022391e+00 2.873169e+00 -1.154258e+01 0 -1 0 4.077357e-01 7.901879e-03 5.130600e-01 7.552871e-01
109 2 3 -4.421557e+00 3.097194e+00 -1.023776e+01 0 -1 0 4.686329e-01 -1.948551e-01 -3.670454e-01 7.795463e-01
110 2 2 -4.413716e+00 2.372724e+00 -9.900890e+00 0 -1 0 4.455065e-03 -4.953318e-01 1.112883e-01 -8.615343e-01
111 2 2 -4.106606e+00 2.571649e+00 -9.605542e+00 0 -1 0 3.940836e-01 -3.964851e-01 1.655059e-01 -8.124688e-01
112 2 3 -3.970792e+00 3.481660e+00 -9.179439e+00 0 -1 0 6.378871e-01 -1.165958e-01 -4.877440e-01 5.844751e-01
113 2 3 -3.661609e+00 3.850337e+00 -9.685322e+00 0 -1 0 3.729109e-01 6.821051e-01 6.117253e-01 1.465001e-01
114 2 2 -2.451014e+00 3.304833e+00 -9.492146e+00 0 -1 0 -8.750140e-01 -2.936734e-01 -2.053015e-01 -3.255113e-01
115 2 4 -2.459750e+00 3.291606e+00 -8.638173e+00 0 -1 0 4.775076e-01 -2.533586e-01 -1.030849e-01 8.349667e-01
116 2 4 -2.108646e+00 3.448480e+00 -8.882898e+00 0 -1 0 -4.105080e-01 -4.502320e-01 -6.820413e-01 -4.044675e-01
117 2 1 -1.780781e+00 3.473842e+00 -9.275405e+00 0 -1 0 2.463805e-01 6.932787e-01 4.924446e-01 4.649296e-01
118 2 1 -1.461215e+00 3.714884e+00 -9.578849e+00 0 -1 0 2.689575e-02 8.424672e-01 1.730818e-01 5.094785e-01
119 2 1 -1.129126e+00 4.006812e+00 -9.757062e+00 0 -1 0 -1.780170e-01 8.280688e-01 -1.384211e-01 5.132754e-01
120 2 1 -7.604676e-01 4.331462e+00 -9.721990e+00 0 -1 0 4.159047e-01 -6.946152e-01 4.385726e-01 -3.901117e-01
121 2 3 -3.881673e-01 4.867715e+00 -9.638769e+00 0 -1 0 -8.664495e-01 3.080887e-01 3.620828e-01 1.524552e-01
122 2 1 -4.290398e-01 5.845468e+00 -9.883876e+00 0 -1 0 -2.203240e-01 4.187854e-01 8.287583e-01 -2.987237e-01
123 2 4 2.693801e-01 6.443461e+00 -1.034556e+01 0 -1 0 -6.847623e-01 6.427045e-01 -2.685436e-01 -2.142800e-01
124 2 1 3.955146e-01 6.957586e+00 -1.028092e+01 0 -1 0 -6.860677e-01 5.777811e-01 -4.175951e-01 -1.452395e-01
125 2 4 7.658023e-01 7.303282e+00 -1.024946e+01 0 -1 0 -6.013989e-01 3.733649e-01 -6.198609e-01 -3.386599e-01
126 2 2 7.086634e-01 6.812381e+00 -9.811486e+00 0 -1 0 7.263827e-01 5.392133e-01 2.949655e-01 -3.075916e-01
127 2 4 1.321567e+00 6.964173e+00 -8.270341e+00 0 -1 0 1.562808e-01 -6.522651e-01 5.638227e-01 -4.819031e-01
128 2 4 1.592723e+00 7.281492e+00 -7.753299e+00 0 -1 0 -9.706743e-02 -2.554701e-01 5.419981e-01 -7.947019e-01
129 2 1 1.669075e+00 6.903387e+00 -7.391525e+00 0 -1 0 2.072139e-01 5.929845e-03 5.440951e-01 -8.130116e-01
130 2 2 2.220095e+00 6.438091e+00 -7.729540e+00 0 -1 0 3.073990e-01 8.601525e-01 1.666918e-01 -3.712914e-01
131 2 3 1.886191e+00 6.079309e+00 -7.299643e+00 0 -1 0 3.185679e-01 8.874286e-01 -9.084954e-02 -3.205172e-01
132 2 4 1.566455e+00 4.728153e+00 -6.494272e+00 0 -1 0 -1.058122e-01 4.530417e-01 -7.481678e-01 4.730770e-01
133 2 4 2.008529e+00 4.851661e+00 -5.912149e+00 0 -1 0 -6.966703e-01 5.204313e-01 2.144750e-01 -4.447495e-01
134 2 3 1.974872e+00 5.107131e+00 -5.606698e+00 0 -1 0 -2.664374e-03 1.097691e-01 -2.885065e-01 9.511612e-01
135 2 4 2.373441e+00 4.152317e+00 -5.440999e+00 0 -1 0 5.913041e-01 -5.014159e-01 -1.936117e-01 -6.012121e-01
136 2 3 3.493679e+00 3.699602e+00 -6.527509e+00 0 -1 0 -6.325767e-01 -5.790547e-01 3.973951e-01 3.265265e-01
137 2 1 3.003454e+00 3.626551e+00 -6.023683e+00 0 -1 0 -2.983943e-01 -4.833901e-01 3.656044e-01 7.373115e-01
138 2 3 3.005637e+00 3.075161e+00 -4.688226e+00 0 -1 0 -3.517862e-01 -4.783838e-01 7.907371e-01 -1.487626e-01
139 2 2 3.541816e+00 3.951287e+00 -4.442922e+00 0 -1 0 1.731868e-01 7.583278e-01 -3.821876e-01 4.988766e-01
140 2 3 4.222823e+00 4.572199e+00 -4.691519e+00 0 -1 0 -7.624629e-01 5.802303e-01 1.256379e-02 -2.860514e-01
141 2 1 4.408032e+00 4.949467e+00 -4.416050e+00 0 -1 0 5.713421e-01 -4.363098e-01 2.552800e-01 6.465555e-01
142 2 2 4.659383e+00 4.161052e+00 -4.406655e+00 0 -1 0 2.560261e-01 -2.966772e-01 8.754855e-01 2.827691e-01
143 2 4 5.339035e+00 4.136803e+00 -4.645155e+00 0 -1 0 -3.705874e-01 -5.221651e-01 7.664748e-01 5.024940e-02
144 2 4 5.265717e+00 3.697417e+00 -4.926931e+00 0 -1 0 -3.318224e-01 -1.045507e-01 9.307242e-01 -1.127627e-01
145 2 1 4.879638e+00 3.327511e+00 -5.139284e+00 0 -1 0 -2.874330e-01 2.010174e-01 8.963714e-01 -2.710952e-01
146 2 1 5.110486e+00 2.756499e+00 -5.583113e+00 0 -1 0 1.235060e-02 -2.004858e-01 -8.802905e-01 4.298157e-01
147 2 1 5.451560e+00 1.871086e+00 -5.458486e+00 0 -1 0 -9.651420e-02 -5.929269e-01 7.178100e-01 -3.519539e-01
148 2 2 5.712253e+00 1.488086e+00 -5.479498e+00 0 -1 0 7.833074e-01 6.162606e-02 -2.955585e-01 5.433939e-01
149 2 4 5.810456e+00 1.204689e+00 -5.078470e+00 0 -1 0 -6.245442e-01 -2.472856e-02 3.403587e-01 -7.024877e-01
150 2 1 5.852040e+00 1.160408e+00 -4.700665e+00 0 -1 0 1.042743e-01 -7.241526e-02 -3.386652e-01 9.323030e-01
151 2 1 5.702936e+00 1.112832e+00 -4.200614e+00 0 -1 0 -1.026707e-01 -2.919621e-01 -1.869934e-01 9.323360e-01
152 2 1 6.352228e+00 1.247904e+00 -3.846010e+00 0 -1 0 4.724686e-01 6.541043e-01 -5.906938e-01 1.326377e-03
153 2 4 5.911623e+00 1.476078e+00 -3.542745e+00 0 -1 0 6.046358e-01 -2.605329e-01 4.345582e-01 6.145709e-01
154 2 1 5.174207e+00 1.533773e+00 -2.807616e+00 0 -1 0 -2.753932e-01 -8.773207e-01 -3.712218e-01 1.290790e-01
155 2 2 4.039234e+00 1.392901e+00 -2.636971e+00 0 -1 0 -3.720938e-02 -1.827838e-01 -8.345961e-01 -5.183193e-01
156 2 4 3.909716e+00 9.579104e-01 -1.948594e+00 0 -1 0 -6.727112e-01 -3.891041e-02 6.700547e-01 -3.114037e-01
157 2 3 3.187957e+00 3.681129e-01 -2.452027e+00 0 -1 0 2.033846e-01 -3.064880e-01 -7.639046e-01 -5.302354e-01
158 2 2 4.082342e+00 6.058254e-02 -2.785470e+00 0 -1 0 4.704863e-01 -7.847642e-01 2.748965e-01 -2.953299e-01
159 2 1 2.779299e+00 -1.339872e-02 -3.517945e+00 0 -1 0 -5.943516e-01 -4.510617e-01 -6.248544e-01 2.298838e-01
160 2 3 3.568491e+00 6.138089e-01 -4.097321e+00 0 -1 0 5.672994e-03 8.470880e-01 -2.038908e-01 -4.907528e-01
161 2 1 3.078987e+00 7.647933e-01 -4.424612e+00 0 -1 0 -3.495131e-02 -9.058692e-01 1.790317e-01 3.822656e-01
162 2 1 2.812275e+00 9.285022e-01 -4.787851e+00 0 -1 0 -1.309422e-01 -8.419738e-01 4.527034e-01 2.626668e-01
163 2 4 1.498315e+00 1.664874e-01 -4.559937e+00 0 -1 0 7.535894e-01 8.361025e-02 -4.360693e-02 -6.505465e-01
164 2 4 1.192329e+00 -8.382979e-02 -4.284195e+00 0 -1 0 9.587189e-01 5.028724e-02 -1.651969e-01 -2.259185e-01
165 2 3 7.669873e-01 3.258233e-01 -3.379494e+00 0 -1 0 3.351064e-01 5.790883e-01 -4.082264e-01 6.210569e-01
166 2 3 1.126464e+00 5.732803e-02 -3.168561e+00 0 -1 0 1.981228e-02 3.303354e-01 -5.782759e-01 7.457097e-01
167 2 4 6.180951e-01 -6.384092e-01 -3.739624e+00 0 -1 0 3.030617e-01 3.594261e-01 5.813380e-01 -6.640878e-01
168 2 2 1.122302e+00 -1.195112e+00 -2.972433e+00 0 -1 0 -5.533094e-01 8.058432e-01 -1.976511e-01 -7.348203e-02
169 2 2 1.035606e+00 -2.370896e+00 -2.847583e+00 0 -1 0 6.997825e-01 2.500333e-01 -6.391046e-01 -1.983258e-01
170 2 1 3.403043e-01 -2.233205e+00 -2.068697e+00 0 -1 0 1.426049e-01 -9.870588e-02 4.076480e-01 -8.965178e-01
171 2 1 1.454019e+00 -2.041419e+00 -1.666996e+00 0 -1 0 -7.031635e-01 6.518002e-01 -2.695409e-01 8.980678e-02
172 2 4 1.934361e+00 -2.450857e+00 -1.715612e+00 0 -1 0 4.157673e-01 5.938211e-01 -6.838410e-01 -8.291885e-02
173 2 4 1.372860e+00 -1.518208e+00 -6.513972e-01 0 -1 0 5.449852e-01 -7.334629e-01 -3.846350e-01 -1.306875e-01
174 2 1 4.248170e-01 -1.718607e+00 -9.047337e-01 0 -1 0 6.387736e-01 -8.283067e-02 -6.896648e-01 -3.308624e-01
175 2 1 1.572796e-01 -2.155646e+00 -7.099072e-01 0 -1 0 -7.960660e-01 5.288714e-01 3.750924e-02 2.918338e-01
176 2 2 -2.365694e-02 -3.128243e+00 -1.304537e+00 0 -1 0 -8.777390e-01 -5.903969e-02 -3.824277e-01 2.825555e-01
177 2 2 1.170551e-01 -3.431758e+00 -1.076972e+00 0 -1 0 -9.059652e-01 -1.620685e-01 -2.916216e-01 -2.606103e-01
178 2 1 -4.055195e-01 -3.465441e+00 -1.394177e+00 0 -1 0 2.171220e-01 8.456918e-01 -4.799600e-01 -8.545087e-02
179 2 4 -1.380576e+00 -3.765187e+00 -3.235815e-01 0 -1 0 -2.910877e-01 -1.586473e-01 7.639721e-01 -5.535753e-01
180 2 1 -1.552789e+00 -4.200359e+00 -1.689476e-01 0 -1 0 -5.298483e-02 2.682993e-01 7.446739e-01 -6.088258e-01
181 2 4 -3.647617e-01 -4.719460e+00 -1.192722e+00 0 -1 0 8.635524e-01 3.104327e-01 3.534825e-01 1.815456e-01
182 2 2 -4.267899e-02 -5.116820e+00 -1.205433e+00 0 -1 0 7.631797e-01 4.105279e-01 1.911791e-01 4.609491e-01
183 2 3 4.111251e-01 -5.235125e+00 -1.158363e+00 0 -1 0 5.208119e-01 4.391930e-01 -2.496640e-02 7.316017e-01
184 2 4 8.417660e-01 -5.208662e+00 -8.990000e-01 0 -1 0 -7.872053e-02 -3.515463e-01 2.879099e-01 -8.873140e-01
185 2 3 6.413129e-01 -5.351799e+00 -1.902718e+00 0 -1 0 5.002852e-02 4.623018e-01 -8.191784e-01 -3.357395e-01
186 2 1 7.320016e-02 -5.429830e+00 -2.459832e+00 0 -1 0 -3.492472e-01 -2.137977e-01 7.637338e-01 4.990266e-01
187 2 1 5.457485e-01 -4.594162e+00 -2.822832e+00 0 -1 0 2.529806e-01 7.076485e-01 -1.062374e-02 6.596374e-01
188 2 2 7.211056e-01 -4.666094e+00 -3.762632e+00 0 -1 0 6.199537e-02 -9.869082e-01 -1.305676e-01 7.156032e-02
189 2 4 -5.735038e-01 -5.088704e+00 -3.260141e+00 0 -1 0 -3.080331e-01 1.203352e-01 8.859319e-01 -3.252073e-01
190 2 4 -9.831224e-01 -5.454370e+00 -3.436554e+00 0 -1 0 -3.816025e-01 3.994025e-01 7.635653e-01 -3.344029e-01
191 2 1 -1.095605e+00 -6.208813e+00 -4.185645e+00 0 -1 0 7.273434e-01 4.138615e-01 4.840511e-01 2.557044e-01
192 2 4 -7.308436e-01 -6.362573e+00 -4.377687e+00 0 -1 0 -5.149777e-01 -6.653862e-01 -2.224975e-01 -4.924977e-01
193 2 4 -7.195378e-01 -7.842217e+00 -4.641579e+00 0 -1 0 -3.602864e-01 -6.303172e-01 5.836701e-01 3.636251e-01
194 2 1 -1.615587e+00 -7.157276e+00 -4.161279e+00 0 -1 0 -4.592285e-01 1.447026e-02 7.640489e-02 -8.849080e-01
195 2 3 -1.837907e+00 -8.245666e+00 -4.788939e+00 0 -1 0 3.024531e-01 -5.153360e-01 5.206189e-01 6.098417e-01
196 2 4 -2.500977e+00 -7.829460e+00 -3.962173e+00 0 -1 0 4.557794e-01 -6.126572e-01 -2.086749e-01 6.110410e-01
197 2 2 -2.952926e+00 -7.535432e+00 -3.907872e+00 0 -1 0 5.083869e-01 -6.641735e-01 -7.267994e-02 5.432623e-01
198 2 4 -3.278936e+00 -8.344971e+00 -3.139962e+00 0 -1 0 -6.550272e-01 5.543541e-01 -5.062643e-01 8.559967e-02
199 2 3 -3.639216e+00 -7.734063e+00 -3.406478e+00 0 -1 0 9.143246e-01 -1.704446e-01 -3.395999e-01 -1.401110e-01
200 2 4 -4.075456e+00 -6.496591e+00 -3.850488e+00 0 -1 0 -3.490643e-01 5.942771e-01 -2.763755e-02 -7.240339e-01
