ITEM: TIMESTEP
333000000
ITEM: NUMBER OF ATOMS
200
ITEM: BOX BOUNDS pp pp pp
-2.0000000000000000e+01 2.0000000000000000e+01
-2.0000000000000000e+01 2.0000000000000000e+01
-2.0000000000000000e+01 2.0000000000000000e+01
ITEM: ATOMS id mol type x y z ix iy iz c_quat[1] c_quat[2] c_quat[3] c_quat[4]
1 1 1 -7.283980e+00 1.071921e+01 -1.746110e-01 0 -1 0 -3.298116e-01 2.919736e-01 -5.525508e-01 -7.075757e-01
2 1 2 -7.801188e+00 1.094292e+01 1.096957e+00 0 -1 0 -4.918529e-01 1.748904e-01 1.197569e-01 8.444835e-01
3 1 1 -8.114587e+00 1.114351e+01 1.466164e+00 0 -1 0 -7.868492e-01 1.036285e-01 1.036469e-01 5.994888e-01
4 1 3 -8.419708e+00 1.108157e+01 1.851786e+00 0 -1 0 9.643034e-01 -1.423823e-01 -3.759608e-02 -2.200746e-01
5 1 1 -8.806206e+00 1.188325e+01 2.615028e+00 0 -1 0 5.654383e-01 -4.191034e-01 -3.411158e-01 -6.231146e-01
6 1 2 -8.002935e+00 1.281326e+01 2.094902e+00 0 -1 0 -1.736713e-01 5.499043e-01 -4.851632e-01 -6.573129e-01
7 1 4 -8.337865e+00 1.339369e+01 2.283605e+00 0 -1 0 3.562252e-01 9.228737e-01 -8.825005e-02 1.167029e-01
8 1 1 -8.500050e+00 1.327505e+01 3.151391e+00 0 -1 0 -3.322807e-01 4.655832e-01 -7.861869e-01 2.339487e-01
9 1 1 -8.889024e+00 1.435571e+01 3.256482e+00 0 -1 0 4.289340e-01 -3.101092e-01 3.291872e-01 7.819743e-01
10 1 4 -8.857745e+00 1.479745e+01 3.449218e+00 0 -1 0 -5.147902e-04 1.909072e-01 -4.112165e-01 -8.913221e-01
11 1 1 -8.897692e+00 1.532950e+01 3.534373e+00 0 -1 0 3.703522e-01 1.851490e-03 -4.451794e-01 -8.152614e-01
12 1 1 -9.397540e+00 1.558810e+01 3.715714e+00 0 -1 0 -6.323877e-01 3.438846e-01 2.807724e-01 6.348197e-01
13 1 3 -9.691084e+00 1.590815e+01 4.041436e+00 0 -1 0 8.342516e-01 -4.152979e-01 -2.224155e-01 -2.865018e-01
14 1 4 -1.027332e+01 1.668924e+01 3.927274e+00 0 -1 0 -7.131232e-01 5.688563e-01 2.508567e-01 3.239270e-01
15 1 4 -1.067796e+01 1.721367e+01 3.528290e+00 0 -1 0 -4.490064e-01 5.368942e-01 -2.125501e-01 6.818799e-01
16 1 2 -1.129457e+01 1.701811e+01 2.455842e+00 0 -1 0 5.406230e-01 4.183678e-01 -5.131451e-01 -5.190157e-01
17 1 1 -1.183636e+01 1.682090e+01 2.516591e+00 0 -1 0 7.558286e-01 2.363946e-01 -5.696806e-01 -2.197832e-01
18 1 2 -1.216912e+01 1.645886e+01 2.490493e+00 0 -1 0 -7.082024e-01 1.080612e-01 6.976401e-01 -8.399371e-03
19 1 3 -1.264815e+01 1.624005e+01 2.527654e+00 0 -1 0 -6.892347e-01 3.447069e-01 5.805569e-01 -2.628428e-01
20 1 1 -1.299454e+01 1.624246e+01 2.855583e+00 0 -1 0 4.724966e-01 -5.687497e-01 -3.713724e-01 5.615633e-01
21 1 4 -1.349406e+01 1.656863e+01 3.056833e+00 0 -1 0 -2.394412e-01 7.136975e-01 3.872526e-02 -6.571180e-01
22 1 1 -1.346052e+01 1.591648e+01 3.339945e+00 0 -1 0 3.803548e-01 6.467249e-01 5.828568e-01 3.120177e-01
23 1 4 -1.401595e+01 1.562042e+01 4.441586e+00 0 -1 0 3.141168e-02 -5.097074e-01 -9.606633e-02 -8.543904e-01
24 1 3 -1.365433e+01 1.596762e+01 4.743770e+00 0 -1 0 -2.533391e-01 4.491862e-01 1.200180e-01 8.483200e-01
25 1 3 -1.265056e+01 1.587679e+01 5.365861e+00 0 -1 0 -8.235587e-01 4.941656e-01 -4.235533e-02 -2.752408e-01
26 1 4 -1.237461e+01 1.625652e+01 5.614706e+00 0 -1 0 -5.748621e-01 4.410922e-01 -2.169134e-01 -6.541558e-01
27 1 4 -1.241861e+01 1.675755e+01 5.799426e+00 0 -1 0 -5.200048e-01 4.994903e-01 -3.476031e-01 -5.993968e-01
28 1 1 -1.289482e+01 1.739867e+01 5.997221e+00 0 -1 0 -4.022732e-01 -6.226464e-01 -2.042213e-01 6.393602e-01
29 1 1 -1.333498e+01 1.751434e+01 7.408634e+00 0 -1 0 3.147666e-01 -5.117015e-01 -1.469998e-01 -7.857955e-01
30 1 4 -1.329397e+01 1.789799e+01 7.779472e+00 0 -1 0 -7.124684e-01 4.968858e-01 -1.229779e-01 4.799684e-01
31 1 4 -1.351104e+01 1.865597e+01 8.289820e+00 0 -1 0 -1.327338e-01 5.332134e-01 8.286132e-01 -1.070768e-01
32 1 3 -1.343050e+01 1.789544e+01 8.908411e+00 0 -1 0 3.636944e-01 3.211808e-01 -7.296027e-01 4.819223e-01
33 1 3 -1.346462e+01 1.733938e+01 9.118868e+00 0 -1 0 3.058096e-01 1.371394e-01 -6.936815e-01 6.375572e-01
34 1 1 -1.331310e+01 1.701393e+01 9.382976e+00 0 -1 0 3.417852e-02 8.916791e-02 6.437438e-01 -7.592594e-01
35 1 2 -1.292288e+01 1.641180e+01 9.466751e+00 0 -1 0 -8.296242e-01 -1.015984e-01 -5.479786e-01 -3.347826e-02
36 1 2 -1.315418e+01 1.672568e+01 1.017705e+01 0 -1 0 -8.462646e-01 1.535022e-01 -9.270638e-02 -5.016760e-01
37 1 1 -1.328228e+01 1.662049e+01 1.138780e+01 0 -1 0 3.361110e-01 -8.235646e-01 -8.652075e-02 -4.486478e-01
38 1 1 -1.242255e+01 1.642447e+01 1.075141e+01 0 -1 0 -3.368346e-01 3.643607e-01 -5.107364e-01 -7.020912e-01
39 1 4 -1.280603e+01 1.602727e+01 1.057478e+01 0 -1 0 1.030829e-01 4.345164e-01 4.700836e-01 -7.613086e-01
40 1 4 -1.317036e+01 1.576734e+01 1.082998e+01 0 -1 0 -3.408238e-01 -5.900782e-01 -3.074153e-01 6.641857e-01
41 1 2 -1.291286e+01 1.578700e+01 1.220493e+01 0 -1 0 4.951647e-01 -4.539879e-01 -1.586640e-01 -7.235556e-01
42 1 4 -1.163651e+01 1.563649e+01 1.189165e+01 0 -1 0 4.338043e-01 -5.950014e-01 4.125946e-01 5.362395e-01
43 1 3 -1.155540e+01 1.610185e+01 1.179999e+01 0 -1 0 -2.723859e-01 4.554287e-01 -6.057525e-01 -5.928360e-01
44 1 2 -1.139237e+01 1.699396e+01 1.217051e+01 0 -1 0 2.221484e-01 -5.196261e-01 4.042588e-01 7.191757e-01
45 1 1 -1.152484e+01 1.748489e+01 1.200614e+01 0 -1 0 -1.067353e-01 -3.759947e-01 6.150217e-01 6.848240e-01
46 1 3 -1.141261e+01 1.755635e+01 1.284655e+01 0 -1 0 -5.295652e-01 -5.433420e-01 -5.242951e-01 -3.865939e-01
47 1 4 -1.150855e+01 1.710177e+01 1.401644e+01 0 -1 0 9.815096e-02 -1.186296e-01 1.063108e-01 -9.823398e-01
48 1 1 -1.033900e+01 1.753656e+01 1.449923e+01 0 -1 0 4.958103e-01 -8.102385e-01 -6.477303e-02 3.057617e-01
49 1 4 -9.794147e+00 1.690388e+01 1.442252e+01 0 -1 0 -1.145522e-01 9.617486e-01 -1.550807e-01 -1.945956e-01
50 1 4 -9.343097e+00 1.638957e+01 1.512854e+01 0 -1 0 -7.296034e-01 6.570379e-01 -1.722742e-01 7.938249e-02
51 1 4 -8.753715e+00 1.591222e+01 1.493713e+01 0 -1 0 2.429541e-01 7.385693e-01 -5.922657e-01 -2.114475e-01
52 1 1 -8.084491e+00 1.616675e+01 1.440672e+01 0 -1 0 -8.299819e-01 2.779554e-01 -3.979196e-01 -2.748286e-01
53 1 3 -7.612751e+00 1.624635e+01 1.456559e+01 0 -1 0 6.644939e-01 -2.726488e-02 3.706402e-01 6.483289e-01
54 1 4 -7.261059e+00 1.658192e+01 1.473992e+01 0 -1 0 3.623396e-01 7.856602e-02 3.448688e-01 8.623241e-01
55 1 4 -7.145413e+00 1.702501e+01 1.504589e+01 0 -1 0 -9.316528e-02 -7.211577e-02 -3.757823e-01 -9.191883e-01
56 1 4 -6.800689e+00 1.667123e+01 1.417735e+01 0 -1 0 8.004244e-01 4.018042e-01 3.263274e-01 -3.022988e-01
57 1 1 -6.636990e+00 1.716532e+01 1.358793e+01 0 -1 0 -6.197890e-01 4.231545e-01 -5.088660e-01 -4.217314e-01
58 1 1 -7.214914e+00 1.810597e+01 1.395885e+01 0 -1 0 -9.722350e-02 -8.414904e-01 7.385020e-02 -5.262961e-01
59 1 3 -8.509160e+00 1.749818e+01 1.410631e+01 0 -1 0 2.190683e-01 2.106408e-01 8.935157e-01 -3.305588e-01
60 1 4 -8.383172e+00 1.844893e+01 1.424781e+01 0 -1 0 1.178788e-02 -4.401525e-01 -8.603883e-01 -2.566296e-01
61 1 2 -8.577650e+00 1.861309e+01 1.378442e+01 0 -1 0 5.513067e-02 -8.309387e-01 -5.188955e-01 -1.929999e-01
62 1 3 -8.232434e+00 1.818914e+01 1.256779e+01 0 -1 0 4.547339e-01 -4.102197e-02 7.671383e-01 4.505919e-01
63 1 2 -7.944960e+00 1.845088e+01 1.225844e+01 0 -1 0 -2.417551e-01 -1.827764e-01 -7.377373e-01 -6.032338e-01
64 1 4 -7.988331e+00 1.884816e+01 1.194451e+01 0 -1 0 -1.090796e-01 4.920286e-01 5.758764e-01 6.437204e-01
65 1 2 -7.038117e+00 1.876626e+01 1.225154e+01 0 -1 0 -3.545002e-01 -6.564428e-02 8.193542e-01 -4.457344e-01
66 1 1 -6.077007e+00 1.886179e+01 1.170331e+01 0 -1 0 -7.400587e-01 -4.182596e-01 -4.017423e-01 -3.405513e-01
67 1 2 -5.812870e+00 1.802455e+01 1.265995e+01 0 -1 0 6.258077e-01 6.303398e-01 -4.553972e-01 6.041391e-02
68 1 1 -5.815101e+00 1.763867e+01 1.243686e+01 0 -1 0 -4.454055e-01 -5.209486e-01 6.374066e-01 -3.520502e-01
69 1 1 -5.486329e+00 1.765131e+01 1.233272e+01 0 -1 0 4.825770e-01 8.160694e-01 2.021155e-01 2.455594e-01
70 1 2 -5.158165e+00 1.751108e+01 1.272302e+01 0 -1 0 2.764777e-01 -8.054509e-01 -4.828972e-01 -2.040077e-01
71 1 3 -4.683751e+00 1.736782e+01 1.297891e+01 0 -1 0 -1.682128e-01 5.659543e-01 3.188702e-01 7.414324e-01
72 1 4 -4.502882e+00 1.776801e+01 1.309506e+01 0 -1 0 4.419454e-01 -6.663490e-01 3.655372e-02 -5.994390e-01
73 1 1 -4.249863e+00 1.808697e+01 1.340264e+01 0 -1 0 -6.783470e-01 5.991763e-01 -2.906368e-01 3.104244e-01
74 1 1 -3.905867e+00 1.810996e+01 1.374356e+01 0 -1 0 7.840430e-01 -3.495606e-01 4.764420e-01 1.899659e-01
75 1 3 -5.309142e+00 1.853728e+01 1.382738e+01 0 -1 0 8.552056e-02 3.457875e-01 6.460274e-01 6.751043e-01
76 1 1 -5.153089e+00 1.908420e+01 1.363064e+01 0 -1 0 1.127694e-01 -3.029643e-01 -6.930643e-01 -6.443272e-01
77 1 4 -4.610820e+00 1.885891e+01 1.486608e+01 0 -1 0 2.098826e-01 -6.898207e-01 5.203661e-01 -4.575105e-01
78 1 1 -4.602653e+00 1.901051e+01 1.577752e+01 0 -1 0 -7.079008e-01 5.212101e-01 4.762711e-01 1.955367e-02
79 1 4 -3.677348e+00 1.864412e+01 1.505603e+01 0 -1 0 -9.070486e-01 4.805540e-02 -4.168243e-01 3.479856e-02
80 1 2 -3.513170e+00 1.866843e+01 1.579219e+01 0 -1 0 5.354329e-01 -4.500712e-01 -3.602039e-01 6.172525e-01
81 1 4 -3.544974e+00 1.872395e+01 1.609432e+01 0 -1 0 4.641818e-01 7.805396e-01 2.474724e-02 4.179484e-01
82 1 4 -3.071723e+00 1.863629e+01 1.683109e+01 0 -1 0 8.863012e-01 -1.121631e-01 -1.336412e-01 4.289869e-01
83 1 4 -3.065955e+00 1.869761e+01 1.729029e+01 0 -1 0 -6.218228e-01 2.311499e-01 -9.611690e-03 -7.482070e-01
84 1 4 -3.017560e+00 1.892460e+01 1.775564e+01 0 -1 0 -3.502840e-01 2.426280e-01 -1.313718e-01 -8.950834e-01
85 1 1 -3.514994e+00 1.929336e+01 1.837940e+01 0 -1 0 -7.171437e-02 6.108894e-01 5.739387e-01 5.406159e-01
86 1 1 -3.634935e+00 1.989647e+01 1.896062e+01 0 -1 0 -1.256548e-01 7.711230e-01 3.400774e-01 5.233809e-01
87 1 3 -3.575670e+00 -1.989294e+01 1.765801e+01 0 0 0 -1.965844e-01 4.297473e-01 -2.233482e-01 -8.525183e-01
88 1 2 -3.061460e+00 -1.946801e+01 1.766996e+01 0 0 0 -7.573488e-01 -3.791426e-01 9.067505e-02 -5.238814e-01
89 1 2 -2.870397e+00 -1.892373e+01 1.778116e+01 0 0 0 -1.114167e-01 9.638778e-01 -1.809556e-01 1.605645e-01
90 1 3 -3.181854e+00 -1.797885e+01 1.767229e+01 0 0 0 -3.175993e-01 8.368396e-01 4.432887e-01 4.822088e-02
91 1 3 -1.916624e+00 -1.831314e+01 1.726316e+01 0 0 0 8.589724e-01 7.117716e-02 -6.602166e-02 5.027338e-01
92 1 2 -1.723579e+00 -1.849275e+01 1.765199e+01 0 0 0 6.705118e-01 -1.829581e-02 -8.516417e-02 7.367674e-01
93 1 1 -1.271325e+00 -1.912923e+01 1.787976e+01 0 0 0 2.006859e-01 3.913403e-01 -5.527901e-01 7.078143e-01
94 1 2 -1.019593e+00 -1.936583e+01 1.817997e+01 0 0 0 2.143837e-01 -8.665224e-02 6.676355e-01 -7.076679e-01
95 1 3 -4.255315e-01 -1.899637e+01 1.677912e+01 0 0 0 -4.145274e-01 -4.971014e-01 -5.974208e-01 -4.734402e-01
96 1 2 -7.852929e-02 -1.875209e+01 1.641357e+01 0 0 0 1.155482e-01 6.658397e-01 4.286815e-01 5.996151e-01
97 1 2 1.903893e-01 -1.833330e+01 1.623826e+01 0 0 0 -1.109106e-01 7.814563e-01 7.753257e-02 6.091088e-01
98 1 4 8.893649e-03 -1.823892e+01 1.552985e+01 0 0 0 2.001238e-01 2.830492e-01 -3.843225e-01 8.556458e-01
99 1 2 2.348662e-01 -1.857359e+01 1.423511e+01 0 0 0 -1.027965e-01 -1.526665e-01 -8.091106e-01 -5.580912e-01
100 1 1 -2.913686e-01 -1.875823e+01 1.441200e+01 0 0 0 5.642758e-01 -3.145457e-01 3.705384e-01 -6.673493e-01
101 2 4 5.769236e+00 1.070984e+01 -1.120959e+01 0 -1 0 -3.000148e-01 -7.508697e-01 5.826240e-01 -8.206799e-02
102 2 3 5.672421e+00 1.101244e+01 -1.112738e+01 0 -1 0 -6.094169e-01 -5.950286e-01 -2.168529e-01 4.769977e-01
103 2 1 4.918960e+00 1.131941e+01 -1.014344e+01 0 -1 0 4.076784e-01 -2.061609e-01 -8.857512e-01 -8.210271e-02
104 2 3 5.196281e+00 1.220338e+01 -1.067643e+01 0 -1 0 -3.929844e-01 8.702064e-01 2.295717e-01 1.886823e-01
105 2 3 5.040541e+00 1.186771e+01 -1.165234e+01 0 -1 0 9.377606e-01 -3.005387e-01 1.575616e-01 7.386392e-02
106 2 2 4.012243e+00 1.247257e+01 -1.096782e+01 0 -1 0 -6.258349e-01 6.710575e-01 3.950237e-01 4.437047e-02
107 2 3 3.917089e+00 1.288749e+01 -1.076828e+01 0 -1 0 -6.841315e-01 6.992241e-01 5.024513e-02 -2.013086e-01
108 2 4 3.890671e+00 1.329138e+01 -1.046870e+01 0 -1 0 6.341407e-01 -6.142045e-01 2.507181e-01 3.971887e-01
109 2 3 2.464265e+00 1.379843e+01 -9.918130e+00 0 -1 0 2.002804e-01 6.391958e-02 4.659624e-01 -8.594656e-01
110 2 2 2.792999e+00 1.430840e+01 -9.956615e+00 0 -1 0 -5.205361e-01 -5.850320e-01 -4.793674e-01 3.962153e-01
111 2 2 2.068862e+00 1.387094e+01 -9.261445e+00 0 -1 0 7.783259e-03 1.307872e-01 7.552910e-01 -6.421601e-01
112 2 3 1.568060e+00 1.417243e+01 -9.225493e+00 0 -1 0 -7.320838e-03 -7.484572e-01 -6.151290e-01 2.477386e-01
113 2 3 2.067684e+00 1.374755e+01 -7.946451e+00 0 -1 0 -8.023870e-01 5.637465e-01 1.954010e-01 1.354552e-02
114 2 2 1.759180e+00 1.396913e+01 -7.589394e+00 0 -1 0 7.617990e-01 -5.836201e-01 1.461798e-02 2.807780e-01
115 2 4 1.794929e+00 1.444814e+01 -7.296127e+00 0 -1 0 4.740575e-01 -5.842297e-01 2.191811e-01 6.212124e-01
116 2 4 1.856658e+00 1.489588e+01 -7.165455e+00 0 -1 0 -2.757212e-01 4.544422e-01 -4.551311e-01 -7.143639e-01
117 2 1 1.787258e+00 1.535581e+01 -7.277273e+00 0 -1 0 1.669800e-01 1.555058e-01 -5.940414e-01 -7.713951e-01
118 2 1 2.808976e+00 1.463376e+01 -6.953271e+00 0 -1 0 -5.521156e-01 6.647225e-01 -4.490794e-01 2.272443e-01
119 2 1 2.665827e+00 1.399184e+01 -6.490747e+00 0 -1 0 -9.722913e-01 1.479381e-01 5.260900e-02 1.731941e-01
120 2 1 2.737006e+00 1.342615e+01 -6.587057e+00 0 -1 0 -3.372437e-01 7.150223e-01 -5.454957e-01 2.782883e-01
121 2 3 2.376010e+00 1.261614e+01 -7.449730e+00 0 -1 0 7.591918e-01 -2.049962e-01 6.141768e-01 -6.626618e-02
122 2 1 2.434660e+00 1.236880e+01 -6.378694e+00 0 -1 0 1.617691e-01 -7.791543e-01 4.759090e-01 -3.745128e-01
123 2 4 2.222245e+00 1.203289e+01 -5.695099e+00 0 -1 0 9.383275e-02 -6.444365e-01 7.033698e-01 -2.848999e-01
124 2 1 1.546448e+00 1.256558e+01 -5.070491e+00 0 -1 0 6.226331e-01 -5.420292e-01 -4.132793e-01 3.843601e-01
125 2 4 1.213378e+00 1.268040e+01 -4.732937e+00 0 -1 0 4.040728e-01 -6.032902e-01 -2.081268e-01 6.553238e-01
126 2 2 8.769439e-01 1.109567e+01 -4.722437e+00 0 -1 0 2.318201e-01 -2.988344e-01 9.256538e-01 -1.106811e-02
127 2 4 1.177306e+00 1.082665e+01 -4.990464e+00 0 -1 0 2.650055e-01 1.400150e-01 9.433415e-01 1.423893e-01
128 2 4 1.503626e+00 1.040904e+01 -4.524339e+00 0 -1 0 5.757064e-01 -7.287729e-01 -3.357846e-01 -1.571654e-01
129 2 1 1.086470e+00 9.659050e+00 -4.264695e+00 0 -1 0 5.781886e-01 2.557933e-01 -7.597600e-01 1.517650e-01
130 2 2 6.231592e-01 8.888625e+00 -4.672749e+00 0 -1 0 8.842932e-01 2.128937e-01 -1.103996e-01 -4.006416e-01
131 2 3 6.770816e-01 8.457769e+00 -4.837083e+00 0 -1 0 3.064087e-01 5.531959e-01 -2.656229e-01 -7.276898e-01
132 2 4 1.202160e+00 7.416043e+00 -4.602620e+00 0 -1 0 4.290635e-01 -6.524965e-01 6.230961e-01 -4.363510e-02
133 2 4 1.723427e+00 7.528232e+00 -4.868108e+00 0 -1 0 -3.309019e-01 4.171546e-01 -8.434535e-01 -7.121944e-02
134 2 3 2.444631e+00 7.319965e+00 -4.669447e+00 0 -1 0 1.425856e-01 -4.960451e-01 7.836524e-01 -3.456842e-01
135 2 4 2.847214e+00 7.174023e+00 -4.900008e+00 0 -1 0 1.915370e-01 -2.859039e-01 8.708286e-01 -3.510414e-01
136 2 3 3.175472e+00 6.895721e+00 -4.919903e+00 0 -1 0 -3.235422e-01 -8.000916e-02 -9.163975e-01 2.216631e-01
137 2 1 3.536341e+00 6.129499e+00 -4.933978e+00 0 -1 0 -6.930121e-01 -1.261250e-01 -3.938643e-01 5.905063e-01
138 2 3 4.369681e+00 5.978084e+00 -4.460167e+00 0 -1 0 -3.291584e-01 -2.455491e-01 6.191515e-01 -6.693369e-01
139 2 2 4.469396e+00 5.645358e+00 -4.100614e+00 0 -1 0 -7.285522e-02 2.054776e-02 -6.277566e-01 7.747203e-01
140 2 3 5.091635e+00 4.728624e+00 -3.870255e+00 0 -1 0 -8.852267e-01 7.436768e-02 -4.180990e-01 1.898325e-01
141 2 1 5.458797e+00 4.627719e+00 -2.860783e+00 0 -1 0 -7.104072e-01 3.863171e-01 4.905344e-01 -3.247408e-01
142 2 2 5.039991e+00 3.893643e+00 -2.214550e+00 0 -1 0 -6.262835e-01 2.383531e-01 7.418301e-01 2.539613e-02
143 2 4 4.496625e+00 3.998519e+00 -2.217423e+00 0 -1 0 -7.335886e-01 3.982096e-01 5.503709e-01 1.920128e-02
144 2 4 4.825250e+00 3.292426e+00 -2.318254e+00 0 -1 0 -6.732989e-01 -6.497545e-01 3.153699e-01 1.582072e-01
145 2 1 4.660758e+00 3.249188e+00 -1.773149e+00 0 -1 0 -2.088131e-01 5.003361e-01 6.676537e-01 -5.101955e-01
146 2 1 4.022333e+00 2.650649e+00 -2.511539e+00 0 -1 0 5.375020e-01 -1.789704e-01 -9.830543e-02 -8.181670e-01
147 2 1 3.679365e+00 2.944802e+00 -3.316036e+00 0 -1 0 -5.336604e-01 -1.749733e-01 -7.231619e-01 4.020296e-01
148 2 2 3.413585e+00 3.038212e+00 -3.586370e+00 0 -1 0 -5.134933e-02 -7.556186e-01 -6.041781e-01 2.477349e-01
149 2 4 3.923223e+00 1.982498e+00 -2.621081e+00 0 -1 0 -7.507058e-01 5.919957e-01 -2.914599e-01 3.214209e-02
150 2 1 3.455009e+00 1.513427e+00 -2.569172e+00 0 -1 0 -5.129316e-01 3.358907e-01 2.910344e-01 7.344233e-01
151 2 1 2.842723e+00 9.068428e-01 -2.788007e+00 0 -1 0 -4.163444e-01 -8.986694e-02 4.362546e-01 7.926305e-01
152 2 1 3.857495e+00 5.855624e-01 -2.718713e+00 0 -1 0 -7.586226e-01 -2.281463e-02 4.466518e-01 -4.737862e-01
153 2 4 3.695230e+00 3.059501e-01 -2.259752e+00 0 -1 0 4.426283e-01 -1.774151e-01 -4.260363e-01 7.688284e-01
154 2 1 4.333118e+00 -9.417688e-02 -3.203469e+00 0 -1 0 4.764584e-01 9.131396e-02 3.632043e-01 7.954444e-01
155 2 2 4.199175e+00 -3.947269e-01 -1.806395e+00 0 -1 0 -7.583619e-01 2.996606e-01 5.089506e-01 2.757898e-01
156 2 4 3.856054e+00 -3.830492e-01 -1.526788e+00 0 -1 0 7.194018e-01 -5.647203e-01 -3.468301e-01 2.079926e-01
157 2 3 4.394508e+00 -1.424954e+00 -1.725955e+00 0 -1 0 -9.418091e-01 2.351920e-01 5.918811e-02 2.327599e-01
158 2 2 3.568990e+00 -1.161072e+00 -8.115489e-01 0 -1 0 2.319530e-01 -1.715379e-01 4.523361e-01 -8.438985e-01
159 2 1 3.748651e+00 -1.412460e+00 -3.725240e-01 0 -1 0 -4.163454e-01 -1.894575e-02 -5.706771e-01 7.075488e-01
160 2 3 4.224989e+00 -7.582862e-01 1.860916e-01 0 -1 0 3.032796e-01 -5.524411e-01 -7.441468e-01 -2.215306e-01
161 2 1 4.959730e+00 -5.159940e-01 2.898327e-01 0 -1 0 -9.396740e-01 2.918207e-01 -1.334904e-01 1.184644e-01
162 2 1 5.241736e+00 -1.761106e-01 8.703725e-01 0 -1 0 -9.410882e-01 2.417955e-01 -2.359359e-01 -1.490959e-02
163 2 4 3.976075e+00 -5.671605e-02 1.525252e+00 0 -1 0 3.214761e-01 -1.892230e-02 -9.349360e-01 1.489625e-01
164 2 4 3.597791e+00 -3.746029e-01 1.295142e+00 0 -1 0 -3.548955e-01 3.250783e-01 8.254240e-01 -2.950399e-01
165 2 3 3.122796e+00 -5.177020e-01 1.300827e+00 0 -1 0 -6.067070e-02 7.107881e-01 5.702324e-01 -4.073504e-01
166 2 3 3.291720e+00 -2.041360e+00 8.869338e-01 0 -1 0 -5.203205e-01 1.689656e-01 -8.249092e-01 1.422740e-01
167 2 4 3.546716e+00 -1.922811e+00 6.318490e-01 0 -1 0 -9.616968e-02 -1.754474e-01 -9.036216e-01 3.787315e-01
168 2 2 4.464402e+00 -1.912678e+00 2.634223e-01 0 -1 0 5.406053e-01 -7.019641e-01 -2.889879e-01 3.625994e-01
169 2 2 4.585600e+00 -3.367935e+00 -1.288527e-01 0 -1 0 -5.667852e-01 -4.545405e-01 5.110659e-01 4.593028e-01
170 2 1 4.149270e+00 -3.575400e+00 -2.721887e-01 0 -1 0 7.306925e-01 3.048164e-01 -5.724221e-01 -2.133269e-01
171 2 1 3.331940e+00 -3.562110e+00 -5.813934e-01 0 -1 0 -8.640823e-02 -3.542521e-01 4.088400e-01 8.365936e-01
172 2 4 3.379133e+00 -3.283860e+00 -9.947511e-01 0 -1 0 5.857885e-01 -1.756687e-01 3.586208e-01 7.052542e-01
173 2 4 2.272448e+00 -3.708283e+00 -5.017969e-01 0 -1 0 -1.436556e-01 -7.253350e-01 -6.703069e-01 -6.277704e-02
174 2 1 2.142126e+00 -3.742072e+00 -9.435346e-01 0 -1 0 -1.118150e-01 -9.150205e-01 -3.802217e-01 -7.527524e-02
175 2 1 2.178379e+00 -3.557118e+00 -1.428346e+00 0 -1 0 5.933256e-02 9.868338e-01 2.391311e-02 1.485492e-01
176 2 2 1.291193e+00 -3.456864e+00 -1.948947e+00 0 -1 0 -2.797721e-01 -1.947556e-01 6.791997e-01 6.499889e-01
177 2 2 8.514512e-01 -3.373913e+00 -2.202852e+00 0 -1 0 5.042760e-01 -1.381119e-01 -7.197134e-01 -4.567751e-01
178 2 1 9.576684e-01 -2.639556e+00 -3.217931e+00 0 -1 0 -8.440589e-02 -1.096176e-01 3.638839e-01 9.211125e-01
179 2 4 7.063997e-01 -3.411157e+00 -2.577446e+00 0 -1 0 -4.761798e-01 2.321203e-01 7.866552e-01 -3.170910e-01
180 2 1 2.296383e-01 -3.289641e+00 -3.618768e+00 0 -1 0 3.472170e-03 -8.609778e-01 -4.917711e-01 1.298704e-01
181 2 4 6.221244e-01 -4.435469e+00 -4.026988e+00 0 -1 0 6.525664e-01 6.835373e-01 -2.975943e-01 1.355411e-01
182 2 2 -6.772346e-01 -4.663248e+00 -3.265717e+00 0 -1 0 -6.868623e-01 -2.101152e-03 2.742626e-01 6.730496e-01
183 2 3 -1.013165e+00 -4.632627e+00 -2.980548e+00 0 -1 0 9.216940e-01 -9.146718e-02 -2.653964e-01 -2.677286e-01
184 2 4 -1.370862e+00 -4.335189e+00 -2.203963e+00 0 -1 0 8.305460e-01 -1.504363e-02 -5.040907e-01 2.363463e-01
185 2 3 -1.498299e+00 -3.400723e+00 -1.912291e+00 0 -1 0 3.524467e-01 8.953032e-01 -4.628578e-02 2.684607e-01
186 2 1 -1.434242e+00 -3.711091e+00 -7.623371e-01 0 -1 0 6.796645e-01 -5.910619e-01 -4.338685e-01 2.144958e-02
187 2 1 -1.643030e+00 -3.994195e+00 -9.579186e-01 0 -1 0 3.167248e-01 -5.512980e-01 6.870383e-01 3.517588e-01
188 2 2 -1.702919e+00 -3.235229e+00 -3.631847e-01 0 -1 0 9.154714e-01 3.851934e-02 -3.561558e-01 1.832525e-01
189 2 4 -3.078842e+00 -2.713787e+00 -1.640198e-03 0 -1 0 1.906807e-02 -4.767001e-01 -8.253127e-01 3.020802e-01
190 2 4 -3.428245e+00 -2.522545e+00 -3.837386e-01 0 -1 0 -1.710147e-01 -8.372606e-01 -5.188164e-01 -2.404540e-02
191 2 1 -3.540044e+00 -2.307947e+00 -7.807860e-01 0 -1 0 -7.912771e-02 -9.901303e-01 -1.078112e-01 -4.192218e-02
192 2 4 -4.597501e+00 -2.406878e+00 -6.085033e-01 0 -1 0 -4.193707e-01 3.704423e-01 5.771653e-01 -5.947948e-01
193 2 4 -5.094113e+00 -2.424059e+00 -3.441068e-01 0 -1 0 -2.122078e-01 5.764648e-01 4.201265e-01 -6.679446e-01
194 2 1 -5.612396e+00 -2.296946e+00 -2.205033e-01 0 -1 0 3.344528e-02 6.879156e-01 6.270730e-02 -7.223028e-01
195 2 3 -6.139169e+00 -2.266846e+00 -3.348065e-01 0 -1 0 -2.489167e-01 -8.129948e-01 1.110252e-01 5.145419e-01
196 2 4 -6.722681e+00 -2.996539e+00 2.137495e-01 0 -1 0 9.231007e-01 -2.652374e-01 -2.440856e-01 -1.340017e-01
197 2 2 -6.248028e+00 -3.383731e+00 -3.848385e-02 0 -1 0 -1.475012e-02 8.417351e-01 -4.386558e-01 3.143972e-01
198 2 4 -5.828775e+00 -3.566268e+00 -3.275514e-01 0 -1 0 1.845122e-02 -5.371046e-01 7.792087e-01 -3.225090e-01
199 2 3 -5.569778e+00 -3.921870e+00 -5.659998e-01 0 -1 0 6.183544e-02 -2.734939e-01 8.556738e-01 -4.349710e-01
200 2 4 -5.626208e+00 -3.547179e+00 -1.956600e+00 0 -1 0 -1.294212e-01 6.846540e-01 -3.210013e-01 -6.414493e-01
