ITEM: TIMESTEP
341000000
ITEM: NUMBER OF ATOMS
200
ITEM: BOX BOUNDS pp pp pp
-2.0000000000000000e+01 2.0000000000000000e+01
-2.0000000000000000e+01 2.0000000000000000e+01
-2.0000000000000000e+01 2.0000000000000000e+01
ITEM: ATOMS id mol type x y z ix iy iz c_quat[1] c_quat[2] c_quat[3] c_quat[4]
1 1 1 -1.261247e+01 1.371966e+01 1.186446e+01 0 -1 0 5.377099e-01 -3.697172e-01 4.434530e-01 6.144321e-01
2 1 2 -1.372987e+01 1.297760e+01 1.173045e+01 0 -1 0 1.494510e-01 3.474033e-01 9.157851e-01 1.353259e-01
3 1 1 -1.269600e+01 1.308360e+01 1.141081e+01 0 -1 0 5.993600e-01 5.505851e-01 -5.365987e-01 2.229024e-01
4 1 3 -1.320750e+01 1.350145e+01 1.057375e+01 0 -1 0 -3.294627e-01 -2.768784e-01 -4.444134e-01 7.856777e-01
5 1 1 -1.172304e+01 1.298680e+01 1.060635e+01 0 -1 0 -8.646438e-01 3.062277e-01 -2.152758e-01 -3.350701e-01
6 1 2 -1.220770e+01 1.264355e+01 9.712355e+00 0 -1 0 2.512124e-01 1.695360e-01 8.543681e-01 4.221433e-01
7 1 4 -1.180934e+01 1.289403e+01 9.582718e+00 0 -1 0 5.601776e-01 -7.512134e-01 3.018191e-01 1.754558e-01
8 1 1 -1.187165e+01 1.353425e+01 9.670054e+00 0 -1 0 8.210032e-01 -3.348739e-01 -4.110354e-01 2.118090e-01
9 1 1 -1.286135e+01 1.400614e+01 8.407083e+00 0 -1 0 5.821683e-01 4.039423e-01 6.395304e-01 -2.981803e-01
10 1 4 -1.329401e+01 1.400077e+01 8.953259e+00 0 -1 0 -2.427104e-01 -4.640186e-01 8.483256e-01 7.824318e-02
11 1 1 -1.322971e+01 1.466324e+01 9.201302e+00 0 -1 0 -4.274628e-02 -2.290069e-01 9.719333e-01 3.277480e-02
12 1 1 -1.266809e+01 1.526904e+01 9.455184e+00 0 -1 0 6.518725e-02 4.259006e-02 6.065726e-02 9.951168e-01
13 1 3 -1.246865e+01 1.502005e+01 9.155352e+00 0 -1 0 -6.804030e-01 2.213233e-01 -6.345104e-01 2.923426e-01
14 1 4 -1.196461e+01 1.552323e+01 9.552419e+00 0 -1 0 -6.997566e-01 2.107340e-01 6.136502e-01 2.989403e-01
15 1 4 -1.149476e+01 1.589287e+01 9.052869e+00 0 -1 0 -3.446874e-01 -8.047768e-02 8.639738e-01 3.581385e-01
16 1 2 -1.104660e+01 1.671094e+01 1.014442e+01 0 -1 0 3.744986e-01 -6.439324e-01 3.001595e-01 -5.958239e-01
17 1 1 -1.015512e+01 1.744998e+01 9.976930e+00 0 -1 0 -1.284526e-01 9.505331e-01 -3.939015e-02 2.800627e-01
18 1 2 -1.066489e+01 1.810906e+01 9.900845e+00 0 -1 0 4.747349e-01 8.227169e-01 1.606438e-01 2.682485e-01
19 1 3 -1.028497e+01 1.804177e+01 9.506408e+00 0 -1 0 3.233962e-01 7.811069e-01 -1.693425e-01 5.065669e-01
20 1 1 -9.805867e+00 1.789298e+01 9.422757e+00 0 -1 0 -2.478811e-01 -5.799721e-01 4.413934e-01 -6.382470e-01
21 1 4 -9.371958e+00 1.777825e+01 9.563138e+00 0 -1 0 -1.308869e-01 3.587569e-01 -7.540437e-01 5.343969e-01
22 1 1 -9.281042e+00 1.857607e+01 9.347909e+00 0 -1 0 4.888167e-01 6.287296e-01 7.626363e-02 -5.999510e-01
23 1 4 -8.692419e+00 1.875048e+01 1.027191e+01 0 -1 0 4.713177e-01 -4.614496e-01 1.058637e-01 7.441215e-01
24 1 3 -8.748674e+00 1.918149e+01 1.030167e+01 0 -1 0 -8.664300e-03 2.361038e-01 -2.199532e-01 -9.464674e-01
25 1 3 -9.010758e+00 1.953768e+01 1.062162e+01 0 -1 0 -3.337525e-01 -1.704220e-01 1.680446e-01 9.117711e-01
26 1 4 -9.020683e+00 -1.992594e+01 1.061163e+01 0 0 0 4.682752e-01 1.725453e-01 -1.179134e-01 8.585120e-01
27 1 4 -8.397946e+00 -1.981253e+01 1.040394e+01 0 0 0 -9.476717e-01 -1.690906e-01 -1.616411e-01 -2.172531e-01
28 1 1 -8.983266e+00 -1.938740e+01 9.907107e+00 0 0 0 8.711541e-01 1.531274e-01 4.665156e-01 2.374797e-03
29 1 1 -8.538605e+00 -1.852785e+01 1.012955e+01 0 0 0 8.410745e-01 -2.094690e-02 4.963484e-01 2.139933e-01
30 1 4 -8.451927e+00 -1.821945e+01 1.043782e+01 0 0 0 -8.639671e-03 -4.711538e-01 -7.734997e-01 -4.238368e-01
31 1 4 -8.613600e+00 -1.793002e+01 1.061241e+01 0 0 0 3.324330e-01 -1.669849e-01 -9.169232e-01 -1.444171e-01
32 1 3 -7.292662e+00 -1.802702e+01 1.027982e+01 0 0 0 -1.371332e-01 -6.243890e-01 7.396298e-01 2.104297e-01
33 1 3 -6.750808e+00 -1.727427e+01 9.810368e+00 0 0 0 -4.881506e-01 2.932668e-02 -1.513711e-01 -8.590318e-01
34 1 1 -6.594566e+00 -1.687258e+01 1.011587e+01 0 0 0 4.941033e-02 -2.937458e-02 1.383127e-01 9.887191e-01
35 1 2 -6.734487e+00 -1.645124e+01 1.034994e+01 0 0 0 -2.333990e-01 4.097837e-02 2.847026e-01 9.288649e-01
36 1 2 -5.913489e+00 -1.603206e+01 1.029090e+01 0 0 0 3.849458e-01 -8.233897e-01 3.930002e-01 -1.392727e-01
37 1 1 -7.030422e+00 -1.540329e+01 1.065750e+01 0 0 0 3.223906e-01 1.223049e-01 -5.855004e-01 7.336860e-01
38 1 1 -6.909072e+00 -1.458934e+01 1.002904e+01 0 0 0 5.405997e-01 -6.278082e-01 1.255289e-01 5.457575e-01
39 1 4 -6.966446e+00 -1.405025e+01 1.010955e+01 0 0 0 4.637807e-01 -6.409255e-01 3.706779e-01 4.865386e-01
40 1 4 -7.984861e+00 -1.397997e+01 1.005120e+01 0 0 0 4.476055e-01 -2.649663e-01 -8.046547e-01 2.863092e-01
41 1 2 -8.064077e+00 -1.358129e+01 9.396410e+00 0 0 0 5.741197e-01 -2.763807e-01 -5.240533e-01 5.651269e-01
42 1 4 -7.839117e+00 -1.265976e+01 8.482672e+00 0 0 0 -2.439377e-01 -5.393953e-01 -4.379103e-01 -6.765957e-01
43 1 3 -8.010552e+00 -1.252835e+01 8.308390e+00 0 0 0 -2.368031e-01 9.572661e-01 1.632230e-01 -3.040139e-02
44 1 2 -7.943616e+00 -1.204013e+01 8.174897e+00 0 0 0 -2.782942e-01 8.453607e-01 -3.428481e-01 -3.006209e-01
45 1 1 -8.027574e+00 -1.214826e+01 7.925390e+00 0 0 0 -3.111089e-01 9.224955e-01 1.501993e-01 1.722018e-01
46 1 3 -7.843712e+00 -1.165923e+01 7.737256e+00 0 0 0 3.304426e-01 -9.059215e-01 2.423051e-01 -1.067807e-01
47 1 4 -7.540685e+00 -1.136851e+01 7.739912e+00 0 0 0 4.081378e-01 -6.426654e-01 6.246041e-01 1.739957e-01
48 1 1 -8.018124e+00 -1.063693e+01 8.375648e+00 0 0 0 5.999834e-01 -2.554807e-01 -7.283729e-01 -2.102914e-01
49 1 4 -7.896854e+00 -1.000667e+01 8.304458e+00 0 0 0 -7.574140e-01 1.618425e-01 2.685874e-01 5.727057e-01
50 1 4 -6.562334e+00 -9.793633e+00 8.176319e+00 0 0 0 1.809476e-01 -9.578004e-01 2.143094e-01 6.283237e-02
51 1 4 -6.486574e+00 -9.480942e+00 7.768670e+00 0 0 0 -1.025237e-01 7.989299e-01 -5.858805e-01 -8.912852e-02
52 1 1 -6.471430e+00 -9.020592e+00 6.775333e+00 0 0 0 7.434819e-01 3.228246e-01 3.205021e-01 4.902014e-01
53 1 3 -6.052304e+00 -9.215785e+00 6.830857e+00 0 0 0 -5.403107e-01 -3.410204e-01 -3.610883e-02 -7.684176e-01
54 1 4 -5.600554e+00 -9.220392e+00 7.064771e+00 0 0 0 -2.013664e-01 -3.039077e-01 -2.633002e-03 -9.311738e-01
55 1 4 -5.036068e+00 -1.019122e+01 7.721985e+00 0 0 0 7.584019e-01 -3.816559e-01 2.443273e-03 -5.283553e-01
56 1 4 -4.511635e+00 -9.131452e+00 7.736582e+00 0 0 0 -2.916957e-01 -5.567161e-01 5.667996e-01 -5.326528e-01
57 1 1 -4.751933e+00 -9.763823e+00 6.564146e+00 0 0 0 1.517670e-01 -3.873618e-01 9.088815e-01 2.918770e-02
58 1 1 -4.623163e+00 -1.009669e+01 6.208695e+00 0 0 0 1.832370e-01 1.057015e-01 9.769371e-01 2.907227e-02
59 1 3 -4.564751e+00 -1.016536e+01 5.672280e+00 0 0 0 9.314321e-02 3.556591e-01 9.164357e-01 1.580397e-01
60 1 4 -4.201816e+00 -1.085380e+01 5.615727e+00 0 0 0 3.425567e-01 1.852412e-01 -8.104610e-01 4.375999e-01
61 1 2 -4.310313e+00 -1.137062e+01 5.578832e+00 0 0 0 -2.547175e-01 1.867588e-02 7.981958e-01 -5.455765e-01
62 1 3 -4.566597e+00 -1.174177e+01 5.854810e+00 0 0 0 -7.115204e-02 -3.126211e-01 -6.760898e-01 6.634064e-01
63 1 2 -4.873031e+00 -1.209782e+01 5.913514e+00 0 0 0 2.284762e-01 5.962517e-01 4.606302e-01 -6.165244e-01
64 1 4 -5.288492e+00 -1.232450e+01 5.900193e+00 0 0 0 3.697851e-01 7.405470e-01 2.387292e-01 -5.077966e-01
65 1 2 -5.482439e+00 -1.302721e+01 6.322076e+00 0 0 0 7.902158e-01 -7.105499e-02 -5.041499e-01 3.410911e-01
66 1 1 -5.614119e+00 -1.341957e+01 6.697961e+00 0 0 0 -6.764410e-01 1.075530e-01 4.499273e-01 -5.730841e-01
67 1 2 -5.316741e+00 -1.335820e+01 7.027501e+00 0 0 0 1.836870e-01 -8.160065e-01 -5.234360e-01 1.625032e-01
68 1 1 -4.964844e+00 -1.461028e+01 6.940346e+00 0 0 0 7.151541e-01 -3.115110e-01 4.300939e-01 4.544610e-01
69 1 1 -5.467545e+00 -1.426619e+01 8.194306e+00 0 0 0 3.220574e-01 1.133436e-01 -8.496583e-01 4.018868e-01
70 1 2 -5.416073e+00 -1.370527e+01 8.638023e+00 0 0 0 -1.346053e-01 9.846948e-02 8.784465e-01 -4.477912e-01
71 1 3 -5.744957e+00 -1.424510e+01 8.550402e+00 0 0 0 -9.629145e-02 -4.620475e-01 -7.822940e-01 4.065171e-01
72 1 4 -5.741426e+00 -1.423333e+01 9.534751e+00 0 0 0 6.885822e-01 -5.571484e-01 -2.410578e-01 -3.966502e-01
73 1 1 -5.778465e+00 -1.393556e+01 9.917157e+00 0 0 0 8.086931e-01 -5.843232e-01 8.461533e-03 -6.715864e-02
74 1 1 -5.486064e+00 -1.358260e+01 1.020417e+01 0 0 0 5.968291e-01 -5.868570e-01 4.325285e-01 3.351312e-01
75 1 3 -5.094104e+00 -1.325090e+01 1.025379e+01 0 0 0 -3.958549e-01 2.655287e-01 -6.808698e-01 -5.560663e-01
76 1 1 -4.818707e+00 -1.296448e+01 9.996171e+00 0 0 0 1.528072e-01 1.151487e-01 7.163070e-01 6.710402e-01
77 1 4 -4.792349e+00 -1.258876e+01 9.709914e+00 0 0 0 2.031011e-01 -4.357898e-01 -5.932837e-01 -6.456405e-01
78 1 1 -3.594141e+00 -1.286631e+01 1.025836e+01 0 0 0 3.809968e-01 -8.305340e-01 -2.526233e-01 -3.181763e-01
79 1 4 -3.192736e+00 -1.375342e+01 9.774805e+00 0 0 0 7.591949e-01 5.519941e-01 -3.964596e-02 3.425695e-01
80 1 2 -3.158247e+00 -1.377143e+01 9.963038e+00 0 0 0 -3.186743e-01 -7.504598e-01 -5.789493e-01 8.632484e-03
81 1 4 -2.548720e+00 -1.444223e+01 1.094725e+01 0 0 0 6.439990e-01 -4.682890e-01 6.028566e-01 -5.034532e-02
82 1 4 -2.054170e+00 -1.454734e+01 1.093137e+01 0 0 0 6.453149e-01 -1.433281e-01 7.437131e-01 9.958189e-02
83 1 4 -1.706204e+00 -1.323914e+01 1.136127e+01 0 0 0 2.934813e-01 -3.643454e-01 4.827421e-02 8.824912e-01
84 1 4 -1.938375e+00 -1.339111e+01 1.251186e+01 0 0 0 -5.843840e-01 1.357112e-01 7.993831e-01 -3.262725e-02
85 1 1 -2.314181e+00 -1.361589e+01 1.269847e+01 0 0 0 1.922711e-01 -6.320304e-01 -6.952344e-01 2.832287e-01
86 1 1 -1.973307e+00 -1.456969e+01 1.349627e+01 0 0 0 6.327466e-01 -5.024950e-02 -7.576921e-01 -1.516886e-01
87 1 3 -2.359309e+00 -1.474457e+01 1.348842e+01 0 0 0 -4.937874e-01 5.636146e-01 6.406052e-01 -1.677429e-01
88 1 2 -2.082377e+00 -1.598159e+01 1.330600e+01 0 0 0 4.656888e-01 -4.808390e-01 4.679205e-01 -5.770426e-01
89 1 2 -1.664349e+00 -1.616927e+01 1.357558e+01 0 0 0 5.538342e-01 -2.533107e-01 7.326093e-01 -3.039490e-01
90 1 3 -1.000354e+00 -1.527542e+01 1.332754e+01 0 0 0 -1.881538e-02 7.214120e-01 1.449477e-01 6.769054e-01
91 1 3 -5.700292e-01 -1.541428e+01 1.192962e+01 0 0 0 -3.995064e-01 8.438780e-02 -5.544566e-01 -7.251560e-01
92 1 2 -5.122270e-01 -1.500872e+01 1.188763e+01 0 0 0 2.412297e-02 1.419816e-01 5.233106e-01 8.398841e-01
93 1 1 3.507477e-01 -1.505666e+01 1.144084e+01 0 0 0 -1.020972e-01 -4.892693e-01 7.817871e-01 3.728278e-01
94 1 2 2.617708e-01 -1.501410e+01 1.098216e+01 0 0 0 2.362000e-01 7.925239e-02 -9.124728e-01 -3.245334e-01
95 1 3 6.219314e-02 -1.505879e+01 1.054486e+01 0 0 0 -2.845897e-01 2.757816e-01 8.967828e-01 1.968093e-01
96 1 2 -3.407809e-01 -1.474705e+01 1.032844e+01 0 0 0 4.076295e-01 -5.860929e-01 -6.826529e-01 -1.559432e-01
97 1 2 -6.833115e-01 -1.466619e+01 9.170244e+00 0 0 0 -4.835555e-01 -7.128574e-02 -8.451788e-01 -2.162528e-01
98 1 4 -3.911378e-01 -1.475439e+01 8.856633e+00 0 0 0 4.021424e-01 4.084653e-01 7.804230e-01 2.497549e-01
99 1 2 -7.645321e-01 -1.572143e+01 9.392822e+00 0 0 0 -3.328286e-01 -2.732865e-01 8.875533e-01 -1.636724e-01
100 1 1 -2.497218e-01 -1.578567e+01 8.335495e+00 0 0 0 -7.057265e-02 7.546298e-01 -6.488533e-01 -6.739980e-02
101 2 4 4.397464e+00 1.202994e+00 -2.619730e+00 0 -1 0 2.550985e-01 6.380051e-02 -9.594613e-01 -1.014309e-01
102 2 3 4.662454e+00 1.153657e+00 -3.088054e+00 0 -1 0 5.131196e-01 3.198319e-02 -8.549858e-01 6.844348e-02
103 2 1 4.243615e+00 1.343366e+00 -4.216682e+00 0 -1 0 -8.374763e-01 -3.069668e-01 2.147416e-02 4.516012e-01
104 2 3 4.723894e+00 1.653136e+00 -4.107872e+00 0 -1 0 4.576432e-01 -1.830059e-01 8.119253e-01 -3.128080e-01
105 2 3 4.603037e+00 2.270817e+00 -4.152725e+00 0 -1 0 -6.889623e-01 -2.402295e-01 4.815042e-01 -4.855661e-01
106 2 2 3.975130e+00 1.937515e+00 -4.602312e+00 0 -1 0 8.807027e-01 5.059090e-02 5.560604e-02 4.676658e-01
107 2 3 2.986306e+00 2.144294e+00 -4.318201e+00 0 -1 0 -1.224493e-01 1.738604e-01 -9.764027e-01 3.763733e-02
108 2 4 2.552424e+00 3.164490e+00 -4.104774e+00 0 -1 0 -9.666213e-04 8.948471e-01 4.635484e-02 4.439583e-01
109 2 3 2.829886e+00 2.713624e+00 -4.056523e+00 0 -1 0 -3.188092e-01 4.497309e-01 -5.078573e-01 -6.619545e-01
110 2 2 2.557199e+00 3.346529e+00 -2.695852e+00 0 -1 0 3.653236e-02 4.648019e-01 6.037581e-02 8.825981e-01
111 2 2 2.893119e+00 3.009264e+00 -2.531221e+00 0 -1 0 -6.909842e-01 7.620093e-02 -5.650411e-01 -4.443679e-01
112 2 3 1.420396e+00 2.888952e+00 -2.143427e+00 0 -1 0 -2.681259e-01 -1.338382e-02 1.426110e-01 9.526760e-01
113 2 3 1.329564e+00 2.687387e+00 -2.669853e+00 0 -1 0 -3.399431e-01 3.767585e-01 8.308509e-01 2.284259e-01
114 2 2 9.381933e-01 2.740894e+00 -2.771514e+00 0 -1 0 3.691118e-01 -6.864806e-01 -6.233322e-01 6.291157e-02
115 2 4 3.088244e-01 2.224509e+00 -2.481907e+00 0 -1 0 -5.988721e-01 3.413091e-02 2.323992e-01 7.656226e-01
116 2 4 -6.959421e-02 2.211971e+00 -2.149813e+00 0 -1 0 8.698635e-01 -8.520628e-02 -1.845915e-01 -4.494479e-01
117 2 1 -1.613264e-01 2.023967e+00 -1.624432e+00 0 -1 0 9.830443e-01 -1.553084e-01 -8.150373e-02 5.348210e-02
118 2 1 -1.513693e+00 2.333387e+00 -1.302301e+00 0 -1 0 -3.730059e-01 2.191547e-01 3.906652e-01 8.125383e-01
119 2 1 -1.668071e+00 2.700382e+00 -1.031364e+00 0 -1 0 6.495470e-01 -3.653764e-01 -1.594674e-01 -6.474248e-01
120 2 1 -1.635241e+00 2.744692e+00 -1.137720e+00 0 -1 0 8.052049e-01 -2.110130e-01 -6.977145e-02 5.497731e-01
121 2 3 -2.660003e+00 2.373444e+00 -1.275819e+00 0 -1 0 5.366395e-01 -6.355452e-01 -5.499464e-01 7.522879e-02
122 2 1 -3.121221e+00 2.568564e+00 -1.114703e+00 0 -1 0 4.600347e-01 -7.472155e-01 -3.304187e-01 3.476501e-01
123 2 4 -3.163080e+00 1.310418e+00 -7.781702e-01 0 -1 0 1.745551e-01 -7.743017e-01 5.572465e-01 -2.438518e-01
124 2 1 -4.224845e+00 1.886666e+00 -2.895940e-01 0 -1 0 -4.216313e-01 2.198548e-01 8.166230e-01 -3.271359e-01
125 2 4 -4.414203e+00 2.857517e+00 -6.573152e-01 0 -1 0 1.421267e-01 -5.671335e-01 -1.442700e-01 -7.983393e-01
126 2 2 -4.878063e+00 2.796421e+00 -1.262072e+00 0 -1 0 -6.108038e-01 -6.752577e-01 -3.714956e-01 1.814852e-01
127 2 4 -5.680033e+00 3.092799e+00 -1.346149e+00 0 -1 0 4.832110e-02 1.340849e-01 -7.266554e-01 -6.720553e-01
128 2 4 -5.941606e+00 3.407544e+00 -1.650138e+00 0 -1 0 -3.098134e-01 3.182989e-01 6.338107e-01 6.332341e-01
129 2 1 -6.220802e+00 3.754966e+00 -1.728109e+00 0 -1 0 5.268399e-01 -6.368626e-01 -4.323411e-01 -3.604537e-01
130 2 2 -5.989691e+00 3.244435e+00 -2.933515e+00 0 -1 0 7.664834e-01 -6.723914e-02 3.592164e-01 5.281531e-01
131 2 3 -5.216850e+00 3.349207e+00 -2.441153e+00 0 -1 0 5.070745e-01 5.992020e-01 4.324623e-02 6.180309e-01
132 2 4 -6.155559e+00 2.283393e+00 -1.710483e+00 0 -1 0 5.317838e-01 3.599157e-02 -8.453599e-01 3.573989e-02
133 2 4 -6.457389e+00 2.012447e+00 -1.833781e+00 0 -1 0 4.619098e-01 -1.283328e-01 -7.589517e-01 4.406386e-01
134 2 3 -6.681031e+00 1.612646e+00 -1.679039e+00 0 -1 0 2.234950e-01 -3.609097e-01 -6.759860e-01 6.023597e-01
135 2 4 -6.546596e+00 1.044492e+00 -2.253760e+00 0 -1 0 2.175441e-02 -3.430143e-03 4.188389e-01 -9.077935e-01
136 2 3 -5.414923e+00 1.616663e-01 -2.255698e+00 0 -1 0 7.351573e-01 -6.556636e-01 1.425736e-01 9.654862e-02
137 2 1 -5.937339e+00 -1.080032e-01 -2.887682e+00 0 -1 0 1.482496e-01 8.568231e-01 4.877473e-01 7.732282e-02
138 2 3 -6.067787e+00 -7.895868e-02 -3.390333e+00 0 -1 0 4.000148e-02 9.639295e-01 2.628072e-01 1.312214e-02
139 2 2 -5.614215e+00 -1.063244e+00 -4.244306e+00 0 -1 0 -9.751403e-01 6.180425e-02 -2.122023e-01 1.586814e-02
140 2 3 -5.981515e+00 -7.092899e-01 -5.334975e+00 0 -1 0 8.179525e-01 -2.113519e-03 5.335483e-01 2.151172e-01
141 2 1 -6.695579e+00 -1.645320e-01 -5.152675e+00 0 -1 0 2.253332e-02 3.181598e-01 -4.722850e-01 8.217137e-01
142 2 2 -6.744937e+00 -1.550272e-01 -5.884408e+00 0 -1 0 4.128494e-01 -2.914554e-01 -5.826147e-01 6.365290e-01
143 2 4 -7.116809e+00 -1.039284e+00 -6.218099e+00 0 -1 0 2.237923e-03 7.155198e-02 5.783102e-01 -8.126701e-01
144 2 4 -7.451221e+00 -1.315669e+00 -5.940836e+00 0 -1 0 -4.045584e-01 -4.517045e-01 -4.345850e-01 6.659064e-01
145 2 1 -7.669620e+00 -1.979469e+00 -5.991787e+00 0 -1 0 -9.396297e-01 -1.494717e-01 -1.842673e-01 2.465760e-01
146 2 1 -8.483747e+00 -2.324330e+00 -5.271959e+00 0 -1 0 7.573529e-01 1.534206e-01 -1.261297e-02 -6.346020e-01
147 2 1 -8.190606e+00 -2.243720e+00 -5.290046e+00 0 -1 0 6.699644e-01 -2.885768e-01 -5.453693e-01 4.128480e-01
148 2 2 -7.786487e+00 -3.235068e+00 -6.095176e+00 0 -1 0 -7.138102e-01 5.104183e-01 -3.439973e-01 -3.340869e-01
149 2 4 -7.437414e+00 -2.883553e+00 -5.946793e+00 0 -1 0 -4.160559e-01 3.070568e-01 -5.103199e-01 -6.871588e-01
150 2 1 -6.696655e+00 -3.090807e+00 -5.607713e+00 0 -1 0 -2.608147e-01 6.973799e-01 -5.644351e-01 3.564407e-01
151 2 1 -6.215234e+00 -3.181711e+00 -5.945296e+00 0 -1 0 -2.069380e-01 5.774138e-01 -6.779669e-01 4.051306e-01
152 2 1 -5.782784e+00 -3.451673e+00 -5.876770e+00 0 -1 0 3.833889e-01 -2.984598e-01 8.701999e-01 -8.177336e-02
153 2 4 -5.431261e+00 -3.720265e+00 -6.293018e+00 0 -1 0 -3.440839e-01 -5.958867e-02 -9.029256e-01 -2.505612e-01
154 2 1 -5.166662e+00 -3.680982e+00 -6.700568e+00 0 -1 0 -2.034858e-01 -2.634112e-01 -8.744010e-01 -3.530311e-01
155 2 2 -3.900829e+00 -3.904308e+00 -5.940382e+00 0 -1 0 -6.682446e-01 4.516723e-01 -5.898040e-01 -3.965437e-02
156 2 4 -4.572430e+00 -4.265070e+00 -5.731194e+00 0 -1 0 3.009145e-01 2.446734e-01 8.978233e-01 2.085634e-01
157 2 3 -4.601297e+00 -4.499784e+00 -4.409390e+00 0 -1 0 3.695405e-01 -1.455526e-01 5.154677e-01 -7.593071e-01
158 2 2 -4.219790e+00 -5.206615e+00 -4.602090e+00 0 -1 0 9.854247e-01 -2.617022e-02 1.341770e-01 1.012412e-01
159 2 1 -4.720075e+00 -5.880064e+00 -4.489967e+00 0 -1 0 5.805333e-01 4.770673e-02 -8.013677e-01 1.360697e-01
160 2 3 -5.136567e+00 -6.278913e+00 -4.386125e+00 0 -1 0 -5.573198e-01 1.913600e-01 7.161011e-01 -3.741327e-01
161 2 1 -5.403621e+00 -6.538892e+00 -4.154977e+00 0 -1 0 3.603519e-01 -3.197620e-01 -5.349521e-01 6.940641e-01
162 2 1 -5.971634e+00 -6.707982e+00 -3.965145e+00 0 -1 0 3.028065e-01 -5.017322e-01 -4.888467e-01 6.462213e-01
163 2 4 -6.407363e+00 -6.520461e+00 -3.972289e+00 0 -1 0 5.184942e-01 -5.384883e-01 -1.577400e-01 6.452226e-01
164 2 4 -6.955465e+00 -7.082167e+00 -4.646169e+00 0 -1 0 -2.120041e-01 6.774284e-01 -7.349953e-02 -7.005304e-01
165 2 3 -6.950271e+00 -8.076603e+00 -4.675815e+00 0 -1 0 4.216291e-01 7.202149e-01 8.068670e-02 -5.449853e-01
166 2 3 -7.458346e+00 -8.853543e+00 -4.281030e+00 0 -1 0 -2.106104e-01 4.464077e-01 8.684921e-01 4.566120e-02
167 2 4 -7.501398e+00 -9.219553e+00 -3.978786e+00 0 -1 0 5.162989e-01 2.532653e-01 1.631185e-02 -8.179401e-01
168 2 2 -7.368371e+00 -9.238320e+00 -3.387391e+00 0 -1 0 8.378648e-01 4.771543e-01 -2.079274e-01 1.645371e-01
169 2 2 -8.405083e+00 -9.533098e+00 -2.538920e+00 0 -1 0 4.238028e-01 -2.493194e-01 -6.953806e-01 5.240963e-01
170 2 1 -8.316739e+00 -9.773763e+00 -1.926581e+00 0 -1 0 -2.990740e-01 7.615286e-01 2.281674e-01 5.277960e-01
171 2 1 -7.742892e+00 -1.039159e+01 -2.133406e+00 0 -1 0 -1.646114e-01 6.336786e-01 -5.441582e-01 -5.246393e-01
172 2 4 -7.534081e+00 -1.109474e+01 -2.229678e+00 0 -1 0 -3.037048e-01 2.345927e-01 -7.751907e-01 -5.018058e-01
173 2 4 -7.065558e+00 -1.190065e+01 -1.165432e+00 0 -1 0 -3.697714e-02 -7.535476e-01 6.541793e-01 -5.336842e-02
174 2 1 -6.724918e+00 -1.187832e+01 -1.450038e+00 0 -1 0 2.273780e-01 -4.257650e-01 8.644422e-01 -1.405813e-01
175 2 1 -6.792737e+00 -1.193474e+01 -2.256399e+00 0 -1 0 5.543616e-01 6.357397e-01 5.362899e-01 -3.019088e-02
176 2 2 -6.111846e+00 -1.312355e+01 -1.375955e+00 0 -1 0 5.372208e-01 4.690204e-01 -6.606802e-01 2.343400e-01
177 2 2 -6.077577e+00 -1.359858e+01 -1.491444e+00 0 -1 0 4.484023e-01 2.038616e-01 -7.766869e-01 3.925981e-01
178 2 1 -5.029913e+00 -1.323660e+01 -1.630204e+00 0 -1 0 -1.938841e-01 9.599665e-01 -1.823003e-01 8.740630e-02
179 2 4 -5.584708e+00 -1.262969e+01 -2.317528e+00 0 -1 0 3.307426e-01 5.763157e-01 7.317193e-01 -1.518432e-01
180 2 1 -5.546307e+00 -1.278612e+01 -1.303594e+00 0 -1 0 7.169410e-01 -8.043803e-02 -3.821123e-01 -5.775081e-01
181 2 4 -4.941209e+00 -1.229404e+01 -3.745940e-01 0 -1 0 -5.795035e-01 6.652483e-01 4.097330e-01 -2.318172e-01
182 2 2 -4.651469e+00 -1.331777e+01 -4.571933e-02 0 -1 0 7.276904e-01 3.183161e-01 -5.917582e-01 -1.377090e-01
183 2 3 -4.941137e+00 -1.365774e+01 -1.235994e-01 0 -1 0 -7.276806e-01 -8.504375e-02 6.727595e-01 -1.031664e-01
184 2 4 -5.376695e+00 -1.404274e+01 1.832233e-02 0 -1 0 7.302006e-01 -1.498531e-01 -5.805329e-01 3.276168e-01
185 2 3 -5.552033e+00 -1.353751e+01 -1.617859e-02 0 -1 0 3.109941e-02 9.747930e-01 -1.978691e-01 -9.828120e-02
186 2 1 -5.858150e+00 -1.352964e+01 4.786964e-01 0 -1 0 5.370318e-01 8.359423e-01 5.340614e-02 9.972491e-02
187 2 1 -7.247542e+00 -1.369161e+01 1.096738e+00 0 -1 0 -9.448836e-02 -3.321671e-01 -9.260441e-01 -1.522474e-01
188 2 2 -7.015192e+00 -1.421314e+01 2.104989e+00 0 -1 0 -6.627941e-01 -1.491942e-03 6.614524e-01 3.509737e-01
189 2 4 -7.451053e+00 -1.428478e+01 2.133372e+00 0 -1 0 -6.996661e-01 3.804917e-01 5.985136e-01 8.645765e-02
190 2 4 -7.976569e+00 -1.423637e+01 2.095986e+00 0 -1 0 -8.030768e-01 3.579404e-01 4.691863e-01 -8.252589e-02
191 2 1 -8.423810e+00 -1.417141e+01 2.408847e+00 0 -1 0 7.289576e-01 -5.145738e-01 -2.460101e-01 3.785679e-01
192 2 4 -8.266996e+00 -1.374136e+01 2.877177e+00 0 -1 0 -2.568019e-01 7.864725e-01 4.740179e-01 -3.013649e-01
193 2 4 -8.724672e+00 -1.417310e+01 3.917133e+00 0 -1 0 1.363007e-02 1.674341e-01 -5.706008e-01 8.038624e-01
194 2 1 -8.645451e+00 -1.447469e+01 4.260840e+00 0 -1 0 -2.598527e-01 -9.434123e-02 -6.324214e-01 7.236155e-01
195 2 3 -8.390028e+00 -1.422204e+01 4.793121e+00 0 -1 0 5.987742e-01 -5.942364e-01 -5.536904e-02 5.341226e-01
196 2 4 -8.759578e+00 -1.579996e+01 4.785194e+00 0 -1 0 7.797919e-01 3.208729e-01 -4.219002e-01 -3.331146e-01
197 2 2 -9.120738e+00 -1.610491e+01 4.767502e+00 0 -1 0 7.950568e-01 2.519858e-01 -5.515937e-01 1.150199e-02
198 2 4 -9.723924e+00 -1.577381e+01 5.239055e+00 0 -1 0 7.390401e-01 -6.338547e-01 1.919697e-01 -1.232700e-01
199 2 3 -9.809631e+00 -1.617630e+01 5.994178e+00 0 -1 0 -7.278408e-01 4.937355e-01 -1.677811e-01 4.453342e-01
200 2 4 -9.126919e+00 -1.594782e+01 6.465140e+00 0 -1 0 9.721895e-01 -7.817496e-02 -1.387855e-01 1.716821e-01
