ITEM: TIMESTEP
302000000
ITEM: NUMBER OF ATOMS
200
ITEM: BOX BOUNDS pp pp pp
-2.0000000000000000e+01 2.0000000000000000e+01
-2.0000000000000000e+01 2.0000000000000000e+01
-2.0000000000000000e+01 2.0000000000000000e+01
ITEM: ATOMS id mol type x y z ix iy iz c_quat[1] c_quat[2] c_quat[3] c_quat[4]
1 1 1 1.024078e+01 1.833026e+01 1.014426e+01 -1 -1 0 2.827098e-01 -8.323063e-01 2.648854e-01 3.964557e-01
2 1 2 9.471958e+00 1.890079e+01 1.082464e+01 -1 -1 0 -2.184418e-01 -9.092217e-01 -3.384703e-01 -1.050572e-01
3 1 1 9.691256e+00 1.913677e+01 1.058991e+01 -1 -1 0 -1.325706e-01 -9.316945e-01 3.294037e-01 7.657401e-02
4 1 3 9.783503e+00 1.924445e+01 1.006536e+01 -1 -1 0 1.392762e-01 7.171712e-01 -6.648459e-01 -1.557166e-01
5 1 1 9.792453e+00 1.923314e+01 9.554093e+00 -1 -1 0 1.072684e-01 6.039499e-01 -7.889964e-01 -3.496591e-02
6 1 2 9.828611e+00 1.876145e+01 9.133366e+00 -1 -1 0 1.642931e-01 1.108072e-01 -9.499583e-01 -2.414719e-01
7 1 4 1.086829e+01 1.849032e+01 9.448065e+00 -1 -1 0 -7.209409e-01 6.750358e-01 -1.007229e-01 -1.201073e-01
8 1 1 1.029194e+01 1.826787e+01 9.166462e+00 -1 -1 0 -7.177121e-01 6.031124e-01 3.300671e-03 -3.480429e-01
9 1 1 1.081782e+01 1.755917e+01 9.369571e+00 -1 -1 0 7.682165e-01 -6.121065e-01 -2.206815e-02 -1.862311e-01
10 1 4 1.137041e+01 1.710130e+01 9.131199e+00 -1 -1 0 6.821204e-01 -4.420866e-01 4.661952e-01 -3.491895e-01
11 1 1 1.132583e+01 1.832077e+01 8.483976e+00 -1 -1 0 1.778164e-01 8.294127e-01 1.882622e-02 5.292461e-01
12 1 1 1.169612e+01 1.780588e+01 7.766294e+00 -1 -1 0 -1.543774e-01 -8.010950e-01 -1.027396e-01 5.690861e-01
13 1 3 1.234560e+01 1.756439e+01 7.066981e+00 -1 -1 0 -3.629584e-01 -7.882766e-01 9.598021e-02 4.875130e-01
14 1 4 1.209406e+01 1.749870e+01 6.753963e+00 -1 -1 0 6.644911e-01 4.175638e-01 -5.379982e-01 -3.076523e-01
15 1 4 1.176884e+01 1.730884e+01 6.543395e+00 -1 -1 0 6.774220e-01 1.669806e-01 -7.144381e-01 5.286904e-02
16 1 2 1.138279e+01 1.881011e+01 6.469811e+00 -1 -1 0 3.084318e-01 -6.539592e-01 -4.833308e-01 4.935569e-01
17 1 1 1.166402e+01 1.814768e+01 5.243396e+00 -1 -1 0 -7.859519e-01 -6.127239e-01 4.762006e-02 -6.768543e-02
18 1 2 1.183450e+01 1.809380e+01 4.985111e+00 -1 -1 0 5.388418e-01 3.707975e-01 6.616447e-01 3.665856e-01
19 1 3 1.261783e+01 1.848319e+01 5.749575e+00 -1 -1 0 -8.014940e-01 -1.264313e-01 -3.451845e-01 -4.716674e-01
20 1 1 1.312271e+01 1.811610e+01 6.721435e+00 -1 -1 0 -6.888152e-01 5.726473e-01 -1.855836e-01 4.039398e-01
21 1 4 1.351784e+01 1.766957e+01 6.626661e+00 -1 -1 0 -2.890849e-01 3.888237e-01 -5.791452e-01 6.556195e-01
22 1 1 1.387181e+01 1.680265e+01 6.452071e+00 -1 -1 0 4.253896e-01 -3.549525e-01 6.791032e-01 -4.815301e-01
23 1 4 1.431567e+01 1.766499e+01 6.897184e+00 -1 -1 0 -4.642180e-02 3.963861e-01 -6.652930e-01 6.309583e-01
24 1 3 1.454052e+01 1.728301e+01 7.150642e+00 -1 -1 0 -2.739613e-01 9.257685e-02 -6.917922e-01 6.616633e-01
25 1 3 1.457161e+01 1.679203e+01 7.391883e+00 -1 -1 0 -4.555527e-01 -1.885370e-01 -6.372306e-01 5.923367e-01
26 1 4 1.535979e+01 1.677394e+01 7.255259e+00 -1 -1 0 -2.175990e-01 -4.729417e-01 -5.845327e-01 -6.223329e-01
27 1 4 1.529969e+01 1.644470e+01 6.946861e+00 -1 -1 0 6.556954e-01 -2.341577e-01 1.983970e-01 6.898350e-01
28 1 1 1.512979e+01 1.540104e+01 7.227605e+00 -1 -1 0 2.978809e-01 8.043483e-01 -3.839088e-01 -3.419135e-01
29 1 1 1.531661e+01 1.455817e+01 8.020343e+00 -1 -1 0 7.534336e-01 -5.659118e-01 3.220743e-01 -9.137663e-02
30 1 4 1.532414e+01 1.430855e+01 8.018411e+00 -1 -1 0 3.267790e-01 -9.311811e-01 1.430922e-01 7.511269e-02
31 1 4 1.529969e+01 1.410278e+01 7.016472e+00 -1 -1 0 1.348032e-01 -8.786638e-01 3.345200e-01 3.128488e-01
32 1 3 1.522671e+01 1.364666e+01 7.182140e+00 -1 -1 0 -6.601761e-01 -1.966117e-01 -5.385533e-01 4.852542e-01
33 1 3 1.571914e+01 1.318678e+01 7.469830e+00 -1 -1 0 -4.417262e-02 8.550506e-01 -4.649006e-01 -2.253990e-01
34 1 1 1.447811e+01 1.304639e+01 8.114189e+00 -1 -1 0 -2.760796e-01 7.081972e-01 4.665329e-01 4.523095e-01
35 1 2 1.439402e+01 1.325982e+01 6.824370e+00 -1 -1 0 -1.884299e-01 -4.440889e-01 -7.547377e-01 -4.445787e-01
36 1 2 1.457182e+01 1.298610e+01 6.888916e+00 -1 -1 0 9.107727e-01 1.304990e-01 -3.915381e-01 -1.268877e-02
37 1 1 1.333543e+01 1.344504e+01 6.384531e+00 -1 -1 0 -6.134979e-01 -4.449233e-01 -5.099093e-01 4.070088e-01
38 1 1 1.320042e+01 1.282455e+01 6.110618e+00 -1 -1 0 -6.446605e-01 -5.759159e-01 -4.722996e-01 1.722407e-01
39 1 4 1.344214e+01 1.254771e+01 6.180473e+00 -1 -1 0 -7.037851e-01 7.007272e-01 -1.003310e-02 1.164786e-01
40 1 4 1.382529e+01 1.150854e+01 5.513739e+00 -1 -1 0 -9.080723e-01 -3.068190e-01 2.707990e-01 8.907640e-02
41 1 2 1.337754e+01 1.164451e+01 6.151867e+00 -1 -1 0 1.508167e-01 -7.400518e-01 -4.043257e-01 -5.158472e-01
42 1 4 1.362901e+01 1.071937e+01 5.230717e+00 -1 -1 0 9.722174e-01 -3.401027e-02 6.416748e-02 -2.225289e-01
43 1 3 1.443811e+01 1.064997e+01 4.970466e+00 -1 -1 0 8.419619e-01 -4.718960e-01 2.461532e-01 -8.844701e-02
44 1 2 1.406540e+01 1.062467e+01 4.566656e+00 -1 -1 0 6.262255e-01 -1.780651e-01 3.246884e-02 7.583405e-01
45 1 1 1.426434e+01 9.910775e+00 3.726791e+00 -1 -1 0 3.643440e-01 -2.966374e-01 4.787710e-01 7.416455e-01
46 1 3 1.478858e+01 9.793211e+00 4.124110e+00 -1 -1 0 7.788805e-01 -4.944259e-01 2.004241e-01 -3.297248e-01
47 1 4 1.518127e+01 1.049183e+01 3.303676e+00 -1 -1 0 5.892565e-01 -7.085312e-01 -1.876512e-01 3.399225e-01
48 1 1 1.551425e+01 9.706868e+00 2.428414e+00 -1 -1 0 -7.463879e-01 -1.493636e-01 -6.283888e-01 1.603846e-01
49 1 4 1.537625e+01 9.735943e+00 1.909646e+00 -1 -1 0 3.939874e-01 1.020634e-01 -7.865585e-01 -4.644164e-01
50 1 4 1.682731e+01 9.776614e+00 2.171515e+00 -1 -1 0 -1.174611e-01 9.089134e-01 -3.968687e-01 -5.073984e-02
51 1 4 1.692022e+01 9.937462e+00 1.739439e+00 -1 -1 0 -3.462504e-02 -6.207062e-01 7.811354e-01 5.790062e-02
52 1 1 1.719378e+01 9.744649e+00 1.354086e+00 -1 -1 0 -4.792750e-02 -1.542354e-01 9.831813e-01 8.525816e-02
53 1 3 1.819407e+01 9.548166e+00 2.025966e+00 -1 -1 0 2.303215e-01 7.156694e-01 -6.313387e-01 1.902125e-01
54 1 4 1.834931e+01 9.090000e+00 1.719545e+00 -1 -1 0 1.579103e-01 5.461624e-01 -6.972174e-01 4.366449e-01
55 1 4 1.875520e+01 9.216501e+00 9.793758e-01 -1 -1 0 -4.690869e-01 -1.263494e-01 -5.202870e-01 -7.023495e-01
56 1 4 1.915124e+01 9.542472e+00 9.685415e-01 -1 -1 0 2.604790e-01 1.802139e-01 6.786447e-01 6.626575e-01
57 1 1 1.929693e+01 9.870742e+00 6.180296e-01 -1 -1 0 2.306745e-02 5.161140e-01 4.513425e-01 7.275879e-01
58 1 1 2.009026e+01 9.911863e+00 7.164296e-02 -1 -1 0 3.156793e-02 8.484467e-01 5.155967e-01 -1.153326e-01
59 1 3 -1.919335e+01 9.215485e+00 5.129109e-01 0 -1 0 7.189942e-01 -2.940650e-01 3.425890e-01 -5.283994e-01
60 1 4 -1.914267e+01 9.143285e+00 8.861216e-01 0 -1 0 -9.495673e-01 1.286552e-01 -2.780873e-01 6.661280e-02
61 1 2 -1.990200e+01 9.066641e+00 1.816918e+00 0 -1 0 -2.564438e-01 4.507395e-01 -6.942495e-01 4.990873e-01
62 1 3 -1.951560e+01 8.696598e+00 1.922166e+00 0 -1 0 4.621804e-01 -8.964366e-02 8.181766e-01 -3.300611e-01
63 1 2 -1.918916e+01 8.368103e+00 1.864146e+00 0 -1 0 4.656002e-01 9.708244e-02 8.216445e-01 -3.141524e-01
64 1 4 -1.780469e+01 9.013699e+00 2.360399e+00 0 -1 0 -6.762183e-01 4.033321e-02 2.888612e-01 -6.765067e-01
65 1 2 -1.847569e+01 8.248931e+00 2.878374e+00 0 -1 0 -4.556141e-01 8.853913e-02 4.007047e-01 7.899445e-01
66 1 1 -1.890269e+01 8.229711e+00 3.511798e+00 0 -1 0 -6.628921e-01 3.786053e-01 1.967411e-01 6.152439e-01
67 1 2 -1.903754e+01 8.581741e+00 3.862890e+00 0 -1 0 -8.231191e-01 2.911009e-01 1.796581e-01 4.532749e-01
68 1 1 -1.801193e+01 8.977593e+00 3.687899e+00 0 -1 0 -8.237652e-01 2.970766e-02 -4.124772e-01 -3.878027e-01
69 1 1 -1.757359e+01 8.841613e+00 3.801415e+00 0 -1 0 6.458723e-01 1.362568e-01 3.774906e-01 6.494489e-01
70 1 2 -1.714738e+01 9.119905e+00 3.773004e+00 0 -1 0 -3.173770e-01 -3.809755e-01 -2.494661e-01 -8.318029e-01
71 1 3 -1.677560e+01 9.439161e+00 4.016486e+00 0 -1 0 1.315561e-01 -3.787775e-01 -8.520077e-02 -9.121192e-01
72 1 4 -1.571354e+01 8.666321e+00 4.261244e+00 0 -1 0 9.088948e-01 1.627181e-03 -2.652072e-01 -3.218271e-01
73 1 1 -1.642757e+01 8.651150e+00 4.596760e+00 0 -1 0 4.477589e-01 -2.706059e-01 7.878310e-01 -3.249721e-01
74 1 1 -1.588761e+01 9.282458e+00 5.724223e+00 0 -1 0 1.616038e-01 -6.603060e-01 1.601781e-01 -7.156977e-01
75 1 3 -1.548255e+01 9.463026e+00 5.972653e+00 0 -1 0 -4.419927e-01 5.252523e-01 -4.269602e-01 5.886063e-01
76 1 1 -1.533959e+01 1.088203e+01 6.000207e+00 0 -1 0 2.726526e-01 -5.761363e-01 -5.670295e-01 5.217328e-01
77 1 4 -1.506664e+01 9.697309e+00 6.297933e+00 0 -1 0 6.156778e-01 -3.603817e-02 3.285670e-01 -7.153222e-01
78 1 1 -1.482831e+01 9.251498e+00 6.933349e+00 0 -1 0 3.506908e-01 2.619880e-02 -9.063546e-01 -2.342025e-01
79 1 4 -1.395582e+01 9.373721e+00 7.856079e+00 0 -1 0 -9.189486e-01 2.447027e-01 2.965195e-01 -8.792176e-02
80 1 2 -1.412974e+01 9.317163e+00 8.301693e+00 0 -1 0 7.731615e-01 -3.771323e-01 -1.936171e-01 4.717042e-01
81 1 4 -1.419269e+01 9.692685e+00 8.764276e+00 0 -1 0 -5.089423e-01 5.577833e-01 -2.871426e-02 -6.550046e-01
82 1 4 -1.523518e+01 1.010492e+01 9.576456e+00 0 -1 0 -1.901646e-01 7.224662e-01 3.974603e-01 5.328278e-01
83 1 4 -1.605099e+01 9.610184e+00 9.220404e+00 0 -1 0 6.975546e-01 9.272698e-02 -2.291234e-01 -6.725487e-01
84 1 4 -1.563322e+01 1.027996e+01 1.046131e+01 0 -1 0 -6.549549e-01 3.845283e-01 5.521950e-01 -3.438791e-01
85 1 1 -1.596230e+01 1.025578e+01 1.077973e+01 0 -1 0 -4.700498e-01 5.433170e-01 3.532703e-01 -5.992161e-01
86 1 1 -1.565899e+01 9.336395e+00 1.022773e+01 0 -1 0 -3.214325e-01 3.910454e-01 -2.990260e-01 -8.089179e-01
87 1 3 -1.659088e+01 8.674248e+00 1.135356e+01 0 -1 0 7.294989e-01 -2.374170e-01 -5.125147e-02 -6.394043e-01
88 1 2 -1.674631e+01 8.829558e+00 1.185260e+01 0 -1 0 8.827756e-01 -2.501150e-01 8.199308e-02 -3.891360e-01
89 1 2 -1.667647e+01 8.788254e+00 1.233125e+01 0 -1 0 9.681940e-01 -1.247207e-01 2.167952e-01 -6.711066e-03
90 1 3 -1.677625e+01 9.337064e+00 1.362654e+01 0 -1 0 5.775747e-01 -6.625951e-01 -4.724550e-01 6.450905e-02
91 1 3 -1.715422e+01 9.676311e+00 1.377622e+01 0 -1 0 5.032075e-01 -7.718086e-01 -1.962477e-01 3.355302e-01
92 1 2 -1.696257e+01 8.672101e+00 1.373960e+01 0 -1 0 4.896746e-01 5.932972e-01 -3.333210e-01 -5.450820e-01
93 1 1 -1.705334e+01 8.157679e+00 1.412002e+01 0 -1 0 -9.441077e-01 3.241704e-01 1.147912e-02 -5.867254e-02
94 1 2 -1.692646e+01 8.264628e+00 1.462535e+01 0 -1 0 -8.678666e-01 3.560758e-01 -1.479285e-01 -3.132646e-01
95 1 3 -1.667601e+01 8.474183e+00 1.497073e+01 0 -1 0 -5.532524e-01 2.838363e-01 -2.827697e-01 -7.303355e-01
96 1 2 -1.650004e+01 8.846190e+00 1.506684e+01 0 -1 0 6.526840e-02 -1.316896e-02 3.478325e-01 9.351894e-01
97 1 2 -1.541119e+01 8.198627e+00 1.610336e+01 0 -1 0 -1.329061e-01 -5.839791e-01 4.873832e-01 -6.354227e-01
98 1 4 -1.445338e+01 7.848970e+00 1.540101e+01 0 -1 0 2.272252e-01 -7.580399e-01 4.330230e-01 4.315499e-01
99 1 2 -1.547409e+01 7.180798e+00 1.549681e+01 0 -1 0 -3.691485e-01 -3.448906e-01 -6.658987e-01 5.489615e-01
100 1 1 -1.595198e+01 6.708209e+00 1.596876e+01 0 -1 0 -3.448752e-01 3.035846e-01 5.883828e-01 6.653594e-01
101 2 4 -8.278733e+00 2.799910e+00 4.277954e+00 0 -1 0 5.278764e-01 2.923354e-01 6.619145e-01 4.446974e-01
102 2 3 -7.890355e+00 2.943610e+00 3.870449e+00 0 -1 0 -2.828843e-01 -5.638060e-01 -4.238566e-01 -6.499576e-01
103 2 1 -7.320592e+00 3.213167e+00 3.859589e+00 0 -1 0 5.305207e-02 5.615631e-01 4.787073e-01 6.728088e-01
104 2 3 -7.119570e+00 3.690412e+00 3.797000e+00 0 -1 0 1.871112e-01 -6.937688e-01 -9.883379e-02 -6.884084e-01
105 2 3 -7.115474e+00 4.311859e+00 2.580575e+00 0 -1 0 -3.198939e-01 -4.289720e-02 -6.318603e-01 -7.046846e-01
106 2 2 -6.972628e+00 4.656583e+00 2.287871e+00 0 -1 0 -6.829103e-02 -3.616603e-01 -5.023888e-01 -7.823961e-01
107 2 3 -6.986772e+00 5.144798e+00 2.252433e+00 0 -1 0 2.166446e-01 -5.985793e-01 -1.804081e-01 -7.498139e-01
108 2 4 -6.527181e+00 5.342643e+00 1.217071e+00 0 -1 0 4.244630e-02 2.815387e-01 -6.592639e-01 -6.959206e-01
109 2 3 -6.908660e+00 5.795099e+00 1.741488e+00 0 -1 0 -5.923217e-01 -1.580152e-01 4.284090e-01 6.638162e-01
110 2 2 -7.370356e+00 5.827348e+00 1.796121e+00 0 -1 0 7.869464e-01 -5.979843e-02 -4.927803e-01 -3.664794e-01
111 2 2 -7.742067e+00 5.836102e+00 1.927451e+00 0 -1 0 8.713307e-01 -1.845003e-01 -4.539425e-01 2.605194e-02
112 2 3 -7.779088e+00 6.665008e+00 1.392357e+00 0 -1 0 9.047683e-01 8.158466e-02 -1.027293e-01 4.051974e-01
113 2 3 -8.627569e+00 6.851038e+00 2.060303e+00 0 -1 0 1.427981e-04 6.500135e-01 7.235500e-01 -2.322883e-01
114 2 2 -8.703456e+00 7.206759e+00 1.815479e+00 0 -1 0 2.586719e-01 9.333394e-01 -1.787418e-02 -2.482879e-01
115 2 4 -9.296218e+00 6.805143e+00 1.299131e+00 0 -1 0 8.356263e-01 5.104458e-01 2.018064e-01 -2.116571e-02
116 2 4 -9.332132e+00 7.159310e+00 1.435632e+00 0 -1 0 -5.642927e-01 -2.158724e-01 5.498151e-01 5.767809e-01
117 2 1 -9.048837e+00 8.439759e+00 1.293784e+00 0 -1 0 1.704770e-01 4.882837e-01 -1.697895e-01 -8.388612e-01
118 2 1 -9.533657e+00 8.678098e+00 1.394987e+00 0 -1 0 -3.610750e-01 -5.756430e-01 3.084604e-01 6.656667e-01
119 2 1 -1.004257e+01 8.667818e+00 1.456885e+00 0 -1 0 6.781307e-01 4.423015e-01 -3.951173e-01 -4.340397e-01
120 2 1 -1.055997e+01 8.422435e+00 1.389601e+00 0 -1 0 8.494023e-01 4.253160e-01 -2.429142e-01 -1.965061e-01
121 2 3 -1.150209e+01 8.762521e+00 1.126675e+00 0 -1 0 -6.078879e-02 6.638162e-01 5.202529e-01 -5.338442e-01
122 2 1 -1.181117e+01 8.001556e+00 1.827938e+00 0 -1 0 -1.335991e-01 1.623349e-02 -9.905227e-01 2.743193e-02
123 2 4 -1.044051e+01 8.309400e+00 2.133396e+00 0 -1 0 -7.517019e-01 4.516228e-01 1.787978e-01 -4.461082e-01
124 2 1 -1.046378e+01 7.603101e+00 2.689480e+00 0 -1 0 -2.089873e-01 -8.356872e-01 3.352146e-01 -3.815526e-01
125 2 4 -1.094183e+01 7.180960e+00 3.531863e+00 0 -1 0 -6.711142e-01 3.279502e-01 6.311431e-01 2.090762e-01
126 2 2 -1.139748e+01 7.349415e+00 3.829172e+00 0 -1 0 7.032753e-01 -6.056412e-01 -3.704187e-01 3.731863e-02
127 2 4 -1.172262e+01 6.432827e+00 4.287733e+00 0 -1 0 -7.896120e-01 4.187907e-01 3.098102e-01 3.242605e-01
128 2 4 -1.241058e+01 6.753656e+00 4.581798e+00 0 -1 0 -4.065732e-01 7.560304e-01 4.605724e-01 2.258081e-01
129 2 1 -1.225523e+01 6.077498e+00 5.263157e+00 0 -1 0 -8.972970e-02 -1.797292e-01 6.710134e-01 -7.137135e-01
130 2 2 -1.188141e+01 5.099459e+00 5.440405e+00 0 -1 0 6.136668e-02 2.949963e-01 -9.342216e-01 1.908959e-01
131 2 3 -1.174400e+01 4.713341e+00 5.128756e+00 0 -1 0 3.420992e-02 9.033152e-02 9.808972e-01 -1.688509e-01
132 2 4 -1.050165e+01 5.409461e+00 5.481774e+00 0 -1 0 2.928065e-01 -8.093900e-01 4.718014e-01 -1.911954e-01
133 2 4 -1.005083e+01 5.579944e+00 5.351674e+00 0 -1 0 -2.509527e-01 6.108173e-01 -7.464590e-01 8.199975e-02
134 2 3 -9.621743e+00 5.512212e+00 5.106074e+00 0 -1 0 3.537073e-01 -2.089999e-01 9.117059e-01 1.583395e-03
135 2 4 -8.896394e+00 5.994233e+00 5.427522e+00 0 -1 0 2.972188e-01 7.603688e-01 -3.910166e-01 -4.249780e-01
136 2 3 -8.478808e+00 5.249426e+00 5.609676e+00 0 -1 0 3.952081e-02 -7.448656e-01 6.636609e-01 5.628152e-02
137 2 1 -8.474760e+00 6.066969e+00 6.400293e+00 0 -1 0 -3.535552e-01 5.940385e-01 7.211151e-01 4.593464e-02
138 2 3 -7.579764e+00 6.319175e+00 6.888001e+00 0 -1 0 2.768081e-01 2.991552e-01 -5.985926e-01 6.896161e-01
139 2 2 -7.439128e+00 5.932862e+00 7.178406e+00 0 -1 0 1.978820e-02 -3.406837e-02 6.478079e-01 -7.607842e-01
140 2 3 -7.094671e+00 5.541056e+00 7.771043e+00 0 -1 0 9.359516e-01 -3.335056e-01 -7.048318e-02 8.832201e-02
141 2 1 -6.698375e+00 6.227549e+00 7.337159e+00 0 -1 0 7.944429e-01 6.484153e-02 3.984278e-01 4.537746e-01
142 2 2 -7.073492e+00 6.873585e+00 7.980781e+00 0 -1 0 -3.758576e-01 -5.368981e-01 -6.081892e-01 -4.478586e-01
143 2 4 -7.750577e+00 7.136644e+00 8.261671e+00 0 -1 0 3.548056e-01 5.173132e-01 6.063352e-01 4.887306e-01
144 2 4 -7.727614e+00 6.574382e+00 9.019070e+00 0 -1 0 7.313936e-01 5.066866e-01 -3.652068e-01 -2.737810e-01
145 2 1 -8.080265e+00 6.218441e+00 8.855719e+00 0 -1 0 -8.228833e-01 -3.528426e-01 4.435148e-01 -4.074019e-02
146 2 1 -8.594563e+00 5.760371e+00 8.759748e+00 0 -1 0 7.365589e-01 -5.914260e-01 2.323650e-01 -2.317387e-01
147 2 1 -8.414661e+00 5.806766e+00 8.815761e+00 0 -1 0 -5.490163e-02 6.022325e-01 -6.328690e-01 -4.835066e-01
148 2 2 -9.261226e+00 5.927898e+00 9.400437e+00 0 -1 0 7.680197e-01 1.201382e-01 5.541426e-01 -2.977221e-01
149 2 4 -9.050510e+00 5.442783e+00 9.575423e+00 0 -1 0 -8.485993e-01 -2.469349e-01 -4.626997e-01 6.936464e-02
150 2 1 -9.104556e+00 4.773553e+00 9.950323e+00 0 -1 0 -5.447374e-01 -3.535983e-02 8.368394e-01 -4.136060e-02
151 2 1 -9.388976e+00 4.513582e+00 1.004999e+01 0 -1 0 6.680393e-01 4.345087e-01 -5.858610e-01 -1.472837e-01
152 2 1 -1.022076e+01 5.631827e+00 9.932175e+00 0 -1 0 -3.449411e-01 7.388589e-01 4.966903e-01 -2.973246e-01
153 2 4 -1.097981e+01 5.556363e+00 9.902567e+00 0 -1 0 -5.425103e-01 -1.547235e-01 -3.101972e-01 7.651933e-01
154 2 1 -1.126494e+01 5.560008e+00 1.048446e+01 0 -1 0 -4.070550e-01 7.581414e-01 4.510613e-01 2.367943e-01
155 2 2 -1.119691e+01 6.009308e+00 1.054957e+01 0 -1 0 7.453615e-01 -5.295300e-02 1.840408e-02 6.642992e-01
156 2 4 -1.138462e+01 6.223304e+00 1.021943e+01 0 -1 0 -7.626775e-01 -1.437223e-01 -6.302504e-01 -2.124565e-02
157 2 3 -1.119885e+01 6.841794e+00 1.091547e+01 0 -1 0 -4.033916e-01 -8.830980e-01 1.718026e-01 1.670237e-01
158 2 2 -1.159353e+01 6.177430e+00 1.219402e+01 0 -1 0 1.844227e-01 -2.038958e-02 -8.612098e-01 4.731704e-01
159 2 1 -1.171961e+01 5.609781e+00 1.211403e+01 0 -1 0 -8.242835e-02 -3.363144e-01 -7.563487e-01 5.550089e-01
160 2 3 -1.158043e+01 5.568277e+00 1.318773e+01 0 -1 0 5.837519e-01 -3.042946e-01 -7.124449e-01 2.430243e-01
161 2 1 -1.195999e+01 5.583331e+00 1.340108e+01 0 -1 0 2.871688e-01 -6.792006e-01 -3.509501e-01 5.771089e-01
162 2 1 -1.204325e+01 4.696563e+00 1.413131e+01 0 -1 0 4.960089e-01 -4.415958e-01 -7.103521e-01 2.331701e-01
163 2 4 -1.255242e+01 3.671587e+00 1.322922e+01 0 -1 0 -5.655677e-01 -1.594884e-02 4.740550e-01 6.746485e-01
164 2 4 -1.294863e+01 3.946323e+00 1.364946e+01 0 -1 0 -7.899450e-01 7.880024e-02 3.291186e-01 5.113301e-01
165 2 3 -1.332206e+01 3.862078e+00 1.401387e+01 0 -1 0 9.420026e-01 -7.228545e-02 -3.074044e-01 -1.136156e-01
166 2 3 -1.437135e+01 4.173743e+00 1.335404e+01 0 -1 0 1.879681e-01 -2.030813e-01 -2.231012e-01 -9.346934e-01
167 2 4 -1.301423e+01 4.159126e+00 1.280325e+01 0 -1 0 -4.097391e-01 8.809073e-01 9.951152e-03 -2.366795e-01
168 2 2 -1.274589e+01 3.543513e+00 1.190303e+01 0 -1 0 -2.084017e-01 -6.732177e-01 3.025155e-01 6.417407e-01
169 2 2 -1.171450e+01 3.284375e+00 1.176349e+01 0 -1 0 3.490631e-01 7.724137e-01 -4.730226e-01 -2.403780e-01
170 2 1 -1.187844e+01 3.234440e+00 1.125516e+01 0 -1 0 4.629466e-01 5.253776e-01 -7.090028e-01 -8.350948e-02
171 2 1 -1.225578e+01 4.265738e+00 1.021140e+01 0 -1 0 -5.068031e-01 -7.779495e-01 -3.509381e-01 1.216045e-01
172 2 4 -1.211457e+01 3.986482e+00 9.765632e+00 0 -1 0 5.064033e-01 8.224462e-01 1.796076e-01 1.867594e-01
173 2 4 -1.352836e+01 3.734354e+00 1.024422e+01 0 -1 0 4.061499e-01 1.798837e-01 4.883197e-01 -7.511511e-01
174 2 1 -1.376059e+01 3.349989e+00 1.055314e+01 0 -1 0 -6.151414e-01 -4.351210e-01 -4.310999e-01 4.964108e-01
175 2 1 -1.398473e+01 2.933082e+00 1.063621e+01 0 -1 0 -8.107097e-01 -5.330953e-01 -1.737600e-01 1.684240e-01
176 2 2 -1.408249e+01 2.463539e+00 1.056362e+01 0 -1 0 7.643499e-01 6.410832e-01 -1.608159e-03 6.912956e-02
177 2 2 -1.530768e+01 2.120507e+00 1.035208e+01 0 -1 0 8.286562e-01 2.923521e-01 2.211920e-01 -4.230051e-01
178 2 1 -1.543378e+01 1.736180e+00 1.047757e+01 0 -1 0 -9.406972e-01 -3.384519e-01 -3.710145e-03 2.292081e-02
179 2 4 -1.650912e+01 1.893488e+00 1.098805e+01 0 -1 0 -5.720818e-01 6.882875e-01 6.544223e-02 4.412483e-01
180 2 1 -1.631207e+01 1.405689e+00 9.651384e+00 0 -1 0 -7.250501e-02 -7.790453e-01 4.509094e-01 4.295488e-01
181 2 4 -1.706132e+01 8.281762e-01 9.533314e+00 0 -1 0 -1.250141e-01 4.620487e-01 -8.576495e-01 1.879356e-01
182 2 2 -1.685705e+01 4.818826e-01 8.944080e+00 0 -1 0 -7.869765e-01 -5.229986e-02 5.519246e-01 2.707618e-01
183 2 3 -1.652229e+01 -2.705387e-01 9.007393e+00 0 -1 0 2.705999e-01 -5.198303e-01 7.628226e-01 -2.732286e-01
184 2 4 -1.633214e+01 -4.301891e-01 8.416599e+00 0 -1 0 5.916068e-01 3.827246e-01 -6.589940e-01 2.631544e-01
185 2 3 -1.586134e+01 1.748388e-01 8.050990e+00 0 -1 0 3.681548e-01 2.424387e-01 1.783943e-02 8.974226e-01
186 2 1 -1.583801e+01 -7.818001e-01 7.567531e+00 0 -1 0 -2.675112e-01 -1.688876e-01 -8.398104e-01 4.411726e-01
187 2 1 -1.573717e+01 -1.206114e+00 7.371378e+00 0 -1 0 -1.692870e-01 -3.240285e-01 -8.018486e-01 4.726376e-01
188 2 2 -1.522367e+01 -2.350857e+00 6.982829e+00 0 -1 0 -6.441708e-02 4.870419e-01 -8.685731e-01 -6.497202e-02
189 2 4 -1.504164e+01 -2.519426e+00 6.539803e+00 0 -1 0 -1.732217e-02 5.906622e-02 -9.925067e-01 -1.055540e-01
190 2 4 -1.449572e+01 -3.273534e+00 6.989411e+00 0 -1 0 -5.442905e-01 3.801618e-01 -4.922645e-01 5.629392e-01
191 2 1 -1.434529e+01 -3.532879e+00 6.772347e+00 0 -1 0 5.758035e-02 3.681497e-01 -6.339099e-01 -6.777230e-01
192 2 4 -1.427947e+01 -3.787731e+00 7.272659e+00 0 -1 0 8.360379e-01 -6.286088e-02 2.390323e-01 4.898496e-01
193 2 4 -1.445779e+01 -4.389077e+00 6.953087e+00 0 -1 0 -6.282993e-01 -6.911340e-01 -3.318635e-01 -1.320617e-01
194 2 1 -1.393770e+01 -5.598840e+00 7.005336e+00 0 -1 0 7.716782e-01 -4.139870e-01 4.774989e-01 7.157031e-02
195 2 3 -1.483686e+01 -5.557221e+00 6.389264e+00 0 -1 0 -1.007907e-01 2.904497e-01 9.510953e-01 2.996630e-02
196 2 4 -1.519372e+01 -5.675722e+00 6.027274e+00 0 -1 0 7.292552e-02 -6.994203e-01 -7.107195e-01 1.925740e-02
197 2 2 -1.495436e+01 -6.420780e+00 5.795345e+00 0 -1 0 -4.467358e-01 -8.630116e-01 -5.094264e-02 2.303106e-01
198 2 4 -1.588622e+01 -7.295255e+00 6.884175e+00 0 -1 0 1.855053e-01 -1.720688e-01 -9.312575e-01 2.621824e-01
199 2 3 -1.631162e+01 -7.552980e+00 6.806691e+00 0 -1 0 1.294473e-03 6.069709e-01 7.169573e-01 -3.428656e-01
200 2 4 -1.629143e+01 -8.347690e+00 6.384915e+00 0 -1 0 3.082839e-01 3.772441e-01 -8.714883e-01 5.617846e-02
