ITEM: TIMESTEP
330000000
ITEM: NUMBER OF ATOMS
200
ITEM: BOX BOUNDS pp pp pp
-2.0000000000000000e+01 2.0000000000000000e+01
-2.0000000000000000e+01 2.0000000000000000e+01
-2.0000000000000000e+01 2.0000000000000000e+01
ITEM: ATOMS id mol type x y z ix iy iz c_quat[1] c_quat[2] c_quat[3] c_quat[4]
1 1 1 -9.256784e+00 8.947762e+00 2.594930e+00 0 -1 0 3.937442e-01 -7.371957e-01 -4.002872e-02 5.476365e-01
2 1 2 -9.685703e+00 9.311898e+00 2.495134e+00 0 -1 0 2.700995e-01 -8.687193e-01 9.712702e-02 4.036575e-01
3 1 1 -9.818461e+00 9.908806e+00 2.161328e+00 0 -1 0 1.216877e-01 -7.595830e-01 3.818334e-01 5.122782e-01
4 1 3 -9.879945e+00 1.027504e+01 1.923292e+00 0 -1 0 6.432919e-02 5.405897e-01 -6.572393e-01 -5.212111e-01
5 1 1 -1.004235e+01 1.045542e+01 1.536309e+00 0 -1 0 -2.589676e-01 -1.972091e-01 8.640552e-01 3.839960e-01
6 1 2 -9.154542e+00 1.107259e+01 7.977204e-01 0 -1 0 -4.536988e-01 -8.229942e-01 -1.369117e-01 3.131983e-01
7 1 4 -8.509984e+00 1.147492e+01 6.941236e-01 0 -1 0 -4.706178e-02 -9.926914e-01 -1.020583e-01 -4.396582e-02
8 1 1 -8.425662e+00 1.177474e+01 3.397340e-01 0 -1 0 -1.313046e-02 9.404430e-01 -3.351165e-01 -5.560103e-02
9 1 1 -8.346294e+00 1.193180e+01 -1.885123e-01 0 -1 0 -1.526214e-01 5.812136e-01 -7.722091e-01 -2.063746e-01
10 1 4 -8.130603e+00 1.208782e+01 -6.133111e-01 0 -1 0 7.084094e-03 -2.301631e-01 9.184052e-01 3.217244e-01
11 1 1 -8.314994e+00 1.303889e+01 -1.110829e-01 0 -1 0 -7.153506e-01 5.008127e-01 3.834333e-01 3.007310e-01
12 1 1 -8.530915e+00 1.359056e+01 -4.025290e-01 0 -1 0 3.870136e-01 5.409246e-01 -2.024635e-01 -7.187695e-01
13 1 3 -9.008384e+00 1.364182e+01 -5.771209e-01 0 -1 0 5.890530e-01 4.485022e-01 -3.957242e-01 -5.433826e-01
14 1 4 -9.456073e+00 1.354867e+01 -7.358632e-01 0 -1 0 8.040212e-01 2.321950e-01 -5.019808e-01 -2.182905e-01
15 1 4 -9.695830e+00 1.433262e+01 -1.087667e+00 0 -1 0 8.159190e-01 3.860279e-01 -2.056787e-01 3.780938e-01
16 1 2 -1.019900e+01 1.471433e+01 -1.745895e+00 0 -1 0 -1.762598e-01 1.701965e-01 -8.944757e-01 -3.740038e-01
17 1 1 -1.051744e+01 1.588936e+01 -1.884737e+00 0 -1 0 -1.138070e-01 -3.356236e-01 2.608287e-01 8.979828e-01
18 1 2 -1.084975e+01 1.625248e+01 -1.762613e+00 0 -1 0 -3.890390e-01 -2.121063e-01 4.898809e-01 7.507838e-01
19 1 3 -1.115528e+01 1.671722e+01 -9.835208e-01 0 -1 0 -2.275480e-01 1.208952e-01 9.303941e-01 2.607165e-01
20 1 1 -1.185499e+01 1.668780e+01 -1.202360e+00 0 -1 0 2.816823e-01 6.803545e-02 -2.814640e-01 -9.147701e-01
21 1 4 -1.229595e+01 1.670002e+01 -3.774828e-01 0 -1 0 -2.451509e-01 -3.382274e-03 7.910192e-01 -5.605160e-01
22 1 1 -1.273133e+01 1.607201e+01 -6.735535e-01 0 -1 0 2.602461e-01 -4.002199e-01 8.690024e-01 -1.301182e-01
23 1 4 -1.325480e+01 1.703893e+01 -6.797732e-01 0 -1 0 -6.587027e-01 -1.459639e-01 -3.525138e-01 -6.484900e-01
24 1 3 -1.283665e+01 1.649220e+01 6.246147e-01 0 -1 0 -5.904971e-01 7.647646e-01 -1.729688e-01 1.911285e-01
25 1 3 -1.292721e+01 1.585325e+01 9.317390e-01 0 -1 0 8.792643e-02 -1.021426e-02 -9.461022e-01 3.115369e-01
26 1 4 -1.207154e+01 1.589663e+01 1.369869e+00 0 -1 0 9.878350e-01 -8.222359e-02 6.089844e-02 -1.171008e-01
27 1 4 -1.275782e+01 1.663858e+01 1.006397e+00 0 -1 0 -6.666941e-01 3.817008e-02 4.536328e-01 5.901519e-01
28 1 1 -1.261182e+01 1.747803e+01 1.096156e+00 0 -1 0 -4.527779e-01 -4.585956e-01 -1.097824e-01 7.567233e-01
29 1 1 -1.132197e+01 1.745242e+01 6.908951e-01 0 -1 0 5.819466e-01 -6.099860e-01 4.127087e-01 3.448577e-01
30 1 4 -1.171981e+01 1.793225e+01 1.465109e+00 0 -1 0 7.430358e-01 -6.172432e-01 -3.360174e-04 -2.586666e-01
31 1 4 -1.271861e+01 1.860326e+01 1.722092e+00 0 -1 0 -3.114074e-01 3.818485e-02 -1.520104e-01 9.372621e-01
32 1 3 -1.300808e+01 1.852594e+01 2.166098e+00 0 -1 0 6.882630e-01 5.378481e-02 2.479230e-01 -6.796583e-01
33 1 3 -1.244419e+01 1.944514e+01 2.052956e+00 0 -1 0 4.453787e-01 -8.440849e-01 2.981338e-01 1.657310e-02
34 1 1 -1.212588e+01 1.980153e+01 1.919112e+00 0 -1 0 3.746949e-01 -6.039540e-01 6.669981e-01 2.235105e-01
35 1 2 -1.257325e+01 -1.911219e+01 2.672404e+00 0 0 0 2.184645e-01 -6.116440e-01 2.571128e-01 -7.155822e-01
36 1 2 -1.184265e+01 -1.881754e+01 2.938613e+00 0 0 0 -5.734437e-01 1.893379e-01 4.185075e-01 -6.783546e-01
37 1 1 -1.201955e+01 -1.883861e+01 3.424889e+00 0 0 0 -2.113647e-01 3.517218e-01 3.841477e-01 -8.270715e-01
38 1 1 -1.234716e+01 -1.904282e+01 3.844478e+00 0 0 0 1.944786e-01 5.250439e-01 3.338998e-01 -7.582994e-01
39 1 4 -1.254473e+01 -1.995888e+01 4.034261e+00 0 0 0 -8.139410e-01 -1.888132e-01 -5.490233e-01 2.056729e-02
40 1 4 -1.221443e+01 1.973060e+01 4.098872e+00 0 -1 0 6.714156e-01 5.001948e-01 5.269885e-01 1.459088e-01
41 1 2 -1.210281e+01 1.938230e+01 3.788443e+00 0 -1 0 -6.261020e-01 -6.696494e-01 -1.742113e-01 -3.594668e-01
42 1 4 -1.226991e+01 1.834417e+01 5.092991e+00 0 -1 0 -8.468099e-01 4.650320e-01 -2.542521e-02 2.569276e-01
43 1 3 -1.200408e+01 1.834437e+01 4.435621e+00 0 -1 0 -8.292592e-01 2.314179e-01 1.138950e-01 -4.957852e-01
44 1 2 -1.246482e+01 1.732564e+01 3.736107e+00 0 -1 0 9.535271e-01 1.094644e-01 2.734674e-01 6.339672e-02
45 1 1 -1.215760e+01 1.711038e+01 4.034610e+00 0 -1 0 -8.451690e-01 -1.426597e-01 -2.938868e-01 -4.230463e-01
46 1 3 -1.185122e+01 1.713342e+01 5.165991e+00 0 -1 0 5.338247e-02 8.246366e-01 -4.525009e-01 3.352130e-01
47 1 4 -1.135351e+01 1.724219e+01 4.638484e+00 0 -1 0 -1.211069e-01 -9.005244e-01 3.152870e-02 4.164070e-01
48 1 1 -1.088816e+01 1.749365e+01 4.257317e+00 0 -1 0 -7.357295e-01 -2.690940e-01 -4.148819e-01 -4.627780e-01
49 1 4 -1.033885e+01 1.762916e+01 4.160852e+00 0 -1 0 -4.450623e-01 -3.602756e-01 -3.634352e-01 -7.348714e-01
50 1 4 -9.973882e+00 1.804649e+01 4.331031e+00 0 -1 0 -1.296599e-03 -3.132338e-01 -8.398310e-02 -9.459544e-01
51 1 4 -9.077696e+00 1.766664e+01 4.242928e+00 0 -1 0 -6.631143e-01 -4.544786e-01 -5.605105e-01 -1.988883e-01
52 1 1 -8.449421e+00 1.742905e+01 4.207990e+00 0 -1 0 -5.209005e-01 -4.949533e-01 -5.381253e-01 -4.405737e-01
53 1 3 -7.976997e+00 1.753956e+01 3.873032e+00 0 -1 0 2.754299e-01 6.135237e-01 5.745272e-01 4.665249e-01
54 1 4 -7.001088e+00 1.787131e+01 4.417585e+00 0 -1 0 6.053453e-01 3.237984e-01 -3.907507e-01 6.132092e-01
55 1 4 -6.788001e+00 1.752360e+01 4.753784e+00 0 -1 0 -3.571630e-01 -2.054005e-01 4.288231e-01 -8.039627e-01
56 1 4 -6.672877e+00 1.730552e+01 5.213787e+00 0 -1 0 4.874037e-02 4.975021e-02 -4.491292e-01 8.907482e-01
57 1 1 -6.739227e+00 1.702577e+01 5.648280e+00 0 -1 0 1.370139e-01 1.568334e-01 4.539237e-01 -8.663623e-01
58 1 1 -6.869354e+00 1.687955e+01 6.085232e+00 0 -1 0 5.238359e-01 3.145280e-01 3.686633e-01 -7.005394e-01
59 1 3 -5.901278e+00 1.696940e+01 6.370396e+00 0 -1 0 5.388995e-01 -8.419935e-04 -8.222076e-01 1.831973e-01
60 1 4 -5.321624e+00 1.728185e+01 5.962106e+00 0 -1 0 8.469494e-01 1.553616e-01 -8.175914e-02 -5.018515e-01
61 1 2 -5.752108e+00 1.827804e+01 7.007941e+00 0 -1 0 3.470968e-01 -7.578285e-01 -5.503610e-01 4.819303e-02
62 1 3 -6.375824e+00 1.758244e+01 5.924593e+00 0 -1 0 -1.947965e-01 1.714957e-01 -8.363921e-01 -4.827958e-01
63 1 2 -6.492306e+00 1.800409e+01 6.496183e+00 0 -1 0 9.335388e-01 -1.583759e-01 -1.670978e-02 -3.211591e-01
64 1 4 -6.542575e+00 1.791750e+01 6.951747e+00 0 -1 0 -9.877743e-01 -1.276039e-01 4.008655e-02 8.007660e-02
65 1 2 -6.530617e+00 1.762300e+01 7.431009e+00 0 -1 0 9.675257e-01 1.770585e-01 7.993110e-02 1.617258e-01
66 1 1 -7.502886e+00 1.707852e+01 7.587087e+00 0 -1 0 2.709110e-01 3.557869e-01 5.199269e-01 -7.278042e-01
67 1 2 -7.932755e+00 1.684792e+01 7.772091e+00 0 -1 0 -5.808033e-01 -5.171621e-01 -2.724832e-01 5.665367e-01
68 1 1 -7.176940e+00 1.746971e+01 9.087826e+00 0 -1 0 5.843166e-01 -7.293051e-01 -8.571466e-02 3.454578e-01
69 1 1 -7.251108e+00 1.792490e+01 9.168639e+00 0 -1 0 2.654796e-01 -7.349608e-01 2.075046e-01 5.884684e-01
70 1 2 -8.253370e+00 1.842979e+01 9.980938e+00 0 -1 0 -2.210012e-01 6.558296e-01 7.205836e-01 -4.248912e-02
71 1 3 -8.129426e+00 1.803794e+01 1.009227e+01 0 -1 0 -4.840548e-01 -6.428564e-01 1.101591e-01 5.833451e-01
72 1 4 -8.598286e+00 1.786550e+01 9.940273e+00 0 -1 0 -6.475495e-01 -5.762621e-01 3.705386e-01 3.336207e-01
73 1 1 -8.918294e+00 1.752239e+01 9.775928e+00 0 -1 0 7.218680e-01 4.948240e-01 -4.772204e-01 -7.947606e-02
74 1 1 -9.634094e+00 1.781669e+01 1.028043e+01 0 -1 0 1.140114e-01 2.842029e-01 7.527686e-01 5.827260e-01
75 1 3 -9.056814e+00 1.743200e+01 1.072582e+01 0 -1 0 -3.870391e-01 -4.357941e-01 2.355336e-01 7.776941e-01
76 1 1 -9.460596e+00 1.761475e+01 1.200805e+01 0 -1 0 -3.268932e-01 6.369462e-01 -3.800060e-01 5.856926e-01
77 1 4 -9.311263e+00 1.810541e+01 1.268189e+01 0 -1 0 7.871706e-01 -3.962046e-01 -4.724763e-01 1.226863e-02
78 1 1 -9.743478e+00 1.825680e+01 1.282092e+01 0 -1 0 -7.081358e-01 3.685240e-01 -3.911171e-01 4.579969e-01
79 1 4 -1.034807e+01 1.866727e+01 1.343158e+01 0 -1 0 5.738730e-01 -6.399495e-01 1.018869e-01 -5.007529e-01
80 1 2 -1.064617e+01 1.896454e+01 1.333335e+01 0 -1 0 -5.338756e-01 -2.750406e-01 6.194287e-01 5.056061e-01
81 1 4 -1.045992e+01 -1.990497e+01 1.255542e+01 0 0 0 -4.717312e-01 -4.328763e-01 -5.262832e-01 -5.595658e-01
82 1 4 -1.075564e+01 1.996902e+01 1.296820e+01 0 -1 0 6.807366e-02 9.585108e-01 -5.283649e-02 -2.717193e-01
83 1 4 -1.098083e+01 -1.976390e+01 1.357409e+01 0 0 0 -7.700174e-01 3.343989e-01 5.075104e-01 1.941232e-01
84 1 4 -1.123987e+01 -1.936290e+01 1.381592e+01 0 0 0 8.415617e-01 -3.571638e-01 -3.652105e-01 -1.755822e-01
85 1 1 -1.091145e+01 -1.888903e+01 1.370635e+01 0 0 0 -7.234903e-02 -2.298526e-01 -6.522850e-01 7.186499e-01
86 1 1 -9.793307e+00 -1.829368e+01 1.304631e+01 0 0 0 -1.297250e-01 9.817314e-01 1.318980e-01 -4.447270e-02
87 1 3 -9.877131e+00 -1.791653e+01 1.282423e+01 0 0 0 1.652531e-01 -9.401842e-01 2.495950e-01 1.626266e-01
88 1 2 -9.627282e+00 -1.762663e+01 1.249931e+01 0 0 0 -1.698595e-02 -7.178667e-01 6.017977e-01 3.495975e-01
89 1 2 -1.071252e+01 -1.699717e+01 1.279014e+01 0 0 0 -3.376885e-01 -4.384011e-01 8.409003e-02 8.286736e-01
90 1 3 -1.114518e+01 -1.683248e+01 1.286764e+01 0 0 0 5.891126e-01 4.037707e-01 -3.328095e-01 -6.157543e-01
91 1 3 -1.160860e+01 -1.704078e+01 1.277785e+01 0 0 0 -7.493205e-01 -2.252561e-01 5.532152e-01 2.858869e-01
92 1 2 -1.175388e+01 -1.702404e+01 1.268495e+01 0 0 0 -5.708099e-02 5.839858e-01 -5.302232e-01 6.120177e-01
93 1 1 -1.182987e+01 -1.590090e+01 1.210373e+01 0 0 0 6.217627e-01 6.549576e-01 1.260652e-01 4.105476e-01
94 1 2 -1.127601e+01 -1.587989e+01 1.199540e+01 0 0 0 3.049074e-01 7.104573e-01 -1.318885e-01 6.203928e-01
95 1 3 -1.074063e+01 -1.587829e+01 1.190994e+01 0 0 0 -5.086244e-02 -6.433695e-01 3.167339e-01 -6.951031e-01
96 1 2 -9.775640e+00 -1.576862e+01 1.177038e+01 0 0 0 -2.322247e-01 -7.321165e-01 4.164674e-01 -4.864483e-01
97 1 2 -1.020487e+01 -1.537995e+01 1.212056e+01 0 0 0 -9.983295e-02 3.542786e-01 9.128940e-01 -1.764785e-01
98 1 4 -9.747473e+00 -1.447353e+01 1.249126e+01 0 0 0 2.275342e-01 -3.929686e-01 -6.899196e-01 5.637507e-01
99 1 2 -9.980055e+00 -1.398714e+01 1.298494e+01 0 0 0 -1.546033e-01 3.576343e-01 -1.214962e-01 9.129262e-01
100 1 1 -8.806782e+00 -1.405555e+01 1.343434e+01 0 0 0 7.656841e-01 -4.513509e-01 -3.417583e-01 3.053055e-01
101 2 4 -5.209710e-01 1.544917e+00 -1.183976e+01 0 -1 0 -2.283884e-01 -8.197882e-02 -9.465816e-01 -2.123710e-01
102 2 3 -3.368853e-01 1.553210e+00 -1.101900e+01 0 -1 0 8.140252e-01 -4.008903e-02 5.662168e-01 -1.231028e-01
103 2 1 -4.561132e-01 2.591700e+00 -1.061259e+01 0 -1 0 -4.272538e-01 8.096896e-01 -1.764100e-01 3.615751e-01
104 2 3 -1.320086e+00 3.054311e+00 -1.056564e+01 0 -1 0 -5.138919e-01 3.537555e-01 7.809819e-01 2.897418e-02
105 2 3 -1.794776e+00 3.200795e+00 -1.050342e+01 0 -1 0 -5.362341e-01 5.907900e-01 5.102330e-01 -3.210645e-01
106 2 2 -2.349023e+00 3.323801e+00 -1.119368e+01 0 -1 0 5.239237e-01 4.049583e-02 7.683132e-01 3.654571e-01
107 2 3 -2.716056e+00 4.434130e+00 -1.040885e+01 0 -1 0 3.440636e-01 -8.189227e-01 -3.995090e-01 -2.266682e-01
108 2 4 -2.877894e+00 4.839109e+00 -1.056473e+01 0 -1 0 2.979693e-01 -9.441398e-01 1.607959e-02 -1.398420e-01
109 2 3 -2.606800e+00 5.311810e+00 -1.069866e+01 0 -1 0 -3.116049e-01 8.900810e-01 -3.285173e-01 5.229272e-02
110 2 2 -2.653458e+00 5.163916e+00 -1.125123e+01 0 -1 0 -6.664659e-01 -2.792090e-01 3.820713e-01 -5.760964e-01
111 2 2 -2.238974e+00 5.432866e+00 -1.123805e+01 0 -1 0 -5.059350e-01 -2.045031e-01 6.963309e-01 -4.661883e-01
112 2 3 -1.844055e+00 5.753664e+00 -1.167398e+01 0 -1 0 -2.352313e-01 -2.523890e-01 6.400621e-02 -9.364130e-01
113 2 3 -1.649181e+00 5.960168e+00 -1.120352e+01 0 -1 0 1.859501e-01 -1.231922e-01 1.153415e-01 -9.679579e-01
114 2 2 -1.441083e+00 6.671058e+00 -1.108315e+01 0 -1 0 -2.137312e-01 4.234204e-01 6.255112e-01 6.194916e-01
115 2 4 -1.641951e+00 6.993407e+00 -1.093084e+01 0 -1 0 2.128277e-01 1.326162e-01 -7.416345e-01 6.221701e-01
116 2 4 -2.433637e+00 7.473899e+00 -1.127572e+01 0 -1 0 4.409155e-01 -6.162269e-02 3.716252e-01 -8.146723e-01
117 2 1 -2.637905e+00 7.374136e+00 -1.080679e+01 0 -1 0 7.433045e-01 7.132122e-02 2.429601e-01 -6.191785e-01
118 2 1 -2.341648e+00 7.993637e+00 -9.449674e+00 0 -1 0 -3.814520e-01 -7.593371e-02 6.648111e-01 -6.377732e-01
119 2 1 -2.611176e+00 7.500838e+00 -9.428937e+00 0 -1 0 5.029957e-01 1.152843e-01 -5.494487e-01 6.571233e-01
120 2 1 -2.745047e+00 7.144063e+00 -9.008910e+00 0 -1 0 3.245516e-01 -1.534915e-01 -5.373149e-01 7.631509e-01
121 2 3 -2.057533e+00 6.911953e+00 -9.943667e+00 0 -1 0 -1.277696e-01 1.732991e-01 -6.035957e-01 -7.676683e-01
122 2 1 -2.050361e+00 6.953893e+00 -8.672141e+00 0 -1 0 -2.681108e-01 3.172576e-01 9.004581e-01 1.289936e-01
123 2 4 -1.094695e+00 7.071606e+00 -8.898949e+00 0 -1 0 -1.555318e-01 2.201354e-01 -5.770833e-01 -7.709249e-01
124 2 1 -5.619730e-01 7.321006e+00 -8.675729e+00 0 -1 0 9.660293e-02 -5.461744e-01 -2.849708e-01 -7.817628e-01
125 2 4 -1.446311e-01 8.011846e+00 -8.648954e+00 0 -1 0 1.309362e-01 -3.695894e-01 -8.500963e-02 9.159873e-01
126 2 2 7.077082e-01 7.749244e+00 -9.002373e+00 0 -1 0 -3.133678e-01 -4.059430e-02 -6.890443e-01 -6.522045e-01
127 2 4 5.381791e-01 7.232310e+00 -8.397292e+00 0 -1 0 5.856672e-02 5.282911e-01 4.851872e-01 6.943139e-01
128 2 4 1.983292e+00 6.332407e+00 -8.240892e+00 0 -1 0 -3.267279e-01 -7.894298e-01 4.688221e-01 -2.241770e-01
129 2 1 1.398153e+00 6.692820e+00 -8.912738e+00 0 -1 0 -6.306393e-01 1.109939e-01 -7.662865e-01 5.272079e-02
130 2 2 2.161259e+00 6.609912e+00 -8.057228e+00 0 -1 0 -9.300825e-01 3.115595e-01 8.568560e-02 1.747434e-01
131 2 3 2.328761e+00 7.109385e+00 -7.514133e+00 0 -1 0 7.434311e-01 -6.109224e-01 2.721825e-01 -8.189636e-04
132 2 4 2.642223e+00 7.411331e+00 -7.239559e+00 0 -1 0 7.762112e-01 -4.238290e-01 4.600295e-01 7.898069e-02
133 2 4 2.208253e+00 7.577642e+00 -6.430554e+00 0 -1 0 1.169074e-01 2.612992e-02 5.039080e-01 -8.554102e-01
134 2 3 2.240671e+00 7.360776e+00 -6.049883e+00 0 -1 0 5.307464e-01 1.803908e-01 5.200631e-01 -6.444392e-01
135 2 4 2.635698e+00 7.354610e+00 -5.717226e+00 0 -1 0 1.723565e-01 -8.352076e-02 2.933754e-01 9.366154e-01
136 2 3 3.156391e+00 6.728867e+00 -5.040385e+00 0 -1 0 -8.698570e-01 -2.810700e-01 -2.564464e-01 3.139803e-01
137 2 1 3.450048e+00 6.332192e+00 -4.043046e+00 0 -1 0 -8.836083e-01 6.032088e-03 1.017218e-01 4.570040e-01
138 2 3 4.646874e+00 6.775571e+00 -4.123278e+00 0 -1 0 7.949436e-01 -4.352704e-01 -1.431571e-01 3.976309e-01
139 2 2 5.025616e+00 6.070243e+00 -4.805320e+00 0 -1 0 2.882065e-02 -7.647668e-01 5.941941e-01 -2.474561e-01
140 2 3 4.238601e+00 5.870419e+00 -5.142107e+00 0 -1 0 -1.773395e-01 4.638901e-01 6.531097e-01 -5.716681e-01
141 2 1 3.704965e+00 5.853400e+00 -5.093075e+00 0 -1 0 1.777363e-01 6.958122e-01 4.160267e-01 -5.578324e-01
142 2 2 3.835054e+00 5.766662e+00 -4.015136e+00 0 -1 0 -7.755434e-02 8.507270e-01 4.222391e-01 3.032541e-01
143 2 4 3.703270e+00 4.627405e+00 -3.866331e+00 0 -1 0 -6.819246e-01 8.797222e-02 6.489968e-01 -3.256422e-01
144 2 4 3.657456e+00 4.386936e+00 -4.252813e+00 0 -1 0 9.497571e-02 -9.141157e-01 2.318647e-01 3.187645e-01
145 2 1 2.462800e+00 3.837114e+00 -4.178156e+00 0 -1 0 -5.347394e-02 -5.834330e-01 -7.860132e-01 1.973064e-01
146 2 1 2.579143e+00 3.851161e+00 -4.594111e+00 0 -1 0 -2.275050e-01 8.817237e-01 -3.125633e-01 -2.703868e-01
147 2 1 1.286271e+00 3.665458e+00 -3.524180e+00 0 -1 0 -7.925906e-02 3.995159e-02 6.392190e-01 -7.638854e-01
148 2 2 6.283630e-01 3.632461e+00 -3.400527e+00 0 -1 0 5.457034e-01 -9.111794e-02 -1.122718e-01 -8.254092e-01
149 2 4 1.531303e+00 4.011966e+00 -2.532313e+00 0 -1 0 3.274698e-01 1.756902e-01 -8.286091e-01 4.186926e-01
150 2 1 1.492476e+00 3.590575e+00 -2.385981e+00 0 -1 0 6.415090e-02 -1.367920e-01 -8.405384e-01 5.202574e-01
151 2 1 1.310354e+00 3.084198e+00 -2.323118e+00 0 -1 0 4.914700e-02 3.672675e-01 6.857965e-01 -6.264043e-01
152 2 1 2.459228e+00 2.139640e+00 -2.278899e+00 0 -1 0 -1.184781e-01 -8.948309e-01 4.300929e-01 1.614677e-02
153 2 4 2.115155e+00 1.358862e+00 -3.219203e+00 0 -1 0 -8.244054e-01 -5.386473e-01 -9.605137e-02 1.448755e-01
154 2 1 1.993060e+00 9.155721e-01 -3.363396e+00 0 -1 0 7.944642e-01 5.441637e-01 -2.336285e-01 1.346484e-01
155 2 2 1.886514e+00 2.280334e-01 -3.733612e+00 0 -1 0 9.602170e-01 -2.101364e-01 -8.265087e-02 -1.643009e-01
156 2 4 8.821871e-01 -1.013930e-01 -4.077126e+00 0 -1 0 5.469815e-01 -4.500574e-02 8.172510e-01 -1.757453e-01
157 2 3 1.176202e+00 -5.893128e-01 -4.188949e+00 0 -1 0 -6.359481e-01 -1.893732e-01 -7.266691e-01 -1.779323e-01
158 2 2 7.813418e-01 -8.544040e-02 -3.376378e+00 0 -1 0 -3.908640e-01 -2.262112e-01 -3.209055e-01 -8.325104e-01
159 2 1 2.901816e-01 -1.164336e+00 -3.223215e+00 0 -1 0 6.200976e-01 5.271711e-01 9.424851e-02 -5.733121e-01
160 2 3 -9.989914e-02 -1.437741e+00 -3.245323e+00 0 -1 0 -8.113683e-01 -5.206211e-01 1.188314e-01 2.377274e-01
161 2 1 -1.798211e-01 -7.612635e-01 -3.267425e+00 0 -1 0 5.603102e-01 -4.772020e-01 -4.954398e-01 4.613785e-01
162 2 1 2.595056e-02 -1.460752e+00 -4.760615e+00 0 -1 0 6.997740e-01 6.807450e-01 -4.971721e-02 -2.107863e-01
163 2 4 -9.430733e-02 -1.881047e+00 -4.987680e+00 0 -1 0 -6.712326e-01 -6.844046e-01 2.728576e-01 -8.115327e-02
164 2 4 -5.531591e-01 -2.887021e+00 -4.720961e+00 0 -1 0 2.494460e-01 -2.692255e-01 8.576857e-01 -3.600966e-01
165 2 3 -3.162898e-01 -3.253941e+00 -4.927052e+00 0 -1 0 -2.909204e-01 -1.099677e-01 -9.493861e-01 -4.402664e-02
166 2 3 -1.882179e-01 -3.445137e+00 -5.439750e+00 0 -1 0 2.820176e-01 4.645493e-01 7.923579e-01 2.771803e-01
167 2 4 -1.407261e-01 -3.411583e+00 -5.871968e+00 0 -1 0 -1.961926e-01 -7.819965e-01 -4.547136e-01 -3.784514e-01
168 2 2 1.629704e-01 -4.256687e+00 -6.599990e+00 0 -1 0 -4.323351e-01 -4.896421e-01 -7.541742e-01 6.751502e-02
169 2 2 6.597664e-01 -4.713643e+00 -6.667846e+00 0 -1 0 2.808620e-01 -8.515739e-01 1.420889e-01 4.192246e-01
170 2 1 -4.228341e-02 -5.333641e+00 -6.427499e+00 0 -1 0 5.502782e-01 -7.894785e-01 2.520718e-01 -1.018699e-01
171 2 1 -1.494968e+00 -4.866211e+00 -7.121086e+00 0 -1 0 -6.870601e-02 -4.728725e-01 -3.427709e-01 8.088135e-01
172 2 4 -1.794085e+00 -4.313199e+00 -7.172702e+00 0 -1 0 1.240269e-01 -1.064765e-01 5.014399e-02 9.852744e-01
173 2 4 -1.744325e+00 -3.947678e+00 -6.877932e+00 0 -1 0 -1.473844e-01 -6.866131e-02 2.418452e-01 9.565952e-01
174 2 1 -1.821967e+00 -3.325039e+00 -5.981654e+00 0 -1 0 -2.050545e-01 -3.227382e-01 -4.798730e-02 -9.227621e-01
175 2 1 -1.231021e+00 -3.700053e+00 -6.005795e+00 0 -1 0 -7.443648e-01 -9.384361e-02 6.120649e-01 2.499821e-01
176 2 2 -1.795339e+00 -3.669853e+00 -6.421994e+00 0 -1 0 -5.251853e-01 3.960488e-01 -7.171711e-01 2.301984e-01
177 2 2 -2.864232e+00 -3.321675e+00 -6.409684e+00 0 -1 0 4.184649e-01 -5.534192e-02 -8.739327e-01 -2.409689e-01
178 2 1 -3.269476e+00 -3.263511e+00 -6.686862e+00 0 -1 0 -5.331794e-01 3.790940e-01 7.518077e-01 8.241758e-02
179 2 4 -2.893937e+00 -4.164701e+00 -7.467708e+00 0 -1 0 5.858811e-01 3.792998e-02 7.865576e-01 1.913944e-01
180 2 1 -3.512196e+00 -3.699394e+00 -7.267446e+00 0 -1 0 -6.334312e-01 -4.988640e-01 -4.900816e-01 -3.312396e-01
181 2 4 -4.279437e+00 -4.098207e+00 -6.578359e+00 0 -1 0 3.528123e-01 3.960751e-01 -7.678395e-01 -3.592638e-01
182 2 2 -5.066145e+00 -3.117319e+00 -6.507251e+00 0 -1 0 -3.857278e-02 2.672794e-01 9.534790e-01 -1.339840e-01
183 2 3 -4.810883e+00 -4.003816e+00 -6.729043e+00 0 -1 0 -3.415520e-01 -6.145698e-01 6.286082e-01 3.324123e-01
184 2 4 -5.977908e+00 -3.563133e+00 -6.200071e+00 0 -1 0 -4.782074e-01 4.629284e-01 6.738177e-01 -3.209123e-01
185 2 3 -5.854625e+00 -3.241843e+00 -6.253776e+00 0 -1 0 -6.488089e-01 1.918174e-01 -2.112115e-01 -7.054381e-01
186 2 1 -7.159475e+00 -4.254632e+00 -5.807547e+00 0 -1 0 1.265489e-01 -1.048261e-01 9.849539e-01 -5.350483e-02
187 2 1 -7.118550e+00 -4.564320e+00 -6.159131e+00 0 -1 0 -1.674063e-01 -3.315771e-01 -9.270310e-01 5.143132e-02
188 2 2 -6.669663e+00 -4.861753e+00 -6.422276e+00 0 -1 0 -1.634049e-01 2.678549e-01 5.190484e-01 7.950732e-01
189 2 4 -6.218626e+00 -5.324361e+00 -6.850151e+00 0 -1 0 -5.984934e-01 1.272858e-01 7.904841e-01 2.718264e-02
190 2 4 -5.033251e+00 -5.273301e+00 -7.662946e+00 0 -1 0 9.741578e-01 7.619341e-02 2.087752e-01 -4.029910e-02
191 2 1 -4.598566e+00 -5.528370e+00 -7.364132e+00 0 -1 0 8.145822e-01 1.483510e-01 2.357918e-01 5.087730e-01
192 2 4 -4.827465e+00 -5.454214e+00 -5.952314e+00 0 -1 0 -6.639160e-01 6.880232e-01 5.295303e-02 2.881590e-01
193 2 4 -4.173648e+00 -6.337369e+00 -6.061129e+00 0 -1 0 4.366947e-01 5.015370e-01 -7.414866e-01 8.919584e-02
194 2 1 -5.125826e+00 -6.224115e+00 -5.382830e+00 0 -1 0 -1.814293e-01 -1.850928e-01 -7.775851e-01 5.728748e-01
195 2 3 -3.939372e+00 -6.140730e+00 -4.608672e+00 0 -1 0 -7.450758e-01 5.723362e-01 -2.921815e-01 1.786712e-01
196 2 4 -3.684876e+00 -5.819070e+00 -4.336234e+00 0 -1 0 -6.784974e-01 4.710878e-01 -5.324799e-01 -1.848857e-01
197 2 2 -3.228523e+00 -5.568252e+00 -4.570960e+00 0 -1 0 -4.359693e-01 8.481729e-02 -6.750089e-01 -5.891518e-01
198 2 4 -3.159385e+00 -4.769396e+00 -3.280075e+00 0 -1 0 -6.132527e-01 3.964277e-01 4.420739e-01 -5.209001e-01
199 2 3 -3.552047e+00 -4.762572e+00 -2.974826e+00 0 -1 0 -6.262012e-01 3.251802e-01 1.847289e-01 -6.841090e-01
200 2 4 -3.868520e+00 -4.661321e+00 -2.315381e+00 0 -1 0 -1.757336e-01 -8.701001e-01 -2.632545e-01 -3.778103e-01
