ITEM: TIMESTEP
369000000
ITEM: NUMBER OF ATOMS
200
ITEM: BOX BOUNDS pp pp pp
-2.0000000000000000e+01 2.0000000000000000e+01
-2.0000000000000000e+01 2.0000000000000000e+01
-2.0000000000000000e+01 2.0000000000000000e+01
ITEM: ATOMS id mol type x y z ix iy iz c_quat[1] c_quat[2] c_quat[3] c_quat[4]
1 1 1 1.730176e+01 1.423298e+01 -6.352694e-01 -1 0 0 5.295601e-02 1.910614e-01 4.317682e-02 -9.791971e-01
2 1 2 1.703118e+01 1.443862e+01 -2.693148e-01 -1 0 0 -4.507361e-01 -9.953262e-02 -2.636200e-02 8.866991e-01
3 1 1 1.667692e+01 1.445520e+01 5.660801e-03 -1 0 0 -8.160559e-01 4.758083e-02 1.400289e-01 5.587313e-01
4 1 3 1.654492e+01 1.516801e+01 6.116666e-01 -1 0 0 8.220923e-01 -2.878345e-01 -4.602517e-01 -1.717088e-01
5 1 1 1.605730e+01 1.526049e+01 9.792160e-01 -1 0 0 8.346102e-01 -4.836010e-01 -2.579486e-01 5.494003e-02
6 1 2 1.572914e+01 1.524475e+01 1.694650e+00 -1 0 0 -4.340321e-01 8.525613e-03 6.542673e-01 -6.192558e-01
7 1 4 1.539342e+01 1.511231e+01 2.225718e+00 -1 0 0 6.265060e-01 -2.682493e-01 -5.789868e-01 -4.475564e-01
8 1 1 1.648004e+01 1.540845e+01 1.859749e+00 -1 0 0 6.579096e-01 6.867424e-01 3.021399e-01 6.520184e-02
9 1 1 1.659546e+01 1.479954e+01 1.730526e+00 -1 0 0 6.207653e-01 7.365591e-01 2.402189e-01 1.201083e-01
10 1 4 1.572756e+01 1.378056e+01 2.182986e+00 -1 0 0 -5.542877e-01 7.957178e-03 -1.181074e-01 8.238644e-01
11 1 1 1.628227e+01 1.281033e+01 1.724384e+00 -1 0 0 -6.530857e-01 3.039924e-01 -6.826740e-01 1.225720e-01
12 1 1 1.669395e+01 1.264094e+01 1.638445e+00 -1 0 0 6.902798e-01 2.914591e-03 7.065899e-01 1.556791e-01
13 1 3 1.703941e+01 1.238337e+01 2.719432e+00 -1 0 0 -8.244070e-01 3.309621e-01 3.532257e-01 -2.933409e-01
14 1 4 1.660680e+01 1.241342e+01 2.587179e+00 -1 0 0 -3.961680e-01 2.053915e-01 -8.413943e-01 -3.048293e-01
15 1 4 1.714892e+01 1.236308e+01 3.621262e+00 -1 0 0 9.512514e-01 -2.054568e-01 1.257776e-01 1.925830e-01
16 1 2 1.683757e+01 1.185588e+01 3.432701e+00 -1 0 0 5.257816e-01 1.603538e-01 -2.898189e-01 -7.834829e-01
17 1 1 1.753683e+01 1.210634e+01 3.596303e+00 -1 0 0 -4.842179e-01 -3.695266e-01 4.175710e-01 6.742534e-01
18 1 2 1.804522e+01 1.232839e+01 4.539065e+00 -1 0 0 5.954550e-01 4.714247e-01 -6.168201e-01 -2.067005e-01
19 1 3 1.828938e+01 1.298127e+01 4.628393e+00 -1 0 0 -2.282529e-01 -2.736733e-01 -1.795658e-01 9.169295e-01
20 1 1 1.867011e+01 1.297366e+01 5.106072e+00 -1 0 0 1.668355e-01 3.185538e-01 8.551198e-01 3.734429e-01
21 1 4 -1.982555e+01 1.301615e+01 5.924552e+00 0 0 0 -8.583797e-01 -1.068852e-01 3.594597e-01 -3.500694e-01
22 1 1 -1.954101e+01 1.271184e+01 5.355660e+00 0 0 0 7.725192e-01 -4.539229e-02 5.507144e-01 -3.128376e-01
23 1 4 -1.914542e+01 1.236527e+01 5.356474e+00 0 0 0 6.997420e-01 2.020404e-01 6.682594e-01 -1.515588e-01
24 1 3 -1.878677e+01 1.197377e+01 5.182280e+00 0 0 0 6.663967e-01 4.285650e-01 5.760436e-01 2.010504e-01
25 1 3 -1.830863e+01 1.173192e+01 4.915595e+00 0 0 0 4.996096e-01 6.550987e-01 4.479934e-01 3.471857e-01
26 1 4 -1.810659e+01 1.125243e+01 5.643557e+00 0 0 0 -8.359842e-01 -1.673204e-02 -3.720835e-01 4.029942e-01
27 1 4 -1.804345e+01 1.098237e+01 6.019578e+00 0 0 0 9.174766e-01 1.100910e-01 3.711713e-01 9.137000e-02
28 1 1 -1.753872e+01 1.089819e+01 6.117626e+00 0 0 0 -7.430270e-01 -1.411074e-01 -3.412672e-01 -5.581544e-01
29 1 1 -1.708173e+01 1.103339e+01 6.289645e+00 0 0 0 -4.460546e-01 -1.844909e-01 -3.248168e-01 -8.133219e-01
30 1 4 -1.771819e+01 1.025628e+01 7.121454e+00 0 0 0 -2.301857e-01 6.278716e-01 7.330168e-01 1.244113e-01
31 1 4 -1.749935e+01 9.348376e+00 6.959313e+00 0 0 0 -1.366164e-01 -1.427125e-01 -7.054551e-01 6.806630e-01
32 1 3 -1.716779e+01 9.607129e+00 7.856504e+00 0 0 0 -6.837701e-01 2.527570e-01 4.690752e-01 -4.985387e-01
33 1 3 -1.738382e+01 8.777042e+00 6.706307e+00 0 0 0 4.325913e-01 7.854060e-01 -2.186735e-02 -4.421810e-01
34 1 1 -1.767881e+01 8.559695e+00 6.275987e+00 0 0 0 6.762804e-01 6.007899e-01 -3.744519e-01 -2.036715e-01
35 1 2 -1.831308e+01 8.440674e+00 5.780531e+00 0 0 0 -3.834759e-01 -8.835498e-02 -6.599268e-01 -6.400283e-01
36 1 2 -1.812314e+01 7.788797e+00 5.763148e+00 0 0 0 -8.109474e-01 5.456109e-01 -1.431293e-01 -1.555220e-01
37 1 1 -1.894153e+01 7.999492e+00 4.363274e+00 0 0 0 -4.426593e-01 -2.494849e-01 -6.377387e-01 -5.788777e-01
38 1 1 -1.866487e+01 7.077449e+00 4.495323e+00 0 0 0 6.541834e-02 -5.776237e-01 6.859333e-01 -4.376834e-01
39 1 4 -1.820161e+01 6.960035e+00 4.566543e+00 0 0 0 2.680065e-01 -3.726731e-01 7.885796e-01 -4.091815e-01
40 1 4 -1.758350e+01 7.312560e+00 4.475418e+00 0 0 0 3.800634e-01 -6.670141e-01 -3.792961e-01 5.165060e-01
41 1 2 -1.805566e+01 7.102142e+00 5.319682e+00 0 0 0 -4.803745e-01 3.765347e-01 7.269852e-02 7.887819e-01
42 1 4 -1.714620e+01 6.162286e+00 5.451987e+00 0 0 0 -8.701145e-01 1.802488e-01 1.704219e-01 4.258726e-01
43 1 3 -1.734003e+01 6.096567e+00 5.931206e+00 0 0 0 -9.728817e-01 2.110135e-01 9.188435e-02 2.306187e-02
44 1 2 -1.727904e+01 6.095634e+00 6.376787e+00 0 0 0 8.761987e-01 -1.896271e-01 -6.247583e-02 4.386504e-01
45 1 1 -1.750790e+01 5.066332e+00 6.944959e+00 0 0 0 -4.636337e-02 -3.291897e-01 7.873536e-01 -5.191905e-01
46 1 3 -1.734211e+01 4.496548e+00 6.954035e+00 0 0 0 1.803917e-01 -9.338270e-02 7.713913e-01 -6.030704e-01
47 1 4 -1.714286e+01 3.729497e+00 6.886107e+00 0 0 0 9.750370e-01 4.064856e-02 -2.142875e-01 -4.161092e-02
48 1 1 -1.727334e+01 3.369378e+00 7.287958e+00 0 0 0 9.382901e-01 5.096289e-02 -2.136799e-01 2.671243e-01
49 1 4 -1.775539e+01 2.699025e+00 7.597085e+00 0 0 0 8.338033e-01 -4.776211e-01 -2.747195e-01 3.434187e-02
50 1 4 -1.770847e+01 2.010728e+00 6.856912e+00 0 0 0 2.196427e-01 9.864658e-03 9.495825e-01 2.235014e-01
51 1 4 -1.764262e+01 1.947458e+00 6.462232e+00 0 0 0 1.588253e-01 4.928778e-01 8.144278e-01 2.618269e-01
52 1 1 -1.781156e+01 2.110192e+00 6.007012e+00 0 0 0 -2.707252e-03 -8.224654e-01 -5.065613e-01 -2.587259e-01
53 1 3 -1.761440e+01 1.951692e+00 5.259824e+00 0 0 0 -1.727951e-01 -1.275914e-01 -1.252713e-01 9.685914e-01
54 1 4 -1.747469e+01 2.575730e+00 4.975072e+00 0 0 0 -2.930540e-01 -3.868048e-01 1.244009e-02 8.742692e-01
55 1 4 -1.675087e+01 2.458428e+00 4.521871e+00 0 0 0 -2.777973e-01 2.258121e-01 -9.037493e-01 -2.346799e-01
56 1 4 -1.668024e+01 2.813491e+00 3.895226e+00 0 0 0 3.482158e-01 -5.916303e-01 3.092713e-01 6.580810e-01
57 1 1 -1.608232e+01 2.177414e+00 4.091320e+00 0 0 0 -6.646180e-01 -3.417918e-01 6.556020e-01 1.079228e-01
58 1 1 -1.596302e+01 2.513347e+00 3.152151e+00 0 0 0 4.654876e-01 4.827373e-01 -6.023872e-01 -4.329153e-01
59 1 3 -1.599044e+01 3.003742e+00 2.351721e+00 0 0 0 -4.336694e-01 -7.273429e-01 2.922694e-01 4.443893e-01
60 1 4 -1.635361e+01 2.913479e+00 2.033393e+00 0 0 0 5.535578e-01 6.306311e-01 -5.224774e-01 -1.513130e-01
61 1 2 -1.671452e+01 2.540086e+00 1.772190e+00 0 0 0 5.785024e-01 6.666110e-01 -4.689615e-01 -3.224690e-02
62 1 3 -1.693528e+01 2.046292e+00 1.478724e+00 0 0 0 6.682601e-01 4.411076e-01 -5.778946e-01 1.577664e-01
63 1 2 -1.700691e+01 1.627709e+00 1.473408e+00 0 0 0 4.052343e-01 1.752157e-01 -7.307405e-01 5.206754e-01
64 1 4 -1.702689e+01 1.176731e+00 1.680415e+00 0 0 0 -1.762129e-01 4.608769e-02 7.236598e-01 -6.656887e-01
65 1 2 -1.671255e+01 1.051698e-01 1.516559e+00 0 0 0 -8.903197e-01 4.304307e-01 4.910067e-02 1.401764e-01
66 1 1 -1.666598e+01 3.111718e-01 1.973566e+00 0 0 0 9.041715e-01 -3.661748e-01 1.727676e-01 1.361664e-01
67 1 2 -1.622556e+01 2.333659e-01 2.013103e+00 0 0 0 7.879944e-01 2.753658e-01 1.731975e-01 5.227247e-01
68 1 1 -1.590645e+01 2.483769e-01 2.375581e+00 0 0 0 7.178631e-01 3.646550e-01 2.715538e-01 5.272171e-01
69 1 1 -1.538892e+01 2.627731e-01 2.650659e+00 0 0 0 -5.496803e-01 -2.718923e-01 -1.853157e-01 -7.678439e-01
70 1 2 -1.574925e+01 -2.126722e-01 2.465496e+00 0 0 0 1.996273e-02 8.889826e-01 3.655978e-01 2.750447e-01
71 1 3 -1.552800e+01 8.622977e-02 2.071964e+00 0 0 0 1.173468e-01 -9.446979e-01 -9.910158e-02 -2.897489e-01
72 1 4 -1.527926e+01 4.622375e-01 1.841533e+00 0 0 0 -2.582015e-01 8.526937e-01 -3.968375e-01 2.208290e-01
73 1 1 -1.493871e+01 5.769669e-01 1.690758e+00 0 0 0 -6.503870e-01 1.253294e-01 6.925720e-01 -2.857154e-01
74 1 1 -1.538070e+01 1.500026e+00 9.871738e-01 0 0 0 6.595043e-02 -8.674578e-01 -1.376361e-01 -4.735228e-01
75 1 3 -1.496641e+01 1.813675e+00 7.651019e-01 0 0 0 1.463977e-01 -8.154433e-01 2.257859e-01 -5.124847e-01
76 1 1 -1.520657e+01 1.479653e+00 -2.456936e-01 0 0 0 -7.644046e-02 8.402690e-01 -5.324279e-01 -6.801027e-02
77 1 4 -1.508910e+01 1.601146e+00 -7.293229e-01 0 0 0 -9.072401e-02 8.048731e-01 -5.786865e-01 9.523877e-02
78 1 1 -1.593373e+01 2.393396e+00 -1.547644e+00 0 0 0 -5.761448e-01 -3.210935e-01 -7.514486e-01 -1.676786e-02
79 1 4 -1.642882e+01 2.005840e+00 -1.769149e+00 0 0 0 2.035021e-02 -7.066339e-02 -6.726581e-01 -7.362905e-01
80 1 2 -1.568458e+01 1.686626e+00 -1.950720e+00 0 0 0 -9.503771e-02 -9.899100e-01 3.803526e-02 -9.797576e-02
81 1 4 -1.564678e+01 1.808154e+00 -2.359129e+00 0 0 0 -2.046873e-01 -8.320070e-01 5.147184e-01 -3.053510e-02
82 1 4 -1.540325e+01 1.698456e+00 -2.771736e+00 0 0 0 -2.405898e-01 -5.237599e-01 8.162161e-01 -3.979301e-02
83 1 4 -1.585159e+01 1.179943e+00 -3.255561e+00 0 0 0 -2.223238e-01 7.497764e-02 8.799416e-01 4.131019e-01
84 1 4 -1.528335e+01 9.340974e-01 -3.833658e+00 0 0 0 -1.916592e-01 6.304762e-01 -2.744183e-01 -7.003293e-01
85 1 1 -1.459456e+01 7.470302e-01 -3.911310e+00 0 0 0 8.005545e-02 -9.190494e-01 3.771423e-01 -8.187174e-02
86 1 1 -1.423240e+01 2.877451e-01 -3.911356e+00 0 0 0 5.404039e-01 7.258100e-01 -2.007391e-01 3.753229e-01
87 1 3 -1.382713e+01 4.927405e-02 -4.028497e+00 0 0 0 2.615368e-01 6.414465e-01 -4.709787e-01 5.461904e-01
88 1 2 -1.347261e+01 -2.987085e-01 -3.952892e+00 0 0 0 -7.951826e-02 -4.359898e-01 6.323936e-01 -6.353488e-01
89 1 2 -1.328965e+01 7.130078e-02 -5.033018e+00 0 0 0 4.751535e-01 2.749377e-01 8.295903e-01 -1.020702e-01
90 1 3 -1.274385e+01 7.438821e-01 -5.710145e+00 0 0 0 6.467813e-02 -2.955390e-01 3.732032e-01 8.770364e-01
91 1 3 -1.186312e+01 -9.499933e-02 -5.977054e+00 0 0 0 -1.680433e-01 -8.357594e-01 5.214074e-01 3.744273e-02
92 1 2 -1.257817e+01 -1.465437e-01 -6.228337e+00 0 0 0 4.537010e-01 6.100335e-01 -6.474427e-01 5.322113e-02
93 1 1 -1.202420e+01 7.036553e-01 -6.389583e+00 0 0 0 -2.742639e-01 -8.071785e-01 3.541892e-01 -3.844375e-01
94 1 2 -1.147494e+01 1.324449e+00 -6.596703e+00 0 0 0 -6.457482e-01 -3.144514e-01 -2.676719e-01 -6.422471e-01
95 1 3 -1.102135e+01 1.527198e+00 -6.384367e+00 0 0 0 1.789738e-01 2.186360e-01 -1.917624e-02 9.590615e-01
96 1 2 -9.678157e+00 1.024368e+00 -6.265454e+00 0 0 0 8.887563e-01 2.504923e-03 -3.086259e-01 3.389042e-01
97 1 2 -9.714815e+00 8.194818e-01 -5.829503e+00 0 0 0 6.847912e-01 -1.849632e-01 -2.630947e-01 6.539349e-01
98 1 4 -9.691845e+00 8.396226e-01 -5.378656e+00 0 0 0 -3.501011e-01 2.496358e-01 1.927737e-01 -8.820144e-01
99 1 2 -8.946725e+00 1.064254e-01 -6.441984e+00 0 0 0 -4.166916e-01 5.663809e-01 -5.029295e-01 -5.026356e-01
100 1 1 -9.602776e+00 -3.608851e-01 -6.215216e+00 0 0 0 2.824273e-01 -4.121625e-01 -5.394979e-01 -6.777160e-01
101 2 4 -3.917250e-01 -8.555265e+00 1.599831e+01 0 -1 -1 -6.402444e-01 6.389845e-01 -3.373546e-01 2.607253e-01
102 2 3 4.699681e-01 -7.944425e+00 1.562737e+01 0 -1 -1 4.023883e-01 8.318793e-01 -3.494684e-01 -1.547009e-01
103 2 1 3.727276e-01 -7.209228e+00 1.676699e+01 0 -1 -1 -5.045978e-01 6.551535e-01 4.711006e-01 3.069514e-01
104 2 3 1.238837e-01 -6.755090e+00 1.687565e+01 0 -1 -1 -6.451902e-01 7.106862e-01 2.460592e-01 1.345717e-01
105 2 3 2.291772e-02 -6.337037e+00 1.715363e+01 0 -1 -1 6.065194e-01 -7.730891e-01 1.013132e-01 1.555735e-01
106 2 2 1.570694e-01 -5.825418e+00 1.721230e+01 0 -1 -1 4.539280e-01 -7.395520e-01 3.934593e-01 3.036477e-01
107 2 3 -4.555674e-01 -5.168880e+00 1.790205e+01 0 -1 -1 -6.060332e-02 1.659660e-01 -6.965362e-01 6.954278e-01
108 2 4 -3.795745e-01 -4.981519e+00 1.694447e+01 0 -1 -1 -3.793718e-01 2.257993e-01 8.194481e-01 3.655086e-01
109 2 3 -7.629417e-01 -4.872700e+00 1.681653e+01 0 -1 -1 4.601692e-01 -5.177396e-01 -7.212408e-01 1.298922e-03
110 2 2 -1.621593e-01 -5.787952e+00 1.575473e+01 0 -1 -1 -6.896847e-01 -2.157478e-01 -6.901784e-01 -3.797014e-02
111 2 2 7.890259e-01 -5.310712e+00 1.631469e+01 0 -1 -1 4.477234e-01 -8.533216e-01 -1.199531e-01 -2.387409e-01
112 2 3 8.622378e-01 -5.736072e+00 1.710306e+01 0 -1 -1 3.359407e-01 3.504594e-01 -6.776356e-01 5.523875e-01
113 2 3 1.017298e+00 -6.168601e+00 1.729127e+01 0 -1 -1 3.199150e-02 4.457877e-02 -6.548670e-01 7.537496e-01
114 2 2 1.032728e+00 -6.577540e+00 1.758514e+01 0 -1 -1 -1.852334e-01 -1.865797e-01 -5.824309e-01 7.691884e-01
115 2 4 8.336631e-01 -6.907658e+00 1.782446e+01 0 -1 -1 -4.436386e-01 -3.752742e-01 -4.859774e-01 6.528247e-01
116 2 4 4.532890e-01 -7.323922e+00 1.792510e+01 0 -1 -1 -6.134567e-01 -6.006928e-01 -3.315733e-01 3.910220e-01
117 2 1 1.409377e+00 -8.092535e+00 1.830325e+01 0 -1 -1 -7.312068e-01 -6.361676e-01 2.130765e-01 -1.233927e-01
118 2 1 1.929757e+00 -8.276293e+00 1.817633e+01 0 -1 -1 5.720267e-01 -3.174495e-01 5.040699e-01 5.638482e-01
119 2 1 2.695802e+00 -8.776527e+00 1.857389e+01 0 -1 -1 7.710176e-01 3.838152e-01 -2.774141e-01 4.257455e-01
120 2 1 1.635645e+00 -8.956781e+00 1.890946e+01 0 -1 -1 4.471632e-02 1.311675e-01 2.040790e-01 -9.690961e-01
121 2 3 1.481211e+00 -1.011354e+01 1.952126e+01 0 -1 -1 7.414919e-01 -7.104743e-02 4.418308e-01 -4.999275e-01
122 2 1 1.557331e+00 -1.061508e+01 1.973229e+01 0 -1 -1 9.299445e-01 6.174530e-02 3.624603e-01 3.631685e-03
123 2 4 9.132733e-01 -1.057102e+01 -1.886419e+01 0 -1 0 5.609458e-01 -9.737095e-02 -7.563193e-01 3.222418e-01
124 2 1 6.180112e-01 -1.090776e+01 -1.862429e+01 0 -1 0 3.199959e-01 -3.944444e-01 -6.789779e-01 5.300993e-01
125 2 4 1.356844e-01 -1.102119e+01 -1.846712e+01 0 -1 0 8.755933e-02 -6.729392e-01 -4.913363e-01 5.459623e-01
126 2 2 8.362899e-01 -1.187520e+01 -1.757822e+01 0 -1 0 -6.901247e-01 2.597936e-01 5.171930e-01 -4.344497e-01
127 2 4 4.091819e-01 -1.185283e+01 -1.716666e+01 0 -1 0 8.393256e-01 -3.206260e-01 -4.002057e-01 1.804628e-01
128 2 4 -3.570424e-01 -1.232777e+01 -1.807927e+01 0 -1 0 2.064189e-01 4.582383e-01 -1.080416e-02 -8.644606e-01
129 2 1 2.809414e-01 -1.333775e+01 -1.768785e+01 0 -1 0 -7.866695e-01 5.939797e-01 1.053102e-01 1.313352e-01
130 2 2 1.453905e-01 -1.272866e+01 -1.817496e+01 0 -1 0 -2.509089e-01 -1.299119e-01 -3.375518e-01 8.979011e-01
131 2 3 1.221911e+00 -1.335331e+01 -1.892473e+01 0 -1 0 -7.370931e-01 -6.306991e-01 -2.415381e-01 -2.391170e-02
132 2 4 4.687206e-01 -1.375901e+01 -1.804951e+01 0 -1 0 -1.278738e-01 4.476106e-01 3.610196e-01 8.080581e-01
133 2 4 8.714394e-01 -1.508522e+01 -1.839145e+01 0 -1 0 -4.451678e-01 1.550050e-01 -6.797417e-01 5.619166e-01
134 2 3 1.302181e+00 -1.382170e+01 -1.930464e+01 0 -1 0 1.822656e-01 -3.058059e-01 -4.625460e-02 9.333394e-01
135 2 4 2.416566e+00 -1.458645e+01 -1.875182e+01 0 -1 0 8.014450e-01 -5.236649e-01 7.231631e-04 2.888954e-01
136 2 3 1.250103e+00 -1.561272e+01 -1.866025e+01 0 -1 0 -6.029280e-01 2.429667e-01 3.803214e-01 6.578759e-01
137 2 1 2.744192e+00 -1.554325e+01 -1.873678e+01 0 -1 0 7.539521e-01 -3.994773e-01 8.081225e-02 5.152121e-01
138 2 3 2.861941e+00 -1.521330e+01 -1.842070e+01 0 -1 0 4.199102e-01 -3.350872e-01 2.031306e-01 8.186146e-01
139 2 2 2.914742e+00 -1.478198e+01 -1.818009e+01 0 -1 0 -6.144557e-03 1.120069e-01 -3.472734e-01 -9.310305e-01
140 2 3 4.083348e+00 -1.478483e+01 -1.772558e+01 0 -1 0 -4.898276e-01 8.341403e-01 2.452760e-01 -6.417596e-02
141 2 1 3.852617e+00 -1.513584e+01 -1.695257e+01 0 -1 0 4.325072e-01 -3.725697e-01 -6.959387e-01 4.356589e-01
142 2 2 4.210914e+00 -1.413479e+01 -1.713793e+01 0 -1 0 2.567700e-01 6.033618e-01 2.374907e-01 7.166742e-01
143 2 4 4.559381e+00 -1.379294e+01 -1.713844e+01 0 -1 0 -1.332155e-01 6.945380e-01 -6.354761e-02 7.041536e-01
144 2 4 5.087746e+00 -1.364616e+01 -1.691435e+01 0 -1 0 -3.131207e-01 5.399886e-01 -3.414283e-01 7.027051e-01
145 2 1 5.520577e+00 -1.375124e+01 -1.664171e+01 0 -1 0 -6.433213e-01 2.857879e-01 -6.127294e-01 3.592015e-01
146 2 1 5.819232e+00 -1.277663e+01 -1.659438e+01 0 -1 0 1.660288e-03 -8.239611e-01 5.630732e-01 -6.351397e-02
147 2 1 6.171378e+00 -1.282355e+01 -1.688231e+01 0 -1 0 -1.442180e-01 5.183156e-01 -8.428448e-01 -1.275843e-02
148 2 2 7.244263e+00 -1.232071e+01 -1.673468e+01 0 -1 0 6.109768e-01 7.519325e-01 -2.446371e-01 3.817946e-02
149 2 4 6.651670e+00 -1.144987e+01 -1.686851e+01 0 -1 0 -2.070251e-01 1.757901e-02 4.003467e-02 9.773581e-01
150 2 1 7.098469e+00 -1.124164e+01 -1.755609e+01 0 -1 0 -8.189929e-01 -1.812209e-01 -5.436081e-01 -2.999615e-02
151 2 1 7.623705e+00 -1.070397e+01 -1.683817e+01 0 -1 0 7.071002e-01 -3.688770e-01 4.497073e-01 4.021225e-01
152 2 1 7.503066e+00 -9.991830e+00 -1.578455e+01 0 -1 0 2.305717e-01 -8.370385e-01 -4.353049e-01 2.381444e-01
153 2 4 6.832670e+00 -1.014165e+01 -1.542040e+01 0 -1 0 -4.338758e-01 -1.225630e-01 -7.037835e-01 5.490163e-01
154 2 1 6.759050e+00 -1.053904e+01 -1.529126e+01 0 -1 0 6.443708e-01 3.901043e-01 5.255411e-01 -3.954889e-01
155 2 2 7.731333e+00 -1.059864e+01 -1.423143e+01 0 -1 0 7.669868e-01 -4.337517e-01 3.207006e-01 -3.474794e-01
156 2 4 7.831222e+00 -9.819636e+00 -1.402488e+01 0 -1 0 3.908466e-01 6.347943e-01 -6.214599e-01 2.409623e-01
157 2 3 7.835464e+00 -8.654519e+00 -1.414909e+01 0 -1 0 -1.817558e-02 7.494447e-01 3.333026e-01 -5.717619e-01
158 2 2 9.045348e+00 -8.715531e+00 -1.377781e+01 0 -1 0 -8.141084e-01 -2.374707e-01 2.164765e-01 -4.837077e-01
159 2 1 8.398343e+00 -9.309153e+00 -1.284571e+01 0 -1 0 -5.071754e-01 2.306378e-01 8.182867e-01 -1.413726e-01
160 2 3 8.106456e+00 -9.648424e+00 -1.277652e+01 0 -1 0 3.460531e-01 -4.020405e-01 -7.009933e-01 4.766750e-01
161 2 1 7.613974e+00 -9.685869e+00 -1.256334e+01 0 -1 0 -5.001190e-02 6.842923e-01 4.555881e-01 -5.671705e-01
162 2 1 7.126312e+00 -9.785933e+00 -1.252119e+01 0 -1 0 -1.468912e-01 -7.658026e-01 -1.290663e-01 6.126265e-01
163 2 4 7.096288e+00 -9.253825e+00 -1.233864e+01 0 -1 0 4.739316e-01 -7.647556e-01 -4.766111e-02 4.338964e-01
164 2 4 6.342374e+00 -9.593472e+00 -1.250531e+01 0 -1 0 -1.107708e-01 8.068670e-01 -9.382973e-02 -5.726180e-01
165 2 3 5.255116e+00 -1.066876e+01 -1.165193e+01 0 -1 0 6.266424e-01 5.076998e-02 1.365916e-01 -7.655615e-01
166 2 3 4.753455e+00 -1.088470e+01 -1.128197e+01 0 -1 0 5.988549e-02 2.355118e-01 7.572638e-01 -6.062173e-01
167 2 4 4.183813e+00 -1.081397e+01 -1.152869e+01 0 -1 0 1.949815e-01 -6.953978e-03 9.776952e-01 7.775526e-02
168 2 2 4.057276e+00 -9.679750e+00 -1.086130e+01 0 -1 0 5.253557e-02 4.355002e-01 6.574600e-01 6.126385e-01
169 2 2 4.452294e+00 -1.045263e+01 -1.020857e+01 0 -1 0 -5.213505e-01 7.959618e-01 -2.923584e-01 -9.573468e-02
170 2 1 3.403558e+00 -9.618433e+00 -1.058809e+01 0 -1 0 -5.366892e-01 -3.279746e-01 -6.367347e-01 -4.460564e-01
171 2 1 3.076275e+00 -8.791307e+00 -9.676274e+00 0 -1 0 -4.180847e-01 7.509003e-01 4.632940e-01 -2.161308e-01
172 2 4 2.257816e+00 -9.469675e+00 -9.130488e+00 0 -1 0 -1.425295e-01 2.302612e-01 -5.780130e-01 7.697831e-01
173 2 4 2.451519e+00 -9.767937e+00 -8.838886e+00 0 -1 0 -3.873349e-01 4.382939e-02 -6.525398e-01 6.498019e-01
174 2 1 2.775444e+00 -8.836768e+00 -8.186131e+00 0 -1 0 -2.922307e-01 -1.757007e-01 1.425610e-01 -9.291969e-01
175 2 1 1.858290e+00 -9.686425e+00 -8.106744e+00 0 -1 0 1.649175e-01 9.096336e-02 -8.517674e-01 -4.888969e-01
176 2 2 1.363696e+00 -9.424653e+00 -7.949145e+00 0 -1 0 -6.930835e-02 8.465689e-01 5.245456e-01 5.804555e-02
177 2 2 1.132583e+00 -1.100339e+01 -7.691305e+00 0 -1 0 -7.348373e-01 2.937727e-01 -2.539021e-01 5.560984e-01
178 2 1 4.050503e-01 -1.081229e+01 -7.582767e+00 0 -1 0 7.177247e-01 -5.519078e-02 4.013745e-01 -5.663248e-01
179 2 4 6.427905e-01 -1.008228e+01 -7.440895e+00 0 -1 0 -1.363292e-01 -5.018302e-01 5.563141e-01 6.481476e-01
180 2 1 5.917048e-01 -9.272057e+00 -6.003424e+00 0 -1 0 -7.152218e-01 3.243130e-01 5.441669e-01 -2.952308e-01
181 2 4 -1.537786e-01 -1.024385e+01 -6.533280e+00 0 -1 0 -7.239645e-01 -2.526580e-01 5.729697e-01 2.893874e-01
182 2 2 -5.499269e-01 -8.789200e+00 -6.870099e+00 0 -1 0 -3.839432e-01 -3.128282e-01 -6.899819e-01 -5.278742e-01
183 2 3 -1.201838e+00 -8.520935e+00 -7.059045e+00 0 -1 0 -8.316958e-02 3.855659e-01 1.957451e-01 -8.978338e-01
184 2 4 -4.086891e-01 -9.752007e+00 -7.417294e+00 0 -1 0 -2.168764e-01 -4.528915e-01 7.730377e-01 3.876424e-01
185 2 3 -1.316792e+00 -9.917816e+00 -7.227521e+00 0 -1 0 -2.088743e-01 3.651671e-01 9.071607e-01 9.162044e-03
186 2 1 -1.654065e+00 -9.518381e+00 -8.049785e+00 0 -1 0 2.750763e-01 3.856437e-01 7.187451e-01 -5.089375e-01
187 2 1 -1.969134e+00 -9.854207e+00 -8.173079e+00 0 -1 0 4.987640e-01 5.929921e-01 4.468221e-01 -4.471519e-01
188 2 2 -2.502247e+00 -9.195878e+00 -7.957903e+00 0 -1 0 1.573613e-01 8.495266e-01 5.008070e-01 5.229082e-02
189 2 4 -2.521919e+00 -9.017329e+00 -8.404879e+00 0 -1 0 -1.228388e-01 -9.868545e-01 -1.035147e-01 -1.770747e-02
190 2 4 -2.582506e+00 -8.651312e+00 -8.629613e+00 0 -1 0 -3.933396e-02 -9.326214e-01 3.433870e-01 1.037092e-01
191 2 1 -2.342964e+00 -8.546834e+00 -9.005358e+00 0 -1 0 8.605350e-05 6.437862e-01 -7.563136e-01 -1.163144e-01
192 2 4 -2.212293e+00 -8.717138e+00 -9.629602e+00 0 -1 0 -1.776880e-01 -2.730413e-01 9.364168e-01 1.303804e-01
193 2 4 -1.107483e+00 -7.696616e+00 -9.863932e+00 0 -1 0 2.651775e-01 -8.872415e-01 2.136540e-02 3.768646e-01
194 2 1 -1.266342e+00 -7.273310e+00 -1.003601e+01 0 -1 0 -1.625594e-01 8.134778e-01 -3.996755e-01 -3.899844e-01
195 2 3 -1.569987e+00 -6.566963e+00 -9.414901e+00 0 -1 0 3.378339e-01 -2.831662e-01 2.378500e-01 8.655129e-01
196 2 4 -1.730323e+00 -6.098006e+00 -9.208209e+00 0 -1 0 4.318649e-02 -2.866413e-01 3.208460e-01 9.016815e-01
197 2 2 -1.950093e+00 -5.947979e+00 -9.999284e+00 0 -1 0 -4.072818e-01 -2.117186e-01 -8.483911e-01 -2.636841e-01
198 2 4 -8.909429e-01 -6.296856e+00 -9.898767e+00 0 -1 0 -5.115621e-01 -7.358795e-01 1.463584e-01 4.187658e-01
199 2 3 -2.241834e-01 -5.475378e+00 -9.606801e+00 0 -1 0 3.723331e-01 9.040352e-01 -1.836682e-01 1.017563e-01
200 2 4 -4.163676e-01 -5.140838e+00 -9.162281e+00 0 -1 0 -1.497573e-01 -6.549483e-01 -5.186635e-01 5.287756e-01
