ITEM: TIMESTEP
327000000
ITEM: NUMBER OF ATOMS
200
ITEM: BOX BOUNDS pp pp pp
-2.0000000000000000e+01 2.0000000000000000e+01
-2.0000000000000000e+01 2.0000000000000000e+01
-2.0000000000000000e+01 2.0000000000000000e+01
ITEM: ATOMS id mol type x y z ix iy iz c_quat[1] c_quat[2] c_quat[3] c_quat[4]
1 1 1 -1.290297e+01 1.420788e+01 2.666268e+00 0 -1 0 8.943330e-01 3.249653e-01 -2.347897e-01 -1.985947e-01
2 1 2 -1.308544e+01 1.381194e+01 2.836397e+00 0 -1 0 -8.936086e-01 -3.240780e-01 2.957759e-01 -9.462425e-02
3 1 1 -1.392449e+01 1.409320e+01 2.735206e+00 0 -1 0 6.275684e-01 -2.607653e-01 -5.166075e-01 5.208416e-01
4 1 3 -1.424282e+01 1.404835e+01 1.432697e+00 0 -1 0 -4.539925e-01 -3.486580e-01 -2.002987e-01 7.951156e-01
5 1 1 -1.340216e+01 1.378703e+01 1.448948e+00 0 -1 0 -6.906491e-01 -4.402627e-01 -3.786629e-01 4.310302e-01
6 1 2 -1.266387e+01 1.328464e+01 1.842952e+00 0 -1 0 -8.221466e-02 -5.849069e-01 6.123505e-01 -5.255012e-01
7 1 4 -1.236001e+01 1.284444e+01 1.707375e+00 0 -1 0 -3.457421e-02 -2.719019e-01 7.887616e-01 -5.502083e-01
8 1 1 -1.183535e+01 1.325540e+01 1.053713e+00 0 -1 0 -7.800368e-03 -2.587511e-01 -1.388288e-01 -9.558837e-01
9 1 1 -1.124999e+01 1.259710e+01 1.546555e+00 0 -1 0 1.048724e-01 -4.370141e-01 2.226113e-01 -8.651385e-01
10 1 4 -1.044677e+01 1.315046e+01 1.692899e+00 0 -1 0 -2.183232e-01 -4.697170e-01 4.562999e-01 -7.235270e-01
11 1 1 -1.025294e+01 1.349844e+01 7.099174e-01 0 -1 0 4.355194e-01 5.640383e-01 5.152403e-01 -4.761418e-01
12 1 1 -9.541722e+00 1.283257e+01 1.440633e+00 0 -1 0 6.316596e-02 -1.667110e-01 9.485620e-01 -2.616249e-01
13 1 3 -9.353091e+00 1.228988e+01 4.687158e-01 0 -1 0 4.498654e-01 -1.028729e-01 8.826455e-01 -8.930366e-02
14 1 4 -8.906747e+00 1.275301e+01 1.605925e-01 0 -1 0 1.357859e-01 1.655317e-01 1.363263e-01 9.672521e-01
15 1 4 -8.936531e+00 1.177252e+01 -7.703803e-01 0 -1 0 -6.276055e-01 2.101679e-01 -7.065503e-01 -2.504543e-01
16 1 2 -8.479806e+00 1.179061e+01 -1.075116e+00 0 -1 0 4.028022e-01 1.781688e-01 6.817240e-01 5.841735e-01
17 1 1 -8.145937e+00 1.206284e+01 -1.385201e+00 0 -1 0 -1.100805e-01 -5.559980e-01 -4.755561e-01 -6.727517e-01
18 1 2 -7.933394e+00 1.256530e+01 -1.489206e+00 0 -1 0 1.665381e-01 -6.380443e-01 -1.573431e-01 -7.351242e-01
19 1 3 -7.107513e+00 1.302647e+01 -1.687727e+00 0 -1 0 1.665680e-01 7.031701e-01 -1.183731e-01 6.810247e-01
20 1 1 -6.883504e+00 1.288996e+01 -2.179871e+00 0 -1 0 -8.140104e-01 -2.689343e-01 5.783768e-02 5.115821e-01
21 1 4 -6.631543e+00 1.354645e+01 -1.739439e+00 0 -1 0 -2.877185e-01 -2.932502e-01 -6.390880e-01 6.502222e-01
22 1 1 -6.508937e+00 1.354151e+01 -2.750510e+00 0 -1 0 4.725202e-01 2.964512e-01 -2.874673e-01 -7.785909e-01
23 1 4 -5.345168e+00 1.423130e+01 -2.361647e+00 0 -1 0 4.826367e-01 -5.801244e-01 2.941574e-01 5.865057e-01
24 1 3 -5.404699e+00 1.473423e+01 -2.342902e+00 0 -1 0 2.833334e-01 -5.492722e-01 5.131648e-01 5.955537e-01
25 1 3 -5.295789e+00 1.517225e+01 -2.619701e+00 0 -1 0 6.178894e-02 -3.433404e-01 7.427984e-01 5.714455e-01
26 1 4 -4.512283e+00 1.544878e+01 -1.199221e+00 0 -1 0 7.851079e-01 -6.179238e-01 -8.818725e-04 4.213077e-02
27 1 4 -4.503983e+00 1.583796e+01 -8.879159e-01 0 -1 0 7.922497e-01 -5.143516e-01 2.072231e-01 2.546399e-01
28 1 1 -4.330621e+00 1.622379e+01 -6.172352e-01 0 -1 0 7.901082e-01 -3.640456e-01 4.547360e-01 1.908270e-01
29 1 1 -5.168908e+00 1.634503e+01 5.918092e-01 0 -1 0 5.521341e-01 1.471032e-01 -5.801261e-01 5.804846e-01
30 1 4 -5.244401e+00 1.606238e+01 1.037348e+00 0 -1 0 1.989056e-01 -8.489592e-02 -5.624030e-01 7.980803e-01
31 1 4 -4.357320e+00 1.545340e+01 1.072504e+00 0 -1 0 5.603930e-01 -7.406622e-01 -1.784933e-01 -3.248374e-01
32 1 3 -4.314049e+00 1.537784e+01 1.732476e+00 0 -1 0 3.747585e-01 -1.592542e-02 -5.923266e-01 7.130579e-01
33 1 3 -4.503410e+00 1.510845e+01 2.199158e+00 0 -1 0 6.598442e-03 3.717167e-01 5.371358e-01 -7.571448e-01
34 1 1 -4.905341e+00 1.491542e+01 2.433395e+00 0 -1 0 -3.289974e-01 -5.816455e-01 -3.573227e-01 6.525103e-01
35 1 2 -4.328515e+00 1.466911e+01 2.978785e+00 0 -1 0 2.939553e-02 -7.878641e-02 -9.963593e-01 1.402632e-02
36 1 2 -4.025892e+00 1.535880e+01 3.692311e+00 0 -1 0 -3.057112e-01 7.227060e-01 2.176273e-01 -5.804094e-01
37 1 1 -4.320811e+00 1.562160e+01 3.845330e+00 0 -1 0 1.344523e-01 -7.306778e-01 1.567575e-01 6.507377e-01
38 1 1 -4.185362e+00 1.621741e+01 4.524214e+00 0 -1 0 6.974946e-01 -4.509335e-01 -4.995967e-01 2.460961e-01
39 1 4 -4.745059e+00 1.652069e+01 4.522886e+00 0 -1 0 1.166139e-01 9.356529e-01 1.720232e-01 2.852416e-01
40 1 4 -4.940908e+00 1.648745e+01 5.025584e+00 0 -1 0 -4.069947e-01 -6.920528e-01 5.061287e-01 -3.150427e-01
41 1 2 -6.414951e+00 1.666637e+01 5.165366e+00 0 -1 0 1.645139e-01 7.118724e-02 -8.521041e-01 4.917175e-01
42 1 4 -5.838114e+00 1.736043e+01 4.952530e+00 0 -1 0 6.056478e-01 -2.473847e-01 5.975425e-01 4.636102e-01
43 1 3 -6.179673e+00 1.793659e+01 6.424377e+00 0 -1 0 -5.051387e-01 7.139187e-01 3.599290e-01 3.249710e-01
44 1 2 -6.202835e+00 1.841572e+01 6.642226e+00 0 -1 0 -6.816210e-01 7.236718e-01 5.846571e-02 9.095984e-02
45 1 1 -6.452661e+00 1.923339e+01 5.688333e+00 0 -1 0 -1.460666e-01 7.388820e-01 6.205195e-01 -2.183426e-01
46 1 3 -6.977360e+00 1.935340e+01 5.667577e+00 0 -1 0 4.237622e-03 -8.951915e-01 -2.814728e-01 3.455248e-01
47 1 4 -7.119277e+00 1.900511e+01 6.126661e+00 0 -1 0 2.312134e-01 2.607635e-01 9.371132e-01 -1.901512e-02
48 1 1 -6.472619e+00 1.959328e+01 7.322590e+00 0 -1 0 -2.670646e-01 9.530037e-01 1.395388e-01 3.145470e-02
49 1 4 -6.794409e+00 1.945432e+01 7.884707e+00 0 -1 0 8.485224e-01 -4.782589e-01 -7.624413e-02 2.132253e-01
50 1 4 -7.046810e+00 -2.003079e+01 6.750205e+00 0 0 0 2.312462e-01 -6.274097e-01 5.976601e-01 4.423626e-01
51 1 4 -7.399140e+00 -1.932230e+01 7.130650e+00 0 0 0 -5.807681e-01 1.226060e-01 4.722767e-01 6.516371e-01
52 1 1 -7.801627e+00 -1.899206e+01 7.309211e+00 0 0 0 -7.953970e-01 2.781742e-01 3.251151e-01 4.292586e-01
53 1 3 -7.460617e+00 -1.755984e+01 7.260181e+00 0 0 0 -3.500587e-01 -8.330132e-01 -3.260406e-01 -2.779307e-01
54 1 4 -7.724128e+00 -1.771167e+01 7.767327e+00 0 0 0 -5.095979e-01 -1.025623e-01 7.780067e-01 3.528406e-01
55 1 4 -8.658322e+00 -1.723106e+01 7.737301e+00 0 0 0 -5.584088e-01 -1.271097e-01 -2.085561e-01 7.927970e-01
56 1 4 -8.899605e+00 -1.750897e+01 8.117799e+00 0 0 0 -8.205247e-01 -2.661964e-01 -2.194189e-01 4.557785e-01
57 1 1 -8.854789e+00 -1.808883e+01 8.299319e+00 0 0 0 8.629657e-01 4.329286e-01 1.198219e-01 -2.313129e-01
58 1 1 -8.967024e+00 -1.864768e+01 8.414167e+00 0 0 0 -7.499923e-01 -6.540977e-01 8.492659e-02 4.955037e-02
59 1 3 -9.295082e+00 -1.944729e+01 8.285539e+00 0 0 0 -4.815264e-01 -5.150167e-01 1.782859e-01 6.863704e-01
60 1 4 -9.483192e+00 1.961957e+01 8.914648e+00 0 -1 0 -2.587152e-01 -1.210549e-01 8.986361e-01 -3.329645e-01
61 1 2 -9.834775e+00 1.924842e+01 8.730230e+00 0 -1 0 -4.893344e-01 -1.478769e-01 8.092829e-01 -2.893879e-01
62 1 3 -1.005428e+01 1.947752e+01 8.968054e+00 0 -1 0 -6.161897e-01 7.300636e-01 -2.949843e-01 -1.736707e-02
63 1 2 -1.079452e+01 1.927961e+01 8.912457e+00 0 -1 0 -8.475714e-01 -5.293395e-01 -1.120290e-02 -3.601205e-02
64 1 4 -1.087304e+01 1.966820e+01 1.008283e+01 0 -1 0 5.182041e-01 -6.214354e-01 2.778756e-01 -5.177526e-01
65 1 2 -1.157969e+01 -1.966377e+01 9.709937e+00 0 0 0 2.421163e-01 -8.893215e-01 -2.468378e-01 2.992625e-01
66 1 1 -1.206754e+01 -1.979296e+01 9.621899e+00 0 0 0 -8.287154e-01 -2.410528e-01 -4.992303e-01 -7.676912e-02
67 1 2 -1.199480e+01 -1.998084e+01 1.112841e+01 0 0 0 -8.964919e-01 1.687773e-01 4.018540e-01 7.955983e-02
68 1 1 -1.243469e+01 2.002028e+01 1.146017e+01 0 -1 0 -9.294799e-01 2.402735e-01 1.977603e-01 -1.980573e-01
69 1 1 -1.242825e+01 2.005676e+01 1.193145e+01 0 -1 0 7.611953e-01 -2.718921e-01 -2.989973e-02 5.880156e-01
70 1 2 -1.224386e+01 -1.977552e+01 1.233805e+01 0 0 0 -3.918643e-01 1.632860e-01 -1.439548e-01 -8.938999e-01
71 1 3 -1.220688e+01 1.940794e+01 1.254344e+01 0 -1 0 1.032738e-01 -5.861156e-01 -7.770674e-01 2.048638e-01
72 1 4 -1.157262e+01 1.978804e+01 1.283775e+01 0 -1 0 -3.786209e-01 6.042352e-01 4.302289e-02 6.997822e-01
73 1 1 -1.088291e+01 1.903248e+01 1.307521e+01 0 -1 0 7.563682e-01 -5.075774e-01 -3.977706e-01 1.097765e-01
74 1 1 -1.066580e+01 1.911419e+01 1.299925e+01 0 -1 0 -2.442860e-01 -6.637434e-01 -5.795444e-01 -4.048425e-01
75 1 3 -1.123166e+01 1.880314e+01 1.370750e+01 0 -1 0 1.375167e-01 -8.308154e-01 -3.390607e-01 -4.193718e-01
76 1 1 -1.025605e+01 1.882021e+01 1.410194e+01 0 -1 0 -5.929257e-01 4.005512e-01 2.960872e-01 -6.327166e-01
77 1 4 -1.049895e+01 1.901323e+01 1.447345e+01 0 -1 0 2.161970e-01 -5.355266e-01 -1.023948e-01 8.099292e-01
78 1 1 -1.136126e+01 1.857742e+01 1.458753e+01 0 -1 0 3.568603e-01 3.100542e-01 -4.810608e-01 -7.383073e-01
79 1 4 -1.180747e+01 1.877028e+01 1.461418e+01 0 -1 0 -4.869522e-01 -3.953328e-01 6.046296e-01 4.909304e-01
80 1 2 -1.252420e+01 1.872573e+01 1.456942e+01 0 -1 0 6.861551e-01 5.699487e-01 2.104689e-01 -4.000656e-01
81 1 4 -1.330639e+01 1.808984e+01 1.472737e+01 0 -1 0 -3.530720e-01 1.666297e-01 6.022386e-01 6.963357e-01
82 1 4 -1.254432e+01 1.788924e+01 1.580514e+01 0 -1 0 3.974759e-02 -3.669046e-01 7.779338e-01 -5.085471e-01
83 1 4 -1.350646e+01 1.810953e+01 1.564286e+01 0 -1 0 1.636760e-01 5.133159e-01 7.632868e-01 3.565251e-01
84 1 4 -1.382998e+01 1.819835e+01 1.604590e+01 0 -1 0 6.072903e-01 2.769588e-01 3.663353e-01 -6.482984e-01
85 1 1 -1.414072e+01 1.779775e+01 1.624571e+01 0 -1 0 8.430360e-01 3.790702e-01 1.885232e-01 -3.317456e-01
86 1 1 -1.461426e+01 1.764795e+01 1.743123e+01 0 -1 0 -1.153316e-01 2.077326e-01 8.166659e-01 -5.259302e-01
87 1 3 -1.529355e+01 1.781055e+01 1.750089e+01 0 -1 0 2.368334e-01 -4.197982e-01 -8.296521e-01 2.817033e-01
88 1 2 -1.478860e+01 1.752574e+01 1.796067e+01 0 -1 0 -2.283387e-01 -3.315454e-01 1.423087e-01 -9.042606e-01
89 1 2 -1.446271e+01 1.753478e+01 1.831357e+01 0 -1 0 7.465491e-02 -2.174937e-01 3.679778e-01 -9.009525e-01
90 1 3 -1.425178e+01 1.741827e+01 1.876365e+01 0 -1 0 -3.820106e-01 7.623858e-02 -4.623600e-01 7.965418e-01
91 1 3 -1.433537e+01 1.770322e+01 1.924618e+01 0 -1 0 -7.627759e-01 5.893644e-01 4.163990e-02 2.628473e-01
92 1 2 -1.540283e+01 1.840195e+01 1.839383e+01 0 -1 0 1.576010e-01 5.566928e-01 8.020764e-01 1.480824e-01
93 1 1 -1.592904e+01 1.883815e+01 1.892591e+01 0 -1 0 -5.152982e-02 2.302336e-01 9.436067e-02 -9.671780e-01
94 1 2 -1.615960e+01 1.891933e+01 1.936492e+01 0 -1 0 4.304165e-01 2.052178e-01 1.369970e-01 -8.682506e-01
95 1 3 -1.668213e+01 1.888681e+01 1.959285e+01 0 -1 0 -7.885971e-01 -1.759013e-01 3.278918e-02 5.883012e-01
96 1 2 -1.741450e+01 1.932732e+01 1.939689e+01 0 -1 0 -6.678331e-01 -2.665801e-01 -4.945311e-01 4.882346e-01
97 1 2 -1.759212e+01 -1.996454e+01 1.936169e+01 0 0 0 -5.070917e-01 -6.402155e-01 1.715597e-01 5.509531e-01
98 1 4 -1.788269e+01 -1.918321e+01 2.005888e+01 0 0 0 1.475476e-01 3.448673e-01 9.268761e-01 1.403097e-02
99 1 2 -1.764898e+01 -1.869219e+01 2.018195e+01 0 0 0 -1.335945e-01 -2.439695e-01 7.125906e-01 6.440855e-01
100 1 1 -1.728950e+01 -1.844001e+01 -1.922494e+01 0 0 1 4.259365e-01 -1.464430e-02 -6.328544e-01 -6.464201e-01
101 2 4 8.687738e+00 8.781227e+00 -1.704739e+01 0 -1 0 -4.177422e-01 9.001215e-01 -4.575783e-02 1.147997e-01
102 2 3 7.916965e+00 9.278992e+00 -1.786001e+01 0 -1 0 1.540086e-01 -3.808749e-01 -6.974136e-01 -5.872222e-01
103 2 1 7.877045e+00 8.890893e+00 -1.854403e+01 0 -1 0 5.349355e-01 1.725507e-01 -6.417210e-01 -5.217896e-01
104 2 3 7.367776e+00 8.906976e+00 -1.863779e+01 0 -1 0 7.180256e-01 -6.222385e-02 -6.603237e-01 -2.110451e-01
105 2 3 7.152906e+00 9.783791e+00 -1.844314e+01 0 -1 0 -6.105975e-02 -4.811854e-01 -7.460885e-02 8.713013e-01
106 2 2 6.921641e+00 9.404185e+00 -1.727108e+01 0 -1 0 -3.701547e-01 8.260622e-01 1.889311e-01 3.806728e-01
107 2 3 7.188577e+00 8.884046e+00 -1.730305e+01 0 -1 0 1.425857e-01 9.853064e-01 -2.903435e-02 8.942964e-02
108 2 4 6.348929e+00 8.687622e+00 -1.674468e+01 0 -1 0 -4.325314e-01 4.552058e-01 -6.582599e-01 4.152085e-01
109 2 3 6.776579e+00 9.781062e+00 -1.615965e+01 0 -1 0 5.650731e-01 -8.239781e-01 2.332335e-02 3.476403e-02
110 2 2 6.300773e+00 1.025120e+01 -1.539373e+01 0 -1 0 2.255423e-01 -2.073259e-01 -5.832560e-01 7.523025e-01
111 2 2 6.111428e+00 1.007217e+01 -1.509131e+01 0 -1 0 -1.548880e-01 -3.348124e-01 -5.334335e-01 7.611564e-01
112 2 3 6.630585e+00 8.892634e+00 -1.455848e+01 0 -1 0 1.326368e-01 -6.274914e-01 7.212934e-01 -2.615299e-01
113 2 3 5.706077e+00 8.483064e+00 -1.404789e+01 0 -1 0 -3.037088e-01 1.522337e-01 -7.887280e-01 5.123417e-01
114 2 2 6.341744e+00 8.053869e+00 -1.332633e+01 0 -1 0 3.145182e-01 -7.043545e-01 5.170074e-01 -3.710343e-01
115 2 4 5.806859e+00 8.346117e+00 -1.283497e+01 0 -1 0 6.157331e-01 1.104217e-02 -3.148644e-01 7.222266e-01
116 2 4 5.834889e+00 8.336495e+00 -1.239521e+01 0 -1 0 -3.664263e-02 4.802178e-02 2.444380e-01 -9.677816e-01
117 2 1 5.694115e+00 8.417704e+00 -1.197048e+01 0 -1 0 -3.912483e-01 -1.213059e-01 -1.856904e-01 8.931566e-01
118 2 1 6.933043e+00 8.606726e+00 -1.145149e+01 0 -1 0 7.288014e-01 5.372334e-01 1.034051e-01 4.117478e-01
119 2 1 6.466852e+00 8.070540e+00 -1.107084e+01 0 -1 0 6.015899e-01 6.860133e-01 -6.534484e-02 4.039868e-01
120 2 1 6.530630e+00 7.584369e+00 -1.065174e+01 0 -1 0 -5.269838e-01 -7.859217e-01 2.638181e-01 1.871232e-01
121 2 3 5.850938e+00 7.793680e+00 -9.267469e+00 0 -1 0 2.837403e-01 -2.658736e-01 5.464404e-02 -9.196829e-01
122 2 1 5.939862e+00 8.032073e+00 -8.989172e+00 0 -1 0 -6.580293e-01 3.155467e-01 -1.450164e-01 6.681302e-01
123 2 4 5.501518e+00 8.449709e+00 -8.505642e+00 0 -1 0 -7.044978e-01 2.323376e-01 5.577998e-01 -3.722384e-01
124 2 1 5.129255e+00 8.353603e+00 -8.105094e+00 0 -1 0 -4.166290e-01 5.150614e-01 4.190440e-01 -6.209139e-01
125 2 4 5.308735e+00 8.162803e+00 -7.752199e+00 0 -1 0 -1.214110e-01 -8.553884e-01 -4.446842e-01 -2.362752e-01
126 2 2 4.863928e+00 7.698330e+00 -7.192646e+00 0 -1 0 4.764448e-02 2.953914e-01 1.551447e-01 -9.414903e-01
127 2 4 5.040910e+00 6.263916e+00 -7.799768e+00 0 -1 0 8.039241e-01 3.072751e-01 -3.617453e-01 -3.583691e-01
128 2 4 4.698910e+00 5.918138e+00 -7.757592e+00 0 -1 0 -8.501089e-01 -1.017060e-01 5.165895e-01 1.030228e-02
129 2 1 4.448860e+00 5.548178e+00 -7.533918e+00 0 -1 0 7.854071e-01 -2.556059e-02 -4.890530e-01 3.785624e-01
130 2 2 4.241404e+00 5.332607e+00 -7.172417e+00 0 -1 0 4.163254e-01 -3.631746e-01 -5.631769e-01 6.144992e-01
131 2 3 3.859920e+00 5.245871e+00 -6.912448e+00 0 -1 0 1.376939e-01 -6.000488e-01 -4.268518e-01 6.624042e-01
132 2 4 3.187763e+00 4.413465e+00 -6.275284e+00 0 -1 0 3.998916e-01 9.385207e-02 6.947388e-01 -5.904376e-01
133 2 4 2.692217e+00 4.640161e+00 -5.527681e+00 0 -1 0 6.037036e-01 -3.034864e-01 -1.510316e-02 -7.370277e-01
134 2 3 3.917498e+00 4.554266e+00 -5.628980e+00 0 -1 0 -9.872000e-01 -9.092200e-02 -7.457350e-02 1.077410e-01
135 2 4 2.965365e+00 5.046675e+00 -4.863199e+00 0 -1 0 -3.850529e-01 -1.554315e-01 -6.083017e-01 6.764203e-01
136 2 3 3.277257e+00 5.732726e+00 -4.749640e+00 0 -1 0 8.110674e-01 -4.861756e-01 -3.203662e-01 -5.628915e-02
137 2 1 3.020650e+00 5.886115e+00 -4.397715e+00 0 -1 0 7.506128e-01 -5.468110e-01 -1.054441e-01 3.556118e-01
138 2 3 3.314290e+00 5.487661e+00 -3.750180e+00 0 -1 0 -6.900780e-01 7.033787e-01 -1.675487e-01 -3.127524e-02
139 2 2 3.451409e+00 6.003131e+00 -3.789359e+00 0 -1 0 -6.169489e-01 7.060461e-01 -3.441388e-01 4.941125e-02
140 2 3 3.735448e+00 5.849508e+00 -3.649522e+00 0 -1 0 3.742227e-01 1.239080e-01 -9.178113e-01 4.718712e-02
141 2 1 3.752358e+00 5.653614e+00 -3.071018e+00 0 -1 0 2.846291e-01 -6.525759e-01 6.130766e-01 -3.424442e-01
142 2 2 3.390810e+00 5.789977e+00 -2.399664e+00 0 -1 0 -1.303615e-01 4.735569e-01 -6.912688e-01 5.299974e-01
143 2 4 3.680891e+00 5.404000e+00 -2.152676e+00 0 -1 0 -2.753630e-01 2.081951e-01 -8.770253e-01 3.341507e-01
144 2 4 3.802803e+00 4.941752e+00 -2.220118e+00 0 -1 0 3.665262e-01 1.980947e-01 8.726300e-01 -2.548214e-01
145 2 1 3.804344e+00 4.523745e+00 -2.496757e+00 0 -1 0 -4.792981e-01 -5.771812e-01 -6.598934e-01 4.093793e-02
146 2 1 3.222357e+00 4.090107e+00 -1.603427e+00 0 -1 0 1.544369e-01 -5.934713e-01 3.482548e-01 -7.089850e-01
147 2 1 3.030358e+00 3.810420e+00 -2.730067e+00 0 -1 0 -5.407640e-01 -3.897967e-02 -4.388246e-01 -7.165807e-01
148 2 2 3.821331e+00 2.755141e+00 -2.241434e+00 0 -1 0 8.237297e-01 2.606781e-01 -4.456014e-01 -2.344262e-01
149 2 4 3.493471e+00 2.402551e+00 -2.287438e+00 0 -1 0 -7.674143e-01 3.495727e-02 6.321089e-01 -1.014481e-01
150 2 1 2.613439e+00 2.291578e+00 -3.495191e+00 0 -1 0 7.613040e-01 3.896089e-01 4.539532e-01 -2.500953e-01
151 2 1 2.682286e+00 1.876270e+00 -3.653663e+00 0 -1 0 7.628897e-01 6.061342e-01 2.148687e-01 6.657395e-02
152 2 1 1.681127e+00 1.246187e+00 -3.946953e+00 0 -1 0 -4.737961e-03 2.303584e-01 -7.588434e-01 -6.091545e-01
153 2 4 1.702912e+00 1.397682e+00 -4.264670e+00 0 -1 0 -6.376994e-01 -1.122632e-01 -1.252523e-01 7.516970e-01
154 2 1 2.478941e+00 2.241886e+00 -4.969034e+00 0 -1 0 5.272263e-01 7.492740e-01 3.440885e-01 -2.054849e-01
155 2 2 2.448665e+00 1.961638e+00 -5.417606e+00 0 -1 0 4.358913e-01 8.995184e-01 -2.666450e-02 1.242739e-02
156 2 4 1.875131e+00 6.763196e-01 -5.091520e+00 0 -1 0 5.210211e-01 -5.957998e-02 8.305736e-01 -1.874426e-01
157 2 3 2.418484e+00 9.991340e-01 -5.167865e+00 0 -1 0 1.646831e-01 8.911871e-01 1.641850e-01 3.894976e-01
158 2 2 2.716397e+00 1.147885e+00 -5.529802e+00 0 -1 0 5.696874e-02 8.806977e-01 -1.381195e-01 4.494987e-01
159 2 1 2.804038e+00 9.323053e-01 -6.057924e+00 0 -1 0 -5.476190e-01 -2.814796e-01 3.243061e-01 7.181283e-01
160 2 3 4.060490e+00 1.730345e+00 -5.602315e+00 0 -1 0 8.484576e-01 -4.072189e-02 -1.985075e-01 4.889338e-01
161 2 1 3.809154e+00 9.432755e-01 -6.203317e+00 0 -1 0 1.415955e-01 6.403359e-02 -8.139991e-01 -5.596927e-01
162 2 1 4.545690e+00 2.288492e-01 -6.727947e+00 0 -1 0 -7.006395e-01 1.218767e-01 -6.632956e-01 -2.330004e-01
163 2 4 4.640914e+00 1.059461e+00 -7.389365e+00 0 -1 0 -4.253164e-02 -6.615538e-01 4.280059e-01 6.142870e-01
164 2 4 4.011208e+00 1.499102e+00 -7.957245e+00 0 -1 0 -4.443628e-01 -5.128703e-01 1.341938e-02 7.343880e-01
165 2 3 3.834301e+00 2.070162e+00 -7.849508e+00 0 -1 0 4.525150e-01 7.957274e-02 -4.759121e-01 -7.499374e-01
166 2 3 3.283753e+00 2.167089e+00 -7.720831e+00 0 -1 0 -9.820884e-03 -5.403370e-01 -6.358452e-01 5.510357e-01
167 2 4 2.888363e+00 2.021657e+00 -7.792800e+00 0 -1 0 -2.285657e-01 -7.204050e-01 -2.156415e-01 6.182824e-01
168 2 2 2.419954e+00 2.046740e+00 -8.003992e+00 0 -1 0 4.071729e-01 7.779351e-01 -1.291176e-01 -4.608209e-01
169 2 2 2.123718e+00 1.987230e+00 -8.351216e+00 0 -1 0 6.449523e-01 5.649432e-01 -4.504864e-01 -2.488729e-01
170 2 1 1.647315e+00 2.138154e+00 -8.027831e+00 0 -1 0 6.894525e-01 5.310495e-01 -2.816042e-01 4.041544e-01
171 2 1 4.993840e-01 1.372762e+00 -8.898681e+00 0 -1 0 5.245238e-01 3.229689e-01 -4.150763e-01 -6.695353e-01
172 2 4 6.860203e-02 1.446502e+00 -8.914110e+00 0 -1 0 7.750604e-01 8.784391e-02 -4.076837e-01 -4.747198e-01
173 2 4 2.056405e-01 8.868919e-01 -8.295939e+00 0 -1 0 9.533438e-01 -2.034598e-01 -1.517965e-01 -1.633941e-01
174 2 1 2.042843e-01 1.603029e+00 -7.753137e+00 0 -1 0 -6.959312e-01 6.673148e-01 -1.082334e-01 -2.421906e-01
175 2 1 -8.814349e-01 1.102518e+00 -7.363442e+00 0 -1 0 1.190217e-01 1.191266e-01 5.133165e-01 -8.415158e-01
176 2 2 -1.135922e+00 9.424102e-01 -7.044023e+00 0 -1 0 -5.989855e-01 -2.078548e-01 -3.507405e-01 6.891979e-01
177 2 2 -1.708399e+00 7.082364e-01 -6.802525e+00 0 -1 0 -5.689580e-01 -6.501967e-02 6.079488e-01 5.499613e-01
178 2 1 -1.326720e+00 9.078419e-01 -5.664640e+00 0 -1 0 -7.661325e-01 8.618890e-02 5.809218e-01 -2.610410e-01
179 2 4 -1.637829e+00 7.012376e-01 -5.313982e+00 0 -1 0 6.340330e-01 -3.431448e-01 -3.918504e-01 5.715830e-01
180 2 1 -1.374957e+00 4.290291e-01 -5.776668e+00 0 -1 0 -3.104967e-01 -4.350452e-01 2.937578e-01 7.924859e-01
181 2 4 -1.274352e+00 4.674005e-01 -4.817491e+00 0 -1 0 1.607714e-02 6.187280e-01 7.750490e-01 1.273433e-01
182 2 2 -8.531677e-01 -1.265989e-01 -4.444172e+00 0 -1 0 -3.267005e-01 -8.801393e-01 -8.960591e-02 -3.325544e-01
183 2 3 -9.128430e-01 -1.192310e+00 -4.225548e+00 0 -1 0 7.131183e-01 -1.963073e-02 -4.619636e-01 5.269407e-01
184 2 4 -9.452966e-01 -1.460181e+00 -3.846115e+00 0 -1 0 5.216008e-01 -5.086011e-02 -2.980801e-01 7.978058e-01
185 2 3 -9.434955e-01 -1.577891e+00 -3.355128e+00 0 -1 0 3.999822e-01 -1.287183e-01 -1.548702e-01 8.941259e-01
186 2 1 -8.740205e-01 -1.495708e+00 -2.911988e+00 0 -1 0 1.925414e-01 1.459985e-01 2.896737e-01 -9.261217e-01
187 2 1 2.843900e-01 -2.251736e+00 -3.606218e+00 0 -1 0 -3.164204e-02 6.883232e-01 -7.218072e-01 -6.484030e-02
188 2 2 5.345070e-01 -2.345369e+00 -4.026790e+00 0 -1 0 -2.201216e-02 3.816849e-01 -9.225230e-01 -5.275766e-02
189 2 4 5.992065e-01 -2.598428e+00 -4.496492e+00 0 -1 0 -5.449915e-02 -1.642288e-01 9.841782e-01 -3.810566e-02
190 2 4 1.480926e+00 -2.743360e+00 -3.837382e+00 0 -1 0 -7.105116e-01 -6.416486e-02 5.891992e-01 -3.793422e-01
191 2 1 1.182374e+00 -3.113046e+00 -3.628231e+00 0 -1 0 -5.363572e-01 3.060517e-01 5.980816e-01 -5.108343e-01
192 2 4 8.335079e-01 -3.338152e+00 -3.383657e+00 0 -1 0 2.484607e-01 -5.048213e-01 -4.272620e-01 7.077217e-01
193 2 4 1.459493e+00 -4.256240e+00 -3.158949e+00 0 -1 0 -7.078754e-01 -2.298451e-01 1.381232e-01 -6.534567e-01
194 2 1 1.691038e+00 -5.147293e+00 -2.308607e+00 0 -1 0 6.359762e-01 2.076010e-01 -7.011667e-01 2.465794e-01
195 2 3 1.613414e+00 -5.600078e+00 -2.124533e+00 0 -1 0 3.256011e-01 -1.413017e-01 -7.639767e-01 5.388481e-01
196 2 4 1.349750e+00 -5.851468e+00 -1.854854e+00 0 -1 0 -2.888076e-02 -3.407792e-01 -6.141664e-01 7.112208e-01
197 2 2 9.634111e-01 -6.177942e+00 -1.623861e+00 0 -1 0 -2.758402e-01 -5.220253e-01 -5.091016e-01 6.262725e-01
198 2 4 1.409695e+00 -5.901979e+00 -1.003784e+00 0 -1 0 -3.058255e-01 7.538106e-01 -2.495144e-01 -5.253407e-01
199 2 3 6.773666e-01 -5.605019e+00 -4.282824e-01 0 -1 0 -3.344202e-01 8.430772e-02 -2.874232e-01 -8.935565e-01
200 2 4 8.570780e-01 -6.155227e+00 8.921603e-01 0 -1 0 5.622402e-01 -5.265661e-01 5.383486e-02 -6.353865e-01
