ITEM: TIMESTEP
313000000
ITEM: NUMBER OF ATOMS
200
ITEM: BOX BOUNDS pp pp pp
-2.0000000000000000e+01 2.0000000000000000e+01
-2.0000000000000000e+01 2.0000000000000000e+01
-2.0000000000000000e+01 2.0000000000000000e+01
ITEM: ATOMS id mol type x y z ix iy iz c_quat[1] c_quat[2] c_quat[3] c_quat[4]
1 1 1 1.325935e+01 1.941844e+01 4.217714e+00 -1 -1 0 -2.366842e-01 8.075631e-01 4.750491e-01 2.571978e-01
2 1 2 1.321227e+01 -1.996966e+01 4.091615e+00 -1 0 0 -3.533546e-01 9.274562e-01 5.542690e-02 1.090569e-01
3 1 1 1.235394e+01 -1.954295e+01 4.192152e+00 -1 0 0 -4.525108e-02 7.052347e-01 2.866873e-01 -6.468437e-01
4 1 3 1.189362e+01 -1.939029e+01 4.100779e+00 -1 0 0 2.908420e-01 7.495154e-01 -5.019668e-02 -5.925521e-01
5 1 1 1.139821e+01 -1.872117e+01 5.416504e+00 -1 0 0 -1.203762e-01 4.116951e-01 1.247514e-01 8.946808e-01
6 1 2 1.143446e+01 2.029502e+01 4.919728e+00 -1 -1 0 -3.547328e-01 -2.360452e-01 -7.598778e-01 -4.909512e-01
7 1 4 1.130195e+01 2.009629e+01 4.757554e+00 -1 -1 0 -6.740333e-01 -7.120268e-01 1.954792e-01 2.201827e-02
8 1 1 1.138563e+01 1.970189e+01 4.499155e+00 -1 -1 0 5.699894e-01 3.816922e-01 -6.694890e-01 2.849696e-01
9 1 1 1.154724e+01 1.970524e+01 3.837197e+00 -1 -1 0 6.959957e-01 -2.136738e-01 -1.683371e-01 6.645269e-01
10 1 4 1.133471e+01 1.896861e+01 4.171174e+00 -1 -1 0 -3.067255e-01 5.105716e-01 5.785536e-01 5.572359e-01
11 1 1 1.172865e+01 1.810967e+01 3.664917e+00 -1 -1 0 8.555909e-01 4.446229e-01 2.329676e-01 1.264943e-01
12 1 1 1.189406e+01 1.760335e+01 3.958902e+00 -1 -1 0 -8.617010e-01 -2.765949e-01 -9.661340e-02 -4.142856e-01
13 1 3 1.225891e+01 1.747543e+01 4.364786e+00 -1 -1 0 -6.258077e-01 -1.832129e-01 -5.552943e-02 -7.561179e-01
14 1 4 1.251701e+01 1.744278e+01 4.855702e+00 -1 -1 0 5.367469e-01 1.643799e-01 2.204591e-01 7.976715e-01
15 1 4 1.291585e+01 1.774311e+01 5.006081e+00 -1 -1 0 -1.149285e-01 -2.672882e-01 -1.020629e-01 -9.512789e-01
16 1 2 1.310341e+01 1.813574e+01 5.036415e+00 -1 -1 0 2.957407e-01 -5.175865e-01 2.350357e-01 -7.677238e-01
17 1 1 1.340119e+01 1.825697e+01 5.456519e+00 -1 -1 0 5.756271e-01 -4.148476e-01 3.725009e-01 -5.981622e-01
18 1 2 1.385097e+01 1.781791e+01 5.204289e+00 -1 -1 0 -7.689052e-01 -3.592229e-01 -2.166451e-01 4.825024e-01
19 1 3 1.475774e+01 1.782285e+01 5.335084e+00 -1 -1 0 -3.026873e-01 -5.135226e-01 5.222659e-01 6.098469e-01
20 1 1 1.407487e+01 1.730073e+01 5.641422e+00 -1 -1 0 2.363039e-01 -2.253977e-01 -7.765673e-01 -5.387946e-01
21 1 4 1.484804e+01 1.686815e+01 5.985302e+00 -1 -1 0 -1.184329e-02 5.475540e-01 -2.637454e-01 7.940294e-01
22 1 1 1.491587e+01 1.544691e+01 5.866874e+00 -1 -1 0 -8.134491e-01 9.441127e-02 -3.888252e-01 4.221399e-01
23 1 4 1.513762e+01 1.505812e+01 6.122243e+00 -1 -1 0 8.886318e-01 1.330755e-01 4.336772e-01 -6.744327e-02
24 1 3 1.542982e+01 1.534176e+01 7.548042e+00 -1 -1 0 -5.106048e-01 5.565911e-01 -2.902403e-01 5.875795e-01
25 1 3 1.552284e+01 1.517354e+01 7.398745e+00 -1 -1 0 -4.952076e-01 -1.108973e-01 -7.690567e-01 -3.886167e-01
26 1 4 1.635754e+01 1.509304e+01 7.968242e+00 -1 -1 0 7.110095e-01 -2.342801e-01 6.551804e-01 1.015726e-01
27 1 4 1.732147e+01 1.582559e+01 8.020191e+00 -1 -1 0 7.760999e-01 5.471880e-01 -7.800969e-02 3.035929e-01
28 1 1 1.753484e+01 1.535490e+01 8.076826e+00 -1 -1 0 -6.629247e-01 -5.620151e-01 1.981867e-02 -4.942439e-01
29 1 1 1.760104e+01 1.492235e+01 7.578541e+00 -1 -1 0 -2.991807e-01 -2.181748e-01 -6.299321e-01 -6.826978e-01
30 1 4 1.779172e+01 1.524151e+01 7.377340e+00 -1 -1 0 -1.128381e-02 4.997780e-01 4.475405e-01 7.414864e-01
31 1 4 1.793780e+01 1.573353e+01 7.226539e+00 -1 -1 0 2.771868e-01 -6.349621e-01 -2.446854e-01 -6.783212e-01
32 1 3 1.808266e+01 1.638824e+01 6.895464e+00 -1 -1 0 2.408855e-01 8.442902e-01 1.907298e-01 -4.390562e-01
33 1 3 1.800066e+01 1.714468e+01 7.533450e+00 -1 -1 0 -4.781063e-01 -5.300583e-01 8.471749e-02 -6.951802e-01
34 1 1 1.680827e+01 1.714756e+01 7.837061e+00 -1 -1 0 -1.485988e-02 1.385741e-01 6.089096e-02 9.883667e-01
35 1 2 1.673300e+01 1.735650e+01 8.305547e+00 -1 -1 0 4.612529e-01 -2.079801e-02 1.095829e-01 -8.802300e-01
36 1 2 1.680145e+01 1.690290e+01 9.154068e+00 -1 -1 0 -5.729081e-01 1.884662e-01 5.605510e-01 5.674851e-01
37 1 1 1.702199e+01 1.643189e+01 9.871994e+00 -1 -1 0 1.509567e-01 2.099468e-01 -7.381997e-01 6.230535e-01
38 1 1 1.699969e+01 1.600310e+01 1.003453e+01 -1 -1 0 1.531291e-01 1.065231e-01 7.733086e-01 -6.059688e-01
39 1 4 1.692663e+01 1.654758e+01 1.067520e+01 -1 -1 0 -4.468438e-01 -1.080108e-02 1.779456e-01 -8.766694e-01
40 1 4 1.655346e+01 1.641308e+01 1.077326e+01 -1 -1 0 7.867417e-01 -3.215578e-01 -1.595741e-01 5.021694e-01
41 1 2 1.589034e+01 1.586906e+01 1.126846e+01 -1 -1 0 1.805484e-01 -7.464520e-01 -6.244211e-01 -1.425132e-01
42 1 4 1.637364e+01 1.466073e+01 1.035135e+01 -1 -1 0 -8.569049e-01 -4.242404e-01 2.765595e-01 9.617111e-02
43 1 3 1.616847e+01 1.421166e+01 1.048159e+01 -1 -1 0 -8.200848e-01 -2.494509e-01 3.876428e-01 -3.390697e-01
44 1 2 1.624967e+01 1.382909e+01 1.083130e+01 -1 -1 0 5.861771e-01 -6.080408e-02 -4.745621e-01 6.538273e-01
45 1 1 1.609162e+01 1.302849e+01 1.044804e+01 -1 -1 0 3.673157e-01 5.805983e-01 7.203433e-01 -9.534368e-02
46 1 3 1.736202e+01 1.272317e+01 1.125726e+01 -1 -1 0 -8.756123e-01 2.058771e-01 -1.445202e-01 -4.123488e-01
47 1 4 1.775693e+01 1.357702e+01 1.161716e+01 -1 -1 0 -5.278961e-01 -4.948282e-01 2.708195e-02 -6.897372e-01
48 1 1 1.809034e+01 1.270404e+01 1.214622e+01 -1 -1 0 3.056976e-01 7.908064e-01 -5.291225e-01 -3.469286e-02
49 1 4 1.704399e+01 1.301259e+01 1.255421e+01 -1 -1 0 7.911408e-01 -2.787101e-01 3.698430e-01 -3.995411e-01
50 1 4 1.647249e+01 1.413275e+01 1.183147e+01 -1 -1 0 -2.650902e-01 5.878725e-01 1.060144e-01 -7.568976e-01
51 1 4 1.609494e+01 1.450364e+01 1.195185e+01 -1 -1 0 7.252589e-02 7.039478e-01 -1.145210e-01 -6.971961e-01
52 1 1 1.544100e+01 1.517838e+01 1.258549e+01 -1 -1 0 3.245228e-01 -7.762509e-01 -3.489648e-01 -4.127264e-01
53 1 3 1.550749e+01 1.557944e+01 1.256924e+01 -1 -1 0 5.819446e-01 -7.741501e-01 6.333532e-02 -2.408750e-01
54 1 4 1.573978e+01 1.603173e+01 1.260711e+01 -1 -1 0 -6.568858e-01 6.380899e-01 -3.990770e-01 4.560501e-02
55 1 4 1.612937e+01 1.629744e+01 1.275683e+01 -1 -1 0 7.449596e-01 -3.000250e-01 5.542127e-01 2.187888e-01
56 1 4 1.557988e+01 1.572243e+01 1.383752e+01 -1 -1 0 4.524363e-01 -4.694846e-01 4.529402e-01 -6.080550e-01
57 1 1 1.574654e+01 1.554075e+01 1.421402e+01 -1 -1 0 -8.003281e-01 2.473796e-01 -4.659758e-01 2.848593e-01
58 1 1 1.641598e+01 1.538024e+01 1.430242e+01 -1 -1 0 7.474185e-01 -6.396536e-02 6.168621e-01 -2.382334e-01
59 1 3 1.719728e+01 1.544364e+01 1.468983e+01 -1 -1 0 8.320962e-01 5.240542e-01 8.878547e-02 1.584304e-01
60 1 4 1.663173e+01 1.441593e+01 1.532034e+01 -1 -1 0 9.658430e-01 -1.947166e-01 1.500502e-01 -8.196148e-02
61 1 2 1.692720e+01 1.433221e+01 1.573044e+01 -1 -1 0 -8.806044e-01 1.538665e-01 -3.087091e-01 -3.248995e-01
62 1 3 1.732964e+01 1.355267e+01 1.634126e+01 -1 -1 0 9.165643e-01 1.042909e-01 -3.278443e-01 2.038415e-01
63 1 2 1.728927e+01 1.335998e+01 1.684646e+01 -1 -1 0 -8.310355e-01 -2.817869e-02 2.153158e-01 -5.120791e-01
64 1 4 1.751850e+01 1.325156e+01 1.725736e+01 -1 -1 0 -4.764032e-01 3.550254e-02 2.348533e-01 -8.465361e-01
65 1 2 1.746309e+01 1.328084e+01 1.780039e+01 -1 -1 0 1.545304e-01 -1.395386e-01 -2.609952e-01 9.426191e-01
66 1 1 1.825844e+01 1.375535e+01 1.811094e+01 -1 -1 0 4.834699e-01 -6.412593e-02 -4.434396e-01 7.520014e-01
67 1 2 1.885798e+01 1.370983e+01 1.685474e+01 -1 -1 0 2.966898e-01 8.927239e-01 -3.274008e-01 -8.847516e-02
68 1 1 1.899770e+01 1.362997e+01 1.644922e+01 -1 -1 0 -2.973131e-01 -3.247055e-01 6.855984e-01 5.797638e-01
69 1 1 1.905677e+01 1.361446e+01 1.696831e+01 -1 -1 0 -6.153453e-01 -4.224385e-01 -6.324241e-01 2.072091e-01
70 1 2 1.904676e+01 1.480970e+01 1.754059e+01 -1 -1 0 -1.618863e-01 9.481589e-01 2.708284e-01 3.794025e-02
71 1 3 1.899125e+01 1.517081e+01 1.712384e+01 -1 -1 0 -2.527220e-01 9.644222e-01 -1.354598e-02 7.640565e-02
72 1 4 1.907298e+01 1.551352e+01 1.672673e+01 -1 -1 0 2.917052e-01 -9.079768e-01 2.730414e-01 -1.262321e-01
73 1 1 1.934963e+01 1.586365e+01 1.648478e+01 -1 -1 0 3.006797e-01 -8.430084e-01 3.785835e-01 -2.358030e-01
74 1 1 1.901913e+01 1.624746e+01 1.673236e+01 -1 -1 0 7.727330e-01 -1.201808e-02 -6.015167e-01 -2.022793e-01
75 1 3 1.850013e+01 1.648232e+01 1.694089e+01 -1 -1 0 -8.883186e-01 1.269245e-01 3.816691e-01 2.216052e-01
76 1 1 1.888115e+01 1.715635e+01 1.753637e+01 -1 -1 0 1.795137e-01 3.365060e-01 -1.131059e-01 9.174670e-01
77 1 4 1.839611e+01 1.729073e+01 1.794378e+01 -1 -1 0 -9.027617e-02 -5.353081e-01 -4.014882e-01 7.376331e-01
78 1 1 1.903808e+01 1.603658e+01 1.879933e+01 -1 -1 0 -7.555091e-01 8.037659e-02 6.135506e-01 2.151773e-01
79 1 4 1.932951e+01 1.540105e+01 1.855767e+01 -1 -1 0 -6.953941e-01 1.199423e-01 -4.586003e-01 5.401173e-01
80 1 2 1.950877e+01 1.498738e+01 1.894296e+01 -1 -1 0 -8.168055e-01 -8.857155e-02 -4.898042e-01 2.916773e-01
81 1 4 -2.002361e+01 1.545127e+01 1.860045e+01 0 -1 0 5.855039e-01 4.725351e-01 2.716782e-01 -6.000723e-01
82 1 4 -1.899040e+01 1.499559e+01 1.847730e+01 0 -1 0 -1.000663e-01 -6.466847e-01 6.569532e-01 3.744303e-01
83 1 4 -1.858557e+01 1.504280e+01 1.763630e+01 0 -1 0 8.472620e-01 1.666385e-01 4.662404e-01 1.923504e-01
84 1 4 -1.806876e+01 1.483319e+01 1.758946e+01 0 -1 0 -7.175012e-01 -3.406783e-01 -2.637852e-01 -5.473094e-01
85 1 1 -1.756372e+01 1.481674e+01 1.762217e+01 0 -1 0 -4.394943e-01 -4.092860e-01 -1.425460e-01 -7.867721e-01
86 1 1 -1.731824e+01 1.516472e+01 1.790869e+01 0 -1 0 -2.499005e-01 7.604541e-01 3.241276e-01 5.041831e-01
87 1 3 -1.716280e+01 1.564248e+01 1.776845e+01 0 -1 0 -4.075666e-01 8.138681e-01 -9.572973e-02 4.029194e-01
88 1 2 -1.694307e+01 1.594346e+01 1.806556e+01 0 -1 0 6.314055e-01 -6.818596e-01 3.414373e-01 -1.407663e-01
89 1 2 -1.651376e+01 1.611402e+01 1.824293e+01 0 -1 0 -6.615991e-01 4.183615e-01 -6.120143e-01 -1.126890e-01
90 1 3 -1.660433e+01 1.639095e+01 1.797653e+01 0 -1 0 -5.706259e-01 6.385881e-01 -4.288098e-01 2.875995e-01
91 1 3 -1.608651e+01 1.643899e+01 1.811432e+01 0 -1 0 6.111478e-01 -3.905042e-01 6.753410e-01 -1.338637e-01
92 1 2 -1.555638e+01 1.700766e+01 1.811786e+01 0 -1 0 7.039731e-01 -6.325139e-01 1.711495e-01 -2.739632e-01
93 1 1 -1.513061e+01 1.714043e+01 1.833414e+01 0 -1 0 -6.859101e-01 4.963556e-01 -5.198603e-01 -1.135949e-01
94 1 2 -1.489339e+01 1.802151e+01 1.815218e+01 0 -1 0 1.477908e-01 6.823137e-01 2.071899e-01 -6.853307e-01
95 1 3 -1.405335e+01 1.811014e+01 1.874818e+01 0 -1 0 3.846474e-01 4.509040e-01 3.687332e-01 7.160781e-01
96 1 2 -1.367154e+01 1.830981e+01 1.860959e+01 0 -1 0 6.960766e-02 5.785963e-01 2.820383e-02 8.121488e-01
97 1 2 -1.321799e+01 1.887916e+01 1.900936e+01 0 -1 0 4.358186e-02 -8.701033e-01 -2.906426e-01 -3.956610e-01
98 1 4 -1.311609e+01 1.940322e+01 1.884374e+01 0 -1 0 1.531505e-01 -9.531025e-01 1.255167e-01 -2.288802e-01
99 1 2 -1.274729e+01 1.958588e+01 1.852043e+01 0 -1 0 -2.019319e-01 8.626524e-01 -2.838752e-01 3.667005e-01
100 1 1 -1.284680e+01 1.952616e+01 1.713867e+01 0 -1 0 6.121490e-01 -3.990851e-01 5.010891e-01 4.635887e-01
101 2 4 4.808611e+00 1.184062e+00 -3.846055e+00 0 -1 0 3.104638e-01 3.643496e-01 6.400055e-01 6.010446e-01
102 2 3 5.722210e+00 1.028850e-01 -2.934382e+00 0 -1 0 9.610851e-01 -1.293790e-01 -1.696522e-01 1.754839e-01
103 2 1 4.905746e+00 4.760638e-02 -3.009841e+00 0 -1 0 -9.013785e-01 2.093133e-01 3.716205e-01 -7.485324e-02
104 2 3 4.274746e+00 3.391852e-01 -2.212669e+00 0 -1 0 -4.135245e-01 3.822941e-02 8.672078e-01 -2.747483e-01
105 2 3 4.140092e+00 -6.891714e-03 -2.018804e+00 0 -1 0 2.564127e-01 -1.696572e-01 9.508311e-01 3.727115e-02
106 2 2 3.371519e+00 7.448841e-01 -1.253186e+00 0 -1 0 -6.009153e-01 5.697604e-01 4.879634e-01 2.759810e-01
107 2 3 3.177209e+00 1.094451e+00 -2.559414e+00 0 -1 0 1.279234e-01 -5.395831e-01 -6.347572e-02 8.297328e-01
108 2 4 2.679680e+00 1.362004e+00 -2.458710e+00 0 -1 0 -2.248653e-01 -6.240243e-01 8.105351e-02 7.439487e-01
109 2 3 2.220257e+00 1.485396e+00 -2.564028e+00 0 -1 0 -6.528108e-01 -4.696048e-01 2.919034e-01 5.177855e-01
110 2 2 1.745849e+00 1.360466e+00 -2.774884e+00 0 -1 0 7.268488e-01 4.349960e-01 -4.961767e-01 -1.904677e-01
111 2 2 2.064614e+00 1.845701e+00 -3.421668e+00 0 -1 0 9.964846e-02 9.354522e-01 1.491349e-01 -3.045622e-01
112 2 3 1.740076e+00 1.943386e+00 -3.777336e+00 0 -1 0 -1.716209e-01 -9.650362e-01 6.299961e-02 1.878362e-01
113 2 3 2.820093e-01 1.468969e+00 -4.107321e+00 0 -1 0 -1.641829e-01 -1.424591e-01 7.740715e-01 5.946115e-01
114 2 2 7.382148e-01 2.246697e+00 -4.692028e+00 0 -1 0 4.261359e-01 -3.864396e-01 1.071560e-01 8.109194e-01
115 2 4 1.437027e+00 1.826053e+00 -5.302431e+00 0 -1 0 -7.695350e-01 -5.847093e-01 -2.561494e-01 1.784282e-02
116 2 4 1.080154e+00 2.465505e+00 -4.826759e+00 0 -1 0 4.790404e-01 -3.508725e-01 -3.378186e-01 -7.302653e-01
117 2 1 9.733306e-01 2.850087e+00 -4.472916e+00 0 -1 0 6.758969e-01 -3.202340e-01 -2.194370e-01 -6.264670e-01
118 2 1 7.666251e-01 3.011730e+00 -4.079859e+00 0 -1 0 8.676975e-01 -4.158655e-01 -1.170272e-01 -2.458893e-01
119 2 1 6.965887e-01 3.724181e+00 -5.471510e+00 0 -1 0 3.623701e-01 -4.967112e-01 3.740596e-01 6.942948e-01
120 2 1 5.068806e-01 4.271985e+00 -5.558359e+00 0 -1 0 -1.860403e-01 5.142368e-01 -5.636715e-01 -6.190509e-01
121 2 3 -5.521206e-01 4.831928e+00 -5.698434e+00 0 -1 0 -2.937508e-01 -1.838051e-01 1.625041e-01 9.238607e-01
122 2 1 -9.646983e-01 5.000723e+00 -5.417048e+00 0 -1 0 6.899535e-01 9.060188e-02 -1.501102e-01 -7.022979e-01
123 2 4 -1.560579e+00 5.291263e+00 -4.918954e+00 0 -1 0 6.875215e-02 -3.240902e-01 -2.735894e-02 -9.431279e-01
124 2 1 -1.428394e+00 5.680973e+00 -4.539053e+00 0 -1 0 3.547297e-01 -3.535486e-01 5.318111e-02 -8.639109e-01
125 2 4 -2.239968e+00 5.845782e+00 -4.179149e+00 0 -1 0 2.855299e-01 -1.270492e-01 2.364217e-01 -9.200195e-01
126 2 2 -2.423878e+00 5.532437e+00 -3.219252e+00 0 -1 0 1.227612e-01 1.536970e-01 -8.105760e-01 5.516098e-01
127 2 4 -2.531585e+00 5.014479e+00 -3.089106e+00 0 -1 0 5.581884e-02 2.683579e-01 8.153093e-01 -5.100382e-01
128 2 4 -2.849804e+00 4.652013e+00 -3.074578e+00 0 -1 0 -3.248069e-01 -5.788956e-01 -5.928121e-01 4.560199e-01
129 2 1 -2.712741e+00 3.506983e+00 -2.191340e+00 0 -1 0 3.932291e-01 4.004835e-03 -9.025384e-01 1.754404e-01
130 2 2 -3.041325e+00 3.165098e+00 -2.363450e+00 0 -1 0 3.290817e-01 -3.643474e-01 -7.987907e-01 3.476920e-01
131 2 3 -2.923198e+00 2.123502e+00 -3.028769e+00 0 -1 0 -1.448612e-01 7.620798e-02 -8.533564e-01 -4.949652e-01
132 2 4 -3.809208e+00 2.469533e+00 -2.122764e+00 0 -1 0 -1.315872e-01 3.398519e-01 7.248199e-01 -5.846551e-01
133 2 4 -4.251299e+00 2.249089e+00 -1.927864e+00 0 -1 0 -5.957405e-02 -6.136559e-01 -4.915605e-01 6.150168e-01
134 2 3 -3.711070e+00 8.567005e-01 -2.318775e+00 0 -1 0 9.086925e-01 1.842649e-02 2.158299e-01 -3.568696e-01
135 2 4 -3.819980e+00 5.770177e-01 -2.011605e+00 0 -1 0 -9.528897e-01 -2.750447e-01 -9.721823e-02 8.306728e-02
136 2 3 -4.086173e+00 -6.842469e-02 -1.560040e+00 0 -1 0 8.811893e-01 1.518445e-02 -4.651906e-01 8.290119e-02
137 2 1 -4.331564e+00 -3.684897e-01 -1.359873e+00 0 -1 0 7.023958e-01 -2.843598e-01 -4.531132e-01 4.695402e-01
138 2 3 -4.512593e+00 -1.051490e+00 -1.924945e+00 0 -1 0 -1.967509e-01 6.469659e-01 -3.150201e-01 6.659478e-01
139 2 2 -4.866009e+00 -1.066206e+00 -1.686265e+00 0 -1 0 -1.680394e-01 -6.582036e-01 -2.127343e-01 -7.023353e-01
140 2 3 -4.758710e+00 -2.187724e+00 -2.907428e+00 0 -1 0 3.317053e-01 6.193218e-01 -3.650393e-01 -6.108669e-01
141 2 1 -5.164079e+00 -2.165729e+00 -3.204027e+00 0 -1 0 6.190290e-01 4.235171e-01 -5.240900e-01 -4.034428e-01
142 2 2 -5.584880e+00 -2.477444e+00 -3.412181e+00 0 -1 0 -7.435411e-01 -6.831978e-02 6.608632e-01 7.575515e-02
143 2 4 -5.707890e+00 -2.269748e+00 -4.249783e+00 0 -1 0 -9.161556e-01 2.466600e-01 -3.079903e-01 7.042510e-02
144 2 4 -6.417041e+00 -1.616778e+00 -4.977524e+00 0 -1 0 -2.473623e-01 -9.262235e-01 -8.419465e-02 2.717226e-01
145 2 1 -6.535275e+00 -1.676036e+00 -5.377170e+00 0 -1 0 3.423581e-01 8.259219e-01 -4.105054e-01 -1.792462e-01
146 2 1 -7.154478e+00 -1.288732e+00 -4.267724e+00 0 -1 0 8.344150e-01 -2.334869e-01 -4.978964e-01 3.653223e-02
147 2 1 -7.405975e+00 -1.283336e+00 -3.851403e+00 0 -1 0 6.757242e-01 -5.828903e-01 -3.453670e-01 2.904432e-01
148 2 2 -7.684263e+00 -9.228323e-01 -3.514291e+00 0 -1 0 -3.223052e-01 7.655748e-01 2.699557e-02 -5.561348e-01
149 2 4 -8.235657e+00 -1.739502e+00 -3.417776e+00 0 -1 0 1.565311e-01 -7.263524e-01 -5.430736e-01 -3.911281e-01
150 2 1 -8.058306e+00 -1.740812e+00 -2.713259e+00 0 -1 0 7.497426e-01 -5.453726e-01 -2.428539e-01 2.854413e-01
151 2 1 -9.093838e+00 -1.936101e+00 -2.239615e+00 0 -1 0 -5.672690e-01 2.551921e-01 7.536737e-01 -2.122704e-01
152 2 1 -9.777698e+00 -1.229519e+00 -3.121091e+00 0 -1 0 2.663996e-01 1.103642e-01 -4.177527e-01 -8.615879e-01
153 2 4 -9.742955e+00 -6.940551e-01 -3.133934e+00 0 -1 0 -8.539622e-02 7.706399e-01 5.428254e-02 6.291860e-01
154 2 1 -9.843488e+00 -4.355016e-01 -3.721718e+00 0 -1 0 -3.816409e-01 5.554461e-01 5.917556e-01 4.423292e-01
155 2 2 -9.809555e+00 -1.917497e-01 -4.181820e+00 0 -1 0 4.708340e-01 -8.142162e-02 8.611741e-01 -1.733926e-01
156 2 4 -9.274056e+00 1.365867e+00 -3.820789e+00 0 -1 0 -7.182345e-02 9.249254e-01 2.915483e-01 2.331395e-01
157 2 3 -9.070204e+00 1.728157e+00 -4.195206e+00 0 -1 0 -3.433432e-02 -9.314945e-01 2.895789e-01 -2.174471e-01
158 2 2 -1.001206e+01 1.872033e+00 -4.548084e+00 0 -1 0 2.154493e-01 -4.604578e-01 2.847141e-01 -8.127103e-01
159 2 1 -1.026686e+01 1.909236e+00 -4.535269e+00 0 -1 0 4.160365e-01 -8.939381e-01 -1.658636e-01 -1.666243e-02
160 2 3 -1.037385e+01 2.468427e+00 -4.489796e+00 0 -1 0 -4.392663e-01 8.654651e-01 -1.917338e-01 -1.457857e-01
161 2 1 -1.027139e+01 2.413521e+00 -4.877520e+00 0 -1 0 -5.224962e-01 8.207839e-01 1.566572e-01 1.696175e-01
162 2 1 -1.019434e+01 2.927713e+00 -4.807035e+00 0 -1 0 -6.035703e-01 7.861843e-01 -1.062210e-01 7.958809e-02
163 2 4 -1.026687e+01 3.507317e+00 -5.533065e+00 0 -1 0 3.871107e-01 4.441063e-01 7.552115e-01 2.873509e-01
164 2 4 -9.516203e+00 2.829169e+00 -5.867406e+00 0 -1 0 -4.924036e-01 -8.250089e-01 -1.494219e-01 2.336065e-01
165 2 3 -9.628300e+00 2.722754e+00 -6.320980e+00 0 -1 0 5.223148e-01 7.741714e-01 -3.557482e-01 -3.590353e-02
166 2 3 -9.435072e+00 2.331301e+00 -6.601705e+00 0 -1 0 -3.829992e-01 -5.260883e-01 7.001266e-01 -2.938799e-01
167 2 4 -9.176211e+00 1.707924e+00 -6.263353e+00 0 -1 0 -7.162866e-01 -1.186905e-01 6.691875e-01 -1.582218e-01
168 2 2 -9.663671e+00 1.497938e+00 -6.793962e+00 0 -1 0 -4.569322e-02 2.803498e-01 -3.372986e-01 -8.975220e-01
169 2 2 -9.213304e+00 1.400354e+00 -7.614279e+00 0 -1 0 4.623620e-01 -4.584359e-01 3.637242e-01 6.661551e-01
170 2 1 -1.007848e+01 2.016060e-01 -7.508576e+00 0 -1 0 5.476902e-01 1.317051e-01 -7.713102e-01 -2.962596e-01
171 2 1 -1.053522e+01 9.822149e-02 -7.575004e+00 0 -1 0 6.398902e-01 -1.265032e-01 -7.579815e-01 1.189215e-03
172 2 4 -1.103764e+01 2.481204e-02 -7.779518e+00 0 -1 0 -2.139154e-01 5.674854e-01 6.295351e-01 -4.856811e-01
173 2 4 -1.081695e+01 -4.050316e-01 -7.525497e+00 0 -1 0 1.417548e-01 9.756073e-01 1.650307e-01 -2.934016e-02
174 2 1 -1.142902e+01 -6.019661e-01 -6.460616e+00 0 -1 0 -1.852398e-01 -9.755675e-02 -5.457581e-01 8.113674e-01
175 2 1 -1.135573e+01 -9.189130e-01 -6.661688e+00 0 -1 0 6.546471e-01 5.554360e-01 -4.637280e-01 2.188251e-01
176 2 2 -1.183144e+01 -1.046715e+00 -6.055390e+00 0 -1 0 6.351477e-01 -5.780355e-02 -4.796925e-01 6.026120e-01
177 2 2 -1.198341e+01 -1.191607e+00 -5.678547e+00 0 -1 0 3.350676e-01 -2.801712e-01 -3.649154e-01 8.222351e-01
178 2 1 -1.230392e+01 -2.403827e+00 -5.230105e+00 0 -1 0 -4.804053e-01 4.555390e-01 -1.494556e-01 7.344100e-01
179 2 4 -1.211391e+01 -2.179643e+00 -4.791516e+00 0 -1 0 -6.995964e-01 3.939501e-01 -4.228624e-01 4.201852e-01
180 2 1 -1.176200e+01 -2.198744e+00 -4.493861e+00 0 -1 0 -7.817893e-01 2.066493e-01 -5.531311e-01 2.003683e-01
181 2 4 -1.117427e+01 -2.484404e+00 -4.366682e+00 0 -1 0 -7.425075e-01 -1.318075e-02 -6.671823e-01 -5.810926e-02
182 2 2 -1.064582e+01 -2.707396e+00 -4.520586e+00 0 -1 0 -6.545468e-01 -2.557255e-01 -5.219655e-01 -4.834510e-01
183 2 3 -1.020230e+01 -2.596426e+00 -4.610901e+00 0 -1 0 -2.996625e-01 -3.718339e-01 -3.269942e-01 -8.154856e-01
184 2 4 -1.019286e+01 -3.942884e+00 -4.902429e+00 0 -1 0 -4.174627e-01 -1.830762e-02 -8.927467e-01 -1.685027e-01
185 2 3 -9.873297e+00 -4.559142e+00 -5.069470e+00 0 -1 0 6.568034e-01 -9.804672e-02 6.880908e-01 2.924503e-01
186 2 1 -1.076214e+01 -4.225816e+00 -5.334788e+00 0 -1 0 6.874665e-02 -2.049551e-02 1.635959e-01 9.839157e-01
187 2 1 -9.832692e+00 -5.423690e+00 -5.519882e+00 0 -1 0 3.790866e-01 -8.012374e-01 4.388414e-01 1.474119e-01
188 2 2 -1.107770e+01 -5.407217e+00 -5.903252e+00 0 -1 0 -4.768861e-01 -3.831258e-01 -6.365991e-01 -4.696124e-01
189 2 4 -1.085635e+01 -5.318237e+00 -6.280255e+00 0 -1 0 2.431390e-01 6.926752e-01 3.866513e-01 5.581983e-01
190 2 4 -1.060445e+01 -6.676577e+00 -6.982390e+00 0 -1 0 -7.555444e-01 -5.632397e-01 2.400935e-01 2.329568e-01
191 2 1 -1.079338e+01 -7.153158e+00 -7.023972e+00 0 -1 0 -8.456781e-01 -4.528611e-01 2.813871e-01 -2.380339e-02
192 2 4 -1.062487e+01 -7.688077e+00 -7.467837e+00 0 -1 0 -5.453294e-01 2.006680e-01 -7.950824e-01 1.737588e-01
193 2 4 -1.052396e+01 -7.026470e+00 -8.609095e+00 0 -1 0 -5.133946e-01 -7.988725e-01 -6.219218e-02 3.071822e-01
194 2 1 -1.033448e+01 -7.163348e+00 -8.386014e+00 0 -1 0 -2.731446e-01 2.031878e-01 8.163915e-01 4.664886e-01
195 2 3 -9.956730e+00 -6.515765e+00 -8.685781e+00 0 -1 0 3.578412e-01 -7.857573e-01 -2.401622e-01 -4.436859e-01
196 2 4 -1.113134e+01 -6.947068e+00 -9.473822e+00 0 -1 0 -4.270437e-01 -1.355395e-02 5.151284e-01 7.430294e-01
197 2 2 -1.157630e+01 -6.685190e+00 -9.356008e+00 0 -1 0 -7.590236e-01 1.393687e-01 3.654130e-01 5.205121e-01
198 2 4 -1.104050e+01 -5.127774e+00 -9.452838e+00 0 -1 0 5.983543e-01 -5.137625e-01 -1.462978e-01 5.971743e-01
199 2 3 -1.122911e+01 -4.728570e+00 -9.181123e+00 0 -1 0 3.162129e-01 -5.670257e-01 2.205641e-01 7.279029e-01
200 2 4 -1.143411e+01 -3.917954e+00 -8.930541e+00 0 -1 0 4.753098e-01 -2.975621e-01 1.976280e-01 8.040402e-01
