ITEM: TIMESTEP
311000000
ITEM: NUMBER OF ATOMS
200
ITEM: BOX BOUNDS pp pp pp
-2.0000000000000000e+01 2.0000000000000000e+01
-2.0000000000000000e+01 2.0000000000000000e+01
-2.0000000000000000e+01 2.0000000000000000e+01
ITEM: ATOMS id mol type x y z ix iy iz c_quat[1] c_quat[2] c_quat[3] c_quat[4]
1 1 1 1.702225e+01 1.913724e+01 -5.467572e+00 -1 -1 0 1.344472e-01 -6.443502e-02 -1.565246e-02 9.886997e-01
2 1 2 1.628099e+01 1.925569e+01 -5.051859e+00 -1 -1 0 -3.041993e-01 3.439518e-01 -1.066691e-01 8.819193e-01
3 1 1 1.618698e+01 1.926281e+01 -5.814348e+00 -1 -1 0 7.692454e-02 -8.132320e-01 4.593722e-02 5.750010e-01
4 1 3 1.662880e+01 1.822446e+01 -5.551280e+00 -1 -1 0 2.993753e-03 -7.973436e-01 4.730743e-01 3.747464e-01
5 1 1 1.556869e+01 1.793026e+01 -5.387268e+00 -1 -1 0 -4.315067e-01 5.345864e-01 5.590305e-01 4.642244e-01
6 1 2 1.523514e+01 1.826321e+01 -5.368824e+00 -1 -1 0 5.749702e-01 -7.173256e-01 -3.683562e-01 -1.384450e-01
7 1 4 1.454578e+01 1.871247e+01 -5.629001e+00 -1 -1 0 -1.975538e-01 -5.891213e-01 5.188300e-02 -7.818035e-01
8 1 1 1.444811e+01 1.787979e+01 -4.786111e+00 -1 -1 0 -5.665106e-01 -2.474880e-01 6.776011e-01 -3.983368e-01
9 1 1 1.379769e+01 1.869926e+01 -4.634947e+00 -1 -1 0 -3.154373e-01 2.765449e-02 -1.309657e-01 -9.394586e-01
10 1 4 1.302706e+01 1.814360e+01 -4.134253e+00 -1 -1 0 -7.508413e-01 3.050948e-01 5.304140e-01 2.486273e-01
11 1 1 1.252133e+01 1.838476e+01 -4.063699e+00 -1 -1 0 -8.151597e-01 2.918103e-01 4.879051e-01 1.109506e-01
12 1 1 1.212900e+01 1.848973e+01 -3.768103e+00 -1 -1 0 8.283799e-01 -4.186465e-01 -3.329067e-01 1.664179e-01
13 1 3 1.196733e+01 1.871680e+01 -3.354061e+00 -1 -1 0 6.761173e-01 -5.521126e-01 5.347712e-03 4.878612e-01
14 1 4 1.156049e+01 1.860278e+01 -2.670482e+00 -1 -1 0 -2.456889e-01 -1.209829e-01 -4.721803e-01 8.378818e-01
15 1 4 1.245030e+01 1.854888e+01 -2.554810e+00 -1 -1 0 6.267116e-01 -1.260696e-01 6.264138e-01 4.460323e-01
16 1 2 1.288521e+01 1.881763e+01 -2.771021e+00 -1 -1 0 4.131168e-01 1.728945e-01 6.712272e-01 5.906743e-01
17 1 1 1.350888e+01 1.854725e+01 -1.386931e+00 -1 -1 0 2.342095e-01 -4.994758e-01 3.465005e-01 -7.586879e-01
18 1 2 1.413698e+01 1.839835e+01 -1.099089e+00 -1 -1 0 -6.610749e-01 5.943440e-01 -4.563569e-01 -3.838707e-02
19 1 3 1.335046e+01 1.955411e+01 -1.282984e+00 -1 -1 0 3.923084e-01 -7.751499e-01 -1.183133e-01 4.808730e-01
20 1 1 1.324643e+01 -1.992396e+01 -1.319438e+00 -1 0 0 -2.128602e-01 6.157338e-01 -3.484433e-01 -6.739063e-01
21 1 4 1.319727e+01 -1.957823e+01 -1.365019e+00 -1 0 0 -1.366590e-02 2.475818e-01 -7.433932e-01 -6.211948e-01
22 1 1 1.370803e+01 -1.902091e+01 -2.702463e-01 -1 0 0 -3.180026e-01 5.935724e-02 5.625522e-02 -9.445562e-01
23 1 4 1.433322e+01 -1.966058e+01 7.840206e-01 -1 0 0 1.430570e-02 7.622862e-01 -5.547078e-01 3.331881e-01
24 1 3 1.368600e+01 -1.950431e+01 7.125918e-01 -1 0 0 3.331977e-01 -9.491028e-02 1.870422e-01 9.192315e-01
25 1 3 1.362590e+01 1.956667e+01 -1.834643e-02 -1 -1 0 7.031146e-01 -2.634515e-01 6.604687e-01 -2.064728e-03
26 1 4 1.370155e+01 1.934064e+01 5.994328e-01 -1 -1 0 3.881757e-01 4.592800e-01 -4.585722e-01 6.542882e-01
27 1 4 1.400772e+01 1.900783e+01 7.711282e-01 -1 -1 0 1.241101e-01 2.799709e-01 -4.128110e-01 8.577879e-01
28 1 1 1.489865e+01 1.837853e+01 6.860700e-01 -1 -1 0 7.374724e-01 -4.510946e-01 -2.377785e-01 4.428426e-01
29 1 1 1.432971e+01 1.720044e+01 6.866434e-01 -1 -1 0 -9.217911e-01 -2.718375e-01 9.182241e-02 2.607186e-01
30 1 4 1.420792e+01 1.736751e+01 1.356764e+00 -1 -1 0 2.087321e-01 2.079839e-01 3.381571e-01 -8.937692e-01
31 1 4 1.467698e+01 1.592958e+01 1.065380e+00 -1 -1 0 -2.326377e-02 -3.281262e-01 9.225489e-01 2.017313e-01
32 1 3 1.509156e+01 1.623784e+01 1.681511e+00 -1 -1 0 5.790667e-01 -6.286689e-02 2.274380e-01 -7.803854e-01
33 1 3 1.501189e+01 1.595846e+01 2.116676e+00 -1 -1 0 -8.557902e-01 1.286453e-02 -2.723081e-01 4.396658e-01
34 1 1 1.582849e+01 1.572994e+01 2.780243e+00 -1 -1 0 3.244454e-01 -7.403238e-01 5.886116e-01 -1.386172e-02
35 1 2 1.624165e+01 1.584355e+01 2.543327e+00 -1 -1 0 -3.038784e-01 3.586566e-01 -8.720233e-01 -1.363771e-01
36 1 2 1.619564e+01 1.531026e+01 3.433103e+00 -1 -1 0 -5.722737e-01 4.543618e-01 -6.614509e-01 1.689406e-01
37 1 1 1.677256e+01 1.529909e+01 3.479542e+00 -1 -1 0 -5.898390e-01 2.743197e-01 -7.594928e-01 3.046693e-03
38 1 1 1.725926e+01 1.520634e+01 3.345073e+00 -1 -1 0 -5.128724e-01 1.016360e-03 -8.333278e-01 -2.062174e-01
39 1 4 1.756208e+01 1.611759e+01 4.482170e+00 -1 -1 0 -8.834121e-02 9.741312e-01 1.798765e-01 -1.044448e-01
40 1 4 1.859639e+01 1.548279e+01 4.497054e+00 -1 -1 0 -9.768304e-01 -4.550823e-02 -4.238759e-02 -2.047795e-01
41 1 2 1.873875e+01 1.528015e+01 4.973397e+00 -1 -1 0 -9.051876e-01 -1.046512e-01 -1.733671e-01 -3.736674e-01
42 1 4 1.806310e+01 1.469146e+01 5.409775e+00 -1 -1 0 -8.302362e-01 -4.644724e-01 2.974961e-01 -8.043244e-02
43 1 3 1.742138e+01 1.507968e+01 5.632795e+00 -1 -1 0 -6.489976e-01 9.510771e-02 -1.366895e-01 -7.423427e-01
44 1 2 1.694337e+01 1.474521e+01 6.072154e+00 -1 -1 0 8.324496e-01 2.439883e-01 1.767597e-01 -4.650305e-01
45 1 1 1.658459e+01 1.516292e+01 6.626676e+00 -1 -1 0 6.916673e-01 3.143068e-01 5.828559e-01 -2.882473e-01
46 1 3 1.636186e+01 1.485952e+01 7.123785e+00 -1 -1 0 5.509218e-01 -2.053165e-01 -7.233934e-01 3.619838e-01
47 1 4 1.597660e+01 1.475477e+01 7.411955e+00 -1 -1 0 -3.386683e-01 4.950814e-01 5.058571e-01 -6.199249e-01
48 1 1 1.634636e+01 1.402475e+01 7.749199e+00 -1 -1 0 2.361381e-01 -1.810010e-01 -7.676636e-01 5.676002e-01
49 1 4 1.636527e+01 1.323633e+01 7.973738e+00 -1 -1 0 -4.522453e-01 2.474608e-01 7.185775e-01 -4.667802e-01
50 1 4 1.644436e+01 1.281475e+01 7.679963e+00 -1 -1 0 -2.718398e-01 7.625605e-02 -7.550745e-01 -5.917352e-01
51 1 4 1.681092e+01 1.184086e+01 8.689943e+00 -1 -1 0 1.087532e-01 -4.839597e-01 7.110505e-01 -4.983603e-01
52 1 1 1.725781e+01 1.153544e+01 8.748108e+00 -1 -1 0 3.104915e-01 -2.057820e-01 7.914648e-01 -4.845950e-01
53 1 3 1.742606e+01 1.109669e+01 8.798018e+00 -1 -1 0 -5.140898e-01 -1.829170e-01 -7.918543e-01 2.742622e-01
54 1 4 1.773285e+01 1.091159e+01 1.007429e+01 -1 -1 0 -5.727668e-01 6.055251e-01 -4.182377e-01 3.610469e-01
55 1 4 1.814544e+01 1.085174e+01 1.039159e+01 -1 -1 0 -6.973628e-01 3.517803e-01 -6.184669e-01 8.622355e-02
56 1 4 1.859322e+01 1.072646e+01 1.044738e+01 -1 -1 0 6.650271e-01 -4.186633e-02 7.340293e-01 1.311001e-01
57 1 1 1.942512e+01 1.164085e+01 1.133790e+01 -1 -1 0 3.491293e-01 7.802103e-01 -3.541253e-01 3.794415e-01
58 1 1 1.978221e+01 1.127383e+01 1.118832e+01 -1 -1 0 -1.875148e-01 -5.027632e-01 6.385536e-01 -5.516490e-01
59 1 3 1.958445e+01 1.050943e+01 1.164420e+01 -1 -1 0 -7.930476e-01 3.891836e-01 3.373935e-01 3.252342e-01
60 1 4 -1.978725e+01 1.146366e+01 1.154120e+01 0 -1 0 1.657004e-01 -6.152403e-01 -1.369835e-01 7.584578e-01
61 1 2 -1.998102e+01 1.189006e+01 1.159781e+01 0 -1 0 1.730339e-01 4.296904e-01 -1.628689e-01 -8.711482e-01
62 1 3 -1.969565e+01 1.088192e+01 1.220128e+01 0 -1 0 -2.722511e-01 -1.914239e-01 8.110357e-01 4.811001e-01
63 1 2 -1.856561e+01 1.077870e+01 1.192885e+01 0 -1 0 -7.395940e-01 6.011083e-01 -2.375163e-01 -1.877647e-01
64 1 4 -1.873903e+01 9.858168e+00 1.201498e+01 0 -1 0 7.422236e-01 9.467900e-02 -3.993021e-01 -5.298092e-01
65 1 2 -1.816083e+01 1.049504e+01 1.238108e+01 0 -1 0 -3.649806e-01 4.522011e-01 -8.106719e-01 7.151472e-02
66 1 1 -1.854621e+01 1.202796e+01 1.252085e+01 0 -1 0 4.076184e-01 -1.128239e-01 1.941614e-01 8.851098e-01
67 1 2 -1.851666e+01 1.235083e+01 1.283450e+01 0 -1 0 1.253373e-01 3.080643e-03 -4.991140e-02 -9.908531e-01
68 1 1 -1.880099e+01 1.221374e+01 1.296842e+01 0 -1 0 4.225728e-01 7.840979e-02 8.906729e-01 1.482763e-01
69 1 1 -1.845012e+01 1.360621e+01 1.372522e+01 0 -1 0 5.580807e-03 8.689774e-01 4.416495e-01 2.231432e-01
70 1 2 -1.876427e+01 1.345009e+01 1.419183e+01 0 -1 0 -6.078508e-01 1.144175e-01 -2.095535e-01 7.573066e-01
71 1 3 -1.877138e+01 1.328315e+01 1.471754e+01 0 -1 0 7.898585e-01 4.410127e-02 3.490628e-01 -5.023284e-01
72 1 4 -1.894344e+01 1.357805e+01 1.536605e+01 0 -1 0 1.027729e-01 2.915427e-01 4.251017e-01 8.507227e-01
73 1 1 -1.913641e+01 1.286461e+01 1.586286e+01 0 -1 0 -8.282474e-01 4.974147e-01 2.442898e-01 -8.311078e-02
74 1 1 -1.960243e+01 1.303337e+01 1.568278e+01 0 -1 0 -7.673919e-01 -2.405764e-01 -5.638697e-01 1.878391e-01
75 1 3 -1.974457e+01 1.250603e+01 1.652212e+01 0 -1 0 2.244170e-01 2.843673e-01 -8.441417e-01 -3.952177e-01
76 1 1 -1.846371e+01 1.308649e+01 1.693672e+01 0 -1 0 -9.003953e-01 2.903400e-02 -2.492247e-01 -3.554328e-01
77 1 4 -1.893402e+01 1.212447e+01 1.768761e+01 0 -1 0 -8.047398e-01 4.268765e-01 1.067187e-01 3.984739e-01
78 1 1 -1.867963e+01 1.265276e+01 1.769413e+01 0 -1 0 1.663159e-01 -8.174447e-01 3.371446e-01 4.364135e-01
79 1 4 -1.835154e+01 1.263644e+01 1.860202e+01 0 -1 0 -3.337833e-01 -1.229458e-01 4.285822e-01 -8.305362e-01
80 1 2 -1.758017e+01 1.184805e+01 1.795485e+01 0 -1 0 -6.631322e-01 6.616251e-02 -6.559160e-01 -3.544749e-01
81 1 4 -1.715543e+01 1.172755e+01 1.787483e+01 0 -1 0 5.604178e-01 4.272846e-01 5.227140e-01 4.797184e-01
82 1 4 -1.691256e+01 1.137325e+01 1.918630e+01 0 -1 0 -7.733908e-01 3.936353e-01 -4.103083e-01 2.802945e-01
83 1 4 -1.645622e+01 1.137142e+01 1.947579e+01 0 -1 0 8.117177e-01 -1.983361e-01 5.486764e-01 2.704333e-02
84 1 4 -1.740939e+01 1.181489e+01 1.955953e+01 0 -1 0 -5.800699e-01 -1.263122e-01 -5.434985e-01 -5.934421e-01
85 1 1 -1.822057e+01 1.242502e+01 -1.928029e+01 0 -1 1 2.008713e-01 6.945112e-02 -2.391613e-01 9.474329e-01
86 1 1 -1.735329e+01 1.185539e+01 -1.836829e+01 0 -1 1 7.530734e-01 1.867933e-01 -5.055350e-01 3.773898e-01
87 1 3 -1.737642e+01 1.232161e+01 -1.893457e+01 0 -1 1 3.067968e-01 4.805795e-01 -1.498864e-01 -8.077457e-01
88 1 2 -1.641123e+01 1.311661e+01 -1.816165e+01 0 -1 1 -3.078582e-01 -9.015082e-01 1.019140e-02 -3.039776e-01
89 1 2 -1.707539e+01 1.313471e+01 -1.771691e+01 0 -1 1 -2.111940e-01 -2.360826e-01 -7.486245e-01 -5.824289e-01
90 1 3 -1.641635e+01 1.220033e+01 -1.739791e+01 0 -1 1 8.216246e-01 3.424874e-01 3.975877e-01 -2.226194e-01
91 1 3 -1.752144e+01 1.240466e+01 -1.687101e+01 0 -1 1 -6.719359e-02 -3.537764e-01 -8.380875e-01 -4.098006e-01
92 1 2 -1.657040e+01 1.193992e+01 -1.674025e+01 0 -1 1 -1.348697e-01 -7.856225e-01 1.425033e-01 5.867710e-01
93 1 1 -1.637838e+01 1.247947e+01 -1.545260e+01 0 -1 1 1.910806e-01 7.977598e-01 -3.238274e-01 4.713846e-01
94 1 2 -1.567615e+01 1.228454e+01 -1.609039e+01 0 -1 1 7.965426e-01 9.994260e-02 2.862723e-01 5.230484e-01
95 1 3 -1.524130e+01 1.230970e+01 -1.589513e+01 0 -1 1 -6.097563e-01 -1.998069e-01 -3.854028e-01 -6.631283e-01
96 1 2 -1.478399e+01 1.258620e+01 -1.583262e+01 0 -1 1 3.373577e-01 3.233445e-01 3.350003e-01 8.181765e-01
97 1 2 -1.440706e+01 1.296951e+01 -1.570517e+01 0 -1 1 -1.212896e-02 3.524558e-01 1.106084e-01 9.291897e-01
98 1 4 -1.431446e+01 1.333548e+01 -1.538889e+01 0 -1 1 4.026511e-01 -3.719151e-01 1.573963e-02 -8.362437e-01
99 1 2 -1.457460e+01 1.432488e+01 -1.513307e+01 0 -1 1 9.330281e-02 -7.721363e-01 -6.285555e-01 4.260677e-03
100 1 1 -1.434280e+01 1.445097e+01 -1.486756e+01 0 -1 1 3.859559e-02 -1.718200e-01 4.240602e-01 8.883475e-01
101 2 4 -1.320698e+00 1.739844e+01 2.975602e+00 0 -1 0 9.518081e-02 -3.488975e-01 -4.037371e-01 8.403615e-01
102 2 3 -7.824674e-01 1.617357e+01 2.140588e+00 0 -1 0 6.996190e-02 -6.278468e-01 6.775086e-01 3.766906e-01
103 2 1 -8.569962e-01 1.640717e+01 1.726364e+00 0 -1 0 1.051999e-01 4.564886e-01 -8.345939e-01 -2.898348e-01
104 2 3 -7.354696e-01 1.627134e+01 1.219767e+00 0 -1 0 -9.269806e-02 -5.315584e-02 9.796481e-01 1.699149e-01
105 2 3 -8.528834e-01 1.625488e+01 7.908736e-01 0 -1 0 2.145056e-01 -3.625549e-01 -8.669401e-01 -2.663760e-01
106 2 2 -1.081172e+00 1.527825e+01 1.131286e+00 0 -1 0 1.503476e-01 1.742091e-01 -9.671517e-01 1.080018e-01
107 2 3 -1.241284e+00 1.544404e+01 4.008781e-01 0 -1 0 1.772301e-01 -4.754257e-01 9.141493e-02 8.568566e-01
108 2 4 -1.004900e+00 1.390019e+01 6.075898e-01 0 -1 0 8.137080e-01 4.051390e-01 -3.242282e-01 -2.619498e-01
109 2 3 -1.200781e+00 1.342745e+01 7.366854e-01 0 -1 0 8.819459e-01 1.112855e-01 -4.211743e-01 1.799979e-01
110 2 2 -1.160119e+00 1.297459e+01 1.074659e+00 0 -1 0 -7.062152e-01 -1.288189e-02 4.691924e-01 -5.300497e-01
111 2 2 -1.933440e+00 1.202826e+01 8.918102e-01 0 -1 0 6.506463e-02 2.548094e-01 -7.700060e-01 5.813170e-01
112 2 3 -1.563387e+00 1.250081e+01 2.648620e-01 0 -1 0 1.372315e-01 8.410229e-02 -5.960304e-01 7.866652e-01
113 2 3 -8.276837e-01 1.172231e+01 -3.111787e-01 0 -1 0 -7.218550e-01 -3.626392e-01 -5.347052e-01 2.480090e-01
114 2 2 -6.847520e-01 1.122376e+01 -3.146981e-01 0 -1 0 -6.231304e-01 -5.746424e-01 -5.224604e-01 9.235665e-02
115 2 4 -6.951585e-01 1.083642e+01 1.916119e-01 0 -1 0 3.852449e-01 4.311307e-01 7.744857e-01 2.566798e-01
116 2 4 -9.781970e-01 1.013274e+01 -3.255386e-01 0 -1 0 6.331019e-01 4.597379e-01 5.789991e-01 -2.293101e-01
117 2 1 -4.305095e-01 9.729174e+00 -8.901711e-02 0 -1 0 6.062511e-01 2.434325e-01 -4.337986e-01 6.204990e-01
118 2 1 5.910923e-02 9.514594e+00 -4.461698e-01 0 -1 0 -5.321491e-01 2.106383e-01 -1.769765e-01 -8.007048e-01
119 2 1 5.394612e-01 9.796111e+00 -7.226225e-01 0 -1 0 -7.003189e-01 -6.903215e-01 -1.685537e-01 6.781815e-02
120 2 1 6.838038e-01 9.395348e+00 -9.921135e-01 0 -1 0 7.025233e-01 6.570757e-01 -1.544271e-01 2.255323e-01
121 2 3 9.827762e-01 8.935723e+00 -1.004792e+00 0 -1 0 -5.572828e-01 -5.242531e-01 3.353576e-01 -5.496634e-01
122 2 1 5.908150e-02 8.206080e+00 -1.900379e+00 0 -1 0 -2.619567e-01 -3.960352e-01 -7.868629e-01 -3.941847e-01
123 2 4 8.610463e-01 7.202446e+00 -1.004349e+00 0 -1 0 -7.996266e-01 1.681230e-01 5.563318e-01 -1.510857e-01
124 2 1 3.734156e-01 6.712606e+00 -2.249911e+00 0 -1 0 -5.468877e-01 -2.974892e-01 -3.512054e-01 6.993345e-01
125 2 4 5.387182e-02 6.362446e+00 -2.061001e+00 0 -1 0 8.180456e-01 3.907881e-01 1.522988e-01 -3.935621e-01
126 2 2 -1.312361e-01 6.017722e+00 -1.977703e+00 0 -1 0 9.359759e-01 3.390455e-01 -9.025008e-02 2.919044e-02
127 2 4 -1.077878e+00 5.838713e+00 -1.495640e+00 0 -1 0 -8.003310e-01 2.298391e-01 -5.142927e-01 2.052981e-01
128 2 4 -1.154877e+00 5.273677e+00 -1.412767e+00 0 -1 0 -7.376727e-01 1.639029e-01 -6.544631e-01 -2.555205e-02
129 2 1 -1.308462e+00 4.823172e+00 -8.158355e-01 0 -1 0 -8.167955e-01 -4.006189e-01 1.296108e-01 3.943991e-01
130 2 2 -1.962056e+00 5.250252e+00 -8.161942e-01 0 -1 0 5.060857e-01 -8.871230e-03 3.126524e-01 8.037705e-01
131 2 3 -2.081745e+00 5.352926e+00 4.916027e-01 0 -1 0 -1.916748e-02 -8.479593e-01 4.534903e-02 -5.277699e-01
132 2 4 -2.114376e+00 4.807913e+00 5.828434e-01 0 -1 0 6.681146e-01 -3.082672e-01 1.083240e-01 6.684760e-01
133 2 4 -2.002225e+00 4.778562e+00 1.165172e+00 0 -1 0 4.911282e-01 8.867001e-02 3.008763e-01 8.126526e-01
134 2 3 -2.264776e+00 4.682044e+00 2.429638e+00 0 -1 0 1.146264e-01 -1.152187e-01 3.586451e-01 -9.192166e-01
135 2 4 -1.578559e+00 3.607826e+00 2.828054e+00 0 -1 0 -9.108963e-01 3.504940e-01 -2.099786e-01 5.771449e-02
136 2 3 -1.601179e+00 3.407814e+00 2.693796e+00 0 -1 0 6.591561e-01 -4.593138e-01 2.595313e-01 5.358988e-01
137 2 1 -2.365519e+00 2.552777e+00 1.885703e+00 0 -1 0 -4.622888e-01 -5.712199e-01 1.923362e-01 6.503873e-01
138 2 3 -2.885687e+00 2.352703e+00 1.820249e+00 0 -1 0 4.584578e-01 7.292264e-01 -2.486545e-01 -4.429630e-01
139 2 2 -3.104396e+00 2.324184e+00 1.476955e+00 0 -1 0 -5.446672e-01 -4.992691e-01 6.458010e-01 1.923777e-01
140 2 3 -3.456456e+00 2.042206e+00 1.187879e+00 0 -1 0 -6.050541e-01 -4.609793e-01 6.478733e-01 -4.083832e-02
141 2 1 -4.428560e+00 1.565130e+00 1.541441e+00 0 -1 0 -4.384835e-01 -1.919103e-01 8.178232e-01 3.194805e-01
142 2 2 -4.848929e+00 1.472625e+00 1.212154e+00 0 -1 0 5.621615e-01 -1.281447e-01 -8.085068e-01 -1.177711e-01
143 2 4 -5.347237e+00 1.605382e+00 1.246289e+00 0 -1 0 7.065833e-01 -2.482112e-01 -6.591881e-01 6.783968e-02
144 2 4 -6.276965e+00 8.671536e-01 9.426587e-01 0 -1 0 -4.509699e-02 1.312358e-01 9.879059e-01 -6.917585e-02
145 2 1 -6.544506e+00 6.195635e-01 7.144944e-01 0 -1 0 6.206525e-02 5.184071e-01 8.333911e-01 -1.812767e-01
146 2 1 -6.331776e+00 3.490710e-01 1.088718e+00 0 -1 0 -6.886949e-01 1.027056e-01 2.497425e-01 -6.728890e-01
147 2 1 -6.157759e+00 4.370017e-01 1.567548e+00 0 -1 0 3.220467e-01 -6.656447e-02 -2.526906e-01 9.099465e-01
148 2 2 -5.755565e+00 -1.145709e+00 1.635590e+00 0 -1 0 8.402641e-01 -1.801083e-03 -5.400617e-01 -4.781646e-02
149 2 4 -6.328291e+00 -1.803984e+00 1.749894e+00 0 -1 0 7.855542e-01 -4.471018e-01 -1.481112e-02 -4.275338e-01
150 2 1 -6.342341e+00 -1.564811e+00 6.376279e-01 0 -1 0 2.421862e-01 -7.595511e-01 4.904002e-01 3.520449e-01
151 2 1 -6.935608e+00 -1.745456e+00 5.689832e-01 0 -1 0 5.628213e-01 6.704387e-02 -7.285116e-01 3.847182e-01
152 2 1 -7.641834e+00 -1.705796e+00 2.695248e-01 0 -1 0 -6.922737e-01 -4.967994e-01 -3.644145e-01 3.756988e-01
153 2 4 -7.888803e+00 -2.273356e+00 1.313786e+00 0 -1 0 -7.252025e-01 -1.357192e-01 4.202471e-01 5.282556e-01
154 2 1 -8.358127e+00 -2.369459e+00 1.557643e+00 0 -1 0 -8.848864e-01 -7.377562e-03 4.385336e-01 1.568753e-01
155 2 2 -9.418473e+00 -1.346356e+00 1.244936e+00 0 -1 0 -2.000703e-01 -4.532845e-02 4.256529e-01 8.813267e-01
156 2 4 -9.824906e+00 -1.307980e+00 1.461798e+00 0 -1 0 -1.780203e-01 3.207281e-01 -6.815628e-01 6.331780e-01
157 2 3 -1.013427e+01 -1.368771e+00 -9.029202e-02 0 -1 0 -2.694977e-01 -3.600073e-01 5.392450e-01 7.120257e-01
158 2 2 -1.046499e+01 -1.256604e+00 -3.733631e-01 0 -1 0 4.799322e-01 4.667439e-02 -6.697613e-01 -5.647180e-01
159 2 1 -1.008176e+01 1.861152e-02 -5.917038e-01 0 -1 0 -1.345443e-02 -2.202494e-01 -2.489824e-01 9.430360e-01
160 2 3 -1.032345e+01 -8.338148e-03 -1.484454e-02 0 -1 0 2.501107e-01 3.541346e-01 3.597455e-01 -8.262061e-01
161 2 1 -1.077706e+01 -1.102267e-01 2.504020e-01 0 -1 0 6.327801e-01 3.920672e-01 2.632509e-01 -6.136543e-01
162 2 1 -1.103701e+01 -5.256829e-01 2.958133e-01 0 -1 0 -8.237239e-01 -4.907996e-01 -1.348343e-01 2.498287e-01
163 2 4 -1.125940e+01 1.468979e-02 2.442534e-01 0 -1 0 -8.451092e-01 1.438196e-01 3.717187e-02 -5.135413e-01
164 2 4 -1.202809e+01 -9.142938e-01 3.603157e-01 0 -1 0 9.327840e-01 3.089542e-01 -1.259065e-01 -1.364145e-01
165 2 3 -1.322264e+01 2.383676e-01 1.562813e-01 0 -1 0 1.066797e-01 7.121144e-01 5.824338e-01 -3.772047e-01
166 2 3 -1.328264e+01 -1.227977e-01 -7.718326e-01 0 -1 0 -4.647391e-01 -6.804393e-01 -5.654336e-01 3.612140e-02
167 2 4 -1.333707e+01 -1.087183e+00 -1.114081e+00 0 -1 0 -5.626085e-01 -4.329679e-01 -2.941603e-02 7.036655e-01
168 2 2 -1.369208e+01 -1.339404e+00 -9.007937e-01 0 -1 0 -7.477368e-01 -5.140149e-01 3.655055e-02 4.187391e-01
169 2 2 -1.475073e+01 -1.474628e+00 -2.096705e-01 0 -1 0 5.548479e-01 3.966783e-02 -2.108559e-01 -8.038097e-01
170 2 1 -1.463940e+01 -1.343143e+00 -1.690890e-01 0 -1 0 -4.806503e-01 1.430787e-02 5.638206e-02 -8.749809e-01
171 2 1 -1.440648e+01 -2.086114e+00 -1.172664e+00 0 -1 0 1.160915e-01 -7.685036e-01 2.717073e-01 5.675387e-01
172 2 4 -1.456892e+01 -1.731377e+00 -1.521356e+00 0 -1 0 1.314001e-01 6.314842e-01 -5.762012e-01 -5.019501e-01
173 2 4 -1.473795e+01 -1.503870e+00 -1.886735e+00 0 -1 0 -3.903159e-01 -2.817718e-01 7.269043e-01 4.897636e-01
174 2 1 -1.382255e+01 -1.112646e+00 -2.445521e+00 0 -1 0 1.083031e-02 -7.979184e-01 5.722313e-01 1.891040e-01
175 2 1 -1.489465e+01 -9.575435e-01 -3.226376e+00 0 -1 0 -2.295652e-01 -4.025823e-01 -8.605694e-01 -2.113000e-01
176 2 2 -1.475072e+01 -1.003511e+00 -3.763240e+00 0 -1 0 2.066720e-02 6.647353e-01 6.737149e-01 3.221926e-01
177 2 2 -1.516009e+01 -1.723059e+00 -3.191966e+00 0 -1 0 3.667498e-01 -6.369349e-01 -3.247921e-01 -5.952467e-01
178 2 1 -1.455571e+01 -2.721954e+00 -3.217091e+00 0 -1 0 -8.833665e-01 3.836124e-01 1.021002e-01 -2.491598e-01
179 2 4 -1.449991e+01 -2.640399e+00 -4.231752e+00 0 -1 0 -2.554715e-01 8.464921e-02 -4.559317e-01 -8.483485e-01
180 2 1 -1.440262e+01 -2.246242e+00 -4.325881e+00 0 -1 0 3.062972e-03 2.406069e-01 4.517135e-01 8.591006e-01
181 2 4 -1.441209e+01 -1.749194e+00 -4.368031e+00 0 -1 0 3.477797e-01 -4.282373e-01 -4.023253e-01 -7.306137e-01
182 2 2 -1.329119e+01 -1.926737e+00 -5.315997e+00 0 -1 0 -8.031813e-01 -4.658126e-01 9.504467e-02 -3.590056e-01
183 2 3 -1.476342e+01 -1.404012e+00 -5.350306e+00 0 -1 0 1.922401e-01 -3.133311e-01 -6.660481e-01 -6.490357e-01
184 2 4 -1.486487e+01 -8.722383e-01 -5.373385e+00 0 -1 0 -3.459342e-01 3.896069e-01 6.261364e-01 5.800769e-01
185 2 3 -1.408934e+01 -4.064789e-01 -5.922676e+00 0 -1 0 1.228966e-01 5.010031e-01 7.287965e-01 4.502753e-01
186 2 1 -1.406728e+01 -1.276817e-02 -6.294620e+00 0 -1 0 7.533680e-02 -7.836191e-01 -4.502303e-01 -4.213764e-01
187 2 1 -1.395759e+01 -2.580183e-01 -6.756093e+00 0 -1 0 -5.223757e-01 1.504088e-01 1.546322e-02 8.392030e-01
188 2 2 -1.338953e+01 -5.274783e-01 -7.213398e+00 0 -1 0 6.790186e-01 1.955220e-02 1.519989e-01 7.179469e-01
189 2 4 -1.433102e+01 -1.579396e+00 -7.676675e+00 0 -1 0 -6.083295e-01 -5.013880e-01 3.780762e-01 4.853903e-01
190 2 4 -1.478671e+01 -1.890145e+00 -7.773901e+00 0 -1 0 7.749875e-01 2.415894e-01 -5.413900e-01 -2.189195e-01
191 2 1 -1.515134e+01 -2.200909e+00 -7.733780e+00 0 -1 0 -8.135093e-01 -9.384249e-02 5.569386e-01 -1.386202e-01
192 2 4 -1.564027e+01 -1.208524e+00 -8.586168e+00 0 -1 0 -4.454737e-01 -7.332774e-01 8.172083e-02 5.071284e-01
193 2 4 -1.685182e+01 -9.673309e-01 -8.121309e+00 0 -1 0 7.167275e-02 -3.782852e-01 -8.375053e-01 3.877476e-01
194 2 1 -1.674417e+01 -9.165747e-01 -8.903584e+00 0 -1 0 -8.542569e-01 -1.365157e-01 -2.585457e-02 5.009393e-01
195 2 3 -1.718688e+01 -3.177280e-01 -8.779818e+00 0 -1 0 -5.610096e-01 3.007540e-01 -7.218418e-01 2.715875e-01
196 2 4 -1.732197e+01 2.498432e-01 -7.945076e+00 0 -1 0 -5.589652e-01 -2.905295e-01 2.235360e-01 -7.437621e-01
197 2 2 -1.848062e+01 -4.895025e-02 -7.678381e+00 0 -1 0 -2.454163e-02 1.077878e-01 -9.217254e-01 3.717549e-01
198 2 4 -1.865606e+01 5.662218e-01 -7.975719e+00 0 -1 0 -7.704920e-01 1.718098e-01 3.611676e-01 4.963682e-01
199 2 3 -1.929932e+01 1.768086e+00 -8.382145e+00 0 -1 0 -1.300324e-01 -6.455263e-01 -3.598069e-01 6.610040e-01
200 2 4 -1.963187e+01 1.921640e+00 -7.928613e+00 0 -1 0 -1.565457e-01 -2.566541e-01 -8.616738e-01 -4.088281e-01
