ITEM: TIMESTEP
347000000
ITEM: NUMBER OF ATOMS
200
ITEM: BOX BOUNDS pp pp pp
-2.0000000000000000e+01 2.0000000000000000e+01
-2.0000000000000000e+01 2.0000000000000000e+01
-2.0000000000000000e+01 2.0000000000000000e+01
ITEM: ATOMS id mol type x y z ix iy iz c_quat[1] c_quat[2] c_quat[3] c_quat[4]
1 1 1 -8.419186e+00 1.724306e+01 8.515643e+00 0 -1 0 5.851084e-01 -3.133990e-01 -7.173811e-01 2.116449e-01
2 1 2 -7.205412e+00 1.692554e+01 8.133698e+00 0 -1 0 -4.963676e-01 7.048096e-01 -3.953074e-01 -3.171667e-01
3 1 1 -6.960141e+00 1.730980e+01 8.034046e+00 0 -1 0 3.134885e-01 -4.291838e-01 5.913763e-01 6.064654e-01
4 1 3 -7.787642e+00 1.760174e+01 9.385515e+00 0 -1 0 4.269504e-01 -1.816021e-01 -4.675187e-02 -8.846176e-01
5 1 1 -8.010420e+00 1.766554e+01 9.861056e+00 0 -1 0 8.213120e-01 -1.308389e-01 -2.402127e-03 -5.552674e-01
6 1 2 -8.143763e+00 1.755927e+01 1.033822e+01 0 -1 0 -9.682647e-01 8.050964e-02 -6.238423e-02 2.282320e-01
7 1 4 -7.353423e+00 1.854820e+01 1.063441e+01 0 -1 0 1.845083e-01 8.591274e-01 6.242774e-02 4.732437e-01
8 1 1 -6.910271e+00 1.918446e+01 1.045460e+01 0 -1 0 -4.227512e-01 -8.645586e-01 -2.174339e-01 -1.629183e-01
9 1 1 -6.173090e+00 1.821175e+01 1.110143e+01 0 -1 0 8.678386e-01 -4.754780e-01 -2.194139e-02 1.424623e-01
10 1 4 -6.616178e+00 1.834724e+01 1.192722e+01 0 -1 0 -2.786196e-01 3.975947e-01 -2.651622e-01 8.330538e-01
11 1 1 -6.443994e+00 1.851921e+01 1.230201e+01 0 -1 0 5.742815e-01 -4.297293e-01 4.180887e-01 -5.574364e-01
12 1 1 -5.427992e+00 1.892274e+01 1.272003e+01 0 -1 0 -8.589298e-01 6.429038e-02 4.036059e-01 -3.085591e-01
13 1 3 -5.538450e+00 1.868890e+01 1.321653e+01 0 -1 0 6.188101e-01 -2.645376e-01 -3.430477e-01 6.552955e-01
14 1 4 -5.428419e+00 1.827281e+01 1.310825e+01 0 -1 0 -9.808569e-02 5.310504e-01 4.064795e-01 7.369798e-01
15 1 4 -5.120795e+00 1.871579e+01 1.307493e+01 0 -1 0 -2.522105e-01 4.456286e-01 4.457413e-01 7.342477e-01
16 1 2 -4.282491e+00 1.795137e+01 1.264519e+01 0 -1 0 -5.027316e-02 -1.591280e-01 7.364229e-01 6.556159e-01
17 1 1 -3.301461e+00 1.814494e+01 1.231526e+01 0 -1 0 6.914284e-01 1.844266e-01 4.258133e-02 6.972090e-01
18 1 2 -2.998050e+00 1.831316e+01 1.142599e+01 0 -1 0 -5.203930e-01 -8.278329e-01 -1.471367e-01 1.491129e-01
19 1 3 -2.787479e+00 1.882763e+01 1.253437e+01 0 -1 0 3.872646e-01 -3.592022e-01 -1.789520e-01 8.300458e-01
20 1 1 -2.981850e+00 1.797390e+01 1.327354e+01 0 -1 0 5.624670e-02 -3.022843e-01 -8.949299e-01 3.233589e-01
21 1 4 -2.614684e+00 1.893662e+01 1.292394e+01 0 -1 0 6.464245e-01 3.564721e-01 3.360815e-01 5.849036e-01
22 1 1 -3.372466e+00 1.865652e+01 1.414603e+01 0 -1 0 -4.099674e-01 8.522806e-01 2.483153e-01 2.094853e-01
23 1 4 -3.299523e+00 1.798380e+01 1.463497e+01 0 -1 0 4.011954e-01 -2.934250e-01 5.478825e-01 -6.728810e-01
24 1 3 -3.814938e+00 1.820486e+01 1.486979e+01 0 -1 0 6.102411e-01 -2.722898e-01 -7.006443e-01 2.501233e-01
25 1 3 -4.459263e+00 1.888362e+01 1.402124e+01 0 -1 0 1.184362e-01 4.690001e-01 -1.704131e-01 -8.584703e-01
26 1 4 -4.783267e+00 1.940655e+01 1.442287e+01 0 -1 0 4.317753e-01 4.490353e-01 -1.076137e-01 7.748269e-01
27 1 4 -5.796312e+00 1.885561e+01 1.406744e+01 0 -1 0 5.896416e-01 5.915353e-01 -5.080884e-04 -5.499168e-01
28 1 1 -6.239380e+00 1.855836e+01 1.389899e+01 0 -1 0 6.884645e-01 6.020271e-01 -3.043872e-01 -2.663240e-01
29 1 1 -6.203673e+00 1.934095e+01 1.323678e+01 0 -1 0 2.513191e-01 -2.725573e-01 2.408979e-01 8.969501e-01
30 1 4 -6.230466e+00 1.983404e+01 1.347874e+01 0 -1 0 -6.201971e-02 -2.542735e-01 3.100371e-01 9.139888e-01
31 1 4 -6.440332e+00 -1.978588e+01 1.367573e+01 0 0 0 4.770417e-01 1.447484e-01 -2.929170e-01 -8.158914e-01
32 1 3 -6.304141e+00 -1.880202e+01 1.422040e+01 0 0 0 6.365770e-01 -5.282137e-01 -4.288533e-01 3.631045e-01
33 1 3 -6.284384e+00 -1.905141e+01 1.443734e+01 0 0 0 -5.160929e-01 2.568305e-01 -7.322159e-01 3.626928e-01
34 1 1 -6.527061e+00 -1.815065e+01 1.495400e+01 0 0 0 1.680100e-01 -4.604418e-01 -1.322621e-01 8.615525e-01
35 1 2 -6.952435e+00 -1.791973e+01 1.520033e+01 0 0 0 -2.702516e-01 -4.929985e-01 1.686348e-02 8.268205e-01
36 1 2 -7.448271e+00 -1.793087e+01 1.529437e+01 0 0 0 -7.423097e-01 -3.310772e-01 3.656053e-02 5.814014e-01
37 1 1 -8.442783e+00 -1.785117e+01 1.536337e+01 0 0 0 -4.470958e-01 -3.079964e-01 -5.636322e-01 6.225451e-01
38 1 1 -8.577198e+00 -1.819074e+01 1.519494e+01 0 0 0 6.650827e-01 6.671246e-01 1.526260e-01 -2.988562e-01
39 1 4 -8.834790e+00 -1.854564e+01 1.496443e+01 0 0 0 7.510700e-01 6.484354e-01 -1.237236e-01 -1.085279e-02
40 1 4 -9.578533e+00 -1.877846e+01 1.582323e+01 0 0 0 -3.264998e-01 7.166642e-01 5.831989e-01 -1.991715e-01
41 1 2 -9.989174e+00 -1.853007e+01 1.572600e+01 0 0 0 -1.159764e-01 9.327028e-01 1.392508e-01 -3.118078e-01
42 1 4 -1.066548e+01 -1.906806e+01 1.663280e+01 0 0 0 -2.486421e-01 -2.050838e-01 9.381040e-01 -1.268012e-01
43 1 3 -1.087537e+01 -1.839717e+01 1.662748e+01 0 0 0 1.759697e-01 -2.872598e-01 4.234506e-01 8.409555e-01
44 1 2 -1.101558e+01 -1.787400e+01 1.657472e+01 0 0 0 -2.042878e-01 -4.650290e-02 4.925067e-01 8.447136e-01
45 1 1 -1.058795e+01 -1.818158e+01 1.558140e+01 0 0 0 2.209400e-01 -3.325331e-01 8.490466e-01 3.460161e-01
46 1 3 -1.065793e+01 -1.763286e+01 1.558571e+01 0 0 0 -1.843708e-01 -1.685243e-01 9.681025e-01 1.960890e-02
47 1 4 -1.029856e+01 -1.688741e+01 1.512627e+01 0 0 0 -8.135857e-01 -2.033089e-01 -3.350895e-01 4.294867e-01
48 1 1 -9.918349e+00 -1.612031e+01 1.549132e+01 0 0 0 -9.970070e-01 -4.885517e-02 5.609820e-02 -2.105194e-02
49 1 4 -9.683804e+00 -1.513171e+01 1.578848e+01 0 0 0 3.015074e-01 7.453714e-01 3.478766e-01 4.821790e-01
50 1 4 -9.306985e+00 -1.523622e+01 1.660351e+01 0 0 0 8.959235e-01 -3.846791e-01 -1.965041e-01 -1.035818e-01
51 1 4 -8.605654e+00 -1.506389e+01 1.556137e+01 0 0 0 -5.496304e-01 -8.081318e-01 -2.111936e-01 1.505701e-02
52 1 1 -8.453916e+00 -1.548249e+01 1.521131e+01 0 0 0 -4.453789e-01 -8.681508e-01 -1.426087e-01 -1.661762e-01
53 1 3 -8.273910e+00 -1.550862e+01 1.476485e+01 0 0 0 -2.986827e-01 -8.726686e-01 2.180404e-01 -3.188990e-01
54 1 4 -9.369959e+00 -1.515702e+01 1.419752e+01 0 0 0 2.756302e-01 2.616672e-01 2.569829e-01 8.885483e-01
55 1 4 -8.977075e+00 -1.488076e+01 1.407588e+01 0 0 0 4.788583e-01 -3.219561e-01 6.262855e-01 5.242189e-01
56 1 4 -8.770897e+00 -1.452678e+01 1.390512e+01 0 0 0 1.915737e-01 3.401589e-02 7.256029e-01 6.600325e-01
57 1 1 -8.056964e+00 -1.470189e+01 1.368759e+01 0 0 0 9.762898e-01 1.396174e-02 -1.978230e-01 -8.677181e-02
58 1 1 -7.714101e+00 -1.492229e+01 1.439158e+01 0 0 0 4.237575e-01 4.058639e-01 -5.580794e-01 5.867295e-01
59 1 3 -7.742028e+00 -1.500873e+01 1.457753e+01 0 0 0 6.579381e-01 -3.682244e-01 6.401697e-01 -1.473467e-01
60 1 4 -7.077818e+00 -1.423393e+01 1.500628e+01 0 0 0 -3.140333e-01 -7.073621e-01 6.257943e-01 -9.697106e-02
61 1 2 -7.072137e+00 -1.348491e+01 1.490799e+01 0 0 0 4.484156e-01 -6.968583e-01 -1.495736e-01 -5.393883e-01
62 1 3 -6.851065e+00 -1.303912e+01 1.388189e+01 0 0 0 -6.035065e-01 6.826098e-01 -1.903504e-01 -3.655004e-01
63 1 2 -6.654759e+00 -1.249921e+01 1.391809e+01 0 0 0 -3.890485e-01 5.329493e-01 -5.112544e-01 -5.506589e-01
64 1 4 -6.507731e+00 -1.205518e+01 1.369965e+01 0 0 0 -9.890045e-02 3.112899e-01 -7.329101e-01 -5.967915e-01
65 1 2 -6.617587e+00 -1.183408e+01 1.323165e+01 0 0 0 -1.507654e-01 1.459469e-01 8.486809e-01 4.854997e-01
66 1 1 -6.057253e+00 -1.138203e+01 1.262043e+01 0 0 0 6.829961e-01 2.462823e-01 8.276769e-02 6.826499e-01
67 1 2 -5.687181e+00 -1.193234e+01 1.198365e+01 0 0 0 4.990685e-01 8.322207e-01 8.388468e-02 2.265009e-01
68 1 1 -5.295926e+00 -1.221690e+01 1.169918e+01 0 0 0 -4.780505e-01 -6.871685e-01 2.600724e-01 -4.812790e-01
69 1 1 -4.918205e+00 -1.249114e+01 1.156617e+01 0 0 0 2.593519e-01 5.126604e-01 -4.409070e-01 6.895774e-01
70 1 2 -4.534957e+00 -1.267488e+01 1.187628e+01 0 0 0 -1.870529e-01 2.201114e-01 -7.126757e-01 6.392618e-01
71 1 3 -4.378599e+00 -1.306370e+01 1.209960e+01 0 0 0 -4.702226e-01 -3.567838e-02 -7.926434e-01 3.864379e-01
72 1 4 -3.917859e+00 -1.288991e+01 1.220948e+01 0 0 0 -4.835779e-02 6.475036e-01 2.435802e-01 7.204646e-01
73 1 1 -3.890955e+00 -1.401445e+01 1.147521e+01 0 0 0 6.469079e-01 -1.521840e-01 -2.846844e-01 -6.908726e-01
74 1 1 -3.624409e+00 -1.386835e+01 1.035532e+01 0 0 0 1.616422e-02 6.010910e-02 -4.246032e-01 -9.032373e-01
75 1 3 -2.944122e+00 -1.484398e+01 1.031884e+01 0 0 0 6.956827e-01 4.973355e-01 -3.945110e-01 3.362202e-01
76 1 1 -2.870532e+00 -1.535006e+01 1.048915e+01 0 0 0 5.610879e-01 1.660292e-01 -5.252918e-01 6.178052e-01
77 1 4 -3.180295e+00 -1.499707e+01 9.386565e+00 0 0 0 -2.910485e-01 8.298523e-01 3.863537e-01 -2.781488e-01
78 1 1 -2.540692e+00 -1.596501e+01 8.855785e+00 0 0 0 -4.741174e-01 -7.720228e-01 8.400910e-02 4.148927e-01
79 1 4 -2.827691e+00 -1.635236e+01 8.569729e+00 0 0 0 3.726244e-01 8.727947e-01 3.135405e-02 -3.136835e-01
80 1 2 -3.035145e+00 -1.638965e+01 8.197670e+00 0 0 0 -3.149335e-01 -8.074664e-01 4.675295e-01 1.738709e-01
81 1 4 -2.900890e+00 -1.683072e+01 7.772374e+00 0 0 0 6.256221e-01 1.342448e-01 6.230144e-01 4.499204e-01
82 1 4 -2.482945e+00 -1.660308e+01 7.539720e+00 0 0 0 3.074679e-01 4.333397e-01 3.914634e-01 7.512900e-01
83 1 4 -1.269479e+00 -1.714008e+01 8.014941e+00 0 0 0 -4.673793e-01 7.386356e-01 -4.792557e-01 -7.929725e-02
84 1 4 -8.627742e-01 -1.678490e+01 7.982028e+00 0 0 0 -4.731638e-01 5.174209e-01 -6.668905e-01 -2.522869e-01
85 1 1 -2.780299e-01 -1.642634e+01 8.146431e+00 0 0 0 -1.449160e-01 6.504246e-01 -1.214895e-01 -7.356545e-01
86 1 1 -6.700865e-01 -1.606557e+01 8.224593e+00 0 0 0 -1.944460e-01 -5.857141e-01 3.360674e-01 7.114692e-01
87 1 3 -8.736417e-01 -1.501385e+01 8.557716e+00 0 0 0 -2.942891e-01 -7.950754e-01 -5.302374e-01 -9.870001e-03
88 1 2 -1.549883e-03 -1.482966e+01 9.324969e+00 0 0 0 6.733969e-01 -3.864068e-01 1.632824e-01 6.087408e-01
89 1 2 1.408190e-01 -1.451693e+01 9.583175e+00 0 0 0 3.020803e-01 -1.905980e-01 2.918870e-01 8.872552e-01
90 1 3 -2.474829e-01 -1.530736e+01 1.025725e+01 0 0 0 -3.500775e-01 5.061641e-02 -9.290987e-01 -1.079786e-01
91 1 3 -5.931261e-01 -1.472573e+01 1.142004e+01 0 0 0 1.361223e-01 1.662981e-01 -8.248274e-01 5.229488e-01
92 1 2 -6.331395e-01 -1.519456e+01 1.157319e+01 0 0 0 4.543906e-02 1.657624e-01 7.853546e-01 -5.947068e-01
93 1 1 -6.756289e-01 -1.569206e+01 1.148138e+01 0 0 0 7.387881e-02 4.023839e-01 7.314865e-01 -5.454875e-01
94 1 2 -1.086452e+00 -1.605100e+01 1.148172e+01 0 0 0 -1.031202e-01 -6.228061e-01 -5.757010e-01 5.196606e-01
95 1 3 -1.517888e+00 -1.621886e+01 1.135204e+01 0 0 0 -2.867844e-01 -8.014668e-01 -2.343304e-01 4.695689e-01
96 1 2 -1.861510e+00 -1.635651e+01 1.096819e+01 0 0 0 5.127416e-01 8.244243e-01 -6.963342e-02 -2.292852e-01
97 1 2 -1.959088e+00 -1.659349e+01 1.060463e+01 0 0 0 -5.041970e-01 -7.789565e-01 3.688383e-01 -5.450232e-02
98 1 4 -1.770599e+00 -1.746384e+01 1.091720e+01 0 0 0 -9.579079e-01 -3.632862e-02 -4.936029e-02 2.804571e-01
99 1 2 -1.877639e+00 -1.769843e+01 1.135754e+01 0 0 0 9.929973e-01 -6.584511e-02 6.392618e-02 7.439248e-02
100 1 1 -1.720983e+00 -1.782104e+01 1.181504e+01 0 0 0 8.506986e-01 -6.848803e-02 1.925669e-01 4.842925e-01
101 2 4 4.320337e+00 7.601361e-02 -3.109563e+00 0 -1 0 7.932353e-01 4.686582e-01 -1.614830e-01 -3.536389e-01
102 2 3 3.653082e+00 -5.038606e-01 -2.464362e+00 0 -1 0 -8.645207e-01 1.585328e-01 -1.105193e-01 4.639578e-01
103 2 1 3.977184e+00 -3.726042e-01 -3.499135e+00 0 -1 0 1.535232e-01 9.068186e-01 -3.587528e-01 -1.593962e-01
104 2 3 3.721947e+00 -4.769105e-01 -4.049169e+00 0 -1 0 -9.094287e-02 -9.717521e-01 2.067444e-01 6.843947e-02
105 2 3 3.129406e+00 -1.047329e+00 -4.810494e+00 0 -1 0 -1.775317e-01 -7.810059e-01 4.592663e-01 3.841703e-01
106 2 2 2.143319e+00 -4.518821e-01 -5.150318e+00 0 -1 0 4.545890e-01 3.449747e-01 3.000293e-01 -7.644107e-01
107 2 3 1.809634e+00 -8.144859e-01 -4.932196e+00 0 -1 0 7.609120e-01 4.465680e-01 2.658421e-01 -3.884815e-01
108 2 4 1.610782e+00 -1.239797e+00 -4.925102e+00 0 -1 0 9.031631e-01 4.279900e-01 -1.391015e-02 3.045570e-02
109 2 3 1.767986e+00 -1.704932e+00 -4.895097e+00 0 -1 0 -8.316864e-01 -4.486939e-01 1.167749e-01 -3.055080e-01
110 2 2 2.022191e+00 -2.139259e+00 -4.725756e+00 0 -1 0 6.407281e-01 3.155533e-01 -3.228198e-01 6.210322e-01
111 2 2 2.534817e+00 -2.508562e+00 -5.292386e+00 0 -1 0 -6.899851e-01 -6.080045e-02 -5.461699e-01 -4.710863e-01
112 2 3 3.021130e+00 -2.391508e+00 -5.235426e+00 0 -1 0 5.140379e-01 2.082347e-01 6.053907e-01 5.708813e-01
113 2 3 3.425067e+00 -2.175815e+00 -5.657000e+00 0 -1 0 7.719607e-02 -3.011018e-01 6.217221e-01 7.189159e-01
114 2 2 3.424792e+00 -2.476801e+00 -5.140721e+00 0 -1 0 -3.184996e-01 4.298335e-01 3.634571e-01 -7.626927e-01
115 2 4 4.063568e+00 -3.827761e+00 -5.087135e+00 0 -1 0 8.428443e-01 -6.359697e-02 -4.682861e-01 -2.574434e-01
116 2 4 4.413485e+00 -3.452574e+00 -5.674763e+00 0 -1 0 -1.145331e-01 -8.143937e-01 -5.448166e-01 1.637681e-01
117 2 1 4.230877e+00 -4.078607e+00 -5.589667e+00 0 -1 0 -5.884972e-01 7.170091e-01 3.668554e-01 7.061159e-02
118 2 1 5.412109e+00 -4.376899e+00 -6.207171e+00 0 -1 0 -9.608154e-01 6.292084e-02 8.476823e-02 -2.562990e-01
119 2 1 5.588902e+00 -4.580588e+00 -5.766929e+00 0 -1 0 8.068456e-01 -4.280884e-02 -1.212014e-01 5.766089e-01
120 2 1 5.817520e+00 -4.679420e+00 -5.366207e+00 0 -1 0 5.517395e-01 4.115537e-02 -2.722828e-02 8.325553e-01
121 2 3 6.089239e+00 -5.284370e+00 -6.191515e+00 0 -1 0 -6.995379e-01 -4.589279e-01 -5.287801e-01 1.429111e-01
122 2 1 6.890063e+00 -5.356847e+00 -6.443434e+00 0 -1 0 -3.601127e-01 4.978025e-01 -3.528856e-01 -7.056793e-01
123 2 4 7.316852e+00 -5.321858e+00 -6.613785e+00 0 -1 0 4.576526e-01 6.414657e-01 6.010857e-01 1.333109e-01
124 2 1 7.562310e+00 -5.459628e+00 -7.088240e+00 0 -1 0 -3.669164e-01 -7.405255e-01 -4.367873e-01 -3.552620e-01
125 2 4 7.763113e+00 -5.392708e+00 -7.543722e+00 0 -1 0 -1.346873e-01 -8.537320e-01 -9.450485e-02 -4.940342e-01
126 2 2 7.061062e+00 -6.806208e+00 -7.699092e+00 0 -1 0 -2.275132e-01 -2.361367e-02 9.666632e-01 -1.150754e-01
127 2 4 7.476442e+00 -6.731225e+00 -7.265671e+00 0 -1 0 3.965201e-02 -8.795421e-01 4.692941e-01 -6.779756e-02
128 2 4 6.132009e+00 -7.050922e+00 -7.148847e+00 0 -1 0 -5.167739e-01 -2.415973e-01 -7.670806e-01 2.935350e-01
129 2 1 6.279862e+00 -7.474442e+00 -7.266347e+00 0 -1 0 5.104238e-01 4.577298e-01 7.209192e-01 -1.011265e-01
130 2 2 6.549340e+00 -7.796984e+00 -7.677062e+00 0 -1 0 4.263508e-01 6.048353e-01 6.681838e-01 7.700375e-02
131 2 3 6.536753e+00 -7.937030e+00 -8.148915e+00 0 -1 0 -3.610456e-01 -8.760553e-01 -2.416549e-01 -2.092273e-01
132 2 4 5.781723e+00 -7.806127e+00 -8.266776e+00 0 -1 0 3.803709e-01 -7.351420e-01 -5.608051e-01 -1.954282e-02
133 2 4 5.882282e+00 -7.411850e+00 -8.645445e+00 0 -1 0 -6.074223e-01 6.422268e-01 3.459360e-01 3.145016e-01
134 2 3 5.840657e+00 -6.916682e+00 -8.462219e+00 0 -1 0 -7.060164e-01 7.004122e-01 -8.694600e-02 5.834297e-02
135 2 4 5.367180e+00 -6.151170e+00 -8.811655e+00 0 -1 0 2.266828e-02 -3.677979e-01 -8.886999e-01 -2.728062e-01
136 2 3 5.172752e+00 -5.909760e+00 -9.201698e+00 0 -1 0 -1.097708e-01 6.693920e-01 6.487582e-01 3.449312e-01
137 2 1 4.920422e+00 -5.572531e+00 -9.422232e+00 0 -1 0 -1.988260e-01 9.439079e-01 2.068631e-01 1.634434e-01
138 2 3 4.219054e+00 -6.908721e+00 -9.956233e+00 0 -1 0 5.845872e-01 -2.501221e-02 -3.349519e-01 -7.385387e-01
139 2 2 4.023213e+00 -7.231034e+00 -9.172177e+00 0 -1 0 -7.677907e-01 3.247431e-01 4.615690e-01 3.033042e-01
140 2 3 3.501524e+00 -7.263014e+00 -8.555186e+00 0 -1 0 7.587055e-02 -2.056844e-01 5.400484e-01 -8.125794e-01
141 2 1 3.523174e+00 -7.654538e+00 -8.190368e+00 0 -1 0 -3.609297e-01 -1.134092e-01 -6.489008e-01 6.601483e-01
142 2 2 3.490677e+00 -8.250429e+00 -8.068700e+00 0 -1 0 -6.422576e-01 -3.648534e-01 -6.022451e-01 3.028002e-01
143 2 4 3.516969e+00 -8.716667e+00 -8.288486e+00 0 -1 0 -7.083209e-01 -6.307878e-01 -3.165294e-01 1.404901e-02
144 2 4 2.875451e+00 -8.925675e+00 -8.184531e+00 0 -1 0 -7.318942e-01 -1.252009e-01 6.522111e-01 1.525657e-01
145 2 1 2.462763e+00 -9.228294e+00 -8.016147e+00 0 -1 0 -7.603679e-01 3.325829e-02 6.127619e-01 -2.127377e-01
146 2 1 1.972139e+00 -9.031606e+00 -7.837276e+00 0 -1 0 -3.781121e-01 4.808810e-01 3.050087e-01 -7.299002e-01
147 2 1 1.686704e+00 -8.755689e+00 -7.558546e+00 0 -1 0 -5.146352e-02 -5.630603e-01 -5.802996e-02 8.227680e-01
148 2 2 1.603228e+00 -9.176920e+00 -6.086713e+00 0 -1 0 3.931653e-01 -1.303071e-01 -7.507655e-01 5.145797e-01
149 2 4 1.610080e+00 -1.039810e+01 -6.645056e+00 0 -1 0 -7.945415e-01 -3.367452e-01 4.360766e-01 2.552327e-01
150 2 1 1.668276e+00 -1.065932e+01 -5.798642e+00 0 -1 0 -7.005373e-01 3.386405e-01 -7.673455e-02 6.234436e-01
151 2 1 1.540422e+00 -1.128220e+01 -5.660941e+00 0 -1 0 -8.697318e-01 2.500264e-01 -3.754835e-01 2.001638e-01
152 2 1 1.885708e+00 -1.143954e+01 -5.361159e+00 0 -1 0 -8.533300e-01 1.336782e-01 -3.376709e-01 -3.740807e-01
153 2 4 1.416426e+00 -1.025214e+01 -4.708715e+00 0 -1 0 4.641682e-01 -5.789230e-01 -1.892817e-01 6.430929e-01
154 2 1 1.238780e+00 -9.961317e+00 -4.325240e+00 0 -1 0 -3.105052e-01 4.945292e-01 -1.400443e-01 -7.996343e-01
155 2 2 9.688936e-01 -9.457338e+00 -4.317610e+00 0 -1 0 4.612166e-02 -5.388578e-01 3.775716e-01 7.516280e-01
156 2 4 7.889345e-01 -9.072545e+00 -4.430748e+00 0 -1 0 3.168748e-01 2.606165e-01 -5.591327e-01 -7.204443e-01
157 2 3 1.747548e-01 -8.630185e+00 -4.528017e+00 0 -1 0 4.348082e-02 -4.059806e-01 -4.707915e-01 7.820771e-01
158 2 2 -3.344943e-01 -8.677514e+00 -4.355817e+00 0 -1 0 2.499201e-01 5.692512e-01 2.697832e-01 -7.353299e-01
159 2 1 -3.140196e-01 -8.644603e+00 -3.187029e+00 0 -1 0 -4.319542e-02 -8.129373e-01 -4.158457e-01 -4.053880e-01
160 2 3 -6.992194e-02 -8.783700e+00 -2.777495e+00 0 -1 0 8.998434e-01 -1.443940e-01 -3.381429e-01 -2.347161e-01
161 2 1 -3.111757e-01 -8.638785e+00 -2.255465e+00 0 -1 0 -9.439056e-01 6.674414e-02 1.089181e-01 3.045067e-01
162 2 1 -9.662534e-01 -7.945243e+00 -2.500939e+00 0 -1 0 -2.573710e-01 -6.152492e-01 2.766871e-01 6.918619e-01
163 2 4 -1.158315e+00 -7.461574e+00 -2.054880e+00 0 -1 0 6.383524e-01 -4.102098e-01 -6.499410e-01 -4.255389e-02
164 2 4 -1.991944e+00 -7.634069e+00 -2.139264e+00 0 -1 0 -1.540352e-01 5.451765e-01 7.342474e-01 -3.740808e-01
165 2 3 -2.411699e+00 -7.895792e+00 -2.171800e+00 0 -1 0 -3.466071e-02 6.930355e-01 5.265189e-01 -4.912008e-01
166 2 3 -2.837323e+00 -7.849477e+00 -2.444696e+00 0 -1 0 -2.134098e-01 -8.847470e-01 -1.147738e-01 3.981280e-01
167 2 4 -2.843630e+00 -7.545570e+00 -2.984011e+00 0 -1 0 2.800988e-01 8.814749e-01 -7.467569e-02 -3.727872e-01
168 2 2 -3.124223e+00 -7.008145e+00 -3.435896e+00 0 -1 0 -2.389177e-01 -9.512501e-01 -1.158947e-03 1.950388e-01
169 2 2 -3.252504e+00 -6.972730e+00 -3.873811e+00 0 -1 0 1.771079e-01 8.774328e-01 -4.234413e-01 -1.394344e-01
170 2 1 -4.494903e+00 -6.750434e+00 -4.014903e+00 0 -1 0 7.514495e-01 -4.718663e-02 1.224046e-01 -6.466175e-01
171 2 1 -3.240977e+00 -6.165056e+00 -4.525991e+00 0 -1 0 3.487506e-02 -8.822226e-01 4.677436e-01 4.102486e-02
172 2 4 -2.789431e+00 -6.615530e+00 -4.547442e+00 0 -1 0 -3.826825e-01 5.829952e-01 -6.777591e-01 2.330520e-01
173 2 4 -2.842025e+00 -6.098961e+00 -5.582250e+00 0 -1 0 -1.528955e-01 8.624479e-03 6.303364e-01 7.610681e-01
174 2 1 -1.427733e+00 -6.277454e+00 -5.898216e+00 0 -1 0 -6.225047e-01 1.159863e-01 -5.943347e-01 -4.957835e-01
175 2 1 -1.134962e+00 -7.071784e+00 -5.860231e+00 0 -1 0 9.214537e-01 1.736799e-01 2.527013e-01 2.385381e-01
176 2 2 -7.723222e-01 -7.310153e+00 -5.514366e+00 0 -1 0 -7.591588e-01 -1.395343e-01 -1.621368e-01 -6.147518e-01
177 2 2 -9.607619e-01 -8.050524e+00 -5.852758e+00 0 -1 0 4.938460e-01 2.343473e-01 -2.459399e-01 -8.004443e-01
178 2 1 -8.597263e-01 -8.013522e+00 -5.733152e+00 0 -1 0 -6.769827e-01 5.455080e-01 4.201292e-01 -2.600132e-01
179 2 4 -5.662453e-01 -8.402581e+00 -7.117242e+00 0 -1 0 5.382452e-01 -3.326350e-01 4.201886e-01 6.504519e-01
180 2 1 -2.396564e-01 -8.053304e+00 -7.172269e+00 0 -1 0 3.519751e-01 -5.633830e-02 4.909263e-01 7.949408e-01
181 2 4 4.993200e-01 -8.752944e+00 -6.406469e+00 0 -1 0 -6.830986e-01 3.223182e-02 4.328509e-01 -5.873478e-01
182 2 2 8.598196e-01 -8.692648e+00 -7.471341e+00 0 -1 0 -4.401125e-01 -6.682447e-01 5.497914e-01 2.397486e-01
183 2 3 6.490855e-01 -8.991246e+00 -7.853261e+00 0 -1 0 -5.004784e-01 -1.896455e-01 8.446116e-01 -1.368221e-02
184 2 4 3.973359e-01 -9.363572e+00 -7.881928e+00 0 -1 0 -3.605532e-01 2.158296e-01 8.590894e-01 -2.922060e-01
185 2 3 3.179429e-01 -1.028124e+01 -8.048696e+00 0 -1 0 -4.307046e-01 1.261407e-01 8.342331e-01 3.203704e-01
186 2 1 -8.469213e-02 -1.015967e+01 -8.248918e+00 0 -1 0 -5.239780e-01 5.496470e-01 6.476980e-01 6.182655e-02
187 2 1 -7.271926e-01 -9.807304e+00 -8.139852e+00 0 -1 0 -4.003019e-01 2.654070e-01 5.687480e-01 -6.677149e-01
188 2 2 -1.035222e+00 -9.936311e+00 -7.793915e+00 0 -1 0 1.548947e-01 -4.572393e-01 -4.807775e-01 7.319787e-01
189 2 4 -8.745307e-01 -1.066297e+01 -7.191220e+00 0 -1 0 -9.946524e-01 7.503777e-02 9.280607e-03 7.035472e-02
190 2 4 -7.587408e-01 -1.086240e+01 -6.684485e+00 0 -1 0 9.266941e-01 -1.542440e-01 4.321112e-02 3.399701e-01
191 2 1 -1.465341e+00 -1.124489e+01 -7.249657e+00 0 -1 0 -3.090687e-01 2.316477e-02 -4.183882e-01 -8.537513e-01
192 2 4 -1.477911e+00 -1.198013e+01 -7.868360e+00 0 -1 0 -6.087444e-01 -7.556335e-01 -1.686817e-01 1.731900e-01
193 2 4 -1.558459e+00 -1.222913e+01 -8.284663e+00 0 -1 0 5.650954e-01 7.829093e-01 -2.492299e-01 7.486469e-02
194 2 1 -1.397772e+00 -1.277236e+01 -8.403695e+00 0 -1 0 6.433475e-01 5.507720e-01 -3.896256e-01 3.618647e-01
195 2 3 -1.793713e+00 -1.330898e+01 -8.263427e+00 0 -1 0 -4.880999e-02 6.018467e-01 -2.947199e-01 7.406338e-01
196 2 4 -1.887252e+00 -1.359826e+01 -9.575767e+00 0 -1 0 3.557483e-01 6.917646e-01 5.525955e-01 2.992376e-01
197 2 2 -2.478213e+00 -1.475291e+01 -9.378331e+00 0 -1 0 2.828747e-01 3.473089e-01 -5.500124e-01 -7.048722e-01
198 2 4 -2.254725e+00 -1.557330e+01 -8.788808e+00 0 -1 0 4.605325e-01 -2.681424e-02 7.386874e-01 -4.914588e-01
199 2 3 -2.149280e+00 -1.600293e+01 -8.578375e+00 0 -1 0 6.178672e-01 2.738788e-01 6.797534e-01 -2.848962e-01
200 2 4 -2.167984e+00 -1.649368e+01 -8.725810e+00 0 -1 0 -7.062917e-01 -5.924714e-01 -3.871336e-01 -1.603742e-02
