ITEM: TIMESTEP
314000000
ITEM: NUMBER OF ATOMS
200
ITEM: BOX BOUNDS pp pp pp
-2.0000000000000000e+01 2.0000000000000000e+01
-2.0000000000000000e+01 2.0000000000000000e+01
-2.0000000000000000e+01 2.0000000000000000e+01
ITEM: ATOMS id mol type x y z ix iy iz c_quat[1] c_quat[2] c_quat[3] c_quat[4]
1 1 1 1.485350e+01 1.573218e+01 8.393613e-01 -1 -1 0 6.205793e-01 1.711683e-01 6.698944e-01 3.698977e-01
2 1 2 1.376361e+01 1.603015e+01 7.777902e-01 -1 -1 0 -4.774040e-02 -2.255800e-01 1.998375e-01 9.523127e-01
3 1 1 1.333739e+01 1.638290e+01 9.886396e-01 -1 -1 0 3.736197e-01 2.153344e-01 -3.017348e-01 -8.502914e-01
4 1 3 1.295124e+01 1.648836e+01 1.238610e+00 -1 -1 0 7.762429e-01 6.732899e-02 -2.268069e-01 -5.843565e-01
5 1 1 1.286957e+01 1.740534e+01 1.798425e+00 -1 -1 0 2.240595e-01 -9.255174e-01 -2.210503e-02 3.045100e-01
6 1 2 1.314104e+01 1.659677e+01 2.470300e+00 -1 -1 0 2.589950e-01 -4.121501e-01 6.978398e-01 -5.254269e-01
7 1 4 1.390258e+01 1.671251e+01 2.611209e+00 -1 -1 0 6.827089e-01 -3.940329e-01 5.515691e-01 2.727969e-01
8 1 1 1.432526e+01 1.683326e+01 2.818111e+00 -1 -1 0 4.602021e-01 -2.098328e-01 5.821459e-01 6.366242e-01
9 1 1 1.492763e+01 1.723124e+01 2.523300e+00 -1 -1 0 7.319123e-01 -4.089917e-01 1.513009e-01 5.235820e-01
10 1 4 1.518817e+01 1.758541e+01 2.642614e+00 -1 -1 0 3.330865e-01 -1.000511e-01 2.772564e-01 8.956406e-01
11 1 1 1.528606e+01 1.793763e+01 2.907424e+00 -1 -1 0 2.582694e-02 -1.654347e-02 4.411787e-01 8.968950e-01
12 1 1 1.628139e+01 1.684131e+01 3.636405e+00 -1 -1 0 -4.018141e-01 6.733615e-01 -4.932673e-01 3.765863e-01
13 1 3 1.677389e+01 1.694187e+01 3.565799e+00 -1 -1 0 -4.881094e-01 4.298737e-01 -6.544928e-01 3.854827e-01
14 1 4 1.717306e+01 1.673216e+01 3.687908e+00 -1 -1 0 6.076026e-01 -1.200076e-01 7.532500e-01 -2.214310e-01
15 1 4 1.771708e+01 1.662422e+01 4.574694e+00 -1 -1 0 6.709246e-01 4.557335e-01 -4.489671e-01 3.749610e-01
16 1 2 1.783315e+01 1.624231e+01 4.958029e+00 -1 -1 0 -4.302897e-01 -2.400310e-01 5.014558e-01 -7.111807e-01
17 1 1 1.777523e+01 1.532463e+01 4.483960e+00 -1 -1 0 -8.027216e-01 3.687557e-01 4.088990e-01 2.290390e-01
18 1 2 1.755527e+01 1.558267e+01 4.852760e+00 -1 -1 0 -8.278698e-01 5.116297e-01 1.694464e-01 -1.554174e-01
19 1 3 1.697956e+01 1.518646e+01 4.584497e+00 -1 -1 0 3.514367e-01 -7.102456e-01 -4.687044e-01 3.903327e-01
20 1 1 1.681972e+01 1.409195e+01 4.150158e+00 -1 -1 0 1.830461e-01 9.884845e-02 -3.899516e-01 -8.970289e-01
21 1 4 1.687972e+01 1.350510e+01 4.450547e+00 -1 -1 0 -4.538561e-01 7.700550e-01 -1.734812e-01 4.134420e-01
22 1 1 1.557100e+01 1.323542e+01 4.198994e+00 -1 -1 0 -2.088960e-01 2.723473e-01 3.720756e-01 8.624089e-01
23 1 4 1.547727e+01 1.365930e+01 4.551950e+00 -1 -1 0 -4.877255e-01 1.946871e-01 3.771905e-01 7.628552e-01
24 1 3 1.523006e+01 1.398021e+01 4.948972e+00 -1 -1 0 6.192001e-01 -4.754137e-02 -3.562146e-01 -6.981706e-01
25 1 3 1.511684e+01 1.455181e+01 4.492268e+00 -1 -1 0 2.383595e-01 -8.303833e-01 1.070470e-01 4.921273e-01
26 1 4 1.432503e+01 1.444146e+01 5.756888e+00 -1 -1 0 -1.114456e-01 1.887177e-01 -5.942069e-01 7.738758e-01
27 1 4 1.439006e+01 1.412648e+01 6.224093e+00 -1 -1 0 4.216858e-01 2.898425e-02 5.336060e-01 -7.325337e-01
28 1 1 1.432134e+01 1.380642e+01 6.571344e+00 -1 -1 0 6.663621e-01 2.843389e-01 4.242053e-01 -5.432889e-01
29 1 1 1.477156e+01 1.424830e+01 7.749130e+00 -1 -1 0 -9.190204e-01 1.873889e-01 3.173642e-01 1.398820e-01
30 1 4 1.453205e+01 1.420663e+01 8.308549e+00 -1 -1 0 9.396749e-01 -2.080052e-01 -1.774224e-01 2.055877e-01
31 1 4 1.456900e+01 1.476246e+01 8.898665e+00 -1 -1 0 -4.161293e-01 -1.679372e-01 2.791661e-01 -8.489404e-01
32 1 3 1.467365e+01 1.464782e+01 9.290760e+00 -1 -1 0 7.175603e-02 1.975909e-02 -3.193984e-01 9.446932e-01
33 1 3 1.574335e+01 1.419965e+01 9.631133e+00 -1 -1 0 -3.526656e-01 7.904796e-01 -4.978566e-01 -5.392338e-02
34 1 1 1.493041e+01 1.362186e+01 1.031519e+01 -1 -1 0 5.565957e-01 -2.011244e-01 6.325316e-01 -4.996539e-01
35 1 2 1.530696e+01 1.422010e+01 1.105361e+01 -1 -1 0 6.123243e-01 3.749078e-01 -1.172744e-01 6.861121e-01
36 1 2 1.565002e+01 1.409056e+01 1.141203e+01 -1 -1 0 1.836289e-01 2.059369e-01 -3.214629e-01 9.058322e-01
37 1 1 1.576370e+01 1.420823e+01 1.183376e+01 -1 -1 0 -3.827181e-01 2.061303e-01 -4.531042e-01 7.782890e-01
38 1 1 1.563886e+01 1.487477e+01 1.199850e+01 -1 -1 0 5.528861e-01 -6.038932e-02 1.192266e-01 -8.224689e-01
39 1 4 1.532887e+01 1.528452e+01 1.204500e+01 -1 -1 0 4.473851e-01 5.929460e-01 5.979859e-01 3.011221e-01
40 1 4 1.572341e+01 1.487937e+01 1.263858e+01 -1 -1 0 -2.689018e-01 7.544468e-01 5.965738e-01 5.100638e-02
41 1 2 1.568824e+01 1.424626e+01 1.287217e+01 -1 -1 0 1.584828e-02 6.964234e-01 -6.644343e-02 7.143728e-01
42 1 4 1.471824e+01 1.394595e+01 1.340263e+01 -1 -1 0 5.620970e-02 7.930945e-02 7.028457e-01 -7.046690e-01
43 1 3 1.469357e+01 1.412325e+01 1.357760e+01 -1 -1 0 -3.337879e-01 -7.028894e-01 -6.267742e-01 4.106269e-02
44 1 2 1.493611e+01 1.348449e+01 1.398447e+01 -1 -1 0 -7.681633e-01 -4.579731e-01 -4.036029e-02 -4.455972e-01
45 1 1 1.467259e+01 1.308700e+01 1.460985e+01 -1 -1 0 -5.106272e-01 5.863270e-02 1.908148e-01 -8.363085e-01
46 1 3 1.440840e+01 1.290117e+01 1.522365e+01 -1 -1 0 -4.259960e-01 1.428398e-01 2.840359e-02 -8.929263e-01
47 1 4 1.454650e+01 1.315844e+01 1.568735e+01 -1 -1 0 3.231642e-02 -1.242911e-01 3.590423e-02 9.910692e-01
48 1 1 1.498470e+01 1.230879e+01 1.620904e+01 -1 -1 0 -5.160217e-01 7.060143e-01 4.817787e-01 -5.616686e-02
49 1 4 1.599385e+01 1.236594e+01 1.584669e+01 -1 -1 0 -1.086208e-01 8.069993e-01 -5.757478e-01 -7.394694e-02
50 1 4 1.608940e+01 1.187787e+01 1.528052e+01 -1 -1 0 6.052053e-01 -6.705323e-02 7.174758e-01 3.383177e-01
51 1 4 1.652171e+01 1.189069e+01 1.506380e+01 -1 -1 0 4.170553e-01 2.696621e-01 5.815866e-01 6.442859e-01
52 1 1 1.667177e+01 1.125398e+01 1.550663e+01 -1 -1 0 -2.052697e-01 4.482994e-01 2.470449e-01 8.341828e-01
53 1 3 1.730164e+01 1.082687e+01 1.492817e+01 -1 -1 0 -3.628869e-01 -1.305313e-01 1.383097e-01 -9.122199e-01
54 1 4 1.788019e+01 9.895640e+00 1.445802e+01 -1 -1 0 2.898049e-01 -1.616699e-01 5.730602e-01 7.493183e-01
55 1 4 1.784446e+01 9.643325e+00 1.516243e+01 -1 -1 0 1.597893e-01 8.942078e-01 -1.062360e-01 -4.044424e-01
56 1 4 1.769181e+01 9.903603e+00 1.638118e+01 -1 -1 0 -7.028942e-02 6.713637e-01 4.101368e-01 6.132846e-01
57 1 1 1.831074e+01 9.784244e+00 1.686372e+01 -1 -1 0 -4.673744e-01 6.204718e-01 -6.278274e-01 4.907809e-02
58 1 1 1.875502e+01 9.916408e+00 1.671299e+01 -1 -1 0 -4.180898e-01 2.843854e-01 -8.113560e-01 -2.933043e-01
59 1 3 1.905121e+01 1.014492e+01 1.626568e+01 -1 -1 0 2.078041e-02 -4.150705e-02 8.033658e-01 5.936739e-01
60 1 4 2.029526e+01 1.018020e+01 1.686533e+01 -1 -1 0 7.999193e-01 -1.686262e-01 3.400748e-01 4.648047e-01
61 1 2 -1.946834e+01 1.051621e+01 1.725250e+01 0 -1 0 6.321418e-01 -2.604074e-01 4.413148e-01 5.812280e-01
62 1 3 -1.977377e+01 1.066223e+01 1.775231e+01 0 -1 0 -4.324974e-01 3.881531e-01 -7.005521e-01 -4.141376e-01
63 1 2 -2.008863e+01 1.127005e+01 1.844336e+01 0 -1 0 2.253248e-01 2.526066e-01 8.669562e-01 -3.657944e-01
64 1 4 2.004917e+01 1.074851e+01 1.922913e+01 -1 -1 0 -4.131171e-01 1.886893e-02 -6.366346e-01 6.509029e-01
65 1 2 1.965595e+01 1.123135e+01 1.920792e+01 -1 -1 0 2.242660e-01 7.715638e-02 -9.714641e-01 -3.012218e-03
66 1 1 1.954892e+01 1.241430e+01 1.957062e+01 -1 -1 0 -3.690296e-01 7.714387e-01 1.973390e-01 -4.793295e-01
67 1 2 1.937291e+01 1.283965e+01 1.943010e+01 -1 -1 0 1.506173e-04 7.676124e-01 -1.714501e-01 -6.175565e-01
68 1 1 1.953647e+01 1.275799e+01 1.909047e+01 -1 -1 0 7.372534e-01 -2.737048e-01 6.167474e-01 3.414473e-02
69 1 1 -1.991202e+01 1.293027e+01 1.918334e+01 0 -1 0 -6.249568e-01 9.542958e-02 -7.271326e-01 -2.675825e-01
70 1 2 -1.956397e+01 1.401095e+01 1.973790e+01 0 -1 0 -5.307190e-01 -4.241107e-01 3.698408e-01 -6.337864e-01
71 1 3 -1.999302e+01 1.452989e+01 1.986362e+01 0 -1 0 -3.439878e-01 2.170589e-01 -2.687232e-01 8.731241e-01
72 1 4 -1.953017e+01 1.488543e+01 -1.985535e+01 0 -1 1 -5.700774e-01 6.952621e-01 -3.412137e-01 -2.742180e-01
73 1 1 1.962644e+01 1.459625e+01 -1.894847e+01 -1 -1 1 -8.047194e-01 5.384898e-01 2.436569e-01 -5.555903e-02
74 1 1 1.955973e+01 1.481992e+01 -1.845968e+01 -1 -1 1 -7.826581e-01 5.049936e-01 -5.297356e-04 -3.639060e-01
75 1 3 1.810516e+01 1.519418e+01 -1.841053e+01 -1 -1 1 1.196847e-01 3.892966e-01 3.467513e-01 -8.449185e-01
76 1 1 1.858209e+01 1.526212e+01 -1.761470e+01 -1 -1 1 4.711270e-01 -6.970416e-01 8.515015e-02 5.337807e-01
77 1 4 1.827459e+01 1.564122e+01 -1.752498e+01 -1 -1 1 2.486551e-01 -7.269737e-01 3.011975e-01 5.647654e-01
78 1 1 1.838473e+01 1.609531e+01 -1.801200e+01 -1 -1 1 -4.964286e-01 5.256718e-01 -3.937121e-01 -5.676430e-01
79 1 4 1.860262e+01 1.656253e+01 -1.807810e+01 -1 -1 1 -2.428206e-01 2.790349e-01 -5.391128e-01 -7.566605e-01
80 1 2 1.853879e+01 1.711564e+01 -1.713485e+01 -1 -1 1 -1.598046e-01 -2.745285e-01 -3.369537e-01 8.863176e-01
81 1 4 1.944271e+01 1.777126e+01 -1.668295e+01 -1 -1 1 6.272730e-01 -4.952887e-01 4.209211e-02 5.995380e-01
82 1 4 1.995587e+01 1.719246e+01 -1.699213e+01 -1 -1 1 2.285744e-01 -3.680783e-01 8.543207e-01 2.870683e-01
83 1 4 -1.976670e+01 1.728766e+01 -1.744442e+01 0 -1 1 6.435767e-02 5.603069e-02 8.965321e-01 4.346826e-01
84 1 4 -1.969392e+01 1.739277e+01 -1.791381e+01 0 -1 1 8.365293e-02 -4.002964e-01 -8.093634e-01 -4.215399e-01
85 1 1 -1.991199e+01 1.771362e+01 -1.828009e+01 0 -1 1 2.991468e-01 -6.670193e-01 -6.218626e-01 -2.808617e-01
86 1 1 1.982323e+01 1.810318e+01 -1.843201e+01 -1 -1 1 -4.011138e-01 8.412655e-01 3.375157e-01 1.321483e-01
87 1 3 1.945415e+01 1.873662e+01 -1.953781e+01 -1 -1 1 -5.719120e-02 1.727544e-01 -2.594501e-01 -9.484570e-01
88 1 2 1.920485e+01 1.920025e+01 -1.942010e+01 -1 -1 1 3.284152e-01 -6.897455e-02 -3.473107e-01 -8.756491e-01
89 1 2 1.981290e+01 1.969083e+01 -1.955616e+01 -1 -1 1 -4.489789e-01 6.840923e-01 4.907185e-01 2.993845e-01
90 1 3 1.963618e+01 -1.968656e+01 1.923782e+01 -1 0 0 1.854174e-01 3.559783e-01 3.806445e-03 -9.159069e-01
91 1 3 -1.959581e+01 -1.996872e+01 1.913992e+01 0 0 0 2.239994e-03 -8.306769e-01 4.152760e-01 -3.708324e-01
92 1 2 1.980445e+01 -1.906704e+01 1.828655e+01 -1 0 0 7.517740e-02 6.764214e-02 -3.606808e-01 -9.271905e-01
93 1 1 -1.939306e+01 -1.876444e+01 1.791885e+01 0 0 0 6.810244e-01 5.741631e-01 -3.452245e-01 2.955714e-01
94 1 2 -1.905334e+01 -1.920913e+01 1.809951e+01 0 0 0 4.271845e-01 3.630898e-01 -5.909627e-01 5.800365e-01
95 1 3 -1.946993e+01 -1.855097e+01 1.680326e+01 0 0 0 1.801820e-01 4.337956e-01 6.310584e-01 6.173501e-01
96 1 2 -1.933504e+01 -1.817145e+01 1.636580e+01 0 0 0 1.033501e-02 1.836499e-01 2.385681e-01 -9.535466e-01
97 1 2 -1.842461e+01 -1.827446e+01 1.558854e+01 0 0 0 -8.649964e-01 -2.291317e-02 -2.991865e-02 -5.003610e-01
98 1 4 -1.919821e+01 -1.855939e+01 1.521759e+01 0 0 0 -1.643412e-01 1.733213e-02 7.604428e-01 -6.280273e-01
99 1 2 -1.885197e+01 -1.767675e+01 1.417115e+01 0 0 0 -5.128336e-01 -6.325117e-01 -1.491793e-01 -5.609601e-01
100 1 1 -1.902937e+01 -1.853191e+01 1.419141e+01 0 0 0 -6.823623e-01 6.271380e-01 3.721520e-01 -5.081829e-02
101 2 4 8.367878e+00 2.674901e+00 6.942479e-01 0 -1 0 -8.307903e-01 -3.801864e-01 2.683401e-01 3.053513e-01
102 2 3 8.158666e+00 2.741198e+00 -1.844467e-01 0 -1 0 -4.133161e-01 -7.274304e-01 1.652109e-01 5.222261e-01
103 2 1 8.064755e+00 3.112970e+00 3.676540e-02 0 -1 0 3.059556e-01 2.063213e-01 -8.701541e-01 3.265801e-01
104 2 3 7.666534e+00 4.335427e+00 -4.151936e-01 0 -1 0 -8.141547e-04 5.220388e-01 8.440890e-01 1.224277e-01
105 2 3 7.899663e+00 4.108302e+00 -9.646962e-01 0 -1 0 -8.346665e-01 -4.373250e-01 4.575415e-02 -3.316402e-01
106 2 2 7.698414e+00 3.602121e+00 -1.114009e+00 0 -1 0 8.219065e-01 -5.333399e-01 -1.950794e-01 4.429797e-02
107 2 3 6.578589e+00 3.920380e+00 -1.570338e+00 0 -1 0 5.298090e-01 -3.409971e-01 -1.466076e-01 -7.625809e-01
108 2 4 6.705743e+00 4.879369e+00 -1.842056e+00 0 -1 0 -3.502051e-01 -4.525177e-01 1.865243e-01 -7.986193e-01
109 2 3 6.456750e+00 3.997171e+00 -3.209302e+00 0 -1 0 -2.729016e-01 2.898589e-01 -9.006026e-01 -1.744176e-01
110 2 2 5.806126e+00 4.984568e+00 -3.653096e+00 0 -1 0 1.357466e-01 -3.068004e-01 5.823329e-01 7.404963e-01
111 2 2 5.489049e+00 5.938542e+00 -3.238499e+00 0 -1 0 -6.315544e-02 -5.547406e-01 -6.758738e-01 -4.811121e-01
112 2 3 5.002717e+00 6.264606e+00 -3.773514e+00 0 -1 0 -1.468152e-01 -6.928561e-01 -1.979420e-01 6.776538e-01
113 2 3 4.545167e+00 6.312549e+00 -3.774876e+00 0 -1 0 -3.187892e-01 -7.398829e-01 1.691395e-01 5.677487e-01
114 2 2 3.415874e+00 6.138465e+00 -3.469973e+00 0 -1 0 2.411733e-01 4.511473e-01 2.814977e-01 -8.118255e-01
115 2 4 2.997542e+00 5.965141e+00 -3.147459e+00 0 -1 0 5.896187e-01 4.998011e-01 1.991543e-01 -6.024004e-01
116 2 4 2.659144e+00 5.547565e+00 -3.129785e+00 0 -1 0 8.031056e-01 5.562815e-01 -3.961387e-03 -2.134399e-01
117 2 1 2.542533e+00 5.109307e+00 -3.235094e+00 0 -1 0 -8.169701e-01 -5.095627e-01 2.401566e-01 -1.234118e-01
118 2 1 1.250798e+00 5.109376e+00 -2.624681e+00 0 -1 0 4.136194e-01 -6.259755e-01 -6.537706e-01 -9.827356e-02
119 2 1 1.003397e+00 4.561229e+00 -1.985811e+00 0 -1 0 6.081889e-01 -1.491776e-01 -7.507348e-01 2.103560e-01
120 2 1 5.151278e-01 4.348120e+00 -1.884499e+00 0 -1 0 5.351080e-01 -4.484337e-01 -5.824467e-01 4.163202e-01
121 2 3 9.571665e-02 4.334359e+00 -1.684759e+00 0 -1 0 4.021938e-01 -6.279651e-01 -3.983228e-01 5.340776e-01
122 2 1 4.899454e-01 3.028514e+00 -2.087165e+00 0 -1 0 2.250244e-01 8.872555e-01 -3.999216e-01 -4.695177e-02
123 2 4 -4.945258e-01 2.280026e+00 -2.359890e+00 0 -1 0 6.402998e-01 -2.930830e-02 -6.416347e-01 -4.212625e-01
124 2 1 -6.021075e-01 3.008390e+00 -3.350139e+00 0 -1 0 4.034226e-01 8.541749e-01 -7.589403e-02 -3.191794e-01
125 2 4 -1.552503e+00 2.032158e+00 -3.039295e+00 0 -1 0 5.068256e-01 3.646815e-01 -7.377921e-01 -2.565112e-01
126 2 2 -1.938350e+00 1.984390e+00 -3.455473e+00 0 -1 0 -5.807182e-01 -4.150098e-01 6.956298e-01 8.143971e-02
127 2 4 -2.094894e+00 1.638750e+00 -3.698896e+00 0 -1 0 -5.264672e-01 -1.955962e-01 8.127377e-01 -1.550223e-01
128 2 4 -1.978730e+00 1.308841e+00 -3.389499e+00 0 -1 0 -3.384170e-01 7.871071e-01 -5.120840e-01 6.087981e-02
129 2 1 -1.772056e+00 4.255280e-01 -3.462701e+00 0 -1 0 -8.584545e-02 5.751761e-01 -8.079520e-01 9.495549e-02
130 2 2 -2.179898e+00 4.428111e-02 -3.357402e+00 0 -1 0 -4.177212e-01 3.476073e-01 4.477048e-01 7.100976e-01
131 2 3 -2.455494e+00 -4.103234e-01 -3.628615e+00 0 -1 0 -6.241012e-01 -5.534244e-01 -3.084179e-01 4.572719e-01
132 2 4 -3.170672e+00 -5.568494e-01 -3.069043e+00 0 -1 0 1.114137e-01 -3.448690e-01 -5.377595e-01 7.612274e-01
133 2 4 -3.284219e+00 -8.825995e-01 -3.148945e+00 0 -1 0 -6.151475e-01 -6.835557e-02 6.609528e-02 -7.826573e-01
134 2 3 -4.108251e+00 -5.289448e-01 -3.090878e+00 0 -1 0 3.251816e-01 2.272358e-01 -1.903617e-01 8.979885e-01
135 2 4 -4.197006e+00 -5.041920e-01 -3.270099e+00 0 -1 0 -7.474051e-01 4.611798e-01 4.749006e-01 5.628745e-02
136 2 3 -4.620854e+00 -1.608834e+00 -4.221357e+00 0 -1 0 -3.154618e-01 1.752086e-01 -9.323445e-01 2.279182e-02
137 2 1 -4.343941e+00 -1.831719e+00 -4.565814e+00 0 -1 0 3.069757e-01 2.792289e-01 9.047709e-01 9.584730e-02
138 2 3 -3.427524e+00 -2.047676e+00 -4.394827e+00 0 -1 0 -6.948244e-01 -1.260816e-01 2.743793e-01 -6.527163e-01
139 2 2 -3.206968e+00 -2.116714e+00 -3.992877e+00 0 -1 0 -2.259025e-01 -1.999531e-02 4.724581e-01 -8.516758e-01
140 2 3 -3.219337e+00 -2.246431e+00 -3.559629e+00 0 -1 0 -1.163256e-01 -1.177112e-01 -3.900743e-01 9.057894e-01
141 2 1 -3.409142e+00 -2.497308e+00 -3.191429e+00 0 -1 0 -4.181555e-01 -2.937686e-01 -3.285054e-01 7.943112e-01
142 2 2 -2.516921e+00 -3.249144e+00 -2.414189e+00 0 -1 0 -7.754727e-01 5.281905e-01 8.662954e-02 3.348912e-01
143 2 4 -2.578604e+00 -3.428264e+00 -1.959795e+00 0 -1 0 9.214681e-01 -2.545944e-01 7.326775e-02 -2.840953e-01
144 2 4 -2.684680e+00 -3.312075e+00 -1.866144e+00 0 -1 0 1.881065e-01 5.485264e-01 3.517734e-01 -7.348402e-01
145 2 1 -3.035007e+00 -3.671513e+00 -1.789933e+00 0 -1 0 5.691577e-02 6.403110e-01 3.697027e-01 -6.708818e-01
146 2 1 -3.507546e+00 -3.674681e+00 -1.798712e+00 0 -1 0 4.048497e-01 7.196471e-01 3.390839e-02 -5.630763e-01
147 2 1 -3.476274e+00 -2.787548e+00 -7.956939e-01 0 -1 0 -3.362926e-01 3.925969e-01 1.426896e-01 -8.440466e-01
148 2 2 -3.927084e+00 -2.621930e+00 -4.534989e-01 0 -1 0 -2.764996e-01 4.738083e-01 1.070085e-02 -8.360258e-01
149 2 4 -4.003718e+00 -2.166677e+00 -2.376772e-01 0 -1 0 1.925441e-02 2.994649e-01 -2.554699e-01 -9.190675e-01
150 2 1 -4.462774e+00 -1.927857e+00 1.601354e-01 0 -1 0 3.240237e-01 -8.662842e-01 -3.210280e-01 2.037186e-01
151 2 1 -4.730784e+00 -1.378280e+00 3.291271e-02 0 -1 0 -4.400153e-01 8.708677e-01 1.831433e-01 -1.201434e-01
152 2 1 -4.950806e+00 -8.870311e-01 -1.830469e-01 0 -1 0 5.061136e-01 -8.595057e-01 -2.159087e-02 6.806509e-02
153 2 4 -4.876076e+00 -3.068146e-01 -1.971061e-01 0 -1 0 4.602182e-01 -8.170043e-01 3.136604e-01 1.494001e-01
154 2 1 -5.870478e+00 6.459186e-02 -7.151902e-01 0 -1 0 2.734404e-01 7.391084e-01 -3.301577e-01 -5.195623e-01
155 2 2 -6.241368e+00 2.128984e-01 -1.025495e+00 0 -1 0 5.215836e-01 4.811133e-01 -5.919575e-01 -3.821869e-01
156 2 4 -6.943389e+00 6.043557e-01 -3.722482e-01 0 -1 0 4.540129e-03 -6.865468e-01 3.719388e-01 -6.247355e-01
157 2 3 -7.591851e+00 6.097572e-01 -1.223602e+00 0 -1 0 -3.568960e-01 4.049825e-01 8.414665e-01 -2.341932e-02
158 2 2 -8.100723e+00 7.579618e-01 -1.144452e+00 0 -1 0 3.455470e-01 -7.298528e-01 -5.340683e-01 2.503663e-01
159 2 1 -7.664343e+00 1.039992e+00 -1.884383e+00 0 -1 0 -4.579910e-01 7.067169e-01 3.069178e-01 -4.433925e-01
160 2 3 -8.398986e+00 1.485910e+00 -2.232362e+00 0 -1 0 1.741143e-01 -6.665087e-01 -7.150045e-01 -1.192431e-01
161 2 1 -8.652368e+00 1.812998e+00 -2.481646e+00 0 -1 0 1.191696e-01 -9.057946e-01 -3.937678e-01 -1.013984e-01
162 2 1 -8.739946e+00 2.281245e+00 -2.954912e+00 0 -1 0 -1.881117e-01 9.635195e-01 1.584327e-01 1.055615e-01
163 2 4 -9.308036e+00 1.476416e+00 -3.501465e+00 0 -1 0 8.184854e-02 -1.429249e-01 -8.963720e-01 4.115708e-01
164 2 4 -8.678763e+00 7.099389e-01 -3.798993e+00 0 -1 0 3.150627e-01 -7.213970e-01 5.165568e-01 3.368841e-01
165 2 3 -9.015681e+00 3.094067e-01 -3.826054e+00 0 -1 0 -2.337292e-01 -9.695261e-01 2.659627e-02 6.842812e-02
166 2 3 -1.019408e+01 -2.671959e-02 -3.745584e+00 0 -1 0 7.180641e-02 -6.802937e-01 -4.053832e-01 6.063899e-01
167 2 4 -1.030882e+01 -4.845949e-01 -3.332941e+00 0 -1 0 1.236954e-01 -3.131753e-01 1.751155e-01 9.251785e-01
168 2 2 -1.094804e+01 -1.504861e+00 -2.853868e+00 0 -1 0 -4.740254e-01 -2.529396e-01 -1.250910e-02 8.433060e-01
169 2 2 -1.130308e+01 -2.150011e+00 -3.011301e+00 0 -1 0 5.514351e-01 2.771630e-01 6.075283e-01 -5.000094e-01
170 2 1 -1.141294e+01 -2.645434e+00 -3.077161e+00 0 -1 0 6.910133e-01 5.323061e-01 3.912139e-01 -2.934323e-01
171 2 1 -1.141069e+01 -3.071063e+00 -3.239020e+00 0 -1 0 -6.798135e-01 -7.133153e-01 -1.679183e-01 2.895411e-02
172 2 4 -1.124767e+01 -3.531422e+00 -3.534356e+00 0 -1 0 6.798916e-01 6.617912e-01 -6.746668e-02 3.085906e-01
173 2 4 -1.129570e+01 -4.651144e+00 -3.652018e+00 0 -1 0 -2.686212e-01 -7.150256e-01 6.197654e-01 1.801995e-01
174 2 1 -1.124557e+01 -4.769219e+00 -4.143878e+00 0 -1 0 3.323344e-01 3.313105e-01 -8.741058e-01 -1.254046e-01
175 2 1 -1.110742e+01 -3.739872e+00 -4.950058e+00 0 -1 0 1.475851e-01 6.377154e-01 6.671132e-01 3.556653e-01
176 2 2 -1.105893e+01 -3.491620e+00 -5.394173e+00 0 -1 0 -8.745194e-02 -8.454246e-01 -2.710254e-01 -4.518347e-01
177 2 2 -1.070558e+01 -3.276606e+00 -5.593521e+00 0 -1 0 4.546347e-03 -8.050958e-01 2.959899e-01 -5.139942e-01
178 2 1 -1.134465e+01 -2.792061e+00 -6.624691e+00 0 -1 0 4.660994e-01 1.820931e-01 8.606992e-01 9.375713e-02
179 2 4 -1.110845e+01 -2.880893e+00 -7.104212e+00 0 -1 0 4.408997e-01 5.530552e-01 5.803279e-01 4.036792e-01
180 2 1 -1.089595e+01 -2.687277e+00 -7.479400e+00 0 -1 0 -1.195529e-01 -8.470630e-01 -2.904761e-01 -4.287366e-01
181 2 4 -1.045326e+01 -2.820696e+00 -8.380089e+00 0 -1 0 5.846615e-02 9.885084e-01 -8.618527e-02 -1.095673e-01
182 2 2 -1.034959e+01 -2.718911e+00 -8.874966e+00 0 -1 0 1.106536e-01 8.301576e-01 -5.455869e-01 -3.048063e-02
183 2 3 -1.008671e+01 -2.893767e+00 -9.213722e+00 0 -1 0 -6.806177e-02 -4.785852e-01 8.753761e-01 -6.360695e-03
184 2 4 -9.975151e+00 -3.106928e+00 -9.606801e+00 0 -1 0 6.357784e-02 1.123179e-01 -9.875322e-01 9.012632e-02
185 2 3 -1.014522e+01 -3.411077e+00 -9.995983e+00 0 -1 0 -1.589305e-01 1.579552e-01 9.562825e-01 -1.879228e-01
186 2 1 -1.048297e+01 -3.645523e+00 -1.028715e+01 0 -1 0 2.096638e-01 -3.788583e-01 -8.799286e-01 1.955329e-01
187 2 1 -9.887276e+00 -3.967484e+00 -1.097836e+01 0 -1 0 -9.184014e-02 -3.362084e-01 -6.875155e-01 -6.370650e-01
188 2 2 -8.768828e+00 -4.096134e+00 -1.144488e+01 0 -1 0 6.710373e-01 6.337319e-01 3.813235e-01 5.181935e-02
189 2 4 -8.574995e+00 -4.403779e+00 -1.172438e+01 0 -1 0 -5.950167e-01 -7.116450e-01 -7.534008e-03 -3.734430e-01
190 2 4 -9.309394e+00 -4.454353e+00 -1.283437e+01 0 -1 0 -1.990053e-02 3.094180e-01 -5.245814e-01 -7.928927e-01
191 2 1 -8.654251e+00 -4.154499e+00 -1.285197e+01 0 -1 0 -7.348118e-02 -8.290295e-01 -5.259912e-01 -1.750537e-01
192 2 4 -8.676979e+00 -3.987059e+00 -1.330883e+01 0 -1 0 4.573992e-02 9.368011e-01 2.262835e-01 2.628829e-01
193 2 4 -9.607272e+00 -4.926334e+00 -1.352128e+01 0 -1 0 -1.926769e-01 1.132340e-01 9.476663e-01 -2.279960e-01
194 2 1 -9.958130e+00 -5.205555e+00 -1.354866e+01 0 -1 0 3.169550e-03 5.477295e-01 7.283418e-01 -4.117045e-01
195 2 3 -1.010184e+01 -6.292928e+00 -1.339121e+01 0 -1 0 -3.774875e-01 -3.573270e-01 8.405286e-01 -1.527491e-01
196 2 4 -1.019666e+01 -6.757619e+00 -1.357601e+01 0 -1 0 -2.802750e-01 1.407513e-01 9.164252e-01 -2.485957e-01
197 2 2 -1.053917e+01 -7.035173e+00 -1.356641e+01 0 -1 0 -2.527703e-02 5.574178e-01 7.205126e-01 -4.117137e-01
198 2 4 -1.015586e+01 -7.961321e+00 -1.335763e+01 0 -1 0 3.570286e-01 -1.588868e-01 2.210113e-01 -8.935545e-01
199 2 3 -1.022987e+01 -8.013126e+00 -1.284527e+01 0 -1 0 -6.890117e-01 1.325615e-01 -3.054009e-01 6.437551e-01
200 2 4 -1.006237e+01 -7.351494e+00 -1.274826e+01 0 -1 0 -7.213908e-01 2.134789e-01 -1.266976e-01 6.465059e-01
