ITEM: TIMESTEP
374000000
ITEM: NUMBER OF ATOMS
200
ITEM: BOX BOUNDS pp pp pp
-2.0000000000000000e+01 2.0000000000000000e+01
-2.0000000000000000e+01 2.0000000000000000e+01
-2.0000000000000000e+01 2.0000000000000000e+01
ITEM: ATOMS id mol type x y z ix iy iz c_quat[1] c_quat[2] c_quat[3] c_quat[4]
1 1 1 -1.320323e+01 7.611125e+00 1.305478e+01 0 0 0 6.395247e-01 2.819396e-01 7.004984e-01 1.442919e-01
2 1 2 -1.379344e+01 8.599579e+00 1.349701e+01 0 0 0 2.546233e-01 7.653917e-01 4.899719e-01 3.305602e-01
3 1 1 -1.434334e+01 9.062563e+00 1.349811e+01 0 0 0 2.575332e-01 -7.350152e-01 -6.271552e-01 -1.027838e-02
4 1 3 -1.465890e+01 9.323141e+00 1.327486e+01 0 0 0 -2.828294e-01 9.006564e-01 3.166212e-01 -9.260954e-02
5 1 1 -1.465634e+01 9.849881e+00 1.299509e+01 0 0 0 1.276951e-01 -9.796042e-01 6.668598e-02 1.400808e-01
6 1 2 -1.579379e+01 9.421912e+00 1.261396e+01 0 0 0 -5.460420e-01 1.500999e-01 7.956144e-01 2.151882e-01
7 1 4 -1.508435e+01 1.014601e+01 1.221916e+01 0 0 0 1.556755e-01 -6.652429e-01 2.348420e-02 -7.298393e-01
8 1 1 -1.432040e+01 9.594494e+00 1.199392e+01 0 0 0 -2.752711e-01 -5.619457e-01 1.960925e-01 -7.549772e-01
9 1 1 -1.413427e+01 9.519907e+00 1.157475e+01 0 0 0 6.356847e-02 -3.031732e-01 -2.147023e-01 -9.262548e-01
10 1 4 -1.402236e+01 1.013263e+01 1.149904e+01 0 0 0 -6.561532e-01 1.871621e-01 2.834496e-01 -6.738617e-01
11 1 1 -1.496298e+01 9.428821e+00 1.040404e+01 0 0 0 -1.027116e-01 2.296053e-01 9.130859e-01 3.209452e-01
12 1 1 -1.529637e+01 9.654715e+00 9.879018e+00 0 0 0 1.921540e-01 -5.915818e-01 -6.632089e-01 -4.162472e-01
13 1 3 -1.480794e+01 8.445874e+00 9.766376e+00 0 0 0 -4.086403e-02 7.439428e-02 9.765641e-01 1.977830e-01
14 1 4 -1.509645e+01 8.536279e+00 9.289504e+00 0 0 0 -1.697105e-01 5.096325e-01 7.953370e-01 2.809130e-01
15 1 4 -1.535034e+01 8.734101e+00 8.921072e+00 0 0 0 1.113781e-01 -8.651505e-01 -4.397448e-01 -2.138552e-01
16 1 2 -1.527146e+01 8.016555e+00 8.987173e+00 0 0 0 -3.588631e-02 -4.843631e-01 2.428519e-01 8.397187e-01
17 1 1 -1.587147e+01 6.721216e+00 9.172925e+00 0 0 0 5.753484e-02 1.204803e-01 -9.523013e-01 -2.744022e-01
18 1 2 -1.484927e+01 6.367741e+00 8.889747e+00 0 0 0 -7.604479e-01 -4.554729e-01 4.207598e-01 1.929369e-01
19 1 3 -1.492420e+01 6.565149e+00 9.892363e+00 0 0 0 -9.137644e-01 5.287749e-02 1.038824e-01 -3.891619e-01
20 1 1 -1.438952e+01 6.194592e+00 1.003540e+01 0 0 0 -7.370441e-02 -8.175406e-01 5.704468e-01 2.802733e-02
21 1 4 -1.378462e+01 5.946254e+00 9.482008e+00 0 0 0 2.685995e-01 -6.559377e-01 6.255238e-01 3.260676e-01
22 1 1 -1.365966e+01 6.188330e+00 9.107048e+00 0 0 0 4.614125e-02 -3.916314e-01 8.312362e-01 3.918445e-01
23 1 4 -1.360597e+01 5.888831e+00 8.724881e+00 0 0 0 -4.332533e-01 4.970901e-01 -7.328783e-01 1.675782e-01
24 1 3 -1.317936e+01 5.763231e+00 8.518444e+00 0 0 0 -3.929321e-01 5.830353e-02 -8.785907e-01 -2.651101e-01
25 1 3 -1.282421e+01 5.724790e+00 8.155518e+00 0 0 0 -2.692121e-01 -1.989767e-01 -9.128546e-01 -2.337296e-01
26 1 4 -1.284202e+01 5.628748e+00 7.651963e+00 0 0 0 -1.247642e-01 -6.139206e-01 -7.425555e-01 -2.369530e-01
27 1 4 -1.303956e+01 5.750587e+00 7.246764e+00 0 0 0 -7.036663e-02 8.620164e-01 4.916295e-01 1.013739e-01
28 1 1 -1.384598e+01 5.854086e+00 7.189565e+00 0 0 0 -2.047392e-01 7.060057e-01 6.113967e-01 2.929708e-01
29 1 1 -1.473497e+01 5.964616e+00 6.669749e+00 0 0 0 -3.709984e-02 5.859583e-01 8.090198e-01 2.763161e-02
30 1 4 -1.501160e+01 6.079284e+00 6.208499e+00 0 0 0 1.158770e-01 -8.231004e-01 -5.382020e-01 -1.393442e-01
31 1 4 -1.525255e+01 6.482249e+00 5.985388e+00 0 0 0 -1.262335e-01 9.828203e-01 1.345957e-01 -3.665208e-03
32 1 3 -1.548980e+01 6.859844e+00 5.025205e+00 0 0 0 -4.723456e-01 -2.760067e-01 -2.907808e-01 -7.849563e-01
33 1 3 -1.600199e+01 6.632581e+00 4.537602e+00 0 0 0 5.912256e-01 7.321903e-01 3.106217e-01 1.336560e-01
34 1 1 -1.622806e+01 6.766261e+00 4.640674e+00 0 0 0 4.725661e-01 -8.497219e-01 2.603867e-02 -2.323271e-01
35 1 2 -1.703053e+01 6.031645e+00 4.064578e+00 0 0 0 -4.298243e-01 4.214285e-01 -5.568722e-01 5.723132e-01
36 1 2 -1.780293e+01 7.100821e+00 3.741517e+00 0 0 0 -1.759766e-02 5.267222e-01 4.704181e-01 7.077859e-01
37 1 1 -1.703190e+01 7.329423e+00 2.993785e+00 0 0 0 3.880406e-02 3.700684e-01 -5.111625e-01 -7.747622e-01
38 1 1 -1.730387e+01 7.687378e+00 2.720317e+00 0 0 0 3.631536e-01 2.631789e-02 -5.920174e-01 -7.189870e-01
39 1 4 -1.634446e+01 7.331607e+00 1.909512e+00 0 0 0 -7.033611e-01 -3.864988e-02 -6.484204e-01 -2.886872e-01
40 1 4 -1.593120e+01 7.306734e+00 1.755720e+00 0 0 0 -5.644619e-01 -2.598021e-01 -5.765817e-01 -5.305084e-01
41 1 2 -1.550706e+01 7.347721e+00 1.462091e+00 0 0 0 -3.241722e-01 -4.936774e-01 -4.292062e-01 -6.833571e-01
42 1 4 -1.523452e+01 6.037114e+00 1.869402e+00 0 0 0 -3.039451e-01 -1.673939e-01 8.843235e-01 -3.123598e-01
43 1 3 -1.575658e+01 6.739664e+00 6.371823e-01 0 0 0 -4.381117e-01 -3.969894e-01 -7.472498e-01 3.034392e-01
44 1 2 -1.605956e+01 6.304816e+00 3.887611e-01 0 0 0 5.521652e-01 6.408689e-01 5.127556e-01 -1.465687e-01
45 1 1 -1.577582e+01 5.931159e+00 8.069430e-02 0 0 0 4.364774e-01 6.521275e-01 6.130041e-01 -9.188699e-02
46 1 3 -1.557260e+01 5.063313e+00 1.013977e+00 0 0 0 -5.198681e-01 -2.276574e-01 6.428950e-01 5.143883e-01
47 1 4 -1.530134e+01 4.993410e+00 1.014483e+00 0 0 0 3.701109e-01 -2.191947e-01 -8.758472e-01 2.187767e-01
48 1 1 -1.579009e+01 4.467641e+00 6.807929e-01 0 0 0 2.164129e-01 3.349609e-01 -9.083876e-01 -1.256923e-01
49 1 4 -1.590040e+01 4.296012e+00 2.487016e-01 0 0 0 2.742183e-01 -2.959120e-02 -9.607624e-01 -2.939792e-02
50 1 4 -1.559475e+01 3.897015e+00 -1.241431e-01 0 0 0 -1.167319e-01 -5.159954e-01 4.229424e-01 7.356916e-01
51 1 4 -1.562883e+01 2.797918e+00 7.634311e-01 0 0 0 3.439934e-01 -4.479088e-01 8.224061e-01 -6.851537e-02
52 1 1 -1.508007e+01 3.124639e+00 6.969333e-01 0 0 0 3.269731e-01 6.521079e-01 -3.650031e-01 5.784606e-01
53 1 3 -1.605938e+01 2.626461e+00 -1.432537e-01 0 0 0 6.664147e-01 5.301732e-02 7.177669e-01 1.946567e-01
54 1 4 -1.691042e+01 2.393509e+00 -3.099043e-01 0 0 0 -6.751655e-01 -5.743225e-01 -9.139588e-02 4.538193e-01
55 1 4 -1.714747e+01 1.971992e+00 -3.789279e-01 0 0 0 -8.533710e-01 -5.084716e-01 1.050919e-01 4.658672e-02
56 1 4 -1.699800e+01 1.273775e+00 -6.747801e-01 0 0 0 3.230875e-01 4.918943e-01 -7.593191e-01 -2.776492e-01
57 1 1 -1.739085e+01 1.108226e+00 -1.044600e+00 0 0 0 -5.305849e-01 -4.394212e-02 8.321972e-01 1.549081e-01
58 1 1 -1.822189e+01 1.564002e+00 -1.660951e+00 0 0 0 -6.017477e-01 -5.035319e-01 -5.789583e-01 2.217264e-01
59 1 3 -1.830641e+01 1.997406e+00 -1.327641e+00 0 0 0 -1.863958e-01 5.111647e-01 -5.482949e-01 -6.350906e-01
60 1 4 -1.838406e+01 2.362683e+00 -1.659205e+00 0 0 0 -6.301590e-02 -1.981423e-01 7.902179e-01 5.764757e-01
61 1 2 -1.859606e+01 2.571027e+00 -2.081122e+00 0 0 0 -2.997329e-01 2.419108e-01 8.154277e-01 4.321077e-01
62 1 3 -1.901151e+01 2.675092e+00 -2.249255e+00 0 0 0 3.132284e-01 -6.689114e-01 -6.236837e-01 -2.558597e-01
63 1 2 -1.895650e+01 3.557957e+00 -2.657901e+00 0 0 0 7.233630e-02 6.891751e-01 4.499754e-01 5.633182e-01
64 1 4 -1.877018e+01 3.938042e+00 -2.876464e+00 0 0 0 -1.659031e-01 8.344238e-01 3.389994e-02 5.244653e-01
65 1 2 -1.831486e+01 4.220746e+00 -2.831527e+00 0 0 0 4.285753e-01 -7.424932e-01 1.600765e-01 -4.892879e-01
66 1 1 -1.802097e+01 4.352438e+00 -2.534876e+00 0 0 0 7.282240e-01 -5.566686e-01 3.669015e-01 -1.587235e-01
67 1 2 -1.761729e+01 4.449534e+00 -2.344469e+00 0 0 0 7.457290e-01 -2.695104e-01 5.541323e-01 2.533570e-01
68 1 1 -1.752276e+01 5.568933e+00 -2.119846e+00 0 0 0 -3.527649e-01 8.314999e-01 -2.184303e-01 -3.693955e-01
69 1 1 -1.707153e+01 6.107891e+00 -2.245160e+00 0 0 0 6.766221e-01 -3.674309e-01 3.866513e-01 5.076198e-01
70 1 2 -1.682852e+01 6.570095e+00 -2.171773e+00 0 0 0 -4.423059e-01 3.169583e-01 -5.603617e-01 -6.244179e-01
71 1 3 -1.648119e+01 6.925639e+00 -2.228539e+00 0 0 0 -2.636511e-01 1.016943e-01 -6.611300e-01 -6.950205e-01
72 1 4 -1.641463e+01 7.498956e+00 -2.375706e+00 0 0 0 9.741189e-02 -3.189676e-02 -6.597045e-01 -7.445021e-01
73 1 1 -1.668270e+01 7.873061e+00 -2.609703e+00 0 0 0 -3.425389e-01 3.287958e-01 6.604196e-01 5.817271e-01
74 1 1 -1.688263e+01 8.195107e+00 -3.326948e+00 0 0 0 -1.957564e-01 4.755793e-01 7.848071e-01 3.458057e-01
75 1 3 -1.714336e+01 8.489504e+00 -3.651986e+00 0 0 0 -3.650565e-01 7.370723e-01 4.978057e-01 2.750411e-01
76 1 1 -1.749021e+01 9.186893e+00 -4.201086e+00 0 0 0 -2.280881e-01 -2.075472e-01 -3.994040e-01 -8.633519e-01
77 1 4 -1.736774e+01 9.731113e+00 -4.160081e+00 0 0 0 -1.431625e-01 4.179001e-01 2.579188e-01 8.592682e-01
78 1 1 -1.723284e+01 1.027241e+01 -3.881675e+00 0 0 0 3.820143e-01 -4.465207e-01 -1.861395e-02 -8.089115e-01
79 1 4 -1.642462e+01 1.074632e+01 -3.753829e+00 0 0 0 -3.893893e-01 4.472711e-01 6.973663e-01 -4.024982e-01
80 1 2 -1.603845e+01 1.075901e+01 -4.344703e+00 0 0 0 7.460295e-01 -5.413002e-01 1.732534e-01 -3.470121e-01
81 1 4 -1.554709e+01 1.179665e+01 -4.871616e+00 0 0 0 8.672697e-02 -7.291317e-01 -1.694529e-01 6.573668e-01
82 1 4 -1.622830e+01 1.166945e+01 -5.056752e+00 0 0 0 -4.115601e-01 4.050069e-01 7.907396e-01 2.032697e-01
83 1 4 -1.654464e+01 1.128683e+01 -5.559664e+00 0 0 0 3.994228e-01 3.343559e-01 -8.467708e-01 -1.079206e-01
84 1 4 -1.703321e+01 1.196933e+01 -5.590037e+00 0 0 0 2.536451e-01 7.188508e-01 -3.836290e-01 -5.212930e-01
85 1 1 -1.740395e+01 1.207657e+01 -5.884320e+00 0 0 0 4.947301e-01 5.177945e-01 -6.065319e-01 -3.453260e-01
86 1 1 -1.767586e+01 1.302229e+01 -6.021871e+00 0 0 0 3.937298e-01 1.669494e-01 -5.374400e-01 -7.268171e-01
87 1 3 -1.809388e+01 1.322323e+01 -6.171473e+00 0 0 0 5.856593e-01 -1.262842e-01 -5.661436e-01 -5.661598e-01
88 1 2 -1.848486e+01 1.342265e+01 -6.042937e+00 0 0 0 7.804046e-01 -3.522194e-01 -4.349958e-01 -2.787272e-01
89 1 2 -1.825803e+01 1.418763e+01 -7.360464e+00 0 0 0 4.855421e-01 1.556460e-01 1.889469e-01 8.392391e-01
90 1 3 -1.838552e+01 1.441102e+01 -7.503075e+00 0 0 0 5.682956e-01 4.161444e-01 7.074399e-01 5.824638e-02
91 1 3 -1.746231e+01 1.476746e+01 -7.493057e+00 0 0 0 -3.414099e-01 -7.748958e-01 5.213633e-01 -1.056220e-01
92 1 2 -1.711652e+01 1.452001e+01 -7.867781e+00 0 0 0 -1.725063e-01 -4.779142e-01 8.336109e-01 -2.166391e-01
93 1 1 -1.620508e+01 1.523346e+01 -8.671225e+00 0 0 0 6.692201e-01 6.335982e-01 -2.442037e-01 3.017653e-01
94 1 2 -1.590439e+01 1.486686e+01 -8.824281e+00 0 0 0 5.248889e-01 3.919637e-01 -5.567827e-01 5.107340e-01
95 1 3 -1.579325e+01 1.438227e+01 -8.670168e+00 0 0 0 -2.661065e-01 -6.345951e-02 6.879255e-01 -6.722490e-01
96 1 2 -1.510748e+01 1.523576e+01 -8.826148e+00 0 0 0 2.746418e-01 -9.011058e-01 -3.355409e-02 3.338477e-01
97 1 2 -1.513311e+01 1.565827e+01 -9.029083e+00 0 0 0 -7.991329e-02 8.058665e-01 -4.017953e-01 -4.274968e-01
98 1 4 -1.515919e+01 1.592910e+01 -9.518174e+00 0 0 0 -1.156183e-01 -5.673937e-01 6.936114e-01 4.284857e-01
99 1 2 -1.526990e+01 1.592011e+01 -1.000262e+01 0 0 0 2.695072e-01 6.722276e-02 -8.850770e-01 -3.734779e-01
100 1 1 -1.476741e+01 1.658053e+01 -1.072076e+01 0 0 0 -1.702998e-01 -3.226348e-01 -7.749364e-01 -5.161186e-01
101 2 4 -1.012709e+01 -1.482714e+01 -1.947556e+01 0 -1 0 -1.752567e-01 2.548516e-02 9.197129e-01 3.503766e-01
102 2 3 -9.406478e+00 -1.473733e+01 -1.839163e+01 0 -1 0 6.551599e-01 -5.565839e-02 -4.789158e-01 5.816419e-01
103 2 1 -9.705956e+00 -1.422982e+01 -1.806956e+01 0 -1 0 1.049604e-01 -4.803283e-01 -5.328925e-01 6.886898e-01
104 2 3 -9.551996e+00 -1.529234e+01 -1.731453e+01 0 -1 0 -7.620435e-01 -9.832894e-02 5.679573e-01 -2.950350e-01
105 2 3 -9.576458e+00 -1.472041e+01 -1.699378e+01 0 -1 0 -8.183306e-01 5.564801e-01 -1.354977e-01 4.801394e-02
106 2 2 -9.819806e+00 -1.412946e+01 -1.691745e+01 0 -1 0 -2.289712e-01 2.767816e-02 3.747787e-01 8.979683e-01
107 2 3 -8.572582e+00 -1.494504e+01 -1.662181e+01 0 -1 0 9.701863e-01 5.559528e-02 2.035977e-01 -1.191460e-01
108 2 4 -8.327383e+00 -1.514434e+01 -1.620948e+01 0 -1 0 9.380686e-01 1.918294e-02 2.809250e-01 2.018426e-01
109 2 3 -7.890927e+00 -1.527442e+01 -1.580830e+01 0 -1 0 -8.014767e-01 9.235599e-02 -3.031747e-01 -5.071396e-01
110 2 2 -8.657171e+00 -1.543010e+01 -1.519822e+01 0 -1 0 4.428368e-01 2.766987e-01 8.346169e-01 1.753511e-01
111 2 2 -8.227063e+00 -1.494789e+01 -1.478604e+01 0 -1 0 2.737750e-01 -4.140260e-01 -4.322856e-01 -7.528339e-01
112 2 3 -8.231927e+00 -1.448072e+01 -1.465406e+01 0 -1 0 -5.678114e-01 5.412482e-01 9.814570e-02 6.123790e-01
113 2 3 -8.092573e+00 -1.408271e+01 -1.437392e+01 0 -1 0 -7.205776e-01 4.950686e-01 -1.544106e-01 4.602525e-01
114 2 2 -7.889008e+00 -1.381374e+01 -1.435676e+01 0 -1 0 4.096999e-01 -1.128220e-01 -8.689764e-01 -2.535691e-01
115 2 4 -6.679167e+00 -1.309076e+01 -1.419882e+01 0 -1 0 -5.814009e-01 3.528451e-01 -2.375228e-01 -6.935822e-01
116 2 4 -6.550851e+00 -1.261286e+01 -1.399503e+01 0 -1 0 -1.269419e-01 2.358283e-01 -3.942355e-01 -8.791184e-01
117 2 1 -6.609452e+00 -1.239123e+01 -1.384041e+01 0 -1 0 6.305209e-01 1.714098e-01 -3.852725e-01 -6.516342e-01
118 2 1 -5.972742e+00 -1.172362e+01 -1.342356e+01 0 -1 0 1.176272e-01 -5.355893e-01 -8.189925e-01 1.689949e-01
119 2 1 -5.535432e+00 -1.226914e+01 -1.403720e+01 0 -1 0 5.321528e-01 -2.446515e-01 -1.800880e-01 -7.902704e-01
120 2 1 -5.077923e+00 -1.168272e+01 -1.463506e+01 0 -1 0 2.794540e-01 -2.346567e-01 -2.557674e-01 -8.952233e-01
121 2 3 -4.411056e+00 -1.231925e+01 -1.572985e+01 0 -1 0 -8.481676e-01 -5.262534e-01 3.653645e-02 4.831365e-02
122 2 1 -4.818450e+00 -1.241729e+01 -1.582622e+01 0 -1 0 2.359486e-01 -1.947724e-01 7.244679e-01 -6.176878e-01
123 2 4 -4.976362e+00 -1.279701e+01 -1.710489e+01 0 -1 0 -8.515934e-01 -3.689292e-01 -3.092066e-01 2.075362e-01
124 2 1 -5.825641e+00 -1.229216e+01 -1.731332e+01 0 -1 0 -4.479272e-01 -2.468921e-01 -7.109838e-01 4.826050e-01
125 2 4 -5.582635e+00 -1.180146e+01 -1.826120e+01 0 -1 0 3.621875e-01 5.190247e-01 -3.506949e-01 -6.902512e-01
126 2 2 -4.484776e+00 -1.169649e+01 -1.818112e+01 0 -1 0 -7.952078e-01 -5.681004e-01 1.516084e-01 1.480589e-01
127 2 4 -4.617878e+00 -1.161857e+01 -1.889273e+01 0 -1 0 -3.413474e-01 -5.494027e-01 3.093655e-02 7.620246e-01
128 2 4 -3.871313e+00 -1.133065e+01 -1.825658e+01 0 -1 0 -5.077756e-01 6.428675e-01 4.461867e-01 3.602815e-01
129 2 1 -2.884671e+00 -1.188976e+01 -1.916353e+01 0 -1 0 -6.223624e-01 1.027539e-01 -7.363246e-01 -2.448119e-01
130 2 2 -2.822180e+00 -1.156553e+01 -1.845676e+01 0 -1 0 4.533329e-01 2.320056e-02 7.510966e-01 -4.793797e-01
131 2 3 -2.113835e+00 -1.058587e+01 -1.782632e+01 0 -1 0 -1.231426e-01 8.842007e-01 -3.930122e-01 2.203778e-01
132 2 4 -1.701955e+00 -1.055759e+01 -1.806889e+01 0 -1 0 -2.536292e-01 6.740781e-01 -6.621985e-01 2.068431e-01
133 2 4 -1.518546e+00 -9.668868e+00 -1.805691e+01 0 -1 0 -1.068741e-01 6.693372e-01 3.611509e-01 -6.404184e-01
134 2 3 -5.955804e-01 -1.043966e+01 -1.813790e+01 0 -1 0 7.664071e-01 2.544674e-01 -5.626740e-01 -1.768176e-01
135 2 4 -3.500159e-01 -9.256795e+00 -1.849733e+01 0 -1 0 -8.261356e-01 -2.829219e-01 1.605530e-01 -4.600847e-01
136 2 3 -3.255968e-01 -8.421218e+00 -1.904891e+01 0 -1 0 5.868785e-01 -5.637320e-02 -5.366123e-02 8.059257e-01
137 2 1 -4.979212e-02 -8.644792e+00 -1.910621e+01 0 -1 0 9.659752e-01 -1.697418e-01 -1.166816e-01 -1.564132e-01
138 2 3 6.082223e-01 -8.496820e+00 -2.000630e+01 0 -1 0 -6.808357e-01 5.365879e-01 -2.990595e-01 -3.988729e-01
139 2 2 8.635123e-01 -8.158804e+00 -1.970094e+01 0 -1 0 -4.859591e-01 4.433949e-01 -3.594610e-01 -6.618403e-01
140 2 3 9.307521e-01 -7.651519e+00 -1.967576e+01 0 -1 0 -8.260196e-02 3.159632e-01 -4.941531e-01 -8.057027e-01
141 2 1 7.544066e-01 -7.637330e+00 -1.894959e+01 0 -1 0 -3.645273e-03 5.531234e-01 -1.436012e-01 -8.206216e-01
142 2 2 3.443319e-01 -7.364077e+00 -1.892556e+01 0 -1 0 -3.977986e-01 -4.268769e-01 3.454291e-01 7.349905e-01
143 2 4 4.148753e-02 -7.356365e+00 -1.908429e+01 0 -1 0 -3.042344e-01 2.063768e-01 -8.850211e-01 2.856355e-01
144 2 4 8.257316e-03 -6.150493e+00 -1.973414e+01 0 -1 0 7.600256e-02 -2.907756e-01 -2.786882e-01 -9.121437e-01
145 2 1 1.183443e+00 -6.138466e+00 -1.895577e+01 0 -1 0 1.166443e-01 7.631918e-01 -4.181918e-01 4.785896e-01
146 2 1 1.896282e-01 -6.039034e+00 -1.981250e+01 0 -1 0 2.370531e-01 -1.395095e-01 8.540970e-01 4.414308e-01
147 2 1 2.190667e-01 -5.363521e+00 -1.846169e+01 0 -1 0 -7.646293e-01 6.309288e-01 1.194530e-01 5.478939e-02
148 2 2 2.411228e-01 -5.085606e+00 -1.809352e+01 0 -1 0 7.326270e-01 -6.004943e-01 1.545540e-01 2.806730e-01
149 2 4 7.478162e-03 -4.808114e+00 -1.781123e+01 0 -1 0 5.258356e-01 4.534586e-02 5.089717e-01 6.799915e-01
150 2 1 2.319468e-01 -5.752280e+00 -1.711143e+01 0 -1 0 5.982605e-01 7.376807e-01 -2.136065e-01 -2.286567e-01
151 2 1 6.346200e-01 -6.117099e+00 -1.711348e+01 0 -1 0 9.052944e-01 5.917298e-02 -4.164607e-01 5.917028e-02
152 2 1 9.643022e-01 -5.696065e+00 -1.645984e+01 0 -1 0 -1.538633e-01 6.660293e-01 -6.343034e-01 3.610959e-01
153 2 4 6.142081e-01 -5.613647e+00 -1.608727e+01 0 -1 0 -3.488330e-01 2.637821e-01 6.433401e-01 6.283694e-01
154 2 1 1.542000e+00 -6.375126e+00 -1.543612e+01 0 -1 0 -9.193324e-01 2.245989e-01 1.574651e-01 2.821135e-01
155 2 2 1.505094e+00 -5.881600e+00 -1.636986e+01 0 -1 0 1.640025e-01 8.667141e-01 4.520173e-01 1.326281e-01
156 2 4 2.525721e+00 -6.087627e+00 -1.689335e+01 0 -1 0 7.063543e-01 4.371809e-01 9.563384e-02 5.484438e-01
157 2 3 2.909550e+00 -6.256909e+00 -1.680757e+01 0 -1 0 5.065448e-01 3.566528e-01 -2.519796e-01 7.434496e-01
158 2 2 3.009583e+00 -7.365544e+00 -1.680369e+01 0 -1 0 -1.177938e-01 -2.812992e-01 9.052941e-01 2.956992e-01
159 2 1 4.377401e+00 -6.929547e+00 -1.638589e+01 0 -1 0 8.693756e-01 -4.534803e-01 -7.149873e-02 1.828377e-01
160 2 3 4.448696e+00 -6.708548e+00 -1.594444e+01 0 -1 0 8.289335e-01 -4.001552e-01 7.477111e-02 3.836070e-01
161 2 1 3.854290e+00 -6.478325e+00 -1.500194e+01 0 -1 0 -3.981131e-01 3.970744e-01 1.867225e-02 8.267340e-01
162 2 1 4.582001e+00 -6.802123e+00 -1.420021e+01 0 -1 0 -5.995338e-01 7.358311e-02 6.992119e-01 -3.824231e-01
163 2 4 4.301066e+00 -6.995219e+00 -1.385583e+01 0 -1 0 5.011224e-01 -1.736774e-01 -5.130590e-01 6.748948e-01
164 2 4 4.024756e+00 -7.004036e+00 -1.345059e+01 0 -1 0 1.204408e-01 -4.025438e-01 -2.890371e-01 8.601803e-01
165 2 3 3.910449e+00 -6.840297e+00 -1.251550e+01 0 -1 0 -4.150625e-01 8.729337e-01 2.409383e-01 8.751370e-02
166 2 3 4.101592e+00 -6.458199e+00 -1.208819e+01 0 -1 0 -2.180266e-01 -3.794896e-01 4.471957e-01 -7.800436e-01
167 2 4 4.072226e+00 -5.641609e+00 -1.267764e+01 0 -1 0 -3.854768e-01 -8.259837e-01 -3.217998e-01 2.561315e-01
168 2 2 3.546363e+00 -5.177144e+00 -1.242120e+01 0 -1 0 -7.588378e-02 -2.409984e-01 -8.573725e-01 4.484125e-01
169 2 2 3.934745e+00 -4.153420e+00 -1.239570e+01 0 -1 0 -1.632444e-01 9.727467e-01 9.007036e-02 -1.378493e-01
170 2 1 3.357140e+00 -4.482918e+00 -1.143964e+01 0 -1 0 -3.623998e-01 6.815629e-01 5.724590e-01 -2.764582e-01
171 2 1 3.765496e+00 -4.418697e+00 -1.129933e+01 0 -1 0 3.661287e-01 9.223220e-01 -5.456464e-02 -1.108810e-01
172 2 4 2.853234e+00 -5.184453e+00 -1.125939e+01 0 -1 0 3.640451e-02 4.734214e-01 7.707167e-01 4.249030e-01
173 2 4 2.742879e+00 -6.253474e+00 -1.159086e+01 0 -1 0 5.220390e-01 -1.579863e-01 8.206138e-01 1.706128e-01
174 2 1 3.289853e+00 -5.581510e+00 -1.033911e+01 0 -1 0 -2.483289e-01 -7.508884e-01 2.195027e-02 -6.115698e-01
175 2 1 3.698872e+00 -6.665622e+00 -1.035301e+01 0 -1 0 6.072693e-01 2.862999e-02 -7.786673e-01 1.551822e-01
176 2 2 3.958760e+00 -7.654322e+00 -1.101353e+01 0 -1 0 8.938085e-01 2.359974e-01 -3.292048e-01 -1.924468e-01
177 2 2 3.872950e+00 -8.009320e+00 -1.066906e+01 0 -1 0 8.401636e-01 -1.250582e-01 -3.728767e-01 3.734280e-01
178 2 1 2.850001e+00 -8.910254e+00 -1.106332e+01 0 -1 0 -8.704167e-01 2.239036e-01 2.141902e-01 3.825762e-01
179 2 4 2.372170e+00 -8.796249e+00 -1.198746e+01 0 -1 0 9.298055e-01 8.707607e-02 3.525293e-01 -6.002120e-02
180 2 1 2.806161e+00 -9.118207e+00 -1.179472e+01 0 -1 0 -8.171908e-01 -2.761094e-01 -3.631024e-01 -3.523058e-01
181 2 4 3.246038e+00 -9.296041e+00 -1.171104e+01 0 -1 0 6.991868e-01 3.837428e-01 4.392746e-01 4.134213e-01
182 2 2 3.687279e+00 -9.451227e+00 -1.197717e+01 0 -1 0 -4.595296e-01 -6.084659e-01 -3.199673e-01 -5.623369e-01
183 2 3 4.094653e+00 -1.059242e+01 -1.167792e+01 0 -1 0 2.766195e-01 -4.872717e-01 6.040581e-01 -5.667114e-01
184 2 4 4.634328e+00 -1.085263e+01 -1.151863e+01 0 -1 0 3.740423e-01 -1.667156e-01 7.983886e-01 -4.414453e-01
185 2 3 4.942426e+00 -1.114109e+01 -1.145508e+01 0 -1 0 -5.353174e-01 -1.195219e-01 -7.890186e-01 2.767662e-01
186 2 1 6.319080e+00 -1.066781e+01 -1.185830e+01 0 -1 0 -1.148515e-01 -9.274425e-01 3.455429e-01 8.520337e-02
187 2 1 5.859630e+00 -1.046463e+01 -1.070169e+01 0 -1 0 -7.456400e-01 4.816396e-01 1.638753e-01 4.303360e-01
188 2 2 6.051031e+00 -9.929415e+00 -1.038802e+01 0 -1 0 -7.800440e-01 4.506821e-01 3.126256e-02 4.329430e-01
189 2 4 6.468399e+00 -9.446779e+00 -9.881224e+00 0 -1 0 4.053905e-01 -8.229592e-01 -2.622079e-01 2.994056e-01
190 2 4 5.973902e+00 -9.010202e+00 -9.485086e+00 0 -1 0 -3.600711e-01 7.937597e-01 3.838339e-01 -3.049030e-01
191 2 1 5.908118e+00 -9.748384e+00 -9.336720e+00 0 -1 0 -4.137334e-01 -2.058946e-01 9.479919e-02 -8.817285e-01
192 2 4 5.295321e+00 -1.110076e+01 -9.288792e+00 0 -1 0 6.742810e-01 4.809170e-02 -7.088074e-01 -2.015549e-01
193 2 4 4.771918e+00 -1.066635e+01 -9.879302e+00 0 -1 0 -7.296939e-01 -2.331028e-01 3.456506e-01 5.419737e-01
194 2 1 4.447004e+00 -1.079310e+01 -1.008899e+01 0 -1 0 -3.885018e-01 -6.484404e-01 -3.505547e-01 5.529040e-01
195 2 3 4.165537e+00 -1.126793e+01 -8.760949e+00 0 -1 0 3.404305e-01 -2.994257e-01 -8.269046e-01 3.326862e-01
196 2 4 3.718079e+00 -1.142674e+01 -8.716346e+00 0 -1 0 -4.449600e-03 6.567525e-01 5.941027e-01 -4.644333e-01
197 2 2 4.068989e+00 -1.202120e+01 -8.122674e+00 0 -1 0 -3.984770e-01 8.114755e-01 2.744684e-01 -3.277052e-01
198 2 4 4.434348e+00 -1.244710e+01 -7.256813e+00 0 -1 0 3.653134e-01 -9.084474e-01 -5.498595e-02 -1.955657e-01
199 2 3 3.635944e+00 -1.269870e+01 -7.158072e+00 0 -1 0 7.374757e-01 4.119863e-02 -3.674484e-01 -5.651672e-01
200 2 4 3.730042e+00 -1.183483e+01 -7.427620e+00 0 -1 0 -8.066856e-01 7.334860e-02 -2.640552e-01 -5.235963e-01
