ITEM: TIMESTEP
39000000
ITEM: NUMBER OF ATOMS
200
ITEM: BOX BOUNDS pp pp pp
-2.0000000000000000e+01 2.0000000000000000e+01
-2.0000000000000000e+01 2.0000000000000000e+01
-2.0000000000000000e+01 2.0000000000000000e+01
ITEM: ATOMS id mol type x y z ix iy iz c_quat[1] c_quat[2] c_quat[3] c_quat[4]
1 1 1 1.364639e+01 9.923672e+00 1.382328e+01 -1 -1 0 6.604595e-01 -6.359515e-02 -5.295444e-01 -5.285184e-01
2 1 2 1.403275e+01 1.067582e+01 1.289104e+01 -1 -1 0 2.576329e-02 -2.069182e-01 1.409301e-01 9.678119e-01
3 1 1 1.500840e+01 9.650717e+00 1.262118e+01 -1 -1 0 8.668296e-01 2.549273e-01 -4.008413e-01 1.514749e-01
4 1 3 1.524551e+01 1.059284e+01 1.167593e+01 -1 -1 0 -1.921259e-01 5.750279e-01 -1.518678e-01 -7.806195e-01
5 1 1 1.487467e+01 1.094482e+01 1.097626e+01 -1 -1 0 -2.447437e-01 1.166567e-01 -2.932433e-01 -9.167879e-01
6 1 2 1.587041e+01 1.085903e+01 1.063724e+01 -1 -1 0 8.176166e-01 5.364606e-02 6.563883e-02 5.694881e-01
7 1 4 1.620605e+01 1.093471e+01 1.107328e+01 -1 -1 0 -5.471022e-01 2.479484e-02 -1.676272e-01 -8.197350e-01
8 1 1 1.642358e+01 1.127950e+01 1.134153e+01 -1 -1 0 1.094488e-01 1.360500e-01 2.739127e-01 9.457712e-01
9 1 1 1.641328e+01 1.173647e+01 1.160626e+01 -1 -1 0 3.125069e-01 -1.699312e-01 -1.495797e-01 -9.225447e-01
10 1 4 1.782753e+01 1.169123e+01 1.090368e+01 -1 -1 0 3.207863e-01 9.437925e-01 5.145160e-02 6.086514e-02
11 1 1 1.799096e+01 1.089049e+01 1.107813e+01 -1 -1 0 1.592805e-01 -4.087197e-01 6.220155e-01 -6.485944e-01
12 1 1 1.835248e+01 1.055762e+01 1.121185e+01 -1 -1 0 3.220727e-01 -1.423364e-01 7.361223e-01 -5.780428e-01
13 1 3 1.819911e+01 1.061455e+01 1.178503e+01 -1 -1 0 -7.621445e-01 2.295915e-01 -1.902672e-01 5.746494e-01
14 1 4 1.849242e+01 1.174939e+01 1.111905e+01 -1 -1 0 -1.642738e-02 -4.539411e-01 -6.732711e-01 -5.834155e-01
15 1 4 1.855828e+01 1.212867e+01 1.083768e+01 -1 -1 0 2.083921e-01 -7.070584e-01 -3.247838e-01 -5.925847e-01
16 1 2 1.863587e+01 1.272711e+01 1.081032e+01 -1 -1 0 3.530696e-01 -7.864032e-01 1.364710e-02 -5.066811e-01
17 1 1 1.894008e+01 1.310266e+01 1.099128e+01 -1 -1 0 -5.301187e-01 7.047482e-01 -2.903137e-01 3.715132e-01
18 1 2 1.928118e+01 1.337882e+01 1.122997e+01 -1 -1 0 -7.200609e-01 5.114443e-01 -4.242977e-01 1.997710e-01
19 1 3 1.973583e+01 1.352315e+01 1.146370e+01 -1 -1 0 -7.412174e-01 3.595875e-01 -5.460737e-01 1.519773e-01
20 1 1 -1.962371e+01 1.342527e+01 1.150937e+01 0 -1 0 -5.849534e-01 2.321697e-01 -7.477054e-01 -2.118098e-01
21 1 4 -1.914974e+01 1.342734e+01 1.120547e+01 0 -1 0 4.478609e-01 -5.977277e-03 8.145131e-01 3.687185e-01
22 1 1 -1.869118e+01 1.357285e+01 1.080720e+01 0 -1 0 3.385962e-01 1.161020e-01 8.135717e-01 4.582293e-01
23 1 4 -1.853019e+01 1.377101e+01 1.030647e+01 0 -1 0 5.049013e-02 3.838190e-01 7.864525e-01 4.812756e-01
24 1 3 -1.864753e+01 1.399875e+01 9.862407e+00 0 -1 0 -1.014727e-01 6.717294e-01 5.843179e-01 4.439094e-01
25 1 3 -1.880867e+01 1.450532e+01 9.598423e+00 0 -1 0 -3.404672e-01 7.575800e-01 4.390870e-01 3.425744e-01
26 1 4 -1.887202e+01 1.507350e+01 9.496060e+00 0 -1 0 -3.397496e-01 8.742683e-01 1.018196e-01 3.314483e-01
27 1 4 -1.864936e+01 1.561001e+01 9.468151e+00 0 -1 0 -4.722683e-01 8.254213e-01 -2.155395e-01 2.217771e-01
28 1 1 -1.815512e+01 1.595788e+01 9.445947e+00 0 -1 0 -4.103656e-01 7.439041e-01 -5.076469e-01 1.431833e-01
29 1 1 -1.771907e+01 1.616212e+01 9.307066e+00 0 -1 0 -4.365507e-01 5.935602e-01 -6.597009e-01 1.480017e-01
30 1 4 -1.722903e+01 1.615275e+01 9.283545e+00 0 -1 0 4.367465e-01 -3.159849e-01 8.400804e-01 6.058848e-02
31 1 4 -1.680877e+01 1.613540e+01 8.943848e+00 0 -1 0 3.948293e-01 -9.240778e-02 9.122492e-01 5.806825e-02
32 1 3 -1.661673e+01 1.581736e+01 8.544348e+00 0 -1 0 3.799953e-01 2.437741e-01 8.878089e-01 8.929229e-02
33 1 3 -1.649048e+01 1.550270e+01 8.147160e+00 0 -1 0 3.278067e-01 4.734853e-01 8.092270e-01 1.162157e-01
34 1 1 -1.624180e+01 1.545189e+01 7.669578e+00 0 -1 0 2.632595e-01 5.664813e-01 7.506475e-01 2.152247e-01
35 1 2 -1.622105e+01 1.560682e+01 7.098074e+00 0 -1 0 1.695479e-01 7.994142e-01 4.642349e-01 3.415793e-01
36 1 2 -1.608266e+01 1.591343e+01 6.661834e+00 0 -1 0 3.931110e-03 9.038105e-01 2.211726e-01 3.663247e-01
37 1 1 -1.581374e+01 1.624957e+01 6.358858e+00 0 -1 0 -1.086738e-01 9.050964e-01 -1.611593e-01 3.781775e-01
38 1 1 -1.539557e+01 1.657157e+01 6.263103e+00 0 -1 0 -3.015262e-01 7.988994e-01 -3.806671e-01 3.548721e-01
39 1 4 -1.483687e+01 1.668508e+01 6.160057e+00 0 -1 0 3.513479e-01 -6.494683e-01 5.303818e-01 -4.164621e-01
40 1 4 -1.426036e+01 1.657989e+01 6.130734e+00 0 -1 0 3.529439e-01 -4.033686e-01 7.736200e-01 -3.379888e-01
41 1 2 -1.383318e+01 1.634412e+01 5.850468e+00 0 -1 0 3.075063e-01 -1.505021e-01 8.568828e-01 -3.854100e-01
42 1 4 -1.355092e+01 1.592790e+01 5.735911e+00 0 -1 0 3.569232e-01 6.091376e-02 8.284341e-01 -4.273082e-01
43 1 3 -1.343712e+01 1.541394e+01 5.440416e+00 0 -1 0 3.244470e-01 2.978300e-01 8.728416e-01 -2.101877e-01
44 1 2 -1.361714e+01 1.504574e+01 5.094672e+00 0 -1 0 3.587135e-01 6.581642e-01 6.445405e-01 -1.507054e-01
45 1 1 -1.382951e+01 1.485735e+01 4.657567e+00 0 -1 0 3.211361e-01 8.253002e-01 4.533104e-01 -1.012960e-01
46 1 3 -1.395513e+01 1.479270e+01 4.075482e+00 0 -1 0 1.325399e-01 9.664136e-01 2.200720e-01 6.795455e-03
47 1 4 -1.394654e+01 1.489193e+01 3.544009e+00 0 -1 0 1.059548e-01 9.858642e-01 -7.789356e-02 1.038172e-01
48 1 1 -1.375630e+01 1.497418e+01 3.047530e+00 0 -1 0 -6.526918e-02 -9.497788e-01 2.686736e-01 -1.465423e-01
49 1 4 -1.345171e+01 1.501794e+01 2.615326e+00 0 -1 0 -5.264488e-02 -8.218372e-01 5.083126e-01 -2.518540e-01
50 1 4 -1.308325e+01 1.484749e+01 2.292824e+00 0 -1 0 -3.462456e-02 -6.696701e-01 5.946761e-01 -4.435126e-01
51 1 4 -1.269381e+01 1.454348e+01 2.245829e+00 0 -1 0 8.651731e-02 -3.587442e-01 8.716310e-01 -3.226093e-01
52 1 1 -1.245722e+01 1.406473e+01 2.001256e+00 0 -1 0 8.905935e-02 -4.515250e-02 9.592397e-01 -2.643650e-01
53 1 3 -1.250785e+01 1.363458e+01 1.717548e+00 0 -1 0 1.082629e-01 3.325863e-01 9.135315e-01 -2.076671e-01
54 1 4 -1.267677e+01 1.325810e+01 1.403214e+00 0 -1 0 1.552782e-01 6.259024e-01 7.594848e-01 -8.554346e-02
55 1 4 -1.284247e+01 1.315804e+01 9.209175e-01 0 -1 0 8.068314e-02 7.726451e-01 6.284632e-01 -3.929212e-02
56 1 4 -1.304399e+01 1.323595e+01 4.395985e-01 0 -1 0 -4.511957e-02 8.915671e-01 4.486761e-01 -4.197705e-02
57 1 1 -1.316753e+01 1.338474e+01 -2.440864e-02 0 -1 0 -1.434062e-01 9.523475e-01 2.690970e-01 -7.469683e-03
58 1 1 -1.327072e+01 1.380374e+01 -3.119490e-01 0 -1 0 -1.298913e-01 9.756807e-01 -1.636256e-01 -6.634888e-02
59 1 3 -1.316004e+01 1.412369e+01 -7.600803e-01 0 -1 0 1.068074e-01 -9.029956e-01 4.153061e-01 -2.668171e-02
60 1 4 -1.278340e+01 1.437146e+01 -1.127541e+00 0 -1 0 9.747441e-02 -7.300580e-01 6.763538e-01 -7.719483e-03
61 1 2 -1.244033e+01 1.441895e+01 -1.458527e+00 0 -1 0 6.735074e-02 -4.327455e-01 8.924501e-01 1.082961e-01
62 1 3 -1.226217e+01 1.441951e+01 -2.041274e+00 0 -1 0 3.865089e-02 -3.048843e-01 9.512088e-01 2.745175e-02
63 1 2 -1.223939e+01 1.422414e+01 -2.612569e+00 0 -1 0 -7.937277e-02 -1.607152e-01 9.827226e-01 -4.611844e-02
64 1 4 -1.235332e+01 1.390311e+01 -2.976557e+00 0 -1 0 -9.859945e-02 2.814871e-01 9.514508e-01 -7.605563e-02
65 1 2 -1.263815e+01 1.367116e+01 -3.414818e+00 0 -1 0 -1.145105e-01 4.790109e-01 8.576603e-01 -1.478333e-01
66 1 1 -1.302851e+01 1.362539e+01 -3.776754e+00 0 -1 0 -1.845808e-01 7.399149e-01 6.338083e-01 -1.293943e-01
67 1 2 -1.335206e+01 1.362749e+01 -4.275524e+00 0 -1 0 -2.776650e-01 8.195710e-01 4.960841e-01 -7.145670e-02
68 1 1 -1.359802e+01 1.404116e+01 -4.699044e+00 0 -1 0 -2.669415e-01 9.380661e-01 2.202491e-01 1.626424e-02
69 1 1 -1.358039e+01 1.446939e+01 -4.982099e+00 0 -1 0 -3.767439e-01 9.240289e-01 -6.425607e-02 1.028846e-02
70 1 2 -1.343440e+01 1.492386e+01 -5.182422e+00 0 -1 0 3.583208e-01 -8.531124e-01 3.739321e-01 6.308929e-02
71 1 3 -1.310494e+01 1.520350e+01 -5.408509e+00 0 -1 0 3.810444e-01 -6.464812e-01 6.572599e-01 6.983356e-02
72 1 4 -1.276567e+01 1.542242e+01 -5.672054e+00 0 -1 0 3.414072e-01 -4.793820e-01 8.082702e-01 1.825707e-02
73 1 1 -1.237042e+01 1.540133e+01 -5.987499e+00 0 -1 0 2.413736e-01 -2.378969e-01 9.102609e-01 2.378423e-01
74 1 1 -1.212242e+01 1.541923e+01 -6.486576e+00 0 -1 0 1.179814e-01 2.061369e-02 9.738181e-01 1.932195e-01
75 1 3 -1.208372e+01 1.532802e+01 -7.042138e+00 0 -1 0 -4.882500e-03 2.439573e-01 9.575181e-01 1.536882e-01
76 1 1 -1.242276e+01 1.526500e+01 -7.542465e+00 0 -1 0 -1.027026e-01 5.701641e-01 7.998655e-01 1.567808e-01
77 1 4 -1.275859e+01 1.544398e+01 -7.961130e+00 0 -1 0 -2.242443e-01 7.460308e-01 6.217355e-01 8.122484e-02
78 1 1 -1.310216e+01 1.571309e+01 -8.219566e+00 0 -1 0 -2.164709e-01 9.010168e-01 3.758167e-01 8.412502e-03
79 1 4 -1.328625e+01 1.620709e+01 -8.375395e+00 0 -1 0 -2.676272e-01 9.545954e-01 5.290413e-02 -1.196844e-01
80 1 2 -1.330287e+01 1.677058e+01 -8.600928e+00 0 -1 0 2.915367e-01 -9.204506e-01 2.312006e-01 1.196801e-01
81 1 4 -1.312634e+01 1.727043e+01 -8.716163e+00 0 -1 0 3.586810e-01 -8.061682e-01 4.574342e-01 1.104292e-01
82 1 4 -1.269373e+01 1.769930e+01 -8.965841e+00 0 -1 0 2.186388e-01 -6.472593e-01 7.107108e-01 1.677577e-01
83 1 4 -1.241303e+01 1.783897e+01 -9.390104e+00 0 -1 0 1.128565e-01 -2.501840e-01 9.171831e-01 2.888710e-01
84 1 4 -1.233330e+01 1.789430e+01 -9.811008e+00 0 -1 0 2.454112e-02 1.526963e-01 9.527905e-01 2.612888e-01
85 1 1 -1.249356e+01 1.782897e+01 -1.024764e+01 0 -1 0 8.104238e-02 -4.796744e-01 -8.666507e-01 -1.107303e-01
86 1 1 -1.268153e+01 1.797919e+01 -1.068681e+01 0 -1 0 1.247396e-01 -7.828104e-01 -5.782177e-01 -1.931637e-01
87 1 3 -1.173786e+01 1.715898e+01 -1.161995e+01 0 -1 0 -5.342553e-01 3.927860e-01 -7.422642e-01 -9.661400e-02
88 1 2 -1.115439e+01 1.679875e+01 -1.190797e+01 0 -1 0 3.581330e-01 8.171418e-01 -3.656921e-01 -2.651213e-01
89 1 2 -1.140996e+01 1.634820e+01 -1.192626e+01 0 -1 0 6.846293e-01 -4.437253e-01 2.355855e-01 -5.281004e-01
90 1 3 -1.230526e+01 1.726802e+01 -1.294391e+01 0 -1 0 1.427755e-01 5.307065e-01 7.670974e-01 3.309492e-01
91 1 3 -1.234298e+01 1.740327e+01 -1.359131e+01 0 -1 0 -4.483216e-01 2.341786e-01 -3.121499e-01 -8.041956e-01
92 1 2 -1.222396e+01 1.790612e+01 -1.354964e+01 0 -1 0 1.061760e-01 -7.249431e-02 4.626154e-01 8.771877e-01
93 1 1 -1.225855e+01 1.840123e+01 -1.348926e+01 0 -1 0 2.320602e-01 -7.002161e-02 -5.252072e-01 -8.157220e-01
94 1 2 -1.218689e+01 1.940639e+01 -1.266537e+01 0 -1 0 -2.972721e-01 7.252373e-01 4.222785e-01 4.553471e-01
95 1 3 -1.124682e+01 1.882290e+01 -1.362949e+01 0 -1 0 -4.020972e-01 2.248728e-01 -8.422061e-01 -2.800696e-01
96 1 2 -1.079942e+01 1.943382e+01 -1.229436e+01 0 -1 0 1.466216e-01 4.577235e-01 -4.608969e-01 7.460331e-01
97 1 2 -1.005444e+01 1.942671e+01 -1.333978e+01 0 -1 0 1.335298e-01 9.659784e-01 -1.371829e-01 1.738862e-01
98 1 4 -9.985497e+00 1.932493e+01 -1.393953e+01 0 -1 0 -6.138749e-02 -9.613400e-01 2.573789e-02 -2.671976e-01
99 1 2 -1.016704e+01 1.829084e+01 -1.352392e+01 0 -1 0 4.784601e-01 -4.830026e-01 -7.332095e-01 -1.372294e-02
100 1 1 -9.348158e+00 1.821309e+01 -1.471085e+01 0 -1 0 8.443907e-01 4.180438e-01 -1.721693e-01 -2.874047e-01
101 2 4 -1.307451e+01 -1.837614e+01 -7.404072e+00 0 0 0 9.648104e-03 -6.797910e-01 -6.678562e-01 3.029178e-01
102 2 3 -1.224417e+01 -1.837254e+01 -7.452755e+00 0 0 0 9.939613e-01 -1.079154e-01 -7.554764e-03 -1.839055e-02
103 2 1 -1.202217e+01 -1.816756e+01 -8.481230e+00 0 0 0 -3.314499e-01 -6.984166e-01 5.925677e-01 2.263155e-01
104 2 3 -1.211289e+01 -1.836517e+01 -8.902412e+00 0 0 0 -3.937557e-01 -3.454334e-01 8.416454e-01 1.313974e-01
105 2 3 -1.297691e+01 -1.832850e+01 -8.573279e+00 0 0 0 -7.897851e-01 2.445908e-01 2.220910e-01 5.168079e-01
106 2 2 -1.359062e+01 -1.878319e+01 -9.138827e+00 0 0 0 -7.514694e-01 -1.870116e-01 9.047058e-02 6.262072e-01
107 2 3 -1.332939e+01 -1.939847e+01 -9.836217e+00 0 0 0 8.356180e-01 3.644621e-01 1.067012e-01 -3.968939e-01
108 2 4 -1.346446e+01 -1.984643e+01 -9.813671e+00 0 0 0 -9.361659e-01 -2.905245e-01 1.822095e-01 -7.738556e-02
109 2 3 -1.390408e+01 -1.963117e+01 -1.020356e+01 0 0 0 7.994139e-02 1.548758e-01 8.339764e-01 -5.235515e-01
110 2 2 -1.257492e+01 -1.952386e+01 -1.058638e+01 0 0 0 6.746785e-01 -7.221708e-01 -3.521722e-02 1.484523e-01
111 2 2 -1.340812e+01 -1.921637e+01 -1.141107e+01 0 0 0 -6.425777e-01 -6.682710e-01 1.307546e-01 3.512991e-01
112 2 3 -1.372480e+01 -1.971255e+01 -1.151236e+01 0 0 0 8.934397e-01 3.665745e-01 -2.366546e-01 1.066927e-01
113 2 3 -1.330942e+01 -1.954976e+01 -1.175014e+01 0 0 0 -3.740942e-01 6.283275e-01 -7.690362e-02 -6.777492e-01
114 2 2 -1.379746e+01 1.978526e+01 -1.091391e+01 0 -1 0 -4.774046e-01 -6.394579e-02 3.492185e-01 -8.037675e-01
115 2 4 -1.355644e+01 1.863674e+01 -1.101934e+01 0 -1 0 9.271303e-01 2.303197e-01 -2.303071e-02 2.947065e-01
116 2 4 -1.333272e+01 1.830242e+01 -1.078143e+01 0 -1 0 7.779568e-01 2.304748e-01 -5.149780e-02 5.822479e-01
117 2 1 -1.433028e+01 1.751678e+01 -1.087768e+01 0 -1 0 6.517855e-01 4.852902e-01 5.510471e-01 -1.897795e-01
118 2 1 -1.381227e+01 1.721968e+01 -1.057293e+01 0 -1 0 1.658658e-01 5.767578e-01 -1.986420e-01 -7.748421e-01
119 2 1 -1.277394e+01 1.679629e+01 -9.781243e+00 0 -1 0 7.016686e-01 2.992344e-01 -2.733401e-01 5.860078e-01
120 2 1 -1.254207e+01 1.648198e+01 -9.441259e+00 0 -1 0 5.126383e-01 2.265319e-01 -2.532657e-01 7.885060e-01
121 2 3 -1.229134e+01 1.635419e+01 -9.069474e+00 0 -1 0 -2.442784e-01 -1.677176e-01 2.540346e-01 -9.206874e-01
122 2 1 -1.212533e+01 1.627961e+01 -8.575471e+00 0 -1 0 -1.806649e-02 -3.914978e-02 1.455425e-01 -9.884120e-01
123 2 4 -1.219457e+01 1.649364e+01 -8.114039e+00 0 -1 0 3.533874e-01 4.060829e-03 9.262968e-02 -9.308709e-01
124 2 1 -1.243104e+01 1.648417e+01 -7.516446e+00 0 -1 0 5.463627e-01 1.676556e-01 7.385281e-02 -8.172669e-01
125 2 4 -1.277039e+01 1.632318e+01 -7.163243e+00 0 -1 0 7.834373e-01 1.929745e-01 6.100672e-02 -5.875926e-01
126 2 2 -1.304502e+01 1.602081e+01 -6.862323e+00 0 -1 0 8.704193e-01 3.469930e-01 -3.569527e-02 -3.474074e-01
127 2 4 -1.325583e+01 1.553165e+01 -6.871702e+00 0 -1 0 8.938089e-01 3.968712e-01 -2.086622e-01 7.684147e-03
128 2 4 -1.324795e+01 1.499275e+01 -6.688182e+00 0 -1 0 8.616823e-01 3.651472e-01 -1.592672e-01 3.143328e-01
129 2 1 -1.311006e+01 1.450401e+01 -6.394724e+00 0 -1 0 7.546612e-01 2.793960e-01 -1.708707e-01 5.685311e-01
130 2 2 -1.282444e+01 1.428082e+01 -6.062399e+00 0 -1 0 5.347436e-01 1.523242e-01 -2.165099e-01 8.024775e-01
131 2 3 -1.255842e+01 1.417546e+01 -5.493943e+00 0 -1 0 4.208106e-01 1.911632e-02 -1.321665e-01 8.972653e-01
132 2 4 -1.240205e+01 1.426069e+01 -5.008296e+00 0 -1 0 -1.245670e-01 1.434668e-02 1.055488e-01 -9.864769e-01
133 2 4 -1.247746e+01 1.446996e+01 -4.613471e+00 0 -1 0 2.085809e-01 1.840134e-02 2.132141e-02 -9.775995e-01
134 2 3 -1.276399e+01 1.472784e+01 -4.210637e+00 0 -1 0 5.329495e-01 1.630965e-02 1.788806e-02 -8.458007e-01
135 2 4 -1.307831e+01 1.483415e+01 -3.785874e+00 0 -1 0 -7.589394e-01 -5.842792e-03 9.584513e-03 6.510645e-01
136 2 3 -1.328493e+01 1.464001e+01 -3.258041e+00 0 -1 0 -8.926653e-01 -7.201455e-02 -4.591434e-03 4.449061e-01
137 2 1 -1.339425e+01 1.449272e+01 -2.702500e+00 0 -1 0 9.279328e-01 1.684561e-01 1.212112e-01 -3.096307e-01
138 2 3 -1.345595e+01 1.405820e+01 -2.465104e+00 0 -1 0 9.873543e-01 1.407624e-01 3.647815e-02 6.314070e-02
139 2 2 -1.327806e+01 1.369442e+01 -2.125914e+00 0 -1 0 9.126225e-01 2.701215e-01 8.211140e-02 2.956558e-01
140 2 3 -1.297473e+01 1.338894e+01 -1.838007e+00 0 -1 0 7.458179e-01 3.327733e-01 1.750259e-02 5.768113e-01
141 2 1 -1.265085e+01 1.318496e+01 -1.283919e+00 0 -1 0 6.975921e-01 1.312160e-01 -6.773650e-03 7.043449e-01
142 2 2 -1.231800e+01 1.321624e+01 -8.523928e-01 0 -1 0 3.791454e-01 4.658670e-02 -2.849155e-02 9.237243e-01
143 2 4 -1.210143e+01 1.354779e+01 -3.919353e-01 0 -1 0 -1.089484e-01 -2.970794e-02 3.083935e-02 -9.931247e-01
144 2 4 -1.211901e+01 1.389036e+01 3.433193e-02 0 -1 0 -1.287453e-01 -4.257323e-03 3.463611e-02 9.910635e-01
145 2 1 -1.233658e+01 1.416681e+01 3.877276e-01 0 -1 0 -4.626902e-01 -3.274485e-02 1.179769e-01 8.780245e-01
146 2 1 -1.264492e+01 1.431362e+01 7.657337e-01 0 -1 0 -6.274463e-01 -1.527922e-01 2.491663e-01 7.217214e-01
147 2 1 -1.312087e+01 1.430289e+01 1.052908e+00 0 -1 0 -8.701457e-01 -6.728040e-02 1.591616e-01 4.615056e-01
148 2 2 -1.342453e+01 1.410258e+01 1.223124e+00 0 -1 0 -9.518449e-01 1.562225e-02 2.859909e-01 1.093457e-01
149 2 4 -1.365585e+01 1.396573e+01 1.805041e+00 0 -1 0 9.913278e-01 -9.601193e-02 -8.817035e-02 1.664116e-02
150 2 1 -1.357481e+01 1.375806e+01 2.254787e+00 0 -1 0 9.118227e-01 -7.542657e-02 -4.487290e-02 4.010942e-01
151 2 1 -1.340251e+01 1.372760e+01 2.744033e+00 0 -1 0 7.814854e-01 -8.575293e-02 8.244866e-02 6.124779e-01
152 2 1 -1.317172e+01 1.398723e+01 3.190022e+00 0 -1 0 6.780391e-01 -1.324906e-01 2.214089e-01 6.882495e-01
153 2 4 -1.284796e+01 1.432285e+01 3.459097e+00 0 -1 0 3.155299e-01 -6.949208e-02 2.065375e-01 9.235551e-01
154 2 1 -1.275925e+01 1.480686e+01 3.770013e+00 0 -1 0 1.282337e-02 -5.579736e-02 1.764529e-01 9.826427e-01
155 2 2 -1.288867e+01 1.532569e+01 4.014514e+00 0 -1 0 -2.900827e-01 3.627823e-06 3.192186e-01 9.021926e-01
156 2 4 -1.319012e+01 1.579190e+01 4.233633e+00 0 -1 0 -5.079686e-01 -1.965832e-02 2.675266e-01 8.185420e-01
157 2 3 -1.360848e+01 1.600971e+01 4.482661e+00 0 -1 0 -7.530213e-01 -1.059582e-03 2.784935e-01 5.961536e-01
158 2 2 -1.409277e+01 1.603753e+01 4.633318e+00 0 -1 0 -8.743100e-01 1.215869e-03 3.863958e-01 2.937327e-01
159 2 1 -1.439231e+01 1.581942e+01 4.949103e+00 0 -1 0 -9.037382e-01 1.339498e-01 4.027423e-01 -5.579803e-02
160 2 3 -1.464249e+01 1.567972e+01 5.380677e+00 0 -1 0 9.156374e-01 -1.231167e-01 -2.414132e-01 2.969343e-01
161 2 1 -1.476142e+01 1.553544e+01 5.866680e+00 0 -1 0 8.372078e-01 -1.643830e-01 -1.717260e-01 4.925155e-01
162 2 1 -1.473043e+01 1.547029e+01 6.333537e+00 0 -1 0 5.989978e-01 -2.577213e-01 -1.990511e-01 7.315463e-01
163 2 4 -1.471461e+01 1.566934e+01 6.762040e+00 0 -1 0 3.365365e-01 -2.431319e-01 -4.631698e-02 9.085619e-01
164 2 4 -1.496588e+01 1.592097e+01 7.224226e+00 0 -1 0 8.559074e-02 -3.848955e-01 -1.297261e-02 9.188914e-01
165 2 3 -1.534342e+01 1.624419e+01 7.484065e+00 0 -1 0 -1.096181e-01 -4.121994e-01 9.388394e-02 8.995895e-01
166 2 3 -1.576100e+01 1.655108e+01 7.634337e+00 0 -1 0 -3.973463e-01 -3.949697e-01 2.286379e-01 7.961404e-01
167 2 4 -1.636860e+01 1.664061e+01 7.604013e+00 0 -1 0 -6.202662e-01 -3.242225e-01 3.055226e-01 6.456048e-01
168 2 2 -1.690972e+01 1.654942e+01 7.642357e+00 0 -1 0 -8.061675e-01 -2.042629e-01 3.923095e-01 3.930189e-01
169 2 2 -1.734516e+01 1.630821e+01 7.771627e+00 0 -1 0 -8.908078e-01 -1.710973e-01 4.205868e-01 1.714496e-02
170 2 1 -1.768957e+01 1.605092e+01 8.074520e+00 0 -1 0 -8.641302e-01 -2.404990e-01 3.825691e-01 -2.215403e-01
171 2 1 -1.776741e+01 1.556965e+01 8.360518e+00 0 -1 0 8.158807e-01 1.666806e-01 -3.379892e-01 4.385426e-01
172 2 4 -1.763989e+01 1.513569e+01 8.666530e+00 0 -1 0 6.886362e-01 3.916294e-02 -3.704250e-01 6.221188e-01
173 2 4 -1.774345e+01 1.490484e+01 9.188994e+00 0 -1 0 5.897286e-01 -1.103798e-01 -3.048963e-01 7.396451e-01
174 2 1 -1.779710e+01 1.486067e+01 9.714059e+00 0 -1 0 2.566078e-01 -2.612075e-01 -2.441007e-01 8.979632e-01
175 2 1 -1.798488e+01 1.498378e+01 1.023508e+01 0 -1 0 8.114045e-03 -3.312339e-01 -1.716960e-01 9.277601e-01
176 2 2 -1.837095e+01 1.502603e+01 1.054750e+01 0 -1 0 -3.576454e-01 -4.521276e-01 -7.598489e-02 8.135703e-01
177 2 2 -1.886034e+01 1.479704e+01 1.075078e+01 0 -1 0 -4.813950e-01 -6.234599e-01 -3.221210e-02 6.152390e-01
178 2 1 -1.937578e+01 1.464535e+01 1.062411e+01 0 -1 0 -6.732152e-01 -5.966939e-01 1.140324e-01 4.215855e-01
179 2 4 -1.965952e+01 1.425173e+01 1.053139e+01 0 -1 0 -7.463716e-01 -5.675587e-01 2.663558e-01 2.232960e-01
180 2 1 -1.988630e+01 1.385299e+01 1.041855e+01 0 -1 0 -8.312892e-01 -3.855412e-01 4.003605e-01 -5.254197e-03
181 2 4 -1.997002e+01 1.323842e+01 1.039020e+01 0 -1 0 7.996180e-01 1.840151e-01 -5.201447e-01 2.370631e-01
182 2 2 -1.992152e+01 1.285514e+01 1.053304e+01 0 -1 0 5.842343e-01 1.165480e-01 -6.289528e-01 4.995050e-01
183 2 3 1.994712e+01 1.245913e+01 1.087820e+01 -1 -1 0 3.322316e-01 -1.758460e-01 -5.912129e-01 7.135599e-01
184 2 4 1.961426e+01 1.221788e+01 1.133241e+01 -1 -1 0 -2.990256e-01 3.517655e-01 4.160827e-01 -7.834028e-01
185 2 3 1.924437e+01 1.228196e+01 1.173099e+01 -1 -1 0 6.961784e-02 -4.648279e-01 -3.052045e-01 8.282141e-01
186 2 1 1.872800e+01 1.233750e+01 1.194782e+01 -1 -1 0 2.914557e-01 6.120587e-01 1.137255e-01 -7.262949e-01
187 2 1 1.850696e+01 1.222787e+01 1.325071e+01 -1 -1 0 7.528129e-01 -3.050120e-01 1.012091e-01 -5.744538e-01
188 2 2 1.912928e+01 1.216750e+01 1.362372e+01 -1 -1 0 -7.537016e-01 1.797669e-01 -4.140941e-01 4.776440e-01
189 2 4 1.949989e+01 1.343345e+01 1.339181e+01 -1 -1 0 1.478009e-01 7.352350e-01 -2.194989e-01 -6.240229e-01
190 2 4 1.881381e+01 1.328303e+01 1.423388e+01 -1 -1 0 1.290792e-01 5.058419e-01 2.035656e-01 -8.282654e-01
191 2 1 1.829677e+01 1.325458e+01 1.431115e+01 -1 -1 0 -4.811791e-01 -5.895445e-01 -1.445047e-02 6.486102e-01
192 2 4 1.779287e+01 1.316111e+01 1.425153e+01 -1 -1 0 -7.063494e-01 -4.810724e-01 1.431397e-01 4.991501e-01
193 2 4 1.742634e+01 1.298314e+01 1.430305e+01 -1 -1 0 9.179856e-01 1.820933e-01 -3.156229e-01 -1.566100e-01
194 2 1 1.718997e+01 1.266412e+01 1.444242e+01 -1 -1 0 -8.476947e-01 1.170360e-02 4.653095e-01 -2.544871e-01
195 2 3 1.684829e+01 1.259900e+01 1.487402e+01 -1 -1 0 -9.250657e-01 5.688841e-02 2.995282e-01 -2.264952e-01
196 2 4 1.673178e+01 1.234555e+01 1.522590e+01 -1 -1 0 -7.521704e-01 1.630640e-01 2.386808e-01 -5.921836e-01
197 2 2 1.679945e+01 1.227236e+01 1.571867e+01 -1 -1 0 4.857415e-01 -1.787747e-01 -2.280113e-01 8.246852e-01
198 2 4 1.699908e+01 1.163771e+01 1.531797e+01 -1 -1 0 -2.951072e-01 -7.021487e-01 -6.453893e-01 5.806613e-02
199 2 3 1.697853e+01 1.088328e+01 1.545875e+01 -1 -1 0 -5.699739e-02 -2.956324e-01 -5.810616e-01 -7.561218e-01
200 2 4 1.691774e+01 9.546280e+00 1.544343e+01 -1 -1 0 -9.312586e-01 -1.422108e-01 1.371080e-01 3.061616e-01
