ITEM: TIMESTEP
38000000
ITEM: NUMBER OF ATOMS
200
ITEM: BOX BOUNDS pp pp pp
-2.0000000000000000e+01 2.0000000000000000e+01
-2.0000000000000000e+01 2.0000000000000000e+01
-2.0000000000000000e+01 2.0000000000000000e+01
ITEM: ATOMS id mol type x y z ix iy iz c_quat[1] c_quat[2] c_quat[3] c_quat[4]
1 1 1 1.634452e+01 1.043248e+01 1.027652e+01 -1 -1 0 -2.065878e-01 -5.335884e-01 8.187955e-01 -4.667738e-02
2 1 2 1.578290e+01 1.097751e+01 9.477404e+00 -1 -1 0 6.957402e-01 -2.910051e-01 6.108158e-01 2.411753e-01
3 1 1 1.624640e+01 1.122562e+01 9.414274e+00 -1 -1 0 -5.656490e-01 2.829614e-01 -7.563044e-01 -1.672656e-01
4 1 3 1.710671e+01 1.212443e+01 9.786135e+00 -1 -1 0 7.482449e-01 2.066454e-01 1.764073e-01 6.052336e-01
5 1 1 1.749841e+01 1.214186e+01 9.922660e+00 -1 -1 0 -3.106781e-01 -3.195135e-01 5.925613e-02 -8.932407e-01
6 1 2 1.772854e+01 1.209403e+01 1.034961e+01 -1 -1 0 3.038648e-01 1.216933e-01 -9.510344e-03 9.448632e-01
7 1 4 1.779013e+01 1.228293e+01 1.085972e+01 -1 -1 0 1.516792e-01 1.217863e-02 1.792313e-01 -9.719677e-01
8 1 1 1.780387e+01 1.223635e+01 1.141213e+01 -1 -1 0 3.903609e-01 1.313037e-01 1.514436e-01 -8.985781e-01
9 1 1 1.857193e+01 1.248592e+01 1.209995e+01 -1 -1 0 2.117543e-01 2.515999e-01 1.381485e-01 9.342230e-01
10 1 4 1.880245e+01 1.288482e+01 1.242375e+01 -1 -1 0 -1.224993e-01 1.926743e-01 8.086372e-02 9.702224e-01
11 1 1 1.961932e+01 1.191234e+01 1.300420e+01 -1 -1 0 -3.831279e-01 3.444010e-01 -5.416421e-01 6.642475e-01
12 1 1 1.999375e+01 1.176349e+01 1.338205e+01 -1 -1 0 5.485351e-01 -1.506901e-01 6.385621e-01 -5.183051e-01
13 1 3 -1.957521e+01 1.306365e+01 1.295157e+01 0 -1 0 -1.623948e-02 3.742327e-01 2.504146e-01 -8.927367e-01
14 1 4 1.994183e+01 1.308026e+01 1.328209e+01 -1 -1 0 -2.752943e-01 -5.100026e-01 -9.581503e-02 8.092774e-01
15 1 4 -1.863432e+01 1.307013e+01 1.402553e+01 0 -1 0 2.635875e-01 -9.486235e-01 1.538455e-01 -8.346691e-02
16 1 2 -1.838004e+01 1.343104e+01 1.385438e+01 0 -1 0 2.591044e-01 -8.321670e-01 4.891319e-01 3.336115e-02
17 1 1 -1.800898e+01 1.385324e+01 1.360887e+01 0 -1 0 -3.380199e-01 7.197829e-01 -6.047588e-01 4.383995e-02
18 1 2 -1.747270e+01 1.393485e+01 1.344019e+01 0 -1 0 -3.831459e-01 5.115247e-01 -7.636690e-01 9.138634e-02
19 1 3 -1.704897e+01 1.373875e+01 1.330830e+01 0 -1 0 -4.188076e-01 1.451403e-01 -8.899119e-01 -1.076631e-01
20 1 1 -1.668014e+01 1.344465e+01 1.297666e+01 0 -1 0 -4.148441e-01 -8.495107e-02 -8.765654e-01 -2.287375e-01
21 1 4 -1.636295e+01 1.332077e+01 1.259885e+01 0 -1 0 3.181388e-01 3.132522e-01 8.485333e-01 2.839932e-01
22 1 1 -1.629565e+01 1.318374e+01 1.211412e+01 0 -1 0 2.631160e-01 6.022677e-01 7.010706e-01 2.766654e-01
23 1 4 -1.636703e+01 1.321262e+01 1.161580e+01 0 -1 0 1.856162e-01 8.226332e-01 4.523349e-01 2.901972e-01
24 1 3 -1.633988e+01 1.347369e+01 1.112081e+01 0 -1 0 -6.191659e-03 9.390876e-01 2.024161e-01 2.776757e-01
25 1 3 -1.614646e+01 1.370971e+01 1.072573e+01 0 -1 0 -2.195960e-01 9.143738e-01 1.050843e-01 3.235050e-01
26 1 4 -1.591663e+01 1.420608e+01 1.058303e+01 0 -1 0 -3.374957e-01 8.750091e-01 -1.879231e-01 2.917887e-01
27 1 4 -1.549889e+01 1.462453e+01 1.063163e+01 0 -1 0 -4.307209e-01 7.966167e-01 -3.940507e-01 1.568607e-01
28 1 1 -1.501864e+01 1.484587e+01 1.058661e+01 0 -1 0 -4.200344e-01 6.670570e-01 -6.142851e-01 3.549600e-02
29 1 1 -1.442285e+01 1.489562e+01 1.038409e+01 0 -1 0 -3.357389e-01 3.778012e-01 -8.508195e-01 -1.437074e-01
30 1 4 -1.412882e+01 1.485806e+01 1.001295e+01 0 -1 0 2.786913e-01 -7.870500e-02 9.553716e-01 5.832515e-02
31 1 4 -1.392294e+01 1.479694e+01 9.470264e+00 0 -1 0 1.232858e-01 6.640705e-02 9.884273e-01 5.832867e-02
32 1 3 -1.382725e+01 1.470812e+01 8.915947e+00 0 -1 0 4.454808e-02 2.838482e-01 9.508162e-01 1.157334e-01
33 1 3 -1.387025e+01 1.467012e+01 8.420914e+00 0 -1 0 -9.600124e-02 3.646619e-01 9.221437e-01 8.635064e-02
34 1 1 -1.414851e+01 1.465596e+01 8.008975e+00 0 -1 0 -6.828292e-02 7.405265e-01 6.661881e-01 5.613690e-02
35 1 2 -1.452208e+01 1.486071e+01 7.714306e+00 0 -1 0 -1.262746e-01 8.982610e-01 4.203029e-01 -2.296419e-02
36 1 2 -1.471153e+01 1.523006e+01 7.379378e+00 0 -1 0 -1.481610e-01 9.770279e-01 1.430630e-01 -5.475120e-02
37 1 1 -1.481802e+01 1.559564e+01 7.033425e+00 0 -1 0 -2.043556e-01 9.718978e-01 -1.041520e-01 -5.296980e-02
38 1 1 -1.463091e+01 1.598420e+01 6.658261e+00 0 -1 0 -2.382757e-01 8.948359e-01 -3.711455e-01 -6.888001e-02
39 1 4 -1.436597e+01 1.621573e+01 6.300448e+00 0 -1 0 3.208144e-01 -7.757872e-01 5.418807e-01 -3.997011e-02
40 1 4 -1.396918e+01 1.636418e+01 6.164356e+00 0 -1 0 3.866180e-01 -4.989196e-01 7.729028e-01 6.501566e-02
41 1 2 -1.348079e+01 1.640346e+01 5.779941e+00 0 -1 0 2.749461e-01 -3.679877e-01 8.882497e-01 1.477841e-03
42 1 4 -1.312350e+01 1.632104e+01 5.436556e+00 0 -1 0 2.134249e-01 -1.243380e-01 9.630449e-01 -1.073984e-01
43 1 3 -1.309418e+01 1.599561e+01 5.114681e+00 0 -1 0 2.489871e-01 2.693077e-01 9.221106e-01 -1.232511e-01
44 1 2 -1.307987e+01 1.576861e+01 4.608495e+00 0 -1 0 1.900496e-01 5.380261e-01 8.208853e-01 -2.358823e-02
45 1 1 -1.316563e+01 1.568946e+01 4.156224e+00 0 -1 0 5.515612e-02 7.969195e-01 6.010598e-01 -2.458289e-02
46 1 3 -1.337949e+01 1.581205e+01 3.685731e+00 0 -1 0 3.634199e-02 9.167754e-01 3.944842e-01 5.083727e-02
47 1 4 -1.337234e+01 1.591500e+01 3.181093e+00 0 -1 0 4.816713e-03 9.599895e-01 2.552324e-01 1.151237e-01
48 1 1 -1.330962e+01 1.612476e+01 2.723725e+00 0 -1 0 8.677189e-02 -9.823398e-01 3.121134e-02 -1.628037e-01
49 1 4 -1.303694e+01 1.644431e+01 2.283886e+00 0 -1 0 1.579707e-01 -9.308518e-01 1.837521e-01 -2.734874e-01
50 1 4 -1.275163e+01 1.672914e+01 1.972704e+00 0 -1 0 2.056688e-01 -8.311655e-01 4.681776e-01 -2.183438e-01
51 1 4 -1.221999e+01 1.682386e+01 1.859239e+00 0 -1 0 2.885333e-01 -6.104538e-01 7.149268e-01 -1.815884e-01
52 1 1 -1.172163e+01 1.668039e+01 1.761133e+00 0 -1 0 3.783334e-01 -3.182205e-01 8.600000e-01 -1.264895e-01
53 1 3 -1.139340e+01 1.656066e+01 1.420155e+00 0 -1 0 2.962530e-01 -1.472760e-01 9.177684e-01 -2.196477e-01
54 1 4 -1.105306e+01 1.626164e+01 1.074236e+00 0 -1 0 2.405897e-01 9.490183e-02 9.453498e-01 -1.985547e-01
55 1 4 -1.104973e+01 1.585363e+01 7.323045e-01 0 -1 0 2.236475e-01 3.582605e-01 8.852448e-01 -1.948660e-01
56 1 4 -1.116272e+01 1.547383e+01 3.299558e-01 0 -1 0 2.338374e-01 5.894737e-01 7.563009e-01 -1.607785e-01
57 1 1 -1.133481e+01 1.510638e+01 -1.223861e-01 0 -1 0 1.217491e-01 6.723947e-01 7.114461e-01 -1.640333e-01
58 1 1 -1.169790e+01 1.517715e+01 -4.855864e-01 0 -1 0 8.259533e-02 9.175866e-01 3.488352e-01 -1.718338e-01
59 1 3 -1.187144e+01 1.525750e+01 -9.322731e-01 0 -1 0 -8.129919e-02 -9.945441e-01 -5.577988e-02 3.407537e-02
60 1 4 -1.181196e+01 1.563192e+01 -1.309516e+00 0 -1 0 -1.429463e-01 -9.231825e-01 3.358423e-01 1.204588e-01
61 1 2 -1.170254e+01 1.557099e+01 -1.885466e+00 0 -1 0 -2.252198e-01 -8.150182e-01 5.330325e-01 -2.996236e-02
62 1 3 -1.145510e+01 1.535679e+01 -2.357672e+00 0 -1 0 -2.073539e-01 -5.566948e-01 8.011535e-01 -7.244556e-02
63 1 2 -1.140233e+01 1.510358e+01 -2.809617e+00 0 -1 0 -2.184632e-01 -3.810197e-01 8.877549e-01 -1.378013e-01
64 1 4 -1.143319e+01 1.462036e+01 -3.090559e+00 0 -1 0 -2.018038e-01 -1.055275e-01 9.379246e-01 -2.616041e-01
65 1 2 -1.153867e+01 1.409786e+01 -3.190869e+00 0 -1 0 -1.222299e-01 1.357744e-01 8.961219e-01 -4.044635e-01
66 1 1 -1.189666e+01 1.369268e+01 -3.287028e+00 0 -1 0 -4.948746e-02 4.889014e-01 7.928498e-01 -3.604381e-01
67 1 2 -1.238678e+01 1.353206e+01 -3.428886e+00 0 -1 0 1.101903e-01 7.482461e-01 5.656674e-01 -3.286429e-01
68 1 1 -1.285089e+01 1.344480e+01 -3.791582e+00 0 -1 0 1.761835e-02 8.862522e-01 3.858228e-01 -2.557095e-01
69 1 1 -1.318020e+01 1.364199e+01 -4.222732e+00 0 -1 0 9.570134e-02 9.653290e-01 7.460053e-02 -2.311191e-01
70 1 2 -1.331146e+01 1.372232e+01 -4.687903e+00 0 -1 0 2.005680e-02 -9.919915e-01 7.273761e-02 1.012912e-01
71 1 3 -1.337211e+01 1.396089e+01 -5.120597e+00 0 -1 0 6.453097e-02 -9.479587e-01 3.110778e-01 2.099333e-02
72 1 4 -1.303612e+01 1.412822e+01 -5.460128e+00 0 -1 0 5.492746e-02 -8.053819e-01 5.889992e-01 3.772139e-02
73 1 1 -1.275985e+01 1.420366e+01 -5.939557e+00 0 -1 0 5.925179e-02 -5.784486e-01 8.131849e-01 -2.483531e-02
74 1 1 -1.251617e+01 1.402297e+01 -6.328662e+00 0 -1 0 8.216463e-03 -2.959303e-01 9.542202e-01 4.267869e-02
75 1 3 -1.243911e+01 1.372540e+01 -6.747260e+00 0 -1 0 -3.490217e-02 7.304980e-02 9.954510e-01 -5.022779e-02
76 1 1 -1.252913e+01 1.348212e+01 -7.278324e+00 0 -1 0 -1.455483e-01 2.394987e-01 9.581808e-01 -5.784215e-02
77 1 4 -1.282840e+01 1.330451e+01 -7.739984e+00 0 -1 0 -2.406124e-01 4.745845e-01 8.429746e-01 -7.917761e-02
78 1 1 -1.332899e+01 1.334694e+01 -7.963669e+00 0 -1 0 -2.675901e-01 7.006485e-01 6.321749e-01 -1.945304e-01
79 1 4 -1.384360e+01 1.356197e+01 -8.161219e+00 0 -1 0 -2.502363e-01 8.786597e-01 3.665396e-01 -1.760331e-01
80 1 2 -1.410443e+01 1.400028e+01 -8.308843e+00 0 -1 0 7.573072e-02 -9.718158e-01 -4.480452e-02 2.187041e-01
81 1 4 -1.443678e+01 1.402901e+01 -8.762148e+00 0 -1 0 3.643537e-01 -8.963785e-01 5.855061e-02 2.456091e-01
82 1 4 -1.447890e+01 1.459938e+01 -8.824036e+00 0 -1 0 4.144696e-01 -8.418052e-01 2.780648e-01 2.055698e-01
83 1 4 -1.418197e+01 1.502388e+01 -8.977735e+00 0 -1 0 1.937859e-01 -6.361501e-01 5.943786e-01 4.521882e-01
84 1 4 -1.407222e+01 1.544087e+01 -9.296254e+00 0 -1 0 1.340799e-01 -4.894220e-01 7.651646e-01 3.962472e-01
85 1 1 -1.390144e+01 1.566794e+01 -9.738342e+00 0 -1 0 -4.985391e-02 -2.292202e-01 8.733852e-01 4.268149e-01
86 1 1 -1.269785e+01 1.532358e+01 -9.628782e+00 0 -1 0 -1.774492e-01 9.171101e-01 -3.528923e-01 -5.373928e-02
87 1 3 -1.252664e+01 1.557573e+01 -1.000722e+01 0 -1 0 1.122287e-01 -6.814948e-01 7.128643e-01 1.216305e-01
88 1 2 -1.254574e+01 1.679315e+01 -9.807421e+00 0 -1 0 1.250268e-01 3.962075e-01 3.786823e-01 8.270354e-01
89 1 2 -1.235810e+01 1.730081e+01 -9.739413e+00 0 -1 0 -2.396862e-01 4.534738e-01 2.460122e-01 8.224293e-01
90 1 3 -1.240422e+01 1.773569e+01 -9.693375e+00 0 -1 0 5.322404e-01 -6.045633e-01 -9.477913e-02 -5.850130e-01
91 1 3 -1.175866e+01 1.792747e+01 -1.103272e+01 0 -1 0 -5.134980e-02 -3.254717e-01 3.680665e-01 8.694587e-01
92 1 2 -1.207252e+01 1.835430e+01 -1.094713e+01 0 -1 0 -3.478257e-01 -2.557441e-01 4.427653e-01 7.858570e-01
93 1 1 -1.190527e+01 1.966689e+01 -1.103346e+01 0 -1 0 1.999153e-01 6.136521e-01 4.566989e-01 6.122835e-01
94 1 2 -1.159510e+01 1.995496e+01 -1.126088e+01 0 -1 0 -4.545550e-02 7.116788e-01 3.987742e-01 5.765641e-01
95 1 3 -1.132411e+01 1.993407e+01 -1.253362e+01 0 -1 0 2.507208e-01 4.482770e-01 -1.966137e-01 -8.351826e-01
96 1 2 -1.080576e+01 1.980109e+01 -1.255795e+01 0 -1 0 -6.003233e-01 -4.739759e-02 -4.955591e-01 6.259286e-01
97 1 2 -1.080740e+01 -1.874196e+01 -1.262638e+01 0 0 0 -9.991930e-02 -1.399985e-01 -2.635984e-01 -9.491746e-01
98 1 4 -9.701696e+00 -1.821993e+01 -1.271823e+01 0 0 0 3.902085e-01 -8.312108e-01 -1.247515e-01 3.758497e-01
99 1 2 -9.917697e+00 -1.778475e+01 -1.292004e+01 0 0 0 -2.190705e-01 8.655702e-01 -2.412083e-01 -3.802826e-01
100 1 1 -9.943357e+00 -1.739050e+01 -1.318759e+01 0 0 0 -1.315661e-01 6.835328e-01 -5.834698e-01 -4.183733e-01
101 2 4 -1.477682e+01 -1.907547e+01 -1.365502e+01 0 0 0 -5.871457e-01 -3.059403e-01 -6.904680e-01 2.914006e-01
102 2 3 -1.466699e+01 -1.950121e+01 -1.381937e+01 0 0 0 -6.998303e-01 -5.066376e-01 -5.008999e-01 -5.152764e-02
103 2 1 -1.439786e+01 -2.002504e+01 -1.306195e+01 0 0 0 -6.932213e-01 -6.366082e-01 9.500791e-03 3.377631e-01
104 2 3 -1.414982e+01 1.957976e+01 -1.296794e+01 0 -1 0 2.025514e-01 9.642614e-02 9.508439e-01 -2.134731e-01
105 2 3 -1.355510e+01 1.906832e+01 -1.222293e+01 0 -1 0 5.062910e-02 3.391525e-01 -7.838071e-01 5.177439e-01
106 2 2 -1.357290e+01 1.863508e+01 -1.172428e+01 0 -1 0 -1.485604e-02 5.754009e-01 -4.948619e-01 6.510029e-01
107 2 3 -1.336490e+01 1.791043e+01 -1.263436e+01 0 -1 0 6.250559e-01 4.435032e-01 2.487919e-01 -5.922099e-01
108 2 4 -1.377852e+01 1.769682e+01 -1.252284e+01 0 -1 0 7.551629e-01 4.901822e-01 1.014078e-01 -4.232811e-01
109 2 3 -1.467369e+01 1.795208e+01 -1.214951e+01 0 -1 0 5.378694e-03 -2.142221e-01 8.693809e-01 4.452604e-01
110 2 2 -1.514018e+01 1.794558e+01 -1.111753e+01 0 -1 0 2.581468e-01 -2.348478e-01 -6.391484e-01 6.853438e-01
111 2 2 -1.544216e+01 1.759267e+01 -1.086556e+01 0 -1 0 4.383317e-02 -4.785896e-01 -4.751273e-01 7.370785e-01
112 2 3 -1.490013e+01 1.632842e+01 -1.034014e+01 0 -1 0 5.320388e-01 -5.211943e-01 6.545897e-01 -1.296284e-01
113 2 3 -1.506708e+01 1.578337e+01 -1.072909e+01 0 -1 0 -5.595272e-01 4.305513e-01 -5.983286e-01 3.788901e-01
114 2 2 -1.570562e+01 1.603342e+01 -1.035538e+01 0 -1 0 -4.686454e-02 7.363043e-01 5.882294e-01 3.311281e-01
115 2 4 -1.500790e+01 1.565799e+01 -1.006945e+01 0 -1 0 -8.300718e-01 -5.421334e-01 -1.051738e-01 7.752813e-02
116 2 4 -1.486556e+01 1.513187e+01 -1.012149e+01 0 -1 0 8.173606e-01 5.047897e-01 -2.632316e-02 2.764345e-01
117 2 1 -1.460540e+01 1.465332e+01 -1.002615e+01 0 -1 0 6.949488e-01 4.977840e-01 -2.944895e-02 5.180636e-01
118 2 1 -1.419258e+01 1.428852e+01 -9.878849e+00 0 -1 0 5.334706e-01 4.327450e-01 -8.217411e-02 7.220723e-01
119 2 1 -1.375023e+01 1.417309e+01 -9.544577e+00 0 -1 0 3.570902e-01 4.040172e-01 -2.826706e-02 8.416993e-01
120 2 1 -1.335133e+01 1.429843e+01 -9.299814e+00 0 -1 0 -5.551439e-02 3.318642e-01 -1.407123e-01 9.311199e-01
121 2 3 -1.304484e+01 1.422001e+01 -8.804410e+00 0 -1 0 5.711268e-02 -2.130948e-01 1.046766e-01 -9.697276e-01
122 2 1 -1.291497e+01 1.432820e+01 -8.317972e+00 0 -1 0 2.815206e-01 -6.778191e-02 1.075067e-01 -9.511015e-01
123 2 4 -1.305067e+01 1.449222e+01 -7.857693e+00 0 -1 0 5.626557e-01 -3.197446e-03 5.112721e-02 -8.251026e-01
124 2 1 -1.332582e+01 1.436313e+01 -7.338613e+00 0 -1 0 8.150116e-01 7.630900e-02 1.175202e-01 -5.622472e-01
125 2 4 -1.353715e+01 1.410443e+01 -6.980276e+00 0 -1 0 9.306575e-01 1.353849e-01 7.967073e-02 -3.304544e-01
126 2 2 -1.363113e+01 1.370134e+01 -6.669128e+00 0 -1 0 9.770941e-01 2.090605e-01 3.531358e-02 1.826741e-02
127 2 4 -1.348152e+01 1.331886e+01 -6.338358e+00 0 -1 0 9.353758e-01 1.858659e-01 3.936491e-02 2.982890e-01
128 2 4 -1.313191e+01 1.308194e+01 -5.952136e+00 0 -1 0 8.178737e-01 6.540640e-02 5.368399e-02 5.691420e-01
129 2 1 -1.271608e+01 1.295948e+01 -5.556779e+00 0 -1 0 6.422256e-01 2.333352e-02 3.112976e-02 7.655277e-01
130 2 2 -1.243345e+01 1.315457e+01 -5.217595e+00 0 -1 0 3.840344e-01 6.084936e-02 5.337022e-02 9.197644e-01
131 2 3 -1.216628e+01 1.334877e+01 -4.858441e+00 0 -1 0 1.432542e-01 6.531635e-02 1.615651e-01 9.742221e-01
132 2 4 -1.205849e+01 1.375059e+01 -4.612192e+00 0 -1 0 1.102881e-01 -1.050368e-01 -2.997214e-01 -9.417913e-01
133 2 4 -1.214845e+01 1.418154e+01 -4.441392e+00 0 -1 0 4.705917e-01 -2.093168e-01 -2.009530e-01 -8.332754e-01
134 2 3 -1.235252e+01 1.443771e+01 -4.135234e+00 0 -1 0 7.283354e-01 -2.274715e-01 -2.366149e-01 -6.014962e-01
135 2 4 -1.245701e+01 1.471817e+01 -3.673310e+00 0 -1 0 -8.526802e-01 1.281617e-01 8.576868e-02 4.991540e-01
136 2 3 -1.259973e+01 1.460153e+01 -3.193410e+00 0 -1 0 -9.645752e-01 1.769456e-01 -1.704691e-02 1.949211e-01
137 2 1 -1.256719e+01 1.456558e+01 -2.658226e+00 0 -1 0 9.876558e-01 -4.931698e-02 1.486726e-01 -4.652325e-04
138 2 3 -1.225604e+01 1.445504e+01 -2.149669e+00 0 -1 0 9.311318e-01 -4.709212e-03 2.537744e-01 2.618586e-01
139 2 2 -1.181290e+01 1.436814e+01 -1.828176e+00 0 -1 0 8.185035e-01 3.447687e-02 3.127830e-01 4.806559e-01
140 2 3 -1.132727e+01 1.449834e+01 -1.608076e+00 0 -1 0 5.712326e-01 1.114105e-01 3.557236e-01 7.312603e-01
141 2 1 -1.092931e+01 1.483856e+01 -1.406103e+00 0 -1 0 2.956166e-01 1.578230e-01 3.391196e-01 8.790339e-01
142 2 2 -1.071362e+01 1.537516e+01 -1.195019e+00 0 -1 0 -1.188396e-01 1.434086e-01 2.570029e-01 9.482935e-01
143 2 4 -1.082412e+01 1.584914e+01 -8.753272e-01 0 -1 0 3.189181e-01 -7.529475e-02 -2.691351e-01 -9.056424e-01
144 2 4 -1.113370e+01 1.627252e+01 -6.439535e-01 0 -1 0 -6.166435e-01 1.550379e-01 2.796343e-01 7.193877e-01
145 2 1 -1.137474e+01 1.652202e+01 -2.059010e-01 0 -1 0 -7.220294e-01 6.821862e-02 1.823653e-01 6.638996e-01
146 2 1 -1.172792e+01 1.655164e+01 1.456530e-01 0 -1 0 -9.059734e-01 -7.863674e-02 2.486009e-01 3.335058e-01
147 2 1 -1.204598e+01 1.633791e+01 4.694910e-01 0 -1 0 -9.592469e-01 -3.600832e-02 2.759467e-01 4.901144e-02
148 2 2 -1.244381e+01 1.615966e+01 8.511515e-01 0 -1 0 -9.659204e-01 -1.061528e-01 1.825303e-01 -1.497066e-01
149 2 4 -1.240081e+01 1.587151e+01 1.296457e+00 0 -1 0 9.139853e-01 5.889826e-02 -1.247160e-01 3.815859e-01
150 2 1 -1.225135e+01 1.564626e+01 1.683943e+00 0 -1 0 7.246251e-01 -7.023151e-02 -1.756342e-01 6.626754e-01
151 2 1 -1.215505e+01 1.567793e+01 2.198883e+00 0 -1 0 4.632384e-01 -1.478047e-01 -1.036959e-01 8.676469e-01
152 2 1 -1.217177e+01 1.576810e+01 2.730566e+00 0 -1 0 3.249565e-01 -1.557541e-01 4.227311e-02 9.318567e-01
153 2 4 -1.214701e+01 1.615849e+01 3.149563e+00 0 -1 0 -6.947715e-02 -1.962636e-01 1.146731e-01 9.713411e-01
154 2 1 -1.239463e+01 1.652716e+01 3.378121e+00 0 -1 0 -3.790926e-01 1.504852e-02 1.627590e-01 9.108083e-01
155 2 2 -1.255924e+01 1.674451e+01 3.822778e+00 0 -1 0 -3.910819e-01 -1.396949e-01 9.983332e-02 9.041978e-01
156 2 4 -1.295818e+01 1.684576e+01 4.197935e+00 0 -1 0 -5.792268e-01 -2.222252e-01 1.677965e-01 7.661310e-01
157 2 3 -1.344323e+01 1.683041e+01 4.339269e+00 0 -1 0 -8.258191e-01 -1.501167e-01 2.419679e-01 4.867640e-01
158 2 2 -1.388968e+01 1.659324e+01 4.531458e+00 0 -1 0 -9.003952e-01 -1.847738e-01 3.341507e-01 2.085437e-01
159 2 1 -1.422946e+01 1.628215e+01 4.865162e+00 0 -1 0 -9.265520e-01 -2.840959e-01 2.462722e-01 1.187173e-02
160 2 3 -1.431885e+01 1.588734e+01 5.157070e+00 0 -1 0 9.015182e-01 2.796921e-01 -2.306857e-01 2.362655e-01
161 2 1 -1.423899e+01 1.546283e+01 5.434204e+00 0 -1 0 7.640338e-01 2.457056e-01 -1.924700e-01 5.646560e-01
162 2 1 -1.405867e+01 1.520043e+01 5.835917e+00 0 -1 0 5.875319e-01 1.584889e-01 -1.474732e-01 7.797046e-01
163 2 4 -1.378398e+01 1.521842e+01 6.423970e+00 0 -1 0 3.789329e-01 1.099159e-02 -1.359560e-01 9.153169e-01
164 2 4 -1.360919e+01 1.534921e+01 6.905648e+00 0 -1 0 1.645737e-01 1.714131e-02 -8.337785e-02 9.826850e-01
165 2 3 -1.361833e+01 1.567872e+01 7.297821e+00 0 -1 0 -2.020386e-01 4.482787e-02 -2.208592e-02 9.781018e-01
166 2 3 -1.378336e+01 1.580956e+01 7.793233e+00 0 -1 0 -4.475632e-01 -1.468029e-02 -1.285787e-03 8.941309e-01
167 2 4 -1.400081e+01 1.578490e+01 8.368770e+00 0 -1 0 -5.243845e-01 -2.307593e-01 6.361152e-04 8.196162e-01
168 2 2 -1.435182e+01 1.564216e+01 8.779365e+00 0 -1 0 -5.782616e-01 -3.633444e-01 2.257917e-02 7.301264e-01
169 2 2 -1.478519e+01 1.543909e+01 8.965083e+00 0 -1 0 -8.671239e-01 -2.793047e-01 1.052659e-01 3.987533e-01
170 2 1 -1.505365e+01 1.499048e+01 9.192743e+00 0 -1 0 -9.681307e-01 -2.065928e-01 1.156357e-01 8.167407e-02
171 2 1 -1.507941e+01 1.455254e+01 9.390700e+00 0 -1 0 9.202483e-01 1.621623e-01 -2.305229e-01 2.714879e-01
172 2 4 -1.502421e+01 1.416588e+01 9.710683e+00 0 -1 0 8.452875e-01 1.796105e-01 -1.754457e-01 4.716439e-01
173 2 4 -1.476987e+01 1.379367e+01 1.002510e+01 0 -1 0 6.897444e-01 5.806071e-02 -2.718109e-01 6.685809e-01
174 2 1 -1.470762e+01 1.378151e+01 1.057982e+01 0 -1 0 3.778996e-01 -7.058802e-02 -2.559238e-01 8.869680e-01
175 2 1 -1.492491e+01 1.370884e+01 1.109680e+01 0 -1 0 1.929502e-01 -2.428462e-01 -1.579455e-01 9.374695e-01
176 2 2 -1.521117e+01 1.383784e+01 1.151198e+01 0 -1 0 -1.344665e-01 -3.326102e-01 -5.546005e-02 9.317797e-01
177 2 2 -1.551813e+01 1.410175e+01 1.178324e+01 0 -1 0 -1.993099e-01 -3.490734e-01 2.520791e-01 8.802724e-01
178 2 1 -1.595710e+01 1.435485e+01 1.188780e+01 0 -1 0 -5.243062e-01 -2.788232e-01 3.425546e-01 7.280227e-01
179 2 4 -1.647124e+01 1.433367e+01 1.204705e+01 0 -1 0 -6.527885e-01 -3.499268e-01 3.064089e-01 5.979399e-01
180 2 1 -1.699973e+01 1.420384e+01 1.220047e+01 0 -1 0 -7.909083e-01 -3.480150e-01 3.258374e-01 3.836400e-01
181 2 4 -1.738736e+01 1.384790e+01 1.215980e+01 0 -1 0 8.493346e-01 2.507427e-01 -4.495333e-01 -1.169553e-01
182 2 2 -1.771233e+01 1.344481e+01 1.232265e+01 0 -1 0 8.354839e-01 2.113464e-01 -4.507822e-01 2.325828e-01
183 2 3 -1.779272e+01 1.308639e+01 1.268336e+01 0 -1 0 7.366769e-01 1.815083e-01 -3.751349e-01 5.325747e-01
184 2 4 -1.783085e+01 1.273102e+01 1.307129e+01 0 -1 0 -6.586705e-01 -4.195482e-02 2.890958e-01 -6.934094e-01
185 2 3 -1.768094e+01 1.260882e+01 1.348703e+01 0 -1 0 4.215807e-01 4.075504e-02 -2.153054e-01 8.799161e-01
186 2 1 -1.753844e+01 1.260715e+01 1.401007e+01 0 -1 0 -1.552847e-01 4.837511e-02 1.819278e-01 -9.697674e-01
187 2 1 -1.767599e+01 1.275992e+01 1.449389e+01 0 -1 0 -3.306675e-01 -1.476625e-01 -2.010627e-01 9.101805e-01
188 2 2 -1.794107e+01 1.267718e+01 1.490598e+01 0 -1 0 4.154731e-01 3.590203e-01 8.400922e-02 -8.315221e-01
189 2 4 -1.853108e+01 1.261169e+01 1.503198e+01 0 -1 0 -7.378320e-01 -2.872203e-01 -4.620634e-02 6.090759e-01
190 2 4 -1.887638e+01 1.239636e+01 1.526539e+01 0 -1 0 8.378813e-01 3.703385e-01 -1.266277e-01 -3.804862e-01
191 2 1 -1.908103e+01 1.192108e+01 1.543949e+01 0 -1 0 9.402327e-01 2.811651e-01 -1.874732e-01 4.198224e-02
192 2 4 -1.944402e+01 1.244784e+01 1.612864e+01 0 -1 0 1.217178e-01 -7.633238e-01 -3.182931e-01 5.488269e-01
193 2 4 -1.917761e+01 1.085700e+01 1.578660e+01 0 -1 0 -5.744042e-01 -3.926499e-01 6.276298e-01 3.492373e-01
194 2 1 -1.952382e+01 1.115071e+01 1.592125e+01 0 -1 0 8.202461e-01 1.278354e-02 -5.015546e-01 2.747290e-01
195 2 3 1.965368e+01 1.029636e+01 1.612777e+01 -1 -1 0 1.641179e-01 -1.696481e-02 -9.835390e-01 7.367933e-02
196 2 4 -1.992241e+01 9.741354e+00 1.549041e+01 0 -1 0 -1.802403e-02 5.948178e-01 -6.477115e-01 -4.757486e-01
197 2 2 1.915602e+01 1.011095e+01 1.633734e+01 -1 -1 0 2.910743e-01 -2.560396e-02 -4.026181e-01 8.674784e-01
198 2 4 1.895009e+01 1.001405e+01 1.683909e+01 -1 -1 0 4.671056e-02 3.016337e-01 3.507705e-01 -8.853221e-01
199 2 3 1.920260e+01 8.505900e+00 1.690681e+01 -1 -1 0 -8.808750e-01 -1.608259e-02 -1.960204e-01 4.305539e-01
200 2 4 1.868810e+01 8.736010e+00 1.625832e+01 -1 -1 0 -6.040097e-01 -4.483542e-01 -5.801237e-01 -3.124217e-01
