ITEM: TIMESTEP
370000000
ITEM: NUMBER OF ATOMS
200
ITEM: BOX BOUNDS pp pp pp
-2.0000000000000000e+01 2.0000000000000000e+01
-2.0000000000000000e+01 2.0000000000000000e+01
-2.0000000000000000e+01 2.0000000000000000e+01
ITEM: ATOMS id mol type x y z ix iy iz c_quat[1] c_quat[2] c_quat[3] c_quat[4]
1 1 1 1.566063e+01 1.575137e+01 1.803873e+00 -1 0 0 4.210595e-01 6.836309e-01 -4.891597e-01 3.407058e-01
2 1 2 1.551383e+01 1.511453e+01 1.976740e+00 -1 0 0 6.106347e-01 -1.150269e-01 3.675185e-01 -6.919712e-01
3 1 1 1.548230e+01 1.485230e+01 2.356709e+00 -1 0 0 8.757511e-01 5.040278e-02 3.193730e-01 -3.584974e-01
4 1 3 1.572098e+01 1.464971e+01 2.749440e+00 -1 0 0 8.544307e-01 1.511120e-01 4.837422e-01 -1.144846e-01
5 1 1 1.597194e+01 1.430572e+01 2.728612e+00 -1 0 0 8.444934e-01 3.891979e-01 2.950469e-01 2.197798e-01
6 1 2 1.562362e+01 1.352536e+01 3.940923e+00 -1 0 0 5.530050e-01 -1.832633e-01 -8.124473e-01 2.300834e-02
7 1 4 1.512884e+01 1.337554e+01 3.995120e+00 -1 0 0 4.100735e-01 -5.453916e-01 -6.712592e-01 2.894804e-01
8 1 1 1.522799e+01 1.199592e+01 3.182296e+00 -1 0 0 7.959979e-01 -1.643089e-03 6.032104e-01 -5.021704e-02
9 1 1 1.496164e+01 1.267389e+01 2.593279e+00 -1 0 0 -3.203303e-01 1.995599e-01 -1.145296e-01 -9.189381e-01
10 1 4 1.450114e+01 1.230343e+01 2.001771e+00 -1 0 0 1.074783e-01 -5.283912e-01 6.722331e-02 8.394833e-01
11 1 1 1.461719e+01 1.113162e+01 2.099587e+00 -1 0 0 -5.810246e-01 -7.083373e-02 -4.394592e-02 8.096059e-01
12 1 1 1.450212e+01 1.087226e+01 2.779715e+00 -1 0 0 3.965694e-01 1.019920e-01 2.280698e-01 -8.833541e-01
13 1 3 1.488304e+01 1.028712e+01 2.714386e+00 -1 0 0 5.567805e-01 5.084505e-01 6.245715e-01 -2.034307e-01
14 1 4 1.561981e+01 9.634824e+00 2.366498e+00 -1 0 0 -4.021302e-01 -7.363692e-01 1.691755e-01 5.171376e-01
15 1 4 1.528637e+01 9.572879e+00 2.020048e+00 -1 0 0 5.592241e-01 5.747716e-01 -5.385466e-01 -2.585993e-01
16 1 2 1.487201e+01 9.699318e+00 2.154961e+00 -1 0 0 2.466889e-01 -6.730267e-01 -1.544712e-01 6.799399e-01
17 1 1 1.426989e+01 8.978651e+00 1.939413e+00 -1 0 0 -5.501166e-01 4.074995e-01 -2.856924e-01 6.705936e-01
18 1 2 1.485956e+01 8.552262e+00 1.975012e+00 -1 0 0 -7.205501e-01 4.282732e-01 2.362431e-01 4.915066e-01
19 1 3 1.525274e+01 8.197625e+00 1.690608e+00 -1 0 0 -5.189666e-01 -7.861089e-01 -8.481319e-03 3.356107e-01
20 1 1 1.473593e+01 7.213687e+00 2.044289e+00 -1 0 0 -2.519650e-01 -8.342216e-02 9.418321e-01 -2.061717e-01
21 1 4 1.445162e+01 6.819946e+00 1.864156e+00 -1 0 0 1.566714e-01 -2.744542e-01 -8.711465e-01 3.758094e-01
22 1 1 1.577540e+01 6.453073e+00 1.280874e+00 -1 0 0 -7.345495e-01 5.034121e-01 -9.076375e-02 -4.458421e-01
23 1 4 1.578804e+01 6.802628e+00 1.556430e+00 -1 0 0 3.677991e-01 -4.403954e-01 2.772092e-01 7.706690e-01
24 1 3 1.576705e+01 6.691798e+00 2.443486e+00 -1 0 0 4.639149e-01 -1.250355e-01 6.541245e-02 -8.745687e-01
25 1 3 1.585542e+01 6.743919e+00 2.992969e+00 -1 0 0 -4.749170e-01 -5.824413e-02 -3.294708e-02 8.774828e-01
26 1 4 1.597929e+01 7.192057e+00 3.927890e+00 -1 0 0 5.835761e-01 -6.578375e-01 1.537618e-01 -4.506064e-01
27 1 4 1.638141e+01 7.734545e+00 4.086828e+00 -1 0 0 -3.776774e-01 -8.944609e-01 1.317422e-01 -1.998588e-01
28 1 1 1.538156e+01 7.387188e+00 4.378994e+00 -1 0 0 -2.303107e-01 -6.380802e-01 -3.918227e-01 -6.215188e-01
29 1 1 1.577882e+01 6.675717e+00 5.244514e+00 -1 0 0 3.544403e-01 -6.339505e-01 -6.735268e-02 -6.840632e-01
30 1 4 1.601395e+01 7.001687e+00 5.479852e+00 -1 0 0 -5.842339e-01 5.270456e-01 -7.773847e-02 6.122503e-01
31 1 4 1.653069e+01 7.332602e+00 5.391142e+00 -1 0 0 7.901289e-01 -1.197142e-01 5.874361e-01 1.276076e-01
32 1 3 1.701598e+01 7.195339e+00 5.365078e+00 -1 0 0 -6.690492e-01 -1.639060e-01 -5.797270e-01 -4.352293e-01
33 1 3 1.723532e+01 6.691560e+00 5.757001e+00 -1 0 0 -4.818684e-01 -7.510069e-03 -4.735998e-01 7.371904e-01
34 1 1 1.824457e+01 6.469330e+00 5.658505e+00 -1 0 0 -1.368408e-01 2.556299e-01 -9.079156e-01 -3.026833e-01
35 1 2 1.944346e+01 7.261587e+00 5.724239e+00 -1 0 0 -6.830435e-01 -5.990391e-01 -1.387917e-02 -4.176256e-01
36 1 2 1.983824e+01 7.050316e+00 5.471356e+00 -1 0 0 -4.336277e-01 -5.796072e-01 3.993693e-01 -5.626071e-01
37 1 1 1.953141e+01 6.665256e+00 4.827086e+00 -1 0 0 5.102926e-01 7.037638e-01 -2.163464e-01 4.444233e-01
38 1 1 1.991877e+01 6.478037e+00 4.669637e+00 -1 0 0 2.052517e-01 6.657871e-01 -3.828032e-01 6.066803e-01
39 1 4 -1.956983e+01 6.249238e+00 4.836981e+00 0 0 0 -5.380911e-02 -4.060221e-01 4.530143e-01 -7.918514e-01
40 1 4 -1.915058e+01 6.145573e+00 5.137004e+00 0 0 0 1.430669e-01 -3.029050e-01 4.995863e-01 -7.988705e-01
41 1 2 -1.925867e+01 6.835642e+00 4.093973e+00 0 0 0 2.010902e-01 2.756084e-01 8.587148e-01 3.823763e-01
42 1 4 -1.797386e+01 6.330528e+00 4.868045e+00 0 0 0 -6.783612e-01 -1.794475e-01 6.469734e-01 -2.984127e-01
43 1 3 -1.752691e+01 5.636435e+00 4.799002e+00 0 0 0 -6.970065e-01 5.968060e-01 -3.961439e-01 -3.277957e-02
44 1 2 -1.712585e+01 5.800058e+00 5.017733e+00 0 0 0 -6.931124e-01 3.420553e-01 -5.449338e-01 -3.250238e-01
45 1 1 -1.762221e+01 4.789889e+00 5.090615e+00 0 0 0 -8.057761e-01 4.098708e-02 -5.589944e-01 1.912332e-01
46 1 3 -1.840960e+01 4.565259e+00 4.808426e+00 0 0 0 2.149856e-01 -1.034959e-01 -9.367216e-01 -2.561688e-01
47 1 4 -1.868838e+01 4.558063e+00 4.464810e+00 0 0 0 -2.203159e-01 5.772137e-01 7.703151e-01 1.577971e-01
48 1 1 -1.907747e+01 4.785501e+00 4.148897e+00 0 0 0 -2.895280e-01 8.209942e-01 4.877892e-01 6.483639e-02
49 1 4 -1.960212e+01 4.757707e+00 3.255440e+00 0 0 0 2.913685e-01 1.386505e-01 2.937130e-01 8.997850e-01
50 1 4 1.959378e+01 4.391451e+00 3.043441e+00 -1 0 0 2.061589e-01 -4.450316e-01 -8.120972e-01 -3.161383e-01
51 1 4 1.950045e+01 4.586780e+00 2.334625e+00 -1 0 0 4.397792e-01 -4.424659e-02 -3.621352e-01 -8.206672e-01
52 1 1 -1.906220e+01 5.200145e+00 2.325454e+00 0 0 0 -1.109445e-01 -8.671131e-01 4.285950e-01 2.282817e-01
53 1 3 -1.890937e+01 5.257178e+00 1.821533e+00 0 0 0 -1.899790e-01 -4.928354e-01 7.996739e-01 2.855570e-01
54 1 4 -1.843296e+01 6.431513e+00 2.010522e+00 0 0 0 -2.496154e-01 9.032494e-01 -3.261088e-01 -1.244415e-01
55 1 4 -1.872808e+01 5.931159e+00 1.010076e+00 0 0 0 -4.900242e-02 -2.878631e-01 8.539935e-01 4.306144e-01
56 1 4 -1.899526e+01 7.165721e+00 6.495875e-01 0 0 0 4.964752e-02 5.075054e-01 7.601280e-01 4.027144e-01
57 1 1 -1.902778e+01 7.453078e+00 2.857935e-01 0 0 0 -1.800038e-01 8.047930e-01 4.251081e-01 3.730817e-01
58 1 1 -1.882743e+01 6.502616e+00 -1.052083e+00 0 0 0 8.574306e-01 2.543187e-01 4.423541e-01 6.676541e-02
59 1 3 -1.848395e+01 6.082305e+00 -1.146117e+00 0 0 0 -7.489835e-01 -5.037471e-01 -3.321260e-01 -2.737789e-01
60 1 4 -1.805493e+01 5.777820e+00 -1.233798e+00 0 0 0 6.298862e-01 5.381587e-01 2.232855e-01 5.135877e-01
61 1 2 -1.855990e+01 4.529967e+00 -9.178477e-01 0 0 0 -4.003133e-01 -2.248279e-01 -7.217463e-01 5.179613e-01
62 1 3 -1.859803e+01 3.968708e+00 -1.000139e+00 0 0 0 -4.812875e-01 -5.047224e-01 -6.637221e-01 2.703528e-01
63 1 2 -1.861799e+01 3.617038e+00 -1.216379e+00 0 0 0 -5.134002e-01 -8.065005e-01 -2.932184e-01 -2.605014e-04
64 1 4 -1.852392e+01 3.382340e+00 -1.635360e+00 0 0 0 -4.328276e-01 -8.602305e-01 7.455287e-02 -2.590473e-01
65 1 2 -1.853928e+01 3.658834e+00 -2.076700e+00 0 0 0 6.963128e-01 9.556061e-02 -1.615957e-01 6.927506e-01
66 1 1 -1.878721e+01 2.683618e+00 -2.579178e+00 0 0 0 -7.125180e-01 -6.477961e-01 -3.610275e-04 -2.695889e-01
67 1 2 -1.839602e+01 2.320556e+00 -2.662749e+00 0 0 0 -6.122200e-01 -5.676683e-01 1.697482e-01 -5.235694e-01
68 1 1 -1.805791e+01 1.943457e+00 -2.654851e+00 0 0 0 2.532036e-01 5.638535e-01 -3.162958e-01 7.196625e-01
69 1 1 -1.725630e+01 1.750430e+00 -3.511539e+00 0 0 0 -7.843245e-01 5.027499e-01 5.245501e-02 -3.596193e-01
70 1 2 -1.768771e+01 1.312596e+00 -4.323737e+00 0 0 0 -3.736573e-01 -2.345810e-01 -2.691681e-01 8.560961e-01
71 1 3 -1.680043e+01 1.253222e+00 -4.372825e+00 0 0 0 -7.706248e-01 -7.349195e-02 3.083125e-01 5.528832e-01
72 1 4 -1.596272e+01 1.104156e+00 -5.142090e+00 0 0 0 7.197701e-01 6.312106e-01 -2.845563e-01 -5.031741e-02
73 1 1 -1.597810e+01 6.007862e-01 -5.244699e+00 0 0 0 7.341376e-01 4.129421e-01 -4.967737e-01 2.091332e-01
74 1 1 -1.638548e+01 8.194686e-01 -5.805752e+00 0 0 0 -2.392578e-01 1.776368e-01 9.539531e-01 3.426894e-02
75 1 3 -1.594035e+01 1.208404e+00 -6.598592e+00 0 0 0 -4.737276e-02 1.894320e-01 -9.182320e-01 -3.445595e-01
76 1 1 -1.612127e+01 1.256809e+00 -7.052490e+00 0 0 0 -9.057215e-02 2.498624e-01 8.734376e-01 4.080101e-01
77 1 4 -1.495145e+01 3.411214e-01 -6.961471e+00 0 0 0 -5.832402e-01 3.753793e-01 -7.079201e-01 1.333056e-01
78 1 1 -1.512240e+01 1.246456e-01 -7.834087e+00 0 0 0 -5.983536e-01 -6.964646e-01 2.727348e-01 2.872730e-01
79 1 4 -1.525159e+01 -2.950352e-01 -8.039382e+00 0 0 0 6.016959e-01 5.765220e-01 -5.387203e-01 1.239552e-01
80 1 2 -1.520144e+01 1.873248e-01 -7.992860e+00 0 0 0 -2.895682e-01 5.011481e-01 -6.496655e-01 4.928850e-01
81 1 4 -1.598963e+01 3.707563e-01 -8.734518e+00 0 0 0 -3.102501e-01 -3.665312e-02 9.285487e-01 2.004964e-01
82 1 4 -1.629305e+01 4.340556e-01 -9.196400e+00 0 0 0 -4.368944e-01 2.062213e-01 8.684855e-01 1.110358e-01
83 1 4 -1.618790e+01 1.114141e+00 -1.062438e+01 0 0 0 4.742567e-01 4.124989e-01 5.930551e-01 5.032007e-01
84 1 4 -1.581907e+01 1.304809e+00 -1.097211e+01 0 0 0 -1.484925e-01 -6.001492e-01 -5.130125e-01 -5.954739e-01
85 1 1 -1.539363e+01 -1.497387e-01 -1.072940e+01 0 0 0 9.211566e-01 -7.056018e-02 -3.776312e-01 -6.234187e-02
86 1 1 -1.605026e+01 -3.305622e-01 -1.169038e+01 0 0 0 2.801674e-01 4.456008e-03 -8.977106e-01 -3.400030e-01
87 1 3 -1.632947e+01 -3.602418e-01 -1.209041e+01 0 0 0 3.362597e-01 -4.148484e-01 -8.125910e-01 -2.335082e-01
88 1 2 -1.668521e+01 -1.808991e-01 -1.226119e+01 0 0 0 -2.496003e-01 8.311105e-01 4.888764e-01 8.918983e-02
89 1 2 -1.706440e+01 -1.652050e+00 -1.288643e+01 0 0 0 -3.403912e-01 1.605582e-01 -9.112372e-01 -1.673371e-01
90 1 3 -1.718101e+01 -2.058710e+00 -1.290896e+01 0 0 0 -3.675307e-01 -3.111405e-01 8.422366e-01 -2.423845e-01
91 1 3 -1.820332e+01 -1.204656e+00 -1.311707e+01 0 0 0 -1.311960e-01 -1.720485e-01 -4.753974e-01 -8.527510e-01
92 1 2 -1.803134e+01 -6.845967e-01 -1.323916e+01 0 0 0 1.129800e-01 -3.821092e-01 -3.731016e-01 -8.378683e-01
93 1 1 -1.708120e+01 -1.579965e+00 -1.384259e+01 0 0 0 -3.678812e-01 7.931790e-01 -4.732083e-01 -1.077243e-01
94 1 2 -1.763226e+01 -1.176832e+00 -1.454756e+01 0 0 0 -4.459412e-02 8.785439e-01 3.399869e-01 -3.325370e-01
95 1 3 -1.754166e+01 -1.324152e+00 -1.485063e+01 0 0 0 -4.412899e-01 8.359356e-01 2.917915e-01 1.460570e-01
96 1 2 -1.842166e+01 -1.464987e+00 -1.593868e+01 0 0 0 -3.207852e-01 1.552051e-02 2.954056e-01 8.997730e-01
97 1 2 -1.837219e+01 -1.135346e+00 -1.672331e+01 0 0 0 -3.208938e-01 -3.695848e-01 -4.119377e-01 -7.685971e-01
98 1 4 -1.810142e+01 -7.131046e-01 -1.678495e+01 0 0 0 7.464265e-03 -5.387852e-01 -1.883392e-01 -8.210866e-01
99 1 2 -1.765663e+01 -1.537700e-01 -1.671715e+01 0 0 0 -2.585606e-01 4.901931e-01 -3.821156e-02 -8.315029e-01
100 1 1 -1.662810e+01 -9.068326e-01 -1.651294e+01 0 0 0 -1.534128e-01 5.931946e-01 -7.538614e-01 2.372292e-01
101 2 4 4.585166e+00 -1.274691e+01 1.644494e+01 0 -1 -1 5.934267e-01 -5.069550e-01 5.099851e-01 3.616028e-01
102 2 3 4.470022e+00 -1.280747e+01 1.659143e+01 0 -1 -1 -5.979918e-01 2.658902e-01 6.790246e-01 3.326164e-01
103 2 1 5.056212e+00 -1.292745e+01 1.644788e+01 0 -1 -1 -4.260399e-01 2.091580e-01 -1.896456e-01 8.595216e-01
104 2 3 5.042599e+00 -1.304195e+01 1.700321e+01 0 -1 -1 -7.459485e-01 -2.758220e-02 -2.377630e-01 6.215053e-01
105 2 3 5.032957e+00 -1.333483e+01 1.742100e+01 0 -1 -1 -8.956336e-01 -2.029798e-01 -2.272185e-01 3.240548e-01
106 2 2 4.730924e+00 -1.348436e+01 1.827943e+01 0 -1 -1 -7.177968e-01 -2.134063e-01 3.618241e-01 5.552556e-01
107 2 3 4.759361e+00 -1.268366e+01 1.782345e+01 0 -1 -1 -4.746354e-01 1.740469e-02 -8.640314e-01 -1.669372e-01
108 2 4 5.251586e+00 -1.165122e+01 1.847675e+01 0 -1 -1 6.844652e-01 -3.762427e-01 -5.427777e-01 3.087738e-01
109 2 3 5.801688e+00 -1.121577e+01 1.786412e+01 0 -1 -1 5.798946e-01 -7.593780e-01 2.846434e-01 -7.775245e-02
110 2 2 6.184605e+00 -1.087712e+01 1.789541e+01 0 -1 -1 4.678811e-01 -5.878873e-01 6.516726e-01 1.039159e-01
111 2 2 5.009934e+00 -1.069770e+01 1.734614e+01 0 -1 -1 -3.347413e-01 -2.183917e-01 8.339771e-01 3.804412e-01
112 2 3 4.432049e+00 -1.060489e+01 1.698845e+01 0 -1 -1 -5.059188e-01 3.975497e-03 8.254308e-01 2.503885e-01
113 2 3 3.683285e+00 -9.944985e+00 1.676390e+01 0 -1 -1 2.056557e-01 6.852204e-01 3.707811e-01 -5.921994e-01
114 2 2 3.236178e+00 -9.521716e+00 1.691144e+01 0 -1 -1 3.782003e-01 4.872043e-01 1.144729e-01 7.787762e-01
115 2 4 2.438575e+00 -9.532896e+00 1.654680e+01 0 -1 -1 -5.902339e-01 -6.435726e-01 -3.903606e-01 -2.916450e-01
116 2 4 1.813826e+00 -9.524004e+00 1.774135e+01 0 -1 -1 -4.327762e-01 -2.569536e-01 4.337166e-01 -7.473751e-01
117 2 1 7.159519e-01 -9.632055e+00 1.762337e+01 0 -1 -1 5.257117e-01 -4.431781e-01 2.606284e-01 -6.777117e-01
118 2 1 9.135683e-01 -9.483154e+00 1.799137e+01 0 -1 -1 -6.872538e-01 3.864716e-01 -4.734171e-01 3.926807e-01
119 2 1 1.206172e+00 -8.541532e+00 1.863862e+01 0 -1 -1 1.862318e-01 -8.778568e-01 -4.410025e-01 1.421388e-02
120 2 1 5.501268e-01 -9.115514e+00 1.867797e+01 0 -1 -1 7.189156e-01 1.355612e-01 -5.910635e-01 -3.397462e-01
121 2 3 1.461803e-01 -9.027006e+00 1.833287e+01 0 -1 -1 -1.039632e-01 -6.878116e-01 4.833233e-01 5.315124e-01
122 2 1 -1.827510e-01 -9.362581e+00 1.938714e+01 0 -1 -1 3.698025e-01 -2.928554e-01 -6.515532e-01 5.941045e-01
123 2 4 -6.200944e-01 -9.470346e+00 1.965261e+01 0 -1 -1 1.528289e-02 -5.754256e-01 -4.624832e-01 6.743598e-01
124 2 1 -1.015681e+00 -9.591815e+00 1.974624e+01 0 -1 -1 -3.231996e-01 -6.884287e-01 -1.291559e-01 6.363385e-01
125 2 4 -9.758131e-01 -1.035149e+01 -1.893890e+01 0 -1 0 -4.743064e-01 -1.694321e-01 8.411825e-01 1.968203e-01
126 2 2 -8.807987e-01 -1.010020e+01 -1.825309e+01 0 -1 0 5.417990e-01 -4.315677e-02 3.158469e-01 -7.777095e-01
127 2 4 -9.948110e-01 -1.033762e+01 -1.774075e+01 0 -1 0 -7.732203e-01 -1.801897e-01 -2.717233e-01 5.439012e-01
128 2 4 -1.685264e+00 -9.889023e+00 -1.746450e+01 0 -1 0 -5.708428e-02 4.067106e-02 -4.745899e-02 -9.964110e-01
129 2 1 -1.238106e+00 -1.033932e+01 -1.689516e+01 0 -1 0 2.725688e-01 -3.400416e-02 -9.371089e-02 -9.569578e-01
130 2 2 -2.269446e-01 -1.058193e+01 -1.744598e+01 0 -1 0 4.652651e-01 -6.706874e-01 6.636243e-02 5.738491e-01
131 2 3 4.108256e-02 -1.198911e+01 -1.717381e+01 0 -1 0 -6.977078e-01 -5.216519e-01 4.888798e-01 -4.560355e-02
132 2 4 2.575810e-02 -1.253096e+01 -1.728102e+01 0 -1 0 6.030578e-01 2.706353e-01 -6.615996e-01 3.540675e-01
133 2 4 5.599211e-01 -1.257537e+01 -1.808348e+01 0 -1 0 1.106711e-01 -5.062491e-01 4.989747e-01 6.946136e-01
134 2 3 1.016795e+00 -1.263019e+01 -1.797593e+01 0 -1 0 3.630082e-02 4.780871e-01 -8.775592e-01 2.173570e-03
135 2 4 1.649953e+00 -1.141975e+01 -1.823515e+01 0 -1 0 2.139898e-01 8.688065e-01 -1.967070e-01 4.008615e-01
136 2 3 1.479119e+00 -1.132713e+01 -1.899361e+01 0 -1 0 -1.431652e-01 -7.488038e-01 -6.187485e-01 -1.895967e-01
137 2 1 2.120428e+00 -1.097841e+01 -1.945640e+01 0 -1 0 1.113050e-02 -8.269212e-01 -2.047614e-01 5.235936e-01
138 2 3 2.867450e+00 -1.128383e+01 -1.987269e+01 0 -1 0 4.315060e-01 8.136306e-01 3.266311e-01 2.124147e-01
139 2 2 2.596492e+00 -1.168661e+01 -1.994255e+01 0 -1 0 7.684525e-01 -7.314136e-02 -6.232413e-01 -1.253054e-01
140 2 3 2.345697e+00 -1.076390e+01 1.966862e+01 0 -1 -1 -4.967702e-01 -8.293952e-02 2.419648e-01 8.293332e-01
141 2 1 3.050359e+00 -1.002756e+01 -1.939137e+01 0 -1 0 3.304437e-01 -5.934160e-01 6.417441e-02 -7.311266e-01
142 2 2 3.607618e+00 -1.009978e+01 -1.880260e+01 0 -1 0 6.415454e-01 -7.662912e-01 2.740098e-03 -3.478135e-02
143 2 4 3.669567e+00 -9.942344e+00 -1.888575e+01 0 -1 0 -5.834230e-02 -6.472474e-01 -4.912289e-01 -5.799665e-01
144 2 4 4.480180e+00 -1.010133e+01 -1.869911e+01 0 -1 0 -5.873962e-01 -7.550152e-01 1.088835e-01 2.703003e-01
145 2 1 3.860725e+00 -9.658596e+00 -1.812237e+01 0 -1 0 -9.147898e-03 -2.663904e-01 6.566303e-01 7.055417e-01
146 2 1 4.164974e+00 -9.203348e+00 -1.771891e+01 0 -1 0 -4.986290e-01 7.460873e-01 -3.429990e-01 2.776230e-01
147 2 1 2.834630e+00 -8.872888e+00 -1.763433e+01 0 -1 0 -9.627298e-02 -4.570410e-01 -5.750320e-01 6.717018e-01
148 2 2 3.724045e+00 -8.287041e+00 -1.811803e+01 0 -1 0 -7.216722e-01 2.563967e-01 -3.692210e-01 -5.264273e-01
149 2 4 4.008956e+00 -7.985716e+00 -1.784178e+01 0 -1 0 -5.319495e-01 6.269609e-02 -5.286741e-01 -6.584851e-01
150 2 1 3.280907e+00 -7.538168e+00 -1.660461e+01 0 -1 0 -1.739484e-01 8.050266e-01 5.559722e-01 -1.121118e-01
151 2 1 3.040195e+00 -7.230745e+00 -1.693008e+01 0 -1 0 1.163475e-02 9.845733e-01 -1.107732e-02 -1.742334e-01
152 2 1 3.132595e+00 -6.703332e+00 -1.603832e+01 0 -1 0 7.172440e-01 -4.171433e-02 -1.239629e-01 6.844371e-01
153 2 4 3.198539e+00 -6.737004e+00 -1.553296e+01 0 -1 0 -5.501842e-01 1.297680e-01 2.145614e-02 -8.246195e-01
154 2 1 3.178522e+00 -6.465033e+00 -1.512261e+01 0 -1 0 -1.380585e-01 1.862356e-01 -8.103049e-02 -9.693762e-01
155 2 2 3.614019e+00 -6.132036e+00 -1.521652e+01 0 -1 0 2.706533e-01 5.466844e-01 -3.322733e-02 -7.916937e-01
156 2 4 4.700435e+00 -6.290584e+00 -1.519714e+01 0 -1 0 2.377808e-01 6.735279e-01 -4.445929e-01 -5.405160e-01
157 2 3 5.355680e+00 -6.752360e+00 -1.519884e+01 0 -1 0 7.954378e-01 1.248380e-01 5.514182e-01 2.182480e-01
158 2 2 6.298011e+00 -6.933717e+00 -1.515913e+01 0 -1 0 6.708883e-01 -3.312592e-01 5.993798e-01 2.844645e-01
159 2 1 6.721260e+00 -6.837659e+00 -1.523563e+01 0 -1 0 5.630146e-01 -2.800322e-02 6.801603e-01 4.686281e-01
160 2 3 7.084049e+00 -6.606453e+00 -1.532711e+01 0 -1 0 3.343337e-01 2.006700e-01 7.263193e-01 5.660502e-01
161 2 1 7.619573e+00 -7.017651e+00 -1.411791e+01 0 -1 0 2.582269e-01 -6.130500e-01 7.316527e-01 -1.489057e-01
162 2 1 6.773866e+00 -5.812446e+00 -1.431751e+01 0 -1 0 1.242031e-01 4.673582e-01 -2.935430e-02 -8.748075e-01
163 2 4 6.279606e+00 -6.361847e+00 -1.315598e+01 0 -1 0 -6.272455e-01 2.461472e-01 -3.009912e-01 6.748177e-01
164 2 4 6.440924e+00 -6.494890e+00 -1.268595e+01 0 -1 0 -7.852820e-01 1.135753e-01 -4.638521e-01 3.940482e-01
165 2 3 6.699250e+00 -6.865708e+00 -1.246173e+01 0 -1 0 8.827689e-01 7.173381e-02 4.572937e-01 8.034875e-02
166 2 3 7.065860e+00 -7.137552e+00 -1.237435e+01 0 -1 0 -8.146675e-01 -2.323749e-01 -4.418124e-01 -2.951621e-01
167 2 4 5.772126e+00 -6.954187e+00 -1.199229e+01 0 -1 0 5.851877e-02 1.109337e-01 -6.647452e-01 -7.364667e-01
168 2 2 5.259507e+00 -6.293575e+00 -1.238919e+01 0 -1 0 4.189843e-01 5.230454e-01 6.432126e-01 3.703420e-01
169 2 2 4.813516e+00 -6.982634e+00 -1.211782e+01 0 -1 0 -3.483148e-01 7.064389e-01 6.041443e-01 1.209571e-01
170 2 1 4.779062e+00 -7.719845e+00 -1.278532e+01 0 -1 0 5.164175e-01 3.087959e-01 -7.407831e-01 2.986611e-01
171 2 1 4.250945e+00 -8.502846e+00 -1.283294e+01 0 -1 0 3.821630e-01 4.966287e-02 7.634945e-01 -5.182290e-01
172 2 4 4.400280e+00 -8.045852e+00 -1.289768e+01 0 -1 0 -4.190481e-01 8.227467e-01 -3.766918e-01 -7.476591e-02
173 2 4 2.919434e+00 -8.262404e+00 -1.278020e+01 0 -1 0 -8.010198e-01 3.839098e-02 1.387885e-01 5.810604e-01
174 2 1 2.117842e+00 -7.850913e+00 -1.267667e+01 0 -1 0 1.705912e-01 -8.476049e-02 -6.577612e-01 7.287417e-01
175 2 1 1.815732e+00 -8.047924e+00 -1.228841e+01 0 -1 0 -1.245014e-01 -2.882081e-01 -5.528979e-01 7.718416e-01
176 2 2 2.318678e+00 -8.924418e+00 -1.169812e+01 0 -1 0 -9.633665e-01 -4.442967e-02 1.218335e-01 2.347501e-01
177 2 2 1.189272e+00 -9.204815e+00 -1.203950e+01 0 -1 0 4.258183e-01 1.036091e-01 8.759794e-01 -2.015042e-01
178 2 1 1.320865e+00 -9.569967e+00 -1.223396e+01 0 -1 0 -4.775964e-01 -4.267615e-01 -7.657909e-01 5.779784e-02
179 2 4 1.129061e+00 -1.033353e+01 -1.139056e+01 0 -1 0 7.940171e-01 -1.382306e-01 -5.919275e-01 7.144630e-03
180 2 1 7.238384e-01 -1.035910e+01 -1.101429e+01 0 -1 0 -7.534861e-01 4.078114e-01 4.358176e-01 -2.757020e-01
181 2 4 3.369084e-01 -9.771718e+00 -1.070744e+01 0 -1 0 -2.167084e-01 -7.436710e-01 -1.603168e-01 -6.117920e-01
182 2 2 3.493586e-01 -1.007455e+01 -1.038805e+01 0 -1 0 -2.057477e-01 1.727838e-01 8.634073e-01 4.270147e-01
183 2 3 1.199869e+00 -9.114183e+00 -9.892355e+00 0 -1 0 2.771341e-01 2.893980e-01 2.342011e-01 8.857739e-01
184 2 4 1.236154e+00 -8.477713e+00 -9.235561e+00 0 -1 0 -2.159929e-01 7.817542e-01 4.481802e-01 3.759547e-01
185 2 3 1.571142e+00 -9.781800e+00 -8.804370e+00 0 -1 0 1.463661e-01 -5.078818e-01 7.518806e-01 -3.940922e-01
186 2 1 8.467731e-01 -8.730306e+00 -8.651052e+00 0 -1 0 3.088123e-01 -9.064511e-01 -2.872536e-01 2.160435e-02
187 2 1 9.871546e-02 -8.594183e+00 -8.913783e+00 0 -1 0 -5.491103e-01 2.558021e-01 5.713081e-01 5.537601e-01
188 2 2 -3.403862e-01 -8.303593e+00 -8.900554e+00 0 -1 0 -6.807852e-01 3.717902e-01 5.017013e-01 3.828830e-01
189 2 4 -7.114772e-01 -8.989407e+00 -9.489918e+00 0 -1 0 -5.853550e-01 1.559610e-01 -5.986940e-01 5.240240e-01
190 2 4 -4.868987e-01 -9.392697e+00 -9.231006e+00 0 -1 0 -7.457512e-01 -7.234956e-02 -6.270554e-01 2.131249e-01
191 2 1 -1.323070e+00 -9.284324e+00 -8.714951e+00 0 -1 0 1.635976e-01 -4.463136e-01 -3.711001e-01 -7.976996e-01
192 2 4 -1.320066e+00 -9.525256e+00 -9.516476e+00 0 -1 0 7.975695e-01 -1.008940e-01 5.364487e-01 2.567608e-01
193 2 4 -2.221280e+00 -9.664165e+00 -9.527659e+00 0 -1 0 -2.449085e-01 3.113581e-01 8.986105e-01 -1.886138e-01
194 2 1 -2.658908e+00 -9.833694e+00 -9.866812e+00 0 -1 0 -3.117068e-01 5.909117e-01 7.367541e-01 -1.041904e-01
195 2 3 -3.118112e+00 -9.671435e+00 -1.014228e+01 0 -1 0 -1.527342e-01 8.949983e-01 4.069933e-01 -1.000335e-01
196 2 4 -3.848426e+00 -1.007138e+01 -1.042819e+01 0 -1 0 1.625082e-01 7.088978e-01 4.876189e-01 4.829936e-01
197 2 2 -3.575718e+00 -1.114074e+01 -1.096555e+01 0 -1 0 3.182958e-01 3.265850e-01 -8.882310e-01 -5.545990e-02
198 2 4 -3.798538e+00 -1.150748e+01 -1.129167e+01 0 -1 0 -3.493232e-01 1.164718e-01 9.226323e-01 -1.147049e-01
199 2 3 -3.041500e+00 -1.194307e+01 -1.205831e+01 0 -1 0 -3.005220e-01 -8.978917e-01 2.891279e-01 1.410041e-01
200 2 4 -4.234935e+00 -1.274984e+01 -1.130178e+01 0 -1 0 7.842883e-02 -2.165955e-01 9.609366e-01 -1.534152e-01
