ITEM: TIMESTEP
321000000
ITEM: NUMBER OF ATOMS
200
ITEM: BOX BOUNDS pp pp pp
-2.0000000000000000e+01 2.0000000000000000e+01
-2.0000000000000000e+01 2.0000000000000000e+01
-2.0000000000000000e+01 2.0000000000000000e+01
ITEM: ATOMS id mol type x y z ix iy iz c_quat[1] c_quat[2] c_quat[3] c_quat[4]
1 1 1 -1.993604e+01 1.286848e+01 1.403998e+00 0 -1 0 -8.829506e-01 -7.950727e-02 4.533783e-01 -9.233009e-02
2 1 2 1.981291e+01 1.252456e+01 1.845319e+00 -1 -1 0 8.141890e-01 -5.813749e-02 -4.527213e-01 3.588310e-01
3 1 1 -1.933050e+01 1.275392e+01 1.491677e+00 0 -1 0 3.699590e-01 -8.875933e-01 3.963808e-02 2.715461e-01
4 1 3 -1.891763e+01 1.244127e+01 2.350563e+00 0 -1 0 -6.721541e-01 6.742175e-01 2.944437e-01 8.332227e-02
5 1 1 -1.793548e+01 1.207178e+01 2.405942e+00 0 -1 0 7.094636e-01 3.915811e-01 -4.649987e-01 3.565136e-01
6 1 2 -1.746958e+01 1.219794e+01 2.698083e+00 0 -1 0 -9.093062e-01 3.425670e-01 -2.251451e-01 -7.155220e-02
7 1 4 -1.747648e+01 1.297648e+01 3.535037e+00 0 -1 0 -8.670919e-01 4.808867e-01 -2.262462e-02 -1.280145e-01
8 1 1 -1.724750e+01 1.331923e+01 3.850100e+00 0 -1 0 6.123852e-01 -5.244145e-01 2.951897e-01 5.126761e-01
9 1 1 -1.765460e+01 1.369071e+01 3.877868e+00 0 -1 0 5.261530e-01 -1.979109e-01 -4.789230e-01 -6.742604e-01
10 1 4 -1.654417e+01 1.430563e+01 4.515413e+00 0 -1 0 6.469389e-01 -5.815342e-02 -6.140690e-01 4.483387e-01
11 1 1 -1.683448e+01 1.400131e+01 4.867839e+00 0 -1 0 -3.946038e-01 2.654371e-01 5.455231e-01 -6.900982e-01
12 1 1 -1.732713e+01 1.385821e+01 5.224745e+00 0 -1 0 1.038943e-01 -5.412337e-01 -4.183549e-01 7.219773e-01
13 1 3 -1.773605e+01 1.389813e+01 5.396727e+00 0 -1 0 -2.292342e-01 -5.784594e-01 -2.689240e-01 7.351981e-01
14 1 4 -1.686191e+01 1.400133e+01 6.623563e+00 0 -1 0 8.416161e-01 -3.621564e-01 -3.985436e-01 4.108786e-02
15 1 4 -1.724353e+01 1.425098e+01 6.899664e+00 0 -1 0 -9.222796e-01 2.884669e-01 2.566799e-01 1.739508e-02
16 1 2 -1.690573e+01 1.455464e+01 6.817857e+00 0 -1 0 6.614120e-01 -1.639010e-01 -7.309847e-01 3.649629e-02
17 1 1 -1.712873e+01 1.529186e+01 6.563704e+00 0 -1 0 -8.369979e-01 2.912599e-01 3.795773e-01 -2.655623e-01
18 1 2 -1.654897e+01 1.596035e+01 5.752862e+00 0 -1 0 3.257881e-01 9.157834e-01 -7.882966e-02 -2.213342e-01
19 1 3 -1.694739e+01 1.656670e+01 6.200702e+00 0 -1 0 -1.073896e-01 -2.092773e-01 -6.158139e-01 7.519599e-01
20 1 1 -1.595039e+01 1.645834e+01 6.573367e+00 0 -1 0 8.150090e-01 5.793201e-01 4.662486e-03 1.125750e-02
21 1 4 -1.641856e+01 1.643558e+01 7.922142e+00 0 -1 0 -6.162361e-01 3.491510e-01 -3.394474e-01 6.189686e-01
22 1 1 -1.657703e+01 1.760290e+01 7.611534e+00 0 -1 0 -4.871619e-01 -6.723029e-01 -5.539566e-01 6.175878e-02
23 1 4 -1.656625e+01 1.722044e+01 7.984306e+00 0 -1 0 -6.039296e-01 -5.308588e-01 4.764275e-01 -3.556328e-01
24 1 3 -1.774820e+01 1.688390e+01 8.311991e+00 0 -1 0 6.210707e-01 -5.678782e-01 -3.171160e-01 -4.372905e-01
25 1 3 -1.705168e+01 1.615546e+01 8.359278e+00 0 -1 0 -8.519197e-01 8.349045e-02 1.752812e-01 4.863524e-01
26 1 4 -1.617345e+01 1.593072e+01 8.263495e+00 0 -1 0 -5.434095e-01 -4.332866e-01 6.378034e-01 3.319273e-01
27 1 4 -1.650032e+01 1.540452e+01 8.346730e+00 0 -1 0 7.575121e-02 2.324312e-01 9.692645e-01 -2.763760e-02
28 1 1 -1.669443e+01 1.504989e+01 8.040052e+00 0 -1 0 -7.121486e-01 -6.158846e-01 -1.997630e-01 2.713397e-01
29 1 1 -1.705787e+01 1.497372e+01 7.971285e+00 0 -1 0 -5.891800e-01 6.483702e-02 -3.112144e-01 -7.428382e-01
30 1 4 -1.768020e+01 1.479600e+01 8.910538e+00 0 -1 0 1.024320e-01 2.274007e-01 1.481211e-01 -9.570040e-01
31 1 4 -1.807163e+01 1.493030e+01 9.214990e+00 0 -1 0 5.645562e-01 3.192131e-01 -2.204492e-02 -7.608504e-01
32 1 3 -1.848886e+01 1.459685e+01 9.491949e+00 0 -1 0 -7.068787e-01 -4.396030e-01 6.586950e-02 5.502117e-01
33 1 3 -1.873535e+01 1.403079e+01 9.818687e+00 0 -1 0 -7.434860e-01 -5.292748e-01 -1.172953e-01 3.915847e-01
34 1 1 -1.882301e+01 1.350446e+01 9.861845e+00 0 -1 0 7.417802e-01 6.407999e-01 1.610677e-01 -1.148686e-01
35 1 2 -1.905664e+01 1.283743e+01 1.002476e+01 0 -1 0 3.033104e-01 2.022677e-01 8.350891e-01 4.119670e-01
36 1 2 -1.851337e+01 1.272738e+01 1.065173e+01 0 -1 0 -4.169127e-01 -7.515259e-01 -4.046498e-01 -3.124919e-01
37 1 1 -1.854262e+01 1.128175e+01 1.041711e+01 0 -1 0 -6.022205e-01 1.751384e-01 -7.763909e-01 -6.224204e-02
38 1 1 -1.812223e+01 1.115019e+01 1.027392e+01 0 -1 0 -4.845708e-01 -2.557585e-01 -8.335089e-01 -7.100466e-02
39 1 4 -1.790101e+01 1.098171e+01 9.918254e+00 0 -1 0 -3.782417e-01 -5.471951e-01 -7.189075e-01 -2.016998e-01
40 1 4 -1.777894e+01 1.093478e+01 9.472656e+00 0 -1 0 2.112232e-01 8.306413e-01 4.445520e-01 2.603715e-01
41 1 2 -1.779016e+01 1.112634e+01 8.958409e+00 0 -1 0 3.878976e-03 9.471580e-01 2.057894e-01 2.460231e-01
42 1 4 -1.726453e+01 1.025717e+01 8.865046e+00 0 -1 0 -2.435840e-01 -2.295024e-01 9.307448e-01 -1.473419e-01
43 1 3 -1.737245e+01 9.757673e+00 8.758356e+00 0 -1 0 2.223662e-01 -9.945531e-02 -9.341321e-01 2.608814e-01
44 1 2 -1.772444e+01 9.411196e+00 8.590318e+00 0 -1 0 1.313181e-01 -4.914391e-01 -8.111784e-01 2.885008e-01
45 1 1 -1.816599e+01 9.362170e+00 8.410546e+00 0 -1 0 3.191993e-02 -7.454663e-01 -5.425514e-01 3.858745e-01
46 1 3 -1.862145e+01 9.392760e+00 8.255900e+00 0 -1 0 2.496723e-01 8.729321e-01 1.837140e-01 -3.766995e-01
47 1 4 -1.918463e+01 1.006005e+01 9.210557e+00 0 -1 0 1.726853e-01 4.890508e-01 1.467762e-01 8.422979e-01
48 1 1 -1.820033e+01 9.194436e+00 9.723324e+00 0 -1 0 8.507858e-01 -4.523331e-01 1.120942e-01 2.428851e-01
49 1 4 -1.791906e+01 9.499006e+00 1.003697e+01 0 -1 0 6.683982e-01 -3.579159e-01 3.621655e-01 5.421958e-01
50 1 4 -1.860718e+01 1.049007e+01 1.057872e+01 0 -1 0 -1.706141e-01 -7.433924e-01 -6.181796e-01 -1.900331e-01
51 1 4 -1.860925e+01 1.070572e+01 1.101428e+01 0 -1 0 1.262376e-01 4.866834e-01 8.600970e-01 8.623497e-02
52 1 1 -1.787824e+01 1.051188e+01 1.131664e+01 0 -1 0 -1.198631e-01 -1.944279e-02 6.796247e-01 7.234398e-01
53 1 3 -1.650136e+01 1.083668e+01 1.207106e+01 0 -1 0 8.145286e-01 -5.607631e-01 1.280321e-01 7.546965e-02
54 1 4 -1.618958e+01 1.112497e+01 1.238200e+01 0 -1 0 -6.259333e-01 5.144089e-01 -3.624594e-01 -4.606671e-01
55 1 4 -1.598122e+01 1.152219e+01 1.243069e+01 0 -1 0 -3.486946e-01 3.022071e-01 -5.134700e-01 -7.234857e-01
56 1 4 -1.614112e+01 1.113605e+01 1.336074e+01 0 -1 0 1.416064e-01 -7.649020e-01 -4.617260e-01 -4.262412e-01
57 1 1 -1.529025e+01 1.100283e+01 1.356430e+01 0 -1 0 3.116984e-01 -2.816579e-01 -3.152653e-01 8.509529e-01
58 1 1 -1.458856e+01 1.080888e+01 1.374531e+01 0 -1 0 2.726160e-01 -5.332411e-01 1.164794e-01 7.923175e-01
59 1 3 -1.471863e+01 1.123401e+01 1.389166e+01 0 -1 0 -8.809513e-02 4.246137e-01 -3.534184e-01 -8.288775e-01
60 1 4 -1.431507e+01 1.217499e+01 1.419737e+01 0 -1 0 6.254195e-01 1.405685e-02 -1.160882e-01 7.714768e-01
61 1 2 -1.399563e+01 1.214131e+01 1.452358e+01 0 -1 0 -2.299039e-01 -1.119014e-01 7.497949e-02 -9.638466e-01
62 1 3 -1.393764e+01 1.234335e+01 1.507828e+01 0 -1 0 -1.703437e-01 3.898118e-02 -6.747042e-02 9.822989e-01
63 1 2 -1.412759e+01 1.212866e+01 1.575645e+01 0 -1 0 4.486634e-01 -3.823917e-01 6.236382e-01 -5.133743e-01
64 1 4 -1.398120e+01 1.353392e+01 1.517067e+01 0 -1 0 5.578600e-01 -2.420462e-01 3.454937e-01 7.147307e-01
65 1 2 -1.517651e+01 1.296389e+01 1.501529e+01 0 -1 0 5.146554e-01 4.761912e-01 5.076017e-04 -7.130018e-01
66 1 1 -1.562403e+01 1.263470e+01 1.518890e+01 0 -1 0 -8.235646e-01 -3.801656e-01 1.753522e-01 3.827102e-01
67 1 2 -1.594159e+01 1.393433e+01 1.489461e+01 0 -1 0 5.586971e-02 -5.831161e-01 -7.052381e-01 -3.993662e-01
68 1 1 -1.561282e+01 1.344028e+01 1.449682e+01 0 -1 0 -7.805454e-01 -3.525452e-01 6.958193e-02 -5.114871e-01
69 1 1 -1.598759e+01 1.348302e+01 1.409690e+01 0 -1 0 3.157351e-03 4.267290e-01 -2.614731e-02 9.039960e-01
70 1 2 -1.515605e+01 1.384855e+01 1.421413e+01 0 -1 0 5.933127e-01 -5.563211e-01 -5.630274e-01 1.465847e-01
71 1 3 -1.552839e+01 1.427113e+01 1.410237e+01 0 -1 0 6.565575e-01 -6.251998e-01 -4.124358e-01 -8.918644e-02
72 1 4 -1.575260e+01 1.460723e+01 1.441215e+01 0 -1 0 6.836071e-01 -6.638079e-01 -3.171553e-02 3.017193e-01
73 1 1 -1.734800e+01 1.409624e+01 1.382797e+01 0 -1 0 4.590973e-01 3.672405e-01 1.759087e-01 -7.895696e-01
74 1 1 -1.767624e+01 1.375733e+01 1.420555e+01 0 -1 0 -7.040322e-01 -4.536385e-01 -1.702829e-01 5.191863e-01
75 1 3 -1.803816e+01 1.341375e+01 1.419099e+01 0 -1 0 7.887540e-01 5.578645e-01 -5.343229e-02 -2.525851e-01
76 1 1 -1.840953e+01 1.269653e+01 1.482650e+01 0 -1 0 4.982664e-01 2.353370e-01 -6.184717e-01 -5.602141e-01
77 1 4 -1.885495e+01 1.379736e+01 1.574054e+01 0 -1 0 -4.004958e-01 6.880897e-01 5.422667e-01 -2.684818e-01
78 1 1 -1.921388e+01 1.406688e+01 1.583667e+01 0 -1 0 1.679048e-01 -8.267979e-01 -2.975966e-02 5.360295e-01
79 1 4 1.957391e+01 1.339359e+01 1.627692e+01 -1 -1 0 4.445576e-01 2.766868e-01 -4.058164e-02 -8.509795e-01
80 1 2 -1.936479e+01 1.403226e+01 1.743434e+01 0 -1 0 3.549041e-01 7.006540e-01 -3.264437e-01 5.258912e-01
81 1 4 -1.893923e+01 1.396407e+01 1.743484e+01 0 -1 0 -2.778119e-03 6.140543e-01 -5.728252e-01 5.429557e-01
82 1 4 -1.890707e+01 1.500494e+01 1.664706e+01 0 -1 0 2.581449e-01 1.436765e-02 5.268214e-01 8.097000e-01
83 1 4 -1.944441e+01 1.491943e+01 1.752668e+01 0 -1 0 -8.115538e-01 1.702813e-01 3.125919e-01 4.633260e-01
84 1 4 1.993237e+01 1.577521e+01 1.726582e+01 -1 -1 0 -3.485162e-01 8.235954e-01 4.400450e-01 -8.116333e-02
85 1 1 1.994937e+01 1.587593e+01 1.719143e+01 -1 -1 0 -4.408425e-02 9.326210e-01 -2.569458e-01 -2.495064e-01
86 1 1 1.935640e+01 1.631722e+01 1.750338e+01 -1 -1 0 -3.832646e-01 2.209930e-01 8.090707e-01 3.868786e-01
87 1 3 -2.010985e+01 1.656745e+01 1.812227e+01 0 -1 0 6.432805e-01 -3.043092e-02 -6.781575e-01 -3.540715e-01
88 1 2 1.993495e+01 1.716217e+01 1.814486e+01 -1 -1 0 -3.543182e-01 -8.910095e-01 1.845971e-01 2.156030e-01
89 1 2 1.872263e+01 1.737244e+01 1.846601e+01 -1 -1 0 5.037296e-01 6.192793e-01 2.767079e-01 -5.349602e-01
90 1 3 1.853322e+01 1.820031e+01 1.898385e+01 -1 -1 0 5.694003e-01 -5.659388e-01 -3.372307e-01 4.917033e-01
91 1 3 1.806427e+01 1.846209e+01 1.917898e+01 -1 -1 0 -1.859541e-01 8.306663e-01 4.763834e-02 -5.226329e-01
92 1 2 1.778516e+01 1.902063e+01 1.886983e+01 -1 -1 0 -2.910668e-01 -8.280206e-01 -1.061228e-01 4.673327e-01
93 1 1 1.741070e+01 1.895214e+01 1.832397e+01 -1 -1 0 -7.200644e-01 -2.704338e-01 -4.336277e-01 4.694037e-01
94 1 2 1.780759e+01 1.982437e+01 1.871072e+01 -1 -1 0 3.686280e-01 1.890824e-01 -7.543131e-01 5.092867e-01
95 1 3 1.792977e+01 -1.967512e+01 1.835798e+01 -1 0 0 6.365303e-01 2.903697e-01 -7.030853e-01 1.272232e-01
96 1 2 1.752203e+01 -1.915159e+01 1.853378e+01 -1 0 0 1.079745e-01 4.778894e-01 -8.665544e-01 9.511444e-02
97 1 2 1.763221e+01 -1.829538e+01 1.946387e+01 -1 0 0 7.530081e-01 -2.970517e-01 -5.860148e-01 3.641042e-02
98 1 4 1.748923e+01 -1.745415e+01 1.924544e+01 -1 0 0 -5.099466e-01 7.915535e-01 -6.496683e-02 3.304192e-01
99 1 2 1.815669e+01 -1.698283e+01 1.838087e+01 -1 0 0 -2.651655e-01 4.383012e-01 -4.765306e-01 -7.144914e-01
100 1 1 1.870425e+01 -1.723251e+01 1.819052e+01 -1 0 0 5.338857e-01 7.252614e-01 4.321051e-01 -4.740386e-02
101 2 4 7.340916e+00 7.840011e+00 -1.115638e+01 0 -1 0 5.801723e-01 5.719211e-01 -4.299420e-01 -3.891737e-01
102 2 3 6.189307e+00 8.808532e+00 -1.021324e+01 0 -1 0 1.592706e-01 -5.910023e-01 -7.907391e-01 8.990357e-03
103 2 1 7.186837e+00 9.353037e+00 -9.772529e+00 0 -1 0 -4.883532e-01 8.091583e-01 3.247492e-01 -3.622018e-02
104 2 3 7.046561e+00 9.859063e+00 -1.002124e+01 0 -1 0 -6.309143e-01 7.090594e-01 2.941770e-01 1.124354e-01
105 2 3 7.022807e+00 1.035428e+01 -9.962215e+00 0 -1 0 -7.262458e-01 6.830921e-01 7.055890e-02 -3.120453e-02
106 2 2 5.870268e+00 1.041659e+01 -9.714716e+00 0 -1 0 1.663232e-01 -1.903475e-01 7.301819e-01 -6.347746e-01
107 2 3 5.850649e+00 1.075583e+01 -9.285987e+00 0 -1 0 1.476056e-01 8.828113e-01 -2.075553e-01 3.946867e-01
108 2 4 4.591623e+00 1.000260e+01 -9.760712e+00 0 -1 0 -6.197007e-01 -3.502311e-01 1.217898e-01 6.917199e-01
109 2 3 3.954676e+00 1.045044e+01 -8.887142e+00 0 -1 0 -3.663392e-01 -2.414677e-01 -2.106806e-01 8.735575e-01
110 2 2 3.601193e+00 1.030111e+01 -8.630565e+00 0 -1 0 7.404318e-01 3.334694e-01 5.353178e-02 -5.811138e-01
111 2 2 3.224525e+00 9.988579e+00 -8.373471e+00 0 -1 0 -9.022436e-01 -3.511210e-01 -3.238305e-03 2.503200e-01
112 2 3 3.125936e+00 9.498331e+00 -7.130377e+00 0 -1 0 7.556777e-01 -1.831067e-01 -6.287986e-01 5.955854e-03
113 2 3 2.697454e+00 9.370634e+00 -7.272049e+00 0 -1 0 7.297572e-01 -4.596533e-01 4.872115e-01 -1.371070e-01
114 2 2 2.220744e+00 9.124788e+00 -7.481842e+00 0 -1 0 -6.151062e-01 -6.303520e-01 -4.387742e-01 1.782634e-01
115 2 4 1.694350e+00 8.266588e+00 -7.506217e+00 0 -1 0 -3.393016e-01 -4.536546e-01 5.733591e-01 5.918879e-01
116 2 4 1.125801e+00 8.331433e+00 -7.649750e+00 0 -1 0 6.471690e-01 2.134485e-01 -6.240503e-01 -3.823261e-01
117 2 1 5.903497e-01 8.132167e+00 -7.775788e+00 0 -1 0 -7.881750e-01 -3.985110e-02 6.054355e-01 1.031499e-01
118 2 1 6.211825e-01 9.461257e+00 -7.762649e+00 0 -1 0 -5.970490e-01 7.757458e-01 2.031777e-01 2.167207e-02
119 2 1 1.942415e-01 8.615194e+00 -8.942898e+00 0 -1 0 9.466370e-01 1.068526e-01 2.861256e-01 -1.029222e-01
120 2 1 3.718862e-01 8.225049e+00 -8.727243e+00 0 -1 0 9.166443e-01 1.879029e-01 1.830776e-01 3.015598e-01
121 2 3 -1.799346e-01 8.098313e+00 -9.570236e+00 0 -1 0 5.093748e-01 3.045407e-01 8.043277e-01 -2.914116e-02
122 2 1 8.237147e-01 7.857766e+00 -9.171768e+00 0 -1 0 -8.143560e-01 -3.573854e-01 -4.014651e-01 -2.189195e-01
123 2 4 1.051446e+00 7.818438e+00 -8.420552e+00 0 -1 0 -2.175024e-01 1.790084e-02 5.110125e-01 -8.314075e-01
124 2 1 8.492802e-01 7.613201e+00 -7.979192e+00 0 -1 0 1.929961e-01 2.911076e-01 4.848528e-01 -8.018271e-01
125 2 4 4.852633e-01 7.356080e+00 -7.672566e+00 0 -1 0 4.042966e-01 4.685110e-01 3.142316e-01 -7.199307e-01
126 2 2 6.373365e-01 7.648351e+00 -7.042104e+00 0 -1 0 4.889470e-01 3.359892e-01 7.245375e-01 -3.508384e-01
127 2 4 1.259537e+00 7.033920e+00 -5.917861e+00 0 -1 0 -6.079695e-01 2.840087e-01 7.399265e-01 -4.712610e-02
128 2 4 8.111555e-01 7.091798e+00 -5.888782e+00 0 -1 0 -4.993107e-01 6.063291e-01 5.383592e-01 -3.053247e-01
129 2 1 1.200017e+00 6.614133e+00 -5.340857e+00 0 -1 0 8.337857e-01 3.628529e-01 -3.889825e-01 1.477558e-01
130 2 2 4.939214e-01 6.989846e+00 -4.828847e+00 0 -1 0 -4.278880e-01 6.070713e-02 -7.183416e-02 -8.989251e-01
131 2 3 -6.418535e-02 6.273632e+00 -3.806484e+00 0 -1 0 -6.144006e-01 1.611997e-01 -2.025628e-01 7.453152e-01
132 2 4 3.875199e-01 7.293792e+00 -3.767543e+00 0 -1 0 6.884804e-01 6.439267e-01 -1.198748e-03 3.336940e-01
133 2 4 -1.142854e+00 7.610054e+00 -3.775648e+00 0 -1 0 9.311366e-02 -3.558914e-01 -3.212711e-01 8.726145e-01
134 2 3 -7.895265e-01 7.728734e+00 -2.869511e+00 0 -1 0 -2.540722e-01 9.134915e-01 -2.678675e-01 1.709607e-01
135 2 4 -2.228870e+00 8.121589e+00 -3.351909e+00 0 -1 0 -7.593565e-02 -1.061441e-01 -6.860335e-01 -7.157690e-01
136 2 3 -2.345821e+00 8.409039e+00 -3.410815e+00 0 -1 0 6.526670e-01 -2.669755e-01 -1.314472e-02 7.089267e-01
137 2 1 -3.491494e+00 7.622328e+00 -4.058944e+00 0 -1 0 7.133764e-01 3.000454e-01 3.513279e-01 -5.269114e-01
138 2 3 -3.502841e+00 7.196023e+00 -3.778764e+00 0 -1 0 -8.886537e-01 -3.367168e-01 -3.074820e-01 4.869447e-02
139 2 2 -3.902632e+00 6.649574e+00 -3.673784e+00 0 -1 0 3.072423e-01 7.139680e-01 -6.125124e-01 -1.438070e-01
140 2 3 -4.615545e+00 8.041061e+00 -3.176800e+00 0 -1 0 2.450793e-02 5.203843e-01 1.058666e-02 8.535148e-01
141 2 1 -5.432855e+00 7.696716e+00 -4.233541e+00 0 -1 0 9.261048e-02 1.808191e-01 7.153231e-01 6.686110e-01
142 2 2 -5.490025e+00 8.147852e+00 -4.491476e+00 0 -1 0 -2.476516e-01 4.272632e-01 5.864363e-01 6.420338e-01
143 2 4 -5.615726e+00 8.602646e+00 -4.547140e+00 0 -1 0 4.915890e-01 -5.599455e-01 -4.137226e-01 -5.231012e-01
144 2 4 -5.941513e+00 9.019691e+00 -4.411422e+00 0 -1 0 6.561529e-01 -6.946336e-01 -1.289778e-01 -2.651645e-01
145 2 1 -6.720152e+00 8.831850e+00 -5.234762e+00 0 -1 0 6.774057e-01 6.427507e-01 3.507416e-01 -7.052155e-02
146 2 1 -6.730536e+00 8.403232e+00 -5.433772e+00 0 -1 0 6.393892e-01 7.649830e-01 6.473321e-02 4.233386e-02
147 2 1 -6.575873e+00 8.007709e+00 -5.760775e+00 0 -1 0 -5.355417e-01 -8.059065e-01 7.779790e-02 -2.401192e-01
148 2 2 -7.550361e+00 7.235201e+00 -5.651938e+00 0 -1 0 -4.249561e-01 4.089960e-01 5.115986e-02 8.059263e-01
149 2 4 -6.277255e+00 7.566849e+00 -6.279162e+00 0 -1 0 6.529449e-01 -6.759054e-01 -1.921896e-01 2.826269e-01
150 2 1 -5.713199e+00 7.659619e+00 -5.938891e+00 0 -1 0 -5.690571e-01 4.362093e-01 1.121910e-01 -6.879743e-01
151 2 1 -6.029685e+00 6.263133e+00 -5.571242e+00 0 -1 0 6.691017e-01 -4.961424e-01 -1.907041e-01 -5.194012e-01
152 2 1 -5.263985e+00 7.129141e+00 -6.493300e+00 0 -1 0 7.177994e-01 -2.940690e-01 7.550960e-03 6.310550e-01
153 2 4 -4.433064e+00 6.452478e+00 -6.712692e+00 0 -1 0 -9.373283e-01 -3.155834e-02 -1.748118e-01 -2.997676e-01
154 2 1 -4.494736e+00 6.544655e+00 -5.777971e+00 0 -1 0 -1.906427e-01 5.748210e-01 -7.572631e-01 2.445176e-01
155 2 2 -4.528229e+00 7.238934e+00 -5.032534e+00 0 -1 0 1.190565e-01 -6.900598e-01 -1.816328e-01 -6.904003e-01
156 2 4 -3.589613e+00 6.553867e+00 -5.617021e+00 0 -1 0 8.315567e-01 1.662328e-01 -5.211724e-01 -9.622610e-02
157 2 3 -3.828700e+00 6.123144e+00 -5.500725e+00 0 -1 0 -5.998282e-01 1.678430e-01 7.606543e-01 -1.828656e-01
158 2 2 -4.300292e+00 5.840123e+00 -5.426436e+00 0 -1 0 5.486767e-01 -3.983142e-01 -6.462620e-01 3.502073e-01
159 2 1 -4.791526e+00 6.039720e+00 -5.248900e+00 0 -1 0 3.115680e-01 -7.168875e-01 -4.138561e-01 4.666057e-01
160 2 3 -5.795457e+00 5.350702e+00 -4.815025e+00 0 -1 0 -5.861341e-01 4.586806e-01 6.611758e-01 9.436914e-02
161 2 1 -6.333985e+00 5.451995e+00 -4.728943e+00 0 -1 0 6.183572e-01 -6.282616e-01 -4.480656e-01 1.488587e-01
162 2 1 -6.644565e+00 5.528804e+00 -4.501065e+00 0 -1 0 8.597609e-01 -4.507788e-01 -8.812640e-02 -2.232561e-01
163 2 4 -7.226606e+00 5.494697e+00 -4.755894e+00 0 -1 0 -8.794800e-01 -3.874767e-01 -9.710763e-02 2.587409e-01
164 2 4 -7.854347e+00 5.884829e+00 -4.696209e+00 0 -1 0 4.507604e-01 -3.465818e-01 6.629600e-01 4.870115e-01
165 2 3 -7.980133e+00 5.866315e+00 -3.628468e+00 0 -1 0 5.983674e-01 7.350051e-02 -2.501048e-02 7.974513e-01
166 2 3 -7.972677e+00 4.715172e+00 -3.051330e+00 0 -1 0 7.773550e-01 -2.489967e-01 -5.481591e-01 1.823224e-01
167 2 4 -8.262685e+00 4.563024e+00 -2.714368e+00 0 -1 0 5.183426e-01 -5.217633e-01 -4.510698e-01 5.055889e-01
168 2 2 -8.656858e+00 4.732780e+00 -2.450364e+00 0 -1 0 3.303884e-01 -6.484483e-01 -1.277325e-01 6.738269e-01
169 2 2 -8.642382e+00 3.664565e+00 -2.085606e+00 0 -1 0 7.720269e-01 1.415657e-01 4.922825e-01 -3.762865e-01
170 2 1 -8.433075e+00 3.158792e+00 -1.892715e+00 0 -1 0 -5.064340e-01 -5.516432e-01 2.518431e-01 6.130167e-01
171 2 1 -8.768838e+00 2.291174e+00 -8.714109e-01 0 -1 0 -5.114560e-01 6.259721e-03 8.462584e-01 1.490649e-01
172 2 4 -9.037865e+00 1.776228e+00 -5.194698e-01 0 -1 0 4.573289e-01 8.228783e-02 -8.791498e-01 1.057100e-01
173 2 4 -9.282332e+00 1.721203e+00 -6.169990e-01 0 -1 0 9.835505e-01 1.797604e-01 2.936742e-03 -1.749348e-02
174 2 1 -9.098626e+00 1.342720e+00 -2.449556e-01 0 -1 0 -9.129653e-01 -2.773023e-02 -3.200824e-02 -4.058336e-01
175 2 1 -9.676149e+00 3.305993e-01 -1.853204e-01 0 -1 0 7.466454e-01 5.086667e-01 -1.295368e-01 -4.086552e-01
176 2 2 -9.929530e+00 -3.001110e-01 9.802871e-02 0 -1 0 -6.191898e-01 -6.245552e-01 3.226521e-01 3.499005e-01
177 2 2 -9.067745e+00 -1.408783e-01 8.948193e-01 0 -1 0 -2.605569e-02 -7.647159e-01 5.796031e-01 -2.803406e-01
178 2 1 -8.637393e+00 -3.679893e-01 6.812435e-01 0 -1 0 -1.796080e-02 5.292251e-01 -7.417106e-01 4.116596e-01
179 2 4 -8.335805e+00 -9.271431e-01 -3.498564e-01 0 -1 0 -7.948907e-01 1.066618e-01 -5.616040e-01 -2.034035e-01
180 2 1 -7.797331e+00 -9.982202e-01 -3.694637e-01 0 -1 0 6.744416e-01 1.315018e-01 6.678250e-01 2.860867e-01
181 2 4 -8.353534e+00 -1.904985e+00 5.786427e-01 0 -1 0 -5.390824e-01 -1.779435e-01 8.086657e-01 -1.542271e-01
182 2 2 -8.185695e+00 -1.929135e+00 8.144256e-01 0 -1 0 2.245318e-01 -1.619703e-01 -6.328215e-01 7.231100e-01
183 2 3 -8.565299e+00 -2.137805e+00 1.094318e+00 0 -1 0 -5.764958e-02 -4.357684e-01 -4.672981e-01 7.670821e-01
184 2 4 -8.987382e+00 -2.120101e+00 1.303534e+00 0 -1 0 4.060864e-01 4.879382e-01 1.375698e-01 -7.603188e-01
185 2 3 -9.010006e+00 -1.387621e+00 1.805109e+00 0 -1 0 -3.509578e-01 -5.516482e-01 -6.415652e-01 4.011322e-01
186 2 1 -8.880217e+00 -2.591077e+00 2.517482e+00 0 -1 0 -6.846811e-01 -3.678578e-02 -3.337081e-01 6.469139e-01
187 2 1 -8.259519e+00 -3.402069e+00 2.873055e+00 0 -1 0 -1.732714e-02 -4.436757e-01 8.784562e-01 -1.765399e-01
188 2 2 -8.577724e+00 -3.306552e+00 3.218127e+00 0 -1 0 5.281086e-02 -4.295337e-01 -4.163352e-02 -9.005434e-01
189 2 4 -8.489204e+00 -3.959792e+00 3.122624e+00 0 -1 0 -1.370051e-01 8.249232e-01 5.455944e-01 5.529975e-02
190 2 4 -7.519673e+00 -4.455567e+00 2.973887e+00 0 -1 0 -7.301868e-01 1.529743e-01 4.089972e-01 -5.254972e-01
191 2 1 -7.120113e+00 -4.248946e+00 1.811556e+00 0 -1 0 1.994505e-01 9.074270e-01 -3.695243e-01 1.573602e-02
192 2 4 -6.954977e+00 -4.407487e+00 1.346246e+00 0 -1 0 1.527271e-01 7.736536e-01 -5.834084e-01 1.943432e-01
193 2 4 -8.068031e+00 -4.253621e+00 7.577656e-01 0 -1 0 3.092762e-01 6.035198e-01 4.600167e-01 5.731463e-01
194 2 1 -7.619538e+00 -4.000620e+00 5.387798e-01 0 -1 0 1.124175e-01 6.196214e-01 2.591160e-01 7.323186e-01
195 2 3 -7.382432e+00 -3.969462e+00 1.625495e-01 0 -1 0 -5.041520e-02 7.005812e-01 -2.830797e-02 7.112264e-01
196 2 4 -6.616918e+00 -3.245503e+00 -2.918307e-01 0 -1 0 2.279189e-01 7.521916e-01 2.046949e-01 5.834044e-01
197 2 2 -6.052077e+00 -4.165695e+00 -5.983215e-01 0 -1 0 3.501749e-01 3.083656e-01 -7.877020e-01 -4.022609e-01
198 2 4 -6.364831e+00 -4.208587e+00 -9.716524e-01 0 -1 0 4.918904e-01 1.121594e-02 -8.500726e-01 -1.878687e-01
199 2 3 -6.332034e+00 -3.471090e+00 -1.691173e+00 0 -1 0 -1.321550e-01 -1.200641e-01 -5.103332e-01 8.412370e-01
200 2 4 -5.388097e+00 -4.575076e+00 -1.589332e+00 0 -1 0 6.704879e-01 3.700691e-01 -6.310569e-01 -1.235398e-01
