ITEM: TIMESTEP
44000000
ITEM: NUMBER OF ATOMS
200
ITEM: BOX BOUNDS pp pp pp
-2.0000000000000000e+01 2.0000000000000000e+01
-2.0000000000000000e+01 2.0000000000000000e+01
-2.0000000000000000e+01 2.0000000000000000e+01
ITEM: ATOMS id mol type x y z ix iy iz c_quat[1] c_quat[2] c_quat[3] c_quat[4]
1 1 1 1.110829e+01 8.192213e+00 1.530582e+01 -1 -1 0 9.539786e-02 -8.786302e-01 -3.653205e-01 -2.923169e-01
2 1 2 1.128787e+01 8.625089e+00 1.511064e+01 -1 -1 0 1.865312e-01 -9.607525e-01 1.401689e-01 -1.500446e-01
3 1 1 1.157079e+01 8.913149e+00 1.476083e+01 -1 -1 0 -1.208195e-01 8.338846e-01 -5.291833e-01 1.000210e-01
4 1 3 1.128533e+01 8.725903e+00 1.359110e+01 -1 -1 0 -8.293538e-01 -2.290434e-01 -5.044605e-01 -7.232541e-02
5 1 1 1.200456e+01 8.738868e+00 1.310103e+01 -1 -1 0 1.881096e-01 -6.658075e-01 4.239784e-01 5.844292e-01
6 1 2 1.227188e+01 9.012317e+00 1.293618e+01 -1 -1 0 -5.002070e-01 -6.027509e-01 1.503363e-01 -6.032274e-01
7 1 4 1.268981e+01 8.706762e+00 1.307100e+01 -1 -1 0 -4.453951e-01 -5.319315e-01 8.588380e-02 -7.150497e-01
8 1 1 1.304332e+01 7.594757e+00 1.296580e+01 -1 -1 0 -7.235960e-01 1.975741e-02 6.434926e-01 2.488691e-01
9 1 1 1.355281e+01 7.861121e+00 1.210293e+01 -1 -1 0 5.824204e-01 6.769883e-01 -3.239758e-02 4.488025e-01
10 1 4 1.403542e+01 7.786477e+00 1.206447e+01 -1 -1 0 2.996388e-01 5.384983e-01 -4.698200e-01 6.320643e-01
11 1 1 1.315115e+01 8.455415e+00 1.159319e+01 -1 -1 0 -3.101074e-01 4.895169e-01 4.493117e-01 6.799453e-01
12 1 1 1.342563e+01 8.979515e+00 1.170857e+01 -1 -1 0 -4.315778e-01 4.775244e-01 2.744956e-01 7.143971e-01
13 1 3 1.490678e+01 8.756489e+00 1.170336e+01 -1 -1 0 -8.153974e-01 2.487997e-01 2.520905e-01 -4.579041e-01
14 1 4 1.456518e+01 9.339263e+00 1.054834e+01 -1 -1 0 -4.277919e-01 -8.392678e-01 -4.527297e-02 3.325266e-01
15 1 4 1.515894e+01 9.587773e+00 1.034511e+01 -1 -1 0 5.759085e-01 -5.568343e-01 5.675231e-01 1.902169e-01
16 1 2 1.561014e+01 9.756054e+00 1.008438e+01 -1 -1 0 4.233186e-01 -3.508400e-01 7.714647e-01 3.202419e-01
17 1 1 1.592222e+01 9.971295e+00 9.786885e+00 -1 -1 0 -3.367997e-01 1.139615e-01 -8.914456e-01 -2.808976e-01
18 1 2 1.614105e+01 9.923906e+00 9.388759e+00 -1 -1 0 -2.255101e-01 -2.759981e-01 -8.755469e-01 -3.261714e-01
19 1 3 1.640438e+01 1.008123e+01 8.997793e+00 -1 -1 0 -1.100994e-01 -3.226924e-01 -8.978511e-01 -2.785877e-01
20 1 1 1.625272e+01 1.006897e+01 8.487344e+00 -1 -1 0 -8.426906e-03 -6.466565e-01 -6.903941e-01 -3.242227e-01
21 1 4 1.626324e+01 1.040232e+01 8.018394e+00 -1 -1 0 -1.255432e-01 7.865046e-01 4.597462e-01 3.927886e-01
22 1 1 1.618331e+01 1.095331e+01 7.822844e+00 -1 -1 0 -2.833378e-01 8.830685e-01 1.956243e-01 3.188116e-01
23 1 4 1.634319e+01 1.141912e+01 7.620350e+00 -1 -1 0 -4.179156e-01 8.398942e-01 -5.590501e-02 3.417585e-01
24 1 3 1.655152e+01 1.186314e+01 7.700889e+00 -1 -1 0 -5.252684e-01 7.799495e-01 -3.050115e-01 1.507971e-01
25 1 3 1.694738e+01 1.218287e+01 7.744667e+00 -1 -1 0 -5.409028e-01 6.480724e-01 -5.332105e-01 5.579273e-02
26 1 4 1.752351e+01 1.234683e+01 7.566780e+00 -1 -1 0 -4.860052e-01 4.785623e-01 -7.277274e-01 7.204170e-02
27 1 4 1.807035e+01 1.237987e+01 7.388852e+00 -1 -1 0 -3.910802e-01 2.025304e-01 -8.890697e-01 -1.248714e-01
28 1 1 1.851476e+01 1.228622e+01 7.047615e+00 -1 -1 0 -2.722084e-01 -3.616053e-02 -9.525782e-01 -1.311098e-01
29 1 1 1.864617e+01 1.209712e+01 6.471402e+00 -1 -1 0 -1.675966e-01 -3.080354e-01 -8.892416e-01 -2.937260e-01
30 1 4 1.862357e+01 1.215538e+01 5.916063e+00 -1 -1 0 6.182246e-03 5.488151e-01 7.509867e-01 3.671278e-01
31 1 4 1.847317e+01 1.246491e+01 5.353640e+00 -1 -1 0 -7.414514e-02 7.080946e-01 5.667291e-01 4.146356e-01
32 1 3 1.838466e+01 1.286454e+01 4.961658e+00 -1 -1 0 -1.247006e-01 8.416271e-01 3.202902e-01 4.165667e-01
33 1 3 1.846594e+01 1.338429e+01 4.804832e+00 -1 -1 0 -3.275253e-01 8.940019e-01 2.362605e-02 3.048434e-01
34 1 1 1.880516e+01 1.385356e+01 4.783697e+00 -1 -1 0 -4.096035e-01 8.199255e-01 -3.199140e-01 2.400044e-01
35 1 2 1.918312e+01 1.422392e+01 4.841833e+00 -1 -1 0 -5.704251e-01 6.557272e-01 -4.687697e-01 1.577717e-01
36 1 2 1.975499e+01 1.442786e+01 4.917904e+00 -1 -1 0 -5.565531e-01 4.794906e-01 -6.756082e-01 6.237710e-02
37 1 1 -1.967085e+01 1.457110e+01 4.771313e+00 0 -1 0 -4.706230e-01 2.469794e-01 -8.458995e-01 4.437615e-02
38 1 1 -1.916907e+01 1.456681e+01 4.561974e+00 0 -1 0 -3.854950e-01 8.994292e-02 -9.119752e-01 -1.077274e-01
39 1 4 -1.890003e+01 1.440429e+01 4.100405e+00 0 -1 0 2.869783e-01 2.273751e-01 9.275426e-01 7.489086e-02
40 1 4 -1.890341e+01 1.421651e+01 3.524661e+00 0 -1 0 1.466122e-01 5.060428e-01 8.484481e-01 5.061006e-02
41 1 2 -1.886538e+01 1.419785e+01 2.990622e+00 0 -1 0 2.619644e-03 7.123628e-01 6.948448e-01 9.860512e-02
42 1 4 -1.915491e+01 1.443454e+01 2.495836e+00 0 -1 0 -2.168683e-02 8.996248e-01 3.995983e-01 1.747173e-01
43 1 3 -1.918738e+01 1.481978e+01 2.077725e+00 0 -1 0 -6.487903e-02 9.725686e-01 1.082640e-01 1.953968e-01
44 1 2 -1.899993e+01 1.514003e+01 1.669362e+00 0 -1 0 -1.528568e-01 9.436971e-01 -1.298223e-01 2.630908e-01
45 1 1 -1.864314e+01 1.543774e+01 1.546879e+00 0 -1 0 -2.128901e-01 8.122403e-01 -5.251629e-01 1.383743e-01
46 1 3 -1.834043e+01 1.543678e+01 1.109117e+00 0 -1 0 -1.685734e-01 7.262773e-01 -6.261701e-01 2.280687e-01
47 1 4 -1.788803e+01 1.538867e+01 1.002437e+00 0 -1 0 -3.141298e-01 4.778286e-01 -8.027300e-01 1.691948e-01
48 1 1 -1.741095e+01 1.517126e+01 7.670616e-01 0 -1 0 2.827316e-01 -1.989812e-01 9.376520e-01 -3.575054e-02
49 1 4 -1.707365e+01 1.504627e+01 3.496027e-01 0 -1 0 1.405396e-01 -3.840723e-02 9.870429e-01 -6.723002e-02
50 1 4 -1.702469e+01 1.470605e+01 -4.097064e-02 0 -1 0 1.334111e-01 2.648745e-01 9.526033e-01 -6.774938e-02
51 1 4 -1.716563e+01 1.445343e+01 -5.257727e-01 0 -1 0 1.245937e-01 5.557334e-01 8.218796e-01 1.227932e-02
52 1 1 -1.736609e+01 1.434389e+01 -9.600434e-01 0 -1 0 -5.438162e-03 7.752049e-01 6.316085e-01 -9.919307e-03
53 1 3 -1.765054e+01 1.449492e+01 -1.449573e+00 0 -1 0 -1.100366e-01 -9.462576e-01 -2.886069e-01 -9.588821e-02
54 1 4 -1.761716e+01 1.472626e+01 -1.871847e+00 0 -1 0 -8.523359e-02 9.895756e-01 2.255473e-02 1.138715e-01
55 1 4 -1.740044e+01 1.514617e+01 -2.193571e+00 0 -1 0 -1.906461e-01 9.446369e-01 -2.622727e-01 5.028117e-02
56 1 4 -1.711409e+01 1.546953e+01 -2.593076e+00 0 -1 0 -1.741240e-01 8.526396e-01 -4.764953e-01 1.250551e-01
57 1 1 -1.663028e+01 1.553630e+01 -2.755884e+00 0 -1 0 -3.217100e-01 5.564897e-01 -7.634130e-01 6.342323e-02
58 1 1 -1.624378e+01 1.557849e+01 -3.135788e+00 0 -1 0 -2.212527e-01 4.090364e-01 -8.687574e-01 1.702852e-01
59 1 3 -1.584013e+01 1.531213e+01 -3.411321e+00 0 -1 0 2.494652e-01 -1.848972e-01 9.124537e-01 -2.664741e-01
60 1 4 -1.565500e+01 1.487099e+01 -3.583604e+00 0 -1 0 3.153058e-01 1.546849e-01 8.940633e-01 -2.780388e-01
61 1 2 -1.547527e+01 1.443651e+01 -4.029201e+00 0 -1 0 1.702354e-01 3.425918e-01 9.066460e-01 -1.778870e-01
62 1 3 -1.560887e+01 1.409385e+01 -4.356018e+00 0 -1 0 2.368482e-01 5.772992e-01 7.745319e-01 -1.035807e-01
63 1 2 -1.579047e+01 1.394900e+01 -4.707715e+00 0 -1 0 1.241067e-01 7.911209e-01 5.523274e-01 -2.316459e-01
64 1 4 -1.616744e+01 1.395083e+01 -5.139416e+00 0 -1 0 9.025947e-02 9.475310e-01 2.800776e-01 -1.248791e-01
65 1 2 -1.636685e+01 1.407058e+01 -5.648371e+00 0 -1 0 1.214633e-01 9.925313e-01 1.079690e-02 -3.431198e-03
66 1 1 -1.626065e+01 1.407725e+01 -6.279041e+00 0 -1 0 8.809386e-02 9.656532e-01 -1.835063e-01 1.614891e-01
67 1 2 -1.593410e+01 1.412330e+01 -6.733571e+00 0 -1 0 9.600419e-02 8.253572e-01 -4.932491e-01 2.574376e-01
68 1 1 -1.550462e+01 1.403037e+01 -6.974543e+00 0 -1 0 -8.463582e-02 6.363822e-01 -6.718429e-01 3.694340e-01
69 1 1 -1.511371e+01 1.377342e+01 -7.210868e+00 0 -1 0 -6.591278e-02 5.027974e-01 -7.802846e-01 3.660686e-01
70 1 2 -1.474373e+01 1.344806e+01 -7.452566e+00 0 -1 0 1.041616e-01 -3.613423e-01 8.254178e-01 -4.210316e-01
71 1 3 -1.452007e+01 1.291562e+01 -7.639317e+00 0 -1 0 1.449913e-01 -4.714587e-02 8.846084e-01 -4.407071e-01
72 1 4 -1.470032e+01 1.235625e+01 -7.719251e+00 0 -1 0 2.501461e-01 3.381863e-01 8.363500e-01 -3.515333e-01
73 1 1 -1.481577e+01 1.193239e+01 -7.857753e+00 0 -1 0 3.047242e-01 5.434534e-01 7.259414e-01 -2.912226e-01
74 1 1 -1.488003e+01 1.153635e+01 -8.300785e+00 0 -1 0 2.542453e-01 6.879571e-01 6.636038e-01 -1.473238e-01
75 1 3 -1.502947e+01 1.129055e+01 -8.704411e+00 0 -1 0 2.585597e-01 8.555863e-01 4.484628e-01 -3.298872e-04
76 1 1 -1.508462e+01 1.132450e+01 -9.187865e+00 0 -1 0 2.409521e-01 9.571496e-01 1.352783e-01 8.664047e-02
77 1 4 -1.502389e+01 1.141467e+01 -9.687638e+00 0 -1 0 5.292564e-03 9.948112e-01 -1.483542e-02 1.005118e-01
78 1 1 -1.488082e+01 1.166199e+01 -1.006579e+01 0 -1 0 -1.332907e-01 9.422984e-01 -2.648891e-01 1.553741e-01
79 1 4 -1.446424e+01 1.190174e+01 -1.034950e+01 0 -1 0 -2.263193e-01 7.949058e-01 -5.426801e-01 1.496749e-01
80 1 2 -1.402812e+01 1.197448e+01 -1.060108e+01 0 -1 0 3.049749e-01 -6.092396e-01 6.929123e-01 -2.359872e-01
81 1 4 -1.352793e+01 1.179299e+01 -1.067845e+01 0 -1 0 -4.102315e-01 1.836936e-01 -8.914246e-01 5.769678e-02
82 1 4 -1.243617e+01 1.213472e+01 -1.098272e+01 0 -1 0 -9.564986e-01 4.759898e-02 -2.004121e-01 -2.065908e-01
83 1 4 -1.193238e+01 1.248670e+01 -1.000642e+01 0 -1 0 -7.777006e-01 6.219074e-01 -9.106162e-02 -1.098923e-02
84 1 4 -1.170925e+01 1.281474e+01 -9.649857e+00 0 -1 0 -7.843007e-01 5.129379e-01 -2.535160e-01 -2.397849e-01
85 1 1 -1.136941e+01 1.313948e+01 -9.499341e+00 0 -1 0 -5.101222e-01 2.464603e-01 -4.785465e-01 -6.708397e-01
86 1 1 -1.152455e+01 1.370491e+01 -9.269887e+00 0 -1 0 4.877880e-01 -3.177085e-01 5.900546e-01 5.594280e-01
87 1 3 -1.131491e+01 1.412874e+01 -9.497072e+00 0 -1 0 2.347079e-01 -6.058119e-02 7.065532e-01 6.648493e-01
88 1 2 -1.023592e+01 1.414679e+01 -8.478937e+00 0 -1 0 2.658653e-01 -8.315139e-01 4.869944e-01 2.714206e-02
89 1 2 -9.795008e+00 1.427720e+01 -8.805534e+00 0 -1 0 -2.819778e-01 4.964516e-01 -8.172242e-01 -7.854243e-02
90 1 3 -9.379590e+00 1.422666e+01 -8.960215e+00 0 -1 0 3.489951e-01 -1.210667e-01 9.292694e-01 -1.897839e-03
91 1 3 -9.087297e+00 1.387830e+01 -9.325664e+00 0 -1 0 -3.562977e-01 -1.979387e-01 -9.055277e-01 -1.178633e-01
92 1 2 -8.092461e+00 1.425054e+01 -8.923740e+00 0 -1 0 3.532488e-01 7.861389e-01 -4.024282e-01 -3.086299e-01
93 1 1 -7.821030e+00 1.411752e+01 -9.011381e+00 0 -1 0 3.325103e-01 7.631557e-01 2.265472e-01 -5.056745e-01
94 1 2 -7.650597e+00 1.439189e+01 -9.861792e+00 0 -1 0 3.562045e-01 -2.158568e-01 5.248982e-01 7.422978e-01
95 1 3 -6.557481e+00 1.387675e+01 -9.874637e+00 0 -1 0 -9.018331e-01 -3.641208e-01 2.179261e-01 -8.137182e-02
96 1 2 -6.817324e+00 1.399902e+01 -1.011024e+01 0 -1 0 1.313364e-01 8.553464e-01 -4.461437e-02 4.991421e-01
97 1 2 -6.594792e+00 1.287395e+01 -1.001411e+01 0 -1 0 -5.165666e-01 6.466521e-01 -5.208988e-01 -2.089603e-01
98 1 4 -7.252364e+00 1.258913e+01 -9.572442e+00 0 -1 0 -7.175107e-01 8.899000e-02 5.224995e-01 -4.519441e-01
99 1 2 -8.243138e+00 1.326369e+01 -1.027969e+01 0 -1 0 -7.063902e-02 -3.874221e-01 -7.306682e-02 -9.162835e-01
100 1 1 -8.298116e+00 1.322214e+01 -1.054622e+01 0 -1 0 6.700000e-01 6.986641e-02 -5.214003e-01 -5.237942e-01
101 2 4 -1.508599e+01 1.109913e+01 -1.437773e+01 0 -1 0 -5.424250e-01 2.260074e-02 -7.138559e-01 4.423507e-01
102 2 3 -1.471610e+01 1.219865e+01 -1.438993e+01 0 -1 0 8.179135e-02 4.419754e-01 -3.185188e-01 8.345739e-01
103 2 1 -1.430926e+01 1.213719e+01 -1.412882e+01 0 -1 0 -2.278670e-01 2.730601e-01 -4.358788e-01 8.267554e-01
104 2 3 -1.332353e+01 1.291205e+01 -1.484976e+01 0 -1 0 4.838158e-01 -8.552030e-01 -4.267790e-02 1.809108e-01
105 2 3 -1.348217e+01 1.340737e+01 -1.492126e+01 0 -1 0 4.182261e-01 -8.113922e-01 2.562598e-01 3.179002e-01
106 2 2 -1.332778e+01 1.384282e+01 -1.517688e+01 0 -1 0 -9.472660e-02 6.698095e-01 -5.421046e-01 -4.985024e-01
107 2 3 -1.342521e+01 1.399729e+01 -1.432110e+01 0 -1 0 7.677670e-01 1.317351e-01 -3.837517e-01 -4.958975e-01
108 2 4 -1.297485e+01 1.512723e+01 -1.432112e+01 0 -1 0 -1.467422e-01 -1.584910e-01 -5.616419e-01 -7.986900e-01
109 2 3 -1.286032e+01 1.567529e+01 -1.424739e+01 0 -1 0 1.196068e-01 -1.810807e-01 -5.304766e-01 -8.194502e-01
110 2 2 -1.209246e+01 1.540622e+01 -1.378425e+01 0 -1 0 -3.064967e-01 -8.363373e-01 -4.539925e-01 -2.214718e-02
111 2 2 -1.262813e+01 1.586806e+01 -1.329000e+01 0 -1 0 -3.352978e-01 -5.355031e-01 -4.213293e-01 -6.506100e-01
112 2 3 -1.335542e+01 1.557045e+01 -1.252126e+01 0 -1 0 -2.889324e-01 2.413826e-01 4.732320e-01 -7.964320e-01
113 2 3 -1.362780e+01 1.549744e+01 -1.212183e+01 0 -1 0 5.463247e-02 4.399407e-01 3.185746e-01 -8.378411e-01
114 2 2 -1.447227e+01 1.455016e+01 -1.221341e+01 0 -1 0 3.686334e-01 -7.698091e-02 -5.583710e-01 -7.391923e-01
115 2 4 -1.450004e+01 1.406193e+01 -1.207153e+01 0 -1 0 8.053235e-01 5.210060e-01 -1.598464e-01 -2.333579e-01
116 2 4 -1.466511e+01 1.357230e+01 -1.212660e+01 0 -1 0 8.538403e-01 4.207549e-01 -2.749389e-01 1.353906e-01
117 2 1 -1.456809e+01 1.313552e+01 -1.204104e+01 0 -1 0 -6.591316e-01 -2.414962e-01 4.084501e-01 -5.834326e-01
118 2 1 -1.454069e+01 1.272995e+01 -1.182095e+01 0 -1 0 4.573806e-01 1.036596e-01 -4.471504e-01 7.616522e-01
119 2 1 -1.429287e+01 1.138632e+01 -1.171497e+01 0 -1 0 -9.908767e-01 -6.908405e-02 4.123986e-02 1.081201e-01
120 2 1 -1.418932e+01 1.106465e+01 -1.131176e+01 0 -1 0 -9.124366e-01 1.432493e-02 1.927643e-01 -3.606885e-01
121 2 3 -1.419400e+01 1.076556e+01 -1.078784e+01 0 -1 0 -7.779481e-01 1.154609e-01 1.804305e-01 -5.906864e-01
122 2 1 -1.406910e+01 1.077160e+01 -1.032087e+01 0 -1 0 -5.762940e-01 6.150231e-02 7.599989e-02 -8.113733e-01
123 2 4 -1.395560e+01 1.093571e+01 -9.861000e+00 0 -1 0 -3.432444e-01 4.114125e-02 -9.442607e-02 -9.335815e-01
124 2 1 -1.389033e+01 1.132161e+01 -9.451706e+00 0 -1 0 -1.024177e-01 1.154024e-01 -1.746097e-01 -9.724733e-01
125 2 4 -1.396920e+01 1.179234e+01 -9.133000e+00 0 -1 0 1.875612e-01 7.805095e-02 -2.904699e-01 -9.350701e-01
126 2 2 -1.428320e+01 1.215066e+01 -8.962720e+00 0 -1 0 3.513703e-01 1.407950e-01 -4.670733e-01 -7.990984e-01
127 2 4 -1.461027e+01 1.253889e+01 -8.927864e+00 0 -1 0 5.494985e-01 5.416460e-02 -4.738597e-01 -6.859844e-01
128 2 4 -1.502939e+01 1.272842e+01 -8.739478e+00 0 -1 0 7.861345e-01 -1.137633e-01 -3.984195e-01 -4.585983e-01
129 2 1 -1.546566e+01 1.280965e+01 -8.468630e+00 0 -1 0 8.967230e-01 -1.663675e-01 -3.020955e-01 -2.773950e-01
130 2 2 -1.566432e+01 1.279283e+01 -7.993001e+00 0 -1 0 9.580001e-01 -2.104542e-01 -1.937162e-01 -2.046857e-02
131 2 3 -1.567615e+01 1.272262e+01 -7.419346e+00 0 -1 0 9.338815e-01 -1.904035e-01 -9.811059e-02 2.863323e-01
132 2 4 -1.563596e+01 1.278091e+01 -6.882712e+00 0 -1 0 -7.533919e-01 3.000544e-01 -3.887025e-03 -5.851093e-01
133 2 4 -1.569865e+01 1.300097e+01 -6.494211e+00 0 -1 0 -8.223570e-01 1.757030e-01 -1.292583e-01 -5.254996e-01
134 2 3 -1.543032e+01 1.322209e+01 -6.134390e+00 0 -1 0 -5.095671e-01 1.702447e-01 -2.459276e-01 -8.067699e-01
135 2 4 -1.521721e+01 1.367444e+01 -5.829868e+00 0 -1 0 2.448611e-01 -1.717003e-01 2.393528e-01 9.237274e-01
136 2 3 -1.515285e+01 1.417292e+01 -5.738753e+00 0 -1 0 -1.013642e-01 4.183963e-02 2.519289e-01 9.615126e-01
137 2 1 -1.530700e+01 1.464309e+01 -5.535764e+00 0 -1 0 4.546296e-01 -1.269715e-01 -2.977200e-01 -8.297909e-01
138 2 3 -1.551285e+01 1.497321e+01 -5.220604e+00 0 -1 0 6.196889e-01 -9.165568e-02 -2.849660e-01 -7.255200e-01
139 2 2 -1.582318e+01 1.517064e+01 -4.861233e+00 0 -1 0 7.438250e-01 -5.300879e-02 -2.101344e-01 -6.322641e-01
140 2 3 -1.621272e+01 1.514309e+01 -4.602485e+00 0 -1 0 8.912757e-01 4.658376e-03 -3.048759e-01 -3.356436e-01
141 2 1 -1.655068e+01 1.496226e+01 -4.334808e+00 0 -1 0 9.366326e-01 -1.268142e-01 -3.265117e-01 -5.246511e-03
142 2 2 -1.686073e+01 1.492030e+01 -3.885361e+00 0 -1 0 9.640689e-01 -3.687649e-02 -2.510336e-01 7.869857e-02
143 2 4 -1.691182e+01 1.466319e+01 -3.439831e+00 0 -1 0 -9.146542e-01 4.310783e-02 1.134135e-01 -3.855992e-01
144 2 4 -1.671904e+01 1.445266e+01 -3.047117e+00 0 -1 0 7.287269e-01 4.990301e-02 -5.722592e-02 6.805821e-01
145 2 1 -1.645309e+01 1.442548e+01 -2.588363e+00 0 -1 0 4.781561e-01 1.023448e-02 -5.068923e-02 8.767512e-01
146 2 1 -1.645960e+01 1.453830e+01 -2.020679e+00 0 -1 0 3.971861e-01 -2.084978e-01 1.100757e-02 8.936726e-01
147 2 1 -1.640711e+01 1.487294e+01 -1.706611e+00 0 -1 0 -4.526646e-02 -6.935874e-02 2.104717e-01 9.740852e-01
148 2 2 -1.667833e+01 1.521185e+01 -1.277841e+00 0 -1 0 -3.201489e-01 -1.084622e-01 1.358852e-01 9.312765e-01
149 2 4 -1.698222e+01 1.549066e+01 -9.755521e-01 0 -1 0 5.447659e-01 1.031223e-01 -2.162446e-01 -8.036381e-01
150 2 1 -1.744398e+01 1.557183e+01 -7.171244e-01 0 -1 0 7.601518e-01 1.512792e-01 -2.488599e-01 -5.808206e-01
151 2 1 -1.792097e+01 1.527270e+01 -4.881373e-01 0 -1 0 9.492916e-01 5.231074e-02 -2.558638e-01 -1.750509e-01
152 2 1 -1.824206e+01 1.507832e+01 -5.266585e-02 0 -1 0 9.714501e-01 1.572118e-01 -1.545536e-01 -8.764861e-02
153 2 4 -1.827498e+01 1.465423e+01 2.031660e-01 0 -1 0 9.169489e-01 4.676417e-02 -2.285326e-01 3.237139e-01
154 2 1 -1.829928e+01 1.432828e+01 6.431605e-01 0 -1 0 8.486132e-01 -6.169992e-02 -1.918314e-01 4.891314e-01
155 2 2 -1.819436e+01 1.430534e+01 1.202927e+00 0 -1 0 6.014836e-01 -1.131282e-01 -8.518043e-02 7.862339e-01
156 2 4 -1.806400e+01 1.435898e+01 1.713006e+00 0 -1 0 4.520218e-01 -1.348312e-01 -5.840188e-02 8.798216e-01
157 2 3 -1.792631e+01 1.465764e+01 2.206815e+00 0 -1 0 1.367504e-01 -1.559591e-01 -8.070530e-03 9.782182e-01
158 2 2 -1.814990e+01 1.498418e+01 2.588748e+00 0 -1 0 -8.687334e-02 -2.483336e-01 7.665939e-02 9.617207e-01
159 2 1 -1.846184e+01 1.530023e+01 2.863648e+00 0 -1 0 -4.040109e-01 -2.032979e-01 1.843711e-01 8.726124e-01
160 2 3 -1.887461e+01 1.538346e+01 3.165039e+00 0 -1 0 6.687009e-01 2.405288e-01 -1.781403e-01 -6.806255e-01
161 2 1 -1.936678e+01 1.533658e+01 3.430723e+00 0 -1 0 7.727591e-01 3.455763e-01 -2.337772e-01 -4.782976e-01
162 2 1 -1.970146e+01 1.497444e+01 3.442343e+00 0 -1 0 7.998427e-01 3.970023e-01 -4.299040e-01 -1.335043e-01
163 2 4 2.005296e+01 1.448648e+01 3.579683e+00 -1 -1 0 8.042637e-01 3.106321e-01 -4.728370e-01 1.819141e-01
164 2 4 1.979234e+01 1.404367e+01 3.806364e+00 -1 -1 0 8.153558e-01 2.143108e-01 -3.887604e-01 3.716601e-01
165 2 3 1.985870e+01 1.354134e+01 4.086062e+00 -1 -1 0 7.204693e-01 1.550796e-01 -4.027239e-01 5.428515e-01
166 2 3 1.982337e+01 1.326132e+01 4.564085e+00 -1 -1 0 4.355413e-01 -1.664962e-01 -5.163925e-01 7.182768e-01
167 2 4 1.957009e+01 1.305099e+01 5.068264e+00 -1 -1 0 3.464801e-01 -3.102558e-01 -4.087515e-01 7.852484e-01
168 2 2 1.936406e+01 1.315926e+01 5.537523e+00 -1 -1 0 -3.652665e-02 -3.977578e-01 -2.434572e-01 8.838457e-01
169 2 2 1.904090e+01 1.329186e+01 5.905659e+00 -1 -1 0 -1.784577e-01 -3.751482e-01 -6.548510e-02 9.072642e-01
170 2 1 1.857730e+01 1.331590e+01 6.112351e+00 -1 -1 0 -4.701926e-01 -4.179862e-01 3.708591e-02 7.764220e-01
171 2 1 1.809426e+01 1.318410e+01 6.256632e+00 -1 -1 0 7.605707e-01 3.668342e-01 -9.372718e-02 -5.274277e-01
172 2 4 1.770293e+01 1.281221e+01 6.384529e+00 -1 -1 0 8.291865e-01 4.533333e-01 -1.172123e-01 -3.052866e-01
173 2 4 1.743697e+01 1.242758e+01 6.367242e+00 -1 -1 0 8.942451e-01 3.422327e-01 -2.877883e-01 -1.950359e-02
174 2 1 1.738270e+01 1.196355e+01 6.500474e+00 -1 -1 0 8.496999e-01 2.477607e-01 -3.244907e-01 3.336622e-01
175 2 1 1.745793e+01 1.150274e+01 6.745811e+00 -1 -1 0 6.659769e-01 1.649962e-01 -3.407742e-01 6.427472e-01
176 2 2 1.751777e+01 1.121346e+01 7.198998e+00 -1 -1 0 5.046772e-01 8.282405e-02 -2.870670e-01 8.099590e-01
177 2 2 1.752264e+01 1.121069e+01 7.751847e+00 -1 -1 0 1.946039e-01 -1.170811e-01 -3.734738e-01 8.994102e-01
178 2 1 1.729490e+01 1.102046e+01 8.219554e+00 -1 -1 0 1.352212e-01 -3.326820e-01 -2.754042e-01 8.917345e-01
179 2 4 1.702340e+01 1.113060e+01 8.664751e+00 -1 -1 0 -1.056852e-01 -3.936993e-01 -7.317191e-02 9.102073e-01
180 2 1 1.659291e+01 1.122811e+01 8.900308e+00 -1 -1 0 -3.841520e-01 -4.680958e-01 7.995459e-02 7.917833e-01
181 2 4 1.605436e+01 1.124663e+01 8.908601e+00 -1 -1 0 6.927387e-01 4.162046e-01 -2.422754e-01 -5.368328e-01
182 2 2 1.559641e+01 1.093864e+01 8.997709e+00 -1 -1 0 7.436952e-01 5.380640e-01 -2.561639e-01 -3.029598e-01
183 2 3 1.522807e+01 1.054668e+01 8.988375e+00 -1 -1 0 7.750243e-01 5.292892e-01 -3.312394e-01 -9.731788e-02
184 2 4 1.503878e+01 9.955470e+00 9.031764e+00 -1 -1 0 -8.410035e-01 -4.154860e-01 2.953733e-01 -1.812156e-01
185 2 3 1.515500e+01 9.472599e+00 9.050009e+00 -1 -1 0 7.307549e-01 3.476291e-01 -4.057186e-01 4.249044e-01
186 2 1 1.528627e+01 9.054495e+00 9.156391e+00 -1 -1 0 -4.799052e-01 -1.007423e-01 5.401332e-01 -6.839576e-01
187 2 1 1.530442e+01 8.715174e+00 9.431630e+00 -1 -1 0 -2.810177e-01 4.259202e-02 4.870180e-01 -8.258502e-01
188 2 2 1.613472e+01 7.891748e+00 9.010311e+00 -1 -1 0 -6.600765e-01 3.248862e-01 -4.463028e-01 5.094721e-01
189 2 4 1.641843e+01 7.982264e+00 8.515234e+00 -1 -1 0 6.198567e-01 -3.254411e-01 -7.049725e-01 1.134885e-01
190 2 4 1.687607e+01 7.606389e+00 8.924811e+00 -1 -1 0 2.093242e-01 -2.988525e-01 7.773805e-01 -5.123964e-01
191 2 1 1.742723e+01 7.580881e+00 9.118820e+00 -1 -1 0 2.546121e-01 4.011464e-01 -2.738914e-01 8.362044e-01
192 2 4 1.762473e+01 7.153922e+00 8.116041e+00 -1 -1 0 2.696198e-01 8.338491e-01 4.783219e-01 5.664837e-02
193 2 4 1.787827e+01 5.816071e+00 8.260373e+00 -1 -1 0 5.706393e-01 3.953698e-02 8.200742e-01 1.690996e-02
194 2 1 1.699156e+01 5.828053e+00 9.223123e+00 -1 -1 0 -4.315961e-01 1.303380e-01 -1.026055e-01 8.866842e-01
195 2 3 1.727031e+01 4.739998e+00 9.226034e+00 -1 -1 0 -7.423094e-01 -7.350640e-02 4.121778e-01 5.231472e-01
196 2 4 1.711302e+01 4.853175e+00 9.312128e+00 -1 -1 0 2.269718e-01 4.767650e-01 -4.247528e-01 7.353666e-01
197 2 2 1.669271e+01 4.237158e+00 8.186460e+00 -1 -1 0 -1.823675e-01 -4.526991e-01 -8.243077e-01 2.869187e-01
198 2 4 1.643935e+01 3.860848e+00 7.907397e+00 -1 -1 0 3.169369e-01 7.473348e-01 5.765333e-01 -9.301085e-02
199 2 3 1.640968e+01 2.379222e+00 8.049586e+00 -1 -1 0 -8.857544e-01 2.219261e-02 7.160543e-03 4.635680e-01
200 2 4 1.706738e+01 2.534474e+00 8.420795e+00 -1 -1 0 -1.017145e-01 8.948301e-01 -2.576703e-01 -3.500562e-01
