ITEM: TIMESTEP
41000000
ITEM: NUMBER OF ATOMS
200
ITEM: BOX BOUNDS pp pp pp
-2.0000000000000000e+01 2.0000000000000000e+01
-2.0000000000000000e+01 2.0000000000000000e+01
-2.0000000000000000e+01 2.0000000000000000e+01
ITEM: ATOMS id mol type x y z ix iy iz c_quat[1] c_quat[2] c_quat[3] c_quat[4]
1 1 1 1.612249e+01 7.282339e+00 1.000925e+01 -1 -1 0 -5.033914e-01 3.387146e-01 7.829738e-01 -1.371916e-01
2 1 2 1.570185e+01 7.296303e+00 1.011427e+01 -1 -1 0 -3.634178e-01 6.294719e-01 5.328273e-01 -4.333447e-01
3 1 1 1.694182e+01 6.835878e+00 1.014761e+01 -1 -1 0 8.455654e-01 -1.168838e-01 2.576509e-02 5.202821e-01
4 1 3 1.726144e+01 6.884046e+00 1.057819e+01 -1 -1 0 5.408561e-01 -7.738182e-02 2.751439e-02 8.370960e-01
5 1 1 1.732474e+01 7.144224e+00 1.102397e+01 -1 -1 0 -6.330811e-02 1.714439e-01 -3.929520e-02 -9.823721e-01
6 1 2 1.708843e+01 7.421454e+00 1.132050e+01 -1 -1 0 -2.720865e-01 -1.348127e-01 1.222665e-01 9.449049e-01
7 1 4 1.714320e+01 7.186963e+00 1.151518e+01 -1 -1 0 9.259969e-01 -1.083468e-01 3.339891e-01 1.387154e-01
8 1 1 1.606911e+01 6.805002e+00 1.225176e+01 -1 -1 0 2.289063e-01 2.961884e-01 -9.272584e-01 -8.135609e-03
9 1 1 1.614754e+01 7.442776e+00 1.288669e+01 -1 -1 0 6.200957e-02 3.416209e-02 9.464306e-01 -3.150507e-01
10 1 4 1.715065e+01 8.569712e+00 1.285095e+01 -1 -1 0 5.708529e-01 -7.337975e-01 3.269561e-02 3.668777e-01
11 1 1 1.601154e+01 8.446557e+00 1.284285e+01 -1 -1 0 6.373099e-01 1.804617e-01 7.123262e-01 -2.320799e-01
12 1 1 1.645556e+01 9.480031e+00 1.324195e+01 -1 -1 0 1.111853e-01 5.098989e-01 7.375862e-01 4.284945e-01
13 1 3 1.755919e+01 1.012210e+01 1.364126e+01 -1 -1 0 -5.165097e-02 -9.347140e-01 -2.746149e-01 -2.196102e-01
14 1 4 1.777497e+01 1.027473e+01 1.313982e+01 -1 -1 0 2.669604e-02 -9.446115e-01 -6.979795e-02 -3.195695e-01
15 1 4 1.811470e+01 1.065363e+01 1.291144e+01 -1 -1 0 2.149712e-01 -8.913973e-01 1.951721e-01 -3.480031e-01
16 1 2 1.851926e+01 1.097087e+01 1.276408e+01 -1 -1 0 3.526862e-01 -7.873619e-01 3.413382e-01 -3.730441e-01
17 1 1 1.900070e+01 1.118495e+01 1.280245e+01 -1 -1 0 -4.064812e-01 6.415050e-01 -6.016764e-01 2.474469e-01
18 1 2 1.957089e+01 1.120650e+01 1.271222e+01 -1 -1 0 -4.275517e-01 4.175676e-01 -7.571941e-01 2.636171e-01
19 1 3 2.007675e+01 1.095952e+01 1.258747e+01 -1 -1 0 -4.069427e-01 1.854112e-01 -8.895095e-01 9.377206e-02
20 1 1 -1.955330e+01 1.068629e+01 1.233958e+01 0 -1 0 -3.614649e-01 -1.282657e-01 -9.234616e-01 1.047687e-02
21 1 4 -1.947787e+01 1.034562e+01 1.189592e+01 0 -1 0 2.687013e-01 4.379554e-01 8.526397e-01 9.486908e-02
22 1 1 -1.939461e+01 1.016899e+01 1.138327e+01 0 -1 0 1.822631e-01 6.587352e-01 7.145829e-01 1.490616e-01
23 1 4 -1.946157e+01 1.029396e+01 1.088541e+01 0 -1 0 1.636331e-01 8.620777e-01 3.955061e-01 2.713323e-01
24 1 3 -1.933086e+01 1.040765e+01 1.040985e+01 0 -1 0 7.687916e-02 9.165834e-01 1.578049e-01 3.592521e-01
25 1 3 -1.916669e+01 1.078354e+01 1.011687e+01 0 -1 0 -3.148741e-02 9.466311e-01 -2.649480e-01 1.808331e-01
26 1 4 -1.879941e+01 1.069834e+01 9.695086e+00 0 -1 0 -9.101089e-02 8.826786e-01 -2.325380e-01 3.981478e-01
27 1 4 -1.834116e+01 1.087404e+01 9.654119e+00 0 -1 0 -2.707963e-01 8.012213e-01 -4.358306e-01 3.078401e-01
28 1 1 -1.780995e+01 1.093369e+01 9.623852e+00 0 -1 0 -3.582616e-01 5.784913e-01 -7.019212e-01 2.104827e-01
29 1 1 -1.724753e+01 1.078168e+01 9.308051e+00 0 -1 0 -2.762657e-01 3.474560e-01 -8.709127e-01 2.108617e-01
30 1 4 -1.690132e+01 1.050004e+01 9.013555e+00 0 -1 0 2.836490e-01 -1.233680e-01 9.336004e-01 -1.808698e-01
31 1 4 -1.675774e+01 1.020333e+01 8.625568e+00 0 -1 0 2.318853e-01 1.616744e-01 9.527908e-01 -1.108166e-01
32 1 3 -1.680000e+01 9.816771e+00 8.254016e+00 0 -1 0 2.882568e-01 4.261035e-01 8.572706e-01 2.076246e-02
33 1 3 -1.689297e+01 9.543890e+00 7.822385e+00 0 -1 0 2.319437e-01 6.821699e-01 6.932735e-01 1.477085e-02
34 1 1 -1.701784e+01 9.547673e+00 7.248954e+00 0 -1 0 8.758307e-02 8.086287e-01 5.815762e-01 1.476587e-02
35 1 2 -1.715308e+01 9.725828e+00 6.749305e+00 0 -1 0 9.518978e-02 9.626250e-01 2.257694e-01 1.154128e-01
36 1 2 -1.706053e+01 1.001301e+01 6.237218e+00 0 -1 0 1.372270e-02 9.699805e-01 5.700800e-02 2.360078e-01
37 1 1 -1.676577e+01 1.019167e+01 5.841437e+00 0 -1 0 -9.147614e-02 9.405964e-01 -2.063650e-01 2.536219e-01
38 1 1 -1.634099e+01 1.038887e+01 5.668837e+00 0 -1 0 -4.620266e-02 8.055846e-01 -5.644765e-01 1.739685e-01
39 1 4 -1.587694e+01 1.028665e+01 5.419298e+00 0 -1 0 1.515911e-01 -4.564916e-01 8.601805e-01 -1.694849e-01
40 1 4 -1.545219e+01 9.975524e+00 5.181483e+00 0 -1 0 2.050760e-01 -2.407499e-01 9.197992e-01 -2.322772e-01
41 1 2 -1.522348e+01 9.604741e+00 4.932699e+00 0 -1 0 2.536622e-01 6.686012e-02 9.489830e-01 -1.749757e-01
42 1 4 -1.525631e+01 9.260768e+00 4.565598e+00 0 -1 0 2.467902e-01 4.052248e-01 8.783751e-01 -5.783378e-02
43 1 3 -1.532933e+01 9.019339e+00 4.038341e+00 0 -1 0 1.749735e-01 6.593024e-01 7.270575e-01 7.805083e-02
44 1 2 -1.537648e+01 8.957737e+00 3.469199e+00 0 -1 0 1.045651e-01 8.026299e-01 5.770137e-01 1.091169e-01
45 1 1 -1.544439e+01 9.136598e+00 2.937864e+00 0 -1 0 -1.056889e-02 9.625854e-01 2.418539e-01 1.217552e-01
46 1 3 -1.541727e+01 9.346765e+00 2.419322e+00 0 -1 0 -1.874448e-01 9.393610e-01 1.904913e-01 2.148918e-01
47 1 4 -1.514067e+01 9.793881e+00 2.168839e+00 0 -1 0 -3.366632e-01 9.190200e-01 -1.596004e-02 2.044639e-01
48 1 1 -1.488152e+01 1.025231e+01 2.155694e+00 0 -1 0 4.130088e-01 -8.562991e-01 3.093086e-01 -2.244507e-02
49 1 4 -1.460775e+01 1.062345e+01 1.954349e+00 0 -1 0 3.715538e-01 -7.090855e-01 5.973930e-01 4.761479e-02
50 1 4 -1.419371e+01 1.082524e+01 1.737016e+00 0 -1 0 3.197058e-01 -5.369813e-01 7.716453e-01 1.183338e-01
51 1 4 -1.388140e+01 1.092616e+01 1.297812e+00 0 -1 0 2.107973e-01 -3.284974e-01 9.114871e-01 1.297891e-01
52 1 1 -1.363743e+01 1.082190e+01 8.595309e-01 0 -1 0 1.578664e-01 -7.673948e-02 9.804065e-01 8.940027e-02
53 1 3 -1.352154e+01 1.079002e+01 3.317547e-01 0 -1 0 1.333367e-02 -5.374015e-02 -9.976375e-01 -4.066504e-02
54 1 4 -1.376903e+01 1.053929e+01 -4.495688e-02 0 -1 0 2.701494e-03 4.287949e-01 9.032985e-01 1.339288e-02
55 1 4 -1.410154e+01 1.046369e+01 -5.269522e-01 0 -1 0 5.409237e-03 6.489043e-01 7.575970e-01 7.028990e-02
56 1 4 -1.429995e+01 1.051646e+01 -9.502023e-01 0 -1 0 -9.950363e-02 8.100113e-01 5.776273e-01 -1.809377e-02
57 1 1 -1.457495e+01 1.070703e+01 -1.272910e+00 0 -1 0 -8.306998e-02 9.577450e-01 2.677372e-01 -6.434758e-02
58 1 1 -1.470472e+01 1.108435e+01 -1.566015e+00 0 -1 0 -6.751159e-02 9.870450e-01 -9.797923e-02 -1.076313e-01
59 1 3 -1.462867e+01 1.138295e+01 -1.935880e+00 0 -1 0 7.950092e-02 -9.244313e-01 3.700357e-01 4.668956e-02
60 1 4 -1.431633e+01 1.158760e+01 -2.380384e+00 0 -1 0 9.386210e-02 -8.150983e-01 5.715700e-01 -1.059621e-02
61 1 2 -1.402946e+01 1.162712e+01 -2.855669e+00 0 -1 0 2.718153e-02 -5.714622e-01 8.175250e-01 -6.591631e-02
62 1 3 -1.374677e+01 1.139808e+01 -3.244215e+00 0 -1 0 1.476695e-02 -3.538174e-01 9.345823e-01 -3.392939e-02
63 1 2 -1.357555e+01 1.106424e+01 -3.613882e+00 0 -1 0 4.361384e-02 -1.034897e-02 9.989241e-01 -1.189217e-02
64 1 4 -1.364009e+01 1.072362e+01 -3.977965e+00 0 -1 0 6.517398e-02 3.649748e-01 9.257215e-01 -7.473586e-02
65 1 2 -1.383480e+01 1.055754e+01 -4.470782e+00 0 -1 0 -1.366356e-02 5.967051e-01 8.016875e-01 -3.245808e-02
66 1 1 -1.413469e+01 1.065540e+01 -4.934484e+00 0 -1 0 -4.569345e-02 7.972414e-01 6.014248e-01 -2.462692e-02
67 1 2 -1.434475e+01 1.086356e+01 -5.401063e+00 0 -1 0 -6.263636e-02 9.128308e-01 3.894889e-01 1.054272e-01
68 1 1 -1.442632e+01 1.116140e+01 -5.828365e+00 0 -1 0 -2.034557e-01 9.658218e-01 1.321688e-01 9.124355e-02
69 1 1 -1.444798e+01 1.160883e+01 -6.140074e+00 0 -1 0 -2.694407e-01 9.475836e-01 -1.667785e-01 4.088991e-02
70 1 2 -1.418980e+01 1.213750e+01 -6.314481e+00 0 -1 0 3.562629e-01 -8.388171e-01 4.115336e-01 1.013215e-02
71 1 3 -1.369159e+01 1.240308e+01 -6.374407e+00 0 -1 0 3.465047e-01 -6.049209e-01 6.934062e-01 1.821896e-01
72 1 4 -1.329469e+01 1.258892e+01 -6.818958e+00 0 -1 0 2.554212e-01 -5.183090e-01 8.103722e-01 9.701920e-02
73 1 1 -1.298699e+01 1.251127e+01 -7.158100e+00 0 -1 0 2.042981e-01 -1.259360e-01 9.408142e-01 2.393136e-01
74 1 1 -1.283523e+01 1.253527e+01 -7.699468e+00 0 -1 0 3.784217e-02 5.081811e-02 9.790437e-01 1.935433e-01
75 1 3 -1.287301e+01 1.244329e+01 -8.209543e+00 0 -1 0 -2.489863e-02 2.084401e-01 9.729545e-01 9.639709e-02
76 1 1 -1.306668e+01 1.232714e+01 -8.768153e+00 0 -1 0 -8.529969e-02 6.084314e-01 7.854964e-01 7.436851e-02
77 1 4 -1.339257e+01 1.251425e+01 -9.196262e+00 0 -1 0 -1.503209e-01 7.750120e-01 5.866132e-01 1.806792e-01
78 1 1 -1.374385e+01 1.286510e+01 -9.507567e+00 0 -1 0 -1.663154e-01 9.388919e-01 2.741061e-01 1.252478e-01
79 1 4 -1.378738e+01 1.330420e+01 -9.756668e+00 0 -1 0 -2.399170e-01 9.678164e-01 -4.412161e-03 7.584111e-02
80 1 2 -1.365121e+01 1.372148e+01 -1.009890e+01 0 -1 0 2.372390e-01 -9.442779e-01 1.815336e-01 -1.382116e-01
81 1 4 -1.330305e+01 1.404481e+01 -1.030364e+01 0 -1 0 -3.059473e-01 8.186016e-01 -4.770177e-01 9.349776e-02
82 1 4 -1.272791e+01 1.468910e+01 -9.929749e+00 0 -1 0 6.656970e-01 -7.416952e-01 7.531075e-02 -3.262041e-02
83 1 4 -1.247801e+01 1.517089e+01 -9.820173e+00 0 -1 0 5.595760e-01 -6.969398e-01 3.880243e-01 2.249149e-01
84 1 4 -1.212936e+01 1.543125e+01 -9.802151e+00 0 -1 0 -4.562419e-01 3.950190e-01 -5.882115e-01 -5.383406e-01
85 1 1 -1.282172e+01 1.644089e+01 -9.370799e+00 0 -1 0 3.148411e-01 6.953377e-01 6.453634e-01 2.977562e-02
86 1 1 -1.250335e+01 1.696216e+01 -8.696783e+00 0 -1 0 -3.622633e-02 9.386043e-01 -2.461797e-01 2.389668e-01
87 1 3 -1.310931e+01 1.733890e+01 -8.202141e+00 0 -1 0 2.634976e-01 -3.518291e-01 -5.520763e-01 -7.085175e-01
88 1 2 -1.334815e+01 1.774433e+01 -8.134957e+00 0 -1 0 -5.710282e-01 5.951596e-01 3.118964e-01 4.716276e-01
89 1 2 -1.308883e+01 1.839227e+01 -7.802041e+00 0 -1 0 -3.835814e-01 2.392202e-01 1.856364e-01 -8.724552e-01
90 1 3 -1.237315e+01 1.753141e+01 -7.688150e+00 0 -1 0 -6.756080e-01 3.844025e-01 -4.339767e-01 4.554698e-01
91 1 3 -1.186131e+01 1.791272e+01 -8.026658e+00 0 -1 0 3.389511e-01 -2.022261e-01 -3.132392e-01 8.637696e-01
92 1 2 -1.101028e+01 1.767085e+01 -8.633258e+00 0 -1 0 6.430330e-01 -2.441905e-01 7.131108e-01 1.354718e-01
93 1 1 -1.028187e+01 1.795804e+01 -8.168734e+00 0 -1 0 8.099961e-01 5.473358e-01 7.585893e-02 1.964059e-01
94 1 2 -1.076896e+01 1.838493e+01 -7.691262e+00 0 -1 0 4.440202e-02 8.977283e-01 -4.198204e-01 -1.259491e-01
95 1 3 -1.175157e+01 1.926224e+01 -7.883396e+00 0 -1 0 3.883601e-01 2.619564e-01 6.109581e-01 6.381892e-01
96 1 2 -1.141177e+01 1.951552e+01 -7.961327e+00 0 -1 0 1.275818e-01 3.930462e-01 5.074900e-01 7.561028e-01
97 1 2 -1.121357e+01 -2.008346e+01 -8.059226e+00 0 0 0 -2.944240e-01 5.985436e-01 2.550017e-01 7.000245e-01
98 1 4 -1.056429e+01 -1.994065e+01 -8.054352e+00 0 0 0 4.049526e-01 -2.246640e-01 2.996966e-01 8.340992e-01
99 1 2 -9.652293e+00 -2.003586e+01 -7.750074e+00 0 0 0 2.941291e-01 8.702531e-01 1.462984e-01 3.670755e-01
100 1 1 -9.381909e+00 -1.996817e+01 -8.119628e+00 0 0 0 8.225239e-02 8.948156e-01 -1.424280e-01 4.150348e-01
101 2 4 -1.830166e+01 1.170674e+01 -1.230315e+01 0 -1 0 2.658848e-01 -3.051127e-02 -2.621027e-01 9.271874e-01
102 2 3 -1.761197e+01 1.025962e+01 -1.263207e+01 0 -1 0 7.334135e-01 3.527694e-01 -5.340463e-01 -2.290262e-01
103 2 1 -1.679079e+01 1.137624e+01 -1.258585e+01 0 -1 0 2.877534e-01 -7.979033e-01 1.562953e-01 5.060830e-01
104 2 3 -1.747791e+01 1.158507e+01 -1.183549e+01 0 -1 0 1.253471e-01 6.360575e-01 7.604704e-01 -3.746481e-02
105 2 3 -1.782415e+01 1.152898e+01 -1.159490e+01 0 -1 0 4.086983e-01 2.267646e-01 8.781183e-01 -1.022333e-01
106 2 2 -1.819975e+01 1.142427e+01 -1.207391e+01 0 -1 0 -6.115584e-01 -3.091924e-01 4.806856e-01 5.471177e-01
107 2 3 -1.724826e+01 1.224531e+01 -1.238062e+01 0 -1 0 7.283137e-01 -2.274013e-01 -7.189535e-02 6.424008e-01
108 2 4 -1.650221e+01 1.180476e+01 -1.225083e+01 0 -1 0 -1.554818e-01 -6.903168e-01 6.130943e-01 -3.512884e-01
109 2 3 -1.638368e+01 1.174372e+01 -1.288285e+01 0 -1 0 6.415921e-01 1.171155e-01 -7.537200e-01 -8.093008e-02
110 2 2 -1.589200e+01 1.297952e+01 -1.272925e+01 0 -1 0 -2.483055e-02 8.746044e-01 2.248474e-01 -4.288289e-01
111 2 2 -1.504609e+01 1.203880e+01 -1.276362e+01 0 -1 0 -7.280501e-01 -4.282689e-01 4.517229e-01 2.871850e-01
112 2 3 -1.492977e+01 1.294411e+01 -1.343289e+01 0 -1 0 1.182141e-01 -1.317474e-01 7.219487e-01 6.689231e-01
113 2 3 -1.453159e+01 1.268899e+01 -1.397071e+01 0 -1 0 -5.391878e-01 -3.189062e-01 3.349521e-01 7.038341e-01
114 2 2 -1.353599e+01 1.243643e+01 -1.277172e+01 0 -1 0 7.737731e-01 -4.763329e-01 2.367777e-01 -3.439746e-01
115 2 4 -1.309884e+01 1.267756e+01 -1.247025e+01 0 -1 0 -7.729900e-01 3.527034e-01 -4.750284e-01 2.289867e-01
116 2 4 -1.313795e+01 1.336748e+01 -1.221381e+01 0 -1 0 3.881083e-01 -2.815530e-01 -7.108808e-01 -5.145370e-01
117 2 1 -1.216484e+01 1.287450e+01 -1.212815e+01 0 -1 0 7.992388e-01 -4.597250e-01 -2.098460e-01 3.253228e-01
118 2 1 -1.208332e+01 1.308310e+01 -1.171244e+01 0 -1 0 -6.403863e-01 3.203479e-01 -3.885603e-02 -6.969741e-01
119 2 1 -1.326887e+01 1.354517e+01 -1.147549e+01 0 -1 0 8.577098e-02 9.494943e-02 2.136782e-01 9.684883e-01
120 2 1 -1.280344e+01 1.310474e+01 -1.053961e+01 0 -1 0 6.804147e-01 -3.769183e-03 -2.590052e-01 6.855202e-01
121 2 3 -1.266654e+01 1.307303e+01 -1.006499e+01 0 -1 0 -3.655842e-01 3.641189e-02 1.978457e-01 -9.087791e-01
122 2 1 -1.259759e+01 1.309989e+01 -9.536590e+00 0 -1 0 -1.267378e-01 1.362143e-01 1.034814e-01 -9.770746e-01
123 2 4 -1.282518e+01 1.344259e+01 -9.119006e+00 0 -1 0 2.135470e-01 1.709016e-01 5.003682e-02 -9.605658e-01
124 2 1 -1.316105e+01 1.361339e+01 -8.715020e+00 0 -1 0 5.700038e-01 2.048009e-01 2.652207e-02 -7.952665e-01
125 2 4 -1.343555e+01 1.338738e+01 -8.337321e+00 0 -1 0 7.193654e-01 3.646320e-01 -2.551453e-02 -5.906826e-01
126 2 2 -1.388758e+01 1.311087e+01 -8.184558e+00 0 -1 0 9.318440e-01 2.588313e-01 -1.388541e-01 -2.130554e-01
127 2 4 -1.406259e+01 1.274077e+01 -7.868105e+00 0 -1 0 9.126645e-01 3.884365e-01 -1.189571e-01 -4.483056e-02
128 2 4 -1.402230e+01 1.219355e+01 -7.701738e+00 0 -1 0 8.718886e-01 4.105472e-01 -1.146979e-01 2.410514e-01
129 2 1 -1.379172e+01 1.179389e+01 -7.454065e+00 0 -1 0 7.619267e-01 3.482447e-01 -1.813599e-01 5.150747e-01
130 2 2 -1.351858e+01 1.147902e+01 -7.135216e+00 0 -1 0 6.588288e-01 2.065533e-01 -1.940320e-01 6.968729e-01
131 2 3 -1.341518e+01 1.125684e+01 -6.619887e+00 0 -1 0 4.613735e-01 4.762391e-02 -1.604225e-01 8.712813e-01
132 2 4 -1.329249e+01 1.122146e+01 -6.111758e+00 0 -1 0 -1.818898e-01 4.346745e-02 1.117881e-01 -9.759765e-01
133 2 4 -1.330215e+01 1.150714e+01 -5.666433e+00 0 -1 0 1.474503e-01 7.947946e-02 -6.215736e-02 -9.839095e-01
134 2 3 -1.356434e+01 1.170329e+01 -5.211994e+00 0 -1 0 4.184688e-01 8.827981e-02 -9.338794e-02 -8.990936e-01
135 2 4 -1.395175e+01 1.179731e+01 -4.793008e+00 0 -1 0 -6.235048e-01 -1.719720e-01 5.979556e-02 7.603236e-01
136 2 3 -1.436096e+01 1.160956e+01 -4.567795e+00 0 -1 0 -8.590757e-01 -1.574564e-01 1.807783e-01 4.522340e-01
137 2 1 -1.462111e+01 1.134197e+01 -4.180007e+00 0 -1 0 9.593530e-01 1.127877e-01 -1.168644e-01 -2.307886e-01
138 2 3 -1.477458e+01 1.102429e+01 -3.781456e+00 0 -1 0 9.935901e-01 5.775104e-02 -8.585149e-02 4.553075e-02
139 2 2 -1.465712e+01 1.066281e+01 -3.332424e+00 0 -1 0 9.301914e-01 1.586453e-01 3.776298e-02 3.288611e-01
140 2 3 -1.431225e+01 1.047257e+01 -2.827897e+00 0 -1 0 7.984665e-01 9.514510e-02 3.416565e-02 5.934908e-01
141 2 1 -1.399804e+01 1.042465e+01 -2.515832e+00 0 -1 0 5.910397e-01 1.241441e-01 4.828529e-02 7.955682e-01
142 2 2 -1.368378e+01 1.060277e+01 -2.162781e+00 0 -1 0 3.136500e-01 1.580116e-01 1.171079e-01 9.289466e-01
143 2 4 -1.354076e+01 1.093095e+01 -1.741289e+00 0 -1 0 -7.613228e-02 -8.154448e-02 -1.478000e-01 -9.827052e-01
144 2 4 -1.358767e+01 1.132773e+01 -1.364505e+00 0 -1 0 -3.109668e-01 2.928651e-02 2.105278e-02 9.497361e-01
145 2 1 -1.376303e+01 1.162651e+01 -8.977977e-01 0 -1 0 -6.095905e-01 2.773741e-02 -3.667707e-02 7.913816e-01
146 2 1 -1.422234e+01 1.166091e+01 -4.135060e-01 0 -1 0 -7.468660e-01 -9.160176e-02 -2.403606e-02 6.581964e-01
147 2 1 -1.453027e+01 1.147060e+01 -4.163605e-02 0 -1 0 -9.159664e-01 -1.322484e-01 3.788087e-02 3.769362e-01
148 2 2 -1.472946e+01 1.106935e+01 3.439060e-01 0 -1 0 -9.539125e-01 -2.772053e-01 1.942813e-02 1.132731e-01
149 2 4 -1.478742e+01 1.063610e+01 6.208916e-01 0 -1 0 9.308542e-01 3.544333e-01 6.633154e-04 8.880941e-02
150 2 1 -1.464607e+01 1.017709e+01 7.854314e-01 0 -1 0 8.593894e-01 3.077467e-01 -8.111818e-02 4.002020e-01
151 2 1 -1.437068e+01 9.886972e+00 1.090648e+00 0 -1 0 6.466123e-01 2.172754e-01 -1.730159e-01 7.104572e-01
152 2 1 -1.404869e+01 9.664488e+00 1.461991e+00 0 -1 0 4.879205e-01 1.472501e-01 -9.690603e-02 8.549036e-01
153 2 4 -1.393651e+01 9.586249e+00 1.997878e+00 0 -1 0 2.937915e-01 -6.433300e-02 -1.994325e-01 9.326170e-01
154 2 1 -1.399058e+01 9.619688e+00 2.528130e+00 0 -1 0 2.164007e-02 -1.346757e-01 -1.197596e-01 9.833879e-01
155 2 2 -1.427727e+01 9.711452e+00 2.975267e+00 0 -1 0 -2.422185e-01 -2.809257e-01 1.187658e-02 9.285849e-01
156 2 4 -1.462311e+01 9.745106e+00 3.403955e+00 0 -1 0 -1.457738e-01 -4.488583e-01 1.161500e-01 8.739482e-01
157 2 3 -1.492345e+01 1.006237e+01 3.614065e+00 0 -1 0 -5.243857e-01 -2.143882e-01 1.634929e-01 8.076679e-01
158 2 2 -1.540686e+01 1.012426e+01 3.743416e+00 0 -1 0 -7.408705e-01 -1.694813e-01 3.106699e-01 5.708514e-01
159 2 1 -1.594612e+01 1.006469e+01 4.030408e+00 0 -1 0 -8.980355e-01 -5.286664e-02 2.702745e-01 3.430585e-01
160 2 3 -1.628481e+01 9.738957e+00 4.344425e+00 0 -1 0 9.597370e-01 4.866263e-03 -2.706834e-01 -7.491154e-02
161 2 1 -1.642718e+01 9.452141e+00 4.828931e+00 0 -1 0 9.748110e-01 -5.582660e-02 -1.682608e-01 1.353337e-01
162 2 1 -1.640189e+01 9.263872e+00 5.325869e+00 0 -1 0 8.252479e-01 -9.082887e-02 -6.517992e-02 5.535951e-01
163 2 4 -1.617449e+01 9.191513e+00 5.887808e+00 0 -1 0 7.260754e-01 -5.245229e-02 3.353818e-02 6.847908e-01
164 2 4 -1.598674e+01 9.437546e+00 6.358963e+00 0 -1 0 3.974053e-01 -1.597809e-01 7.677320e-02 9.003582e-01
165 2 3 -1.598370e+01 9.869304e+00 6.706631e+00 0 -1 0 4.334104e-04 -1.331592e-01 1.577389e-01 9.784615e-01
166 2 3 -1.612363e+01 1.029002e+01 7.000010e+00 0 -1 0 -2.047498e-01 -1.414350e-01 1.954109e-01 9.486244e-01
167 2 4 -1.647931e+01 1.056591e+01 7.267482e+00 0 -1 0 -4.388920e-01 -1.791497e-01 2.515948e-01 8.437886e-01
168 2 2 -1.687330e+01 1.073550e+01 7.477293e+00 0 -1 0 -6.593876e-01 -1.817491e-01 3.456229e-01 6.424330e-01
169 2 2 -1.741320e+01 1.069646e+01 7.710836e+00 0 -1 0 -8.855354e-01 -5.739408e-02 2.898657e-01 3.584841e-01
170 2 1 -1.781175e+01 1.052216e+01 8.136418e+00 0 -1 0 -9.674473e-01 -3.093363e-02 1.962483e-01 1.567657e-01
171 2 1 -1.791558e+01 1.014359e+01 8.399584e+00 0 -1 0 9.520098e-01 9.698290e-03 -2.754804e-01 1.330179e-01
172 2 4 -1.795647e+01 9.935006e+00 8.950445e+00 0 -1 0 8.453680e-01 -1.174599e-01 -2.221900e-01 4.713679e-01
173 2 4 -1.781601e+01 9.797677e+00 9.427574e+00 0 -1 0 6.477845e-01 -1.665039e-01 -1.637400e-01 7.251489e-01
174 2 1 -1.787839e+01 9.816967e+00 9.953668e+00 0 -1 0 5.547078e-01 -1.798499e-01 -2.470350e-02 8.119994e-01
175 2 1 -1.802813e+01 1.019964e+01 1.044875e+01 0 -1 0 3.102729e-01 -2.877876e-01 1.195001e-01 8.981251e-01
176 2 2 -1.814396e+01 1.059667e+01 1.070738e+01 0 -1 0 1.967881e-02 -2.366954e-01 2.589355e-01 9.362374e-01
177 2 2 -1.848346e+01 1.093364e+01 1.106518e+01 0 -1 0 -1.870939e-01 -3.542954e-01 2.335196e-01 8.859680e-01
178 2 1 -1.890539e+01 1.127675e+01 1.125196e+01 0 -1 0 -3.756897e-01 -3.652196e-01 3.427529e-01 7.797387e-01
179 2 4 -1.948739e+01 1.140623e+01 1.133972e+01 0 -1 0 -6.237413e-01 -3.496757e-01 3.088977e-01 6.271012e-01
180 2 1 -2.002551e+01 1.127996e+01 1.136834e+01 0 -1 0 -8.253122e-01 -2.282760e-01 3.766779e-01 3.533604e-01
181 2 4 1.957530e+01 1.098736e+01 1.156447e+01 -1 -1 0 9.125489e-01 1.819617e-01 -3.540275e-01 -9.385642e-02
182 2 2 1.928247e+01 1.054864e+01 1.176528e+01 -1 -1 0 8.976180e-01 1.975554e-01 -3.576981e-01 1.652447e-01
183 2 3 1.911498e+01 1.017748e+01 1.213187e+01 -1 -1 0 8.714462e-01 1.347393e-02 -2.148596e-01 4.407214e-01
184 2 4 1.934259e+01 1.004331e+01 1.260355e+01 -1 -1 0 -5.642128e-01 1.190559e-01 3.084688e-01 -7.565293e-01
185 2 3 1.921593e+01 1.006390e+01 1.309853e+01 -1 -1 0 3.310102e-01 -2.521005e-01 -2.308089e-01 8.795481e-01
186 2 1 1.896829e+01 1.015982e+01 1.353735e+01 -1 -1 0 -1.746994e-01 2.848972e-01 8.457108e-02 -9.387020e-01
187 2 1 1.872514e+01 1.043073e+01 1.398581e+01 -1 -1 0 2.009495e-02 3.811731e-01 -1.040393e-01 -9.184112e-01
188 2 2 1.842075e+01 1.079884e+01 1.412213e+01 -1 -1 0 -2.661765e-01 -3.023150e-01 2.547547e-01 8.791221e-01
189 2 4 1.804587e+01 1.095212e+01 1.420178e+01 -1 -1 0 -5.932511e-01 -1.288393e-01 3.964934e-01 6.886556e-01
190 2 4 1.771737e+01 1.122872e+01 1.426052e+01 -1 -1 0 -8.343886e-01 1.812738e-01 4.186931e-01 3.092437e-01
191 2 1 1.749755e+01 1.237166e+01 1.418570e+01 -1 -1 0 -4.364791e-01 7.623429e-01 1.155016e-01 -4.636579e-01
192 2 4 1.728923e+01 1.285283e+01 1.408082e+01 -1 -1 0 2.355607e-01 -8.099111e-01 1.961393e-01 5.000845e-01
193 2 4 1.712730e+01 1.331362e+01 1.377885e+01 -1 -1 0 -6.760837e-02 -6.462437e-01 5.373744e-01 5.376123e-01
194 2 1 1.733031e+01 1.345794e+01 1.427601e+01 -1 -1 0 9.226831e-01 1.327376e-01 1.430688e-01 -3.325176e-01
195 2 3 1.671186e+01 1.441247e+01 1.361737e+01 -1 -1 0 -1.061824e-01 -2.621349e-01 -3.995703e-02 9.583392e-01
196 2 4 1.674543e+01 1.446043e+01 1.322260e+01 -1 -1 0 -2.525805e-01 2.392152e-01 4.290599e-01 -8.335987e-01
197 2 2 1.645465e+01 1.411975e+01 1.232346e+01 -1 -1 0 5.494300e-01 -1.149375e-01 -3.536292e-01 -7.482395e-01
198 2 4 1.722100e+01 1.466168e+01 1.229133e+01 -1 -1 0 -4.123921e-01 2.687053e-01 8.468711e-01 -2.013446e-01
199 2 3 1.804365e+01 1.498987e+01 1.216229e+01 -1 -1 0 -2.566116e-01 -7.305547e-01 -4.651619e-01 -4.290276e-01
200 2 4 1.834248e+01 1.524380e+01 1.177921e+01 -1 -1 0 -2.433813e-02 -7.959567e-01 -1.442617e-01 -5.874088e-01
