ITEM: TIMESTEP
45000000
ITEM: NUMBER OF ATOMS
200
ITEM: BOX BOUNDS pp pp pp
-2.0000000000000000e+01 2.0000000000000000e+01
-2.0000000000000000e+01 2.0000000000000000e+01
-2.0000000000000000e+01 2.0000000000000000e+01
ITEM: ATOMS id mol type x y z ix iy iz c_quat[1] c_quat[2] c_quat[3] c_quat[4]
1 1 1 1.469305e+01 7.577162e+00 1.496729e+01 -1 -1 0 -5.179501e-01 3.952872e-02 4.445078e-01 7.297794e-01
2 1 2 1.473505e+01 8.692973e+00 1.467760e+01 -1 -1 0 -5.246119e-02 -3.773839e-01 -7.513866e-01 -5.387461e-01
3 1 1 1.506869e+01 9.645950e+00 1.487418e+01 -1 -1 0 -5.069957e-01 6.819478e-01 2.076322e-01 -4.845528e-01
4 1 3 1.466936e+01 8.633534e+00 1.523798e+01 -1 -1 0 4.248466e-01 2.865660e-01 -6.118559e-01 -6.025094e-01
5 1 1 1.504904e+01 9.816445e+00 1.573872e+01 -1 -1 0 -1.328803e-01 8.109987e-01 -2.231060e-01 -5.242591e-01
6 1 2 1.571694e+01 9.625171e+00 1.625571e+01 -1 -1 0 3.805010e-01 -8.830425e-01 6.738964e-02 -2.662961e-01
7 1 4 1.615771e+01 9.971044e+00 1.609382e+01 -1 -1 0 -4.147824e-01 7.771136e-01 -4.253433e-01 2.076849e-01
8 1 1 1.671627e+01 1.008941e+01 1.600970e+01 -1 -1 0 4.237395e-01 -4.881509e-01 7.520334e-01 -1.288387e-01
9 1 1 1.705230e+01 1.034256e+01 1.523866e+01 -1 -1 0 -1.503084e-01 -8.699822e-01 4.597188e-01 -9.590116e-02
10 1 4 1.681238e+01 1.040728e+01 1.514435e+01 -1 -1 0 -3.581220e-01 6.513015e-01 5.509839e-01 3.794359e-01
11 1 1 1.771663e+01 1.004230e+01 1.388846e+01 -1 -1 0 7.816414e-01 5.719081e-01 -2.094572e-01 -1.344825e-01
12 1 1 1.726676e+01 1.049516e+01 1.343834e+01 -1 -1 0 -1.231026e-01 9.524333e-01 -1.245108e-01 -2.494265e-01
13 1 3 1.728643e+01 1.091596e+01 1.302946e+01 -1 -1 0 6.246982e-02 -8.705304e-01 4.254135e-01 2.393693e-01
14 1 4 1.730676e+01 1.110013e+01 1.254826e+01 -1 -1 0 -3.865955e-02 -7.406411e-01 6.429032e-01 1.913942e-01
15 1 4 1.756797e+01 1.115987e+01 1.212779e+01 -1 -1 0 3.349358e-02 -5.103298e-01 8.461169e-01 1.500927e-01
16 1 2 1.781814e+01 1.098048e+01 1.161327e+01 -1 -1 0 -1.582450e-02 -1.641454e-01 9.588865e-01 2.309599e-01
17 1 1 1.773395e+01 1.094147e+01 1.107158e+01 -1 -1 0 1.145847e-01 -8.571659e-02 -9.794598e-01 -1.420613e-01
18 1 2 1.757157e+01 1.106183e+01 1.058123e+01 -1 -1 0 2.263172e-01 -1.518292e-01 -9.592242e-01 -7.494882e-02
19 1 3 1.721837e+01 1.098053e+01 1.023729e+01 -1 -1 0 2.821744e-01 -4.752941e-01 -8.333238e-01 -6.672644e-03
20 1 1 1.670783e+01 1.108584e+01 9.977070e+00 -1 -1 0 3.281822e-01 -7.007783e-01 -6.333691e-01 -7.052381e-03
21 1 4 1.631230e+01 1.133431e+01 9.753458e+00 -1 -1 0 -2.854952e-01 8.754941e-01 3.819568e-01 -7.817690e-02
22 1 1 1.612501e+01 1.173287e+01 9.517705e+00 -1 -1 0 -3.799906e-01 9.038353e-01 7.469842e-02 -1.819586e-01
23 1 4 1.598556e+01 1.232232e+01 9.293118e+00 -1 -1 0 -2.128488e-01 9.518165e-01 -1.970117e-01 -9.963467e-02
24 1 3 1.609867e+01 1.268695e+01 8.931217e+00 -1 -1 0 -1.224150e-01 8.651157e-01 -4.686091e-01 -1.303644e-01
25 1 3 1.635088e+01 1.292835e+01 8.536896e+00 -1 -1 0 -1.837063e-01 6.876808e-01 -7.017457e-01 -3.000180e-02
26 1 4 1.675343e+01 1.292913e+01 8.299965e+00 -1 -1 0 -2.580293e-01 3.634107e-01 -8.920085e-01 -7.532881e-02
27 1 4 1.706225e+01 1.281234e+01 7.861219e+00 -1 -1 0 -1.481117e-01 1.188592e-01 -9.815569e-01 2.194436e-02
28 1 1 1.712055e+01 1.251056e+01 7.421038e+00 -1 -1 0 -8.525840e-02 -1.796034e-01 -9.783784e-01 5.700286e-02
29 1 1 1.702117e+01 1.225693e+01 6.903112e+00 -1 -1 0 -2.538818e-02 -4.411851e-01 -8.969792e-01 1.181171e-02
30 1 4 1.668310e+01 1.223959e+01 6.428048e+00 -1 -1 0 2.356783e-02 7.332919e-01 6.787797e-01 -3.139688e-02
31 1 4 1.662435e+01 1.239634e+01 5.895069e+00 -1 -1 0 -1.133464e-01 8.237505e-01 5.506966e-01 7.294486e-02
32 1 3 1.640717e+01 1.268854e+01 5.533444e+00 -1 -1 0 -1.017899e-01 9.695046e-01 2.015412e-01 9.529343e-02
33 1 3 1.641036e+01 1.300802e+01 5.177927e+00 -1 -1 0 -4.027396e-02 9.782120e-01 -1.839243e-01 8.747130e-02
34 1 1 1.668442e+01 1.322188e+01 4.815526e+00 -1 -1 0 -1.721560e-01 8.956953e-01 -3.801269e-01 1.536091e-01
35 1 2 1.709827e+01 1.342458e+01 4.467689e+00 -1 -1 0 -1.559589e-01 7.065212e-01 -6.853931e-01 8.210310e-02
36 1 2 1.757468e+01 1.342232e+01 4.134370e+00 -1 -1 0 -1.450991e-01 5.280787e-01 -8.329563e-01 7.913902e-02
37 1 1 1.789874e+01 1.324529e+01 3.697403e+00 -1 -1 0 -1.198503e-01 2.276177e-01 -9.599769e-01 1.107715e-01
38 1 1 1.811210e+01 1.281726e+01 3.396017e+00 -1 -1 0 -1.388422e-01 -4.673272e-02 -9.881233e-01 4.638160e-02
39 1 4 1.816927e+01 1.246285e+01 2.869290e+00 -1 -1 0 5.821400e-02 2.540214e-01 9.539971e-01 -1.482359e-01
40 1 4 1.804738e+01 1.207138e+01 2.492010e+00 -1 -1 0 1.043936e-01 5.171615e-01 8.493829e-01 -1.395422e-02
41 1 2 1.783655e+01 1.195084e+01 2.118583e+00 -1 -1 0 6.317660e-02 7.429494e-01 6.621093e-01 -7.514116e-02
42 1 4 1.761354e+01 1.207680e+01 1.602169e+00 -1 -1 0 1.344845e-01 9.337498e-01 3.299278e-01 3.424701e-02
43 1 3 1.763457e+01 1.219619e+01 1.032463e+00 -1 -1 0 6.121982e-03 9.806161e-01 1.546332e-01 1.201798e-01
44 1 2 1.776932e+01 1.244633e+01 5.155012e-01 -1 -1 0 -5.499592e-02 9.703684e-01 -1.296974e-01 1.963141e-01
45 1 1 1.816559e+01 1.259693e+01 2.069166e-01 -1 -1 0 -6.637782e-02 8.481304e-01 -4.823266e-01 2.088775e-01
46 1 3 1.858481e+01 1.279030e+01 9.495822e-02 -1 -1 0 -1.991278e-01 6.949537e-01 -6.797372e-01 1.238746e-01
47 1 4 1.896906e+01 1.275278e+01 -4.054662e-01 -1 -1 0 -1.797720e-01 5.430047e-01 -7.978754e-01 1.903229e-01
48 1 1 1.932769e+01 1.242674e+01 -6.104684e-01 -1 -1 0 2.467149e-01 -1.814222e-01 9.370700e-01 -1.676833e-01
49 1 4 1.956508e+01 1.213924e+01 -9.057942e-01 -1 -1 0 2.357247e-01 6.150652e-02 9.633222e-01 -1.125216e-01
50 1 4 1.957023e+01 1.169697e+01 -1.252143e+00 -1 -1 0 3.162394e-01 4.324469e-01 8.443706e-01 -4.534034e-03
51 1 4 1.960237e+01 1.146270e+01 -1.687758e+00 -1 -1 0 2.775383e-01 6.410844e-01 6.902721e-01 1.884350e-01
52 1 1 1.992903e+01 1.139104e+01 -2.135880e+00 -1 -1 0 1.334679e-01 6.630219e-01 6.847618e-01 2.714582e-01
53 1 3 1.990408e+01 1.164139e+01 -2.592147e+00 -1 -1 0 6.144996e-02 -8.982228e-01 -3.436367e-01 -2.670834e-01
54 1 4 -1.980861e+01 1.192844e+01 -3.035067e+00 0 -1 0 -1.616469e-01 8.723981e-01 1.554756e-01 4.343032e-01
55 1 4 -1.952970e+01 1.224811e+01 -3.267137e+00 0 -1 0 -3.705572e-01 8.207700e-01 5.542022e-02 4.312222e-01
56 1 4 -1.927589e+01 1.266974e+01 -3.117780e+00 0 -1 0 -4.897536e-01 7.772517e-01 -2.383568e-01 3.149719e-01
57 1 1 -1.885102e+01 1.296771e+01 -3.117570e+00 0 -1 0 -5.175164e-01 6.375397e-01 -5.452079e-01 1.687255e-01
58 1 1 -1.832022e+01 1.310386e+01 -3.227368e+00 0 -1 0 -4.234424e-01 5.164712e-01 -7.311243e-01 1.393241e-01
59 1 3 -1.782016e+01 1.310127e+01 -3.207942e+00 0 -1 0 5.074198e-01 -2.010276e-01 8.293934e-01 -1.192458e-01
60 1 4 -1.740112e+01 1.280653e+01 -3.437206e+00 0 -1 0 4.443326e-01 6.634947e-02 8.934009e-01 -1.074986e-03
61 1 2 -1.704085e+01 1.265142e+01 -3.882240e+00 0 -1 0 2.988272e-01 2.192937e-01 9.266191e-01 6.316291e-02
62 1 3 -1.699556e+01 1.243282e+01 -4.336909e+00 0 -1 0 2.289295e-01 5.344376e-01 8.023974e-01 1.346331e-01
63 1 2 -1.697902e+01 1.242428e+01 -4.855690e+00 0 -1 0 8.530408e-02 7.693191e-01 6.007800e-01 1.998370e-01
64 1 4 -1.687876e+01 1.267464e+01 -5.385312e+00 0 -1 0 5.903181e-02 8.725848e-01 2.897097e-01 3.888179e-01
65 1 2 -1.659919e+01 1.295570e+01 -5.782690e+00 0 -1 0 -8.357591e-02 8.950532e-01 1.078283e-01 4.245796e-01
66 1 1 -1.624737e+01 1.334467e+01 -5.958212e+00 0 -1 0 -2.615987e-01 8.509026e-01 -1.440751e-01 4.321727e-01
67 1 2 -1.577422e+01 1.374599e+01 -5.998528e+00 0 -1 0 -2.814180e-01 7.937002e-01 -3.416939e-01 4.172399e-01
68 1 1 -1.531519e+01 1.393186e+01 -5.832246e+00 0 -1 0 -4.351289e-01 6.176826e-01 -5.872973e-01 2.901947e-01
69 1 1 -1.477660e+01 1.381865e+01 -5.816181e+00 0 -1 0 -5.526934e-01 3.129522e-01 -7.600245e-01 1.376726e-01
70 1 2 -1.422170e+01 1.367462e+01 -6.025298e+00 0 -1 0 4.339649e-01 -1.315404e-01 8.907625e-01 -3.022788e-02
71 1 3 -1.383855e+01 1.350854e+01 -6.353067e+00 0 -1 0 3.592495e-01 1.303513e-01 9.232201e-01 4.016178e-02
72 1 4 -1.366711e+01 1.320299e+01 -6.732916e+00 0 -1 0 2.948327e-01 4.087506e-01 8.460169e-01 1.739312e-01
73 1 1 -1.361666e+01 1.315167e+01 -7.223788e+00 0 -1 0 1.522621e-01 7.568417e-01 5.843977e-01 2.499722e-01
74 1 1 -1.354877e+01 1.329177e+01 -7.761661e+00 0 -1 0 6.476554e-02 8.542893e-01 4.106156e-01 3.120739e-01
75 1 3 -1.328208e+01 1.356824e+01 -8.105851e+00 0 -1 0 -7.110740e-02 8.697602e-01 2.748366e-01 4.036406e-01
76 1 1 -1.301512e+01 1.396812e+01 -8.367548e+00 0 -1 0 -1.944739e-01 8.740070e-01 -2.333378e-02 4.446878e-01
77 1 4 -1.259662e+01 1.430925e+01 -8.345710e+00 0 -1 0 -4.318018e-01 7.577696e-01 -2.024894e-01 4.453432e-01
78 1 1 -1.210464e+01 1.454427e+01 -8.422126e+00 0 -1 0 -4.447034e-01 6.709610e-01 -3.789568e-01 4.565544e-01
79 1 4 -1.161462e+01 1.461619e+01 -8.173090e+00 0 -1 0 -5.608336e-01 5.038000e-01 -6.064740e-01 2.526668e-01
80 1 2 -1.109454e+01 1.450431e+01 -8.078328e+00 0 -1 0 5.879193e-01 -1.875818e-01 7.743116e-01 -1.400198e-01
81 1 4 -1.060836e+01 1.424821e+01 -8.150098e+00 0 -1 0 -5.624463e-01 -5.211724e-02 -8.249553e-01 1.966382e-02
82 1 4 -1.020888e+01 1.395760e+01 -8.434460e+00 0 -1 0 -4.437409e-01 -3.072709e-01 -8.380910e-01 -7.925939e-02
83 1 4 -1.016417e+01 1.368784e+01 -8.900020e+00 0 -1 0 -3.175215e-01 -6.127545e-01 -7.198470e-01 -7.437919e-02
84 1 4 -1.022859e+01 1.353437e+01 -9.408372e+00 0 -1 0 -3.261284e-01 -8.139236e-01 -4.412767e-01 -1.909017e-01
85 1 1 -1.028744e+01 1.325084e+01 -9.531066e+00 0 -1 0 4.538933e-01 -2.502227e-01 -6.238489e-02 -8.529230e-01
86 1 1 -1.037963e+01 1.336987e+01 -1.038353e+01 0 -1 0 -3.737324e-01 -5.483022e-01 -4.354532e-01 -6.083332e-01
87 1 3 -1.050836e+01 1.298901e+01 -1.052832e+01 0 -1 0 -6.528038e-01 1.217405e-02 2.465014e-01 -7.161955e-01
88 1 2 -1.112922e+01 1.280607e+01 -1.153072e+01 0 -1 0 -6.815144e-01 -5.186114e-01 2.479916e-01 4.528581e-01
89 1 2 -1.163906e+01 1.247867e+01 -1.137052e+01 0 -1 0 -7.118330e-01 -6.063856e-01 1.682167e-01 3.119189e-01
90 1 3 -1.264669e+01 1.208327e+01 -1.090864e+01 0 -1 0 5.240818e-02 -4.397228e-01 -8.920617e-01 9.012859e-02
91 1 3 -1.304291e+01 1.197205e+01 -1.115141e+01 0 -1 0 -9.744177e-02 -8.392641e-01 -5.020455e-01 1.846381e-01
92 1 2 -1.329465e+01 1.201991e+01 -1.160348e+01 0 -1 0 1.916753e-01 9.771536e-01 4.952649e-02 -7.732092e-02
93 1 1 -1.324961e+01 1.200436e+01 -1.208961e+01 0 -1 0 1.582219e-01 9.800885e-01 -1.087312e-01 5.069391e-02
94 1 2 -1.292358e+01 1.211365e+01 -1.240420e+01 0 -1 0 4.312889e-03 8.670540e-01 -4.981838e-01 -3.417470e-03
95 1 3 -1.269015e+01 1.226159e+01 -1.270982e+01 0 -1 0 -5.133173e-02 -5.147441e-01 8.133533e-01 2.661954e-01
96 1 2 -1.199930e+01 1.251828e+01 -1.229123e+01 0 -1 0 2.330120e-01 9.618728e-01 1.128285e-01 8.818075e-02
97 1 2 -1.242398e+01 1.147254e+01 -1.229295e+01 0 -1 0 2.945826e-01 1.265732e-01 -2.611192e-01 -9.105038e-01
98 1 4 -1.129814e+01 1.173778e+01 -1.187535e+01 0 -1 0 -2.586792e-01 6.261981e-01 3.387973e-01 -6.528227e-01
99 1 2 -1.111859e+01 1.163324e+01 -1.278466e+01 0 -1 0 -2.660723e-01 -7.747955e-01 -2.545667e-01 -5.139001e-01
100 1 1 -1.150541e+01 1.108225e+01 -1.270512e+01 0 -1 0 8.063764e-01 3.680413e-01 -4.591381e-01 5.911718e-02
101 2 4 -1.115025e+01 1.700519e+01 -1.338810e+01 0 -1 0 7.231296e-01 2.027533e-02 4.729757e-01 -5.029577e-01
102 2 3 -1.120769e+01 1.782469e+01 -1.265292e+01 0 -1 0 1.096921e-02 -5.004679e-01 -8.640414e-01 -5.332961e-02
103 2 1 -1.040393e+01 1.783109e+01 -1.256348e+01 0 -1 0 -2.309920e-01 1.705989e-01 -9.577856e-01 -1.361581e-02
104 2 3 -9.169574e+00 1.852835e+01 -1.278615e+01 0 -1 0 8.546578e-01 2.939456e-01 2.854455e-01 3.188681e-01
105 2 3 -9.797336e+00 1.949043e+01 -1.183571e+01 0 -1 0 5.282823e-02 -2.242531e-02 2.322164e-01 -9.709695e-01
106 2 2 -9.670087e+00 1.913583e+01 -1.163947e+01 0 -1 0 3.929395e-01 4.910799e-01 7.021348e-01 -3.338348e-01
107 2 3 -8.561292e+00 1.878508e+01 -1.118298e+01 0 -1 0 -7.185529e-01 1.133335e-01 -2.284411e-01 -6.470332e-01
108 2 4 -8.189113e+00 1.760396e+01 -1.122411e+01 0 -1 0 4.714754e-01 5.305598e-01 -6.631596e-01 -2.375639e-01
109 2 3 -9.036290e+00 1.744742e+01 -1.085384e+01 0 -1 0 -2.779890e-01 4.826150e-01 7.385698e-01 3.798940e-01
110 2 2 -9.331503e+00 1.677172e+01 -1.117795e+01 0 -1 0 6.097347e-02 3.776652e-01 6.703912e-01 -6.357883e-01
111 2 2 -9.584451e+00 1.652942e+01 -1.037496e+01 0 -1 0 8.339955e-02 -1.386989e-01 -8.395731e-01 5.185790e-01
112 2 3 -1.003551e+01 1.626546e+01 -1.093760e+01 0 -1 0 -1.683287e-01 -4.899524e-01 -2.455477e-01 8.193403e-01
113 2 3 -9.547838e+00 1.583174e+01 -9.634795e+00 0 -1 0 6.726169e-01 -5.676448e-01 -3.292042e-01 -3.420388e-01
114 2 2 -9.331122e+00 1.560568e+01 -1.002855e+01 0 -1 0 -5.643692e-01 -4.179688e-01 -6.167258e-01 -3.555823e-01
115 2 4 -9.043736e+00 1.526982e+01 -9.651588e+00 0 -1 0 -4.503684e-02 7.228401e-01 5.575352e-01 4.057442e-01
116 2 4 -8.301922e+00 1.514702e+01 -9.260035e+00 0 -1 0 5.712782e-01 7.823578e-01 -2.424866e-01 5.251407e-02
117 2 1 -9.720480e+00 1.463045e+01 -9.420556e+00 0 -1 0 -4.715869e-01 -2.598556e-01 3.606727e-01 7.615747e-01
118 2 1 -1.023048e+01 1.481015e+01 -9.337206e+00 0 -1 0 -7.147523e-01 -2.332528e-01 4.003616e-01 5.238633e-01
119 2 1 -1.076364e+01 1.462188e+01 -9.276399e+00 0 -1 0 -8.607047e-01 -1.345574e-01 4.261447e-01 2.438902e-01
120 2 1 -1.110158e+01 1.425617e+01 -9.217841e+00 0 -1 0 -8.526517e-01 -8.584882e-02 5.095356e-01 -7.738605e-02
121 2 3 -1.142390e+01 1.386388e+01 -9.055614e+00 0 -1 0 -8.401959e-01 -3.381314e-02 4.717649e-01 -2.652647e-01
122 2 1 -1.149169e+01 1.357613e+01 -8.692719e+00 0 -1 0 -6.636462e-01 1.916736e-01 4.977590e-01 -5.244721e-01
123 2 4 -1.180373e+01 1.340830e+01 -8.231543e+00 0 -1 0 -5.633659e-01 3.093708e-01 3.136775e-01 -6.989385e-01
124 2 1 -1.200261e+01 1.347440e+01 -7.804106e+00 0 -1 0 -3.152463e-01 3.784621e-01 1.299347e-01 -8.605249e-01
125 2 4 -1.221676e+01 1.380444e+01 -7.447850e+00 0 -1 0 5.267418e-03 4.169295e-01 1.600674e-02 -9.087826e-01
126 2 2 -1.267998e+01 1.404842e+01 -7.173873e+00 0 -1 0 1.899326e-01 4.805486e-01 -1.647782e-02 -8.559948e-01
127 2 4 -1.314190e+01 1.425948e+01 -7.095053e+00 0 -1 0 3.544522e-01 4.996903e-01 -3.037895e-01 -7.296473e-01
128 2 4 -1.371133e+01 1.435831e+01 -7.233311e+00 0 -1 0 6.545890e-01 3.999907e-01 -3.619729e-01 -5.296191e-01
129 2 1 -1.422349e+01 1.415411e+01 -7.204975e+00 0 -1 0 7.650624e-01 3.807285e-01 -4.080719e-01 -3.212516e-01
130 2 2 -1.463877e+01 1.378140e+01 -7.204642e+00 0 -1 0 8.801073e-01 2.266600e-01 -4.158061e-01 3.378835e-02
131 2 3 -1.481537e+01 1.333993e+01 -7.004242e+00 0 -1 0 8.439161e-01 -1.949361e-02 -4.572982e-01 2.798284e-01
132 2 4 -1.497883e+01 1.299322e+01 -6.607685e+00 0 -1 0 -7.419166e-01 -2.030699e-02 4.618763e-01 -4.856106e-01
133 2 4 -1.511476e+01 1.273752e+01 -6.102782e+00 0 -1 0 -6.665029e-01 1.608704e-01 3.699010e-01 -6.269512e-01
134 2 3 -1.528665e+01 1.264231e+01 -5.535282e+00 0 -1 0 -4.300625e-01 3.275634e-01 2.463416e-01 -8.044031e-01
135 2 4 -1.556064e+01 1.285857e+01 -5.164134e+00 0 -1 0 2.169859e-01 -4.326726e-01 -9.014047e-02 8.703943e-01
136 2 3 -1.592291e+01 1.310366e+01 -4.770900e+00 0 -1 0 7.524626e-02 -4.912882e-01 6.069650e-02 8.656153e-01
137 2 1 -1.628897e+01 1.347995e+01 -4.607490e+00 0 -1 0 2.656511e-01 4.673402e-01 -1.751883e-01 -8.248222e-01
138 2 3 -1.681094e+01 1.363905e+01 -4.577957e+00 0 -1 0 5.995751e-01 3.528143e-01 -2.648641e-01 -6.677416e-01
139 2 2 -1.734753e+01 1.360149e+01 -4.438298e+00 0 -1 0 6.567989e-01 4.537764e-01 -3.265728e-01 -5.060162e-01
140 2 3 -1.783963e+01 1.336249e+01 -4.423202e+00 0 -1 0 8.054250e-01 4.126381e-01 -3.506475e-01 -2.409703e-01
141 2 1 -1.803869e+01 1.291801e+01 -4.421752e+00 0 -1 0 8.376769e-01 1.756768e-01 -5.111711e-01 7.835258e-02
142 2 2 -1.817536e+01 1.250268e+01 -4.170400e+00 0 -1 0 7.432175e-01 1.286959e-01 -5.054435e-01 4.190369e-01
143 2 4 -1.842522e+01 1.213090e+01 -3.830358e+00 0 -1 0 -7.038015e-01 1.079429e-01 4.304839e-01 -5.547030e-01
144 2 4 -1.841344e+01 1.191935e+01 -3.385192e+00 0 -1 0 5.218874e-01 -1.264615e-01 -3.083370e-01 7.852193e-01
145 2 1 -1.845499e+01 1.188716e+01 -2.871147e+00 0 -1 0 3.104846e-01 -2.049996e-01 -2.261264e-01 9.002451e-01
146 2 1 -1.867135e+01 1.195982e+01 -2.430725e+00 0 -1 0 9.597159e-02 -3.280920e-01 -7.297203e-02 9.369206e-01
147 2 1 -1.906909e+01 1.216257e+01 -1.984794e+00 0 -1 0 -1.492348e-01 -4.300291e-01 -5.024039e-02 8.889768e-01
148 2 2 -1.949926e+01 1.240530e+01 -1.979849e+00 0 -1 0 -2.977605e-01 -4.363423e-01 2.874105e-01 7.989614e-01
149 2 4 1.995057e+01 1.256892e+01 -2.029359e+00 -1 -1 0 5.944436e-01 3.207411e-01 -3.277888e-01 -6.605425e-01
150 2 1 1.934566e+01 1.255582e+01 -2.035535e+00 -1 -1 0 7.686957e-01 2.058816e-01 -3.386793e-01 -5.020120e-01
151 2 1 1.886378e+01 1.249726e+01 -1.838981e+00 -1 -1 0 8.958480e-01 1.491999e-01 -3.064129e-01 -2.851435e-01
152 2 1 1.849072e+01 1.213734e+01 -1.457570e+00 -1 -1 0 9.669801e-01 6.935672e-02 -2.437728e-01 -2.672069e-02
153 2 4 1.838995e+01 1.183396e+01 -1.015516e+00 -1 -1 0 9.568448e-01 -1.945484e-02 -1.390406e-01 2.544351e-01
154 2 1 1.844680e+01 1.169967e+01 -5.026269e-01 -1 -1 0 8.499405e-01 -5.448761e-02 -9.758944e-03 5.239627e-01
155 2 2 1.862811e+01 1.148666e+01 5.286106e-02 -1 -1 0 7.009979e-01 -8.841742e-02 -2.722746e-02 7.071371e-01
156 2 4 1.878209e+01 1.165591e+01 5.664694e-01 -1 -1 0 4.353553e-01 -1.427650e-01 1.389282e-01 8.779424e-01
157 2 3 1.887570e+01 1.215690e+01 9.292555e-01 -1 -1 0 1.138712e-01 -1.590296e-01 1.200983e-01 9.733033e-01
158 2 2 1.877506e+01 1.249200e+01 1.263491e+00 -1 -1 0 -1.807827e-01 -9.372106e-02 3.015758e-01 9.314430e-01
159 2 1 1.847998e+01 1.288033e+01 1.557905e+00 -1 -1 0 -3.950476e-01 -8.617324e-02 2.848720e-01 8.691142e-01
160 2 3 1.806512e+01 1.309501e+01 1.956776e+00 -1 -1 0 6.202623e-01 1.771728e-01 -2.581936e-01 -7.191805e-01
161 2 1 1.749813e+01 1.312798e+01 2.176403e+00 -1 -1 0 8.470299e-01 1.268665e-02 -1.953164e-01 -4.941973e-01
162 2 1 1.717628e+01 1.298443e+01 2.523942e+00 -1 -1 0 9.354204e-01 1.856941e-02 -2.416897e-01 -2.573519e-01
163 2 4 1.698601e+01 1.285462e+01 2.990978e+00 -1 -1 0 9.868521e-01 5.727422e-02 -1.395201e-01 -5.811047e-02
164 2 4 1.686372e+01 1.262876e+01 3.521454e+00 -1 -1 0 9.669494e-01 6.100169e-02 -5.839911e-02 2.405769e-01
165 2 3 1.704554e+01 1.237531e+01 4.002847e+00 -1 -1 0 8.492589e-01 5.691585e-02 -1.564438e-02 5.246666e-01
166 2 3 1.729537e+01 1.226451e+01 4.413574e+00 -1 -1 0 6.247623e-01 -1.045102e-02 2.224584e-02 7.804281e-01
167 2 4 1.751048e+01 1.243807e+01 4.943097e+00 -1 -1 0 3.564962e-01 -1.181565e-01 6.673067e-02 9.243898e-01
168 2 2 1.758935e+01 1.270025e+01 5.361232e+00 -1 -1 0 9.736554e-02 -4.109590e-02 1.821008e-01 9.775840e-01
169 2 2 1.747956e+01 1.312005e+01 5.760207e+00 -1 -1 0 -1.642084e-01 -9.660059e-02 2.094126e-01 9.590883e-01
170 2 1 1.713684e+01 1.344100e+01 6.081395e+00 -1 -1 0 -4.576524e-01 -1.013453e-01 1.304425e-01 8.736522e-01
171 2 1 1.667724e+01 1.343534e+01 6.420763e+00 -1 -1 0 7.231787e-01 2.062240e-01 -1.608644e-01 -6.392236e-01
172 2 4 1.625482e+01 1.321844e+01 6.915630e+00 -1 -1 0 8.781321e-01 1.889923e-01 -4.018481e-02 -4.376654e-01
173 2 4 1.607287e+01 1.279375e+01 7.132348e+00 -1 -1 0 9.560023e-01 2.235103e-01 -1.254870e-01 -1.426732e-01
174 2 1 1.597340e+01 1.241134e+01 7.426964e+00 -1 -1 0 9.564041e-01 1.591505e-01 -1.508916e-01 1.928577e-01
175 2 1 1.614299e+01 1.202287e+01 7.724453e+00 -1 -1 0 8.360888e-01 2.057406e-01 -1.622737e-01 4.819685e-01
176 2 2 1.633942e+01 1.182909e+01 8.110781e+00 -1 -1 0 7.022454e-01 1.751732e-01 -9.673785e-02 6.832331e-01
177 2 2 1.670494e+01 1.175480e+01 8.505805e+00 -1 -1 0 3.953397e-01 2.422108e-01 -4.122919e-02 8.850653e-01
178 2 1 1.705663e+01 1.190687e+01 8.877034e+00 -1 -1 0 1.339559e-01 2.107867e-01 -1.027069e-02 9.682558e-01
179 2 4 1.723350e+01 1.212269e+01 9.276570e+00 -1 -1 0 -1.651913e-01 1.456955e-01 -1.821049e-02 9.752707e-01
180 2 1 1.705131e+01 1.224527e+01 9.825864e+00 -1 -1 0 -4.353040e-01 2.844815e-02 -1.197303e-01 8.918328e-01
181 2 4 1.700373e+01 1.215717e+01 1.034677e+01 -1 -1 0 5.878315e-01 7.874654e-02 1.626058e-01 -7.885509e-01
182 2 2 1.668884e+01 1.192561e+01 1.078568e+01 -1 -1 0 8.046791e-01 1.395601e-01 1.715992e-01 -5.509702e-01
183 2 3 1.661999e+01 1.155763e+01 1.112394e+01 -1 -1 0 9.274275e-01 2.275025e-01 1.689340e-01 -2.440947e-01
184 2 4 1.659056e+01 1.102362e+01 1.140013e+01 -1 -1 0 -9.442375e-01 -3.160879e-01 -9.050976e-02 1.766204e-02
185 2 3 1.670145e+01 1.048415e+01 1.161358e+01 -1 -1 0 9.203551e-01 2.933779e-01 5.040793e-02 2.536433e-01
186 2 1 1.698218e+01 1.011805e+01 1.192941e+01 -1 -1 0 -8.457471e-01 -2.676662e-01 -5.940659e-02 -4.577527e-01
187 2 1 1.735614e+01 9.945164e+00 1.220252e+01 -1 -1 0 -6.164096e-01 -2.837732e-01 -4.424789e-02 -7.331808e-01
188 2 2 1.781514e+01 9.963619e+00 1.255116e+01 -1 -1 0 -4.850623e-01 -2.849940e-01 -1.387365e-01 -8.150124e-01
189 2 4 1.823973e+01 1.017330e+01 1.276182e+01 -1 -1 0 -1.642231e-01 -3.265059e-01 -3.986694e-02 -9.299652e-01
190 2 4 1.933116e+01 9.195706e+00 1.316029e+01 -1 -1 0 1.848094e-01 7.163863e-01 -6.030484e-01 2.982763e-01
191 2 1 1.877413e+01 8.659140e+00 1.250011e+01 -1 -1 0 4.053176e-01 -1.219264e-01 -8.147116e-01 -3.963542e-01
192 2 4 1.937142e+01 8.695701e+00 1.228344e+01 -1 -1 0 -1.384209e-01 3.788858e-02 -3.972684e-01 -9.064116e-01
193 2 4 1.933823e+01 8.270485e+00 1.292302e+01 -1 -1 0 -8.861960e-01 8.181123e-02 2.273426e-01 -3.953212e-01
194 2 1 1.829399e+01 7.746795e+00 1.297647e+01 -1 -1 0 -3.405771e-02 -4.695283e-01 -8.419591e-01 -2.636059e-01
195 2 3 1.924704e+01 6.818488e+00 1.320848e+01 -1 -1 0 8.326766e-01 -4.720123e-01 -2.019232e-01 -2.075600e-01
196 2 4 1.855920e+01 6.140460e+00 1.236135e+01 -1 -1 0 -6.760881e-01 1.107970e-01 7.480150e-02 7.245921e-01
197 2 2 1.923789e+01 6.009171e+00 1.185002e+01 -1 -1 0 9.646596e-01 -8.625041e-02 -1.840374e-01 1.676987e-01
198 2 4 1.856448e+01 5.631033e+00 1.228280e+01 -1 -1 0 -9.332903e-01 -1.013486e-01 2.938362e-01 -1.798831e-01
199 2 3 1.805428e+01 5.191375e+00 1.186014e+01 -1 -1 0 4.873207e-01 1.817477e-02 7.127079e-01 5.042179e-01
200 2 4 1.848753e+01 5.213914e+00 1.297031e+01 -1 -1 0 2.180870e-01 8.133074e-01 -5.394132e-01 1.601023e-03
