ITEM: TIMESTEP
40000000
ITEM: NUMBER OF ATOMS
200
ITEM: BOX BOUNDS pp pp pp
-2.0000000000000000e+01 2.0000000000000000e+01
-2.0000000000000000e+01 2.0000000000000000e+01
-2.0000000000000000e+01 2.0000000000000000e+01
ITEM: ATOMS id mol type x y z ix iy iz c_quat[1] c_quat[2] c_quat[3] c_quat[4]
1 1 1 1.322911e+01 1.075222e+01 1.646476e+01 -1 -1 0 2.875300e-02 9.196003e-01 -2.597775e-01 -2.932989e-01
2 1 2 1.260819e+01 1.065791e+01 1.608809e+01 -1 -1 0 4.691307e-01 -1.955149e-01 -5.128346e-01 -6.918750e-01
3 1 1 1.262864e+01 1.072096e+01 1.568465e+01 -1 -1 0 2.787075e-01 -5.298617e-01 -3.058093e-01 7.403036e-01
4 1 3 1.290200e+01 1.038333e+01 1.523258e+01 -1 -1 0 8.989241e-02 9.063176e-01 -2.024863e-01 3.598710e-01
5 1 1 1.344679e+01 1.039029e+01 1.496601e+01 -1 -1 0 -2.037774e-02 -8.287598e-01 3.910826e-01 -3.997454e-01
6 1 2 1.415146e+01 1.029143e+01 1.444770e+01 -1 -1 0 -1.485427e-01 -9.081201e-01 2.315660e-01 3.156425e-01
7 1 4 1.408797e+01 1.047775e+01 1.445774e+01 -1 -1 0 6.151321e-01 3.987623e-01 2.274544e-01 -6.409880e-01
8 1 1 1.545057e+01 1.048628e+01 1.494172e+01 -1 -1 0 9.808132e-01 -4.535160e-02 1.872905e-01 -2.951094e-02
9 1 1 1.524896e+01 9.785596e+00 1.479725e+01 -1 -1 0 1.172227e-01 6.146962e-01 -7.172465e-01 -3.065369e-01
10 1 4 1.510863e+01 9.751753e+00 1.433111e+01 -1 -1 0 -2.863253e-01 -3.918610e-01 8.571328e-01 1.725867e-01
11 1 1 1.552028e+01 1.090757e+01 1.360725e+01 -1 -1 0 5.556946e-01 4.585539e-01 6.492686e-01 2.436844e-01
12 1 1 1.590505e+01 1.083635e+01 1.326939e+01 -1 -1 0 4.260278e-01 5.962004e-01 4.508943e-01 5.096467e-01
13 1 3 1.627339e+01 1.091097e+01 1.300851e+01 -1 -1 0 -1.600095e-01 -7.327066e-01 -3.385437e-01 -5.682659e-01
14 1 4 1.661252e+01 1.127443e+01 1.281010e+01 -1 -1 0 1.206342e-01 -7.906008e-01 -1.969987e-01 -5.670883e-01
15 1 4 1.693968e+01 1.170188e+01 1.274468e+01 -1 -1 0 2.559698e-01 -7.936553e-01 1.804971e-01 -5.215472e-01
16 1 2 1.737964e+01 1.196898e+01 1.284572e+01 -1 -1 0 3.355835e-01 -7.220450e-01 3.845654e-01 -4.670591e-01
17 1 1 1.802585e+01 1.209935e+01 1.289553e+01 -1 -1 0 -3.381069e-01 5.913414e-01 -5.763176e-01 4.515053e-01
18 1 2 1.845231e+01 1.196593e+01 1.305181e+01 -1 -1 0 -5.582301e-01 2.679138e-01 -7.676566e-01 1.652413e-01
19 1 3 1.895955e+01 1.172127e+01 1.298894e+01 -1 -1 0 -5.092953e-01 8.812970e-02 -8.559303e-01 1.532272e-02
20 1 1 1.916499e+01 1.136219e+01 1.278430e+01 -1 -1 0 -4.868600e-01 -3.142664e-01 -8.116737e-01 -7.341516e-02
21 1 4 1.954461e+01 1.109514e+01 1.242466e+01 -1 -1 0 4.285178e-01 4.074483e-01 8.008302e-01 9.502298e-02
22 1 1 1.974566e+01 1.091994e+01 1.200711e+01 -1 -1 0 2.664430e-01 6.529479e-01 6.910331e-01 1.585571e-01
23 1 4 1.976933e+01 1.097202e+01 1.154675e+01 -1 -1 0 1.444603e-01 8.554682e-01 4.502594e-01 2.111206e-01
24 1 3 1.993487e+01 1.111384e+01 1.102176e+01 -1 -1 0 -4.335753e-02 8.890317e-01 3.550320e-01 2.858234e-01
25 1 3 -1.995163e+01 1.147683e+01 1.058160e+01 0 -1 0 -8.643449e-02 9.564451e-01 7.033592e-02 2.698051e-01
26 1 4 -1.966760e+01 1.186796e+01 1.018858e+01 0 -1 0 -1.934055e-01 9.125446e-01 -1.622854e-01 3.217454e-01
27 1 4 -1.924645e+01 1.213685e+01 1.008530e+01 0 -1 0 -2.315065e-01 8.070587e-01 -4.950377e-01 2.236038e-01
28 1 1 -1.865452e+01 1.230623e+01 9.976814e+00 0 -1 0 -3.555884e-01 6.438491e-01 -6.032157e-01 3.084575e-01
29 1 1 -1.809308e+01 1.226678e+01 9.970748e+00 0 -1 0 -4.254302e-01 3.151499e-01 -8.431253e-01 9.396527e-02
30 1 4 -1.768197e+01 1.207885e+01 9.694433e+00 0 -1 0 3.729611e-01 -5.520061e-02 9.238415e-01 -6.610463e-02
31 1 4 -1.734345e+01 1.171784e+01 9.410115e+00 0 -1 0 3.246921e-01 1.856968e-01 9.260178e-01 -5.082074e-02
32 1 3 -1.735527e+01 1.133954e+01 8.980523e+00 0 -1 0 3.569461e-01 4.549881e-01 8.081207e-01 1.118760e-01
33 1 3 -1.739745e+01 1.114567e+01 8.485424e+00 0 -1 0 2.842637e-01 7.486109e-01 5.849488e-01 1.288828e-01
34 1 1 -1.737728e+01 1.121801e+01 7.949330e+00 0 -1 0 1.429868e-01 9.093163e-01 2.886304e-01 2.634221e-01
35 1 2 -1.720052e+01 1.133246e+01 7.489105e+00 0 -1 0 -2.992829e-02 9.346178e-01 2.169263e-01 2.802442e-01
36 1 2 -1.697217e+01 1.162181e+01 7.142154e+00 0 -1 0 -4.468755e-02 9.394535e-01 -9.884610e-02 3.250531e-01
37 1 1 -1.662501e+01 1.178132e+01 6.851195e+00 0 -1 0 -1.354865e-01 8.435777e-01 -3.452902e-01 3.883231e-01
38 1 1 -1.618401e+01 1.186315e+01 6.679735e+00 0 -1 0 -2.751635e-01 7.114118e-01 -4.882492e-01 4.240177e-01
39 1 4 -1.563054e+01 1.187711e+01 6.682981e+00 0 -1 0 3.336905e-01 -4.594598e-01 7.536230e-01 -3.310585e-01
40 1 4 -1.514971e+01 1.164188e+01 6.537747e+00 0 -1 0 3.945387e-01 -2.247901e-01 8.508460e-01 -2.643287e-01
41 1 2 -1.471756e+01 1.127077e+01 6.388523e+00 0 -1 0 3.325687e-01 1.645916e-02 9.260038e-01 -1.778882e-01
42 1 4 -1.464630e+01 1.084028e+01 6.004813e+00 0 -1 0 3.506035e-01 4.255183e-01 8.333496e-01 -3.924064e-02
43 1 3 -1.469633e+01 1.054139e+01 5.576707e+00 0 -1 0 2.112954e-01 6.851695e-01 6.942438e-01 -6.263029e-02
44 1 2 -1.481809e+01 1.039063e+01 5.076540e+00 0 -1 0 9.307974e-02 8.463409e-01 5.239871e-01 2.192688e-02
45 1 1 -1.492774e+01 1.050865e+01 4.509011e+00 0 -1 0 -2.928636e-02 9.544534e-01 2.843816e-01 8.537089e-02
46 1 3 -1.494175e+01 1.088862e+01 4.133802e+00 0 -1 0 -1.170706e-01 9.878491e-01 6.183063e-02 8.139789e-02
47 1 4 -1.478732e+01 1.123034e+01 3.779794e+00 0 -1 0 -9.881779e-02 9.367414e-01 -3.262909e-01 7.927658e-02
48 1 1 -1.444191e+01 1.145773e+01 3.468055e+00 0 -1 0 1.729508e-01 -8.060709e-01 5.540846e-01 -1.154469e-01
49 1 4 -1.387922e+01 1.159377e+01 3.207959e+00 0 -1 0 2.291668e-01 -6.464004e-01 7.159397e-01 -1.306880e-01
50 1 4 -1.341996e+01 1.149788e+01 3.018359e+00 0 -1 0 2.391100e-01 -3.911264e-01 8.885857e-01 1.618715e-02
51 1 4 -1.318992e+01 1.126679e+01 2.642065e+00 0 -1 0 2.197018e-01 -8.141275e-02 9.696467e-01 -6.991669e-02
52 1 1 -1.301656e+01 1.103870e+01 2.191786e+00 0 -1 0 1.319955e-01 2.112737e-01 9.649457e-01 8.258529e-02
53 1 3 -1.303261e+01 1.088958e+01 1.667603e+00 0 -1 0 7.178205e-02 5.342951e-01 8.074508e-01 2.395814e-01
54 1 4 -1.314408e+01 1.098049e+01 1.171435e+00 0 -1 0 -4.539272e-02 6.700409e-01 7.272730e-01 1.416287e-01
55 1 4 -1.333158e+01 1.114083e+01 7.361568e-01 0 -1 0 -1.964163e-01 7.922226e-01 5.717373e-01 8.318948e-02
56 1 4 -1.358485e+01 1.141051e+01 4.034433e-01 0 -1 0 -1.188772e-01 9.738070e-01 1.790373e-01 7.425533e-02
57 1 1 -1.366543e+01 1.192379e+01 8.020776e-02 0 -1 0 -2.414757e-01 9.698844e-01 1.781590e-02 2.638888e-02
58 1 1 -1.353168e+01 1.234751e+01 -2.371143e-01 0 -1 0 -1.312191e-01 9.164497e-01 -3.731696e-01 -6.038239e-02
59 1 3 -1.329359e+01 1.257065e+01 -6.887400e-01 0 -1 0 2.132617e-01 -8.121477e-01 5.408648e-01 -4.899834e-02
60 1 4 -1.293181e+01 1.271420e+01 -9.529300e-01 0 -1 0 1.889724e-01 -6.165600e-01 7.642181e-01 -1.067400e-02
61 1 2 -1.252125e+01 1.261513e+01 -1.509790e+00 0 -1 0 3.441622e-02 -3.348908e-01 9.172059e-01 2.130660e-01
62 1 3 -1.254348e+01 1.256856e+01 -2.093818e+00 0 -1 0 -1.079074e-01 -5.093957e-02 9.859565e-01 1.168372e-01
63 1 2 -1.262549e+01 1.237896e+01 -2.527456e+00 0 -1 0 -1.151358e-01 2.765285e-01 9.521209e-01 6.116738e-02
64 1 4 -1.296030e+01 1.218773e+01 -2.931960e+00 0 -1 0 -9.644836e-02 5.616396e-01 8.140363e-01 1.122659e-01
65 1 2 -1.333417e+01 1.226327e+01 -3.427710e+00 0 -1 0 -1.843588e-01 7.241841e-01 6.511086e-01 1.327659e-01
66 1 1 -1.373897e+01 1.269998e+01 -3.730039e+00 0 -1 0 -1.239154e-01 9.163572e-01 3.653127e-01 1.071499e-01
67 1 2 -1.371309e+01 1.302247e+01 -4.143011e+00 0 -1 0 -1.425489e-01 9.637171e-01 1.397459e-01 1.772012e-01
68 1 1 -1.363728e+01 1.336788e+01 -4.517639e+00 0 -1 0 -2.824695e-01 9.342076e-01 -1.649112e-01 1.423780e-01
69 1 1 -1.328293e+01 1.367251e+01 -4.891746e+00 0 -1 0 -1.538039e-01 8.469100e-01 -4.798569e-01 1.697800e-01
70 1 2 -1.289445e+01 1.378221e+01 -5.146609e+00 0 -1 0 1.748268e-01 -7.252464e-01 6.508626e-01 -1.408230e-01
71 1 3 -1.242911e+01 1.376140e+01 -5.529104e+00 0 -1 0 1.069370e-01 -4.739221e-01 8.661731e-01 -1.170746e-01
72 1 4 -1.206457e+01 1.340824e+01 -5.796832e+00 0 -1 0 1.765624e-01 -1.040918e-01 9.780401e-01 -3.779236e-02
73 1 1 -1.191164e+01 1.320432e+01 -6.187076e+00 0 -1 0 1.399164e-01 1.090109e-01 9.704562e-01 -1.635689e-01
74 1 1 -1.187883e+01 1.285022e+01 -6.586830e+00 0 -1 0 6.667704e-02 3.899160e-01 9.134051e-01 -9.597331e-02
75 1 3 -1.195352e+01 1.264165e+01 -7.054371e+00 0 -1 0 6.274832e-02 5.852668e-01 8.044246e-01 -8.016533e-02
76 1 1 -1.223659e+01 1.253363e+01 -7.409982e+00 0 -1 0 -7.456734e-02 7.512259e-01 6.301382e-01 -1.817285e-01
77 1 4 -1.262020e+01 1.265128e+01 -7.624313e+00 0 -1 0 -1.591610e-02 9.018833e-01 3.418310e-01 -2.636375e-01
78 1 1 -1.289707e+01 1.284593e+01 -8.046686e+00 0 -1 0 9.234047e-02 9.793925e-01 6.564800e-02 -1.671944e-01
79 1 4 -1.300696e+01 1.302526e+01 -8.471281e+00 0 -1 0 1.171024e-01 9.495826e-01 -2.684499e-01 -1.118688e-01
80 1 2 -1.299490e+01 1.307159e+01 -9.037412e+00 0 -1 0 -1.936399e-01 -8.922540e-01 4.078648e-01 -5.722317e-03
81 1 4 -1.274045e+01 1.306024e+01 -9.445905e+00 0 -1 0 -6.164209e-02 -7.534534e-01 6.536840e-01 -3.472086e-02
82 1 4 -1.248776e+01 1.292065e+01 -9.894428e+00 0 -1 0 -1.206030e-01 -4.634117e-01 8.775526e-01 -2.461510e-02
83 1 4 -1.283036e+01 1.363235e+01 -8.849223e+00 0 -1 0 -2.961578e-01 2.557669e-01 8.495642e-01 -3.537153e-01
84 1 4 -1.252718e+01 1.443998e+01 -1.000896e+01 0 -1 0 -4.214508e-01 -8.511610e-01 2.224724e-02 3.121047e-01
85 1 1 -1.191686e+01 1.500220e+01 -9.673293e+00 0 -1 0 3.000045e-01 -8.146576e-01 3.529114e-01 3.489754e-01
86 1 1 -1.165190e+01 1.529480e+01 -1.003468e+01 0 -1 0 -3.122767e-01 4.936508e-01 -6.691601e-01 -4.593658e-01
87 1 3 -1.155404e+01 1.567219e+01 -1.031815e+01 0 -1 0 -2.056739e-01 2.899768e-01 -8.107522e-01 -4.650727e-01
88 1 2 -1.123343e+01 1.669279e+01 -9.137006e+00 0 -1 0 -3.342635e-01 7.094704e-01 1.467851e-01 6.028049e-01
89 1 2 -1.079811e+01 1.710645e+01 -9.098467e+00 0 -1 0 -4.059174e-01 6.323228e-01 2.743896e-01 6.000910e-01
90 1 3 -1.000177e+01 1.703533e+01 -1.010375e+01 0 -1 0 -1.024209e-01 -6.809846e-01 -1.689001e-01 7.051544e-01
91 1 3 -1.004622e+01 1.695125e+01 -1.009775e+01 0 -1 0 4.013813e-01 1.499586e-02 6.618141e-01 -6.329853e-01
92 1 2 -1.018792e+01 1.774758e+01 -9.692515e+00 0 -1 0 1.930696e-01 -3.528435e-01 -8.802569e-01 -2.517406e-01
93 1 1 -1.059358e+01 1.779126e+01 -9.933132e+00 0 -1 0 -3.338543e-01 6.867841e-01 6.451772e-01 -2.480583e-02
94 1 2 -1.031916e+01 1.736063e+01 -1.108462e+01 0 -1 0 7.552456e-01 1.875299e-01 3.772707e-01 -5.020991e-01
95 1 3 -9.151259e+00 1.729862e+01 -1.093746e+01 0 -1 0 -9.679237e-01 1.570237e-01 1.830356e-01 -7.046427e-02
96 1 2 -8.665353e+00 1.738202e+01 -1.125680e+01 0 -1 0 -5.390323e-01 1.949212e-02 5.244201e-02 -8.404249e-01
97 1 2 -8.558958e+00 1.653032e+01 -1.190314e+01 0 -1 0 -3.107639e-01 -7.338487e-01 5.904561e-01 -1.274894e-01
98 1 4 -8.308953e+00 1.622136e+01 -1.228747e+01 0 -1 0 2.848472e-01 4.805224e-01 -7.842003e-01 2.701670e-01
99 1 2 -8.183019e+00 1.580765e+01 -1.249804e+01 0 -1 0 -2.339640e-01 -1.866893e-01 8.475054e-01 -4.383408e-01
100 1 1 -7.455083e+00 1.666508e+01 -1.322657e+01 0 -1 0 5.635549e-01 7.640664e-01 -1.715025e-01 -2.630500e-01
101 2 4 -1.690985e+01 1.414329e+01 -1.347702e+01 0 -1 0 9.047640e-01 4.065588e-01 -4.832670e-02 -1.173737e-01
102 2 3 -1.777773e+01 1.481678e+01 -1.232339e+01 0 -1 0 2.417805e-01 -1.608170e-03 -8.041455e-01 5.430374e-01
103 2 1 -1.802680e+01 1.467538e+01 -1.172944e+01 0 -1 0 6.066918e-01 -5.815740e-01 -3.429555e-01 -4.196168e-01
104 2 3 -1.737367e+01 1.478271e+01 -1.203795e+01 0 -1 0 4.868178e-01 7.682724e-01 4.127392e-01 -4.911509e-02
105 2 3 -1.674916e+01 1.399074e+01 -1.222276e+01 0 -1 0 -7.941595e-01 -3.299158e-01 -4.934254e-01 -1.303749e-01
106 2 2 -1.737574e+01 1.466883e+01 -1.105444e+01 0 -1 0 -7.179300e-02 -1.800702e-01 -2.122759e-01 -9.577888e-01
107 2 3 -1.735243e+01 1.502091e+01 -1.067826e+01 0 -1 0 -4.587244e-01 1.978432e-01 3.858080e-02 8.654141e-01
108 2 4 -1.593655e+01 1.552854e+01 -1.081747e+01 0 -1 0 8.999969e-01 3.630333e-01 -9.844266e-02 2.202759e-01
109 2 3 -1.565984e+01 1.518331e+01 -1.048155e+01 0 -1 0 7.099129e-01 1.124309e-01 -1.743746e-01 6.730352e-01
110 2 2 -1.529002e+01 1.492649e+01 -1.033449e+01 0 -1 0 -1.283295e-02 9.761711e-01 2.139359e-01 -3.400992e-02
111 2 2 -1.541527e+01 1.475059e+01 -1.086247e+01 0 -1 0 -1.961946e-01 -3.372038e-01 -7.872761e-01 4.774910e-01
112 2 3 -1.528863e+01 1.384039e+01 -1.144148e+01 0 -1 0 5.256468e-01 1.610737e-01 -2.091323e-01 -8.087116e-01
113 2 3 -1.502476e+01 1.354053e+01 -1.038083e+01 0 -1 0 -3.440713e-01 -1.201881e-01 5.533439e-01 -7.489862e-01
114 2 2 -1.500415e+01 1.327025e+01 -1.007451e+01 0 -1 0 2.164941e-01 -9.762380e-01 5.118801e-03 7.967052e-03
115 2 4 -1.455616e+01 1.219189e+01 -9.838242e+00 0 -1 0 -1.458191e-01 -7.909980e-01 5.736711e-01 -1.547918e-01
116 2 4 -1.455929e+01 1.139061e+01 -1.043876e+01 0 -1 0 8.505415e-01 -1.273442e-01 5.100237e-01 -1.544377e-02
117 2 1 -1.415909e+01 1.126170e+01 -1.031725e+01 0 -1 0 -7.867849e-01 -3.066881e-02 -5.422358e-01 -2.932735e-01
118 2 1 -1.364795e+01 1.128848e+01 -1.038130e+01 0 -1 0 6.387483e-01 2.354917e-01 5.808714e-01 4.462428e-01
119 2 1 -1.282684e+01 1.188859e+01 -9.675982e+00 0 -1 0 8.823321e-01 -8.784789e-03 3.612363e-02 4.691567e-01
120 2 1 -1.252679e+01 1.190061e+01 -9.246219e+00 0 -1 0 6.352659e-01 -2.123099e-02 1.374674e-01 7.596639e-01
121 2 3 -1.224044e+01 1.212067e+01 -8.877944e+00 0 -1 0 -4.632055e-01 -6.309307e-02 -2.521847e-01 -8.472678e-01
122 2 1 -1.195568e+01 1.257535e+01 -8.625425e+00 0 -1 0 -2.034497e-01 -6.784518e-02 -2.374568e-01 -9.474278e-01
123 2 4 -1.186155e+01 1.309200e+01 -8.471481e+00 0 -1 0 1.753025e-01 -1.664924e-01 -2.079215e-01 -9.477964e-01
124 2 1 -1.188520e+01 1.348836e+01 -8.136317e+00 0 -1 0 4.434379e-01 -8.494705e-02 -3.094173e-01 -8.369037e-01
125 2 4 -1.193883e+01 1.372799e+01 -7.620083e+00 0 -1 0 5.293984e-01 5.133314e-02 -2.059110e-01 -8.214030e-01
126 2 2 -1.231318e+01 1.377381e+01 -7.292617e+00 0 -1 0 7.781940e-01 2.371888e-02 -1.991268e-01 -5.951471e-01
127 2 4 -1.270762e+01 1.365611e+01 -6.887111e+00 0 -1 0 9.050662e-01 6.742771e-02 -1.662066e-01 -3.855956e-01
128 2 4 -1.305308e+01 1.334724e+01 -6.544110e+00 0 -1 0 9.823552e-01 3.624449e-02 -1.690911e-01 -7.122405e-02
129 2 1 -1.315661e+01 1.301499e+01 -6.196513e+00 0 -1 0 9.697095e-01 4.699955e-02 -1.175653e-01 2.088850e-01
130 2 2 -1.303135e+01 1.271256e+01 -5.747258e+00 0 -1 0 8.396887e-01 -8.446766e-03 -1.704178e-01 5.155671e-01
131 2 3 -1.285723e+01 1.265329e+01 -5.281563e+00 0 -1 0 6.557006e-01 1.064041e-02 -9.201409e-02 7.493176e-01
132 2 4 -1.264973e+01 1.269672e+01 -4.793159e+00 0 -1 0 -4.362708e-01 7.479759e-02 1.051994e-01 -8.905090e-01
133 2 4 -1.260714e+01 1.286087e+01 -4.298991e+00 0 -1 0 -1.870620e-01 1.034350e-01 -5.237878e-02 -9.754822e-01
134 2 3 -1.260130e+01 1.321739e+01 -3.839674e+00 0 -1 0 1.228118e-01 9.926148e-02 1.903708e-02 -9.872700e-01
135 2 4 -1.286370e+01 1.348417e+01 -3.492082e+00 0 -1 0 -4.692932e-01 -9.767066e-02 4.995966e-02 8.762011e-01
136 2 3 -1.316201e+01 1.339096e+01 -3.010930e+00 0 -1 0 -6.540518e-01 -1.871024e-01 -1.071080e-01 7.250771e-01
137 2 1 -1.355396e+01 1.318681e+01 -2.672468e+00 0 -1 0 8.829727e-01 1.738710e-01 2.051618e-02 -4.355540e-01
138 2 3 -1.372734e+01 1.283077e+01 -2.343678e+00 0 -1 0 9.761682e-01 1.534762e-01 1.191015e-02 -1.529670e-01
139 2 2 -1.368675e+01 1.235545e+01 -1.959730e+00 0 -1 0 9.661502e-01 2.531959e-01 2.398624e-02 4.324681e-02
140 2 3 -1.349023e+01 1.191836e+01 -1.640833e+00 0 -1 0 8.934062e-01 2.230082e-01 3.756707e-02 3.881770e-01
141 2 1 -1.316828e+01 1.163927e+01 -1.381054e+00 0 -1 0 7.196072e-01 3.121478e-01 3.623642e-02 6.192060e-01
142 2 2 -1.279303e+01 1.154500e+01 -9.936671e-01 0 -1 0 4.849262e-01 1.754747e-01 -1.194653e-01 8.484004e-01
143 2 4 -1.260726e+01 1.161500e+01 -4.260318e-01 0 -1 0 -2.807384e-01 -3.070460e-02 9.024349e-02 -9.550389e-01
144 2 4 -1.246890e+01 1.184896e+01 1.256798e-01 0 -1 0 -9.448161e-03 -4.427503e-02 -1.219329e-01 9.915053e-01
145 2 1 -1.248005e+01 1.193894e+01 5.985296e-01 0 -1 0 -1.950709e-01 -8.244341e-02 1.393208e-02 9.772187e-01
146 2 1 -1.284772e+01 1.215987e+01 1.095705e+00 0 -1 0 -4.351926e-01 -1.229473e-01 -5.734808e-02 8.900576e-01
147 2 1 -1.323004e+01 1.214539e+01 1.452568e+00 0 -1 0 -7.498228e-01 -1.735389e-01 1.348416e-03 6.384734e-01
148 2 2 -1.360331e+01 1.195599e+01 1.827275e+00 0 -1 0 -8.549823e-01 -2.537296e-01 9.566153e-02 4.421259e-01
149 2 4 -1.401047e+01 1.160919e+01 1.898776e+00 0 -1 0 8.833073e-01 3.173661e-01 -2.416096e-01 -2.463164e-01
150 2 1 -1.426154e+01 1.109036e+01 2.193083e+00 0 -1 0 9.660322e-01 1.940497e-01 -1.593545e-01 6.109534e-02
151 2 1 -1.409643e+01 1.064414e+01 2.497671e+00 0 -1 0 8.732556e-01 9.233296e-02 -1.874309e-01 4.401919e-01
152 2 1 -1.396561e+01 1.042048e+01 2.971364e+00 0 -1 0 7.217006e-01 4.457783e-02 -1.525157e-01 6.737211e-01
153 2 4 -1.391313e+01 1.039151e+01 3.519591e+00 0 -1 0 5.297013e-01 -7.102623e-02 -1.917904e-02 8.449875e-01
154 2 1 -1.383662e+01 1.058852e+01 3.925449e+00 0 -1 0 2.460330e-01 -1.162576e-01 1.294717e-02 9.621768e-01
155 2 2 -1.380688e+01 1.093529e+01 4.304785e+00 0 -1 0 -5.603700e-02 -2.693444e-02 1.518249e-01 9.864500e-01
156 2 4 -1.399143e+01 1.122395e+01 4.807192e+00 0 -1 0 -3.097349e-01 -2.021930e-01 5.456261e-02 9.274725e-01
157 2 3 -1.435800e+01 1.149187e+01 5.011900e+00 0 -1 0 -5.052116e-01 -1.800700e-01 2.777230e-01 7.969981e-01
158 2 2 -1.481679e+01 1.158663e+01 5.033009e+00 0 -1 0 -7.364345e-01 -1.094202e-01 4.407131e-01 5.014613e-01
159 2 1 -1.528066e+01 1.155169e+01 5.194237e+00 0 -1 0 -8.622518e-01 -9.902315e-02 3.584332e-01 3.438633e-01
160 2 3 -1.563609e+01 1.120442e+01 5.615488e+00 0 -1 0 9.327572e-01 1.582842e-03 -3.592961e-01 -2.945829e-02
161 2 1 -1.578860e+01 1.086307e+01 5.962632e+00 0 -1 0 8.702511e-01 -8.606239e-02 -3.533394e-01 3.322764e-01
162 2 1 -1.601983e+01 1.073814e+01 6.517422e+00 0 -1 0 7.934862e-01 -2.396136e-01 -2.095553e-01 5.187018e-01
163 2 4 -1.598925e+01 1.077424e+01 7.037985e+00 0 -1 0 5.796637e-01 -2.526237e-01 -1.277160e-01 7.641072e-01
164 2 4 -1.605186e+01 1.100909e+01 7.543904e+00 0 -1 0 3.162740e-01 -3.882723e-01 -1.195590e-01 8.572753e-01
165 2 3 -1.607092e+01 1.137116e+01 7.867194e+00 0 -1 0 1.909447e-01 -3.351005e-01 8.573060e-02 9.186392e-01
166 2 3 -1.628242e+01 1.176639e+01 8.139868e+00 0 -1 0 -1.048552e-01 -3.267307e-01 2.291523e-01 9.109015e-01
167 2 4 -1.663866e+01 1.208786e+01 8.271633e+00 0 -1 0 -3.359629e-01 -3.331787e-01 3.763611e-01 7.965383e-01
168 2 2 -1.709303e+01 1.229904e+01 8.465363e+00 0 -1 0 -4.762153e-01 -3.940468e-01 4.232231e-01 6.624412e-01
169 2 2 -1.765264e+01 1.232357e+01 8.433290e+00 0 -1 0 -7.510739e-01 -2.172931e-01 4.685078e-01 4.113054e-01
170 2 1 -1.813322e+01 1.217066e+01 8.662867e+00 0 -1 0 -8.998607e-01 -1.575681e-01 3.564756e-01 1.958268e-01
171 2 1 -1.844702e+01 1.180702e+01 8.913769e+00 0 -1 0 9.279554e-01 1.151588e-01 -3.408211e-01 9.735571e-02
172 2 4 -1.864796e+01 1.142778e+01 9.306383e+00 0 -1 0 8.525439e-01 -3.717406e-02 -3.051291e-01 4.227094e-01
173 2 4 -1.864629e+01 1.115117e+01 9.772793e+00 0 -1 0 6.887924e-01 -8.918882e-02 -2.494230e-01 6.748322e-01
174 2 1 -1.858847e+01 1.112284e+01 1.029486e+01 0 -1 0 4.163626e-01 -1.674443e-01 -1.163317e-01 8.860426e-01
175 2 1 -1.880823e+01 1.131436e+01 1.082566e+01 0 -1 0 2.417951e-01 -2.489839e-01 2.574781e-02 9.374856e-01
176 2 2 -1.897608e+01 1.170435e+01 1.115290e+01 0 -1 0 -2.080570e-01 -1.864314e-01 8.343092e-02 9.565537e-01
177 2 2 -1.926192e+01 1.178435e+01 1.160285e+01 0 -1 0 -2.595807e-01 -2.995388e-01 2.110780e-01 8.934990e-01
178 2 1 -1.970761e+01 1.198161e+01 1.181795e+01 0 -1 0 -4.229870e-01 -3.358585e-01 3.131155e-01 7.811784e-01
179 2 4 1.975663e+01 1.212971e+01 1.183438e+01 -1 -1 0 -5.103810e-01 -4.099633e-01 4.598369e-01 5.999928e-01
180 2 1 1.922779e+01 1.205232e+01 1.176507e+01 -1 -1 0 -7.647003e-01 -2.448727e-01 4.749763e-01 3.600950e-01
181 2 4 1.865541e+01 1.182968e+01 1.174615e+01 -1 -1 0 8.494890e-01 7.879238e-02 -5.043981e-01 -1.332020e-01
182 2 2 1.841820e+01 1.144070e+01 1.194297e+01 -1 -1 0 8.231750e-01 -5.542808e-02 -5.469741e-01 1.418801e-01
183 2 3 1.811368e+01 1.119820e+01 1.230114e+01 -1 -1 0 7.630940e-01 -1.913068e-01 -4.300270e-01 4.429064e-01
184 2 4 1.813511e+01 1.088219e+01 1.289639e+01 -1 -1 0 -6.195768e-01 2.192072e-01 5.077001e-01 -5.570578e-01
185 2 3 1.776157e+01 1.091398e+01 1.331376e+01 -1 -1 0 3.908773e-01 -3.791246e-01 -2.876658e-01 7.878628e-01
186 2 1 1.738919e+01 1.101813e+01 1.365448e+01 -1 -1 0 -1.916375e-01 5.122647e-01 1.350229e-01 -8.262135e-01
187 2 1 1.697727e+01 1.129754e+01 1.393249e+01 -1 -1 0 -5.556697e-02 5.990828e-01 -3.175268e-02 -7.981252e-01
188 2 2 1.661677e+01 1.160992e+01 1.390332e+01 -1 -1 0 -2.868149e-01 -5.040448e-01 3.169421e-01 7.504823e-01
189 2 4 1.714800e+01 1.230524e+01 1.455473e+01 -1 -1 0 1.845481e-01 8.724822e-01 -4.171962e-01 -1.751121e-01
190 2 4 1.594207e+01 1.268615e+01 1.547578e+01 -1 -1 0 -1.871657e-01 7.479107e-01 5.861647e-01 2.490171e-01
191 2 1 1.588246e+01 1.306061e+01 1.508689e+01 -1 -1 0 2.648867e-01 -8.757773e-01 -3.121348e-01 -2.557752e-01
192 2 4 1.480980e+01 1.306894e+01 1.499465e+01 -1 -1 0 4.209254e-01 -4.978506e-01 -7.579585e-01 2.157831e-02
193 2 4 1.457505e+01 1.404441e+01 1.430708e+01 -1 -1 0 1.229568e-01 -2.804927e-01 -2.235754e-01 9.253213e-01
194 2 1 1.414629e+01 1.411391e+01 1.467578e+01 -1 -1 0 -1.485260e-01 -4.544126e-01 -2.284610e-01 8.480889e-01
195 2 3 1.360127e+01 1.420025e+01 1.470373e+01 -1 -1 0 4.228071e-01 5.389393e-01 -7.027640e-02 -7.251481e-01
196 2 4 1.415284e+01 1.500253e+01 1.495973e+01 -1 -1 0 2.275208e-01 -9.387745e-01 1.878330e-01 -1.779201e-01
197 2 2 1.413073e+01 1.605008e+01 1.462768e+01 -1 -1 0 3.519930e-01 6.169624e-01 1.299198e-01 6.917941e-01
198 2 4 1.443944e+01 1.598887e+01 1.460973e+01 -1 -1 0 -9.144219e-01 2.549995e-01 -3.125552e-01 3.342298e-02
199 2 3 1.344289e+01 1.675189e+01 1.409922e+01 -1 -1 0 -8.702747e-02 5.899211e-01 4.947408e-01 -6.321795e-01
200 2 4 1.427058e+01 1.648757e+01 1.309326e+01 -1 -1 0 -1.246763e-03 9.148010e-01 -1.706250e-01 -3.660938e-01
