ITEM: TIMESTEP
55000000
ITEM: NUMBER OF ATOMS
200
ITEM: BOX BOUNDS pp pp pp
-2.0000000000000000e+01 2.0000000000000000e+01
-2.0000000000000000e+01 2.0000000000000000e+01
-2.0000000000000000e+01 2.0000000000000000e+01
ITEM: ATOMS id mol type x y z ix iy iz c_quat[1] c_quat[2] c_quat[3] c_quat[4]
1 1 1 1.784496e+01 4.067361e+00 1.442942e+01 -1 -1 0 -1.362101e-01 -2.187589e-01 -5.001681e-01 -8.266942e-01
2 1 2 1.768571e+01 3.891799e+00 1.401848e+01 -1 -1 0 -3.450431e-02 7.861914e-01 5.707448e-01 2.344415e-01
3 1 1 1.757352e+01 4.187150e+00 1.370037e+01 -1 -1 0 2.253221e-01 -9.261114e-01 -2.682871e-01 -1.398918e-01
4 1 3 1.749863e+01 4.667768e+00 1.349824e+01 -1 -1 0 -6.690462e-02 9.836495e-01 -1.647039e-01 2.881210e-02
5 1 1 1.657181e+01 5.509764e+00 1.335883e+01 -1 -1 0 -9.667489e-02 9.142994e-01 3.475443e-01 -1.841837e-01
6 1 2 1.644199e+01 4.705661e+00 1.269390e+01 -1 -1 0 -8.876362e-01 1.804489e-01 -3.637736e-01 2.172762e-01
7 1 4 1.509738e+01 5.240443e+00 1.281043e+01 -1 -1 0 -3.667894e-01 4.509754e-01 6.693796e-01 4.626205e-01
8 1 1 1.519004e+01 5.672016e+00 1.267909e+01 -1 -1 0 7.710064e-01 -8.652971e-02 1.452416e-01 6.139761e-01
9 1 1 1.413259e+01 5.277690e+00 1.309937e+01 -1 -1 0 -5.109503e-01 -4.812760e-01 -4.642154e-02 7.107378e-01
10 1 4 1.448075e+01 6.287669e+00 1.421259e+01 -1 -1 0 1.917211e-01 -8.231006e-01 -4.975970e-01 -1.953091e-01
11 1 1 1.439684e+01 6.744594e+00 1.394627e+01 -1 -1 0 -2.670419e-01 9.289120e-01 1.941513e-01 1.676793e-01
12 1 1 1.447980e+01 7.215313e+00 1.372544e+01 -1 -1 0 3.420862e-01 -9.231123e-01 1.444726e-01 -9.984154e-02
13 1 3 1.298451e+01 7.081133e+00 1.371768e+01 -1 -1 0 -7.851926e-02 -5.549925e-01 -8.281174e-01 6.290267e-03
14 1 4 1.276410e+01 7.001389e+00 1.322545e+01 -1 -1 0 4.496347e-02 8.734366e-01 4.809662e-01 6.130477e-02
15 1 4 1.270251e+01 7.199729e+00 1.277575e+01 -1 -1 0 -5.098140e-02 -9.886743e-01 -5.939976e-02 -1.280460e-01
16 1 2 1.292180e+01 7.912596e+00 1.250907e+01 -1 -1 0 -3.565666e-01 8.454831e-01 2.496395e-01 -3.093520e-01
17 1 1 1.300309e+01 7.816396e+00 1.155571e+01 -1 -1 0 8.404907e-01 -3.342629e-01 2.343927e-01 3.562356e-01
18 1 2 1.256632e+01 7.634142e+00 1.050929e+01 -1 -1 0 2.350106e-01 -4.696271e-01 7.166175e-01 4.589987e-01
19 1 3 1.264447e+01 8.237845e+00 1.014024e+01 -1 -1 0 -1.349098e-01 -9.244986e-01 -3.471034e-01 -8.136937e-02
20 1 1 1.269017e+01 8.399633e+00 9.654424e+00 -1 -1 0 1.000668e-01 9.888574e-01 3.095032e-03 1.101735e-01
21 1 4 1.285903e+01 8.520080e+00 9.140844e+00 -1 -1 0 4.903696e-02 9.000001e-01 -4.053047e-01 1.527198e-01
22 1 1 1.288546e+01 9.149854e+00 8.805250e+00 -1 -1 0 -6.122512e-02 -6.767200e-01 -2.806507e-01 -6.778914e-01
23 1 4 1.380588e+01 8.783502e+00 9.296111e+00 -1 -1 0 -4.675445e-01 7.312778e-01 8.877213e-02 4.886250e-01
24 1 3 1.456994e+01 9.063232e+00 8.611590e+00 -1 -1 0 3.710532e-01 6.569716e-01 4.585315e-01 4.695281e-01
25 1 3 1.493919e+01 9.254409e+00 8.324526e+00 -1 -1 0 1.241620e-01 7.718298e-01 3.348192e-01 5.260786e-01
26 1 4 1.522937e+01 9.574416e+00 8.163383e+00 -1 -1 0 -1.268642e-01 8.448104e-01 -1.972341e-01 4.809361e-01
27 1 4 1.570874e+01 9.815794e+00 8.156403e+00 -1 -1 0 -3.232894e-01 6.974055e-01 -4.851699e-01 4.167969e-01
28 1 1 1.624373e+01 9.828568e+00 8.298785e+00 -1 -1 0 -3.869544e-01 4.955503e-01 -7.256331e-01 2.795582e-01
29 1 1 1.671127e+01 9.654360e+00 8.295749e+00 -1 -1 0 -4.472642e-01 2.403612e-01 -8.397513e-01 1.923510e-01
30 1 4 1.713331e+01 9.335325e+00 8.033895e+00 -1 -1 0 4.126474e-01 6.929787e-02 9.081828e-01 -1.113094e-02
31 1 4 1.734116e+01 8.995250e+00 7.622564e+00 -1 -1 0 3.317903e-01 3.198548e-01 8.814430e-01 1.032780e-01
32 1 3 1.752032e+01 8.900287e+00 7.097472e+00 -1 -1 0 2.592711e-01 5.613256e-01 7.314908e-01 2.874252e-01
33 1 3 1.770814e+01 9.009471e+00 6.602002e+00 -1 -1 0 9.462633e-02 6.758910e-01 6.432667e-01 3.470234e-01
34 1 1 1.772918e+01 9.306396e+00 6.196307e+00 -1 -1 0 8.290707e-03 8.821806e-01 2.702948e-01 3.855247e-01
35 1 2 1.793186e+01 9.677103e+00 5.929002e+00 -1 -1 0 -7.954128e-02 9.136463e-01 -2.053229e-02 3.981231e-01
36 1 2 1.838731e+01 9.948100e+00 5.726402e+00 -1 -1 0 -1.857131e-01 8.241462e-01 -1.336448e-01 5.181050e-01
37 1 1 1.875698e+01 1.029113e+01 5.750384e+00 -1 -1 0 -3.656196e-01 7.509235e-01 -3.999151e-01 3.774971e-01
38 1 1 1.927512e+01 1.049658e+01 5.864511e+00 -1 -1 0 -4.836967e-01 5.976890e-01 -5.699188e-01 2.898239e-01
39 1 4 1.980469e+01 1.050123e+01 5.982450e+00 -1 -1 0 5.281553e-01 -3.991533e-01 7.337305e-01 -1.528663e-01
40 1 4 -1.966895e+01 1.034231e+01 5.780807e+00 0 -1 0 4.499973e-01 -2.214041e-01 8.625906e-01 6.648365e-02
41 1 2 -1.933429e+01 1.014748e+01 5.506605e+00 0 -1 0 4.306509e-01 1.961569e-01 8.761382e-01 9.189254e-02
42 1 4 -1.920756e+01 9.836250e+00 5.094170e+00 0 -1 0 3.092850e-01 5.435246e-01 7.749245e-01 9.173788e-02
43 1 3 -1.910824e+01 9.645638e+00 4.687236e+00 0 -1 0 1.997014e-01 6.632400e-01 7.080713e-01 1.373574e-01
44 1 2 -1.907616e+01 9.679337e+00 4.152502e+00 0 -1 0 3.103062e-02 8.255773e-01 5.208947e-01 2.147740e-01
45 1 1 -1.901728e+01 1.003062e+01 3.643711e+00 0 -1 0 -8.588161e-02 9.273788e-01 2.167736e-01 2.925784e-01
46 1 3 -1.879091e+01 1.040650e+01 3.327100e+00 0 -1 0 -2.315083e-01 9.224838e-01 -4.118593e-03 3.088860e-01
47 1 4 -1.846403e+01 1.079895e+01 3.065150e+00 0 -1 0 -2.534460e-01 8.556546e-01 -2.740603e-01 3.584847e-01
48 1 1 -1.798611e+01 1.106165e+01 3.099051e+00 0 -1 0 3.817756e-01 -7.024498e-01 5.363314e-01 -2.704816e-01
49 1 4 -1.743550e+01 1.116480e+01 3.043559e+00 0 -1 0 4.621517e-01 -4.549700e-01 7.179386e-01 -2.529472e-01
50 1 4 -1.691238e+01 1.100266e+01 2.921383e+00 0 -1 0 4.427433e-01 -2.148035e-01 8.622952e-01 -1.195190e-01
51 1 4 -1.652094e+01 1.069067e+01 2.515303e+00 0 -1 0 3.388306e-01 3.077364e-02 9.400904e-01 2.183603e-02
52 1 1 -1.634891e+01 1.041272e+01 2.102711e+00 0 -1 0 3.399400e-01 3.701010e-01 8.445444e-01 1.849616e-01
53 1 3 -1.608587e+01 1.045349e+01 1.516196e+00 0 -1 0 -1.904972e-01 -4.721377e-01 -8.392663e-01 -1.908636e-01
54 1 4 -1.611044e+01 1.043253e+01 1.029729e+00 0 -1 0 1.586912e-02 7.090491e-01 6.701445e-01 2.188695e-01
55 1 4 -1.625991e+01 1.060277e+01 6.401773e-01 0 -1 0 -5.191559e-02 9.237076e-01 3.484797e-01 1.504360e-01
56 1 4 -1.630898e+01 1.097717e+01 1.954491e-01 0 -1 0 -1.989584e-01 9.473727e-01 1.476803e-01 2.027091e-01
57 1 1 -1.608903e+01 1.144557e+01 -1.017619e-01 0 -1 0 -2.111030e-01 9.222059e-01 -2.282696e-01 2.299232e-01
58 1 1 -1.558867e+01 1.179353e+01 -2.746892e-01 0 -1 0 -2.004244e-01 8.175478e-01 -5.072488e-01 1.847816e-01
59 1 3 -1.512042e+01 1.186880e+01 -5.069739e-01 0 -1 0 2.878899e-01 -5.580017e-01 7.643343e-01 -1.467876e-01
60 1 4 -1.461191e+01 1.172222e+01 -6.786985e-01 0 -1 0 3.699622e-01 -3.384940e-01 8.581534e-01 -1.101020e-01
61 1 2 -1.418396e+01 1.153746e+01 -9.721724e-01 0 -1 0 3.103083e-01 -8.460257e-02 9.368766e-01 -1.371617e-01
62 1 3 -1.408381e+01 1.108149e+01 -1.215749e+00 0 -1 0 3.666636e-01 2.692828e-01 8.881119e-01 -6.558807e-02
63 1 2 -1.403396e+01 1.077454e+01 -1.621029e+00 0 -1 0 3.315874e-01 5.282564e-01 7.796988e-01 5.536089e-02
64 1 4 -1.397249e+01 1.069880e+01 -2.118570e+00 0 -1 0 2.620101e-01 7.473564e-01 5.819525e-01 1.847712e-01
65 1 2 -1.387731e+01 1.077987e+01 -2.606619e+00 0 -1 0 2.084470e-01 8.541860e-01 3.326392e-01 3.409800e-01
66 1 1 -1.375154e+01 1.100550e+01 -3.044016e+00 0 -1 0 9.861904e-03 9.391224e-01 1.136611e-01 3.240879e-01
67 1 2 -1.347318e+01 1.137450e+01 -3.342338e+00 0 -1 0 -1.986796e-01 8.927107e-01 -1.447056e-01 3.776962e-01
68 1 1 -1.293564e+01 1.163443e+01 -3.437441e+00 0 -1 0 -2.804930e-01 7.696714e-01 -4.135946e-01 3.973275e-01
69 1 1 -1.244156e+01 1.183002e+01 -3.428974e+00 0 -1 0 -4.145439e-01 7.056486e-01 -4.434660e-01 3.654467e-01
70 1 2 -1.193666e+01 1.187586e+01 -3.355239e+00 0 -1 0 5.339260e-01 -4.598685e-01 6.478644e-01 -2.893368e-01
71 1 3 -1.135512e+01 1.163443e+01 -3.468208e+00 0 -1 0 4.925645e-01 -2.752643e-01 7.884035e-01 -2.450096e-01
72 1 4 -1.096850e+01 1.131080e+01 -3.573668e+00 0 -1 0 5.834521e-01 7.920992e-02 8.069912e-01 -4.554854e-02
73 1 1 -1.054829e+01 1.106437e+01 -3.832740e+00 0 -1 0 4.238769e-01 3.091154e-01 8.496450e-01 5.365985e-02
74 1 1 -1.039497e+01 1.087239e+01 -4.336644e+00 0 -1 0 3.055236e-01 5.218279e-01 7.885678e-01 1.118564e-01
75 1 3 -1.026074e+01 1.080142e+01 -4.973808e+00 0 -1 0 1.737204e-01 7.005875e-01 6.015093e-01 3.423228e-01
76 1 1 -1.023418e+01 1.099080e+01 -5.427263e+00 0 -1 0 5.378627e-02 8.507773e-01 3.723701e-01 3.669134e-01
77 1 4 -1.024482e+01 1.145822e+01 -5.751063e+00 0 -1 0 -9.940272e-02 9.359829e-01 2.579373e-01 2.179986e-01
78 1 1 -1.007586e+01 1.190341e+01 -6.047302e+00 0 -1 0 -2.663323e-01 9.237077e-01 -6.005572e-02 2.687463e-01
79 1 4 -9.680475e+00 1.224488e+01 -6.271155e+00 0 -1 0 -2.640180e-01 8.650684e-01 -2.618249e-01 3.367476e-01
80 1 2 -9.224246e+00 1.249819e+01 -6.245683e+00 0 -1 0 3.103971e-01 -7.327594e-01 5.993987e-01 -8.624734e-02
81 1 4 -8.706578e+00 1.263798e+01 -6.351457e+00 0 -1 0 -3.199030e-01 4.777241e-01 -8.178052e-01 -2.522778e-02
82 1 4 -8.417962e+00 1.241517e+01 -6.712864e+00 0 -1 0 -3.127929e-01 1.767855e-02 -9.479472e-01 -5.695773e-02
83 1 4 -8.279358e+00 1.223924e+01 -7.192079e+00 0 -1 0 -1.620400e-01 -3.709549e-01 -8.854957e-01 -2.281070e-01
84 1 4 -7.859331e+00 1.212745e+01 -7.710718e+00 0 -1 0 8.083668e-01 -3.245157e-01 4.223645e-01 2.506808e-01
85 1 1 -7.479166e+00 1.262115e+01 -7.572803e+00 0 -1 0 6.974102e-01 -4.163112e-01 5.540724e-01 1.825040e-01
86 1 1 -8.410208e+00 1.333895e+01 -8.074114e+00 0 -1 0 3.543514e-01 1.750605e-01 -4.768813e-01 -7.850944e-01
87 1 3 -8.694781e+00 1.345379e+01 -7.997125e+00 0 -1 0 -2.706973e-01 6.826637e-01 6.686796e-01 1.164511e-01
88 1 2 -7.757622e+00 1.352245e+01 -8.780749e+00 0 -1 0 -4.326704e-01 -7.525483e-01 4.964524e-01 -1.545813e-03
89 1 2 -7.274565e+00 1.390758e+01 -8.764810e+00 0 -1 0 -1.435943e-01 -7.457214e-01 3.782738e-01 -5.293290e-01
90 1 3 -6.766908e+00 1.377575e+01 -8.827401e+00 0 -1 0 1.387096e-01 -4.967889e-01 7.294860e-01 -4.492333e-01
91 1 3 -6.589822e+00 1.388636e+01 -9.237252e+00 0 -1 0 2.031114e-02 -2.208436e-01 -8.334451e-02 9.715293e-01
92 1 2 -5.277330e+00 1.398964e+01 -9.463546e+00 0 -1 0 4.889573e-01 -8.015409e-01 -2.913654e-02 3.429344e-01
93 1 1 -5.141892e+00 1.292981e+01 -9.058304e+00 0 -1 0 1.622293e-01 6.347209e-01 -7.150718e-01 -2.438921e-01
94 1 2 -4.625407e+00 1.240970e+01 -8.370442e+00 0 -1 0 9.599614e-01 -2.186575e-01 -1.725957e-01 2.955733e-02
95 1 3 -4.591112e+00 1.240570e+01 -7.884187e+00 0 -1 0 -8.959703e-01 2.123973e-01 1.135924e-02 -3.898662e-01
96 1 2 -4.875242e+00 1.143611e+01 -7.227333e+00 0 -1 0 -6.409690e-01 -3.597289e-01 6.680729e-01 -1.158985e-01
97 1 2 -4.940165e+00 1.097247e+01 -7.177157e+00 0 -1 0 -4.762175e-01 -1.100937e-01 7.754866e-01 -3.996458e-01
98 1 4 -5.465686e+00 1.068219e+01 -6.978146e+00 0 -1 0 -3.043271e-01 3.836038e-01 7.382893e-01 -4.638557e-01
99 1 2 -5.135344e+00 9.623357e+00 -6.610149e+00 0 -1 0 9.662313e-01 -1.745554e-01 -1.882206e-01 2.237266e-02
100 1 1 -6.331772e+00 9.772090e+00 -6.799556e+00 0 -1 0 -4.760339e-01 -6.305604e-01 -3.722950e-01 4.870131e-01
101 2 4 -1.104268e+01 1.605596e+01 -1.136969e+01 0 -1 0 -8.288857e-01 1.480175e-01 4.965131e-01 -2.109835e-01
102 2 3 -1.044733e+01 1.532050e+01 -1.180213e+01 0 -1 0 8.142961e-01 4.546254e-01 -3.172352e-01 1.720449e-01
103 2 1 -1.141254e+01 1.530001e+01 -1.178425e+01 0 -1 0 3.357179e-01 7.869799e-01 4.344454e-01 -2.814485e-01
104 2 3 -1.164904e+01 1.475483e+01 -1.106942e+01 0 -1 0 8.797767e-02 -2.232550e-01 -3.023727e-01 9.224900e-01
105 2 3 -1.154233e+01 1.371594e+01 -1.083749e+01 0 -1 0 1.663749e-01 6.394086e-01 -7.158937e-01 -2.257703e-01
106 2 2 -1.234522e+01 1.359484e+01 -9.821820e+00 0 -1 0 1.183647e-01 -2.009420e-01 8.927819e-01 -3.854253e-01
107 2 3 -1.274877e+01 1.447571e+01 -9.273029e+00 0 -1 0 6.130774e-02 -7.241144e-01 -2.386105e-01 -6.441775e-01
108 2 4 -1.207482e+01 1.379508e+01 -8.883668e+00 0 -1 0 -7.465213e-01 4.706344e-01 -1.119535e-01 -4.568103e-01
109 2 3 -1.297536e+01 1.353951e+01 -8.294951e+00 0 -1 0 2.815943e-01 3.294674e-01 7.885610e-01 -4.362653e-01
110 2 2 -1.214618e+01 1.421016e+01 -7.650335e+00 0 -1 0 -3.594921e-01 6.002911e-01 1.187494e-02 -7.143354e-01
111 2 2 -1.164936e+01 1.360600e+01 -7.931381e+00 0 -1 0 -3.726184e-01 5.209741e-02 -7.415591e-01 -5.554560e-01
112 2 3 -1.207883e+01 1.283731e+01 -7.525885e+00 0 -1 0 -2.686406e-01 -3.644828e-01 -8.644040e-01 2.186099e-01
113 2 3 -1.219835e+01 1.252833e+01 -8.008557e+00 0 -1 0 -4.060646e-01 -7.196254e-01 -5.607899e-01 -5.258905e-02
114 2 2 -1.221132e+01 1.152533e+01 -8.056250e+00 0 -1 0 8.443207e-02 8.420235e-02 -5.839430e-01 -8.029893e-01
115 2 4 -1.109111e+01 1.139867e+01 -7.049259e+00 0 -1 0 -9.275982e-01 9.151690e-02 3.515857e-02 -3.604859e-01
116 2 4 -1.140854e+01 1.115733e+01 -7.102907e+00 0 -1 0 -2.564851e-01 7.171512e-01 5.938509e-01 -2.593273e-01
117 2 1 -1.057189e+01 1.122541e+01 -7.333232e+00 0 -1 0 -6.527062e-03 8.009152e-01 -4.124169e-02 5.973201e-01
118 2 1 -1.010884e+01 1.058667e+01 -7.895407e+00 0 -1 0 5.854726e-01 -3.557475e-01 5.658353e-01 -4.587983e-01
119 2 1 -9.782866e+00 1.034331e+01 -7.703503e+00 0 -1 0 -6.973355e-01 5.430141e-02 -6.489538e-01 2.993886e-01
120 2 1 -9.021894e+00 1.155320e+01 -7.044960e+00 0 -1 0 -8.154459e-01 -4.214444e-02 3.054082e-01 -4.898956e-01
121 2 3 -8.870721e+00 1.142005e+01 -6.510425e+00 0 -1 0 -5.701765e-01 2.979708e-02 2.103505e-01 -7.935765e-01
122 2 1 -8.969693e+00 1.136394e+01 -5.912916e+00 0 -1 0 -4.039461e-01 1.915247e-01 1.673179e-01 -8.787210e-01
123 2 4 -9.069405e+00 1.153029e+01 -5.443951e+00 0 -1 0 -1.158718e-01 2.543730e-01 9.762904e-02 -9.551632e-01
124 2 1 -9.315387e+00 1.181422e+01 -5.118933e+00 0 -1 0 2.031189e-01 3.071093e-01 -6.793790e-02 -9.272599e-01
125 2 4 -9.710272e+00 1.184322e+01 -4.760006e+00 0 -1 0 3.294155e-01 3.950049e-01 -1.449714e-01 -8.452454e-01
126 2 2 -1.026480e+01 1.198506e+01 -4.804507e+00 0 -1 0 5.898896e-01 3.108283e-01 -2.657866e-01 -6.962568e-01
127 2 4 -1.077252e+01 1.195080e+01 -4.724102e+00 0 -1 0 7.771706e-01 2.596943e-01 -3.241537e-01 -4.727462e-01
128 2 4 -1.117174e+01 1.171654e+01 -4.691816e+00 0 -1 0 8.641663e-01 1.855894e-01 -4.378136e-01 -1.645978e-01
129 2 1 -1.145509e+01 1.127464e+01 -4.608574e+00 0 -1 0 8.442568e-01 7.319819e-02 -5.247477e-01 8.069920e-02
130 2 2 -1.177463e+01 1.091555e+01 -4.369310e+00 0 -1 0 7.878851e-01 -9.759722e-02 -4.760260e-01 3.783003e-01
131 2 3 -1.202872e+01 1.074046e+01 -3.954123e+00 0 -1 0 6.963719e-01 -2.229765e-01 -4.225424e-01 5.355423e-01
132 2 4 -1.228878e+01 1.064055e+01 -3.505168e+00 0 -1 0 -6.600888e-01 2.068847e-01 3.331730e-01 -6.406850e-01
133 2 4 -1.240918e+01 1.064405e+01 -2.974355e+00 0 -1 0 -3.111286e-01 3.140170e-01 2.173674e-01 -8.702550e-01
134 2 3 -1.271717e+01 1.083590e+01 -2.530898e+00 0 -1 0 -3.598251e-01 3.915251e-01 -4.284035e-02 -8.458124e-01
135 2 4 -1.283624e+01 1.127453e+01 -2.314818e+00 0 -1 0 2.067908e-03 -3.526021e-01 1.911032e-01 9.160497e-01
136 2 3 -1.312135e+01 1.160192e+01 -2.074059e+00 0 -1 0 -2.453420e-01 -3.614137e-01 2.907262e-01 8.512730e-01
137 2 1 -1.370063e+01 1.183985e+01 -2.110840e+00 0 -1 0 5.391828e-01 2.655217e-01 -3.488697e-01 -7.190758e-01
138 2 3 -1.425286e+01 1.176719e+01 -2.226931e+00 0 -1 0 7.586113e-01 1.151881e-01 -4.195139e-01 -4.850243e-01
139 2 2 -1.479932e+01 1.162045e+01 -2.002209e+00 0 -1 0 8.958032e-01 7.527950e-02 -3.715159e-01 -2.320464e-01
140 2 3 -1.512509e+01 1.131890e+01 -1.694404e+00 0 -1 0 9.395084e-01 -8.286397e-03 -3.153381e-01 1.334811e-01
141 2 1 -1.518825e+01 1.091343e+01 -1.316471e+00 0 -1 0 8.217388e-01 -1.249708e-02 -3.481308e-01 4.509924e-01
142 2 2 -1.515532e+01 1.069759e+01 -7.964883e-01 0 -1 0 7.166798e-01 -2.873241e-02 -1.922476e-01 6.697652e-01
143 2 4 -1.512143e+01 1.069249e+01 -2.032780e-01 0 -1 0 -4.886541e-01 1.708180e-01 1.165598e-01 -8.476156e-01
144 2 4 -1.508567e+01 1.087129e+01 2.165949e-01 0 -1 0 1.532283e-01 -1.238588e-01 1.232352e-02 9.803205e-01
145 2 1 -1.520494e+01 1.113841e+01 7.704831e-01 0 -1 0 -3.983499e-02 -2.690784e-01 -2.076567e-02 9.620700e-01
146 2 1 -1.559068e+01 1.147264e+01 1.080699e+00 0 -1 0 -4.261407e-01 -2.912881e-01 6.245059e-02 8.541986e-01
147 2 1 -1.607401e+01 1.157415e+01 1.293576e+00 0 -1 0 -6.270341e-01 -3.214213e-01 1.916708e-01 6.832122e-01
148 2 2 -1.658770e+01 1.149272e+01 1.540859e+00 0 -1 0 -7.604953e-01 -3.272899e-01 1.759670e-01 5.325072e-01
149 2 4 -1.703477e+01 1.118305e+01 1.568331e+00 0 -1 0 8.827894e-01 2.238368e-01 -3.225553e-01 -2.579498e-01
150 2 1 -1.743676e+01 1.090248e+01 1.880204e+00 0 -1 0 9.288426e-01 2.270056e-01 -2.796338e-01 -8.674615e-02
151 2 1 -1.753711e+01 1.042305e+01 2.109575e+00 0 -1 0 8.735950e-01 4.836000e-02 -4.043911e-01 2.663851e-01
152 2 1 -1.767069e+01 1.008347e+01 2.481355e+00 0 -1 0 7.763996e-01 -1.546174e-02 -3.506285e-01 5.234732e-01
153 2 4 -1.771277e+01 9.908654e+00 2.960098e+00 0 -1 0 6.499958e-01 -1.355585e-01 -2.844625e-01 6.915276e-01
154 2 1 -1.772168e+01 9.942705e+00 3.554169e+00 0 -1 0 3.380626e-01 -2.642936e-01 -1.678892e-01 8.875110e-01
155 2 2 -1.791841e+01 1.013539e+01 4.025692e+00 0 -1 0 2.180724e-01 -3.076167e-01 -7.484783e-03 9.261535e-01
156 2 4 -1.812129e+01 1.041901e+01 4.366995e+00 0 -1 0 -1.639931e-01 -3.185065e-01 4.376085e-02 9.326011e-01
157 2 3 -1.853948e+01 1.073274e+01 4.501941e+00 0 -1 0 -4.041441e-01 -3.076945e-01 2.881659e-01 8.117586e-01
158 2 2 -1.908312e+01 1.084330e+01 4.583732e+00 0 -1 0 -6.432436e-01 -2.731040e-01 3.316637e-01 6.337594e-01
159 2 1 -1.964791e+01 1.078314e+01 4.558187e+00 0 -1 0 -7.982857e-01 -2.561441e-01 3.984978e-01 3.719269e-01
160 2 3 -2.004767e+01 1.048824e+01 4.668369e+00 0 -1 0 8.954707e-01 1.088150e-01 -4.308614e-01 -2.549457e-02
161 2 1 1.972326e+01 1.000304e+01 4.849382e+00 -1 -1 0 8.472068e-01 1.692628e-01 -4.130340e-01 2.880862e-01
162 2 1 1.956823e+01 9.563385e+00 5.240231e+00 -1 -1 0 8.020918e-01 -2.973131e-02 -3.840524e-01 4.563645e-01
163 2 4 1.945066e+01 9.353768e+00 5.731618e+00 -1 -1 0 6.030009e-01 -2.936341e-01 -3.615517e-01 6.476490e-01
164 2 4 1.930297e+01 9.355814e+00 6.215219e+00 -1 -1 0 3.548675e-01 -3.862077e-01 -1.912551e-01 8.296590e-01
165 2 3 1.902580e+01 9.567462e+00 6.617953e+00 -1 -1 0 9.288639e-02 -4.151360e-01 -8.937178e-02 9.005814e-01
166 2 3 1.865094e+01 9.737995e+00 6.868813e+00 -1 -1 0 3.611148e-02 -4.643788e-01 1.431030e-01 8.732524e-01
167 2 4 1.829991e+01 1.011088e+01 6.937647e+00 -1 -1 0 -2.527263e-01 -4.380496e-01 2.616205e-01 8.220685e-01
168 2 2 1.766724e+01 1.012778e+01 7.059730e+00 -1 -1 0 -5.235151e-01 -4.891748e-01 2.112593e-01 6.648379e-01
169 2 2 1.720811e+01 1.004819e+01 6.970860e+00 -1 -1 0 -6.556332e-01 -4.683281e-01 4.189700e-01 4.186622e-01
170 2 1 1.667421e+01 9.761831e+00 6.987812e+00 -1 -1 0 -8.250168e-01 -2.876227e-01 4.394498e-01 2.085770e-01
171 2 1 1.634329e+01 9.342663e+00 7.163280e+00 -1 -1 0 9.029629e-01 1.379573e-01 -4.068599e-01 -9.535745e-03
172 2 4 1.609941e+01 9.062551e+00 7.453206e+00 -1 -1 0 8.839807e-01 4.244416e-02 -3.613142e-01 2.936470e-01
173 2 4 1.599788e+01 8.706788e+00 7.920813e+00 -1 -1 0 7.367331e-01 -1.992742e-01 -3.455333e-01 5.460045e-01
174 2 1 1.593359e+01 8.713982e+00 8.450126e+00 -1 -1 0 5.369692e-01 -2.656341e-01 -1.700055e-01 7.824326e-01
175 2 1 1.580809e+01 8.878523e+00 8.947164e+00 -1 -1 0 2.890802e-01 -3.950852e-01 -7.194234e-02 8.690021e-01
176 2 2 1.558536e+01 9.216535e+00 9.332171e+00 -1 -1 0 -6.615916e-02 -4.722009e-01 8.636796e-02 8.747513e-01
177 2 2 1.607031e+01 9.340730e+00 1.071413e+01 -1 -1 0 6.332877e-01 3.017934e-01 -5.424866e-01 4.621426e-01
178 2 1 1.672069e+01 9.814361e+00 9.957282e+00 -1 -1 0 -4.709332e-01 -7.630921e-01 4.282790e-01 1.117563e-01
179 2 4 1.681725e+01 1.103555e+01 1.032389e+01 -1 -1 0 -4.669981e-01 1.234283e-01 -2.262912e-01 -8.458549e-01
180 2 1 1.731586e+01 1.098416e+01 1.122215e+01 -1 -1 0 -8.576799e-01 1.709166e-01 4.645331e-01 -1.392180e-01
181 2 4 1.761003e+01 1.166081e+01 1.187894e+01 -1 -1 0 7.476900e-01 -4.190882e-01 -2.546611e-01 4.477416e-01
182 2 2 1.735985e+01 1.208497e+01 1.226074e+01 -1 -1 0 -5.713512e-01 4.866090e-01 -4.632307e-02 -6.592599e-01
183 2 3 1.727289e+01 1.249996e+01 1.246895e+01 -1 -1 0 -9.528504e-02 3.556200e-01 -2.472239e-01 -8.962898e-01
184 2 4 1.785636e+01 1.281717e+01 1.214619e+01 -1 -1 0 -5.935269e-01 -2.321636e-01 -6.190150e-01 -4.589622e-01
185 2 3 1.749844e+01 1.296709e+01 1.379123e+01 -1 -1 0 4.705769e-01 -6.929650e-01 -2.175339e-01 -5.010348e-01
186 2 1 1.832133e+01 1.267052e+01 1.364351e+01 -1 -1 0 9.225509e-01 3.114466e-01 -1.645591e-01 -1.575475e-01
187 2 1 1.761691e+01 1.372915e+01 1.415708e+01 -1 -1 0 2.322894e-01 7.157394e-01 5.656433e-01 -3.373520e-01
188 2 2 1.789344e+01 1.439726e+01 1.498012e+01 -1 -1 0 -3.009824e-01 5.169270e-01 7.372690e-01 -3.140550e-01
189 2 4 1.732877e+01 1.439985e+01 1.502575e+01 -1 -1 0 6.494660e-02 -7.495438e-01 -4.040253e-01 5.203169e-01
190 2 4 1.744294e+01 1.302218e+01 1.477891e+01 -1 -1 0 -7.343429e-01 4.687373e-01 -4.908427e-01 9.963587e-03
191 2 1 1.691109e+01 1.434567e+01 1.517665e+01 -1 -1 0 3.859849e-01 -7.539626e-01 -1.953301e-01 4.943705e-01
192 2 4 1.657733e+01 1.465784e+01 1.526660e+01 -1 -1 0 -3.831412e-01 7.584958e-01 -1.215084e-02 -5.270097e-01
193 2 4 1.580971e+01 1.493396e+01 1.601142e+01 -1 -1 0 -2.946284e-01 3.665530e-01 4.488175e-01 7.598657e-01
194 2 1 1.556749e+01 1.466777e+01 1.530782e+01 -1 -1 0 -4.810320e-01 -7.429373e-01 -3.795722e-01 2.694020e-01
195 2 3 1.532770e+01 1.468184e+01 1.560649e+01 -1 -1 0 7.859241e-01 -2.125278e-01 -5.454548e-01 1.990836e-01
196 2 4 1.476598e+01 1.537602e+01 1.511356e+01 -1 -1 0 3.725335e-01 -4.714860e-01 -7.976650e-01 -5.148108e-02
197 2 2 1.425403e+01 1.549795e+01 1.508119e+01 -1 -1 0 3.640854e-01 -7.862362e-01 -4.935978e-01 7.507192e-02
198 2 4 1.396798e+01 1.593818e+01 1.491614e+01 -1 -1 0 -2.889974e-01 9.424829e-01 2.818588e-02 -1.655659e-01
199 2 3 1.315238e+01 1.509026e+01 1.574091e+01 -1 -1 0 -6.370863e-01 4.017618e-01 1.457794e-02 6.576442e-01
200 2 4 1.314249e+01 1.464962e+01 1.590031e+01 -1 -1 0 6.814239e-01 -6.733421e-01 -1.863925e-01 -2.180131e-01
