ITEM: TIMESTEP
65000000
ITEM: NUMBER OF ATOMS
200
ITEM: BOX BOUNDS pp pp pp
-2.0000000000000000e+01 2.0000000000000000e+01
-2.0000000000000000e+01 2.0000000000000000e+01
-2.0000000000000000e+01 2.0000000000000000e+01
ITEM: ATOMS id mol type x y z ix iy iz c_quat[1] c_quat[2] c_quat[3] c_quat[4]
1 1 1 1.255805e+01 1.252436e+01 5.573563e+00 -1 -1 0 1.172109e-01 -6.732239e-02 -6.125300e-01 -7.788044e-01
2 1 2 1.291979e+01 1.320989e+01 5.909552e+00 -1 -1 0 4.580458e-01 -8.329466e-01 1.871087e-01 2.477586e-01
3 1 1 1.300271e+01 1.365631e+01 5.735156e+00 -1 -1 0 -4.504111e-01 5.823278e-01 -5.385691e-01 -4.098384e-01
4 1 3 1.333491e+01 1.399668e+01 5.474178e+00 -1 -1 0 4.092398e-01 -3.593726e-01 7.126222e-01 4.422033e-01
5 1 1 1.360987e+01 1.421746e+01 5.867228e+00 -1 -1 0 3.943131e-02 1.690280e-01 4.171270e-01 8.921209e-01
6 1 2 1.483594e+01 1.360050e+01 6.028748e+00 -1 -1 0 -6.290519e-01 4.560975e-01 -6.294841e-01 -4.300718e-03
7 1 4 1.410044e+01 1.310902e+01 5.973850e+00 -1 -1 0 2.680317e-01 3.334229e-01 8.031682e-01 -4.146191e-01
8 1 1 1.471665e+01 1.226568e+01 6.149811e+00 -1 -1 0 -6.402471e-01 8.436753e-02 5.613199e-01 5.175768e-01
9 1 1 1.459552e+01 1.221769e+01 6.991948e+00 -1 -1 0 5.058097e-01 -5.853166e-01 -4.668034e-01 -4.285506e-01
10 1 4 1.488184e+01 1.159808e+01 5.443049e+00 -1 -1 0 -3.813121e-01 2.956924e-01 -7.564345e-01 -4.415585e-01
11 1 1 1.496257e+01 1.069633e+01 5.395492e+00 -1 -1 0 -9.274030e-01 -5.117795e-02 -3.668321e-01 5.233382e-02
12 1 1 1.551050e+01 1.118561e+01 6.468267e+00 -1 -1 0 -3.639911e-01 6.592628e-01 -1.895847e-01 6.300323e-01
13 1 3 1.581753e+01 1.163867e+01 6.759497e+00 -1 -1 0 2.705587e-01 -6.319004e-01 -7.101994e-01 1.520416e-01
14 1 4 1.648646e+01 1.262997e+01 6.607225e+00 -1 -1 0 4.678539e-01 -3.330014e-01 -5.245301e-02 8.169893e-01
15 1 4 1.685708e+01 1.125301e+01 7.116302e+00 -1 -1 0 -8.877930e-01 3.223309e-01 8.245522e-02 3.180055e-01
16 1 2 1.682883e+01 1.113643e+01 7.694400e+00 -1 -1 0 9.620253e-01 -2.615228e-01 -7.127227e-02 3.214505e-02
17 1 1 1.693401e+01 1.135915e+01 8.350179e+00 -1 -1 0 9.001721e-01 -2.464440e-01 -3.698947e-02 3.571937e-01
18 1 2 1.717951e+01 1.147172e+01 8.785834e+00 -1 -1 0 6.937340e-01 -2.456526e-01 4.881644e-02 6.752814e-01
19 1 3 1.766913e+01 1.194629e+01 9.194502e+00 -1 -1 0 6.898906e-01 -6.235394e-01 -4.292278e-02 3.652496e-01
20 1 1 1.744984e+01 1.173344e+01 9.393290e+00 -1 -1 0 8.494932e-01 8.073814e-02 3.274270e-01 4.057515e-01
21 1 4 1.774307e+01 1.154320e+01 1.057954e+01 -1 -1 0 -8.622044e-01 4.710691e-01 -1.587736e-02 1.855949e-01
22 1 1 1.744483e+01 1.152761e+01 1.104700e+01 -1 -1 0 -2.140864e-01 9.188959e-01 1.370380e-01 3.016917e-01
23 1 4 1.742220e+01 1.052211e+01 1.007448e+01 -1 -1 0 4.323603e-01 3.758891e-02 7.513475e-01 4.971202e-01
24 1 3 1.774328e+01 1.078663e+01 9.829621e+00 -1 -1 0 1.844659e-01 3.032645e-01 5.681121e-01 7.424632e-01
25 1 3 1.843921e+01 1.015241e+01 1.043703e+01 -1 -1 0 5.603931e-01 2.991957e-01 -5.020594e-01 -5.868371e-01
26 1 4 1.892295e+01 9.722998e+00 1.088807e+01 -1 -1 0 -6.394163e-01 3.009142e-02 5.482740e-01 5.381793e-01
27 1 4 1.948048e+01 9.707229e+00 1.136916e+01 -1 -1 0 -3.984583e-02 1.585288e-02 7.697195e-01 -6.369402e-01
28 1 1 -1.959265e+01 1.037558e+01 1.155917e+01 0 -1 0 -1.161660e-01 -6.631876e-01 5.632600e-01 -4.789842e-01
29 1 1 1.934386e+01 1.136972e+01 1.137505e+01 -1 -1 0 1.707220e-01 -3.608885e-01 -1.565400e-01 -9.033873e-01
30 1 4 -1.994030e+01 1.167293e+01 1.182956e+01 0 -1 0 4.591952e-01 5.638375e-01 1.646852e-01 6.664127e-01
31 1 4 -1.965443e+01 1.171928e+01 1.174344e+01 0 -1 0 -5.749636e-01 7.117864e-01 4.033405e-01 9.665111e-03
32 1 3 -1.921889e+01 1.220268e+01 1.108798e+01 0 -1 0 1.499632e-01 -8.329652e-01 5.326078e-01 -2.973580e-03
33 1 3 -1.906760e+01 1.297340e+01 1.042296e+01 0 -1 0 -4.896939e-01 1.434358e-01 7.229780e-02 -8.569709e-01
34 1 1 -1.892591e+01 1.336598e+01 9.847890e+00 0 -1 0 1.077837e-01 8.278523e-01 5.481768e-01 5.045216e-02
35 1 2 -1.905660e+01 1.346607e+01 9.314051e+00 0 -1 0 4.732071e-02 9.467925e-01 3.076041e-01 8.200238e-02
36 1 2 -1.915294e+01 1.372726e+01 8.899985e+00 0 -1 0 -1.571652e-02 -9.967324e-01 -1.103330e-02 -7.845934e-02
37 1 1 -1.900433e+01 1.404966e+01 8.551179e+00 0 -1 0 -5.517582e-02 9.519868e-01 -2.888628e-01 8.505885e-02
38 1 1 -1.867338e+01 1.415903e+01 8.134310e+00 0 -1 0 1.890043e-04 -8.470567e-01 5.205303e-01 -1.074392e-01
39 1 4 -1.826673e+01 1.415095e+01 7.753301e+00 0 -1 0 -4.001783e-02 6.573997e-01 -7.346721e-01 1.627303e-01
40 1 4 -1.782987e+01 1.397130e+01 7.559803e+00 0 -1 0 -1.088907e-01 3.427235e-01 -9.275188e-01 1.019427e-01
41 1 2 -1.760483e+01 1.364514e+01 7.276619e+00 0 -1 0 -1.361921e-01 1.184082e-01 -9.594372e-01 2.165906e-01
42 1 4 -1.752443e+01 1.317551e+01 6.921405e+00 0 -1 0 -1.288555e-01 -1.977203e-01 -9.636507e-01 1.252206e-01
43 1 3 -1.767607e+01 1.286939e+01 6.513961e+00 0 -1 0 -2.367207e-01 -4.962577e-01 -8.351799e-01 -1.288913e-02
44 1 2 -1.785135e+01 1.279740e+01 6.021271e+00 0 -1 0 -1.880414e-01 -7.855711e-01 -5.834396e-01 -8.436051e-02
45 1 1 -1.791873e+01 1.294752e+01 5.424467e+00 0 -1 0 -1.628394e-01 -9.254282e-01 -2.844456e-01 -1.901492e-01
46 1 3 -1.765984e+01 1.297927e+01 4.915205e+00 0 -1 0 -3.430581e-02 -9.016077e-01 -2.001208e-01 -3.819402e-01
47 1 4 -1.741482e+01 1.332576e+01 4.677642e+00 0 -1 0 1.508372e-01 -8.869542e-01 2.195389e-01 -3.773104e-01
48 1 1 -1.700304e+01 1.365922e+01 4.592130e+00 0 -1 0 -2.872852e-01 7.321420e-01 -5.484903e-01 2.838902e-01
49 1 4 -1.646034e+01 1.357596e+01 4.388720e+00 0 -1 0 -2.790920e-01 5.871199e-01 -6.935439e-01 3.104750e-01
50 1 4 -1.595576e+01 1.342114e+01 4.318226e+00 0 -1 0 -2.877083e-01 3.960697e-01 -8.501065e-01 1.940917e-01
51 1 4 -1.560502e+01 1.315447e+01 4.060236e+00 0 -1 0 -3.469558e-01 1.486852e-01 -8.960239e-01 2.337854e-01
52 1 1 -1.532918e+01 1.279948e+01 3.926181e+00 0 -1 0 -3.790193e-01 -1.307602e-01 -8.841720e-01 2.397625e-01
53 1 3 -1.532723e+01 1.231726e+01 3.677064e+00 0 -1 0 3.914537e-01 5.002939e-01 7.545066e-01 -1.648936e-01
54 1 4 -1.536372e+01 1.200132e+01 3.214355e+00 0 -1 0 -3.276474e-01 -7.188831e-01 -6.130381e-01 -6.207939e-03
55 1 4 -1.539533e+01 1.187389e+01 2.695589e+00 0 -1 0 -2.095308e-01 -8.898075e-01 -3.960950e-01 -8.630278e-02
56 1 4 -1.532329e+01 1.201974e+01 2.170590e+00 0 -1 0 -1.033921e-01 -9.682370e-01 -8.626455e-02 -2.106791e-01
57 1 1 -1.517050e+01 1.223375e+01 1.735269e+00 0 -1 0 9.476868e-02 -9.668168e-01 7.673414e-02 -2.244906e-01
58 1 1 -1.471084e+01 1.251361e+01 1.534819e+00 0 -1 0 1.956158e-01 -8.714636e-01 3.691053e-01 -2.569961e-01
59 1 3 -1.429804e+01 1.266547e+01 1.325439e+00 0 -1 0 -3.148461e-01 7.110853e-01 -5.611983e-01 2.833480e-01
60 1 4 -1.381407e+01 1.263123e+01 1.430210e+00 0 -1 0 -4.727385e-01 5.001899e-01 -7.158336e-01 1.179435e-01
61 1 2 -1.330346e+01 1.255627e+01 1.337274e+00 0 -1 0 -4.544094e-01 2.839950e-01 -8.358418e-01 1.192787e-01
62 1 3 -1.282732e+01 1.233891e+01 1.160582e+00 0 -1 0 -3.839529e-01 2.550427e-02 -9.189121e-01 -8.677730e-02
63 1 2 -1.252150e+01 1.210064e+01 8.052659e-01 0 -1 0 -2.674023e-01 -2.365123e-01 -9.340811e-01 7.104316e-03
64 1 4 -1.245995e+01 1.186711e+01 3.605762e-01 0 -1 0 -2.510423e-01 -5.330503e-01 -7.933128e-01 -1.532642e-01
65 1 2 -1.264170e+01 1.185032e+01 -1.103321e-01 0 -1 0 -1.992040e-01 -7.941846e-01 -5.503729e-01 -1.633346e-01
66 1 1 -1.256815e+01 1.189661e+01 -6.055640e-01 0 -1 0 -7.577170e-02 -8.784270e-01 -3.932892e-01 -2.606687e-01
67 1 2 -1.239306e+01 1.211232e+01 -1.137437e+00 0 -1 0 -7.601254e-03 -9.141902e-01 -1.731952e-01 -3.663357e-01
68 1 1 -1.223226e+01 1.243726e+01 -1.457781e+00 0 -1 0 7.021741e-02 -9.194853e-01 1.940745e-01 -3.345915e-01
69 1 1 -1.176940e+01 1.255484e+01 -1.674121e+00 0 -1 0 1.203770e-01 -7.732175e-01 5.211964e-01 -3.405854e-01
70 1 2 -1.128389e+01 1.257491e+01 -1.753969e+00 0 -1 0 -2.372209e-01 6.147382e-01 -6.706526e-01 3.406586e-01
71 1 3 -1.077191e+01 1.249982e+01 -1.752012e+00 0 -1 0 -3.671691e-01 3.286214e-01 -8.310185e-01 2.580759e-01
72 1 4 -1.035002e+01 1.214835e+01 -1.868040e+00 0 -1 0 -3.206390e-01 1.004117e-01 -9.213896e-01 1.953183e-01
73 1 1 -1.013081e+01 1.168506e+01 -2.086383e+00 0 -1 0 -3.354628e-01 -2.143849e-01 -9.081050e-01 1.298039e-01
74 1 1 -1.010932e+01 1.129365e+01 -2.407001e+00 0 -1 0 -3.057042e-01 -5.058111e-01 -8.049831e-01 5.198299e-02
75 1 3 -1.028613e+01 1.110577e+01 -2.874290e+00 0 -1 0 -2.580216e-01 -7.653493e-01 -5.888810e-01 -2.974063e-02
76 1 1 -1.023246e+01 1.094198e+01 -3.431726e+00 0 -1 0 -1.858370e-01 -8.528666e-01 -4.677244e-01 -1.389859e-01
77 1 4 -1.014009e+01 1.121839e+01 -4.051682e+00 0 -1 0 -1.514884e-01 -8.905107e-01 -2.491358e-01 -3.492469e-01
78 1 1 -9.983842e+00 1.146219e+01 -4.390958e+00 0 -1 0 1.589307e-01 -9.378877e-01 3.862936e-02 -3.059665e-01
79 1 4 -9.608845e+00 1.191496e+01 -4.534655e+00 0 -1 0 3.087787e-01 -8.418384e-01 3.421363e-01 -2.809030e-01
80 1 2 -9.134423e+00 1.213421e+01 -4.626384e+00 0 -1 0 -3.315622e-01 6.139610e-01 -6.983161e-01 1.596029e-01
81 1 4 -8.611292e+00 1.211049e+01 -4.859948e+00 0 -1 0 3.459984e-01 -5.146794e-01 7.453844e-01 -2.445247e-01
82 1 4 -8.111993e+00 1.202141e+01 -4.891091e+00 0 -1 0 4.218368e-01 -2.451278e-01 8.546830e-01 -1.774344e-01
83 1 4 -7.746763e+00 1.168934e+01 -4.923033e+00 0 -1 0 4.618440e-01 5.765734e-03 8.273726e-01 -3.195646e-01
84 1 4 -7.586373e+00 1.123373e+01 -5.044883e+00 0 -1 0 4.920307e-01 3.451066e-01 7.573078e-01 -2.555233e-01
85 1 1 -6.564573e+00 1.074828e+01 -4.224500e+00 0 -1 0 -3.865675e-02 7.252689e-01 -6.539085e-01 -2.118828e-01
86 1 1 -6.758795e+00 1.020247e+01 -3.685271e+00 0 -1 0 -7.369505e-01 5.497299e-01 -3.868234e-01 -7.119358e-02
87 1 3 -6.381189e+00 1.040212e+01 -3.553714e+00 0 -1 0 6.229716e-01 -3.615243e-01 5.382451e-01 4.376057e-01
88 1 2 -5.979671e+00 1.069421e+01 -3.508000e+00 0 -1 0 -5.928499e-01 2.480289e-01 -6.914190e-01 -3.300763e-01
89 1 2 -5.583049e+00 1.080248e+01 -3.635726e+00 0 -1 0 -4.291210e-01 -4.780999e-02 -6.756725e-01 -5.975250e-01
90 1 3 -5.324816e+00 1.110605e+01 -3.860830e+00 0 -1 0 3.266060e-02 4.277161e-01 5.847121e-01 6.885521e-01
91 1 3 -5.220170e+00 1.152737e+01 -4.069114e+00 0 -1 0 -2.954500e-01 5.774801e-01 4.687087e-01 5.996150e-01
92 1 2 -5.257276e+00 1.197433e+01 -4.198181e+00 0 -1 0 -5.157660e-01 6.444311e-01 3.310704e-01 4.572597e-01
93 1 1 -5.279788e+00 1.237561e+01 -4.034289e+00 0 -1 0 -5.411299e-01 8.368734e-01 -1.354151e-03 8.257983e-02
94 1 2 -5.018025e+00 1.281089e+01 -3.952544e+00 0 -1 0 4.652349e-01 -7.936277e-01 3.650661e-01 1.429627e-01
95 1 3 -5.787550e+00 1.278434e+01 -3.815596e+00 0 -1 0 5.381849e-01 -1.504549e-02 6.742337e-01 5.055092e-01
96 1 2 -5.319942e+00 1.319125e+01 -2.652225e+00 0 -1 0 7.431710e-01 -1.732809e-01 -5.806933e-02 6.436603e-01
97 1 2 -5.959881e+00 1.338999e+01 -2.355024e+00 0 -1 0 4.397625e-01 6.086317e-02 5.924957e-01 -6.722004e-01
98 1 4 -5.454810e+00 1.342637e+01 -2.058131e+00 0 -1 0 -5.448423e-01 -6.062945e-01 -2.249584e-01 5.338049e-01
99 1 2 -5.702772e+00 1.436453e+01 -1.772402e+00 0 -1 0 -1.168958e-01 3.530988e-01 5.525026e-01 7.459206e-01
100 1 1 -5.839904e+00 1.499949e+01 -1.838732e+00 0 -1 0 1.106160e-01 3.482905e-01 -2.201785e-01 9.044221e-01
101 2 4 -4.343183e+00 1.608112e+01 -1.111565e+01 0 -1 0 -8.127250e-04 -3.170428e-01 -9.099429e-01 2.673708e-01
102 2 3 -4.723735e+00 1.579740e+01 -1.137967e+01 0 -1 0 1.102791e-01 7.128536e-01 6.645519e-01 -1.950615e-01
103 2 1 -4.705464e+00 1.540428e+01 -1.027405e+01 0 -1 0 -8.833490e-01 3.453608e-01 3.085889e-01 7.206568e-02
104 2 3 -4.904186e+00 1.539873e+01 -9.790535e+00 0 -1 0 -7.494073e-01 4.524411e-01 1.556871e-01 -4.576540e-01
105 2 3 -4.900408e+00 1.579200e+01 -9.442165e+00 0 -1 0 -2.723420e-01 5.498284e-01 -3.221667e-02 -7.889744e-01
106 2 2 -4.780402e+00 1.429316e+01 -9.033471e+00 0 -1 0 2.937069e-01 3.387764e-01 -8.489889e-01 2.796151e-01
107 2 3 -4.970325e+00 1.382350e+01 -9.220358e+00 0 -1 0 -2.659929e-01 -3.990642e-02 8.555790e-01 -4.423118e-01
108 2 4 -4.916741e+00 1.365013e+01 -9.424593e+00 0 -1 0 1.420391e-01 -6.814454e-01 -6.168652e-01 3.673342e-01
109 2 3 -4.478971e+00 1.363479e+01 -8.817071e+00 0 -1 0 -2.150389e-01 9.487250e-01 -1.688070e-01 -1.586925e-01
110 2 2 -5.359015e+00 1.309628e+01 -7.840476e+00 0 -1 0 -8.561982e-02 -1.521220e-01 9.683817e-01 -1.782272e-01
111 2 2 -5.606401e+00 1.365308e+01 -7.622050e+00 0 -1 0 -8.535415e-01 3.902584e-01 3.267759e-01 1.112783e-01
112 2 3 -5.801909e+00 1.381859e+01 -7.194177e+00 0 -1 0 -8.143730e-01 4.439097e-01 1.052738e-01 -3.586896e-01
113 2 3 -6.318300e+00 1.319649e+01 -6.617457e+00 0 -1 0 4.076828e-01 -2.756252e-01 -7.953883e-01 -3.538121e-01
114 2 2 -6.729050e+00 1.335504e+01 -6.884454e+00 0 -1 0 -4.536565e-01 7.071072e-01 5.364952e-01 7.980075e-02
115 2 4 -6.548881e+00 1.281952e+01 -6.441353e+00 0 -1 0 8.204021e-01 3.379895e-01 -4.214686e-01 1.872638e-01
116 2 4 -7.970796e+00 1.258775e+01 -6.338913e+00 0 -1 0 1.459282e-01 2.348188e-01 9.435097e-01 1.826323e-01
117 2 1 -7.993074e+00 1.162769e+01 -6.079646e+00 0 -1 0 8.153743e-01 1.953470e-01 -4.329284e-01 -3.310247e-01
118 2 1 -8.394267e+00 1.142234e+01 -5.951663e+00 0 -1 0 -8.628641e-01 1.060413e-01 4.899014e-01 -6.494171e-02
119 2 1 -8.703840e+00 1.120153e+01 -5.594212e+00 0 -1 0 8.710987e-01 -1.000536e-01 -3.813865e-01 2.927810e-01
120 2 1 -8.916376e+00 1.101872e+01 -5.230636e+00 0 -1 0 8.001249e-01 -1.419269e-01 -3.130423e-01 4.915906e-01
121 2 3 -8.972435e+00 1.095718e+01 -4.771379e+00 0 -1 0 6.577020e-01 -1.515359e-01 -1.601239e-01 7.202953e-01
122 2 1 -8.877197e+00 1.099750e+01 -4.182738e+00 0 -1 0 3.980385e-01 -2.524480e-01 -1.306111e-01 8.722248e-01
123 2 4 -9.006802e+00 1.134984e+01 -3.758392e+00 0 -1 0 1.028658e-01 -2.663228e-01 1.349035e-01 9.488371e-01
124 2 1 -9.226126e+00 1.170747e+01 -3.446687e+00 0 -1 0 -1.375259e-01 -3.092114e-01 1.631908e-01 9.267382e-01
125 2 4 -9.611620e+00 1.199065e+01 -3.304341e+00 0 -1 0 -4.445731e-01 -1.897524e-01 2.570389e-01 8.368272e-01
126 2 2 -1.008435e+01 1.220288e+01 -3.159960e+00 0 -1 0 -6.932713e-01 -1.261950e-01 2.821695e-01 6.510224e-01
127 2 4 -1.053770e+01 1.208035e+01 -3.118557e+00 0 -1 0 -8.442614e-01 -6.164755e-02 4.434395e-01 2.945908e-01
128 2 4 -1.095555e+01 1.209240e+01 -2.848376e+00 0 -1 0 -9.247342e-01 -1.243506e-01 3.380006e-01 1.231222e-01
129 2 1 -1.122661e+01 1.180243e+01 -2.578524e+00 0 -1 0 -9.358622e-01 2.532851e-03 3.353642e-01 -1.081032e-01
130 2 2 -1.132237e+01 1.145031e+01 -2.193053e+00 0 -1 0 -8.291096e-01 9.809988e-02 2.683186e-01 -4.805816e-01
131 2 3 -1.123373e+01 1.141829e+01 -1.593680e+00 0 -1 0 -5.603989e-01 2.078155e-01 1.836268e-01 -7.804146e-01
132 2 4 -1.136876e+01 1.162145e+01 -1.127350e+00 0 -1 0 4.819861e-01 -2.951685e-01 1.798789e-02 8.247675e-01
133 2 4 -1.138710e+01 1.200959e+01 -6.828622e-01 0 -1 0 2.237609e-01 -3.297668e-01 1.326108e-01 9.075237e-01
134 2 3 -1.153382e+01 1.248729e+01 -3.807310e-01 0 -1 0 -8.946741e-02 -3.255945e-01 1.605578e-01 9.274724e-01
135 2 4 -1.186521e+01 1.281031e+01 -2.097513e-01 0 -1 0 4.108482e-01 2.732961e-01 -2.323561e-01 -8.381669e-01
136 2 3 -1.232003e+01 1.296240e+01 -4.928256e-02 0 -1 0 5.879585e-01 2.996014e-01 -3.434351e-01 -6.682785e-01
137 2 1 -1.283868e+01 1.292523e+01 3.343801e-02 0 -1 0 -7.505988e-01 -3.381513e-01 3.905520e-01 4.119761e-01
138 2 3 -1.329092e+01 1.275482e+01 1.494429e-01 0 -1 0 -8.403891e-01 -2.809391e-01 4.093408e-01 2.173925e-01
139 2 2 -1.358123e+01 1.235718e+01 2.365230e-01 0 -1 0 -8.543303e-01 -1.917876e-01 4.671214e-01 -1.230237e-01
140 2 3 -1.385909e+01 1.195633e+01 4.754033e-01 0 -1 0 -8.586069e-01 -6.243619e-02 4.034367e-01 -3.100561e-01
141 2 1 -1.398815e+01 1.160184e+01 7.827822e-01 0 -1 0 -7.841003e-01 5.584935e-02 3.417603e-01 -5.150413e-01
142 2 2 -1.400259e+01 1.147826e+01 1.422678e+00 0 -1 0 -5.692440e-01 2.048798e-01 2.022944e-01 -7.701055e-01
143 2 4 -1.402862e+01 1.165899e+01 1.956988e+00 0 -1 0 3.568636e-01 -2.512025e-01 -3.644163e-02 8.990093e-01
144 2 4 -1.413043e+01 1.198484e+01 2.322411e+00 0 -1 0 -1.611429e-01 2.849778e-01 -1.147772e-01 -9.378949e-01
145 2 1 -1.428924e+01 1.238629e+01 2.552903e+00 0 -1 0 2.141165e-01 2.140999e-01 -2.401213e-01 -9.223107e-01
146 2 1 -1.464640e+01 1.276697e+01 2.685753e+00 0 -1 0 3.716468e-01 2.305694e-01 -4.791518e-01 -7.610059e-01
147 2 1 -1.514285e+01 1.305230e+01 2.588515e+00 0 -1 0 6.841898e-01 3.020942e-02 -4.313999e-01 -5.872527e-01
148 2 2 -1.563513e+01 1.304655e+01 2.692521e+00 0 -1 0 8.153869e-01 -1.016135e-01 -4.804241e-01 -3.066131e-01
149 2 4 -1.613021e+01 1.294566e+01 3.107218e+00 0 -1 0 -9.147019e-01 3.081937e-02 3.689229e-01 1.620693e-01
150 2 1 -1.645845e+01 1.271518e+01 3.398634e+00 0 -1 0 -9.396658e-01 6.259761e-02 3.215413e-01 -9.859464e-02
151 2 1 -1.657500e+01 1.247419e+01 3.882184e+00 0 -1 0 -8.436856e-01 1.204637e-01 2.565256e-01 -4.559360e-01
152 2 1 -1.660871e+01 1.241011e+01 4.410996e+00 0 -1 0 -6.712667e-01 2.474636e-01 1.599738e-01 -6.801259e-01
153 2 4 -1.647679e+01 1.255984e+01 4.829077e+00 0 -1 0 -3.515751e-01 2.038928e-01 1.441465e-02 -9.135726e-01
154 2 1 -1.655808e+01 1.289317e+01 5.341937e+00 0 -1 0 -1.928063e-01 3.065917e-01 -2.244625e-02 -9.318387e-01
155 2 2 -1.674387e+01 1.327463e+01 5.676744e+00 0 -1 0 9.285279e-04 3.692134e-01 -1.870797e-01 -9.103196e-01
156 2 4 -1.704553e+01 1.365909e+01 5.803936e+00 0 -1 0 2.977550e-01 2.649944e-01 -3.366306e-01 -8.531118e-01
157 2 3 -1.751270e+01 1.394320e+01 5.999980e+00 0 -1 0 5.421571e-01 2.380977e-01 -3.004657e-01 -7.477270e-01
158 2 2 -1.810190e+01 1.388820e+01 6.172499e+00 0 -1 0 7.868647e-01 2.052865e-01 -3.109773e-01 -4.919293e-01
159 2 1 -1.854940e+01 1.367126e+01 6.556219e+00 0 -1 0 9.727880e-01 5.455650e-02 -1.425015e-01 -1.743569e-01
160 2 3 -1.872849e+01 1.338707e+01 6.880501e+00 0 -1 0 -9.810703e-01 5.100443e-03 1.563865e-01 -1.140977e-01
161 2 1 -1.869643e+01 1.316893e+01 7.434479e+00 0 -1 0 -9.500107e-01 -3.395499e-02 1.661143e-02 -3.099207e-01
162 2 1 -1.853554e+01 1.300616e+01 7.860671e+00 0 -1 0 -7.906048e-01 -2.400583e-02 -4.292736e-02 -6.103482e-01
163 2 4 -1.822239e+01 1.307831e+01 8.327837e+00 0 -1 0 -5.530341e-01 3.240112e-02 -1.079162e-01 -8.255044e-01
164 2 4 -1.800629e+01 1.335780e+01 8.722301e+00 0 -1 0 -2.845526e-01 6.266064e-02 -1.538328e-01 -9.441604e-01
165 2 3 -1.790043e+01 1.378802e+01 9.033010e+00 0 -1 0 -1.441958e-02 -2.621409e-02 2.081235e-01 9.776449e-01
166 2 3 -1.809693e+01 1.415795e+01 9.460319e+00 0 -1 0 -2.841331e-01 -1.233348e-01 2.094649e-01 9.274596e-01
167 2 4 -1.850134e+01 1.449421e+01 9.688609e+00 0 -1 0 -6.072388e-01 -3.061555e-02 2.623974e-01 7.493139e-01
168 2 2 -1.757453e+01 1.468424e+01 1.081042e+01 0 -1 0 -5.537231e-01 -2.116222e-01 7.236439e-01 -3.534774e-01
169 2 2 -1.866504e+01 1.537815e+01 1.065864e+01 0 -1 0 2.935686e-02 -1.301430e-01 -7.639192e-01 6.313703e-01
170 2 1 -1.899586e+01 1.504558e+01 1.072088e+01 0 -1 0 3.863196e-01 5.525754e-01 5.508642e-01 -4.919006e-01
171 2 1 -1.882559e+01 1.566934e+01 1.204268e+01 0 -1 0 -4.202162e-01 3.155816e-01 5.242767e-01 -6.700452e-01
172 2 4 -1.917921e+01 1.562725e+01 1.248123e+01 0 -1 0 9.639096e-02 -5.034579e-01 -4.071308e-01 7.559652e-01
173 2 4 -1.927151e+01 1.509455e+01 1.239064e+01 0 -1 0 6.159970e-01 3.468970e-02 -7.294514e-02 7.835964e-01
174 2 1 1.993435e+01 1.450525e+01 1.273958e+01 -1 -1 0 9.227500e-01 -1.470847e-01 -2.051484e-01 -2.912263e-01
175 2 1 1.977304e+01 1.497908e+01 1.168133e+01 -1 -1 0 5.901333e-01 4.379457e-01 -5.621939e-01 -3.793207e-01
176 2 2 1.917384e+01 1.493503e+01 1.145251e+01 -1 -1 0 -2.848755e-01 1.214392e-01 -6.670017e-01 6.776483e-01
177 2 2 1.936225e+01 1.615180e+01 1.135938e+01 -1 -1 0 -3.093017e-01 6.239769e-01 7.123090e-01 8.718468e-02
178 2 1 1.938093e+01 1.622429e+01 1.141922e+01 -1 -1 0 9.064715e-01 -2.643039e-01 -1.259840e-03 -3.293195e-01
179 2 4 1.859424e+01 1.696440e+01 1.128463e+01 -1 -1 0 -5.416707e-01 7.664278e-01 2.723029e-01 2.122083e-01
180 2 1 1.776425e+01 1.615303e+01 1.063556e+01 -1 -1 0 3.206782e-01 4.650616e-01 7.135057e-01 -4.144789e-01
181 2 4 1.762064e+01 1.573115e+01 1.036668e+01 -1 -1 0 -5.170416e-01 -6.773530e-01 -5.205860e-01 5.339616e-02
182 2 2 1.708043e+01 1.504981e+01 1.134984e+01 -1 -1 0 -8.065083e-01 5.080810e-01 -2.453551e-02 3.013239e-01
183 2 3 1.710381e+01 1.518240e+01 1.186022e+01 -1 -1 0 8.530223e-01 -4.831603e-01 1.929394e-01 4.103062e-02
184 2 4 1.611128e+01 1.513456e+01 1.146214e+01 -1 -1 0 1.559580e-01 6.711973e-01 5.212798e-01 -5.034269e-01
185 2 3 1.572716e+01 1.504961e+01 1.130124e+01 -1 -1 0 -3.751583e-01 -8.116948e-01 -1.326040e-01 4.275793e-01
186 2 1 1.520282e+01 1.573802e+01 1.208504e+01 -1 -1 0 -1.929216e-02 -6.288429e-01 -2.979133e-01 7.179360e-01
187 2 1 1.469600e+01 1.578427e+01 1.214787e+01 -1 -1 0 2.708479e-01 7.143025e-01 8.205167e-02 -6.400632e-01
188 2 2 1.419990e+01 1.579743e+01 1.207078e+01 -1 -1 0 5.488304e-01 6.402628e-01 -1.336629e-01 -5.205604e-01
189 2 4 1.346143e+01 1.593411e+01 1.335398e+01 -1 -1 0 -3.402068e-01 -7.952710e-02 4.898479e-01 -7.987389e-01
190 2 4 1.272533e+01 1.507202e+01 1.274159e+01 -1 -1 0 4.165662e-01 -3.573522e-01 -7.675564e-01 -3.311029e-01
191 2 1 1.213660e+01 1.480226e+01 1.219590e+01 -1 -1 0 6.388097e-01 2.548093e-01 -3.504706e-01 -6.357395e-01
192 2 4 1.166807e+01 1.486839e+01 1.211795e+01 -1 -1 0 -8.296199e-01 7.581907e-02 4.227550e-01 3.567359e-01
193 2 4 1.253328e+01 1.603326e+01 1.130783e+01 -1 -1 0 7.022900e-01 4.842875e-01 3.022173e-01 4.253458e-01
194 2 1 1.170693e+01 1.507562e+01 1.119473e+01 -1 -1 0 -7.038767e-01 -3.186409e-01 5.693004e-01 2.809316e-01
195 2 3 1.155965e+01 1.589495e+01 1.071829e+01 -1 -1 0 3.990358e-01 1.690487e-01 -6.115940e-01 -6.619258e-01
196 2 4 1.234317e+01 1.669224e+01 1.024905e+01 -1 -1 0 -4.961804e-02 9.668020e-01 2.125897e-01 1.328065e-01
197 2 2 1.166830e+01 1.684813e+01 9.500922e+00 -1 -1 0 -5.888773e-01 -4.978165e-01 -4.519261e-01 -4.485142e-01
198 2 4 1.212000e+01 1.686096e+01 9.286752e+00 -1 -1 0 2.910676e-01 6.103099e-01 1.888416e-01 7.121379e-01
199 2 3 1.218486e+01 1.635459e+01 8.858431e+00 -1 -1 0 -3.464285e-01 6.220131e-01 5.725369e-01 4.065570e-01
200 2 4 1.208311e+01 1.683094e+01 8.776231e+00 -1 -1 0 5.403959e-01 -7.104834e-01 -2.946816e-01 -3.410989e-01
