ITEM: TIMESTEP
6000000
ITEM: NUMBER OF ATOMS
200
ITEM: BOX BOUNDS pp pp pp
-2.0000000000000000e+01 2.0000000000000000e+01
-2.0000000000000000e+01 2.0000000000000000e+01
-2.0000000000000000e+01 2.0000000000000000e+01
ITEM: ATOMS id mol type x y z ix iy iz c_quat[1] c_quat[2] c_quat[3] c_quat[4]
1 1 1 1.289320e+01 5.146704e+00 1.769176e+01 -1 -1 0 -4.604730e-01 2.640041e-01 -1.688648e-02 8.473377e-01
2 1 2 1.431994e+01 4.654235e+00 1.748867e+01 -1 -1 0 -5.091059e-01 5.969949e-01 -6.192335e-01 3.095398e-02
3 1 1 1.479580e+01 4.740707e+00 1.740304e+01 -1 -1 0 -5.010270e-01 4.216355e-01 -7.539539e-01 -5.243116e-02
4 1 3 1.527045e+01 4.739420e+00 1.723498e+01 -1 -1 0 -4.321123e-01 1.371763e-01 -8.762951e-01 -1.629987e-01
5 1 1 1.558340e+01 4.522246e+00 1.680231e+01 -1 -1 0 -3.863743e-01 -1.540275e-01 -8.555653e-01 -3.082181e-01
6 1 2 1.586040e+01 4.597959e+00 1.637245e+01 -1 -1 0 2.598170e-01 3.188377e-01 7.906209e-01 4.536037e-01
7 1 4 1.607913e+01 4.731327e+00 1.589619e+01 -1 -1 0 8.274421e-02 4.797736e-01 7.779024e-01 3.972890e-01
8 1 1 1.601874e+01 4.950938e+00 1.547979e+01 -1 -1 0 1.417032e-01 -7.279922e-01 -5.990139e-01 -3.018773e-01
9 1 1 1.605614e+01 5.406021e+00 1.508885e+01 -1 -1 0 1.839076e-01 -8.505752e-01 -2.793984e-01 -4.057541e-01
10 1 4 1.619323e+01 5.858830e+00 1.500010e+01 -1 -1 0 2.501811e-01 -9.148169e-01 1.332882e-01 -2.876695e-01
11 1 1 1.655194e+01 6.255172e+00 1.481970e+01 -1 -1 0 3.560230e-01 -8.167454e-01 2.763795e-01 -3.602624e-01
12 1 1 1.715356e+01 6.417034e+00 1.468670e+01 -1 -1 0 -3.174640e-01 7.302151e-01 -4.784842e-01 3.702099e-01
13 1 3 1.767673e+01 6.403572e+00 1.475838e+01 -1 -1 0 -4.617916e-01 4.841175e-01 -6.790275e-01 3.021597e-01
14 1 4 1.820996e+01 6.396663e+00 1.476674e+01 -1 -1 0 -5.259792e-01 2.662305e-01 -7.606719e-01 2.717453e-01
15 1 4 1.863821e+01 6.102461e+00 1.468354e+01 -1 -1 0 5.037443e-01 2.608972e-02 8.602675e-01 -7.416775e-02
16 1 2 1.897965e+01 5.791565e+00 1.438749e+01 -1 -1 0 4.203096e-01 3.505013e-01 8.317593e-01 9.308675e-02
17 1 1 1.919179e+01 5.604893e+00 1.390980e+01 -1 -1 0 -2.945076e-01 -5.582188e-01 -7.463310e-01 -2.112986e-01
18 1 2 1.919352e+01 5.537803e+00 1.336923e+01 -1 -1 0 -9.621029e-02 -7.624906e-01 -6.014851e-01 -2.180993e-01
19 1 3 1.924830e+01 5.821662e+00 1.294709e+01 -1 -1 0 6.596738e-02 -9.202597e-01 -2.461641e-01 -2.969405e-01
20 1 1 1.956968e+01 6.102123e+00 1.252773e+01 -1 -1 0 1.418966e-01 -8.796063e-01 -1.913615e-01 -4.117510e-01
21 1 4 1.978981e+01 6.516144e+00 1.230803e+01 -1 -1 0 -2.654933e-01 8.638129e-01 1.213493e-02 4.280109e-01
22 1 1 -1.993720e+01 7.028494e+00 1.233713e+01 0 -1 0 -3.537559e-01 8.459253e-01 -2.371417e-01 3.209843e-01
23 1 4 -1.950388e+01 7.360024e+00 1.234583e+01 0 -1 0 -4.390156e-01 7.037989e-01 -5.378964e-01 1.503326e-01
24 1 3 -1.889154e+01 7.490096e+00 1.225151e+01 0 -1 0 -3.837384e-01 5.433974e-01 -7.383060e-01 1.112135e-01
25 1 3 -1.842952e+01 7.386398e+00 1.205956e+01 0 -1 0 -3.381250e-01 2.084971e-01 -9.118099e-01 -1.039384e-01
26 1 4 -1.813206e+01 7.261547e+00 1.163301e+01 0 -1 0 -2.310093e-01 -2.557657e-02 -9.573579e-01 -1.715994e-01
27 1 4 -1.803645e+01 7.114072e+00 1.109224e+01 0 -1 0 -9.636503e-02 -3.536801e-01 -9.052603e-01 -2.147741e-01
28 1 1 -1.819281e+01 7.162127e+00 1.051929e+01 0 -1 0 1.791746e-02 -5.987505e-01 -7.712207e-01 -2.153960e-01
29 1 1 -1.841251e+01 7.348492e+00 1.007851e+01 0 -1 0 1.259480e-01 -8.234084e-01 -4.966310e-01 -2.439127e-01
30 1 4 -1.859194e+01 7.790633e+00 9.818258e+00 0 -1 0 -1.689039e-01 9.641298e-01 1.283758e-01 1.595142e-01
31 1 4 -1.846376e+01 8.263169e+00 9.492920e+00 0 -1 0 -2.450344e-01 9.291712e-01 -1.423665e-01 2.373412e-01
32 1 3 -1.820997e+01 8.666535e+00 9.455305e+00 0 -1 0 -3.973955e-01 8.174600e-01 -3.961372e-01 1.300434e-01
33 1 3 -1.778191e+01 8.916928e+00 9.384434e+00 0 -1 0 -5.557531e-01 5.566092e-01 -6.043887e-01 1.266450e-01
34 1 1 -1.730533e+01 8.929535e+00 9.422692e+00 0 -1 0 -6.039544e-01 3.136819e-01 -7.317428e-01 3.735268e-02
35 1 2 -1.677886e+01 8.851182e+00 9.338590e+00 0 -1 0 -5.062786e-01 1.273951e-01 -8.326130e-01 -1.849542e-01
36 1 2 -1.627832e+01 8.831523e+00 9.138784e+00 0 -1 0 -4.259910e-01 -3.994423e-02 -8.926789e-01 -1.416355e-01
37 1 1 -1.594078e+01 8.739744e+00 8.801902e+00 0 -1 0 -3.658744e-01 -2.870604e-01 -8.235783e-01 -3.247323e-01
38 1 1 -1.580126e+01 8.719719e+00 8.311178e+00 0 -1 0 -2.687522e-01 -5.770530e-01 -6.352676e-01 -4.372838e-01
39 1 4 -1.563779e+01 9.014461e+00 7.833403e+00 0 -1 0 9.228707e-02 7.457815e-01 3.625575e-01 5.512215e-01
40 1 4 -1.535203e+01 9.357551e+00 7.527293e+00 0 -1 0 -7.763492e-02 7.156926e-01 3.308025e-01 6.101857e-01
41 1 2 -1.518285e+01 9.824762e+00 7.450928e+00 0 -1 0 -3.666254e-01 7.796391e-01 -9.879400e-03 5.075934e-01
42 1 4 -1.498344e+01 1.028722e+01 7.572401e+00 0 -1 0 -6.061180e-01 6.791154e-01 -1.676651e-01 3.785653e-01
43 1 3 -1.467874e+01 1.061858e+01 7.833471e+00 0 -1 0 -7.332395e-01 5.516878e-01 -3.378685e-01 2.093926e-01
44 1 2 -1.433814e+01 1.078012e+01 8.161702e+00 0 -1 0 -7.324754e-01 4.304695e-01 -5.246220e-01 -5.429110e-02
45 1 1 -1.382546e+01 1.085918e+01 8.256913e+00 0 -1 0 -6.997326e-01 1.703792e-01 -6.719898e-01 -1.725541e-01
46 1 3 -1.327209e+01 1.079829e+01 8.170718e+00 0 -1 0 -6.234453e-01 1.328614e-02 -7.067127e-01 -3.342105e-01
47 1 4 -1.280714e+01 1.086175e+01 7.909575e+00 0 -1 0 -4.754021e-01 -1.795654e-01 -7.302702e-01 -4.565682e-01
48 1 1 -1.244790e+01 1.095787e+01 7.535266e+00 0 -1 0 2.596738e-01 4.917854e-01 5.631852e-01 6.111784e-01
49 1 4 -1.204112e+01 1.127789e+01 7.325810e+00 0 -1 0 7.936318e-02 4.938772e-01 6.071949e-01 6.173339e-01
50 1 4 -1.195668e+01 1.171822e+01 7.041662e+00 0 -1 0 -1.669899e-01 6.830311e-01 3.856997e-01 5.973430e-01
51 1 4 -1.191065e+01 1.223047e+01 6.944817e+00 0 -1 0 -4.090613e-01 7.218695e-01 1.650798e-01 5.332185e-01
52 1 1 -1.184148e+01 1.275809e+01 7.149514e+00 0 -1 0 -5.814373e-01 6.895976e-01 -7.750821e-02 4.247096e-01
53 1 3 -1.163840e+01 1.311615e+01 7.485620e+00 0 -1 0 -7.346668e-01 5.706016e-01 -2.890583e-01 2.261057e-01
54 1 4 -1.128382e+01 1.341951e+01 7.732385e+00 0 -1 0 -7.335862e-01 4.721346e-01 -4.694254e-01 1.363082e-01
55 1 4 -1.071586e+01 1.346171e+01 7.933325e+00 0 -1 0 -6.713047e-01 3.517697e-01 -6.384860e-01 -1.339538e-01
56 1 4 -1.018057e+01 1.356205e+01 7.914305e+00 0 -1 0 -5.549049e-01 1.093095e-01 -7.824647e-01 -2.605396e-01
57 1 1 -9.678590e+00 1.355642e+01 7.659859e+00 0 -1 0 -3.725031e-01 -1.819509e-01 -7.823541e-01 -4.648197e-01
58 1 1 -9.331704e+00 1.375796e+01 7.243263e+00 0 -1 0 -1.496022e-01 -3.176974e-01 -7.051004e-01 -6.160527e-01
59 1 3 -9.244895e+00 1.399995e+01 6.824739e+00 0 -1 0 2.133441e-02 5.856856e-01 5.635575e-01 5.821685e-01
60 1 4 -9.110120e+00 1.446614e+01 6.547065e+00 0 -1 0 -2.365757e-01 5.824616e-01 4.934511e-01 6.010627e-01
61 1 2 -9.201724e+00 1.495753e+01 6.462719e+00 0 -1 0 -3.705653e-01 7.310074e-01 2.853778e-01 4.968591e-01
62 1 3 -9.043607e+00 1.548250e+01 6.521633e+00 0 -1 0 -5.382216e-01 7.171393e-01 5.454488e-02 4.393786e-01
63 1 2 -8.927484e+00 1.595303e+01 6.716615e+00 0 -1 0 -5.870426e-01 7.426894e-01 -1.955858e-01 2.560072e-01
64 1 4 -8.574008e+00 1.621463e+01 7.016417e+00 0 -1 0 -7.063233e-01 5.471259e-01 -4.465342e-01 4.866116e-02
65 1 2 -8.034023e+00 1.642056e+01 7.287004e+00 0 -1 0 -6.188605e-01 4.853896e-01 -6.140536e-01 -6.593088e-02
66 1 1 -7.547565e+00 1.639405e+01 7.316446e+00 0 -1 0 -5.812848e-01 2.464361e-01 -7.001474e-01 -3.334228e-01
67 1 2 -7.103201e+00 1.652589e+01 7.130389e+00 0 -1 0 -4.252657e-01 -4.890351e-03 -8.241076e-01 -3.741281e-01
68 1 1 -6.775142e+00 1.651096e+01 6.714981e+00 0 -1 0 -2.849805e-01 -3.101100e-01 -7.524800e-01 -5.063514e-01
69 1 1 -6.431972e+00 1.678365e+01 6.373072e+00 0 -1 0 -7.857492e-02 -3.930554e-01 -7.466481e-01 -5.308956e-01
70 1 2 -6.392181e+00 1.724452e+01 5.986233e+00 0 -1 0 -9.658972e-02 6.062121e-01 5.320469e-01 5.831838e-01
71 1 3 -6.556921e+00 1.763618e+01 5.699196e+00 0 -1 0 -2.780842e-01 7.605319e-01 3.809429e-01 4.462543e-01
72 1 4 -6.632208e+00 1.811090e+01 5.689514e+00 0 -1 0 -4.616557e-01 8.318987e-01 1.158843e-01 2.852884e-01
73 1 1 -6.427408e+00 1.862890e+01 5.652754e+00 0 -1 0 -5.792886e-01 7.393245e-01 -5.265851e-02 3.391919e-01
74 1 1 -6.324086e+00 1.904234e+01 5.874109e+00 0 -1 0 -6.816294e-01 6.860533e-01 -2.212983e-01 1.254565e-01
75 1 3 -5.972679e+00 1.933698e+01 6.094142e+00 0 -1 0 -7.420586e-01 4.781642e-01 -4.645038e-01 -7.031545e-02
76 1 1 -5.568327e+00 1.969015e+01 6.139659e+00 0 -1 0 -6.146373e-01 3.949655e-01 -6.575568e-01 -1.839630e-01
77 1 4 -4.979303e+00 1.984303e+01 6.114183e+00 0 -1 0 -5.834425e-01 2.368078e-01 -7.594500e-01 -1.635621e-01
78 1 1 -4.498938e+00 1.985189e+01 5.837945e+00 0 -1 0 -4.491878e-01 -4.592789e-02 -8.327326e-01 -3.204331e-01
79 1 4 -4.129084e+00 -1.998528e+01 5.584126e+00 0 0 0 -3.152725e-01 -2.041356e-01 -8.723477e-01 -3.129560e-01
80 1 2 -3.956470e+00 -1.980691e+01 5.131918e+00 0 0 0 1.046492e-01 4.599417e-01 7.767946e-01 4.172438e-01
81 1 4 -3.852142e+00 -1.954400e+01 4.608242e+00 0 0 0 -8.514748e-02 5.944540e-01 6.253374e-01 4.983246e-01
82 1 4 -3.847682e+00 -1.916508e+01 4.249691e+00 0 0 0 -1.712332e-01 7.835841e-01 3.420694e-01 4.895545e-01
83 1 4 -3.741298e+00 -1.861316e+01 4.165205e+00 0 0 0 -3.755038e-01 7.901603e-01 1.304909e-01 4.664930e-01
84 1 4 -3.611840e+00 -1.809834e+01 4.321827e+00 0 0 0 -4.986862e-01 7.807656e-01 -1.080806e-01 3.606046e-01
85 1 1 -3.268990e+00 -1.773904e+01 4.538353e+00 0 0 0 -6.715893e-01 6.287403e-01 -3.339592e-01 2.052429e-01
86 1 1 -2.818023e+00 -1.758122e+01 4.803009e+00 0 0 0 -7.086917e-01 4.666970e-01 -5.224253e-01 8.379622e-02
87 1 3 -2.232857e+00 -1.747673e+01 4.942767e+00 0 0 0 -6.555289e-01 3.282211e-01 -6.788175e-01 -4.194700e-02
88 1 2 -1.729101e+00 -1.763604e+01 4.904956e+00 0 0 0 -6.050503e-01 1.194656e-02 -7.519293e-01 -2.614837e-01
89 1 2 -1.247616e+00 -1.755556e+01 4.624877e+00 0 0 0 4.253722e-01 7.038337e-02 7.962296e-01 4.244092e-01
90 1 3 -9.665401e-01 -1.754275e+01 4.168309e+00 0 0 0 2.513296e-01 3.437043e-01 7.402785e-01 5.202773e-01
91 1 3 -8.070306e-01 -1.717000e+01 3.781519e+00 0 0 0 8.858246e-02 5.695127e-01 5.792995e-01 5.763857e-01
92 1 2 -5.961505e-01 -1.674388e+01 3.522311e+00 0 0 0 -1.356626e-01 6.101410e-01 4.198958e-01 6.580358e-01
93 1 1 -3.963856e-01 -1.614652e+01 3.523967e+00 0 0 0 -3.142028e-01 6.076584e-01 2.668903e-01 6.788206e-01
94 1 2 -4.466805e-01 -1.565397e+01 3.751136e+00 0 0 0 -5.736065e-01 6.929863e-01 -1.578684e-02 4.364588e-01
95 1 3 -1.607488e-01 -1.524253e+01 4.013257e+00 0 0 0 -6.974273e-01 5.725693e-01 -2.441340e-01 3.551875e-01
96 1 2 1.412368e-01 -1.505984e+01 4.409935e+00 0 0 0 -8.120352e-01 3.668449e-01 -4.177395e-01 1.775312e-01
97 1 2 6.304585e-01 -1.509234e+01 4.666803e+00 0 0 0 7.793528e-01 -1.955697e-01 5.922924e-01 5.959313e-02
98 1 4 1.428219e+00 -1.536979e+01 5.188728e+00 0 0 0 6.724848e-01 5.032138e-01 -5.259054e-01 1.340283e-01
99 1 2 8.987156e-01 -1.476004e+01 5.753415e+00 0 0 0 9.869491e-02 1.074467e-01 -9.639682e-01 2.224407e-01
100 1 1 1.591155e+00 -1.428337e+01 5.522789e+00 0 0 0 -4.964771e-01 2.297695e-01 -8.243147e-01 1.456771e-01
101 2 4 6.432210e-01 -1.385167e+01 2.912408e+00 0 0 0 3.794045e-01 5.892188e-01 -5.543983e-01 -4.489054e-01
102 2 3 5.734287e-01 -1.424811e+01 4.089704e+00 0 0 0 -6.664828e-01 2.723345e-01 6.067756e-01 3.368351e-01
103 2 1 1.184222e+00 -1.498865e+01 3.476832e+00 0 0 0 -7.167054e-01 -3.593979e-01 5.973201e-01 -1.937060e-02
104 2 3 1.011323e+00 -1.547377e+01 3.538996e+00 0 0 0 6.017078e-01 7.813275e-02 -6.911759e-01 3.925798e-01
105 2 3 8.599620e-01 -1.582181e+01 3.822382e+00 0 0 0 -4.545840e-01 7.538650e-02 6.195224e-01 -6.355016e-01
106 2 2 5.976795e-01 -1.616101e+01 4.122595e+00 0 0 0 -3.499170e-01 2.746257e-01 5.813963e-01 -6.812614e-01
107 2 3 2.162688e-01 -1.629641e+01 4.445013e+00 0 0 0 -4.309283e-02 4.764318e-01 4.030301e-01 -7.802067e-01
108 2 4 -2.963974e-01 -1.643030e+01 4.644618e+00 0 0 0 5.245975e-02 6.529509e-01 3.091730e-01 -6.894311e-01
109 2 3 -7.541280e-01 -1.629213e+01 4.638430e+00 0 0 0 2.706744e-01 6.869708e-01 3.307049e-03 -6.743854e-01
110 2 2 -1.250340e+00 -1.625860e+01 4.418251e+00 0 0 0 -5.530525e-01 -6.352359e-01 1.777356e-01 5.089384e-01
111 2 2 -1.716596e+00 -1.648783e+01 4.243206e+00 0 0 0 -6.173544e-01 -6.566511e-01 2.524334e-01 3.520798e-01
112 2 3 -1.967631e+00 -1.690048e+01 3.959856e+00 0 0 0 -7.000612e-01 -5.463441e-01 4.569478e-01 5.119613e-02
113 2 3 -2.035000e+00 -1.734961e+01 3.765685e+00 0 0 0 -6.971729e-01 -3.762900e-01 5.792399e-01 -1.919291e-01
114 2 2 -2.063364e+00 -1.786482e+01 3.841754e+00 0 0 0 -5.899267e-01 -1.695931e-01 6.509144e-01 -4.466935e-01
115 2 4 -2.191542e+00 -1.833525e+01 4.080785e+00 0 0 0 -4.556085e-01 9.096931e-02 6.507840e-01 -6.005212e-01
116 2 4 -2.512701e+00 -1.866490e+01 4.322260e+00 0 0 0 -4.343742e-01 1.481035e-01 4.841549e-01 -7.449688e-01
117 2 1 -2.775798e+00 -1.879335e+01 4.815821e+00 0 0 0 -2.004150e-01 3.285177e-01 3.983835e-01 -8.325867e-01
118 2 1 -3.060618e+00 -1.883788e+01 5.112431e+00 0 0 0 4.493490e-02 4.492496e-01 2.487265e-01 -8.569077e-01
119 2 1 -3.514659e+00 -1.875266e+01 5.357327e+00 0 0 0 2.823375e-01 5.462964e-01 4.137578e-02 -7.874858e-01
120 2 1 -4.046796e+00 -1.869625e+01 5.405585e+00 0 0 0 4.420718e-01 5.676687e-01 -3.748622e-02 -6.934836e-01
121 2 3 -4.608466e+00 -1.890888e+01 5.430528e+00 0 0 0 -6.714841e-01 -5.534491e-01 1.342196e-01 4.741184e-01
122 2 1 -4.947775e+00 -1.923954e+01 5.121523e+00 0 0 0 -7.480650e-01 -5.462628e-01 3.464460e-01 1.482255e-01
123 2 4 -5.188191e+00 -1.971276e+01 4.964188e+00 0 0 0 -7.353575e-01 -4.742726e-01 4.738327e-01 -9.898145e-02
124 2 1 -5.439886e+00 1.971181e+01 5.043315e+00 0 -1 0 -7.893817e-01 -3.971127e-01 3.851393e-01 -2.661687e-01
125 2 4 -5.327733e+00 1.929231e+01 5.044894e+00 0 -1 0 -5.464440e-01 -2.314317e-01 5.810843e-01 -5.569375e-01
126 2 2 -5.217007e+00 1.887040e+01 5.318838e+00 0 -1 0 -3.737426e-01 -1.032850e-01 5.932043e-01 -7.055191e-01
127 2 4 -5.327834e+00 1.849928e+01 5.728189e+00 0 -1 0 -1.978913e-01 6.904951e-02 5.263627e-01 -8.240228e-01
128 2 4 -5.457305e+00 1.816448e+01 6.103175e+00 0 -1 0 -8.898977e-02 2.792124e-01 4.675951e-01 -8.339521e-01
129 2 1 -5.756561e+00 1.805556e+01 6.487245e+00 0 -1 0 1.101908e-01 4.124950e-01 2.911879e-01 -8.561048e-01
130 2 2 -6.227952e+00 1.797019e+01 6.792666e+00 0 -1 0 3.331825e-01 5.078565e-01 2.558356e-01 -7.520767e-01
131 2 3 -6.747207e+00 1.792691e+01 6.852702e+00 0 -1 0 5.816322e-01 5.618169e-01 1.951901e-02 -5.879497e-01
132 2 4 -7.197091e+00 1.766274e+01 6.710763e+00 0 -1 0 -6.382926e-01 -6.387839e-01 1.715841e-01 3.938230e-01
133 2 4 -7.587123e+00 1.732729e+01 6.577570e+00 0 -1 0 -6.953687e-01 -6.353335e-01 2.726150e-01 1.962008e-01
134 2 3 -7.832724e+00 1.696519e+01 6.351044e+00 0 -1 0 -7.349880e-01 -5.157544e-01 4.374924e-01 -4.889063e-02
135 2 4 -7.788174e+00 1.643124e+01 6.116716e+00 0 -1 0 6.530238e-01 3.788794e-01 -5.752257e-01 3.148423e-01
136 2 3 -7.806868e+00 1.592042e+01 6.191972e+00 0 -1 0 5.648722e-01 1.523638e-01 -5.998530e-01 5.457848e-01
137 2 1 -7.776022e+00 1.547485e+01 6.482111e+00 0 -1 0 -3.998797e-01 9.909528e-02 6.270648e-01 -6.611097e-01
138 2 3 -8.022428e+00 1.508155e+01 6.749221e+00 0 -1 0 -3.959822e-01 1.912652e-01 4.905701e-01 -7.523009e-01
139 2 2 -8.289066e+00 1.494838e+01 7.255090e+00 0 -1 0 -1.014670e-01 3.994788e-01 3.948262e-01 -8.211172e-01
140 2 3 -8.745122e+00 1.486727e+01 7.564536e+00 0 -1 0 1.247094e-01 5.710365e-01 2.833042e-01 -7.603312e-01
141 2 1 -9.238855e+00 1.490063e+01 7.707986e+00 0 -1 0 3.677199e-01 6.489872e-01 1.083537e-01 -6.571584e-01
142 2 2 -9.756469e+00 1.481173e+01 7.607349e+00 0 -1 0 4.575094e-01 7.046397e-01 -1.071775e-01 -5.316776e-01
143 2 4 -1.021193e+01 1.461311e+01 7.274112e+00 0 -1 0 -6.385651e-01 -6.689703e-01 2.818224e-01 2.555181e-01
144 2 4 -1.047726e+01 1.424696e+01 6.966008e+00 0 -1 0 7.104390e-01 5.462707e-01 -4.436819e-01 -3.341730e-03
145 2 1 -1.051859e+01 1.373631e+01 6.783937e+00 0 -1 0 6.557461e-01 3.796820e-01 -6.007892e-01 2.547370e-01
146 2 1 -1.060541e+01 1.320246e+01 6.784159e+00 0 -1 0 5.905621e-01 3.166844e-01 -5.909648e-01 4.491191e-01
147 2 1 -1.061801e+01 1.272060e+01 7.047492e+00 0 -1 0 4.569550e-01 4.952409e-02 -6.133109e-01 6.423311e-01
148 2 2 -1.075695e+01 1.232965e+01 7.483119e+00 0 -1 0 2.441521e-01 -2.170482e-01 -6.096333e-01 7.222375e-01
149 2 4 -1.110728e+01 1.210127e+01 7.871863e+00 0 -1 0 -1.056515e-01 4.272388e-01 4.416378e-01 -7.818318e-01
150 2 1 -1.148163e+01 1.208791e+01 8.093216e+00 0 -1 0 1.153484e-01 5.636493e-01 2.112284e-01 -7.901752e-01
151 2 1 -1.204290e+01 1.213918e+01 8.178410e+00 0 -1 0 3.162563e-01 6.577043e-01 7.043489e-02 -6.800338e-01
152 2 1 -1.257141e+01 1.203304e+01 8.054038e+00 0 -1 0 4.525087e-01 7.322438e-01 -1.272203e-01 -4.928183e-01
153 2 4 -1.302863e+01 1.197743e+01 7.698438e+00 0 -1 0 5.900584e-01 6.930875e-01 -2.798148e-01 -3.052286e-01
154 2 1 -1.338482e+01 1.171886e+01 7.401744e+00 0 -1 0 6.263856e-01 6.078405e-01 -4.730188e-01 -1.201006e-01
155 2 2 -1.359827e+01 1.129967e+01 7.163625e+00 0 -1 0 6.472085e-01 4.811164e-01 -5.842635e-01 9.101830e-02
156 2 4 -1.373997e+01 1.076578e+01 7.048747e+00 0 -1 0 6.404660e-01 3.170632e-01 -6.269411e-01 3.101920e-01
157 2 3 -1.382783e+01 1.029507e+01 7.173454e+00 0 -1 0 5.255508e-01 6.204683e-02 -6.595848e-01 5.337551e-01
158 2 2 -1.388209e+01 9.752435e+00 7.536435e+00 0 -1 0 3.725530e-01 -1.826608e-01 -6.505568e-01 6.360936e-01
159 2 1 -1.418704e+01 9.537005e+00 8.032591e+00 0 -1 0 1.860832e-01 -3.585562e-01 -4.766149e-01 7.808000e-01
160 2 3 -1.459267e+01 9.487625e+00 8.405380e+00 0 -1 0 3.474739e-03 4.984311e-01 2.815632e-01 -8.199247e-01
161 2 1 -1.511915e+01 9.620761e+00 8.663328e+00 0 -1 0 1.338010e-01 5.872430e-01 4.197427e-02 -7.971707e-01
162 2 1 -1.561897e+01 9.852041e+00 8.683606e+00 0 -1 0 3.083073e-01 6.186862e-01 -1.683518e-01 -7.027316e-01
163 2 4 -1.611704e+01 9.868236e+00 8.475038e+00 0 -1 0 6.364065e-01 5.067510e-01 -3.447734e-01 -4.683178e-01
164 2 4 -1.656661e+01 9.676281e+00 8.338760e+00 0 -1 0 7.513772e-01 4.260292e-01 -4.560295e-01 -2.144029e-01
165 2 3 -1.693630e+01 9.244008e+00 8.218927e+00 0 -1 0 7.769798e-01 3.027278e-01 -5.518279e-01 1.201203e-02
166 2 3 -1.728593e+01 8.763935e+00 8.211894e+00 0 -1 0 7.937910e-01 2.794501e-01 -4.905239e-01 2.262515e-01
167 2 4 -1.737199e+01 8.284059e+00 8.432669e+00 0 -1 0 7.103071e-01 1.019779e-01 -4.873767e-01 4.975222e-01
168 2 2 -1.741274e+01 7.882832e+00 8.843929e+00 0 -1 0 5.909863e-01 6.453566e-02 -3.124210e-01 7.409207e-01
169 2 2 -1.734454e+01 7.863644e+00 9.364479e+00 0 -1 0 3.100741e-01 -6.524494e-02 -2.436944e-01 9.166298e-01
170 2 1 -1.741817e+01 7.896045e+00 9.899234e+00 0 -1 0 9.413256e-02 -1.924218e-01 -1.884493e-01 9.584361e-01
171 2 1 -1.760130e+01 8.129218e+00 1.034499e+01 0 -1 0 1.543748e-01 2.191390e-01 8.242839e-02 -9.598709e-01
172 2 4 -1.797628e+01 8.325785e+00 1.069235e+01 0 -1 0 4.807602e-01 2.758632e-01 -5.286683e-02 -8.306469e-01
173 2 4 -1.845655e+01 8.272456e+00 1.094179e+01 0 -1 0 6.615750e-01 3.586665e-01 -5.152796e-02 -6.565224e-01
174 2 1 -1.892270e+01 7.954809e+00 1.110371e+01 0 -1 0 8.444079e-01 3.879003e-01 -9.919312e-02 -3.559063e-01
175 2 1 -1.919932e+01 7.473002e+00 1.122231e+01 0 -1 0 9.335020e-01 3.213515e-01 -1.582578e-01 -1.618045e-02
176 2 2 -1.924279e+01 6.929051e+00 1.131419e+01 0 -1 0 9.124799e-01 1.653429e-01 -2.971560e-01 2.274654e-01
177 2 2 -1.914096e+01 6.503918e+00 1.164939e+01 0 -1 0 7.861602e-01 1.522197e-02 -3.340254e-01 5.197572e-01
178 2 1 -1.909684e+01 6.297298e+00 1.210725e+01 0 -1 0 5.622629e-01 -1.282529e-01 -2.923238e-01 7.628620e-01
179 2 4 -1.905260e+01 6.296878e+00 1.266611e+01 0 -1 0 2.333569e-01 -2.218644e-01 -2.571174e-01 9.111594e-01
180 2 1 -1.933411e+01 6.251946e+00 1.313175e+01 0 -1 0 1.360208e-01 -2.950456e-01 -1.409243e-01 9.351934e-01
181 2 4 -1.969462e+01 6.431193e+00 1.344730e+01 0 -1 0 1.736124e-01 4.236008e-01 7.852521e-03 -8.890216e-01
182 2 2 1.989635e+01 6.506872e+00 1.365997e+01 -1 -1 0 2.460406e-01 4.873058e-01 -1.635891e-01 -8.217273e-01
183 2 3 1.942603e+01 6.688983e+00 1.364135e+01 -1 -1 0 4.311117e-01 4.480557e-01 -3.265277e-01 -7.118767e-01
184 2 4 1.889290e+01 6.671856e+00 1.354318e+01 -1 -1 0 6.763125e-01 3.863293e-01 -4.554387e-01 -4.311921e-01
185 2 3 1.845673e+01 6.462442e+00 1.360195e+01 -1 -1 0 7.731405e-01 3.569128e-01 -4.752840e-01 -2.212964e-01
186 2 1 1.807769e+01 6.139700e+00 1.362999e+01 -1 -1 0 8.648101e-01 1.672922e-01 -4.721433e-01 3.460493e-02
187 2 1 1.786307e+01 5.691810e+00 1.388332e+01 -1 -1 0 7.938945e-01 -4.948504e-02 -5.236309e-01 3.051122e-01
188 2 2 1.757637e+01 5.347516e+00 1.429369e+01 -1 -1 0 7.286618e-01 -1.609044e-01 -4.023462e-01 5.303577e-01
189 2 4 1.738350e+01 5.273001e+00 1.481729e+01 -1 -1 0 6.279696e-01 -1.911275e-01 -1.985845e-01 7.277971e-01
190 2 4 1.735852e+01 5.427658e+00 1.526102e+01 -1 -1 0 -2.647387e-01 2.520168e-01 2.271911e-01 -9.026545e-01
191 2 1 1.694958e+01 5.480289e+00 1.576438e+01 -1 -1 0 -2.114571e-01 4.425505e-01 1.523897e-01 -8.580282e-01
192 2 4 1.664869e+01 5.804401e+00 1.600513e+01 -1 -1 0 8.525294e-02 4.580760e-01 6.982492e-02 -8.820560e-01
193 2 4 1.611171e+01 5.946573e+00 1.612718e+01 -1 -1 0 4.926788e-01 4.443960e-01 -1.544526e-01 -7.320684e-01
194 2 1 1.552231e+01 5.696505e+00 1.618556e+01 -1 -1 0 6.999438e-01 4.864101e-01 -1.584450e-01 -4.983765e-01
195 2 3 1.508217e+01 5.482733e+00 1.615243e+01 -1 -1 0 8.013887e-01 4.150612e-01 -3.041616e-01 -3.049361e-01
196 2 4 1.479416e+01 5.062827e+00 1.609239e+01 -1 -1 0 8.419580e-01 3.441316e-01 -4.127083e-01 -4.849763e-02
197 2 2 1.461721e+01 4.555497e+00 1.619613e+01 -1 -1 0 8.050167e-01 2.426162e-01 -4.552169e-01 2.930240e-01
198 2 4 1.453946e+01 4.067979e+00 1.646068e+01 -1 -1 0 7.561958e-01 2.523658e-01 -4.070093e-01 4.458956e-01
199 2 3 1.456068e+01 3.698046e+00 1.681963e+01 -1 -1 0 6.422632e-01 1.068826e-01 -3.841325e-01 6.546116e-01
200 2 4 1.463534e+01 3.617223e+00 1.723835e+01 -1 -1 0 -2.154696e-01 3.849186e-02 3.667376e-01 -9.042095e-01
