ITEM: TIMESTEP
63000000
ITEM: NUMBER OF ATOMS
200
ITEM: BOX BOUNDS pp pp pp
-2.0000000000000000e+01 2.0000000000000000e+01
-2.0000000000000000e+01 2.0000000000000000e+01
-2.0000000000000000e+01 2.0000000000000000e+01
ITEM: ATOMS id mol type x y z ix iy iz c_quat[1] c_quat[2] c_quat[3] c_quat[4]
1 1 1 1.463500e+01 6.150099e+00 4.940818e+00 -1 -1 0 8.219865e-01 1.500921e-01 -1.186165e-01 5.364147e-01
2 1 2 1.481493e+01 6.565394e+00 5.546703e+00 -1 -1 0 -8.018971e-01 1.923568e-02 1.494757e-01 -5.781419e-01
3 1 1 1.408504e+01 7.156688e+00 5.316155e+00 -1 -1 0 2.586902e-01 -5.267572e-01 -7.793264e-01 -2.196739e-01
4 1 3 1.467684e+01 7.645626e+00 4.590690e+00 -1 -1 0 -5.816677e-01 -7.474884e-01 1.849890e-01 2.621122e-01
5 1 1 1.453633e+01 7.361882e+00 4.223139e+00 -1 -1 0 -7.490486e-01 -3.752661e-01 5.413710e-01 7.084489e-02
6 1 2 1.386507e+01 7.765011e+00 3.896214e+00 -1 -1 0 -6.625105e-01 6.485575e-02 6.973911e-01 2.655547e-01
7 1 4 1.442148e+01 8.756549e+00 3.872263e+00 -1 -1 0 3.567259e-01 -6.215108e-01 3.064002e-01 6.265699e-01
8 1 1 1.413268e+01 9.141389e+00 5.104528e+00 -1 -1 0 -6.424987e-01 7.579864e-01 6.668221e-02 9.058416e-02
9 1 1 1.398745e+01 1.014988e+01 4.971648e+00 -1 -1 0 -4.949943e-01 -2.810459e-01 -5.582919e-02 -8.202908e-01
10 1 4 1.359691e+01 9.231734e+00 5.925510e+00 -1 -1 0 -4.251127e-01 3.478084e-01 -6.015117e-01 5.800795e-01
11 1 1 1.280807e+01 9.548703e+00 6.329724e+00 -1 -1 0 -1.694458e-01 -1.461569e-01 -5.414084e-01 8.104339e-01
12 1 1 1.259677e+01 9.126913e+00 6.563310e+00 -1 -1 0 -5.609942e-01 -3.236037e-01 -5.055689e-01 5.700581e-01
13 1 3 1.337938e+01 9.447072e+00 6.935983e+00 -1 -1 0 1.305634e-01 5.549413e-01 -8.058011e-01 -1.602434e-01
14 1 4 1.328697e+01 9.183996e+00 7.526562e+00 -1 -1 0 8.724788e-01 -3.326773e-01 2.914428e-01 2.077683e-01
15 1 4 1.371419e+01 9.325344e+00 7.778733e+00 -1 -1 0 7.123387e-01 -1.586696e-01 3.749022e-01 5.717044e-01
16 1 2 1.376861e+01 9.978051e+00 8.965427e+00 -1 -1 0 -2.419953e-01 -4.368797e-01 2.451302e-01 -8.309546e-01
17 1 1 1.413726e+01 9.988969e+00 9.270109e+00 -1 -1 0 -1.669401e-01 3.489504e-01 -3.063562e-01 8.697761e-01
18 1 2 1.439099e+01 1.006768e+01 9.687326e+00 -1 -1 0 -4.827130e-01 3.243896e-01 -4.043657e-01 7.058668e-01
19 1 3 1.458448e+01 9.905356e+00 1.004850e+01 -1 -1 0 8.048725e-01 -8.757556e-02 4.653937e-01 -3.576584e-01
20 1 1 1.404615e+01 1.076374e+01 1.091150e+01 -1 -1 0 9.900938e-02 -5.446281e-01 -8.327930e-01 5.760414e-03
21 1 4 1.424434e+01 1.084283e+01 1.188639e+01 -1 -1 0 -5.709958e-01 6.571466e-01 4.794694e-01 1.105949e-01
22 1 1 1.494671e+01 1.136974e+01 1.107485e+01 -1 -1 0 -8.641116e-01 9.782908e-02 -4.298532e-01 -2.428308e-01
23 1 4 1.462630e+01 1.250182e+01 1.211963e+01 -1 -1 0 6.416103e-01 -5.087065e-01 -3.667641e-01 4.416310e-01
24 1 3 1.441129e+01 1.270406e+01 1.255290e+01 -1 -1 0 3.820231e-01 -5.722461e-01 -1.454826e-01 7.109343e-01
25 1 3 1.440155e+01 1.166526e+01 1.337651e+01 -1 -1 0 -4.323454e-01 1.353309e-01 -7.125719e-01 5.357278e-01
26 1 4 1.574036e+01 1.145576e+01 1.302234e+01 -1 -1 0 9.064003e-01 -2.396555e-01 3.374163e-01 8.458159e-02
27 1 4 1.619212e+01 1.150137e+01 1.324413e+01 -1 -1 0 -8.831376e-01 2.236484e-02 -4.685561e-01 -4.787032e-03
28 1 1 1.708140e+01 1.189173e+01 1.323626e+01 -1 -1 0 6.096101e-01 6.293464e-01 -3.002474e-01 3.770280e-01
29 1 1 1.741485e+01 1.162749e+01 1.309237e+01 -1 -1 0 -3.309553e-01 -5.707749e-01 5.061672e-01 -5.554092e-01
30 1 4 1.631598e+01 1.104673e+01 1.219954e+01 -1 -1 0 3.557132e-01 1.397498e-01 8.543900e-01 -3.520737e-01
31 1 4 1.678402e+01 1.080164e+01 1.144729e+01 -1 -1 0 3.398558e-01 2.233493e-01 -8.702379e-01 -2.780271e-01
32 1 3 1.734704e+01 1.157925e+01 1.036091e+01 -1 -1 0 -4.818486e-01 2.557504e-01 -6.752784e-01 -4.963998e-01
33 1 3 1.768490e+01 1.188834e+01 1.021205e+01 -1 -1 0 2.751320e-01 5.684025e-02 7.009962e-01 6.554967e-01
34 1 1 1.796096e+01 1.292291e+01 1.125099e+01 -1 -1 0 1.937447e-01 -8.671675e-01 -4.144542e-01 -1.967518e-01
35 1 2 1.894973e+01 1.331347e+01 1.098109e+01 -1 -1 0 1.097207e-01 9.405294e-01 1.852572e-01 2.627651e-01
36 1 2 1.921784e+01 1.345319e+01 1.058904e+01 -1 -1 0 -2.570370e-02 -9.360630e-01 8.764804e-02 -3.397693e-01
37 1 1 1.963992e+01 1.364890e+01 1.027928e+01 -1 -1 0 -1.278049e-01 8.544311e-01 -2.691695e-01 4.256302e-01
38 1 1 -1.977256e+01 1.378205e+01 1.025773e+01 0 -1 0 2.423264e-01 -6.866943e-01 5.431150e-01 -4.180370e-01
39 1 4 -1.921554e+01 1.368519e+01 1.021367e+01 0 -1 0 -3.165616e-01 4.043209e-01 -7.595433e-01 3.992585e-01
40 1 4 -1.867889e+01 1.342659e+01 1.022838e+01 0 -1 0 -3.647841e-01 2.253461e-01 -8.601319e-01 2.762694e-01
41 1 2 -1.831082e+01 1.308387e+01 9.970517e+00 0 -1 0 -3.068044e-01 -1.089151e-01 -9.320399e-01 1.590915e-01
42 1 4 -1.822362e+01 1.268720e+01 9.614381e+00 0 -1 0 -2.544080e-01 -3.816153e-01 -8.713757e-01 1.742146e-01
43 1 3 -1.834607e+01 1.240602e+01 9.207727e+00 0 -1 0 -2.704767e-01 -6.599672e-01 -7.002391e-01 -3.083404e-02
44 1 2 -1.835919e+01 1.233208e+01 8.681884e+00 0 -1 0 -2.155489e-01 -8.203832e-01 -4.879647e-01 -2.059140e-01
45 1 1 -1.817091e+01 1.236589e+01 8.182128e+00 0 -1 0 -1.166101e-01 -8.812750e-01 -3.211734e-01 -3.265029e-01
46 1 3 -1.801347e+01 1.264468e+01 7.742642e+00 0 -1 0 -7.134518e-02 -9.396321e-01 3.661685e-03 -3.346459e-01
47 1 4 -1.770340e+01 1.305084e+01 7.553943e+00 0 -1 0 1.266674e-01 -9.232646e-01 2.672205e-01 -2.452163e-01
48 1 1 -1.727698e+01 1.317902e+01 7.239894e+00 0 -1 0 -2.048042e-01 7.991077e-01 -4.783923e-01 3.010364e-01
49 1 4 -1.673123e+01 1.325490e+01 7.177978e+00 0 -1 0 -2.893885e-01 5.975108e-01 -6.995645e-01 2.642813e-01
50 1 4 -1.625924e+01 1.321980e+01 7.063159e+00 0 -1 0 -3.455902e-01 4.333456e-01 -7.292637e-01 4.011901e-01
51 1 4 -1.583363e+01 1.300086e+01 7.087095e+00 0 -1 0 -4.466521e-01 1.362342e-01 -8.643817e-01 1.865109e-01
52 1 1 -1.558194e+01 1.254454e+01 6.831490e+00 0 -1 0 -4.253792e-01 -1.387605e-01 -8.943135e-01 1.152697e-03
53 1 3 -1.537405e+01 1.215823e+01 6.485070e+00 0 -1 0 3.795098e-01 4.424523e-01 7.999020e-01 1.427059e-01
54 1 4 -1.528683e+01 1.198797e+01 5.950992e+00 0 -1 0 -2.088918e-01 -6.721577e-01 -6.991064e-01 -1.257716e-01
55 1 4 -1.523144e+01 1.206491e+01 5.333962e+00 0 -1 0 -1.378774e-01 -7.569925e-01 -5.833354e-01 -2.601383e-01
56 1 4 -1.520836e+01 1.232370e+01 4.855331e+00 0 -1 0 5.887487e-03 -9.045843e-01 -2.845142e-01 -3.174024e-01
57 1 1 -1.493836e+01 1.271116e+01 4.542728e+00 0 -1 0 2.083381e-01 -9.080215e-01 -4.103098e-02 -3.611214e-01
58 1 1 -1.446454e+01 1.314700e+01 4.469011e+00 0 -1 0 2.518003e-01 -8.112549e-01 3.395045e-01 -4.039786e-01
59 1 3 -1.399552e+01 1.332931e+01 4.472158e+00 0 -1 0 -4.286959e-01 6.480582e-01 -5.906413e-01 2.176768e-01
60 1 4 -1.337201e+01 1.332310e+01 4.317376e+00 0 -1 0 -3.388160e-01 4.847196e-01 -8.008150e-01 9.458363e-02
61 1 2 -1.292228e+01 1.306837e+01 4.137279e+00 0 -1 0 -4.106137e-01 2.714227e-01 -8.703633e-01 1.391892e-02
62 1 3 -1.255876e+01 1.281824e+01 3.923673e+00 0 -1 0 -4.279393e-01 -3.787846e-02 -8.951686e-01 -1.187701e-01
63 1 2 -1.222202e+01 1.273315e+01 3.562613e+00 0 -1 0 -3.385996e-01 -2.204190e-01 -8.930184e-01 -1.982016e-01
64 1 4 -1.208284e+01 1.260542e+01 3.089799e+00 0 -1 0 -2.321055e-01 -5.369525e-01 -7.796909e-01 -2.233634e-01
65 1 2 -1.199932e+01 1.260581e+01 2.549117e+00 0 -1 0 -1.652262e-01 -6.870405e-01 -6.319061e-01 -3.183871e-01
66 1 1 -1.197557e+01 1.272378e+01 2.039209e+00 0 -1 0 -2.855652e-02 -8.259091e-01 -4.682182e-01 -3.127786e-01
67 1 2 -1.202258e+01 1.315443e+01 1.719346e+00 0 -1 0 2.368446e-01 -9.171200e-01 -2.010429e-01 -2.497545e-01
68 1 1 -1.195646e+01 1.363590e+01 1.401451e+00 0 -1 0 3.302151e-01 -9.112075e-01 9.569101e-02 -2.269406e-01
69 1 1 -1.163038e+01 1.397205e+01 1.177503e+00 0 -1 0 3.952701e-01 -8.293244e-01 2.732737e-01 -2.851387e-01
70 1 2 -1.110265e+01 1.417834e+01 1.140375e+00 0 -1 0 -3.953022e-01 6.316636e-01 -6.600507e-01 9.523845e-02
71 1 3 -1.071661e+01 1.428952e+01 7.083956e-01 0 -1 0 -3.085544e-01 5.493113e-01 -7.510917e-01 1.972627e-01
72 1 4 -1.030360e+01 1.412429e+01 3.569490e-01 0 -1 0 -2.371816e-01 2.691392e-01 -9.278695e-01 1.018194e-01
73 1 1 -1.011172e+01 1.387476e+01 8.550273e-03 0 -1 0 -1.993030e-01 -2.022246e-02 -9.761415e-01 8.376816e-02
74 1 1 -1.001386e+01 1.355582e+01 -4.077621e-01 0 -1 0 -1.443195e-01 -2.430919e-01 -9.551784e-01 8.781994e-02
75 1 3 -1.014839e+01 1.324531e+01 -7.803205e-01 0 -1 0 -2.093305e-01 -4.875115e-01 -8.445453e-01 7.250196e-02
76 1 1 -1.036478e+01 1.301882e+01 -1.213269e+00 0 -1 0 -1.017395e-01 -7.266908e-01 -6.779683e-01 4.391521e-02
77 1 4 -1.068540e+01 1.300808e+01 -1.738712e+00 0 -1 0 -8.779990e-02 -8.732502e-01 -4.784031e-01 -2.925117e-02
78 1 1 -1.073130e+01 1.317566e+01 -2.240810e+00 0 -1 0 -8.620980e-02 -9.701182e-01 -1.952080e-01 -1.154658e-01
79 1 4 -1.057647e+01 1.344832e+01 -2.702659e+00 0 -1 0 6.193614e-02 -9.680859e-01 1.518163e-01 -1.895399e-01
80 1 2 -1.031684e+01 1.371677e+01 -3.072341e+00 0 -1 0 -1.525800e-01 8.793528e-01 -3.745950e-01 2.512699e-01
81 1 4 -9.893517e+00 1.393716e+01 -3.241713e+00 0 -1 0 3.686912e-01 -7.450357e-01 5.110846e-01 -2.185889e-01
82 1 4 -9.351498e+00 1.394688e+01 -3.404759e+00 0 -1 0 3.144374e-01 -5.265335e-01 7.763769e-01 -1.453635e-01
83 1 4 -8.889734e+00 1.385359e+01 -3.699118e+00 0 -1 0 2.805163e-01 -3.025657e-01 9.070978e-01 -8.329591e-02
84 1 4 -8.530057e+00 1.358699e+01 -3.993159e+00 0 -1 0 -3.043709e-01 2.208257e-02 -9.440336e-01 1.251851e-01
85 1 1 -8.372731e+00 1.318886e+01 -4.410263e+00 0 -1 0 2.014989e-01 3.091814e-01 9.204381e-01 -1.288360e-01
86 1 1 -8.439188e+00 1.280340e+01 -4.802249e+00 0 -1 0 -1.430302e-01 -5.888770e-01 -7.901641e-01 9.168947e-02
87 1 3 -7.368951e+00 1.192492e+01 -4.212020e+00 0 -1 0 8.050369e-01 -1.522049e-01 -4.995116e-01 -2.814915e-01
88 1 2 -7.130190e+00 1.166676e+01 -3.495063e+00 0 -1 0 -8.826912e-01 1.888910e-01 4.300614e-01 1.495417e-02
89 1 2 -6.390557e+00 1.138226e+01 -3.684578e+00 0 -1 0 5.866061e-01 -6.118016e-01 3.895703e-01 3.603153e-01
90 1 3 -6.457874e+00 1.136055e+01 -4.349322e+00 0 -1 0 5.798190e-02 1.693715e-01 -4.865191e-01 -8.551319e-01
91 1 3 -5.287394e+00 1.156547e+01 -4.184677e+00 0 -1 0 6.759073e-01 -2.291898e-01 5.273025e-01 4.610569e-01
92 1 2 -4.820596e+00 1.171950e+01 -4.092894e+00 0 -1 0 4.651954e-01 -2.911686e-02 4.811119e-01 7.424801e-01
93 1 1 -4.413723e+00 1.207485e+01 -4.115546e+00 0 -1 0 2.349891e-01 1.929350e-01 3.773529e-01 8.747348e-01
94 1 2 -4.253378e+00 1.245648e+01 -4.099055e+00 0 -1 0 -1.280038e-01 4.107754e-01 2.023218e-01 8.797411e-01
95 1 3 -4.051575e+00 1.285065e+01 -3.817530e+00 0 -1 0 3.696217e-01 -3.806181e-01 -2.725139e-03 -8.476451e-01
96 1 2 -3.982378e+00 1.308260e+01 -3.447329e+00 0 -1 0 -6.836315e-01 2.881834e-01 -1.050258e-01 6.622446e-01
97 1 2 -4.314816e+00 1.397271e+01 -3.667311e+00 0 -1 0 -5.043910e-01 -3.587683e-01 -7.364950e-01 -2.728557e-01
98 1 4 -4.544061e+00 1.467274e+01 -3.231105e+00 0 -1 0 1.331835e-01 8.416302e-01 -4.512940e-02 5.214250e-01
99 1 2 -5.029994e+00 1.512511e+01 -3.807720e+00 0 -1 0 2.198865e-01 -6.716230e-01 -5.798022e-01 -4.054650e-01
100 1 1 -5.616735e+00 1.422904e+01 -4.339380e+00 0 -1 0 -8.256450e-01 -9.956481e-02 -2.502164e-01 4.957711e-01
101 2 4 -5.481678e+00 1.626701e+01 -8.206454e+00 0 -1 0 6.451726e-02 -4.612318e-02 -7.525298e-01 6.537653e-01
102 2 3 -5.810445e+00 1.587419e+01 -8.048117e+00 0 -1 0 3.699368e-01 3.519510e-01 6.789232e-01 -5.275799e-01
103 2 1 -5.977189e+00 1.551843e+01 -8.087750e+00 0 -1 0 -6.159620e-01 -5.813839e-01 -4.351829e-01 3.052857e-01
104 2 3 -6.182658e+00 1.506828e+01 -8.291992e+00 0 -1 0 7.206321e-01 6.809443e-01 1.296205e-01 1.423967e-02
105 2 3 -6.130629e+00 1.477104e+01 -8.634681e+00 0 -1 0 5.661050e-01 7.411626e-01 -2.766146e-01 2.317056e-01
106 2 2 -6.050873e+00 1.377553e+01 -8.061016e+00 0 -1 0 -9.719485e-01 4.507940e-02 2.308329e-01 2.418384e-04
107 2 3 -6.259575e+00 1.413713e+01 -7.824728e+00 0 -1 0 -8.372043e-01 -5.247339e-01 1.472509e-01 -4.539307e-02
108 2 4 -7.082292e+00 1.376079e+01 -6.505585e+00 0 -1 0 5.430118e-01 1.905072e-02 -8.183404e-01 1.873344e-01
109 2 3 -7.492550e+00 1.344710e+01 -6.494351e+00 0 -1 0 -3.812883e-01 2.859549e-01 8.010209e-01 -3.622355e-01
110 2 2 -7.710980e+00 1.371600e+01 -6.515966e+00 0 -1 0 -6.674610e-01 -8.652008e-02 7.115367e-01 -2.018058e-01
111 2 2 -7.981334e+00 1.329753e+01 -6.504166e+00 0 -1 0 -5.786061e-01 1.982071e-01 7.051510e-01 -3.587352e-01
112 2 3 -8.347173e+00 1.420944e+01 -6.600176e+00 0 -1 0 5.850765e-01 -4.021766e-01 -3.154729e-01 6.296160e-01
113 2 3 -8.759794e+00 1.428382e+01 -6.291764e+00 0 -1 0 -6.267825e-01 4.338057e-01 1.455651e-01 -6.306878e-01
114 2 2 -8.638265e+00 1.362568e+01 -5.681937e+00 0 -1 0 8.477864e-01 -9.905905e-02 -3.812490e-01 -3.550982e-01
115 2 4 -8.896953e+00 1.381488e+01 -5.253370e+00 0 -1 0 -8.419937e-01 -4.908161e-02 2.353983e-01 4.829340e-01
116 2 4 -9.221047e+00 1.374505e+01 -5.037122e+00 0 -1 0 -9.209770e-01 -4.171994e-02 3.586596e-01 1.463698e-01
117 2 1 -9.523800e+00 1.347242e+01 -4.696619e+00 0 -1 0 -9.403475e-01 -6.724453e-02 3.204110e-01 -9.252872e-02
118 2 1 -9.579456e+00 1.307383e+01 -4.357686e+00 0 -1 0 -8.551826e-01 -4.063633e-02 3.028670e-01 -4.186680e-01
119 2 1 -9.596217e+00 1.283148e+01 -3.815813e+00 0 -1 0 7.789280e-01 -2.173921e-02 -2.506455e-01 5.744348e-01
120 2 1 -9.547668e+00 1.278345e+01 -3.314291e+00 0 -1 0 6.031933e-01 -8.066071e-02 -1.447268e-01 7.801961e-01
121 2 3 -9.555157e+00 1.284504e+01 -2.724501e+00 0 -1 0 4.037162e-01 -1.854764e-01 -3.951665e-02 8.950140e-01
122 2 1 -9.538229e+00 1.311246e+01 -2.316739e+00 0 -1 0 7.277552e-02 -1.878373e-01 4.267719e-02 9.785701e-01
123 2 4 -9.680281e+00 1.357922e+01 -1.994944e+00 0 -1 0 -1.017608e-01 -1.418778e-01 1.600457e-01 9.715456e-01
124 2 1 -9.912921e+00 1.394510e+01 -1.840872e+00 0 -1 0 -4.247351e-01 -2.973149e-02 3.043201e-01 8.521182e-01
125 2 4 -1.027444e+01 1.418871e+01 -1.521335e+00 0 -1 0 -6.575102e-01 -4.896382e-02 2.940655e-01 6.919597e-01
126 2 2 -1.076007e+01 1.421953e+01 -1.217267e+00 0 -1 0 -8.725572e-01 -5.630587e-02 2.132401e-01 4.358925e-01
127 2 4 -1.107675e+01 1.414242e+01 -7.342906e-01 0 -1 0 -9.299316e-01 -1.169633e-01 1.252089e-01 3.253762e-01
128 2 4 -1.125489e+01 1.385701e+01 -4.603801e-01 0 -1 0 -9.718363e-01 -6.911951e-02 2.228474e-01 -3.310298e-02
129 2 1 -1.125777e+01 1.359038e+01 -5.338640e-02 0 -1 0 -9.493887e-01 -3.567823e-02 1.678045e-01 -2.631154e-01
130 2 2 -1.105989e+01 1.323944e+01 2.861442e-01 0 -1 0 -8.167709e-01 -3.223015e-02 2.333312e-01 -5.266907e-01
131 2 3 -1.084820e+01 1.303104e+01 7.974996e-01 0 -1 0 -5.832407e-01 5.136607e-02 2.502803e-01 -7.710717e-01
132 2 4 -1.076428e+01 1.309811e+01 1.384888e+00 0 -1 0 3.693429e-01 -1.878266e-01 -2.313742e-01 8.802119e-01
133 2 4 -1.091082e+01 1.333182e+01 1.941673e+00 0 -1 0 9.693235e-02 -2.808844e-01 -9.917740e-02 9.496694e-01
134 2 3 -1.112232e+01 1.355830e+01 2.400929e+00 0 -1 0 -2.004235e-01 -3.413086e-01 2.561041e-03 9.183313e-01
135 2 4 -1.152940e+01 1.363048e+01 2.680520e+00 0 -1 0 3.661240e-01 4.263002e-01 -1.716637e-01 -8.091680e-01
136 2 3 -1.201303e+01 1.374645e+01 2.677589e+00 0 -1 0 6.400083e-01 3.014060e-01 -3.189200e-01 -6.307407e-01
137 2 1 -1.250615e+01 1.371464e+01 2.837009e+00 0 -1 0 -7.509636e-01 -3.495942e-01 3.142943e-01 4.637421e-01
138 2 3 -1.287025e+01 1.340423e+01 2.917702e+00 0 -1 0 -8.244264e-01 -2.700749e-01 4.705113e-01 1.612446e-01
139 2 2 -1.338316e+01 1.303724e+01 3.055607e+00 0 -1 0 -8.986115e-01 -2.082141e-01 3.856602e-01 2.026014e-02
140 2 3 -1.360015e+01 1.260574e+01 3.301933e+00 0 -1 0 -8.882127e-01 1.434059e-02 4.171673e-01 -1.919478e-01
141 2 1 -1.378730e+01 1.231885e+01 3.789424e+00 0 -1 0 -8.177071e-01 1.358020e-01 3.231422e-01 -4.566093e-01
142 2 2 -1.385927e+01 1.218640e+01 4.337168e+00 0 -1 0 -7.081905e-01 1.093260e-01 1.163292e-01 -6.877366e-01
143 2 4 -1.380275e+01 1.224340e+01 4.947719e+00 0 -1 0 3.323517e-01 -2.199871e-01 -8.203549e-02 9.134650e-01
144 2 4 -1.404354e+01 1.261277e+01 5.348032e+00 0 -1 0 2.707972e-02 3.316969e-01 3.599060e-02 -9.423102e-01
145 2 1 -1.440197e+01 1.275951e+01 5.682373e+00 0 -1 0 7.875296e-02 4.586586e-01 -8.528852e-02 -8.809972e-01
146 2 1 -1.482229e+01 1.307917e+01 5.804816e+00 0 -1 0 3.778780e-01 3.982638e-01 -2.406867e-01 -8.004149e-01
147 2 1 -1.527788e+01 1.317588e+01 5.768848e+00 0 -1 0 6.099598e-01 3.496504e-01 -4.699274e-01 -5.337245e-01
148 2 2 -1.584019e+01 1.305818e+01 5.803343e+00 0 -1 0 8.093766e-01 2.437597e-01 -4.451260e-01 -2.955565e-01
149 2 4 -1.634170e+01 1.278381e+01 5.954508e+00 0 -1 0 -9.106257e-01 -8.899130e-02 4.008594e-01 4.640244e-02
150 2 1 -1.668644e+01 1.253451e+01 6.299705e+00 0 -1 0 -9.314486e-01 -4.254991e-03 3.318592e-01 -1.491806e-01
151 2 1 -1.675927e+01 1.220815e+01 6.677615e+00 0 -1 0 -8.218206e-01 1.910961e-01 2.817367e-01 -4.568563e-01
152 2 1 -1.684634e+01 1.202695e+01 7.132087e+00 0 -1 0 -6.806687e-01 2.222773e-01 1.854240e-01 -6.729791e-01
153 2 4 -1.681502e+01 1.219059e+01 7.702193e+00 0 -1 0 -4.842779e-01 2.796257e-01 3.222724e-02 -8.283995e-01
154 2 1 -1.679558e+01 1.255537e+01 8.054094e+00 0 -1 0 -1.108513e-01 2.203023e-01 -9.104516e-02 -9.648262e-01
155 2 2 -1.709013e+01 1.281301e+01 8.506419e+00 0 -1 0 6.655442e-02 3.229115e-01 -1.182748e-01 -9.366481e-01
156 2 4 -1.747900e+01 1.314091e+01 8.775971e+00 0 -1 0 2.523331e-01 4.019371e-01 -2.593403e-01 -8.411404e-01
157 2 3 -1.785562e+01 1.339303e+01 8.839101e+00 0 -1 0 4.572284e-01 3.075292e-01 -3.942257e-01 -7.354958e-01
158 2 2 -1.833853e+01 1.352788e+01 8.706660e+00 0 -1 0 6.871492e-01 1.172460e-01 -4.545256e-01 -5.545141e-01
159 2 1 -1.888481e+01 1.336183e+01 8.893951e+00 0 -1 0 8.672028e-01 5.732890e-03 -3.881966e-01 -3.118168e-01
160 2 3 -1.926319e+01 1.322302e+01 9.269549e+00 0 -1 0 -9.375525e-01 1.016462e-01 3.284058e-01 5.303751e-02
161 2 1 -1.943378e+01 1.293106e+01 9.603760e+00 0 -1 0 -8.788772e-01 6.390416e-02 3.711778e-01 -2.927767e-01
162 2 1 -1.960143e+01 1.260619e+01 1.004942e+01 0 -1 0 -7.995372e-01 1.621132e-01 2.726450e-01 -5.100237e-01
163 2 4 -1.968627e+01 1.263984e+01 1.057400e+01 0 -1 0 -5.707042e-01 2.923328e-01 1.305607e-01 -7.561694e-01
164 2 4 -1.985897e+01 1.285552e+01 1.108352e+01 0 -1 0 -4.899347e-01 3.488711e-01 -5.632333e-02 -7.969195e-01
165 2 3 2.010972e+01 1.330323e+01 1.139795e+01 -1 -1 0 2.076150e-01 -3.123652e-01 2.683314e-01 8.873118e-01
166 2 3 1.995626e+01 1.383823e+01 1.160607e+01 -1 -1 0 -1.108103e-01 -2.574925e-01 2.838077e-01 9.169907e-01
167 2 4 1.962717e+01 1.433207e+01 1.176986e+01 -1 -1 0 4.418899e-01 1.234939e-01 -3.796441e-01 -8.033386e-01
168 2 2 1.925084e+01 1.471573e+01 1.196012e+01 -1 -1 0 -5.408444e-01 -3.380342e-01 4.083597e-01 6.530410e-01
169 2 2 1.873344e+01 1.482636e+01 1.188968e+01 -1 -1 0 -7.662055e-01 -6.117051e-02 4.972867e-01 4.023596e-01
170 2 1 1.811805e+01 1.505678e+01 1.212260e+01 -1 -1 0 -2.991105e-01 1.893642e-01 -9.134503e-01 2.007055e-01
171 2 1 1.742555e+01 1.490913e+01 1.143802e+01 -1 -1 0 -3.105641e-01 -5.877501e-02 5.519186e-01 7.716743e-01
172 2 4 1.736322e+01 1.605294e+01 1.140797e+01 -1 -1 0 -1.934671e-01 7.117070e-01 3.550210e-01 -5.744594e-01
173 2 4 1.723891e+01 1.634756e+01 1.119675e+01 -1 -1 0 5.099099e-01 5.268128e-01 5.476208e-01 -4.032017e-01
174 2 1 1.698781e+01 1.615744e+01 1.118341e+01 -1 -1 0 9.342500e-01 6.911433e-02 3.333657e-01 -1.061482e-01
175 2 1 1.669907e+01 1.679666e+01 1.157047e+01 -1 -1 0 -5.470241e-01 7.092631e-01 -3.521042e-01 -2.715384e-01
176 2 2 1.596099e+01 1.704741e+01 1.227523e+01 -1 -1 0 8.684244e-01 -4.647875e-01 -4.261283e-02 1.673194e-01
177 2 2 1.529476e+01 1.663269e+01 1.211246e+01 -1 -1 0 -9.853601e-03 4.747089e-01 4.709433e-01 -7.434829e-01
178 2 1 1.478385e+01 1.641408e+01 1.222964e+01 -1 -1 0 -1.486813e-02 6.555384e-01 2.820208e-01 -7.003661e-01
179 2 4 1.468960e+01 1.528654e+01 1.284128e+01 -1 -1 0 -6.925493e-01 -2.277825e-01 -6.542277e-02 6.813300e-01
180 2 1 1.565833e+01 1.626667e+01 1.343626e+01 -1 -1 0 4.968291e-01 -2.384774e-01 7.008826e-02 8.314908e-01
181 2 4 1.538444e+01 1.650369e+01 1.391863e+01 -1 -1 0 3.205928e-01 -4.658243e-01 6.513027e-02 8.221837e-01
182 2 2 1.531667e+01 1.572666e+01 1.511415e+01 -1 -1 0 -3.561415e-01 3.232673e-01 8.766719e-01 1.038831e-02
183 2 3 1.592274e+01 1.543435e+01 1.573978e+01 -1 -1 0 6.009336e-01 -7.527660e-01 2.500105e-01 -9.857497e-02
184 2 4 1.447550e+01 1.527691e+01 1.492242e+01 -1 -1 0 -1.460981e-01 4.956098e-02 7.708901e-01 6.180028e-01
185 2 3 1.431613e+01 1.592271e+01 1.496439e+01 -1 -1 0 -2.652044e-01 -9.364671e-01 -2.031548e-01 1.068839e-01
186 2 1 1.378212e+01 1.530618e+01 1.603389e+01 -1 -1 0 6.313569e-01 -1.055427e-01 4.361122e-01 -6.324993e-01
187 2 1 1.403333e+01 1.614724e+01 1.665191e+01 -1 -1 0 1.936105e-01 7.633422e-01 3.436972e-01 5.115623e-01
188 2 2 1.402776e+01 1.531366e+01 1.722477e+01 -1 -1 0 9.838078e-01 1.178638e-01 -2.943531e-03 -1.349876e-01
189 2 4 1.405290e+01 1.503178e+01 1.762591e+01 -1 -1 0 9.769907e-01 3.047151e-02 2.119228e-02 2.100276e-01
190 2 4 1.429862e+01 1.491734e+01 1.807277e+01 -1 -1 0 7.891926e-01 3.752527e-02 1.558697e-01 5.928504e-01
191 2 1 1.477723e+01 1.495558e+01 1.827851e+01 -1 -1 0 -5.072233e-01 -1.017184e-01 -4.271819e-02 -8.547239e-01
192 2 4 1.500988e+01 1.525099e+01 1.862689e+01 -1 -1 0 4.892618e-02 1.732091e-01 3.054015e-02 9.831949e-01
193 2 4 1.450813e+01 1.520733e+01 1.910472e+01 -1 -1 0 3.614912e-01 3.183407e-02 6.259172e-01 -6.903176e-01
194 2 1 1.406986e+01 1.572214e+01 1.919636e+01 -1 -1 0 -2.607410e-01 -2.797905e-01 8.150438e-03 9.239399e-01
195 2 3 1.363891e+01 1.585611e+01 1.930277e+01 -1 -1 0 -4.189180e-01 -2.062418e-01 -8.715489e-01 -1.495809e-01
196 2 4 1.418658e+01 1.676898e+01 -1.976474e+01 -1 -1 1 4.448749e-02 6.023703e-01 2.047532e-01 7.702253e-01
197 2 2 1.483612e+01 1.593791e+01 1.978567e+01 -1 -1 0 -4.859236e-01 -8.537932e-01 -1.868293e-01 3.195752e-03
198 2 4 1.565241e+01 1.582394e+01 1.942320e+01 -1 -1 0 -5.267838e-01 -8.176536e-01 1.363024e-01 1.880508e-01
199 2 3 1.569089e+01 1.603886e+01 -1.976703e+01 -1 -1 1 3.280991e-01 1.436521e-01 -9.335213e-01 1.590816e-02
200 2 4 1.579165e+01 1.653375e+01 -1.881329e+01 -1 -1 1 -8.791321e-01 1.253278e-01 4.523065e-01 -8.269486e-02
