ITEM: TIMESTEP
69000000
ITEM: NUMBER OF ATOMS
200
ITEM: BOX BOUNDS pp pp pp
-2.0000000000000000e+01 2.0000000000000000e+01
-2.0000000000000000e+01 2.0000000000000000e+01
-2.0000000000000000e+01 2.0000000000000000e+01
ITEM: ATOMS id mol type x y z ix iy iz c_quat[1] c_quat[2] c_quat[3] c_quat[4]
1 1 1 1.792921e+01 3.086277e+00 4.354020e+00 -1 -1 0 8.971722e-01 2.635729e-01 2.413666e-01 2.595257e-01
2 1 2 1.748686e+01 3.521762e+00 4.884328e+00 -1 -1 0 6.394883e-01 -6.615324e-01 3.793746e-01 -9.749131e-02
3 1 1 1.619343e+01 4.565413e+00 5.001062e+00 -1 -1 0 -2.730448e-01 6.843004e-01 5.985857e-01 -3.144433e-01
4 1 3 1.643915e+01 4.113339e+00 3.590034e+00 -1 -1 0 -5.802933e-01 -7.203732e-01 -3.087890e-01 2.212952e-01
5 1 1 1.583698e+01 4.794912e+00 3.315735e+00 -1 -1 0 1.756415e-01 5.991819e-01 2.598599e-01 -7.366166e-01
6 1 2 1.655404e+01 5.216728e+00 3.478397e+00 -1 -1 0 2.580508e-01 -7.520341e-01 -1.618117e-01 -5.845267e-01
7 1 4 1.643731e+01 5.497326e+00 2.274555e+00 -1 -1 0 -3.048777e-01 6.140535e-01 -4.622791e-01 -5.623930e-01
8 1 1 1.648069e+01 5.979713e+00 2.174893e+00 -1 -1 0 -1.390901e-01 4.397964e-01 -6.568281e-01 -5.964980e-01
9 1 1 1.676169e+01 6.323181e+00 3.103203e+00 -1 -1 0 9.248815e-01 -1.088484e-01 -5.070570e-02 -3.607979e-01
10 1 4 1.660250e+01 6.133647e+00 3.572434e+00 -1 -1 0 -9.915440e-01 1.054707e-01 7.210969e-02 -2.272871e-02
11 1 1 1.644149e+01 6.796573e+00 3.698662e+00 -1 -1 0 5.742934e-01 7.990779e-01 1.601302e-02 -1.772149e-01
12 1 1 1.673796e+01 7.200315e+00 4.469839e+00 -1 -1 0 -5.872149e-01 4.032144e-01 -5.183480e-01 -4.731935e-01
13 1 3 1.711415e+01 7.602091e+00 4.345978e+00 -1 -1 0 -4.146707e-01 8.793968e-02 -5.898612e-01 -6.872980e-01
14 1 4 1.740042e+01 7.370101e+00 4.921535e+00 -1 -1 0 1.178658e-01 -6.304219e-01 -7.255935e-01 2.493792e-01
15 1 4 1.747347e+01 8.017146e+00 4.371388e+00 -1 -1 0 -2.057454e-01 -5.134092e-01 1.122096e-01 8.255233e-01
16 1 2 1.834961e+01 7.904278e+00 4.978989e+00 -1 -1 0 -2.646535e-01 5.458376e-01 -3.495395e-01 -7.140322e-01
17 1 1 1.869717e+01 8.716674e+00 5.400141e+00 -1 -1 0 8.143241e-01 -1.638860e-01 1.084101e-03 5.567912e-01
18 1 2 1.891015e+01 9.021995e+00 5.917457e+00 -1 -1 0 -9.089813e-01 1.203142e-01 -9.662072e-02 -3.872233e-01
19 1 3 1.837106e+01 9.365094e+00 6.164297e+00 -1 -1 0 6.821812e-01 1.016186e-01 7.211225e-01 6.545906e-02
20 1 1 1.860854e+01 9.991334e+00 6.786354e+00 -1 -1 0 -8.568689e-01 -2.747212e-01 -3.651426e-01 -2.386942e-01
21 1 4 1.758632e+01 9.763633e+00 8.035316e+00 -1 -1 0 -3.983313e-01 4.622098e-01 -5.470325e-01 5.731053e-01
22 1 1 1.794014e+01 9.461261e+00 8.183919e+00 -1 -1 0 -6.284317e-01 3.154311e-02 -7.421723e-01 2.307789e-01
23 1 4 1.818357e+01 9.072629e+00 8.269961e+00 -1 -1 0 -7.325954e-01 -2.367131e-01 -5.979640e-01 -2.229573e-01
24 1 3 1.860204e+01 9.129555e+00 8.386367e+00 -1 -1 0 4.952587e-01 -7.611898e-02 8.484006e-01 -1.707076e-01
25 1 3 1.887468e+01 9.669504e+00 8.944677e+00 -1 -1 0 -1.938402e-01 7.955853e-01 -3.355055e-01 -4.657317e-01
26 1 4 1.911518e+01 8.715097e+00 9.130337e+00 -1 -1 0 4.506076e-01 3.157353e-01 -7.535376e-01 -3.597849e-01
27 1 4 -1.985016e+01 9.473651e+00 9.214382e+00 0 -1 0 5.071139e-03 7.920587e-01 -2.608707e-01 -5.518730e-01
28 1 1 1.944663e+01 9.039547e+00 1.030363e+01 -1 -1 0 6.595232e-01 1.887497e-01 -6.905895e-01 -2.291046e-01
29 1 1 -1.999048e+01 1.010990e+01 1.039087e+01 0 -1 0 -5.016315e-01 8.197554e-01 -2.729336e-01 4.329177e-02
30 1 4 -1.952815e+01 1.046848e+01 1.034706e+01 0 -1 0 -5.188252e-01 6.274023e-01 -5.616131e-01 -1.475721e-01
31 1 4 1.989942e+01 1.113613e+01 9.718899e+00 -1 -1 0 1.558877e-01 2.203680e-01 -6.691447e-01 -6.923745e-01
32 1 3 -1.926838e+01 1.221720e+01 1.002844e+01 0 -1 0 -2.267020e-01 -9.588006e-01 -1.215864e-01 1.205173e-01
33 1 3 1.995406e+01 1.240226e+01 1.023015e+01 -1 -1 0 5.103542e-01 -3.731249e-01 -3.197811e-01 -7.057312e-01
34 1 1 -1.971952e+01 1.343743e+01 1.059904e+01 0 -1 0 -5.548545e-02 8.285840e-01 1.054820e-01 5.470315e-01
35 1 2 -1.926843e+01 1.376669e+01 1.053609e+01 0 -1 0 -2.476223e-01 7.313833e-01 -2.046681e-01 6.015585e-01
36 1 2 -1.879655e+01 1.402361e+01 1.070633e+01 0 -1 0 4.220698e-01 -6.235967e-01 3.991031e-01 -5.231643e-01
37 1 1 -1.831236e+01 1.413261e+01 1.092975e+01 0 -1 0 -5.575019e-01 4.568391e-01 -5.498961e-01 4.220236e-01
38 1 1 -1.776853e+01 1.395867e+01 1.120704e+01 0 -1 0 5.420613e-01 -3.298292e-01 7.195819e-01 -2.821065e-01
39 1 4 -1.732571e+01 1.372950e+01 1.116447e+01 0 -1 0 -5.430892e-01 1.073865e-01 -7.784619e-01 2.958365e-01
40 1 4 -1.702508e+01 1.332334e+01 1.117004e+01 0 -1 0 -6.199184e-01 -1.643247e-01 -7.667519e-01 2.810931e-02
41 1 2 -1.667655e+01 1.301134e+01 1.092331e+01 0 -1 0 -5.560885e-01 -4.075667e-01 -6.971068e-01 -1.967157e-01
42 1 4 -1.640092e+01 1.289523e+01 1.046026e+01 0 -1 0 -3.630176e-01 -6.072649e-01 -5.846204e-01 -3.970723e-01
43 1 3 -1.618454e+01 1.295469e+01 9.915983e+00 0 -1 0 -2.822798e-01 -7.223547e-01 -4.375527e-01 -4.550487e-01
44 1 2 -1.586643e+01 1.321509e+01 9.504293e+00 0 -1 0 -4.709476e-02 -7.747580e-01 -2.764821e-01 -5.666479e-01
45 1 1 -1.548004e+01 1.356794e+01 9.332618e+00 0 -1 0 1.314879e-01 -8.153932e-01 1.821734e-02 -5.634830e-01
46 1 3 -1.507254e+01 1.386075e+01 9.325083e+00 0 -1 0 3.441464e-01 -7.322468e-01 3.160940e-01 -4.954416e-01
47 1 4 -1.463542e+01 1.410483e+01 9.451159e+00 0 -1 0 5.048975e-01 -5.468465e-01 5.144994e-01 -4.258260e-01
48 1 1 -1.401540e+01 1.395020e+01 9.570486e+00 0 -1 0 -4.940182e-01 4.183532e-01 -6.658434e-01 3.709166e-01
49 1 4 -1.359022e+01 1.370081e+01 9.740635e+00 0 -1 0 -6.290641e-01 1.585415e-01 -7.497443e-01 1.304855e-01
50 1 4 -1.306944e+01 1.347961e+01 9.561120e+00 0 -1 0 -5.329779e-01 -5.670759e-02 -8.435556e-01 -3.365518e-02
51 1 4 -1.271266e+01 1.320350e+01 9.271153e+00 0 -1 0 -4.495122e-01 -2.765514e-01 -8.397760e-01 -1.274139e-01
52 1 1 -1.242884e+01 1.309988e+01 8.741650e+00 0 -1 0 -3.041625e-01 -5.068423e-01 -7.828733e-01 -1.941788e-01
53 1 3 -1.243071e+01 1.304196e+01 8.289986e+00 0 -1 0 1.600153e-01 7.342825e-01 6.245351e-01 2.125562e-01
54 1 4 -1.239754e+01 1.327213e+01 7.787544e+00 0 -1 0 3.077765e-02 -8.873397e-01 -3.921922e-01 -2.405540e-01
55 1 4 -1.233856e+01 1.370649e+01 7.470327e+00 0 -1 0 1.457000e-01 -9.516408e-01 -9.405383e-02 -2.535847e-01
56 1 4 -1.203023e+01 1.411869e+01 7.269824e+00 0 -1 0 3.089146e-01 -8.776576e-01 1.729876e-01 -3.230545e-01
57 1 1 -1.161048e+01 1.450914e+01 7.345986e+00 0 -1 0 4.308403e-01 -7.636845e-01 4.100401e-01 -2.510574e-01
58 1 1 -1.109520e+01 1.471964e+01 7.204444e+00 0 -1 0 4.330905e-01 -6.098512e-01 6.363065e-01 -1.887542e-01
59 1 3 -1.056074e+01 1.472557e+01 7.116248e+00 0 -1 0 -3.596423e-01 4.193435e-01 -8.275342e-01 9.997838e-02
60 1 4 -1.015639e+01 1.454807e+01 6.967528e+00 0 -1 0 -4.274596e-01 1.288290e-01 -8.947868e-01 6.162064e-03
61 1 2 -9.908505e+00 1.435101e+01 6.604977e+00 0 -1 0 -3.044227e-01 -1.563276e-01 -9.395038e-01 1.486840e-02
62 1 3 -9.790577e+00 1.413784e+01 6.122216e+00 0 -1 0 -1.687488e-01 -4.200394e-01 -8.910649e-01 -3.307667e-02
63 1 2 -9.810857e+00 1.404175e+01 5.561077e+00 0 -1 0 -9.881594e-02 -6.743384e-01 -7.207737e-01 -1.264452e-01
64 1 4 -9.808193e+00 1.409726e+01 5.049313e+00 0 -1 0 4.701829e-02 -7.492439e-01 -6.365343e-01 -1.767678e-01
65 1 2 -9.919999e+00 1.440501e+01 4.660058e+00 0 -1 0 9.781649e-02 -9.346043e-01 -3.052669e-01 -1.541393e-01
66 1 1 -9.848521e+00 1.484017e+01 4.335979e+00 0 -1 0 1.642958e-01 -9.660007e-01 -4.819510e-02 -1.937184e-01
67 1 2 -9.604367e+00 1.528568e+01 4.150609e+00 0 -1 0 2.281702e-01 -8.994555e-01 3.640252e-01 -8.002433e-02
68 1 1 -9.203292e+00 1.546308e+01 3.833279e+00 0 -1 0 2.011025e-01 -7.895811e-01 5.702191e-01 -1.047362e-01
69 1 1 -8.705094e+00 1.560463e+01 3.627375e+00 0 -1 0 3.018658e-01 -5.335623e-01 7.890739e-01 -3.937957e-02
70 1 2 -8.245900e+00 1.546619e+01 3.386145e+00 0 -1 0 -3.412470e-01 2.154426e-01 -9.144054e-01 3.158788e-02
71 1 3 -7.908799e+00 1.520907e+01 3.053788e+00 0 -1 0 -2.469739e-01 -7.456544e-04 -9.539885e-01 -1.700273e-01
72 1 4 -7.744799e+00 1.495375e+01 2.557374e+00 0 -1 0 -2.093936e-01 -1.824265e-01 -9.291794e-01 -2.439275e-01
73 1 1 -7.710975e+00 1.496371e+01 2.031487e+00 0 -1 0 -1.336069e-01 -4.598901e-01 -8.362352e-01 -2.671346e-01
74 1 1 -7.630599e+00 1.510214e+01 1.557494e+00 0 -1 0 -1.216873e-02 -6.501225e-01 -6.766150e-01 -3.455211e-01
75 1 3 -7.656751e+00 1.543964e+01 1.118936e+00 0 -1 0 1.505730e-01 -7.986619e-01 -4.781736e-01 -3.328919e-01
76 1 1 -7.677575e+00 1.590005e+01 8.584590e-01 0 -1 0 3.510022e-01 -8.626106e-01 -2.429038e-01 -2.714739e-01
77 1 4 -7.616607e+00 1.652418e+01 8.009789e-01 0 -1 0 3.169490e-01 -9.254756e-01 9.836552e-02 -1.826540e-01
78 1 1 -7.273876e+00 1.692023e+01 7.612428e-01 0 -1 0 5.221770e-01 -7.622951e-01 3.694786e-01 -9.860450e-02
79 1 4 -6.797252e+00 1.723384e+01 7.095461e-01 0 -1 0 4.136783e-01 -6.309935e-01 6.554932e-01 -3.234331e-02
80 1 2 -6.252356e+00 1.729136e+01 5.200485e-01 0 -1 0 -4.058916e-01 3.117962e-01 -8.586298e-01 2.810552e-02
81 1 4 -5.832624e+00 1.705354e+01 2.121175e-01 0 -1 0 3.026871e-01 -1.623487e-02 9.426558e-01 1.397036e-01
82 1 4 -5.661553e+00 1.683843e+01 -2.419615e-01 0 -1 0 -2.440490e-01 -2.631658e-01 -9.102233e-01 -2.065851e-01
83 1 4 -4.978183e+00 1.598702e+01 -5.443074e-01 0 -1 0 7.821853e-03 2.152105e-01 -9.433039e-01 -2.525887e-01
84 1 4 -4.415631e+00 1.593215e+01 -8.393685e-01 0 -1 0 -6.548994e-01 -3.712228e-01 6.234223e-01 -2.112936e-01
85 1 1 -4.580046e+00 1.511367e+01 -1.183058e+00 0 -1 0 5.853559e-01 3.186750e-01 -5.313510e-01 -5.229444e-01
86 1 1 -4.371360e+00 1.482978e+01 -4.822964e-01 0 -1 0 6.832480e-01 -6.968817e-01 2.161340e-01 -2.853583e-02
87 1 3 -4.078962e+00 1.518744e+01 -1.977963e-01 0 -1 0 6.733207e-01 -4.896427e-01 4.902007e-01 2.580554e-01
88 1 2 -3.663446e+00 1.550785e+01 -1.291340e-01 0 -1 0 -6.174709e-01 2.710478e-01 -6.959808e-01 -2.467254e-01
89 1 2 -3.222502e+00 1.563987e+01 -3.390436e-01 0 -1 0 4.153339e-01 1.466733e-01 7.170548e-01 5.402010e-01
90 1 3 -2.567950e+00 1.516679e+01 -4.639800e-01 0 -1 0 -7.440173e-01 2.068614e-01 -6.153197e-01 1.582034e-01
91 1 3 -1.812298e+00 1.556300e+01 -9.535811e-01 0 -1 0 -3.032135e-01 -9.411737e-01 -8.844264e-02 1.201310e-01
92 1 2 -1.923616e+00 1.484238e+01 -1.781227e+00 0 -1 0 5.007949e-01 6.777059e-01 -2.974080e-01 -4.488514e-01
93 1 1 -2.223827e+00 1.464460e+01 -2.112687e+00 0 -1 0 -6.186584e-01 -4.958585e-01 5.998823e-01 1.073657e-01
94 1 2 -2.235271e+00 1.476808e+01 -2.378148e+00 0 -1 0 6.143888e-01 1.892635e-01 -6.359372e-01 4.269540e-01
95 1 3 -1.463071e+00 1.502104e+01 -2.524923e+00 0 -1 0 -8.402575e-02 -9.948612e-01 5.640544e-02 3.062703e-03
96 1 2 -1.777217e+00 1.447538e+01 -2.852043e+00 0 -1 0 3.011449e-01 1.221422e-01 4.163498e-01 -8.491442e-01
97 1 2 -4.603062e-01 1.376410e+01 -3.091918e+00 0 -1 0 -2.708597e-01 6.362811e-01 -6.756240e-01 2.555651e-01
98 1 4 -8.577820e-01 1.341802e+01 -3.253478e+00 0 -1 0 9.729006e-01 -2.281455e-01 1.859898e-02 3.268288e-02
99 1 2 -2.061372e+00 1.307246e+01 -3.092163e+00 0 -1 0 -3.229967e-01 -2.118778e-01 9.125791e-01 1.340910e-01
100 1 1 -1.479010e+00 1.348610e+01 -2.535979e+00 0 -1 0 -1.134047e-01 9.228636e-01 -2.525621e-01 -2.677210e-01
101 2 4 -3.987161e+00 -1.689775e+01 -1.103345e-01 0 0 0 -1.359526e-01 -1.537886e-01 8.581325e-01 4.706109e-01
102 2 3 -4.159509e+00 -1.681757e+01 -5.424684e-01 0 0 0 -1.875654e-01 2.820737e-01 8.287149e-01 4.455169e-01
103 2 1 -4.463146e+00 -1.658183e+01 -8.115085e-01 0 0 0 -3.235712e-01 6.756359e-01 5.701346e-01 3.372897e-01
104 2 3 -4.660054e+00 -1.616706e+01 -9.522880e-01 0 0 0 -4.654743e-01 7.623747e-01 3.975181e-01 2.099949e-01
105 2 3 -4.647976e+00 -1.735626e+01 -1.178741e+00 0 0 0 8.749453e-01 3.603156e-01 -3.171336e-01 -6.379435e-02
106 2 2 -4.793560e+00 -1.784274e+01 -1.072231e+00 0 0 0 7.881832e-01 1.003544e-01 -5.135952e-01 3.239076e-01
107 2 3 -5.585500e+00 -1.810079e+01 -2.205508e+00 0 0 0 2.131667e-01 4.055598e-01 5.702628e-01 -6.818223e-01
108 2 4 -5.969027e+00 -1.845785e+01 -2.147531e+00 0 0 0 -4.620905e-01 -5.882185e-01 -3.782810e-01 5.453209e-01
109 2 3 -6.442995e+00 -1.898155e+01 -1.872678e+00 0 0 0 2.183968e-01 5.097355e-01 -6.281323e-01 -5.458227e-01
110 2 2 -7.358598e+00 -1.918490e+01 -1.126605e+00 0 0 0 -5.134024e-01 3.558267e-01 7.500598e-01 2.172914e-01
111 2 2 -7.847203e+00 -1.912906e+01 -1.165722e+00 0 0 0 5.244525e-01 -6.352275e-01 -5.616578e-01 7.730523e-02
112 2 3 -8.043224e+00 -1.937896e+01 -1.232904e+00 0 0 0 -3.950892e-03 -6.566669e-01 7.287116e-01 -1.942995e-01
113 2 3 -9.143831e+00 -1.959714e+01 -8.376283e-01 0 0 0 -2.354998e-01 4.217237e-02 -3.834430e-01 8.920386e-01
114 2 2 -8.246952e+00 -1.974520e+01 -1.021161e+00 0 0 0 5.441652e-01 5.249273e-01 -1.673368e-01 -6.327196e-01
115 2 4 -7.407920e+00 -1.948676e+01 -5.504467e-02 0 0 0 -4.329878e-01 7.726738e-01 2.260881e-01 -4.054392e-01
116 2 4 -7.605735e+00 1.976597e+01 -2.087686e-01 0 -1 0 4.110696e-01 -3.792069e-02 -2.125460e-01 8.856681e-01
117 2 1 -6.667009e+00 1.932057e+01 2.187164e-01 0 -1 0 1.172467e-01 -6.667026e-01 3.498133e-01 -6.476045e-01
118 2 1 -6.691119e+00 1.888861e+01 4.749602e-01 0 -1 0 -4.362747e-03 7.354781e-01 -3.900313e-02 6.764109e-01
119 2 1 -6.458890e+00 1.762195e+01 -6.485975e-01 0 -1 0 -8.224393e-01 -3.842927e-01 3.120571e-01 2.802374e-01
120 2 1 -6.757654e+00 1.722066e+01 -5.149826e-01 0 -1 0 8.841051e-01 3.215560e-01 -3.346582e-01 5.444120e-02
121 2 3 -6.736986e+00 1.666616e+01 -3.366374e-01 0 -1 0 7.806420e-01 1.783222e-01 -3.951021e-01 4.502150e-01
122 2 1 -6.595032e+00 1.623249e+01 8.589764e-02 0 -1 0 6.311819e-01 7.654676e-02 -3.111136e-01 7.063698e-01
123 2 4 -6.435096e+00 1.607217e+01 6.273920e-01 0 -1 0 3.935522e-01 -6.729362e-02 -2.379961e-01 8.854073e-01
124 2 1 -6.554886e+00 1.609117e+01 1.108017e+00 0 -1 0 1.224415e-01 -1.963574e-01 -2.082604e-01 9.503049e-01
125 2 4 -6.798100e+00 1.617752e+01 1.720161e+00 0 -1 0 -1.359566e-01 -3.049467e-01 -2.484023e-01 9.092962e-01
126 2 2 -7.255116e+00 1.616220e+01 1.979490e+00 0 -1 0 -3.823512e-01 -4.447807e-01 -4.548503e-02 8.086463e-01
127 2 4 -7.802881e+00 1.612486e+01 2.085548e+00 0 -1 0 -5.003065e-01 -5.221954e-01 1.355896e-01 6.772155e-01
128 2 4 -8.329192e+00 1.599864e+01 2.047259e+00 0 -1 0 -8.082261e-01 -3.336213e-01 1.836508e-01 4.491546e-01
129 2 1 -8.723211e+00 1.569156e+01 2.265072e+00 0 -1 0 -9.005476e-01 -2.671352e-01 1.876802e-01 2.871042e-01
130 2 2 -8.940888e+00 1.524202e+01 2.497687e+00 0 -1 0 -9.484423e-01 -1.889520e-01 2.411635e-01 -8.120632e-02
131 2 3 -9.005855e+00 1.476637e+01 2.781708e+00 0 -1 0 -8.958100e-01 -1.146173e-01 1.998772e-01 -3.800479e-01
132 2 4 -8.932965e+00 1.449487e+01 3.227003e+00 0 -1 0 7.753572e-01 7.889994e-02 -1.182883e-01 6.153079e-01
133 2 4 -8.819469e+00 1.434175e+01 3.756651e+00 0 -1 0 5.961289e-01 -5.191502e-02 -1.020299e-01 7.946855e-01
134 2 3 -8.721723e+00 1.445313e+01 4.251134e+00 0 -1 0 3.533754e-01 -1.114562e-01 -8.253047e-02 9.251444e-01
135 2 4 -8.747736e+00 1.473417e+01 4.744082e+00 0 -1 0 -1.271294e-01 1.444559e-01 1.781149e-02 -9.811490e-01
136 2 3 -9.006436e+00 1.498659e+01 5.144518e+00 0 -1 0 2.745996e-01 2.533628e-01 -7.258641e-02 -9.247343e-01
137 2 1 -9.478661e+00 1.516668e+01 5.419082e+00 0 -1 0 -5.378668e-01 -2.143655e-01 5.278361e-02 8.136096e-01
138 2 3 -1.001196e+01 1.519356e+01 5.592194e+00 0 -1 0 -7.322407e-01 -3.127431e-01 2.140955e-01 5.658431e-01
139 2 2 -1.048240e+01 1.500096e+01 5.715358e+00 0 -1 0 -8.795397e-01 -2.095014e-01 3.080158e-01 2.960494e-01
140 2 3 -1.077930e+01 1.472479e+01 5.916221e+00 0 -1 0 -9.186513e-01 -2.255653e-01 3.211119e-01 4.568569e-02
141 2 1 -1.101190e+01 1.426203e+01 6.048801e+00 0 -1 0 -8.521192e-01 -2.258883e-01 3.947186e-01 -2.589682e-01
142 2 2 -1.107097e+01 1.387136e+01 6.394093e+00 0 -1 0 -8.405629e-01 -4.843702e-02 3.188809e-01 -4.352274e-01
143 2 4 -1.095976e+01 1.354536e+01 6.772155e+00 0 -1 0 6.505699e-01 -2.663098e-03 -2.645352e-01 7.118798e-01
144 2 4 -1.105072e+01 1.337987e+01 7.354549e+00 0 -1 0 -5.095106e-01 2.416959e-01 3.018441e-01 -7.686821e-01
145 2 1 -1.118417e+01 1.352359e+01 7.867214e+00 0 -1 0 -2.269140e-01 3.591653e-01 1.783229e-01 -8.875310e-01
146 2 1 -1.141918e+01 1.377605e+01 8.167151e+00 0 -1 0 5.016244e-02 3.491572e-01 -6.837339e-02 -9.332192e-01
147 2 1 -1.181822e+01 1.409335e+01 8.426866e+00 0 -1 0 3.411651e-01 3.795356e-01 -1.166611e-01 -8.520265e-01
148 2 2 -1.227047e+01 1.419779e+01 8.438913e+00 0 -1 0 5.697585e-01 3.309938e-01 -2.929095e-01 -6.928364e-01
149 2 4 -1.276444e+01 1.422045e+01 8.527873e+00 0 -1 0 -7.215276e-01 -3.287172e-01 3.470666e-01 5.008869e-01
150 2 1 -1.318362e+01 1.394038e+01 8.384096e+00 0 -1 0 -7.844082e-01 -2.621110e-01 5.378093e-01 1.635932e-01
151 2 1 -1.365573e+01 1.361737e+01 8.507023e+00 0 -1 0 -8.494900e-01 -1.509427e-01 5.014902e-01 -6.395817e-02
152 2 1 -1.390945e+01 1.312936e+01 8.700137e+00 0 -1 0 -8.003211e-01 6.182438e-02 5.308052e-01 -2.718633e-01
153 2 4 -1.427677e+01 1.290913e+01 9.070420e+00 0 -1 0 -7.469210e-01 2.911527e-01 4.222722e-01 -4.231139e-01
154 2 1 -1.451647e+01 1.288828e+01 9.497583e+00 0 -1 0 -5.834927e-01 3.595375e-01 2.644393e-01 -6.784843e-01
155 2 2 -1.462997e+01 1.293431e+01 9.975822e+00 0 -1 0 -3.560055e-01 4.413052e-01 1.500281e-01 -8.099391e-01
156 2 4 -1.501788e+01 1.325606e+01 1.036272e+01 0 -1 0 -1.312584e-01 5.306472e-01 5.910105e-02 -8.352795e-01
157 2 3 -1.541887e+01 1.361700e+01 1.054643e+01 0 -1 0 9.844429e-02 5.326071e-01 -1.866448e-01 -8.196354e-01
158 2 2 -1.592743e+01 1.392301e+01 1.057296e+01 0 -1 0 3.084297e-01 5.576306e-01 -2.507286e-01 -7.287348e-01
159 2 1 -1.638716e+01 1.406211e+01 1.046129e+01 0 -1 0 5.542277e-01 4.450654e-01 -4.401363e-01 -5.486605e-01
160 2 3 -1.678729e+01 1.396778e+01 1.014537e+01 0 -1 0 -6.855046e-01 -2.622897e-01 6.022950e-01 3.138923e-01
161 2 1 -1.724737e+01 1.370936e+01 1.010442e+01 0 -1 0 -7.331500e-01 -2.527356e-01 6.307951e-01 2.670758e-02
162 2 1 -1.761793e+01 1.328617e+01 1.010916e+01 0 -1 0 -7.594273e-01 8.272179e-02 6.227240e-01 -1.692400e-01
163 2 4 -1.799051e+01 1.308758e+01 1.040005e+01 0 -1 0 -7.398428e-01 2.223912e-01 5.249778e-01 -3.571737e-01
164 2 4 -1.825548e+01 1.289883e+01 1.080638e+01 0 -1 0 -5.373087e-01 4.142423e-01 4.824753e-01 -5.540038e-01
165 2 3 -1.867038e+01 1.296698e+01 1.125183e+01 0 -1 0 4.166425e-01 -5.434787e-01 -2.337462e-01 6.902192e-01
166 2 3 -1.900371e+01 1.314324e+01 1.155296e+01 0 -1 0 2.226210e-01 -5.948056e-01 -9.446726e-02 7.666303e-01
167 2 4 -1.936015e+01 1.358693e+01 1.169572e+01 0 -1 0 -4.985022e-02 6.224275e-01 -1.761033e-01 -7.609774e-01
168 2 2 1.973987e+01 1.379041e+01 1.182629e+01 -1 -1 0 3.236549e-01 7.562665e-01 3.435989e-01 -4.530434e-01
169 2 2 1.883842e+01 1.370987e+01 1.215852e+01 -1 -1 0 4.918989e-02 1.871312e-01 6.933309e-01 6.941575e-01
170 2 1 1.920590e+01 1.359229e+01 1.284096e+01 -1 -1 0 9.284953e-01 3.204886e-01 1.807641e-02 1.866996e-01
171 2 1 1.936101e+01 1.321396e+01 1.304089e+01 -1 -1 0 -7.310064e-01 -5.090107e-01 -1.153708e-01 -4.395762e-01
172 2 4 1.926790e+01 1.245870e+01 1.418339e+01 -1 -1 0 -1.050904e-01 -3.315302e-01 5.786041e-01 -7.377405e-01
173 2 4 1.947395e+01 1.174632e+01 1.427129e+01 -1 -1 0 -6.394496e-02 -6.157658e-03 -6.662744e-01 7.429344e-01
174 2 1 1.998998e+01 1.236084e+01 1.444405e+01 -1 -1 0 -2.790819e-01 -8.110178e-01 -4.646731e-01 -2.200961e-01
175 2 1 -1.993466e+01 1.127951e+01 1.565963e+01 0 -1 0 -7.406968e-01 5.063405e-01 3.376867e-01 2.845263e-01
176 2 2 -1.951219e+01 1.106533e+01 1.560838e+01 0 -1 0 -6.453330e-01 3.176273e-01 -1.435295e-01 6.797481e-01
177 2 2 -1.848564e+01 1.166839e+01 1.489119e+01 0 -1 0 4.373003e-01 -2.946401e-01 2.408889e-01 8.148179e-01
178 2 1 -1.844323e+01 1.119644e+01 1.597345e+01 0 -1 0 -2.613613e-01 -3.116930e-02 4.305473e-01 -8.633353e-01
179 2 4 -1.758989e+01 1.028102e+01 1.631939e+01 0 -1 0 -3.241470e-01 5.956100e-01 -5.463142e-01 4.916485e-01
180 2 1 -1.667491e+01 1.052117e+01 1.591994e+01 0 -1 0 -7.135468e-01 2.992370e-01 8.661107e-02 -6.275401e-01
181 2 4 -1.630789e+01 9.913105e+00 1.651636e+01 0 -1 0 -1.591297e-02 -6.745701e-01 7.177640e-01 -1.718045e-01
182 2 2 -1.609639e+01 9.654082e+00 1.615823e+01 0 -1 0 1.956863e-02 2.656460e-01 -9.634251e-01 2.934978e-02
183 2 3 -1.533364e+01 1.119464e+01 1.627345e+01 0 -1 0 -9.343329e-02 -8.605055e-01 -1.646786e-01 -4.729497e-01
184 2 4 -1.552315e+01 1.164271e+01 1.617519e+01 0 -1 0 -2.286434e-01 5.184229e-01 3.732692e-01 7.345951e-01
185 2 3 -1.549063e+01 1.206097e+01 1.643607e+01 0 -1 0 -5.506207e-01 6.475412e-01 -2.993234e-02 5.259386e-01
186 2 1 -1.523075e+01 1.216768e+01 1.683019e+01 0 -1 0 7.554725e-01 -4.833348e-01 3.745479e-01 -2.352926e-01
187 2 1 -1.500332e+01 1.325357e+01 1.705315e+01 0 -1 0 5.886582e-01 -7.121998e-01 1.765510e-01 3.392385e-01
188 2 2 -1.575223e+01 1.397370e+01 1.644832e+01 0 -1 0 3.295860e-01 6.499707e-01 4.376019e-01 -5.267027e-01
189 2 4 -1.604810e+01 1.369320e+01 1.620916e+01 0 -1 0 4.097799e-01 8.250921e-01 1.989370e-01 -3.342566e-01
190 2 4 -1.600588e+01 1.440283e+01 1.665524e+01 0 -1 0 -3.907327e-01 3.324220e-01 -3.713483e-01 -7.739018e-01
191 2 1 -1.590545e+01 1.489809e+01 1.659061e+01 0 -1 0 -7.443324e-02 5.364151e-02 -5.178173e-01 -8.505572e-01
192 2 4 -1.654801e+01 1.555475e+01 1.702680e+01 0 -1 0 -9.035420e-02 -4.668659e-01 -3.353158e-01 8.132870e-01
193 2 4 -1.703714e+01 1.559235e+01 1.731757e+01 0 -1 0 2.818805e-01 4.720062e-01 4.464587e-02 -8.341224e-01
194 2 1 -1.744292e+01 1.610880e+01 1.833914e+01 0 -1 0 2.398360e-01 2.278263e-01 -4.177361e-01 8.462094e-01
195 2 3 -1.754864e+01 1.646375e+01 1.793459e+01 0 -1 0 3.302904e-01 8.261740e-01 -1.196306e-01 -4.404920e-01
196 2 4 -1.805925e+01 1.631676e+01 1.770502e+01 0 -1 0 4.020302e-01 8.447328e-01 -2.312230e-01 -2.670846e-01
197 2 2 -1.906770e+01 1.656867e+01 1.805650e+01 0 -1 0 6.969592e-01 -1.196963e-01 3.966546e-01 -5.853083e-01
198 2 4 -1.907761e+01 1.689756e+01 1.790323e+01 0 -1 0 -2.328337e-01 8.246268e-01 -4.569639e-01 2.386693e-01
199 2 3 1.974911e+01 1.650960e+01 1.811669e+01 -1 -1 0 3.837930e-01 1.671375e-01 4.299058e-01 -7.999681e-01
200 2 4 1.951508e+01 1.633953e+01 1.736823e+01 -1 -1 0 4.363165e-01 4.754652e-01 7.137777e-01 2.721804e-01
