ITEM: TIMESTEP
87000000
ITEM: NUMBER OF ATOMS
200
ITEM: BOX BOUNDS pp pp pp
-2.0000000000000000e+01 2.0000000000000000e+01
-2.0000000000000000e+01 2.0000000000000000e+01
-2.0000000000000000e+01 2.0000000000000000e+01
ITEM: ATOMS id mol type x y z ix iy iz c_quat[1] c_quat[2] c_quat[3] c_quat[4]
1 1 1 -6.265344e+00 8.023843e+00 -1.815768e+01 0 -1 1 -1.381062e-01 -8.196244e-01 4.248979e-01 -3.586143e-01
2 1 2 -6.969055e+00 8.736572e+00 -1.795158e+01 0 -1 1 6.426162e-01 -6.909757e-01 -3.224000e-01 -7.520132e-02
3 1 1 -7.140282e+00 9.106600e+00 -1.777740e+01 0 -1 1 -5.718432e-01 7.889823e-01 -1.580829e-02 -2.241706e-01
4 1 3 -7.669180e+00 9.895644e+00 -1.849240e+01 0 -1 1 -1.312687e-01 -4.507882e-01 -6.982462e-01 -5.403802e-01
5 1 1 -7.727962e+00 1.038393e+01 -1.742369e+01 0 -1 1 -5.290336e-01 7.143926e-01 4.449151e-01 -1.087077e-01
6 1 2 -7.256842e+00 1.032086e+01 -1.895188e+01 0 -1 1 7.959391e-01 1.685220e-01 5.603900e-01 1.550625e-01
7 1 4 -7.054729e+00 1.039233e+01 -1.958744e+01 0 -1 1 3.245760e-01 6.946584e-01 -3.393683e-02 -6.410525e-01
8 1 1 -7.460582e+00 1.049114e+01 -1.985773e+01 0 -1 1 6.033228e-01 4.606802e-01 -4.242727e-01 -4.937288e-01
9 1 1 -7.808462e+00 1.034021e+01 1.999054e+01 0 -1 0 -6.931040e-01 -2.888049e-01 6.056984e-01 2.633019e-01
10 1 4 -8.127702e+00 1.003914e+01 1.987993e+01 0 -1 0 -7.081128e-01 -1.135110e-01 6.964408e-01 -2.572257e-02
11 1 1 -8.523304e+00 9.693597e+00 1.998252e+01 0 -1 0 6.826366e-01 -1.862431e-01 -6.707983e-01 2.221494e-01
12 1 1 -8.869479e+00 9.522983e+00 -1.972559e+01 0 -1 1 5.443979e-01 -3.410389e-01 -5.648814e-01 5.179115e-01
13 1 3 -8.658835e+00 9.017233e+00 1.937998e+01 0 -1 0 -3.868896e-01 -6.225209e-01 6.074215e-01 -3.063059e-01
14 1 4 -9.866783e+00 8.947321e+00 1.899615e+01 0 -1 0 4.385072e-01 5.123022e-01 7.110987e-01 1.989885e-01
15 1 4 -9.685430e+00 8.890819e+00 1.855057e+01 0 -1 0 3.146666e-01 7.440359e-01 4.391598e-01 3.931083e-01
16 1 2 -9.800529e+00 7.975677e+00 1.808095e+01 0 -1 0 -3.569844e-02 4.634026e-01 -8.622182e-01 2.014038e-01
17 1 1 -9.620273e+00 7.633358e+00 1.782401e+01 0 -1 0 -1.333125e-01 2.151616e-02 -9.637544e-01 2.300918e-01
18 1 2 -9.594714e+00 7.225333e+00 1.755116e+01 0 -1 0 -1.523121e-01 -3.774003e-01 -9.071039e-01 1.073898e-01
19 1 3 -8.786073e+00 6.831624e+00 1.718757e+01 0 -1 0 -3.454070e-01 -9.188417e-01 8.050651e-02 -1.730392e-01
20 1 1 -9.613530e+00 5.478980e+00 1.719401e+01 0 -1 0 2.074882e-01 1.636611e-01 -9.600651e-01 -9.186219e-02
21 1 4 -9.836145e+00 5.168075e+00 1.683706e+01 0 -1 0 2.498700e-01 -2.343973e-01 -9.388380e-01 -3.472879e-02
22 1 1 -1.024349e+01 5.175405e+00 1.653540e+01 0 -1 0 -2.795057e-01 5.752307e-01 7.670411e-01 -5.132323e-02
23 1 4 -1.067040e+01 5.410827e+00 1.634803e+01 0 -1 0 2.131751e-01 -9.030596e-01 -3.474100e-01 1.354478e-01
24 1 3 -1.163693e+01 5.533480e+00 1.645858e+01 0 -1 0 -1.008407e-01 8.107483e-01 5.746416e-01 4.801487e-02
25 1 3 -1.188844e+01 5.785714e+00 1.610816e+01 0 -1 0 -1.526210e-01 9.706719e-01 1.856224e-01 6.873046e-03
26 1 4 -1.186893e+01 6.211986e+00 1.568882e+01 0 -1 0 -4.218741e-02 -9.655446e-01 2.566552e-01 -8.479879e-03
27 1 4 -1.165188e+01 6.259853e+00 1.520419e+01 0 -1 0 -4.044620e-02 -7.649833e-01 6.107048e-01 -2.005102e-01
28 1 1 -1.135846e+01 6.373488e+00 1.476529e+01 0 -1 0 3.323883e-01 -2.343408e-01 5.645822e-01 7.182265e-01
29 1 1 -1.073849e+01 7.304188e+00 1.492391e+01 0 -1 0 9.681009e-02 9.703185e-01 -6.993199e-03 -2.214969e-01
30 1 4 -1.048219e+01 7.142427e+00 1.432862e+01 0 -1 0 -1.929313e-01 9.522874e-01 -1.503950e-01 -1.825033e-01
31 1 4 -1.121521e+01 6.684086e+00 1.370471e+01 0 -1 0 -2.414284e-01 -8.061854e-01 -5.401069e-01 7.872395e-03
32 1 3 -1.136445e+01 6.692891e+00 1.324145e+01 0 -1 0 -1.280615e-01 -9.709751e-01 -1.983614e-01 -3.821519e-02
33 1 3 -1.247741e+01 5.928007e+00 1.270207e+01 0 -1 0 7.087283e-01 2.042309e-01 3.832483e-01 -5.559808e-01
34 1 1 -1.226734e+01 7.164720e+00 1.253193e+01 0 -1 0 -3.551080e-01 -7.558803e-02 -6.907164e-01 -6.253764e-01
35 1 2 -1.206099e+01 7.448417e+00 1.215509e+01 0 -1 0 1.087984e-01 3.962907e-01 6.519382e-01 6.372544e-01
36 1 2 -1.205096e+01 7.823241e+00 1.183056e+01 0 -1 0 -5.487466e-02 7.319057e-01 3.750977e-01 5.662195e-01
37 1 1 -1.152597e+01 7.999788e+00 1.103730e+01 0 -1 0 -3.705166e-01 6.525630e-01 -5.349700e-01 -3.881830e-01
38 1 1 -1.130110e+01 8.386699e+00 1.076578e+01 0 -1 0 2.613254e-01 -4.194285e-01 7.495594e-01 4.403971e-01
39 1 4 -1.127958e+01 8.871545e+00 1.050729e+01 0 -1 0 -2.411899e-01 4.238553e-01 -8.134342e-01 -3.170155e-01
40 1 4 -1.122309e+01 8.960380e+00 1.000635e+01 0 -1 0 -2.096359e-02 9.087439e-02 -8.911923e-01 -4.439354e-01
41 1 2 -1.130347e+01 9.126795e+00 9.430699e+00 0 -1 0 1.255711e-01 -1.998188e-01 -8.838451e-01 -4.038839e-01
42 1 4 -1.156366e+01 9.341801e+00 9.037963e+00 0 -1 0 2.941446e-01 -3.270994e-01 -8.390946e-01 -3.200082e-01
43 1 3 -1.197849e+01 9.520562e+00 8.783004e+00 0 -1 0 4.330158e-01 -5.457289e-01 -7.012779e-01 -1.512833e-01
44 1 2 -1.235334e+01 9.908769e+00 8.531131e+00 0 -1 0 5.373686e-01 -6.919259e-01 -4.774279e-01 -6.735036e-02
45 1 1 -1.273492e+01 1.025013e+01 8.642134e+00 0 -1 0 5.331204e-01 -8.048831e-01 -2.290969e-01 1.243399e-01
46 1 3 -1.291241e+01 1.072947e+01 8.680642e+00 0 -1 0 5.948511e-01 -7.821800e-01 -2.552617e-02 1.835619e-01
47 1 4 -1.291931e+01 1.125733e+01 8.839878e+00 0 -1 0 5.212508e-01 -7.436224e-01 2.481593e-01 3.372540e-01
48 1 1 -1.272758e+01 1.177731e+01 8.853009e+00 0 -1 0 -3.119080e-01 6.560054e-01 -5.243137e-01 -4.443709e-01
49 1 4 -1.248054e+01 1.224030e+01 8.683915e+00 0 -1 0 -2.567196e-01 4.856410e-01 -6.901757e-01 -4.710683e-01
50 1 4 -1.242071e+01 1.256961e+01 8.265788e+00 0 -1 0 -1.573220e-01 3.096541e-01 -8.502621e-01 -3.954978e-01
51 1 4 -1.239340e+01 1.277882e+01 7.737650e+00 0 -1 0 8.679227e-02 6.342924e-02 -8.894211e-01 -4.442678e-01
52 1 1 -1.257804e+01 1.281939e+01 7.221829e+00 0 -1 0 1.826069e-01 -2.604335e-01 -8.883315e-01 -3.312042e-01
53 1 3 -1.283257e+01 1.299772e+01 6.786721e+00 0 -1 0 -3.275473e-01 3.547388e-01 8.525369e-01 2.001348e-01
54 1 4 -1.313412e+01 1.326009e+01 6.434435e+00 0 -1 0 3.948879e-01 -6.250699e-01 -6.323481e-01 -2.312728e-01
55 1 4 -1.351365e+01 1.369549e+01 6.427217e+00 0 -1 0 5.370523e-01 -7.595724e-01 -3.669108e-01 -1.013180e-03
56 1 4 -1.371726e+01 1.418606e+01 6.336905e+00 0 -1 0 5.636816e-01 -8.161689e-01 -1.256189e-01 1.874241e-02
57 1 1 -1.373819e+01 1.465738e+01 6.361250e+00 0 -1 0 5.218889e-01 -8.133328e-01 1.796407e-01 1.839863e-01
58 1 1 -1.353576e+01 1.509839e+01 6.409145e+00 0 -1 0 4.709866e-01 -6.736538e-01 4.694203e-01 3.225009e-01
59 1 3 -1.337009e+01 1.559712e+01 6.150090e+00 0 -1 0 -2.656213e-01 6.288296e-01 -6.451899e-01 -3.431451e-01
60 1 4 -1.314449e+01 1.583835e+01 5.832982e+00 0 -1 0 -1.607572e-01 3.287741e-01 -8.323540e-01 -4.162350e-01
61 1 2 -1.302047e+01 1.612534e+01 5.424325e+00 0 -1 0 3.100145e-02 7.618777e-02 -8.426250e-01 -5.321818e-01
62 1 3 -1.310028e+01 1.640480e+01 4.988278e+00 0 -1 0 2.235073e-01 -1.718643e-02 -8.463525e-01 -4.831527e-01
63 1 2 -1.340898e+01 1.668392e+01 4.600020e+00 0 -1 0 3.718370e-01 -1.623548e-01 -7.826396e-01 -4.720736e-01
64 1 4 -1.386364e+01 1.676585e+01 4.422658e+00 0 -1 0 5.191118e-01 -4.291383e-01 -7.184901e-01 -1.735949e-01
65 1 2 -1.434115e+01 1.699651e+01 4.272450e+00 0 -1 0 6.139507e-01 -4.953974e-01 -6.096442e-01 -7.732945e-02
66 1 1 -1.486743e+01 1.717842e+01 4.485847e+00 0 -1 0 6.515329e-01 -6.273137e-01 -4.054645e-01 1.325933e-01
67 1 2 -1.522001e+01 1.752005e+01 4.733969e+00 0 -1 0 5.386382e-01 -7.716508e-01 -1.791520e-01 2.869294e-01
68 1 1 -1.519311e+01 1.797926e+01 5.014855e+00 0 -1 0 5.025949e-01 -6.818012e-01 1.125155e-01 5.195053e-01
69 1 1 -1.517104e+01 1.855150e+01 5.054536e+00 0 -1 0 3.252283e-01 -6.628828e-01 3.231211e-01 5.919507e-01
70 1 2 -1.510390e+01 1.902356e+01 4.864878e+00 0 -1 0 -8.065058e-02 4.592215e-01 -6.240988e-01 -6.269863e-01
71 1 3 -1.521418e+01 1.939078e+01 4.539602e+00 0 -1 0 7.989825e-03 3.453718e-01 -8.039246e-01 -4.841071e-01
72 1 4 -1.540592e+01 1.959930e+01 4.080780e+00 0 -1 0 -9.640086e-02 -1.859001e-01 9.333346e-01 2.916069e-01
73 1 1 -1.564877e+01 1.964870e+01 3.571864e+00 0 -1 0 -3.233971e-01 6.123490e-02 8.930502e-01 3.067994e-01
74 1 1 -1.596219e+01 1.964186e+01 3.229531e+00 0 -1 0 -4.061005e-01 3.217387e-01 8.239693e-01 2.294366e-01
75 1 3 -1.645030e+01 1.965713e+01 3.099461e+00 0 -1 0 -3.033606e-01 7.692378e-01 5.622997e-01 -8.029800e-03
76 1 1 -1.639842e+01 1.927197e+01 2.293825e+00 0 -1 0 -6.899026e-01 5.476210e-01 -2.880397e-01 -3.757378e-01
77 1 4 -1.771613e+01 1.853703e+01 2.263590e+00 0 -1 0 2.712817e-01 2.411852e-01 -9.192501e-01 -1.523654e-01
78 1 1 -1.820602e+01 1.905644e+01 1.754886e+00 0 -1 0 6.179899e-01 3.095727e-01 -4.345748e-01 -5.774062e-01
79 1 4 -1.870449e+01 1.904929e+01 1.738463e+00 0 -1 0 7.358706e-01 3.123589e-01 -5.187074e-01 -3.030991e-01
80 1 2 -1.928612e+01 2.000420e+01 2.816283e+00 0 -1 0 1.899298e-01 -3.609390e-01 2.146800e-01 -8.874470e-01
81 1 4 -1.913037e+01 -1.991281e+01 3.242972e+00 0 0 0 5.201821e-01 -3.318890e-01 3.475284e-01 -7.060342e-01
82 1 4 -1.935865e+01 -1.974161e+01 3.562074e+00 0 0 0 4.225237e-02 -5.954281e-01 7.199720e-01 -3.540064e-01
83 1 4 1.974598e+01 -1.901358e+01 3.262245e+00 -1 0 0 1.665691e-01 -9.102760e-01 -1.941249e-01 -3.255270e-01
84 1 4 1.995095e+01 -1.852716e+01 3.095076e+00 -1 0 0 -3.522877e-01 9.031636e-01 -1.067424e-01 2.208960e-01
85 1 1 -1.976032e+01 -1.813066e+01 3.119985e+00 0 0 0 -3.699749e-01 7.622866e-01 -5.270890e-01 -6.492213e-02
86 1 1 -1.983105e+01 -1.756881e+01 3.048963e+00 0 0 0 -1.223318e-01 1.709094e-01 5.207376e-01 -8.274402e-01
87 1 3 -1.994630e+01 -1.720035e+01 2.429729e+00 0 0 0 4.727598e-01 -7.283209e-01 -2.599009e-01 4.224906e-01
88 1 2 1.972328e+01 -1.680476e+01 2.513811e+00 -1 0 0 3.901682e-01 -7.207756e-01 1.045249e-01 5.633169e-01
89 1 2 1.966344e+01 -1.635856e+01 2.532296e+00 -1 0 0 2.257953e-01 -5.356277e-01 4.946577e-01 6.460907e-01
90 1 3 1.964129e+01 -1.591228e+01 2.256261e+00 -1 0 0 -1.935957e-02 3.352858e-01 -7.156225e-01 -6.124484e-01
91 1 3 1.943288e+01 -1.551237e+01 1.983831e+00 -1 0 0 -1.368773e-01 -3.302106e-01 7.710850e-01 5.269283e-01
92 1 2 1.866777e+01 -1.556518e+01 2.277545e+00 -1 0 0 5.408403e-01 -3.218803e-01 6.847717e-01 -3.673860e-01
93 1 1 1.786828e+01 -1.431981e+01 2.285837e+00 -1 0 0 -2.467328e-01 5.855743e-01 7.719386e-01 1.834653e-02
94 1 2 1.761560e+01 -1.386147e+01 1.882972e+00 -1 0 0 2.591266e-01 -6.205821e-01 -7.040915e-01 -2.280054e-01
95 1 3 1.845030e+01 -1.347254e+01 1.001563e+00 -1 0 0 -1.710274e-01 -9.231892e-01 -3.368157e-01 -7.089768e-02
96 1 2 1.876654e+01 -1.358039e+01 4.104812e-01 -1 0 0 1.751274e-01 8.989561e-01 3.841633e-01 1.167345e-01
97 1 2 1.959861e+01 -1.411739e+01 4.647776e-01 -1 0 0 -7.409775e-01 -1.773505e-02 -4.576865e-01 -4.910813e-01
98 1 4 -1.961181e+01 -1.368933e+01 8.241407e-01 0 0 0 5.646909e-01 6.611752e-01 -9.595279e-02 4.845252e-01
99 1 2 -1.909721e+01 -1.380495e+01 7.603739e-01 0 0 0 -3.386354e-01 -5.013126e-01 4.395395e-01 -6.639403e-01
100 1 1 -1.937237e+01 -1.332109e+01 1.052213e+00 0 0 0 7.609988e-01 -3.688541e-01 -5.204829e-01 1.180046e-01
101 2 4 -1.052319e+01 -1.219611e+01 9.755509e-01 0 0 0 -6.286334e-01 -2.320457e-01 -5.659837e-01 4.802471e-01
102 2 3 -9.940398e+00 -1.196789e+01 1.633495e+00 0 0 0 -7.626426e-01 1.757652e-01 -3.973285e-01 -4.791794e-01
103 2 1 -9.736095e+00 -1.183721e+01 2.231948e+00 0 0 0 6.342336e-01 7.521411e-01 1.757574e-01 3.377677e-02
104 2 3 -1.004491e+01 -1.311058e+01 2.736805e+00 0 0 0 -6.817196e-01 4.850981e-01 -5.457885e-01 4.531146e-02
105 2 3 -9.491002e+00 -1.272679e+01 3.011152e+00 0 0 0 -6.536941e-01 -7.322312e-01 1.318827e-01 1.383058e-01
106 2 2 -1.067955e+01 -1.262429e+01 3.200700e+00 0 0 0 -2.458349e-01 -3.623394e-01 -6.008444e-01 -6.687761e-01
107 2 3 -1.066592e+01 -1.374285e+01 3.418662e+00 0 0 0 -8.768056e-01 -4.169884e-01 2.374816e-01 -3.057902e-02
108 2 4 -1.122737e+01 -1.353206e+01 4.356429e+00 0 0 0 -1.614277e-01 -2.016405e-01 -7.427113e-01 6.177880e-01
109 2 3 -1.176302e+01 -1.366417e+01 4.969432e+00 0 0 0 8.045585e-02 2.916139e-02 -7.716194e-01 6.303015e-01
110 2 2 -1.201331e+01 -1.405928e+01 5.119825e+00 0 0 0 2.618508e-01 3.679768e-01 7.093656e-01 -5.411356e-01
111 2 2 -1.230786e+01 -1.438752e+01 4.943900e+00 0 0 0 -6.026822e-01 -6.505081e-01 -3.780876e-01 2.658254e-01
112 2 3 -1.255651e+01 -1.471356e+01 4.588285e+00 0 0 0 6.089616e-01 7.825470e-01 1.184955e-01 -5.239116e-02
113 2 3 -1.336187e+01 -1.408042e+01 4.111500e+00 0 0 0 -1.284580e-01 1.235757e-01 -2.685734e-01 -9.466234e-01
114 2 2 -1.395852e+01 -1.517961e+01 3.883466e+00 0 0 0 -2.556557e-01 3.628960e-02 -9.020666e-01 -3.458311e-01
115 2 4 -1.365552e+01 -1.519647e+01 3.838823e+00 0 0 0 4.892236e-01 -1.134612e-01 -2.066483e-01 -8.396924e-01
116 2 4 -1.373695e+01 -1.599128e+01 3.323556e+00 0 0 0 -2.519627e-01 2.100947e-02 -9.163062e-01 3.105742e-01
117 2 1 -1.383443e+01 -1.639654e+01 3.155182e+00 0 0 0 -5.699099e-01 -4.164125e-01 -7.060556e-01 5.734897e-02
118 2 1 -1.386460e+01 -1.577815e+01 4.016008e+00 0 0 0 -2.368768e-01 -9.570745e-01 -1.437668e-01 -8.502252e-02
119 2 1 -1.441204e+01 -1.622913e+01 3.990026e+00 0 0 0 5.225110e-01 -5.147203e-01 -3.859682e-01 5.595300e-01
120 2 1 -1.458944e+01 -1.609923e+01 3.034820e+00 0 0 0 4.897992e-01 7.362534e-01 1.218364e-01 4.507589e-01
121 2 3 -1.579567e+01 -1.687498e+01 3.618804e+00 0 0 0 1.905974e-01 9.593336e-02 9.574162e-01 -1.944831e-01
122 2 1 -1.578996e+01 -1.723073e+01 3.331680e+00 0 0 0 -2.908168e-01 -4.566359e-01 -8.405663e-01 1.890942e-02
123 2 4 -1.507578e+01 -1.753039e+01 4.069295e+00 0 0 0 4.660457e-01 -6.447424e-01 -3.876364e-01 4.656679e-01
124 2 1 -1.562619e+01 -1.822118e+01 4.901782e+00 0 0 0 3.154739e-01 -1.769498e-01 3.486731e-01 -8.646341e-01
125 2 4 -1.598813e+01 -1.920945e+01 4.323054e+00 0 0 0 6.432536e-01 2.918009e-01 -5.074413e-01 -4.935386e-01
126 2 2 -1.658229e+01 -1.929757e+01 4.374128e+00 0 0 0 8.050955e-01 1.249187e-01 -4.726749e-01 -3.358498e-01
127 2 4 -1.667504e+01 -1.998637e+01 4.037838e+00 0 0 0 -8.118461e-01 -1.893698e-01 -3.963873e-01 3.846065e-01
128 2 4 -1.664020e+01 1.954855e+01 4.227754e+00 0 -1 0 9.354758e-01 2.638924e-01 2.350442e-01 -1.696090e-04
129 2 1 -1.643553e+01 1.909695e+01 4.309088e+00 0 -1 0 -8.021217e-01 -5.188103e-01 -2.806924e-01 -9.299687e-02
130 2 2 -1.605515e+01 1.866090e+01 4.111427e+00 0 -1 0 -7.000575e-01 -6.236573e-01 -1.348648e-01 -3.205972e-01
131 2 3 -1.563417e+01 1.845200e+01 3.947708e+00 0 -1 0 -5.120661e-01 -6.875478e-01 -2.961687e-02 -5.139934e-01
132 2 4 -1.512229e+01 1.832341e+01 3.896405e+00 0 -1 0 3.938025e-01 6.051055e-01 -1.245379e-01 6.806300e-01
133 2 4 -1.466487e+01 1.823582e+01 3.979464e+00 0 -1 0 1.398530e-01 4.825723e-01 -3.244710e-01 8.014260e-01
134 2 3 -1.425615e+01 1.810346e+01 4.344059e+00 0 -1 0 -6.344121e-02 2.867517e-01 -4.060633e-01 8.653677e-01
135 2 4 -1.404231e+01 1.797304e+01 4.801230e+00 0 -1 0 3.224883e-01 -1.086398e-01 4.782666e-01 -8.096047e-01
136 2 3 -1.395451e+01 1.765484e+01 5.210645e+00 0 -1 0 5.367612e-01 1.390723e-01 5.111446e-01 -6.567172e-01
137 2 1 -1.409567e+01 1.723223e+01 5.476501e+00 0 -1 0 -7.444772e-01 -2.805076e-01 -4.047687e-01 4.508121e-01
138 2 3 -1.419155e+01 1.672792e+01 5.537918e+00 0 -1 0 -7.786372e-01 -4.864182e-01 -3.191430e-01 2.350943e-01
139 2 2 -1.418225e+01 1.622794e+01 5.370273e+00 0 -1 0 -7.617101e-01 -6.146180e-01 -1.967785e-01 5.762531e-02
140 2 3 -1.404548e+01 1.570087e+01 5.078540e+00 0 -1 0 -7.542491e-01 -5.897608e-01 2.597914e-03 -2.885892e-01
141 2 1 -1.364867e+01 1.531381e+01 4.976823e+00 0 -1 0 -6.019318e-01 -5.333773e-01 2.615239e-01 -5.336590e-01
142 2 2 -1.337670e+01 1.490692e+01 5.180188e+00 0 -1 0 -4.929449e-01 -4.799184e-01 1.727179e-01 -7.048774e-01
143 2 4 -1.293937e+01 1.461831e+01 5.466167e+00 0 -1 0 3.220941e-01 3.470757e-01 -2.645631e-01 8.401192e-01
144 2 4 -1.268312e+01 1.449204e+01 5.911992e+00 0 -1 0 -1.809032e-01 -1.344905e-01 2.763949e-01 -9.342335e-01
145 2 1 -1.258918e+01 1.449189e+01 6.457354e+00 0 -1 0 1.689359e-01 -1.535765e-03 3.507060e-01 -9.211208e-01
146 2 1 -1.264863e+01 1.435233e+01 6.971588e+00 0 -1 0 3.194941e-01 1.432968e-01 3.206253e-01 -8.801074e-01
147 2 1 -1.290764e+01 1.404111e+01 7.378771e+00 0 -1 0 5.067949e-01 3.182193e-01 2.544281e-01 -7.597116e-01
148 2 2 -1.328562e+01 1.368441e+01 7.696981e+00 0 -1 0 7.117530e-01 3.465567e-01 2.600888e-01 -5.528653e-01
149 2 4 -1.351672e+01 1.315751e+01 7.814659e+00 0 -1 0 -8.381056e-01 -4.757032e-01 -1.417608e-01 2.262506e-01
150 2 1 -1.353403e+01 1.257675e+01 7.799652e+00 0 -1 0 -8.210914e-01 -5.653795e-01 -5.777283e-02 -5.307718e-02
151 2 1 -1.332580e+01 1.209271e+01 7.655860e+00 0 -1 0 -7.476637e-01 -5.614701e-01 6.710611e-02 -3.482056e-01
152 2 1 -1.295976e+01 1.170909e+01 7.741508e+00 0 -1 0 -6.218407e-01 -5.296920e-01 1.323548e-01 -5.614470e-01
153 2 4 -1.256851e+01 1.140067e+01 7.763660e+00 0 -1 0 -4.122338e-01 -4.220070e-01 3.455960e-01 -7.297512e-01
154 2 1 -1.211828e+01 1.118813e+01 7.964196e+00 0 -1 0 -1.686293e-01 -3.355344e-01 3.525381e-01 -8.571451e-01
155 2 2 -1.183106e+01 1.108912e+01 8.377908e+00 0 -1 0 1.244361e-01 -1.679749e-01 4.402532e-01 -8.731994e-01
156 2 4 -1.169327e+01 1.086825e+01 8.813349e+00 0 -1 0 2.792098e-01 -2.017749e-02 4.542880e-01 -8.457288e-01
157 2 3 -1.177315e+01 1.066754e+01 9.235524e+00 0 -1 0 5.032612e-01 1.450438e-01 3.231135e-01 -7.882183e-01
158 2 2 -1.202365e+01 1.025242e+01 9.653431e+00 0 -1 0 6.180792e-01 3.215373e-01 3.202173e-01 -6.419134e-01
159 2 1 -1.232865e+01 9.861060e+00 9.787993e+00 0 -1 0 8.074782e-01 4.488371e-01 1.594176e-01 -3.480089e-01
160 2 3 -1.243446e+01 9.308029e+00 9.897573e+00 0 -1 0 -8.842213e-01 -4.409804e-01 -1.523840e-01 2.163446e-02
161 2 1 -1.234299e+01 8.717336e+00 9.844749e+00 0 -1 0 -7.787703e-01 -5.948494e-01 -7.696185e-02 -1.837060e-01
162 2 1 -1.203443e+01 8.232210e+00 9.848848e+00 0 -1 0 -7.213064e-01 -5.533900e-01 1.739977e-02 -4.161416e-01
163 2 4 -1.168621e+01 7.866968e+00 9.769651e+00 0 -1 0 -5.419884e-01 -5.142362e-01 2.436006e-01 -6.184403e-01
164 2 4 -1.126427e+01 7.535809e+00 9.943635e+00 0 -1 0 -3.746036e-01 -4.328219e-01 2.597053e-01 -7.777471e-01
165 2 3 -1.233298e+01 6.862656e+00 9.438745e+00 0 -1 0 5.161896e-01 4.729263e-01 1.889845e-01 -6.886028e-01
166 2 3 -1.249958e+01 6.773631e+00 9.541299e+00 0 -1 0 -7.324964e-01 1.783735e-02 6.782320e-01 5.596677e-02
167 2 4 -1.292620e+01 6.572500e+00 9.657487e+00 0 -1 0 -6.506093e-01 3.815496e-01 5.814701e-01 -3.049917e-01
168 2 2 -1.331856e+01 6.614458e+00 9.948830e+00 0 -1 0 -5.901839e-01 4.823339e-01 4.128674e-01 -4.985755e-01
169 2 2 -1.385908e+01 6.353805e+00 8.849579e+00 0 -1 0 -3.378698e-02 1.396623e-01 1.030529e-01 9.842423e-01
170 2 1 -1.362845e+01 4.778929e+00 8.457945e+00 0 -1 0 -1.630642e-01 -3.051387e-01 8.750132e-01 3.386037e-01
171 2 1 -1.384100e+01 4.647254e+00 8.086686e+00 0 -1 0 1.199590e-01 -3.392595e-01 -8.960710e-01 -2.599416e-01
172 2 4 -1.369460e+01 4.557193e+00 7.695206e+00 0 -1 0 7.837806e-03 -2.520978e-02 -4.303208e-01 9.022899e-01
173 2 4 -1.283815e+01 4.277844e+00 6.901919e+00 0 -1 0 7.084761e-01 3.992315e-01 -2.168323e-01 5.400552e-01
174 2 1 -1.247872e+01 3.898333e+00 7.036613e+00 0 -1 0 -4.248889e-01 -3.733150e-01 3.600837e-01 -7.419199e-01
175 2 1 -1.210552e+01 3.668505e+00 7.241360e+00 0 -1 0 -2.595677e-01 -2.728666e-01 2.977222e-01 -8.772285e-01
176 2 2 -1.192078e+01 3.334341e+00 7.665224e+00 0 -1 0 -3.219940e-01 -1.653689e-01 2.503909e-01 -8.979295e-01
177 2 2 -1.162898e+01 2.413786e+00 7.800816e+00 0 -1 0 -6.471901e-01 2.461449e-01 2.125534e-01 6.894771e-01
178 2 1 -1.065487e+01 2.321430e+00 6.890553e+00 0 -1 0 -4.098660e-01 -5.306223e-01 2.528005e-01 6.975254e-01
179 2 4 -1.003957e+01 2.562695e+00 7.196545e+00 0 -1 0 1.949564e-01 7.401203e-01 6.239291e-01 -1.578813e-01
180 2 1 -9.434089e+00 2.315351e+00 7.262434e+00 0 -1 0 4.928810e-01 -1.791449e-01 7.477153e-01 -4.073049e-01
181 2 4 -8.233265e+00 2.390380e+00 7.610805e+00 0 -1 0 -7.043979e-01 5.583567e-01 -2.187069e-01 -3.797746e-01
182 2 2 -7.778540e+00 2.046978e+00 8.127531e+00 0 -1 0 -3.846606e-01 9.145707e-01 -3.597733e-02 -1.195924e-01
183 2 3 -8.425536e+00 1.515576e+00 8.122574e+00 0 -1 0 8.019922e-01 -2.734233e-01 -1.273952e-01 5.155761e-01
184 2 4 -8.201224e+00 1.497830e+00 8.478368e+00 0 -1 0 1.291294e-01 4.019918e-01 -3.612564e-02 9.057721e-01
185 2 3 -7.071781e+00 8.839394e-01 7.809783e+00 0 -1 0 4.168709e-01 -7.599063e-01 4.986879e-01 8.455754e-03
186 2 1 -6.591053e+00 9.977034e-01 7.137991e+00 0 -1 0 2.406172e-01 8.262474e-01 -4.999411e-01 9.735216e-02
187 2 1 -6.610684e+00 2.493490e-01 7.188853e+00 0 -1 0 -9.644380e-01 1.272350e-01 -4.968581e-02 -2.262786e-01
188 2 2 -6.246954e+00 7.409140e-02 7.570170e+00 0 -1 0 -7.857979e-01 1.630704e-02 1.980803e-02 -6.179509e-01
189 2 4 -6.140418e+00 -6.085439e-01 7.203539e+00 0 -1 0 1.529409e-01 -8.933603e-01 3.105646e-01 -2.864718e-01
190 2 4 -6.646682e+00 -1.038709e+00 6.378217e+00 0 -1 0 2.116964e-02 2.708009e-02 -9.321200e-01 3.605147e-01
191 2 1 -6.761406e+00 -1.553435e+00 6.201417e+00 0 -1 0 1.629444e-01 3.507433e-01 8.858208e-01 -2.564173e-01
192 2 4 -7.373845e+00 -1.597327e+00 5.599085e+00 0 -1 0 -3.850154e-01 -1.311335e-02 2.620469e-01 8.848291e-01
193 2 4 -7.774999e+00 -1.548944e+00 5.813342e+00 0 -1 0 7.992598e-01 -1.714221e-01 -2.952533e-01 -4.945945e-01
194 2 1 -8.097532e+00 -1.473917e+00 6.248570e+00 0 -1 0 9.261259e-01 -1.822043e-01 -2.332257e-01 -2.338763e-01
195 2 3 -8.611837e+00 -2.089694e+00 5.712335e+00 0 -1 0 2.195264e-01 4.130161e-02 -8.353245e-01 -5.023300e-01
196 2 4 -8.981934e+00 -1.852994e+00 5.443084e+00 0 -1 0 5.063056e-01 -3.213182e-01 -7.175874e-01 -3.542282e-01
197 2 2 -8.737381e+00 -1.591773e+00 4.178469e+00 0 -1 0 -8.731123e-01 -4.043321e-01 -2.446434e-01 -1.197504e-01
198 2 4 -9.591322e+00 -1.211544e+00 3.895757e+00 0 -1 0 2.269330e-01 2.451106e-01 9.049093e-01 -2.637447e-01
199 2 3 -9.671590e+00 -1.128702e+00 4.107441e+00 0 -1 0 5.133252e-01 -6.804667e-01 -4.488636e-01 2.682981e-01
200 2 4 -1.020301e+01 -1.754496e+00 3.066961e+00 0 -1 0 -8.890764e-01 -6.461250e-03 -4.202273e-01 1.814125e-01
