ITEM: TIMESTEP
81000000
ITEM: NUMBER OF ATOMS
200
ITEM: BOX BOUNDS pp pp pp
-2.0000000000000000e+01 2.0000000000000000e+01
-2.0000000000000000e+01 2.0000000000000000e+01
-2.0000000000000000e+01 2.0000000000000000e+01
ITEM: ATOMS id mol type x y z ix iy iz c_quat[1] c_quat[2] c_quat[3] c_quat[4]
1 1 1 -1.028264e+01 8.379288e+00 1.795658e+01 0 -1 0 3.243973e-01 -6.640920e-01 6.549186e-01 1.575749e-01
2 1 2 -1.053594e+01 9.648431e+00 1.740627e+01 0 -1 0 5.667143e-01 -4.653238e-03 2.061451e-01 7.976951e-01
3 1 1 -1.048982e+01 1.000238e+01 1.772372e+01 0 -1 0 2.158349e-01 -8.222193e-03 3.597166e-01 9.077178e-01
4 1 3 -9.696059e+00 1.020807e+01 1.742526e+01 0 -1 0 -3.686965e-01 -8.386469e-01 -3.999513e-01 2.780735e-02
5 1 1 -9.657976e+00 1.011111e+01 1.692783e+01 0 -1 0 -3.244380e-01 -9.380246e-01 -7.466766e-02 -9.630465e-02
6 1 2 -9.827816e+00 9.440374e+00 1.689720e+01 0 -1 0 -2.546299e-01 -6.025030e-01 7.929131e-02 -7.522411e-01
7 1 4 -1.086403e+01 8.773110e+00 1.649072e+01 0 -1 0 3.732429e-01 -4.361296e-01 -4.048767e-01 -7.117272e-01
8 1 1 -1.098744e+01 9.167952e+00 1.677600e+01 0 -1 0 6.566199e-01 -6.017366e-01 -7.340441e-02 -4.487484e-01
9 1 1 -1.056453e+01 8.679325e+00 1.540772e+01 0 -1 0 -9.186208e-01 -3.919098e-01 4.646319e-03 -5.020940e-02
10 1 4 -1.036222e+01 8.167359e+00 1.541265e+01 0 -1 0 -8.416446e-01 -3.395907e-01 1.445658e-01 -3.942248e-01
11 1 1 -1.083720e+01 7.386161e+00 1.605579e+01 0 -1 0 -9.535297e-01 2.432923e-01 -1.776662e-01 -4.964574e-03
12 1 1 -1.211259e+01 7.522161e+00 1.581675e+01 0 -1 0 -4.639085e-01 1.514510e-02 -8.857276e-01 -6.798352e-03
13 1 3 -1.188174e+01 7.203052e+00 1.554811e+01 0 -1 0 5.050426e-01 4.051008e-01 6.924573e-01 3.183210e-01
14 1 4 -1.192049e+01 7.158083e+00 1.645488e+01 0 -1 0 4.484379e-01 -8.680678e-01 2.082228e-01 4.477710e-02
15 1 4 -1.256469e+01 6.957450e+00 1.515381e+01 0 -1 0 -5.944587e-01 3.296120e-02 -7.231933e-01 -3.500341e-01
16 1 2 -1.215145e+01 7.430957e+00 1.460292e+01 0 -1 0 7.232544e-01 -1.647635e-01 4.126596e-01 5.286474e-01
17 1 1 -1.291754e+01 7.604107e+00 1.476345e+01 0 -1 0 2.870793e-01 9.154289e-01 -1.198733e-01 -2.553543e-01
18 1 2 -1.376366e+01 7.461752e+00 1.421959e+01 0 -1 0 2.112343e-01 5.177129e-01 8.248689e-01 -8.333493e-02
19 1 3 -1.387695e+01 7.305623e+00 1.375018e+01 0 -1 0 -3.214661e-01 -7.954243e-01 -5.087536e-01 -7.162049e-02
20 1 1 -1.450668e+01 6.446565e+00 1.326976e+01 0 -1 0 -5.261510e-01 -4.710297e-01 -7.041743e-01 -7.372037e-02
21 1 4 -1.408976e+01 6.239257e+00 1.292211e+01 0 -1 0 3.682818e-01 6.322951e-01 6.610105e-01 1.662423e-01
22 1 1 -1.401869e+01 6.255013e+00 1.236885e+01 0 -1 0 -1.509265e-01 -8.516338e-01 -4.729230e-01 -1.681813e-01
23 1 4 -1.419520e+01 4.955915e+00 1.215128e+01 0 -1 0 -2.689045e-01 -5.860248e-01 3.672144e-01 6.703871e-01
24 1 3 -1.496116e+01 5.412407e+00 1.232528e+01 0 -1 0 9.420344e-02 2.128954e-01 8.265622e-01 -5.124414e-01
25 1 3 -1.498965e+01 5.619398e+00 1.166045e+01 0 -1 0 2.632523e-01 4.899235e-01 -7.180394e-01 -4.184407e-01
26 1 4 -1.515862e+01 5.716903e+00 1.115645e+01 0 -1 0 4.060365e-01 2.777416e-01 -8.391494e-01 -2.319961e-01
27 1 4 -1.452309e+01 6.516430e+00 1.058922e+01 0 -1 0 2.312058e-01 8.077092e-01 4.197557e-02 5.407289e-01
28 1 1 -1.446647e+01 6.537187e+00 1.004466e+01 0 -1 0 -8.699728e-01 -3.183760e-01 -3.011668e-01 2.260148e-01
29 1 1 -1.423921e+01 6.994174e+00 9.193953e+00 0 -1 0 -1.989600e-02 3.771200e-01 -6.489223e-01 -6.605184e-01
30 1 4 -1.358719e+01 7.252854e+00 9.500402e+00 0 -1 0 -6.707567e-01 5.343132e-02 -7.172507e-01 -1.810579e-01
31 1 4 -1.295038e+01 7.269930e+00 9.491622e+00 0 -1 0 -5.447932e-01 2.180509e-02 -8.346231e-01 -7.828974e-02
32 1 3 -1.268858e+01 7.125362e+00 9.106370e+00 0 -1 0 4.629714e-01 4.430235e-01 7.365829e-01 2.164099e-01
33 1 3 -1.253444e+01 7.071414e+00 8.665836e+00 0 -1 0 -3.525104e-01 -7.669075e-01 -3.755185e-01 -3.828513e-01
34 1 1 -1.219559e+01 7.177736e+00 8.321968e+00 0 -1 0 1.622225e-01 8.542009e-01 -3.205745e-02 4.929472e-01
35 1 2 -1.210962e+01 7.490174e+00 7.997995e+00 0 -1 0 -4.105515e-01 8.579913e-01 -3.083483e-01 1.482536e-02
36 1 2 -1.173316e+01 7.809191e+00 7.966542e+00 0 -1 0 -3.498544e-01 5.851909e-01 -7.047934e-01 -1.960094e-01
37 1 1 -1.125214e+01 7.900757e+00 7.634688e+00 0 -1 0 -1.958851e-01 3.677747e-01 -8.431345e-01 -3.398455e-01
38 1 1 -1.110256e+01 8.094323e+00 7.180580e+00 0 -1 0 7.987975e-02 -1.745452e-01 9.200042e-01 3.416803e-01
39 1 4 -1.112352e+01 8.051286e+00 6.614989e+00 0 -1 0 5.828980e-02 -1.609547e-01 -9.411746e-01 -2.913525e-01
40 1 4 -1.132920e+01 8.172508e+00 6.169525e+00 0 -1 0 1.552712e-01 -4.713764e-01 -8.498960e-01 -1.771213e-01
41 1 2 -1.163280e+01 8.429385e+00 5.752774e+00 0 -1 0 3.445368e-01 -5.851004e-01 -7.031654e-01 -2.109747e-01
42 1 4 -1.194782e+01 8.704581e+00 5.404082e+00 0 -1 0 3.731602e-01 -7.805097e-01 -4.905044e-01 -1.046975e-01
43 1 3 -1.226792e+01 9.054216e+00 5.258183e+00 0 -1 0 4.738616e-01 -8.280693e-01 -2.994573e-01 9.036563e-03
44 1 2 -1.251096e+01 9.556184e+00 5.201536e+00 0 -1 0 3.993868e-01 -9.134308e-01 -2.764653e-02 7.328016e-02
45 1 1 -1.249598e+01 1.008046e+01 5.217113e+00 0 -1 0 4.632029e-01 -8.188497e-01 2.831287e-01 1.864574e-01
46 1 3 -1.226796e+01 1.050716e+01 5.020764e+00 0 -1 0 3.784305e-01 -6.799144e-01 5.617715e-01 2.809261e-01
47 1 4 -1.206010e+01 1.088647e+01 4.738971e+00 0 -1 0 2.185950e-01 -5.421224e-01 7.618747e-01 2.790456e-01
48 1 1 -1.173830e+01 1.098353e+01 4.274339e+00 0 -1 0 -1.721930e-01 2.483203e-01 -9.303306e-01 -2.077776e-01
49 1 4 -1.158744e+01 1.097557e+01 3.752726e+00 0 -1 0 -8.275003e-02 5.786212e-02 -9.894262e-01 -1.041164e-01
50 1 4 -1.160525e+01 1.080092e+01 3.247340e+00 0 -1 0 2.263098e-02 -2.241203e-01 -9.617263e-01 -1.560141e-01
51 1 4 -1.176660e+01 1.082410e+01 2.704016e+00 0 -1 0 1.513565e-01 -4.482762e-01 -8.619063e-01 -1.823657e-01
52 1 1 -1.208797e+01 1.095173e+01 2.201902e+00 0 -1 0 2.228876e-01 -6.229498e-01 -7.448529e-01 -8.630638e-02
53 1 3 -1.244136e+01 1.118486e+01 1.866660e+00 0 -1 0 -3.338063e-01 7.642964e-01 5.510784e-01 2.714890e-02
54 1 4 -1.276727e+01 1.154902e+01 1.738405e+00 0 -1 0 4.087727e-01 -8.584082e-01 -3.020955e-01 6.912754e-02
55 1 4 -1.299746e+01 1.200812e+01 1.785910e+00 0 -1 0 4.548252e-01 -8.474637e-01 5.210235e-02 2.687463e-01
56 1 4 -1.306235e+01 1.248528e+01 1.633038e+00 0 -1 0 4.030410e-01 -8.018979e-01 3.587072e-01 2.566065e-01
57 1 1 -1.286890e+01 1.300874e+01 1.396115e+00 0 -1 0 2.801488e-01 -7.032278e-01 5.845830e-01 2.919762e-01
58 1 1 -1.256720e+01 1.328497e+01 1.109664e+00 0 -1 0 2.770890e-01 -4.210467e-01 8.143869e-01 2.876026e-01
59 1 3 -1.232102e+01 1.349379e+01 7.298515e-01 0 -1 0 -1.122416e-01 2.509600e-01 -9.104910e-01 -3.089128e-01
60 1 4 -1.216087e+01 1.351020e+01 2.346702e-01 0 -1 0 -1.386506e-02 -2.764319e-02 -9.428619e-01 -3.317455e-01
61 1 2 -1.220146e+01 1.356838e+01 -3.199195e-01 0 -1 0 7.158113e-02 -3.193501e-01 -8.654617e-01 -3.792989e-01
62 1 3 -1.260823e+01 1.372846e+01 -7.452021e-01 0 -1 0 2.594975e-01 -4.447090e-01 -8.027380e-01 -3.008433e-01
63 1 2 -1.301669e+01 1.397726e+01 -9.914158e-01 0 -1 0 4.067978e-01 -6.749630e-01 -5.938852e-01 -1.619905e-01
64 1 4 -1.332303e+01 1.436370e+01 -1.119096e+00 0 -1 0 5.166704e-01 -7.530893e-01 -4.028414e-01 -6.022541e-02
65 1 2 -1.350210e+01 1.491573e+01 -1.098592e+00 0 -1 0 3.959664e-01 -9.161045e-01 -6.295037e-02 -6.030705e-04
66 1 1 -1.344671e+01 1.549661e+01 -1.204720e+00 0 -1 0 3.387307e-01 -9.151144e-01 2.062253e-01 7.278968e-02
67 1 2 -1.315630e+01 1.592619e+01 -1.382470e+00 0 -1 0 3.224984e-01 -7.409757e-01 5.642167e-01 1.691426e-01
68 1 1 -1.286573e+01 1.626694e+01 -1.690041e+00 0 -1 0 2.377419e-01 -5.287438e-01 7.728044e-01 2.582289e-01
69 1 1 -1.253161e+01 1.644276e+01 -2.115449e+00 0 -1 0 1.095446e-01 -3.180301e-01 9.170160e-01 2.143329e-01
70 1 2 -1.241580e+01 1.639057e+01 -2.634758e+00 0 -1 0 5.016046e-02 4.766577e-03 -9.717984e-01 -2.303674e-01
71 1 3 -1.278220e+01 1.640546e+01 -3.188681e+00 0 -1 0 1.986491e-01 -2.540321e-01 -9.214478e-01 -2.166569e-01
72 1 4 -1.309391e+01 1.655234e+01 -3.634419e+00 0 -1 0 3.640592e-01 -3.985746e-01 -8.276146e-01 -1.537962e-01
73 1 1 -1.361004e+01 1.668348e+01 -3.855965e+00 0 -1 0 4.743916e-01 -6.209734e-01 -6.230472e-01 -3.401164e-02
74 1 1 -1.403346e+01 1.694040e+01 -3.964634e+00 0 -1 0 -5.327097e-01 7.287250e-01 4.228393e-01 -7.991961e-02
75 1 3 -1.435596e+01 1.740822e+01 -3.864251e+00 0 -1 0 5.027850e-01 -8.090129e-01 -1.147221e-01 2.820357e-01
76 1 1 -1.403655e+01 1.771352e+01 -3.532355e+00 0 -1 0 6.142911e-01 5.378386e-01 -4.286994e-01 3.867724e-01
77 1 4 -1.446255e+01 1.871396e+01 -3.359442e+00 0 -1 0 -4.752797e-01 8.393339e-01 2.626258e-01 -2.560406e-02
78 1 1 -1.457323e+01 1.919700e+01 -3.353864e+00 0 -1 0 -4.917637e-01 8.490122e-01 -4.001230e-02 -1.890653e-01
79 1 4 -1.462390e+01 1.967683e+01 -3.295693e+00 0 -1 0 4.210244e-01 -7.205641e-01 3.269956e-01 4.433957e-01
80 1 2 -1.448239e+01 2.014435e+01 -3.424144e+00 0 -1 0 1.147096e-01 -4.884654e-01 5.598558e-01 6.593973e-01
81 1 4 -1.460676e+01 -1.953551e+01 -3.792223e+00 0 0 0 -1.905369e-01 -1.671974e-01 7.089333e-01 6.581446e-01
82 1 4 -1.429328e+01 -1.815254e+01 -3.449248e+00 0 0 0 4.743598e-01 -2.501321e-01 1.719420e-01 8.263490e-01
83 1 4 -1.493864e+01 -1.909691e+01 -2.623705e+00 0 0 0 -4.120311e-01 -2.953622e-01 8.580048e-01 8.257823e-02
84 1 4 -1.592922e+01 -1.799388e+01 -2.217937e+00 0 0 0 -3.200533e-01 4.369349e-01 8.396960e-01 3.955335e-02
85 1 1 -1.639358e+01 -1.838461e+01 -2.000522e+00 0 0 0 -4.253186e-01 1.452377e-01 2.651183e-01 8.530665e-01
86 1 1 -1.635643e+01 -1.835532e+01 -1.232422e+00 0 0 0 6.078315e-01 -4.425218e-01 4.027651e-01 -5.220111e-01
87 1 3 -1.602453e+01 -1.839073e+01 -8.508532e-01 0 0 0 -7.306647e-01 2.707334e-01 -5.030685e-01 3.738375e-01
88 1 2 -1.719461e+01 -1.791828e+01 -7.237625e-01 0 0 0 -2.270023e-01 1.123853e-01 2.585793e-01 9.321890e-01
89 1 2 -1.719866e+01 -1.855895e+01 -9.215650e-01 0 0 0 -5.484466e-01 3.975312e-01 6.965852e-01 2.365255e-01
90 1 3 -1.754544e+01 -1.834628e+01 -8.003235e-01 0 0 0 -9.716020e-02 5.831791e-01 -5.335308e-01 6.048197e-01
91 1 3 -1.852059e+01 -1.820632e+01 -1.252520e+00 0 0 0 -5.125034e-01 -1.154888e-01 6.845148e-01 5.054127e-01
92 1 2 -1.899191e+01 -1.810577e+01 -1.339334e+00 0 0 0 -6.836598e-01 1.861217e-01 6.739693e-01 2.091253e-01
93 1 1 -1.761179e+01 -1.790787e+01 -1.997864e+00 0 0 0 7.395709e-01 5.955838e-01 -4.850162e-02 3.097781e-01
94 1 2 -1.855901e+01 -1.791759e+01 -2.388356e+00 0 0 0 -1.241911e-01 -1.871089e-01 9.513908e-01 2.107662e-01
95 1 3 -1.880702e+01 -1.785602e+01 -2.801670e+00 0 0 0 -2.814498e-01 1.597952e-01 9.446303e-01 5.408394e-02
96 1 2 -1.753909e+01 -1.779681e+01 -3.479505e+00 0 0 0 6.775375e-01 3.365251e-01 7.176198e-03 6.539437e-01
97 1 2 -1.845132e+01 -1.808281e+01 -4.226018e+00 0 0 0 -3.699142e-01 2.038041e-01 3.172940e-01 8.490889e-01
98 1 4 -1.811489e+01 -1.694533e+01 -3.907831e+00 0 0 0 2.850266e-01 -9.063511e-01 -2.932584e-01 -1.062403e-01
99 1 2 -1.805370e+01 -1.652943e+01 -4.082311e+00 0 0 0 -1.482059e-02 -9.527675e-01 2.739030e-01 1.303522e-01
100 1 1 -1.791429e+01 -1.637491e+01 -4.578276e+00 0 0 0 3.276295e-02 8.216791e-01 -5.689819e-01 5.443304e-03
101 2 4 -7.434715e+00 -1.646979e+01 -3.226176e+00 0 0 0 -3.281544e-01 -5.546368e-01 -7.439661e-01 -1.766553e-01
102 2 3 -6.837194e+00 -1.707031e+01 -2.254548e+00 0 0 0 5.255323e-01 1.642785e-01 -1.904268e-01 8.127521e-01
103 2 1 -7.870171e+00 -1.787654e+01 -1.774613e+00 0 0 0 -7.552649e-01 2.784223e-01 -1.522324e-02 5.931477e-01
104 2 3 -8.069981e+00 -1.821572e+01 -2.924086e+00 0 0 0 -2.697534e-01 -1.716166e-01 -9.474131e-01 1.375856e-02
105 2 3 -7.959958e+00 -1.837183e+01 -3.411563e+00 0 0 0 -1.329139e-01 -3.955964e-01 -9.068991e-01 -5.806410e-02
106 2 2 -7.503410e+00 -1.863075e+01 -3.488248e+00 0 0 0 1.670016e-01 -7.681297e-02 -3.734737e-01 9.092456e-01
107 2 3 -7.394101e+00 -1.942734e+01 -3.389991e+00 0 0 0 5.975163e-01 6.688027e-01 -3.430920e-01 -2.792222e-01
108 2 4 -7.903562e+00 -1.973590e+01 -3.490931e+00 0 0 0 9.381152e-01 3.440296e-01 2.483657e-03 3.971626e-02
109 2 3 -9.300922e+00 -1.887158e+01 -3.233841e+00 0 0 0 1.123137e-01 -1.452611e-01 -1.441364e-01 9.723731e-01
110 2 2 -8.742480e+00 -1.990463e+01 -2.651161e+00 0 0 0 9.746837e-01 1.819135e-01 1.293873e-01 -1.257407e-02
111 2 2 -8.535816e+00 -1.884869e+01 -2.587432e+00 0 0 0 6.853704e-01 6.822514e-01 -1.914832e-01 1.677337e-01
112 2 3 -9.163445e+00 -1.818461e+01 -2.829302e+00 0 0 0 -2.923772e-01 -6.600260e-01 2.649485e-01 6.392836e-01
113 2 3 -9.599793e+00 -1.821982e+01 -3.092219e+00 0 0 0 6.196913e-01 4.374163e-01 -5.119916e-01 -4.031307e-01
114 2 2 -9.985030e+00 -1.845938e+01 -3.209927e+00 0 0 0 -7.910492e-01 -1.319442e-01 5.961125e-01 3.849434e-02
115 2 4 -9.860034e+00 -1.831751e+01 -4.304363e+00 0 0 0 -9.154402e-01 -2.881562e-01 2.467281e-01 1.343892e-01
116 2 4 -1.022313e+01 -1.902402e+01 -4.286146e+00 0 0 0 -5.395244e-01 7.668278e-03 8.273827e-01 1.558604e-01
117 2 1 -1.040384e+01 -1.866747e+01 -5.320430e+00 0 0 0 8.373841e-01 4.375761e-01 9.815573e-02 -3.125388e-01
118 2 1 -1.046920e+01 -1.919780e+01 -5.197121e+00 0 0 0 9.019968e-01 4.309810e-01 1.898509e-02 -1.722637e-02
119 2 1 -1.077698e+01 -1.933727e+01 -5.203185e+00 0 0 0 -3.238054e-01 3.085239e-01 -1.934042e-01 -8.732456e-01
120 2 1 -1.079024e+01 -1.979163e+01 -5.563163e+00 0 0 0 -6.554993e-01 -1.001772e-01 -5.108883e-01 5.470633e-01
121 2 3 -1.062046e+01 1.933778e+01 -5.564865e+00 0 -1 0 -3.738524e-01 5.126058e-01 -7.371689e-01 2.324902e-01
122 2 1 -1.172686e+01 -1.959560e+01 -5.299324e+00 0 0 0 5.003283e-02 -4.054733e-01 -6.003061e-01 6.875469e-01
123 2 4 -1.208423e+01 -1.981760e+01 -5.108412e+00 0 0 0 -2.809706e-01 -5.892936e-01 -3.663352e-01 6.630136e-01
124 2 1 -1.276075e+01 1.931111e+01 -4.642199e+00 0 -1 0 -1.510446e-01 2.368040e-02 -7.879335e-01 5.964776e-01
125 2 4 -1.284148e+01 1.886246e+01 -4.441428e+00 0 -1 0 -3.540642e-01 -3.301476e-01 -6.716843e-01 5.607863e-01
126 2 2 -1.251206e+01 1.819072e+01 -3.651906e+00 0 -1 0 2.996925e-01 -2.629507e-01 -9.075640e-01 -1.317915e-01
127 2 4 -1.327832e+01 1.781179e+01 -3.487028e+00 0 -1 0 -4.133815e-01 2.482482e-02 -4.076188e-01 8.138466e-01
128 2 4 -1.345146e+01 1.755916e+01 -3.076305e+00 0 -1 0 -6.475064e-01 -1.531408e-01 -3.452263e-01 6.618928e-01
129 2 1 -1.358620e+01 1.719600e+01 -2.738414e+00 0 -1 0 -7.777402e-01 -3.253797e-01 -2.838916e-01 4.567864e-01
130 2 2 -1.365074e+01 1.674572e+01 -2.450336e+00 0 -1 0 -7.606887e-01 -4.643309e-01 -2.575005e-01 3.734208e-01
131 2 3 -1.360961e+01 1.622715e+01 -2.470242e+00 0 -1 0 -8.391319e-01 -5.220988e-01 -1.394538e-01 -6.183142e-02
132 2 4 -1.343004e+01 1.576154e+01 -2.531703e+00 0 -1 0 7.975225e-01 4.694210e-01 -2.052491e-02 3.783920e-01
133 2 4 -1.307469e+01 1.536052e+01 -2.419720e+00 0 -1 0 6.622656e-01 3.668561e-01 -9.944195e-02 6.457029e-01
134 2 3 -1.262474e+01 1.510495e+01 -2.088018e+00 0 -1 0 4.938875e-01 2.176404e-01 -2.191468e-01 8.128238e-01
135 2 4 -1.238792e+01 1.503883e+01 -1.560371e+00 0 -1 0 -2.847027e-01 -1.074141e-01 2.779736e-01 -9.111187e-01
136 2 3 -1.231092e+01 1.505738e+01 -9.980273e-01 0 -1 0 5.469806e-02 2.762710e-02 3.436827e-01 -9.370844e-01
137 2 1 -1.245223e+01 1.493761e+01 -4.802926e-01 0 -1 0 -2.374366e-01 -1.867640e-01 -2.834500e-01 9.101644e-01
138 2 3 -1.274394e+01 1.477001e+01 -1.084603e-01 0 -1 0 -5.850994e-01 -2.883556e-01 -2.623629e-01 7.111086e-01
139 2 2 -1.306604e+01 1.445829e+01 1.310685e-01 0 -1 0 -7.745028e-01 -3.605665e-01 -2.362398e-01 4.629556e-01
140 2 3 -1.325474e+01 1.400766e+01 2.419829e-01 0 -1 0 -8.471492e-01 -4.565205e-01 -1.525244e-01 2.250858e-01
141 2 1 -1.334129e+01 1.353673e+01 1.585356e-01 0 -1 0 -8.693360e-01 -4.836192e-01 8.684403e-02 -5.315527e-02
142 2 2 -1.338056e+01 1.306407e+01 3.203672e-01 0 -1 0 -8.614487e-01 -4.458915e-01 4.982939e-02 -2.379156e-01
143 2 4 -1.316713e+01 1.259202e+01 3.536311e-01 0 -1 0 7.227637e-01 4.540481e-01 -1.041602e-01 5.104935e-01
144 2 4 -1.277198e+01 1.217233e+01 5.468604e-01 0 -1 0 -5.946189e-01 -4.139540e-01 1.300635e-01 -6.768707e-01
145 2 1 -1.228031e+01 1.205504e+01 8.488907e-01 0 -1 0 -2.724569e-01 -2.959971e-01 1.733730e-01 -8.989409e-01
146 2 1 -1.201386e+01 1.214110e+01 1.228952e+00 0 -1 0 6.297758e-02 -2.565458e-01 1.622604e-01 -9.507311e-01
147 2 1 -1.173051e+01 1.213381e+01 1.808402e+00 0 -1 0 1.601952e-01 -5.181394e-02 2.297110e-01 -9.585852e-01
148 2 2 -1.184427e+01 1.212365e+01 2.307239e+00 0 -1 0 4.641007e-01 9.678471e-02 2.007599e-01 -8.572857e-01
149 2 4 -1.221871e+01 1.198973e+01 2.707621e+00 0 -1 0 -7.296654e-01 -1.227224e-01 -1.478866e-01 6.562448e-01
150 2 1 -1.238434e+01 1.169983e+01 3.174375e+00 0 -1 0 -8.282285e-01 -2.407768e-01 -1.339988e-01 4.879636e-01
151 2 1 -1.267046e+01 1.129546e+01 3.325175e+00 0 -1 0 -9.386210e-01 -2.785454e-01 2.701999e-02 2.016757e-01
152 2 1 -1.284299e+01 1.092823e+01 3.684269e+00 0 -1 0 -9.313264e-01 -3.611971e-01 -2.281610e-02 4.058655e-02
153 2 4 -1.270083e+01 1.040886e+01 3.701527e+00 0 -1 0 -8.650042e-01 -3.534179e-01 1.385654e-01 -3.281206e-01
154 2 1 -1.232081e+01 1.003197e+01 3.937637e+00 0 -1 0 -6.554110e-01 -3.986735e-01 1.758089e-01 -6.169174e-01
155 2 2 -1.193598e+01 9.682437e+00 4.144287e+00 0 -1 0 -4.838876e-01 -3.222268e-01 1.433613e-01 -8.009184e-01
156 2 4 -1.154411e+01 9.704246e+00 4.504938e+00 0 -1 0 -2.206655e-01 -2.675581e-01 2.637285e-01 -9.000926e-01
157 2 3 -1.133562e+01 9.665546e+00 5.058676e+00 0 -1 0 -2.994040e-03 -5.191620e-02 2.607702e-01 -9.639993e-01
158 2 2 -1.135131e+01 9.696822e+00 5.571125e+00 0 -1 0 2.947816e-01 3.168583e-02 3.169627e-01 -9.009076e-01
159 2 1 -1.149459e+01 9.592612e+00 6.054767e+00 0 -1 0 5.464172e-01 1.337629e-01 2.811370e-01 -7.774945e-01
160 2 3 -1.169383e+01 9.367873e+00 6.503733e+00 0 -1 0 -7.416616e-01 -1.818819e-01 -2.083741e-01 6.110951e-01
161 2 1 -1.198659e+01 8.920144e+00 6.781786e+00 0 -1 0 -8.175206e-01 -4.073415e-01 -1.352658e-01 3.839741e-01
162 2 1 -1.220115e+01 8.421395e+00 6.890812e+00 0 -1 0 -8.240900e-01 -5.147401e-01 -4.921027e-02 2.312935e-01
163 2 4 -1.222475e+01 7.865854e+00 6.853972e+00 0 -1 0 -8.543754e-01 -4.958348e-01 7.760834e-02 -1.347869e-01
164 2 4 -1.198107e+01 7.405873e+00 6.830364e+00 0 -1 0 -7.327514e-01 -4.342422e-01 2.679903e-01 -4.502114e-01
165 2 3 -1.163875e+01 6.995776e+00 7.080185e+00 0 -1 0 5.517182e-01 1.811737e-01 -3.403122e-01 7.395747e-01
166 2 3 -1.151149e+01 6.869290e+00 7.495606e+00 0 -1 0 -2.640830e-01 -1.030216e-01 3.586402e-01 -8.893953e-01
167 2 4 -1.113852e+01 5.716074e+00 7.816283e+00 0 -1 0 7.193007e-01 -2.936891e-01 5.510681e-01 -3.044292e-01
168 2 2 -1.030847e+01 5.766823e+00 7.889350e+00 0 -1 0 2.395295e-01 5.563300e-01 -7.827994e-01 -1.426454e-01
169 2 2 -9.902482e+00 5.830704e+00 8.750643e+00 0 -1 0 7.311554e-01 -2.657419e-01 -2.568545e-01 5.734272e-01
170 2 1 -1.006865e+01 5.980827e+00 9.198483e+00 0 -1 0 4.188619e-01 -3.766291e-01 -5.559583e-02 8.243872e-01
171 2 1 -9.577799e+00 6.117675e+00 9.294761e+00 0 -1 0 9.786733e-02 7.321156e-01 -3.601438e-01 -5.698466e-01
172 2 4 -9.477360e+00 6.126124e+00 1.067923e+01 0 -1 0 4.391612e-01 -4.168913e-01 2.292966e-01 -7.620775e-01
173 2 4 -8.507184e+00 6.557901e+00 9.458306e+00 0 -1 0 -4.739856e-01 -8.139222e-01 2.324069e-01 2.426011e-01
174 2 1 -8.004400e+00 5.972264e+00 9.303153e+00 0 -1 0 -9.314774e-01 8.979100e-02 -2.595126e-01 -2.386223e-01
175 2 1 -7.641977e+00 5.909765e+00 9.515388e+00 0 -1 0 6.116828e-01 4.352441e-02 1.260827e-01 7.797775e-01
176 2 2 -7.373056e+00 6.200293e+00 9.853316e+00 0 -1 0 1.369668e-01 8.507897e-02 -2.855378e-02 9.865021e-01
177 2 2 -7.194743e+00 6.748634e+00 1.026824e+01 0 -1 0 3.215014e-01 5.478954e-01 -2.796169e-01 7.199041e-01
178 2 1 -6.789109e+00 6.584714e+00 1.045814e+01 0 -1 0 2.078838e-02 -4.410599e-01 3.921754e-01 -8.069898e-01
179 2 4 -6.497877e+00 6.357307e+00 1.087529e+01 0 -1 0 2.439006e-01 -2.038062e-01 6.128012e-01 -7.234986e-01
180 2 1 -6.381699e+00 6.020124e+00 1.117903e+01 0 -1 0 5.419989e-01 5.616196e-02 5.613747e-01 -6.228495e-01
181 2 4 -6.378311e+00 5.618060e+00 1.147830e+01 0 -1 0 6.902776e-01 2.957425e-01 5.214147e-01 -4.051912e-01
182 2 2 -6.316146e+00 6.120290e+00 1.255492e+01 0 -1 0 -4.887351e-02 -2.432579e-01 -9.256008e-01 2.858323e-01
183 2 3 -5.800097e+00 5.282139e+00 1.320589e+01 0 -1 0 1.914370e-01 3.132519e-01 -8.399911e-01 3.995497e-01
184 2 4 -5.755664e+00 4.803604e+00 1.303457e+01 0 -1 0 -2.117257e-02 -1.395624e-01 -9.182778e-01 3.699189e-01
185 2 3 -4.775707e+00 4.457996e+00 1.291831e+01 0 -1 0 3.300969e-01 -7.334531e-02 8.692027e-01 -3.607535e-01
186 2 1 -4.688292e+00 4.125351e+00 1.374134e+01 0 -1 0 4.256086e-01 -2.248078e-01 -8.760101e-01 3.041567e-02
187 2 1 -5.194722e+00 3.953510e+00 1.370586e+01 0 -1 0 5.146441e-01 -3.703068e-01 -7.437902e-01 2.116373e-01
188 2 2 -5.583865e+00 3.162465e+00 1.253825e+01 0 -1 0 4.164637e-01 2.507195e-01 -5.536075e-01 -6.761779e-01
189 2 4 -5.970094e+00 3.377023e+00 1.238682e+01 0 -1 0 -6.572815e-01 5.104401e-02 6.393602e-01 3.957196e-01
190 2 4 -6.458095e+00 4.322481e+00 1.190673e+01 0 -1 0 1.543614e-01 3.091969e-01 4.502960e-02 9.373058e-01
191 2 1 -6.332129e+00 3.111503e+00 1.109057e+01 0 -1 0 -8.935074e-02 5.957999e-02 -9.936274e-01 3.422394e-02
192 2 4 -5.306223e+00 3.124222e+00 1.067604e+01 0 -1 0 -2.927616e-01 3.146699e-01 -8.074377e-01 -4.041260e-01
193 2 4 -5.360817e+00 3.521223e+00 1.021062e+01 0 -1 0 3.413082e-03 -8.735742e-01 3.906616e-01 2.902413e-01
194 2 1 -6.399419e+00 3.182394e+00 9.895136e+00 0 -1 0 2.103798e-01 1.963041e-01 7.202909e-01 -6.311783e-01
195 2 3 -6.736353e+00 2.909389e+00 1.070565e+01 0 -1 0 1.196283e-02 7.839236e-02 8.371972e-01 -5.411214e-01
196 2 4 -6.840885e+00 3.322753e+00 1.058271e+01 0 -1 0 1.705079e-02 9.721527e-01 -1.235093e-01 1.984284e-01
197 2 2 -7.738234e+00 3.547265e+00 9.524656e+00 0 -1 0 2.369906e-01 5.315699e-01 8.113462e-01 5.464612e-02
198 2 4 -8.191933e+00 3.325346e+00 9.966497e+00 0 -1 0 -5.125905e-01 -1.113100e-01 8.390904e-01 -1.441815e-01
199 2 3 -8.903490e+00 3.365937e+00 1.016036e+01 0 -1 0 -1.095829e-01 5.436398e-01 -5.105846e-01 6.570775e-01
200 2 4 -9.836787e+00 2.979288e+00 1.026780e+01 0 -1 0 -5.535814e-02 -2.313584e-01 -9.691665e-01 6.422604e-02
