ITEM: TIMESTEP
198000000
ITEM: NUMBER OF ATOMS
200
ITEM: BOX BOUNDS pp pp pp
-2.0000000000000000e+01 2.0000000000000000e+01
-2.0000000000000000e+01 2.0000000000000000e+01
-2.0000000000000000e+01 2.0000000000000000e+01
ITEM: ATOMS id mol type x y z ix iy iz c_quat[1] c_quat[2] c_quat[3] c_quat[4]
1 1 1 1.144958e+01 -5.745979e+00 3.716764e+00 -1 -1 1 7.181976e-02 7.209030e-01 -1.404314e-01 6.748480e-01
2 1 2 1.094800e+01 -6.673154e+00 2.498965e+00 -1 -1 1 -5.024939e-01 -2.752082e-02 -8.467997e-01 -1.722580e-01
3 1 1 1.129133e+01 -6.713657e+00 2.043519e+00 -1 -1 1 -2.840613e-01 -2.559601e-01 -8.172179e-01 -4.312174e-01
4 1 3 1.140701e+01 -6.538996e+00 1.480489e+00 -1 -1 1 -5.533765e-02 -4.957217e-01 -7.274409e-01 -4.711980e-01
5 1 1 1.149451e+01 -6.241279e+00 1.055855e+00 -1 -1 1 1.313520e-01 -6.639752e-01 -5.111294e-01 -5.297456e-01
6 1 2 1.148567e+01 -5.746971e+00 8.987247e-01 -1 -1 1 -3.676817e-01 7.247432e-01 3.638300e-01 4.551760e-01
7 1 4 1.150503e+01 -5.216093e+00 9.134195e-01 -1 -1 1 5.192616e-01 -7.684742e-01 -5.759681e-02 -3.694556e-01
8 1 1 1.168682e+01 -4.726909e+00 1.138545e+00 -1 -1 1 -5.889068e-01 7.466491e-01 -2.668531e-01 1.565036e-01
9 1 1 1.207655e+01 -4.372217e+00 1.288857e+00 -1 -1 1 5.964714e-01 -6.608192e-01 4.334754e-01 -1.401388e-01
10 1 4 1.252029e+01 -4.129319e+00 1.367906e+00 -1 -1 1 -5.860392e-01 5.009498e-01 -6.336007e-01 -6.447863e-02
11 1 1 1.301636e+01 -4.005145e+00 1.277245e+00 -1 -1 1 -5.312949e-01 2.632789e-01 -7.672069e-01 -2.445475e-01
12 1 1 1.348744e+01 -3.867153e+00 1.049216e+00 -1 -1 1 3.528015e-01 -8.152463e-02 8.402994e-01 4.034622e-01
13 1 3 1.377227e+01 -3.669313e+00 6.980787e-01 -1 -1 1 -1.629351e-01 -1.076075e-01 -8.341537e-01 -5.158103e-01
14 1 4 1.387503e+01 -3.409513e+00 2.289200e-01 -1 -1 1 -2.390658e-02 3.694277e-01 7.209619e-01 5.858034e-01
15 1 4 1.384817e+01 -3.015700e+00 -1.113082e-01 -1 -1 1 -2.388406e-01 5.532692e-01 6.496821e-01 4.634237e-01
16 1 2 1.378168e+01 -2.566873e+00 -3.973171e-01 -1 -1 1 3.476614e-01 -5.535004e-01 -5.902435e-01 -4.736892e-01
17 1 1 1.353324e+01 -2.154055e+00 -3.294529e-01 -1 -1 1 5.450479e-01 -7.176511e-01 -3.504298e-01 -2.551442e-01
18 1 2 1.338639e+01 -1.627144e+00 -8.865736e-02 -1 -1 1 -6.412894e-01 7.530823e-01 1.144616e-01 9.226864e-02
19 1 3 1.345672e+01 -1.198673e+00 1.326792e-02 -1 -1 1 -7.768583e-01 6.190892e-01 -1.142987e-01 -1.246977e-02
20 1 1 1.367753e+01 -8.110861e-01 3.330745e-01 -1 -1 1 -7.721861e-01 5.289235e-01 -3.260541e-01 -1.328804e-01
21 1 4 1.402071e+01 -5.286342e-01 5.470817e-01 -1 -1 1 6.269380e-01 -4.133988e-01 4.917279e-01 4.407424e-01
22 1 1 1.445001e+01 -1.344794e-01 4.776316e-01 -1 -1 1 4.948038e-01 -2.796883e-01 6.891018e-01 4.495356e-01
23 1 4 1.478495e+01 1.479307e-01 2.695762e-01 -1 -1 1 3.093659e-01 -6.225915e-02 7.860138e-01 5.316002e-01
24 1 3 1.503323e+01 3.561580e-01 -1.156924e-01 -1 -1 1 1.029489e-01 2.331245e-01 7.460149e-01 6.152368e-01
25 1 3 1.515377e+01 8.233530e-01 -3.793849e-01 -1 -1 1 -1.264239e-01 3.030547e-01 6.148682e-01 7.170160e-01
26 1 4 1.506433e+01 1.289530e+00 -5.845996e-01 -1 -1 1 -3.730055e-01 4.928167e-01 4.911305e-01 6.138317e-01
27 1 4 1.480528e+01 1.716020e+00 -6.952806e-01 -1 -1 1 -5.424442e-01 5.650262e-01 3.900184e-01 4.841336e-01
28 1 1 1.471172e+01 2.263567e+00 -5.632183e-01 -1 -1 1 -6.511481e-01 6.217951e-01 1.977987e-01 3.876244e-01
29 1 1 1.460897e+01 2.694090e+00 -2.052204e-01 -1 -1 1 -7.968867e-01 5.841770e-01 1.683339e-02 1.530537e-01
30 1 4 1.474282e+01 3.037257e+00 2.403727e-01 -1 -1 1 8.618671e-01 -4.877873e-01 1.377546e-01 1.650183e-02
31 1 4 1.491044e+01 3.209127e+00 6.449170e-01 -1 -1 1 8.741864e-01 -3.409050e-01 2.747576e-01 2.099764e-01
32 1 3 1.525223e+01 3.304406e+00 1.032794e+00 -1 -1 1 7.652786e-01 -2.747864e-01 3.805514e-01 4.404791e-01
33 1 3 1.579142e+01 3.522299e+00 1.072419e+00 -1 -1 1 5.950126e-01 -1.064421e-01 3.786864e-01 7.008756e-01
34 1 1 1.613801e+01 3.848329e+00 1.103218e+00 -1 -1 1 3.392761e-01 5.958467e-02 4.305220e-01 8.342615e-01
35 1 2 1.633637e+01 4.394284e+00 1.212703e+00 -1 -1 1 7.030593e-02 1.000818e-01 4.946832e-01 8.604238e-01
36 1 2 1.629771e+01 4.934173e+00 1.245784e+00 -1 -1 1 -1.872852e-01 1.886904e-01 4.813334e-01 8.352475e-01
37 1 1 1.620817e+01 5.529328e+00 1.319538e+00 -1 -1 1 -4.039929e-01 2.895121e-01 3.231673e-01 8.053169e-01
38 1 1 1.599543e+01 5.999839e+00 1.713070e+00 -1 -1 1 -6.714190e-01 2.918105e-01 1.955372e-01 6.525399e-01
39 1 4 1.588038e+01 6.230936e+00 2.169306e+00 -1 -1 1 8.267623e-01 -1.873946e-01 -9.719863e-02 -5.214401e-01
40 1 4 1.571472e+01 6.269224e+00 2.632896e+00 -1 -1 1 9.382968e-01 -2.866465e-01 2.253945e-02 -1.921583e-01
41 1 2 1.584603e+01 6.201293e+00 3.258264e+00 -1 -1 1 9.507268e-01 -2.597175e-01 1.660205e-01 3.320429e-02
42 1 4 1.606561e+01 5.977566e+00 3.722889e+00 -1 -1 1 -9.119490e-01 1.376513e-01 -2.008356e-01 -3.302516e-01
43 1 3 1.644649e+01 5.981344e+00 4.050288e+00 -1 -1 1 7.515804e-01 -5.494789e-02 2.696310e-01 5.995054e-01
44 1 2 1.682273e+01 6.228927e+00 4.339118e+00 -1 -1 1 5.052725e-01 -7.228408e-02 3.216242e-01 7.975165e-01
45 1 1 1.709122e+01 6.687210e+00 4.476665e+00 -1 -1 1 1.858357e-01 2.174720e-02 3.458712e-01 9.194375e-01
46 1 3 1.711500e+01 7.186634e+00 4.704851e+00 -1 -1 1 -5.969055e-02 2.865673e-02 4.245820e-01 9.029651e-01
47 1 4 1.695975e+01 7.627143e+00 4.689016e+00 -1 -1 1 -4.054004e-01 3.047336e-01 3.235967e-01 7.987948e-01
48 1 1 1.676997e+01 8.107285e+00 4.906173e+00 -1 -1 1 5.875157e-01 -2.862369e-01 -2.616161e-01 -7.102469e-01
49 1 4 1.660615e+01 8.468938e+00 5.285262e+00 -1 -1 1 7.003002e-01 -1.611387e-01 -2.702608e-01 -6.407597e-01
50 1 4 1.622099e+01 8.511646e+00 5.662009e+00 -1 -1 1 9.077268e-01 -2.153163e-01 -2.398698e-01 -2.685767e-01
51 1 4 1.588384e+01 8.448588e+00 6.105253e+00 -1 -1 1 9.628805e-01 -7.168582e-02 -2.115488e-01 -1.515568e-01
52 1 1 1.565090e+01 8.293138e+00 6.512442e+00 -1 -1 1 9.763006e-01 -1.004550e-01 -1.310637e-01 1.398865e-01
53 1 3 1.567773e+01 8.078279e+00 7.040985e+00 -1 -1 1 8.731868e-01 -1.417245e-01 -1.118986e-01 4.527004e-01
54 1 4 1.585223e+01 8.203377e+00 7.586934e+00 -1 -1 1 6.603106e-01 -1.679772e-01 -8.068156e-03 7.319211e-01
55 1 4 1.596881e+01 8.503393e+00 7.909175e+00 -1 -1 1 -2.602311e-01 1.121579e-01 -6.446091e-02 -9.568412e-01
56 1 4 1.598061e+01 8.002159e+00 9.069304e+00 -1 -1 1 -3.687116e-01 4.299425e-01 8.099917e-01 1.520352e-01
57 1 1 1.572596e+01 7.936538e+00 9.550585e+00 -1 -1 1 5.107547e-01 -5.841844e-01 -5.593265e-01 2.915684e-01
58 1 1 1.633609e+01 7.086291e+00 9.050906e+00 -1 -1 1 -5.279936e-01 7.777027e-02 -7.649982e-01 -3.604891e-01
59 1 3 1.652449e+01 6.591234e+00 8.787850e+00 -1 -1 1 5.459403e-01 3.752454e-01 7.434131e-01 9.207075e-02
60 1 4 1.672713e+01 6.451731e+00 8.432187e+00 -1 -1 1 -3.896264e-01 -7.006590e-01 -4.991250e-01 -3.288502e-01
61 1 2 1.650629e+01 5.232521e+00 9.027900e+00 -1 -1 1 -8.465015e-01 -2.938594e-01 -2.167250e-01 3.874431e-01
62 1 3 1.641657e+01 4.811928e+00 9.080223e+00 -1 -1 1 9.285663e-01 3.476566e-01 -1.014354e-01 8.130440e-02
63 1 2 1.590913e+01 4.636011e+00 9.465514e+00 -1 -1 1 -7.431179e-01 3.905368e-01 1.226638e-01 -5.293491e-01
64 1 4 1.483909e+01 3.416937e+00 9.343826e+00 -1 -1 1 -1.712342e-01 -5.803215e-02 9.791694e-01 9.240301e-02
65 1 2 1.460898e+01 3.154264e+00 9.013241e+00 -1 -1 1 1.667806e-01 -3.142719e-01 -9.246184e-01 1.360079e-01
66 1 1 1.467691e+01 3.475939e+00 8.742843e+00 -1 -1 1 -5.435399e-01 8.193584e-01 1.816960e-01 -1.423783e-02
67 1 2 1.316745e+01 3.240981e+00 8.558550e+00 -1 -1 1 -4.289648e-01 2.159244e-01 -1.171765e-01 8.692730e-01
68 1 1 1.331362e+01 3.117211e+00 7.712861e+00 -1 -1 1 9.903268e-01 5.284037e-02 1.049694e-01 -7.377130e-02
69 1 1 1.291082e+01 3.515768e+00 7.404885e+00 -1 -1 1 -1.605766e-01 8.319542e-01 -7.556491e-02 5.256970e-01
70 1 2 1.170642e+01 3.563186e+00 6.862140e+00 -1 -1 1 3.126671e-01 5.701533e-01 7.558802e-01 7.622104e-02
71 1 3 1.170367e+01 3.531016e+00 6.430823e+00 -1 -1 1 2.006610e-01 8.400747e-01 4.691404e-01 1.841653e-01
72 1 4 1.090567e+01 3.573983e+00 6.423217e+00 -1 -1 1 2.620314e-01 7.526810e-02 -1.196379e-01 9.546523e-01
73 1 1 1.118602e+01 3.037839e+00 5.374237e+00 -1 -1 1 -1.165815e-01 -6.810101e-01 6.382694e-01 3.394794e-01
74 1 1 1.178212e+01 3.374365e+00 4.910804e+00 -1 -1 1 -5.815673e-02 -6.831609e-01 6.362958e-01 3.536052e-01
75 1 3 1.185870e+01 3.472268e+00 4.497633e+00 -1 -1 1 -1.345774e-01 -1.901436e-01 8.864308e-01 3.999685e-01
76 1 1 1.259135e+01 4.433098e+00 3.847757e+00 -1 -1 1 -4.560513e-01 -3.213586e-01 -4.837128e-01 -6.743648e-01
77 1 4 1.356670e+01 3.693760e+00 4.198914e+00 -1 -1 1 -6.003976e-01 6.366532e-01 -4.319249e-01 2.182574e-01
78 1 1 1.376481e+01 3.689668e+00 3.810376e+00 -1 -1 1 -4.361889e-01 2.555415e-01 -7.898377e-01 3.472667e-01
79 1 4 1.406729e+01 3.255602e+00 3.750270e+00 -1 -1 1 4.491866e-01 1.121023e-01 8.494954e-01 -2.530259e-01
80 1 2 1.415299e+01 2.832589e+00 3.545535e+00 -1 -1 1 -5.154464e-01 -4.422198e-01 -7.277567e-01 9.553451e-02
81 1 4 1.433376e+01 1.973893e+00 3.603919e+00 -1 -1 1 6.928239e-01 6.166325e-01 2.571220e-01 -2.713810e-01
82 1 4 1.433315e+01 1.487379e+00 3.373305e+00 -1 -1 1 -7.434109e-01 -6.579902e-01 -3.076952e-02 -1.159411e-01
83 1 4 1.430830e+01 1.201591e+00 2.875661e+00 -1 -1 1 -1.223208e-01 -9.593558e-01 -5.534791e-02 2.482149e-01
84 1 4 1.441620e+01 4.993970e-01 2.920322e+00 -1 -1 1 3.656317e-01 2.789513e-02 8.018497e-01 -4.717758e-01
85 1 1 1.459453e+01 1.927181e-02 2.876229e+00 -1 -1 1 -4.403596e-01 -2.988949e-01 -7.962796e-01 2.875485e-01
86 1 1 1.562382e+01 4.008606e-01 3.554537e+00 -1 -1 1 -4.238342e-01 4.296488e-01 5.852380e-01 -5.415377e-01
87 1 3 1.594982e+01 -9.041192e-01 2.560163e+00 -1 -1 1 -4.030178e-01 1.560868e-01 -8.630564e-01 -2.614330e-01
88 1 2 1.639349e+01 -1.050461e+00 2.889309e+00 -1 -1 1 -4.429253e-01 1.521740e-01 -6.132680e-01 -6.360523e-01
89 1 2 1.711015e+01 -1.396810e+00 3.738403e+00 -1 -1 1 -2.384650e-01 -4.126545e-01 8.408586e-01 -2.565297e-01
90 1 3 1.710023e+01 -1.988435e+00 3.638038e+00 -1 -1 1 1.961737e-01 -1.084706e-01 -9.322728e-01 2.839319e-01
91 1 3 1.685464e+01 -2.306169e+00 3.366587e+00 -1 -1 1 -2.160958e-01 3.172671e-01 8.295098e-01 -4.056572e-01
92 1 2 1.771675e+01 -2.282262e+00 2.392019e+00 -1 -1 1 1.479049e-01 8.210782e-03 5.086207e-01 8.481519e-01
93 1 1 1.711782e+01 -2.367775e+00 1.970971e+00 -1 -1 1 -4.271542e-02 -3.737823e-01 -1.005466e-02 9.264778e-01
94 1 2 1.770644e+01 -3.733830e+00 1.852929e+00 -1 -1 1 -1.169261e-01 6.403055e-01 -7.045765e-01 -2.826821e-01
95 1 3 1.756348e+01 -4.025733e+00 2.074248e+00 -1 -1 1 -7.851175e-01 -5.338365e-01 -1.121687e-01 -2.933041e-01
96 1 2 1.673623e+01 -3.555717e+00 1.790321e+00 -1 -1 1 2.782682e-01 -3.676012e-01 5.052489e-01 7.294928e-01
97 1 2 1.649424e+01 -3.520491e+00 2.513028e+00 -1 -1 1 -5.090256e-01 -8.474033e-01 -3.192149e-02 -1.475859e-01
98 1 4 1.592956e+01 -3.252680e+00 3.583543e+00 -1 -1 1 2.770652e-03 -7.028714e-01 -4.143431e-01 -5.781729e-01
99 1 2 1.543121e+01 -4.545135e+00 3.850280e+00 -1 -1 1 4.745568e-01 -1.986804e-01 3.027964e-01 -8.022694e-01
100 1 1 1.554987e+01 -4.698510e+00 4.318072e+00 -1 -1 1 7.713232e-01 -8.094687e-02 3.863068e-01 -4.992746e-01
101 2 4 -1.873268e+01 1.584659e+01 -2.018405e+00 0 -1 1 6.080707e-01 -1.522790e-01 3.862950e-01 6.766367e-01
102 2 3 -1.941324e+01 1.544361e+01 -1.264187e+00 0 -1 1 -2.465191e-02 1.565703e-01 -8.534702e-01 -4.964541e-01
103 2 1 -1.812570e+01 1.551390e+01 -9.564181e-01 0 -1 1 -3.033607e-02 -9.539571e-01 2.088148e-01 2.131712e-01
104 2 3 -1.792842e+01 1.510826e+01 -1.693269e+00 0 -1 1 -4.184134e-01 5.949066e-01 -4.568944e-01 -5.121171e-01
105 2 3 -1.789869e+01 1.559207e+01 -1.662103e+00 0 -1 1 3.055796e-01 -6.518956e-01 -6.102678e-01 3.304943e-01
106 2 2 -1.738882e+01 1.486408e+01 -1.883388e+00 0 -1 1 6.041436e-01 5.287032e-01 3.993150e-01 4.427538e-01
107 2 3 -1.773276e+01 1.387476e+01 -2.160333e+00 0 -1 1 -1.207785e-01 -8.708776e-02 -9.793679e-01 1.366268e-01
108 2 4 -1.757046e+01 1.367885e+01 -2.739929e+00 0 -1 1 9.509090e-03 5.218186e-02 9.498895e-01 -3.080529e-01
109 2 3 -1.769332e+01 1.332845e+01 -2.980751e+00 0 -1 1 1.422780e-01 5.204361e-01 7.974518e-01 -2.701368e-01
110 2 2 -1.800790e+01 1.304059e+01 -3.172473e+00 0 -1 1 -3.724245e-01 -7.613633e-01 -4.908522e-01 2.017178e-01
111 2 2 -1.808895e+01 1.196436e+01 -2.475666e+00 0 -1 1 5.824786e-01 -4.431318e-01 -6.809594e-01 -2.543942e-02
112 2 3 -1.849199e+01 1.168244e+01 -2.422581e+00 0 -1 1 9.135326e-01 -5.505998e-02 -1.974392e-01 -3.513465e-01
113 2 3 -1.862853e+01 1.154654e+01 -1.939234e+00 0 -1 1 9.414510e-01 -2.950603e-01 -7.156352e-02 1.465884e-01
114 2 2 -1.824450e+01 1.112242e+01 -1.516905e+00 0 -1 1 -4.055106e-01 -7.448910e-01 5.297006e-01 -1.076146e-02
115 2 4 -1.816875e+01 1.191582e+01 -1.742978e+00 0 -1 1 4.396366e-01 -6.772016e-02 6.619925e-01 6.032409e-01
116 2 4 -1.833585e+01 1.149447e+01 -3.966620e-01 0 -1 1 8.617946e-01 9.728029e-02 -4.838814e-01 1.170698e-01
117 2 1 -1.924166e+01 1.136858e+01 1.167526e-01 0 -1 1 -3.042711e-01 4.651417e-01 2.685528e-01 7.867285e-01
118 2 1 -1.785134e+01 1.085602e+01 4.743824e-01 0 -1 1 -7.227762e-01 6.815337e-01 -9.173646e-02 -6.848899e-02
119 2 1 -1.757982e+01 1.121362e+01 6.846277e-01 0 -1 1 5.974446e-01 -5.220960e-01 3.642665e-01 4.876328e-01
120 2 1 -1.734316e+01 1.156466e+01 7.534802e-01 0 -1 1 3.761369e-01 -2.858362e-01 5.131024e-01 7.166202e-01
121 2 3 -1.800652e+01 1.205977e+01 1.898680e+00 0 -1 1 4.129401e-02 1.016894e-01 -7.319139e-01 6.725000e-01
122 2 1 -1.804551e+01 1.306876e+01 2.001507e+00 0 -1 1 -4.755067e-01 -5.161028e-01 1.020913e-02 -7.123392e-01
123 2 4 -1.924458e+01 1.204886e+01 1.484857e+00 0 -1 1 7.775863e-01 1.557574e-01 7.530304e-02 -6.045070e-01
124 2 1 -1.881919e+01 1.227274e+01 2.592268e+00 0 -1 1 -5.418899e-01 1.953384e-02 4.319399e-01 -7.206953e-01
125 2 4 -1.904885e+01 1.207617e+01 3.034144e+00 0 -1 1 3.170484e-01 -3.312256e-01 -4.395452e-01 7.723793e-01
126 2 2 -1.997408e+01 1.135974e+01 2.964839e+00 0 -1 1 -2.049497e-01 5.960286e-01 6.293060e-01 4.546641e-01
127 2 4 1.981615e+01 1.181520e+01 2.855199e+00 -1 -1 1 -3.308048e-01 8.172732e-01 3.284569e-01 3.387459e-01
128 2 4 -1.996709e+01 1.237271e+01 2.721556e+00 0 -1 1 -4.675500e-01 7.443916e-01 2.747937e-01 3.895722e-01
129 2 1 -1.992949e+01 1.286721e+01 2.805574e+00 0 -1 1 -5.780946e-01 7.750690e-01 -5.512455e-02 2.490702e-01
130 2 2 -1.973773e+01 1.316434e+01 3.071156e+00 0 -1 1 7.012812e-01 -6.008629e-01 3.722297e-01 9.280914e-02
131 2 3 -1.984301e+01 1.348468e+01 3.826262e+00 0 -1 1 -3.760337e-01 5.857212e-01 3.601372e-01 -6.211526e-01
132 2 4 1.974345e+01 1.374291e+01 4.031256e+00 -1 -1 1 1.821429e-01 -7.117242e-01 -1.753323e-02 6.782074e-01
133 2 4 1.902805e+01 1.261212e+01 4.060171e+00 -1 -1 1 -3.380632e-01 -2.730887e-01 -1.334194e-01 8.906936e-01
134 2 3 1.862981e+01 1.258513e+01 4.236107e+00 -1 -1 1 7.177744e-01 1.797136e-01 2.465142e-03 -6.726789e-01
135 2 4 1.824952e+01 1.244806e+01 4.517276e+00 -1 -1 1 8.997932e-01 1.907920e-01 -1.188247e-01 -3.739670e-01
136 2 3 1.717463e+01 1.319047e+01 4.679236e+00 -1 -1 1 1.035893e-01 2.137022e-01 8.860724e-01 3.980908e-01
137 2 1 1.717100e+01 1.289838e+01 5.666764e+00 -1 -1 1 8.893221e-01 3.173150e-02 -4.109687e-01 -1.980000e-01
138 2 3 1.685915e+01 1.270275e+01 6.001993e+00 -1 -1 1 -9.202888e-01 1.073938e-01 3.442873e-01 -1.516619e-01
139 2 2 1.668768e+01 1.255150e+01 6.431919e+00 -1 -1 1 8.115667e-01 -2.268509e-01 -2.253005e-01 4.890173e-01
140 2 3 1.662065e+01 1.266795e+01 6.902946e+00 -1 -1 1 5.091563e-01 -3.684954e-01 -9.995535e-02 7.713494e-01
141 2 1 1.601270e+01 1.219451e+01 7.888962e+00 -1 -1 1 -1.616246e-01 1.848453e-01 -2.818646e-01 9.275031e-01
142 2 2 1.580218e+01 1.164971e+01 7.713122e+00 -1 -1 1 -5.946825e-01 -5.366936e-01 1.066831e-01 5.890088e-01
143 2 4 1.545603e+01 1.135681e+01 7.680282e+00 -1 -1 1 -7.363574e-01 -5.470016e-01 2.659671e-01 2.963587e-01
144 2 4 1.502838e+01 1.099911e+01 7.489328e+00 -1 -1 1 -7.288640e-01 -5.840482e-01 3.454711e-01 9.107510e-02
145 2 1 1.506337e+01 1.051642e+01 7.427699e+00 -1 -1 1 -7.518518e-01 -1.486233e-01 6.307971e-01 -1.213468e-01
146 2 1 1.490995e+01 1.023257e+01 7.158201e+00 -1 -1 1 5.046080e-02 6.529934e-03 7.799198e-01 -6.238079e-01
147 2 1 1.590947e+01 9.363891e+00 7.329973e+00 -1 -1 1 -1.042623e-01 6.762072e-01 -6.641355e-01 3.013257e-01
148 2 2 1.636011e+01 9.053569e+00 6.982491e+00 -1 -1 1 7.294306e-02 -4.944119e-01 7.869203e-01 -3.619290e-01
149 2 4 1.669908e+01 8.734612e+00 6.851053e+00 -1 -1 1 -2.313721e-01 8.957630e-02 -9.192203e-01 3.057400e-01
150 2 1 1.703693e+01 8.342562e+00 6.601403e+00 -1 -1 1 -1.838149e-01 -6.239075e-02 -9.474868e-01 2.541422e-01
151 2 1 1.704191e+01 7.910652e+00 6.289663e+00 -1 -1 1 -1.636057e-01 -3.405592e-01 -8.952061e-01 2.363443e-01
152 2 1 1.685202e+01 7.555044e+00 5.986032e+00 -1 -1 1 -1.821852e-01 -5.573803e-01 -7.572631e-01 2.875558e-01
153 2 4 1.657678e+01 7.230547e+00 5.647782e+00 -1 -1 1 -8.467421e-02 -7.608918e-01 -5.953081e-01 2.438896e-01
154 2 1 1.612828e+01 7.217381e+00 5.323160e+00 -1 -1 1 -2.611308e-01 -9.287116e-01 -2.017027e-01 1.691786e-01
155 2 2 1.590400e+01 7.098978e+00 4.871855e+00 -1 -1 1 -2.057783e-01 -9.775446e-01 9.160888e-03 4.447390e-02
156 2 4 1.605762e+01 7.158281e+00 4.339586e+00 -1 -1 1 -1.729521e-01 -9.246265e-01 3.359401e-01 -4.793256e-02
157 2 3 1.636803e+01 7.202677e+00 3.880269e+00 -1 -1 1 -1.506768e-01 -7.490984e-01 6.356565e-01 -1.099494e-01
158 2 2 1.663196e+01 7.083113e+00 3.455604e+00 -1 -1 1 -1.027865e-01 -6.429034e-01 7.182977e-01 -2.452726e-01
159 2 1 1.681395e+01 6.634503e+00 3.042417e+00 -1 -1 1 -2.366238e-01 -5.000197e-01 7.657321e-01 -3.280912e-01
160 2 3 1.693099e+01 6.270467e+00 2.806885e+00 -1 -1 1 1.598773e-01 7.020564e-02 -9.306623e-01 3.215246e-01
161 2 1 1.680984e+01 5.776695e+00 2.796019e+00 -1 -1 1 8.077020e-03 -2.776540e-01 -8.715052e-01 4.041309e-01
162 2 1 1.652514e+01 5.324068e+00 2.579343e+00 -1 -1 1 1.253605e-02 -4.745876e-01 -7.729716e-01 4.208614e-01
163 2 4 1.612236e+01 4.982933e+00 2.461919e+00 -1 -1 1 -7.574977e-02 -7.043321e-01 -6.006097e-01 3.707376e-01
164 2 4 1.570045e+01 4.911661e+00 2.243136e+00 -1 -1 1 -2.051913e-01 -8.291432e-01 -3.720301e-01 3.633342e-01
165 2 3 1.530529e+01 4.740355e+00 1.844087e+00 -1 -1 1 -3.092017e-01 -9.132990e-01 -2.054098e-01 1.675888e-01
166 2 3 1.514327e+01 4.659425e+00 1.351979e+00 -1 -1 1 -3.819350e-01 -9.160837e-01 9.800057e-02 7.288483e-02
167 2 4 1.519720e+01 4.566778e+00 7.757871e-01 -1 -1 1 -3.410068e-01 -8.704049e-01 3.462730e-01 -7.877008e-02
168 2 2 1.531029e+01 4.388460e+00 3.621848e-01 -1 -1 1 -2.769374e-01 -7.215882e-01 6.058049e-01 -1.887236e-01
169 2 2 1.545690e+01 4.015408e+00 5.762855e-02 -1 -1 1 -2.701459e-01 -6.708532e-01 6.160141e-01 -3.122561e-01
170 2 1 1.568583e+01 3.526929e+00 -2.026749e-01 -1 -1 1 -3.161178e-01 -4.324732e-01 7.273295e-01 -4.289852e-01
171 2 1 1.579673e+01 2.930293e+00 -1.861327e-01 -1 -1 1 2.391728e-01 1.537559e-01 -7.863561e-01 5.484520e-01
172 2 4 1.572361e+01 2.381997e+00 -6.285096e-02 -1 -1 1 1.360461e-01 -8.180206e-02 -6.651264e-01 7.296621e-01
173 2 4 1.544923e+01 2.022734e+00 2.891232e-01 -1 -1 1 -1.700175e-01 -3.806992e-01 -5.488290e-01 7.245336e-01
174 2 1 1.510296e+01 1.649084e+00 4.991156e-01 -1 -1 1 -2.659879e-01 -4.864399e-01 -4.896267e-01 6.729728e-01
175 2 1 1.470043e+01 1.313477e+00 5.786967e-01 -1 -1 1 -4.576182e-01 -6.732081e-01 -3.288824e-01 4.787617e-01
176 2 2 1.425570e+01 1.108442e+00 3.346088e-01 -1 -1 1 -4.934614e-01 -7.957100e-01 -3.135681e-02 3.497975e-01
177 2 2 1.393118e+01 8.477053e-01 -5.945976e-02 -1 -1 1 -6.483131e-01 -7.343976e-01 1.742480e-01 9.993933e-02
178 2 1 1.386510e+01 4.591995e-01 -3.991099e-01 -1 -1 1 -6.621154e-01 -6.523724e-01 3.453009e-01 -1.295403e-01
179 2 4 1.404020e+01 2.423277e-02 -6.129937e-01 -1 -1 1 -5.375153e-01 -5.881077e-01 5.132768e-01 -3.189884e-01
180 2 1 1.422854e+01 -4.483562e-01 -6.850543e-01 -1 -1 1 -4.787040e-01 -4.825686e-01 5.252608e-01 -5.119288e-01
181 2 4 1.455716e+01 -8.432305e-01 -4.967825e-01 -1 -1 1 2.285906e-01 2.882645e-01 -6.264206e-01 6.872024e-01
182 2 2 1.458475e+01 -1.271551e+00 -2.705624e-01 -1 -1 1 8.898768e-02 5.541651e-02 -5.609586e-01 8.211795e-01
183 2 3 1.453567e+01 -1.726149e+00 2.189592e-01 -1 -1 1 -4.459043e-03 -1.806972e-01 -5.865529e-01 7.894836e-01
184 2 4 1.417410e+01 -1.942548e+00 6.253970e-01 -1 -1 1 -2.966449e-01 -3.808427e-01 -4.160670e-01 7.706159e-01
185 2 3 1.378029e+01 -2.294605e+00 7.837391e-01 -1 -1 1 3.966219e-01 5.405069e-01 3.280021e-01 -6.655508e-01
186 2 1 1.335156e+01 -2.484809e+00 8.337776e-01 -1 -1 1 5.637886e-01 6.375347e-01 1.194058e-01 -5.113064e-01
187 2 1 1.295933e+01 -2.736842e+00 6.451091e-01 -1 -1 1 -7.253403e-01 -5.946705e-01 5.845903e-02 3.418053e-01
188 2 2 1.274540e+01 -3.191004e+00 4.400942e-01 -1 -1 1 7.850230e-01 5.696745e-01 -2.284846e-01 -8.369406e-02
189 2 4 1.260005e+01 -3.711987e+00 3.092118e-01 -1 -1 1 7.525633e-01 5.916577e-01 -2.692645e-01 1.052918e-01
190 2 4 1.270339e+01 -4.242888e+00 1.841096e-01 -1 -1 1 -7.158101e-01 -3.426577e-01 4.713762e-01 -3.847155e-01
191 2 1 1.270339e+01 -4.814663e+00 3.759891e-01 -1 -1 1 -6.565027e-01 -2.225437e-01 4.735058e-01 -5.433883e-01
192 2 4 1.269733e+01 -5.213036e+00 7.572120e-01 -1 -1 1 5.133943e-01 1.525500e-02 -4.286035e-01 7.432985e-01
193 2 4 1.267210e+01 -5.429085e+00 1.197637e+00 -1 -1 1 -2.603831e-01 2.129923e-01 4.390347e-01 -8.331167e-01
194 2 1 1.237791e+01 -5.481808e+00 1.679070e+00 -1 -1 1 8.351043e-04 -3.668071e-01 -3.617422e-01 8.570849e-01
195 2 3 1.192254e+01 -5.628391e+00 2.007823e+00 -1 -1 1 1.462859e-01 4.939883e-01 2.978891e-01 -8.036405e-01
196 2 4 1.144724e+01 -5.558204e+00 2.077247e+00 -1 -1 1 4.269359e-01 5.445727e-01 7.584317e-02 -7.179234e-01
197 2 2 1.094441e+01 -5.567163e+00 1.995157e+00 -1 -1 1 5.925308e-01 5.705801e-01 -1.836236e-01 -5.381709e-01
198 2 4 1.045699e+01 -5.881801e+00 1.871480e+00 -1 -1 1 7.250467e-01 5.665107e-01 -2.616161e-01 -2.914273e-01
199 2 3 1.029229e+01 -5.385815e+00 2.842290e+00 -1 -1 1 -5.048255e-01 -7.393477e-01 -1.686707e-01 -4.123911e-01
200 2 4 9.549972e+00 -5.750477e+00 2.327155e+00 -1 -1 1 -5.354120e-01 -7.813987e-01 1.045681e-01 3.030109e-01
