ITEM: TIMESTEP
137000000
ITEM: NUMBER OF ATOMS
200
ITEM: BOX BOUNDS pp pp pp
-2.0000000000000000e+01 2.0000000000000000e+01
-2.0000000000000000e+01 2.0000000000000000e+01
-2.0000000000000000e+01 2.0000000000000000e+01
ITEM: ATOMS id mol type x y z ix iy iz c_quat[1] c_quat[2] c_quat[3] c_quat[4]
1 1 1 1.726394e+01 -1.068202e+01 -1.158752e+01 -1 -1 1 -8.316761e-01 -4.865559e-01 9.054984e-02 -2.517517e-01
2 1 2 1.762386e+01 -1.104764e+01 -1.150036e+01 -1 -1 1 -6.470342e-01 -4.532679e-01 2.235714e-01 -5.708859e-01
3 1 1 1.707976e+01 -1.199885e+01 -1.210897e+01 -1 -1 1 -7.551520e-01 -9.376748e-02 -5.474278e-01 -3.482470e-01
4 1 3 1.707730e+01 -1.252110e+01 -1.179902e+01 -1 -1 1 6.441835e-01 -4.627136e-01 1.362451e-01 5.936000e-01
5 1 1 1.593785e+01 -1.248083e+01 -1.135324e+01 -1 -1 1 3.527436e-01 6.471348e-01 5.851980e-01 -3.381297e-01
6 1 2 1.575883e+01 -1.264448e+01 -1.185450e+01 -1 -1 1 -4.585321e-01 -8.770863e-01 -1.203107e-01 7.741571e-02
7 1 4 1.453535e+01 -1.318395e+01 -1.137078e+01 -1 -1 1 2.619346e-01 1.560027e-01 9.514863e-01 -4.155934e-02
8 1 1 1.473671e+01 -1.230733e+01 -1.091406e+01 -1 -1 1 1.616100e-01 -2.816602e-01 -7.245303e-01 -6.079520e-01
9 1 1 1.445768e+01 -1.192470e+01 -1.104147e+01 -1 -1 1 4.218955e-01 -6.513037e-01 -4.045711e-01 -4.838697e-01
10 1 4 1.450185e+01 -1.137785e+01 -1.110472e+01 -1 -1 1 -5.517674e-01 7.327001e-01 3.398631e-03 3.983614e-01
11 1 1 1.404173e+01 -1.112618e+01 -1.142245e+01 -1 -1 1 -3.110739e-02 -5.573364e-01 3.953978e-01 7.294306e-01
12 1 1 1.384219e+01 -1.058569e+01 -1.100050e+01 -1 -1 1 -4.972801e-01 3.193261e-01 -6.781723e-05 8.066866e-01
13 1 3 1.452826e+01 -9.996739e+00 -1.200230e+01 -1 -1 1 -5.359691e-02 -3.659870e-01 6.705646e-01 6.430583e-01
14 1 4 1.417327e+01 -9.736206e+00 -1.230483e+01 -1 -1 1 -4.079188e-01 -2.368621e-01 6.587029e-01 5.861817e-01
15 1 4 1.469684e+01 -8.503077e+00 -1.275084e+01 -1 -1 1 -4.757020e-01 4.736480e-01 -3.888645e-01 -6.309910e-01
16 1 2 1.498278e+01 -8.067342e+00 -1.278245e+01 -1 -1 1 -3.281105e-01 2.913170e-01 -5.528927e-01 -7.083697e-01
17 1 1 1.509468e+01 -7.569463e+00 -1.291326e+01 -1 -1 1 -8.377639e-02 1.280941e-01 -7.643029e-01 -6.264299e-01
18 1 2 1.503032e+01 -7.168651e+00 -1.324994e+01 -1 -1 1 -2.030295e-01 7.442876e-02 7.788947e-01 5.886955e-01
19 1 3 1.474281e+01 -6.821529e+00 -1.353372e+01 -1 -1 1 -4.145340e-01 3.036389e-01 6.781786e-01 5.253939e-01
20 1 1 1.438814e+01 -6.404205e+00 -1.360062e+01 -1 -1 1 -6.147241e-01 3.820109e-01 5.332919e-01 4.379289e-01
21 1 4 1.402539e+01 -6.111448e+00 -1.352654e+01 -1 -1 1 7.534264e-01 -4.614546e-01 -3.900620e-01 -2.593454e-01
22 1 1 1.366073e+01 -5.909367e+00 -1.320613e+01 -1 -1 1 7.759079e-01 -5.584608e-01 -2.931740e-01 -1.172724e-02
23 1 4 1.349864e+01 -5.542911e+00 -1.292523e+01 -1 -1 1 8.266531e-01 -5.431011e-01 -6.838093e-02 1.304223e-01
24 1 3 1.353760e+01 -5.181657e+00 -1.254702e+01 -1 -1 1 7.197586e-01 -5.130649e-01 2.050518e-01 4.203163e-01
25 1 3 1.375460e+01 -4.816415e+00 -1.228475e+01 -1 -1 1 6.482544e-01 -4.232860e-01 3.720682e-01 5.120160e-01
26 1 4 1.406989e+01 -4.412301e+00 -1.219270e+01 -1 -1 1 4.218847e-01 -3.387267e-01 4.891032e-01 6.841459e-01
27 1 4 1.430089e+01 -3.966836e+00 -1.226142e+01 -1 -1 1 2.182294e-01 -1.443677e-01 6.160970e-01 7.429390e-01
28 1 1 1.436639e+01 -3.456913e+00 -1.250060e+01 -1 -1 1 -6.697648e-02 4.972269e-03 5.988770e-01 7.980199e-01
29 1 1 1.429824e+01 -2.934772e+00 -1.268686e+01 -1 -1 1 -2.690057e-01 1.416944e-01 6.301648e-01 7.144585e-01
30 1 4 1.401998e+01 -2.460438e+00 -1.270775e+01 -1 -1 1 5.357544e-01 -3.866747e-01 -3.711398e-01 -6.524608e-01
31 1 4 1.374940e+01 -2.240490e+00 -1.245086e+01 -1 -1 1 7.591610e-01 -5.180243e-01 -2.759146e-01 -2.814187e-01
32 1 3 1.367705e+01 -1.756220e+00 -1.202059e+01 -1 -1 1 8.026509e-01 -5.122675e-01 -1.020313e-02 -3.053350e-01
33 1 3 1.369644e+01 -1.456716e+00 -1.151498e+01 -1 -1 1 8.362555e-01 -5.151759e-01 1.672770e-01 -8.537517e-02
34 1 1 1.393782e+01 -1.324778e+00 -1.113887e+01 -1 -1 1 8.618936e-01 -3.742810e-01 2.977671e-01 1.684870e-01
35 1 2 1.439675e+01 -1.275925e+00 -1.088576e+01 -1 -1 1 7.384142e-01 -1.847914e-01 4.154108e-01 4.980267e-01
36 1 2 1.474038e+01 -8.344937e-01 -1.061532e+01 -1 -1 1 6.183946e-01 -1.872614e-01 5.708446e-01 5.066140e-01
37 1 1 1.517399e+01 -5.997469e-01 -1.065632e+01 -1 -1 1 3.854532e-01 -2.124320e-02 6.009600e-01 6.998726e-01
38 1 1 1.542569e+01 -2.060895e-01 -1.087649e+01 -1 -1 1 1.430544e-01 1.886281e-01 5.988530e-01 7.650686e-01
39 1 4 1.551091e+01 2.624801e-01 -1.099020e+01 -1 -1 1 1.040771e-01 -4.068111e-01 -4.778778e-01 -7.715604e-01
40 1 4 1.566364e+01 7.969168e-01 -1.108492e+01 -1 -1 1 2.742734e-01 -4.229181e-01 -4.196849e-01 -7.548370e-01
41 1 2 1.556286e+01 1.233926e+00 -1.098937e+01 -1 -1 1 5.426985e-01 -4.155274e-01 -4.283425e-01 -5.910483e-01
42 1 4 1.532213e+01 1.663389e+00 -1.082501e+01 -1 -1 1 7.174582e-01 -5.399403e-01 -1.261365e-01 -4.216726e-01
43 1 3 1.528941e+01 2.012257e+00 -1.030126e+01 -1 -1 1 8.118523e-01 -5.453809e-01 9.454236e-02 -1.857884e-01
44 1 2 1.540122e+01 2.256294e+00 -9.916642e+00 -1 -1 1 8.343543e-01 -4.742535e-01 2.780733e-01 4.014730e-02
45 1 1 1.580524e+01 2.490416e+00 -9.690739e+00 -1 -1 1 8.212871e-01 -2.916563e-01 4.605785e-01 1.682008e-01
46 1 3 1.632927e+01 2.626664e+00 -9.508470e+00 -1 -1 1 7.456643e-01 -2.045521e-01 5.789731e-01 2.587149e-01
47 1 4 1.686558e+01 2.678323e+00 -9.605504e+00 -1 -1 1 5.658804e-01 6.802185e-02 6.880328e-01 4.491807e-01
48 1 1 1.729616e+01 2.760652e+00 -9.873217e+00 -1 -1 1 -3.490729e-01 -3.141493e-01 -6.516694e-01 -5.956386e-01
49 1 4 1.766595e+01 3.112956e+00 -1.013366e+01 -1 -1 1 -1.561859e-01 -4.281030e-01 -5.918416e-01 -6.648739e-01
50 1 4 1.784034e+01 3.599582e+00 -1.026858e+01 -1 -1 1 1.922196e-01 -5.026122e-01 -4.183540e-01 -7.317189e-01
51 1 4 1.789780e+01 4.178633e+00 -1.022722e+01 -1 -1 1 3.964586e-01 -4.553566e-01 -3.805193e-01 -7.004827e-01
52 1 1 1.775192e+01 4.661983e+00 -1.007890e+01 -1 -1 1 6.511060e-01 -4.968443e-01 -2.148510e-01 -5.320204e-01
53 1 3 1.768628e+01 5.089774e+00 -9.690148e+00 -1 -1 1 7.603421e-01 -5.177301e-01 -2.910777e-02 -3.911371e-01
54 1 4 1.768298e+01 5.337433e+00 -9.260809e+00 -1 -1 1 8.916929e-01 -4.039366e-01 1.573202e-01 -1.302666e-01
55 1 4 1.800984e+01 5.482667e+00 -8.777814e+00 -1 -1 1 8.267845e-01 -4.243887e-01 3.374811e-01 1.497601e-01
56 1 4 1.844967e+01 5.563045e+00 -8.421595e+00 -1 -1 1 7.327010e-01 -3.457959e-01 4.475968e-01 3.784594e-01
57 1 1 1.891691e+01 5.693193e+00 -8.368774e+00 -1 -1 1 6.057851e-01 -5.591162e-02 5.760496e-01 5.459535e-01
58 1 1 1.934548e+01 5.964036e+00 -8.430557e+00 -1 -1 1 3.624968e-01 8.281096e-02 5.778716e-01 7.265004e-01
59 1 3 1.964704e+01 6.369737e+00 -8.592951e+00 -1 -1 1 -1.333712e-01 -2.439022e-01 -5.336370e-01 -7.987211e-01
60 1 4 1.976242e+01 6.886507e+00 -8.666023e+00 -1 -1 1 1.649570e-01 -4.118169e-01 -4.003371e-01 -8.018268e-01
61 1 2 1.982577e+01 7.345176e+00 -8.561159e+00 -1 -1 1 4.169856e-01 -5.121713e-01 -1.619441e-01 -7.331969e-01
62 1 3 1.995482e+01 7.851786e+00 -8.257347e+00 -1 -1 1 5.460877e-01 -4.528689e-01 -1.098701e-02 -7.046824e-01
63 1 2 2.003896e+01 8.138008e+00 -7.827757e+00 -1 -1 1 7.431396e-01 -3.816313e-01 7.747553e-02 -5.441494e-01
64 1 4 -1.987961e+01 8.211053e+00 -7.351443e+00 0 -1 1 9.338941e-01 -1.831996e-01 1.876174e-01 -2.430625e-01
65 1 2 -1.960087e+01 8.163449e+00 -6.785906e+00 0 -1 1 9.257702e-01 -1.574179e-01 3.345106e-01 -7.919399e-02
66 1 1 -1.922568e+01 8.024195e+00 -6.330682e+00 0 -1 1 8.610334e-01 -1.075445e-01 4.172949e-01 2.700384e-01
67 1 2 -1.868906e+01 8.020980e+00 -6.157682e+00 0 -1 1 7.682448e-01 -2.308624e-02 4.797270e-01 4.232363e-01
68 1 1 -1.817153e+01 8.133168e+00 -6.152222e+00 0 -1 1 5.907350e-01 1.395720e-01 5.349366e-01 5.877028e-01
69 1 1 -1.768221e+01 8.390645e+00 -6.234658e+00 0 -1 1 4.116374e-01 2.734864e-01 4.946533e-01 7.148972e-01
70 1 2 -1.730363e+01 8.711979e+00 -6.251156e+00 0 -1 1 -1.951694e-01 -2.930258e-01 -5.116180e-01 -7.837677e-01
71 1 3 -1.710062e+01 9.188370e+00 -6.285177e+00 0 -1 1 9.746432e-02 -4.114538e-01 -4.118250e-01 -8.072216e-01
72 1 4 -1.711556e+01 9.671809e+00 -6.277608e+00 0 -1 1 3.692254e-01 -5.093833e-01 -3.139918e-01 -7.110629e-01
73 1 1 -1.717336e+01 1.018516e+01 -6.080250e+00 0 -1 1 5.853572e-01 -5.361270e-01 -2.019307e-01 -5.737149e-01
74 1 1 -1.726030e+01 1.063018e+01 -5.718409e+00 0 -1 1 7.695985e-01 -5.139433e-01 -5.545485e-02 -3.748403e-01
75 1 3 -1.720495e+01 1.089192e+01 -5.241240e+00 0 -1 1 8.941356e-01 -3.832036e-01 2.585571e-02 -2.302346e-01
76 1 1 -1.699092e+01 1.093532e+01 -4.741072e+00 0 -1 1 -8.841509e-01 3.996856e-01 -2.308946e-01 -7.222340e-02
77 1 4 -1.665957e+01 1.110900e+01 -4.351410e+00 0 -1 1 -8.358898e-01 3.298732e-01 -3.135037e-01 -3.068995e-01
78 1 1 -1.626518e+01 1.135124e+01 -4.068264e+00 0 -1 1 5.545613e-01 -1.808818e-01 4.301605e-01 6.889888e-01
79 1 4 -1.670171e+01 1.155586e+01 -3.165640e+00 0 -1 1 8.137492e-01 -9.256610e-03 -4.771763e-01 3.317068e-01
80 1 2 -1.638916e+01 1.210611e+01 -3.003192e+00 0 -1 1 4.273824e-01 -4.375115e-01 -8.410856e-02 7.866726e-01
81 1 4 -1.644925e+01 1.240701e+01 -2.707909e+00 0 -1 1 -2.834754e-02 -2.892440e-01 1.049061e-01 9.510673e-01
82 1 4 -1.690942e+01 1.247211e+01 -2.134155e+00 0 -1 1 3.491055e-01 2.040073e-01 -7.820335e-02 -9.112577e-01
83 1 4 -1.728934e+01 1.256894e+01 -1.840821e+00 0 -1 1 -6.905225e-01 -1.685301e-01 1.526751e-01 6.866342e-01
84 1 4 -1.748842e+01 1.270666e+01 -9.771695e-01 0 -1 1 5.543937e-01 1.071169e-01 -5.425275e-01 6.219627e-01
85 1 1 -1.847245e+01 1.264917e+01 -1.934947e+00 0 -1 1 -4.996986e-01 -3.587433e-02 7.492932e-01 4.330982e-01
86 1 1 -1.896939e+01 1.268966e+01 -2.098950e+00 0 -1 1 -6.991205e-01 1.971869e-01 6.702192e-01 1.521648e-01
87 1 3 -1.890700e+01 1.260847e+01 -2.238021e+00 0 -1 1 1.576478e-01 8.815455e-01 -3.812270e-01 -2.295443e-01
88 1 2 -1.968243e+01 1.269788e+01 -2.089977e+00 0 -1 1 -4.470782e-01 -3.390107e-01 7.799438e-01 -2.772735e-01
89 1 2 1.921581e+01 1.245365e+01 -2.634289e+00 -1 -1 1 -5.376693e-01 -3.875241e-01 1.279644e-02 7.487143e-01
90 1 3 1.871193e+01 1.224693e+01 -2.429450e+00 -1 -1 1 8.058830e-01 3.508951e-01 -1.954980e-02 -4.764903e-01
91 1 3 1.846078e+01 1.182063e+01 -2.250384e+00 -1 -1 1 -9.008122e-01 -3.708898e-01 2.110180e-01 8.030860e-02
92 1 2 1.820317e+01 1.136236e+01 -2.010952e+00 -1 -1 1 -9.438430e-01 -2.023069e-01 1.802781e-01 -1.890296e-01
93 1 1 1.828631e+01 1.105056e+01 -1.692522e+00 -1 -1 1 -7.349584e-01 -7.320294e-02 3.578968e-01 -5.713032e-01
94 1 2 1.752214e+01 1.040927e+01 -1.850861e+00 -1 -1 1 -4.059214e-01 -3.828689e-01 -8.051786e-01 -2.008147e-01
95 1 3 1.749590e+01 9.563448e+00 -2.266377e+00 -1 -1 1 -1.904858e-01 1.575090e-01 -7.959224e-01 -5.526423e-01
96 1 2 1.778985e+01 1.034949e+01 -2.545650e+00 -1 -1 1 -3.591950e-03 9.872254e-01 1.139634e-01 -1.112899e-01
97 1 2 1.773993e+01 1.058476e+01 -2.917417e+00 -1 -1 1 -8.489183e-02 -8.983091e-01 4.050576e-01 1.475208e-01
98 1 4 1.777505e+01 1.067877e+01 -3.369477e+00 -1 -1 1 -1.494166e-01 -6.891091e-01 7.063317e-01 6.244006e-02
99 1 2 1.789442e+01 1.058182e+01 -3.832524e+00 -1 -1 1 1.366624e-01 4.108110e-01 -9.009388e-01 -2.944580e-02
100 1 1 1.829703e+01 1.078367e+01 -4.266254e+00 -1 -1 1 -2.524496e-01 1.435178e-01 -3.335861e-01 -8.968791e-01
101 2 4 -1.176356e+01 1.773041e+01 -1.107865e+01 0 -1 1 -4.127384e-01 5.614777e-01 1.927280e-01 6.908297e-01
102 2 3 -1.171864e+01 1.808646e+01 -1.071663e+01 0 -1 1 6.377482e-01 -6.487602e-01 1.957225e-01 -3.661695e-01
103 2 1 -1.269030e+01 1.772509e+01 -1.105761e+01 0 -1 1 7.250255e-01 -2.919084e-01 1.308603e-01 -6.099206e-01
104 2 3 -1.300715e+01 1.794517e+01 -1.082455e+01 0 -1 1 3.383497e-01 -8.868789e-01 9.380813e-02 -3.002753e-01
105 2 3 -1.372673e+01 1.826744e+01 -1.080087e+01 0 -1 1 5.411965e-01 -2.887166e-01 3.699485e-01 -6.977731e-01
106 2 2 -1.348226e+01 1.824152e+01 -1.036141e+01 0 -1 1 -6.247240e-01 1.057894e-01 -4.178092e-01 6.511252e-01
107 2 3 -1.337381e+01 1.791821e+01 -1.003524e+01 0 -1 1 8.054042e-01 1.373565e-01 3.774565e-01 -4.358714e-01
108 2 4 -1.335836e+01 1.738548e+01 -9.850135e+00 0 -1 1 -8.786501e-01 -2.415288e-01 -3.875107e-01 1.395469e-01
109 2 3 -1.282755e+01 1.710491e+01 -9.537265e+00 0 -1 1 -7.774708e-01 -3.881912e-01 -4.817792e-01 1.128519e-01
110 2 2 -1.330841e+01 1.674874e+01 -8.255641e+00 0 -1 1 7.025774e-01 8.732616e-02 -6.959293e-01 1.201730e-01
111 2 2 -1.355365e+01 1.638150e+01 -8.257177e+00 0 -1 1 -6.074171e-01 2.067411e-01 6.529898e-01 -4.023766e-01
112 2 3 -1.406845e+01 1.615846e+01 -8.245880e+00 0 -1 1 7.134992e-01 -1.587946e-01 -5.219086e-01 4.396755e-01
113 2 3 -1.429346e+01 1.610873e+01 -7.799035e+00 0 -1 1 4.212090e-01 -4.208933e-01 -4.462410e-01 6.680575e-01
114 2 2 -1.473874e+01 1.609482e+01 -7.462222e+00 0 -1 1 1.883110e-01 -5.796026e-01 -2.426508e-01 7.547982e-01
115 2 4 -1.477869e+01 1.509242e+01 -7.236433e+00 0 -1 1 -5.587497e-01 6.240369e-01 -4.617325e-01 -2.918559e-01
116 2 4 -1.474658e+01 1.430580e+01 -6.892679e+00 0 -1 1 -5.226770e-01 -1.786439e-01 7.694171e-01 3.207685e-01
117 2 1 -1.517056e+01 1.416357e+01 -7.015346e+00 0 -1 1 -6.065931e-01 2.263231e-01 7.531433e-01 -1.166102e-01
118 2 1 -1.566891e+01 1.406258e+01 -6.876784e+00 0 -1 1 -6.639419e-01 3.913443e-01 5.436532e-01 -3.323732e-01
119 2 1 -1.587683e+01 1.399639e+01 -6.486579e+00 0 -1 1 4.260462e-01 -4.335436e-01 -3.966097e-01 6.879138e-01
120 2 1 -1.665381e+01 1.366225e+01 -6.228727e+00 0 -1 1 8.913076e-02 -3.689642e-01 -2.602105e-01 8.878128e-01
121 2 3 -1.659886e+01 1.234395e+01 -6.476142e+00 0 -1 1 -5.971160e-01 4.814337e-01 -5.952873e-01 2.393889e-01
122 2 1 -1.616270e+01 1.226162e+01 -6.437521e+00 0 -1 1 -5.857658e-01 1.477182e-01 -7.741069e-01 -1.892520e-01
123 2 4 -1.611458e+01 1.194158e+01 -5.196534e+00 0 -1 1 -3.562131e-01 -6.278719e-01 6.480788e-01 -2.426579e-01
124 2 1 -1.594551e+01 1.139820e+01 -5.228122e+00 0 -1 1 2.896903e-01 3.249694e-01 -8.084644e-01 3.960551e-01
125 2 4 -1.588874e+01 1.082311e+01 -5.178854e+00 0 -1 1 1.504283e-01 5.511219e-02 -8.473739e-01 5.062523e-01
126 2 2 -1.608973e+01 1.031351e+01 -5.254894e+00 0 -1 1 1.501741e-01 -1.475085e-01 -8.213527e-01 5.301592e-01
127 2 4 -1.642230e+01 9.914074e+00 -5.241428e+00 0 -1 1 1.355009e-01 -3.717792e-01 -7.133910e-01 5.783537e-01
128 2 4 -1.679593e+01 9.610607e+00 -5.138642e+00 0 -1 1 -8.807198e-02 -6.072043e-01 -4.841298e-01 6.238306e-01
129 2 1 -1.737431e+01 9.488181e+00 -5.147403e+00 0 -1 1 -2.252528e-01 -7.338774e-01 -2.584399e-01 5.864247e-01
130 2 2 -1.782223e+01 9.416642e+00 -5.378162e+00 0 -1 1 -3.192160e-01 -8.295391e-01 -5.768224e-04 4.582201e-01
131 2 3 -1.820420e+01 9.269801e+00 -5.654661e+00 0 -1 1 -3.039592e-01 -8.837210e-01 9.046687e-02 3.441827e-01
132 2 4 -1.836312e+01 9.322144e+00 -6.174025e+00 0 -1 1 3.880874e-01 8.134912e-01 -3.690097e-01 -2.268303e-01
133 2 4 -1.849198e+01 9.180530e+00 -6.637544e+00 0 -1 1 4.606001e-01 6.153826e-01 -6.272232e-01 -1.254703e-01
134 2 3 -1.854443e+01 8.876331e+00 -7.094872e+00 0 -1 1 4.545420e-01 4.365079e-01 -7.730052e-01 7.290646e-02
135 2 4 -1.862726e+01 8.341263e+00 -7.283098e+00 0 -1 1 -3.882687e-01 -1.794523e-01 8.850808e-01 -1.835110e-01
136 2 3 -1.871152e+01 7.828693e+00 -7.451362e+00 0 -1 1 -3.562535e-01 4.618787e-02 8.921154e-01 -2.740075e-01
137 2 1 -1.900358e+01 7.382119e+00 -7.519540e+00 0 -1 1 2.363278e-01 -3.585960e-01 -8.264988e-01 3.639474e-01
138 2 3 -1.954719e+01 7.035256e+00 -7.649703e+00 0 -1 1 2.969642e-01 -4.671973e-01 -7.359492e-01 3.897661e-01
139 2 2 2.001728e+01 6.920526e+00 -7.515761e+00 -1 -1 1 6.478813e-02 -6.755382e-01 -5.481459e-01 4.888626e-01
140 2 3 1.946345e+01 6.937389e+00 -7.486419e+00 -1 -1 1 -9.773128e-02 -7.913979e-01 -3.558448e-01 4.873524e-01
141 2 1 1.897425e+01 6.981888e+00 -7.732906e+00 -1 -1 1 -2.838711e-01 -8.601295e-01 -7.333953e-02 4.173916e-01
142 2 2 1.862847e+01 6.904325e+00 -8.287450e+00 -1 -1 1 -3.817722e-01 -8.863307e-01 1.160810e-01 2.349323e-01
143 2 4 1.850727e+01 6.721838e+00 -8.793748e+00 -1 -1 1 3.952059e-01 8.399999e-01 -3.692159e-01 4.349755e-02
144 2 4 1.865137e+01 6.444122e+00 -9.284848e+00 -1 -1 1 -3.765904e-01 -7.012326e-01 5.587702e-01 -2.328699e-01
145 2 1 1.873493e+01 5.975367e+00 -9.560099e+00 -1 -1 1 -4.333557e-01 -4.802427e-01 6.753685e-01 -3.541853e-01
146 2 1 1.880823e+01 5.433923e+00 -9.636248e+00 -1 -1 1 -3.964645e-01 -1.948393e-01 7.841348e-01 -4.358740e-01
147 2 1 1.876500e+01 4.954387e+00 -9.491451e+00 -1 -1 1 -1.462774e-01 9.595089e-02 7.468481e-01 -6.415718e-01
148 2 2 1.852847e+01 4.423941e+00 -9.151551e+00 -1 -1 1 -2.640765e-02 3.172435e-01 7.261352e-01 -6.094152e-01
149 2 4 1.814750e+01 4.130161e+00 -9.051458e+00 -1 -1 1 -4.557568e-02 -5.292379e-01 -5.614960e-01 6.344701e-01
150 2 1 1.765239e+01 3.942262e+00 -9.089150e+00 -1 -1 1 -1.829871e-01 -7.210633e-01 -3.605047e-01 5.626898e-01
151 2 1 1.722903e+01 3.865361e+00 -9.300958e+00 -1 -1 1 -3.459314e-01 -8.282095e-01 -7.068327e-02 4.352061e-01
152 2 1 1.693155e+01 3.998312e+00 -9.710684e+00 -1 -1 1 -4.818619e-01 -7.452232e-01 2.722459e-01 3.719322e-01
153 2 4 1.661483e+01 3.722060e+00 -1.013563e+01 -1 -1 1 -5.817718e-01 -6.889111e-01 4.015429e-01 1.603320e-01
154 2 1 1.652099e+01 3.413198e+00 -1.054085e+01 -1 -1 1 -5.608573e-01 -5.544308e-01 6.111400e-01 -6.747978e-02
155 2 2 1.654398e+01 2.887590e+00 -1.074698e+01 -1 -1 1 -5.419361e-01 -3.152077e-01 7.189544e-01 -3.000898e-01
156 2 4 1.641603e+01 2.397082e+00 -1.074747e+01 -1 -1 1 -4.272253e-01 -1.884300e-01 7.063545e-01 -5.320114e-01
157 2 3 1.643948e+01 1.957889e+00 -1.051393e+01 -1 -1 1 -2.861628e-01 -4.304832e-02 6.707530e-01 -6.828969e-01
158 2 2 1.632242e+01 1.492916e+00 -1.018993e+01 -1 -1 1 -1.430518e-01 1.946058e-01 7.284613e-01 -6.410998e-01
159 2 1 1.601453e+01 1.147312e+00 -9.995327e+00 -1 -1 1 1.512777e-01 5.287913e-01 5.833118e-01 -5.976973e-01
160 2 3 1.546104e+01 9.345061e-01 -9.862559e+00 -1 -1 1 -2.561166e-01 -6.848122e-01 -4.044604e-01 5.494072e-01
161 2 1 1.500645e+01 6.960940e-01 -1.000032e+01 -1 -1 1 -2.532074e-01 -8.264293e-01 -2.349356e-01 4.446413e-01
162 2 1 1.463530e+01 5.792846e-01 -1.032646e+01 -1 -1 1 -3.381960e-01 -9.048617e-01 6.254452e-02 2.508723e-01
163 2 4 1.441120e+01 3.989423e-01 -1.076474e+01 -1 -1 1 -2.900931e-01 -9.188698e-01 2.542823e-01 8.285427e-02
164 2 4 1.429382e+01 -4.787635e-02 -1.123301e+01 -1 -1 1 -4.593208e-01 -8.221287e-01 3.139330e-01 -1.207265e-01
165 2 3 1.437282e+01 -3.056613e-01 -1.161824e+01 -1 -1 1 -4.020137e-01 -7.226152e-01 4.850636e-01 -2.844742e-01
166 2 3 1.473166e+01 -6.826730e-01 -1.188639e+01 -1 -1 1 -3.046178e-01 -4.792540e-01 7.198235e-01 -3.992214e-01
167 2 4 1.480148e+01 -1.215427e+00 -1.196974e+01 -1 -1 1 -2.769236e-01 -2.948464e-01 7.430903e-01 -5.331001e-01
168 2 2 1.482527e+01 -1.742776e+00 -1.175676e+01 -1 -1 1 -1.305569e-01 1.391249e-02 7.740566e-01 -6.193527e-01
169 2 2 1.463896e+01 -2.321813e+00 -1.162309e+01 -1 -1 1 -2.491998e-02 2.836098e-01 7.564833e-01 -5.887933e-01
170 2 1 1.428184e+01 -2.752310e+00 -1.162750e+01 -1 -1 1 1.585686e-02 4.885894e-01 6.751590e-01 -5.524394e-01
171 2 1 1.380716e+01 -3.052865e+00 -1.166562e+01 -1 -1 1 -2.726337e-01 -6.895617e-01 -5.340226e-01 4.061962e-01
172 2 4 1.341195e+01 -3.189416e+00 -1.197692e+01 -1 -1 1 -4.536865e-01 -8.115863e-01 -2.743045e-01 2.454655e-01
173 2 4 1.317267e+01 -3.533082e+00 -1.239529e+01 -1 -1 1 -5.009879e-01 -8.615128e-01 -7.972445e-02 2.123529e-02
174 2 1 1.325843e+01 -3.799992e+00 -1.281444e+01 -1 -1 1 -5.181514e-01 -8.180306e-01 1.822875e-01 -1.706349e-01
175 2 1 1.353855e+01 -4.034094e+00 -1.318735e+01 -1 -1 1 -3.500825e-01 -7.526352e-01 4.330798e-01 -3.513181e-01
176 2 2 1.384938e+01 -4.472641e+00 -1.345451e+01 -1 -1 1 -3.652446e-01 -6.483767e-01 4.263323e-01 -5.142419e-01
177 2 2 1.426132e+01 -4.742904e+00 -1.332646e+01 -1 -1 1 -8.925065e-02 -4.398221e-01 5.529281e-01 -7.020409e-01
178 2 1 1.461397e+01 -5.107282e+00 -1.303649e+01 -1 -1 1 1.279679e-01 -1.570330e-01 7.336340e-01 -6.486493e-01
179 2 4 1.475867e+01 -5.607180e+00 -1.275029e+01 -1 -1 1 1.913100e-01 4.603111e-02 6.588249e-01 -7.261070e-01
180 2 1 1.467837e+01 -6.079427e+00 -1.253962e+01 -1 -1 1 3.488760e-01 3.130837e-01 6.632286e-01 -5.834312e-01
181 2 4 1.446306e+01 -6.494211e+00 -1.244760e+01 -1 -1 1 -4.177089e-01 -5.506627e-01 -4.680558e-01 5.506483e-01
182 2 2 1.403800e+01 -6.815775e+00 -1.259374e+01 -1 -1 1 -5.954085e-01 -6.992399e-01 -2.492271e-01 3.073079e-01
183 2 3 1.396995e+01 -7.318293e+00 -1.273305e+01 -1 -1 1 -5.644385e-01 -7.600250e-01 -2.505822e-01 2.024347e-01
184 2 4 1.393125e+01 -7.609962e+00 -1.316796e+01 -1 -1 1 -5.696837e-01 -8.201277e-01 3.954488e-02 -3.587696e-02
185 2 3 1.406990e+01 -7.905033e+00 -1.360553e+01 -1 -1 1 4.635530e-01 8.168603e-01 -2.224675e-01 2.614690e-01
186 2 1 1.445385e+01 -8.137245e+00 -1.392015e+01 -1 -1 1 3.517451e-01 7.277206e-01 -4.682524e-01 3.569843e-01
187 2 1 1.388574e+01 -8.168961e+00 -1.483108e+01 -1 -1 1 8.317423e-01 5.089332e-01 2.797505e-02 2.200208e-01
188 2 2 1.284120e+01 -8.264586e+00 -1.401969e+01 -1 -1 1 7.962793e-01 1.340128e-02 -3.869689e-01 -4.647739e-01
189 2 4 1.264549e+01 -8.237356e+00 -1.389353e+01 -1 -1 1 -5.168637e-01 -5.379574e-01 2.317892e-02 6.655197e-01
190 2 4 1.205122e+01 -8.566392e+00 -1.379148e+01 -1 -1 1 7.863846e-01 4.780064e-01 -2.641032e-02 -3.903993e-01
191 2 1 1.092935e+01 -8.065971e+00 -1.415186e+01 -1 -1 1 -4.557485e-01 -4.244912e-01 -6.953962e-01 3.585033e-01
192 2 4 1.069219e+01 -8.526565e+00 -1.421451e+01 -1 -1 1 -6.793548e-01 -6.210260e-01 -3.590342e-01 1.545904e-01
193 2 4 1.083890e+01 -8.881006e+00 -1.449885e+01 -1 -1 1 6.812677e-01 7.029382e-01 -1.796880e-03 2.043255e-01
194 2 1 1.007309e+01 -8.774130e+00 -1.435436e+01 -1 -1 1 1.449399e-01 -9.657895e-01 -1.252776e-03 -2.150382e-01
195 2 3 9.530808e+00 -9.186701e+00 -1.408012e+01 -1 -1 1 2.095686e-01 -8.901477e-01 -2.216278e-01 3.385250e-01
196 2 4 8.493468e+00 -9.072990e+00 -1.456119e+01 -1 -1 1 -4.124170e-02 -6.332121e-01 -7.621411e-01 1.283840e-01
197 2 2 8.166672e+00 -9.053513e+00 -1.489752e+01 -1 -1 1 -1.350736e-01 -8.972486e-01 -4.057423e-01 1.098783e-01
198 2 4 8.308620e+00 -9.290239e+00 -1.381652e+01 -1 -1 1 -3.617024e-01 6.817574e-01 4.077540e-01 -4.879702e-01
199 2 3 7.803507e+00 -9.145770e+00 -1.367646e+01 -1 -1 1 -1.589349e-01 8.176688e-01 1.529993e-01 -5.317412e-01
200 2 4 7.765740e+00 -9.312113e+00 -1.234977e+01 -1 -1 1 -1.749316e-01 5.983183e-01 -3.403638e-01 7.039650e-01
