ITEM: TIMESTEP
193000000
ITEM: NUMBER OF ATOMS
200
ITEM: BOX BOUNDS pp pp pp
-2.0000000000000000e+01 2.0000000000000000e+01
-2.0000000000000000e+01 2.0000000000000000e+01
-2.0000000000000000e+01 2.0000000000000000e+01
ITEM: ATOMS id mol type x y z ix iy iz c_quat[1] c_quat[2] c_quat[3] c_quat[4]
1 1 1 1.358922e+01 -1.760945e+00 -4.421038e+00 -1 -1 1 3.533732e-02 -7.722806e-01 -2.816342e-01 -5.683451e-01
2 1 2 1.350912e+01 -2.253287e+00 -3.618217e+00 -1 -1 1 -8.670672e-01 2.441696e-01 5.041915e-02 4.313161e-01
3 1 1 1.469754e+01 -1.661590e+00 -3.904027e+00 -1 -1 1 -9.386051e-01 -3.236509e-01 -7.229520e-02 -9.509977e-02
4 1 3 1.492977e+01 -2.028024e+00 -3.596141e+00 -1 -1 1 -9.121682e-01 -2.465100e-01 -1.006859e-01 -3.115193e-01
5 1 1 1.534829e+01 -2.327083e+00 -3.351422e+00 -1 -1 1 -7.783436e-01 -2.979896e-01 -8.969210e-02 -5.452877e-01
6 1 2 1.581484e+01 -2.414610e+00 -3.157017e+00 -1 -1 1 5.393185e-01 3.772724e-01 1.369489e-01 7.403013e-01
7 1 4 1.635602e+01 -2.336613e+00 -2.984824e+00 -1 -1 1 -2.630988e-01 -3.696538e-01 -4.982495e-02 -8.897486e-01
8 1 1 1.670793e+01 -2.133393e+00 -2.688289e+00 -1 -1 1 4.568423e-02 3.539464e-01 1.040990e-01 9.283309e-01
9 1 1 1.696005e+01 -1.853006e+00 -2.379380e+00 -1 -1 1 2.714906e-01 -3.548696e-01 9.804687e-02 -8.892397e-01
10 1 4 1.699856e+01 -1.659904e+00 -1.822005e+00 -1 -1 1 -5.051648e-01 2.328591e-01 -1.183000e-01 8.225511e-01
11 1 1 1.684007e+01 -1.675968e+00 -1.243080e+00 -1 -1 1 -7.887746e-01 2.133377e-01 -1.944572e-01 5.426860e-01
12 1 1 1.695010e+01 -1.781192e+00 -7.312712e-01 -1 -1 1 8.515647e-01 -1.043561e-01 3.090258e-01 -4.104270e-01
13 1 3 1.692180e+01 -2.051686e+00 -3.619815e-01 -1 -1 1 -9.746525e-01 -6.445005e-03 -1.942975e-01 1.107220e-01
14 1 4 1.713751e+01 -2.343515e+00 3.615029e-02 -1 -1 1 9.589105e-01 7.238487e-02 2.352398e-01 1.411149e-01
15 1 4 1.751641e+01 -2.591026e+00 2.991250e-01 -1 -1 1 8.068155e-01 1.852067e-01 2.179583e-01 5.169540e-01
16 1 2 1.807955e+01 -2.659722e+00 4.999098e-01 -1 -1 1 -6.598207e-01 -2.008580e-01 -1.880865e-01 -6.992254e-01
17 1 1 1.860533e+01 -2.380073e+00 8.585273e-01 -1 -1 1 -3.641822e-01 -1.229274e-01 -2.421048e-01 -8.908678e-01
18 1 2 1.882041e+01 -1.843375e+00 1.060519e+00 -1 -1 1 -5.006636e-04 1.415812e-01 2.222423e-01 9.646569e-01
19 1 3 1.886810e+01 -1.424748e+00 1.387896e+00 -1 -1 1 -2.600058e-01 1.729301e-01 2.320503e-01 9.212192e-01
20 1 1 1.866329e+01 -1.089418e+00 1.713942e+00 -1 -1 1 -5.151452e-01 1.594477e-01 2.251378e-01 8.114893e-01
21 1 4 1.847706e+01 -7.928151e-01 1.938035e+00 -1 -1 1 7.548365e-01 -1.952941e-01 -1.921147e-01 -5.959648e-01
22 1 1 1.812957e+01 -6.601991e-01 2.292841e+00 -1 -1 1 8.940112e-01 -1.121106e-01 -2.410729e-01 -3.606371e-01
23 1 4 1.781636e+01 -6.513449e-01 2.702072e+00 -1 -1 1 9.748581e-01 -1.082821e-01 -9.989333e-02 -1.671764e-01
24 1 3 1.780918e+01 -8.989494e-01 3.302334e+00 -1 -1 1 9.777692e-01 -1.337586e-01 -1.427279e-03 1.614744e-01
25 1 3 1.800450e+01 -9.693996e-01 3.803833e+00 -1 -1 1 8.652143e-01 -7.496097e-02 1.533100e-01 4.714669e-01
26 1 4 1.841262e+01 -9.774971e-01 4.237973e+00 -1 -1 1 7.110676e-01 -5.730592e-02 2.539552e-01 6.531505e-01
27 1 4 1.886380e+01 -6.612614e-01 4.426919e+00 -1 -1 1 3.863957e-01 -3.329915e-02 2.858650e-01 8.762823e-01
28 1 1 1.908228e+01 -2.635804e-01 4.774295e+00 -1 -1 1 1.646470e-01 -6.435011e-02 3.394722e-01 9.238555e-01
29 1 1 1.919260e+01 1.844625e-01 4.802311e+00 -1 -1 1 -1.565800e-01 4.742065e-02 3.838612e-01 9.087819e-01
30 1 4 1.906900e+01 5.072316e-01 5.170617e+00 -1 -1 1 2.001783e-01 7.704704e-02 -4.883006e-01 -8.459048e-01
31 1 4 1.875297e+01 8.242942e-01 4.986470e+00 -1 -1 1 4.467108e-01 -1.980696e-01 -5.997794e-01 -6.336265e-01
32 1 3 1.858385e+01 1.271318e+00 5.115152e+00 -1 -1 1 6.125314e-01 -1.757202e-01 -5.333898e-01 -5.562580e-01
33 1 3 1.812347e+01 1.562398e+00 5.270286e+00 -1 -1 1 7.541128e-01 -3.711852e-01 -3.734116e-01 -3.925547e-01
34 1 1 1.777159e+01 1.774823e+00 5.515812e+00 -1 -1 1 8.361564e-01 -3.813783e-01 -3.354246e-01 -2.070832e-01
35 1 2 1.743790e+01 1.946342e+00 5.899854e+00 -1 -1 1 8.972468e-01 -3.977092e-01 -1.892370e-01 3.106266e-02
36 1 2 1.734276e+01 2.131015e+00 6.414636e+00 -1 -1 1 8.500787e-01 -4.670985e-01 -2.187787e-02 2.422944e-01
37 1 1 1.745322e+01 2.424947e+00 6.863454e+00 -1 -1 1 6.647560e-01 -4.947064e-01 1.817903e-01 5.294500e-01
38 1 1 1.747251e+01 2.979374e+00 7.180568e+00 -1 -1 1 5.105896e-01 -5.415449e-01 2.859979e-01 6.035168e-01
39 1 4 1.767125e+01 3.442788e+00 7.311554e+00 -1 -1 1 -2.994355e-01 3.737048e-01 -4.769430e-01 -7.370268e-01
40 1 4 1.777608e+01 3.927935e+00 7.245872e+00 -1 -1 1 -1.492295e-01 2.906959e-01 -5.897405e-01 -7.385340e-01
41 1 2 1.771329e+01 4.397811e+00 6.973064e+00 -1 -1 1 1.466467e-01 6.744610e-02 -6.194647e-01 -7.682508e-01
42 1 4 1.752066e+01 4.756014e+00 6.740494e+00 -1 -1 1 -3.428299e-01 8.485167e-02 7.272271e-01 5.885649e-01
43 1 3 1.721084e+01 5.166877e+00 6.566828e+00 -1 -1 1 4.666249e-01 -1.055959e-01 -6.820592e-01 -5.530877e-01
44 1 2 1.674439e+01 5.286170e+00 6.459606e+00 -1 -1 1 6.647933e-01 -2.535568e-01 -6.734334e-01 -2.006147e-01
45 1 1 1.621577e+01 5.415357e+00 6.637163e+00 -1 -1 1 7.480837e-01 -3.861529e-01 -5.324724e-01 -8.791976e-02
46 1 3 1.583092e+01 5.500102e+00 6.934239e+00 -1 -1 1 7.787883e-01 -4.921224e-01 -3.476300e-01 1.745217e-01
47 1 4 1.550655e+01 5.751326e+00 7.227744e+00 -1 -1 1 6.808908e-01 -5.824522e-01 -1.370887e-01 4.223078e-01
48 1 1 1.547781e+01 6.156760e+00 7.569204e+00 -1 -1 1 -5.508617e-01 5.882582e-01 -1.357584e-01 -5.762581e-01
49 1 4 1.515483e+01 6.784055e+00 7.608663e+00 -1 -1 1 -3.933837e-01 7.432767e-01 -2.003762e-01 -5.026315e-01
50 1 4 1.512816e+01 7.254394e+00 7.493141e+00 -1 -1 1 -2.733128e-01 6.278340e-01 -4.859073e-01 -5.431562e-01
51 1 4 1.493250e+01 7.770932e+00 7.131706e+00 -1 -1 1 -9.911880e-03 5.266222e-01 -6.480076e-01 -5.501427e-01
52 1 1 1.492167e+01 8.056985e+00 6.552380e+00 -1 -1 1 1.114545e-01 3.972742e-01 -8.061229e-01 -4.241663e-01
53 1 3 1.471651e+01 8.153402e+00 6.119929e+00 -1 -1 1 3.105964e-01 4.844118e-02 -8.770465e-01 -3.632804e-01
54 1 4 1.441951e+01 8.241794e+00 5.652137e+00 -1 -1 1 -4.498413e-01 8.564562e-02 8.449150e-01 2.764531e-01
55 1 4 1.387979e+01 8.158111e+00 5.403589e+00 -1 -1 1 -5.448914e-01 4.316325e-01 7.038813e-01 1.460750e-01
56 1 4 1.344560e+01 8.255553e+00 5.452821e+00 -1 -1 1 -5.410373e-01 6.726487e-01 4.698823e-01 -1.844804e-01
57 1 1 1.315843e+01 8.597250e+00 5.530033e+00 -1 -1 1 4.734309e-01 -7.676626e-01 -1.887546e-01 3.884958e-01
58 1 1 1.259069e+01 7.185014e+00 5.091532e+00 -1 -1 1 -9.273568e-01 -1.207379e-01 1.651995e-01 3.132744e-01
59 1 3 1.250968e+01 6.896899e+00 5.589838e+00 -1 -1 1 9.910726e-01 4.989539e-02 9.586411e-02 -7.807429e-02
60 1 4 1.235191e+01 7.295005e+00 4.695851e+00 -1 -1 1 -3.589639e-01 5.777277e-01 -3.294909e-01 -6.548369e-01
61 1 2 1.173405e+01 6.208170e+00 5.183763e+00 -1 -1 1 -6.176369e-01 3.626898e-01 -6.898190e-01 -1.055009e-01
62 1 3 1.133201e+01 6.382973e+00 6.348688e+00 -1 -1 1 -6.460754e-02 -6.176692e-01 8.394806e-02 -7.792711e-01
63 1 2 1.049581e+01 5.678514e+00 5.761601e+00 -1 -1 1 -6.543023e-01 -4.935296e-01 -1.564103e-01 5.512284e-01
64 1 4 1.026168e+01 5.195458e+00 5.567776e+00 -1 -1 1 -8.477011e-01 -4.775709e-01 2.502889e-02 2.295700e-01
65 1 2 9.601829e+00 5.896349e+00 5.797906e+00 -1 -1 1 4.099382e-01 6.733614e-01 -3.351019e-01 -5.159862e-01
66 1 1 8.889018e+00 5.960895e+00 6.255963e+00 -1 -1 1 4.599475e-01 6.417381e-01 5.983660e-01 1.363039e-01
67 1 2 9.268649e+00 5.294785e+00 6.153659e+00 -1 -1 1 -3.818894e-01 -4.520936e-01 -7.958719e-01 1.279056e-01
68 1 1 9.272455e+00 5.172845e+00 5.612291e+00 -1 -1 1 -2.396723e-01 -6.843018e-01 -6.876634e-01 -3.751320e-02
69 1 1 9.266472e+00 5.105530e+00 5.002390e+00 -1 -1 1 1.384375e-01 7.867937e-01 5.379176e-01 2.691382e-01
70 1 2 9.359685e+00 5.220303e+00 4.555170e+00 -1 -1 1 -6.614801e-02 8.810199e-01 3.517902e-01 3.093091e-01
71 1 3 9.450571e+00 4.207058e+00 4.235783e+00 -1 -1 1 3.962414e-01 -8.452244e-01 3.270959e-01 -1.469581e-01
72 1 4 8.338249e+00 4.341760e+00 3.757531e+00 -1 -1 1 -3.745922e-01 6.275127e-01 6.823977e-01 1.555201e-02
73 1 1 7.517137e+00 3.741099e+00 2.813789e+00 -1 -1 1 -3.308544e-01 -1.574721e-01 -9.299527e-01 3.042931e-02
74 1 1 7.730937e+00 3.376947e+00 2.570976e+00 -1 -1 1 3.931003e-01 5.030165e-01 7.621506e-01 1.075780e-01
75 1 3 7.407507e+00 2.381521e+00 2.458435e+00 -1 -1 1 -5.578717e-02 3.320922e-01 -9.220512e-01 -1.908509e-01
76 1 1 7.462398e+00 2.161574e+00 2.011469e+00 -1 -1 1 -1.501502e-02 -4.784808e-02 -9.890616e-01 -1.387161e-01
77 1 4 8.208445e+00 1.630613e+00 1.220098e+00 -1 -1 1 -1.057966e-01 -4.416706e-01 7.238464e-01 5.194041e-01
78 1 1 7.659184e+00 1.825080e+00 1.031524e+00 -1 -1 1 -2.124261e-01 -6.381869e-01 6.056666e-01 4.251595e-01
79 1 4 7.346415e+00 1.917358e+00 6.520014e-01 -1 -1 1 3.278284e-01 4.554402e-01 -7.835858e-01 -2.666385e-01
80 1 2 7.326149e+00 3.188206e+00 -1.060767e-01 -1 -1 1 -5.865603e-01 6.910970e-02 -3.986343e-01 -7.016135e-01
81 1 4 7.561318e+00 3.617395e+00 9.278158e-02 -1 -1 1 5.379654e-01 -1.571679e-01 5.543615e-01 6.152843e-01
82 1 4 8.486313e+00 3.577218e+00 2.939806e-01 -1 -1 1 2.956156e-01 7.370807e-01 -6.036339e-01 -7.035314e-02
83 1 4 8.599458e+00 3.319620e+00 -1.081142e-01 -1 -1 1 -2.649882e-01 -3.869141e-01 8.732805e-01 -1.321357e-01
84 1 4 9.595341e+00 3.882628e+00 -1.769214e-01 -1 -1 1 1.789765e-01 -9.497301e-01 1.609457e-01 2.001913e-01
85 1 1 9.301912e+00 4.017277e+00 -1.244393e+00 -1 -1 1 -3.837057e-01 -9.119696e-01 -1.463964e-02 1.444544e-01
86 1 1 9.381915e+00 4.535980e+00 -1.273204e+00 -1 -1 1 -2.405871e-01 1.449720e-01 3.173427e-01 -9.057564e-01
87 1 3 9.163165e+00 4.002794e+00 -2.497430e+00 -1 -1 1 8.308352e-01 4.276666e-01 7.502544e-02 -3.481167e-01
88 1 2 9.083212e+00 3.527405e+00 -2.566019e+00 -1 -1 1 -8.882489e-01 -2.716703e-01 3.296786e-01 -1.688820e-01
89 1 2 9.713417e+00 3.462259e+00 -3.108591e+00 -1 -1 1 7.044104e-01 5.460996e-01 -2.413224e-01 3.838550e-01
90 1 3 1.007456e+01 3.143135e+00 -3.200562e+00 -1 -1 1 5.022950e-01 5.225324e-01 -4.034453e-01 5.584725e-01
91 1 3 1.060023e+01 2.247838e+00 -3.249828e+00 -1 -1 1 3.339068e-01 5.547075e-01 -7.615832e-01 -2.822719e-02
92 1 2 1.103315e+01 1.896454e+00 -3.342798e+00 -1 -1 1 -7.823077e-01 2.651636e-01 -4.554825e-01 3.319918e-01
93 1 1 1.145951e+01 1.737700e+00 -2.998185e+00 -1 -1 1 -7.616998e-01 1.108928e-01 -5.508651e-01 3.225892e-01
94 1 2 1.157881e+01 2.586860e+00 -2.011721e+00 -1 -1 1 -7.988475e-02 2.819202e-02 -4.092886e-01 9.084638e-01
95 1 3 1.151803e+01 2.251649e+00 -1.595812e+00 -1 -1 1 7.945769e-02 1.766287e-01 3.506923e-01 -9.162443e-01
96 1 2 1.127105e+01 1.952048e+00 -1.162948e+00 -1 -1 1 -1.348754e-01 -3.092426e-01 -2.136226e-01 9.168113e-01
97 1 2 1.115240e+01 1.834251e+00 -1.060747e+00 -1 -1 1 1.177366e-01 -3.708019e-01 6.744820e-01 6.274696e-01
98 1 4 1.085602e+01 2.179489e+00 -3.729291e-01 -1 -1 1 1.938476e-01 2.273277e-01 -7.438501e-01 -5.978563e-01
99 1 2 1.059125e+01 2.439270e+00 -7.080499e-01 -1 -1 1 3.813778e-01 -6.888505e-02 -8.048764e-01 -4.494217e-01
100 1 1 1.042481e+01 2.840234e+00 -1.140460e-01 -1 -1 1 6.864928e-01 -3.311925e-01 -5.262172e-01 3.770075e-01
101 2 4 1.100069e+01 1.798302e+01 -9.784371e-01 -1 -1 1 -4.949565e-01 -3.756744e-01 -5.515143e-01 5.565239e-01
102 2 3 1.083132e+01 1.748488e+01 -8.345641e-01 -1 -1 1 6.329548e-01 5.664077e-01 4.197902e-01 -3.198856e-01
103 2 1 1.097079e+01 1.779231e+01 -4.545032e-01 -1 -1 1 7.152457e-01 -3.362995e-01 6.119950e-01 -2.807635e-02
104 2 3 1.094733e+01 1.824384e+01 7.882022e-01 -1 -1 1 -6.051444e-01 5.515927e-01 4.746963e-01 3.228145e-01
105 2 3 1.085148e+01 1.826143e+01 1.277556e+00 -1 -1 1 -3.748469e-02 1.847390e-01 -3.303680e-01 9.248370e-01
106 2 2 1.088919e+01 1.812918e+01 1.731242e+00 -1 -1 1 -4.116941e-01 7.406317e-03 -3.707356e-01 8.324712e-01
107 2 3 1.109249e+01 1.878463e+01 1.860495e+00 -1 -1 1 5.098299e-02 -3.221837e-01 6.929734e-01 -6.429513e-01
108 2 4 1.188596e+01 1.936240e+01 1.000378e+00 -1 -1 1 1.462041e-01 -9.308052e-01 -1.823372e-02 -3.345050e-01
109 2 3 1.220390e+01 1.978078e+01 8.887124e-01 -1 -1 1 4.092907e-01 -7.929524e-01 3.858281e-01 -2.341884e-01
110 2 2 1.272320e+01 1.982005e+01 9.675092e-01 -1 -1 1 -5.750630e-01 4.436258e-01 -6.869328e-01 -2.493827e-02
111 2 2 1.314682e+01 -1.902774e+01 1.140136e+00 -1 0 1 -3.210082e-01 -7.249213e-01 -2.797675e-01 -5.414544e-01
112 2 3 1.354436e+01 1.991000e+01 1.003342e+00 -1 -1 1 -5.035360e-01 -6.125727e-01 4.532854e-01 -4.071101e-01
113 2 3 1.384718e+01 1.947595e+01 9.887076e-01 -1 -1 1 3.926978e-01 3.461276e-01 -6.648373e-01 5.328934e-01
114 2 2 1.389407e+01 1.897701e+01 1.058004e+00 -1 -1 1 -2.515158e-01 -2.188597e-01 6.652889e-01 -6.680052e-01
115 2 4 1.393247e+01 1.861002e+01 1.411944e+00 -1 -1 1 -2.127102e-01 -1.326460e-01 -6.873182e-01 6.817281e-01
116 2 4 1.368707e+01 1.827833e+01 1.594375e+00 -1 -1 1 4.913279e-01 3.090762e-01 5.955672e-01 -5.553093e-01
117 2 1 1.432805e+01 1.789047e+01 2.600355e+00 -1 -1 1 6.177243e-01 3.467933e-01 -4.340033e-01 5.565898e-01
118 2 1 1.450175e+01 1.751549e+01 2.786788e+00 -1 -1 1 1.626603e-01 1.794286e-01 -6.054750e-01 7.581207e-01
119 2 1 1.454769e+01 1.713167e+01 3.144165e+00 -1 -1 1 -2.145611e-01 -1.482085e-01 -6.030141e-01 7.539044e-01
120 2 1 1.439516e+01 1.677140e+01 3.342752e+00 -1 -1 1 -4.174978e-01 -4.115809e-01 -3.938948e-01 7.079150e-01
121 2 3 1.430714e+01 1.620239e+01 3.640415e+00 -1 -1 1 4.728298e-01 4.871412e-01 5.076973e-01 -5.304422e-01
122 2 1 1.401848e+01 1.620913e+01 3.058570e+00 -1 -1 1 -5.549885e-01 -5.580519e-01 -4.199728e-01 4.518724e-01
123 2 4 1.382753e+01 1.626555e+01 3.271807e+00 -1 -1 1 7.963745e-01 1.454726e-01 3.778764e-01 4.492602e-01
124 2 1 1.341901e+01 1.564531e+01 2.725337e+00 -1 -1 1 2.570926e-01 7.858936e-01 -3.378572e-01 -4.495855e-01
125 2 4 1.341973e+01 1.461572e+01 3.027027e+00 -1 -1 1 -2.867516e-01 2.500560e-01 -8.806517e-01 2.823085e-01
126 2 2 1.315362e+01 1.465837e+01 2.685028e+00 -1 -1 1 4.765748e-01 1.412603e-01 -8.283532e-01 2.583659e-01
127 2 4 1.275535e+01 1.422754e+01 2.698685e+00 -1 -1 1 5.055009e-01 -1.829206e-01 -7.799919e-01 3.203461e-01
128 2 4 1.325345e+01 1.302867e+01 2.126632e+00 -1 -1 1 7.552232e-02 4.525603e-01 -8.443870e-01 -2.765794e-01
129 2 1 1.417636e+01 1.370074e+01 2.643907e+00 -1 -1 1 -5.944376e-01 -5.592075e-01 5.045513e-01 -2.817072e-01
130 2 2 1.424446e+01 1.410019e+01 2.838264e+00 -1 -1 1 -9.720176e-01 1.958586e-01 -3.119643e-02 1.258890e-01
131 2 3 1.424571e+01 1.390981e+01 3.298844e+00 -1 -1 1 -9.434687e-01 1.268165e-01 2.434618e-03 -3.062326e-01
132 2 4 1.447901e+01 1.390468e+01 3.768519e+00 -1 -1 1 -7.226665e-01 6.858499e-02 -9.815455e-02 -6.807458e-01
133 2 4 1.481170e+01 1.408132e+01 4.197860e+00 -1 -1 1 -3.546940e-01 2.129896e-01 -3.705078e-02 -9.096454e-01
134 2 3 1.551334e+01 1.326220e+01 4.152366e+00 -1 -1 1 7.778003e-01 -2.271766e-01 -2.527474e-01 5.287118e-01
135 2 4 1.623809e+01 1.308514e+01 3.860311e+00 -1 -1 1 -6.080887e-01 -6.323635e-01 -1.378392e-02 -4.797443e-01
136 2 3 1.680507e+01 1.272985e+01 4.425093e+00 -1 -1 1 6.501897e-01 -6.421618e-01 2.673731e-01 -3.056030e-01
137 2 1 1.715959e+01 1.240369e+01 4.292291e+00 -1 -1 1 -4.288228e-01 7.966420e-01 -2.908130e-01 -3.112881e-01
138 2 3 1.659981e+01 1.130702e+01 4.473996e+00 -1 -1 1 -7.778092e-01 -5.688018e-02 -6.252007e-01 3.002570e-02
139 2 2 1.544661e+01 1.190557e+01 4.460143e+00 -1 -1 1 3.889522e-02 -8.616581e-02 -5.848552e-01 -8.056097e-01
140 2 3 1.629744e+01 1.150148e+01 5.658975e+00 -1 -1 1 9.015179e-01 -3.291251e-01 -1.977420e-01 1.996002e-01
141 2 1 1.498262e+01 1.120722e+01 5.807848e+00 -1 -1 1 -3.791830e-01 -2.434800e-01 -5.134090e-01 7.303074e-01
142 2 2 1.474373e+01 1.070394e+01 5.943302e+00 -1 -1 1 4.618848e-01 5.305209e-01 4.569999e-01 -5.443906e-01
143 2 4 1.437785e+01 1.030873e+01 5.836792e+00 -1 -1 1 -6.767481e-01 -6.695908e-01 -1.412165e-01 2.715107e-01
144 2 4 1.341038e+01 9.762962e+00 6.856299e+00 -1 -1 1 -5.623603e-01 2.589762e-01 -4.533834e-01 6.411908e-01
145 2 1 1.285249e+01 9.747148e+00 7.432123e+00 -1 -1 1 4.565108e-02 1.624775e-01 8.102799e-01 -5.612161e-01
146 2 1 1.267543e+01 9.218289e+00 7.411869e+00 -1 -1 1 -1.014682e-01 -4.186309e-01 -6.977548e-01 5.723553e-01
147 2 1 1.369958e+01 8.205141e+00 6.604627e+00 -1 -1 1 -8.542004e-01 -2.750965e-01 -4.004032e-01 1.853130e-01
148 2 2 1.376921e+01 7.734378e+00 6.667524e+00 -1 -1 1 8.735648e-01 4.074321e-01 2.309697e-01 1.324259e-01
149 2 4 1.408441e+01 7.288928e+00 6.549016e+00 -1 -1 1 -7.670772e-01 -5.344823e-01 -1.535525e-01 -3.199108e-01
150 2 1 1.449889e+01 6.940062e+00 6.394796e+00 -1 -1 1 -5.976638e-01 -5.900649e-01 -3.468388e-02 -5.416812e-01
151 2 1 1.502013e+01 6.817409e+00 6.408776e+00 -1 -1 1 -4.349271e-01 -6.422374e-01 4.788263e-02 -6.293464e-01
152 2 1 1.545612e+01 6.702900e+00 6.391580e+00 -1 -1 1 -2.168710e-01 -6.296836e-01 1.483978e-01 -7.310565e-01
153 2 4 1.589489e+01 6.726600e+00 6.647841e+00 -1 -1 1 8.540993e-02 -5.221066e-01 3.491172e-01 -7.734514e-01
154 2 1 1.635965e+01 6.529076e+00 6.937721e+00 -1 -1 1 1.908589e-01 -3.158615e-01 5.574483e-01 -7.436772e-01
155 2 2 1.662766e+01 6.358831e+00 7.308565e+00 -1 -1 1 4.608496e-01 -1.245942e-01 5.858714e-01 -6.548654e-01
156 2 4 1.675020e+01 5.809185e+00 7.622031e+00 -1 -1 1 4.978658e-01 1.332979e-01 6.616039e-01 -5.446481e-01
157 2 3 1.683242e+01 5.298829e+00 7.702135e+00 -1 -1 1 5.318729e-01 3.979439e-01 6.187601e-01 -4.193899e-01
158 2 2 1.674637e+01 4.816995e+00 7.634045e+00 -1 -1 1 5.225897e-01 5.981835e-01 5.068438e-01 -3.349416e-01
159 2 1 1.660638e+01 4.409484e+00 7.387605e+00 -1 -1 1 5.288889e-01 7.796383e-01 3.046511e-01 -1.401012e-01
160 2 3 1.655817e+01 4.010457e+00 7.038705e+00 -1 -1 1 -4.954146e-01 -8.539326e-01 -1.378971e-01 -7.967299e-02
161 2 1 1.672030e+01 3.881226e+00 6.581942e+00 -1 -1 1 -4.249579e-01 -8.518813e-01 1.384264e-01 -2.730333e-01
162 2 1 1.708864e+01 3.488632e+00 6.206876e+00 -1 -1 1 -3.993619e-01 -7.769135e-01 2.066859e-01 -4.406773e-01
163 2 4 1.757111e+01 3.195985e+00 6.065005e+00 -1 -1 1 -3.244383e-01 -6.464307e-01 3.619019e-01 -5.881277e-01
164 2 4 1.802070e+01 3.015614e+00 6.043063e+00 -1 -1 1 -1.145069e-01 -4.844006e-01 6.365225e-01 -5.891378e-01
165 2 3 1.834555e+01 2.626110e+00 6.137141e+00 -1 -1 1 6.969874e-02 -2.521012e-01 7.081725e-01 -6.558040e-01
166 2 3 1.852925e+01 2.136582e+00 6.302442e+00 -1 -1 1 1.841663e-01 7.116354e-03 8.204116e-01 -5.412550e-01
167 2 4 1.857170e+01 1.658049e+00 6.448557e+00 -1 -1 1 3.634319e-01 2.981188e-01 7.986027e-01 -3.758672e-01
168 2 2 1.859573e+01 1.166897e+00 6.309729e+00 -1 -1 1 3.368339e-01 4.201379e-01 7.091348e-01 -4.551426e-01
169 2 2 1.837898e+01 7.032420e-01 6.144759e+00 -1 -1 1 4.127049e-01 6.115378e-01 6.158186e-01 -2.765205e-01
170 2 1 1.805973e+01 3.632462e-01 5.882246e+00 -1 -1 1 4.121655e-01 8.092635e-01 3.676192e-01 -2.001706e-01
171 2 1 1.793876e+01 1.465955e-01 5.410038e+00 -1 -1 1 -5.007857e-01 -8.601750e-01 -9.645571e-02 2.984336e-03
172 2 4 1.788186e+01 -9.651940e-02 5.068095e+00 -1 -1 1 -1.645511e-01 -9.662888e-01 -1.902581e-01 -5.487059e-02
173 2 4 1.791507e+01 1.232220e-03 4.552710e+00 -1 -1 1 -1.139613e-01 -9.855994e-01 1.095140e-01 -6.011078e-02
174 2 1 1.807922e+01 1.817480e-01 4.138592e+00 -1 -1 1 -5.278933e-02 -9.036870e-01 4.072280e-01 -1.213610e-01
175 2 1 1.832566e+01 1.197882e-01 3.707682e+00 -1 -1 1 7.319666e-03 -7.321432e-01 6.431307e-01 -2.242669e-01
176 2 2 1.866304e+01 -7.212414e-02 3.371346e+00 -1 -1 1 -1.878208e-02 -4.361170e-01 8.265324e-01 -3.553777e-01
177 2 2 1.894327e+01 -4.851910e-01 3.263847e+00 -1 -1 1 1.142992e-02 -2.376787e-01 8.710088e-01 -4.297928e-01
178 2 1 1.900874e+01 -9.292407e-01 3.084042e+00 -1 -1 1 8.190408e-02 8.770328e-02 9.319407e-01 -3.421788e-01
179 2 4 1.885744e+01 -1.438868e+00 2.871610e+00 -1 -1 1 1.647366e-01 4.182394e-01 8.546477e-01 -2.598364e-01
180 2 1 1.858951e+01 -1.776756e+00 2.618477e+00 -1 -1 1 1.806391e-01 6.553292e-01 6.833900e-01 -2.662543e-01
181 2 4 1.824026e+01 -2.037087e+00 2.328042e+00 -1 -1 1 -1.551580e-01 -8.320584e-01 -4.738946e-01 2.429584e-01
182 2 2 1.790169e+01 -1.983751e+00 1.882339e+00 -1 -1 1 -9.619904e-02 -9.436985e-01 -2.655447e-01 1.722349e-01
183 2 3 1.769390e+01 -1.772081e+00 1.402361e+00 -1 -1 1 -1.083275e-01 -9.856384e-01 4.617767e-02 1.210357e-01
184 2 4 1.773139e+01 -1.555830e+00 9.032445e-01 -1 -1 1 -7.493754e-02 -9.330645e-01 3.518030e-01 -3.088091e-03
185 2 3 1.800008e+01 -1.463503e+00 4.658708e-01 -1 -1 1 8.720440e-02 7.171305e-01 -6.889665e-01 -5.868913e-02
186 2 1 1.817794e+01 -1.671013e+00 -4.543780e-02 -1 -1 1 2.096410e-01 3.811443e-01 -8.997261e-01 -3.567372e-02
187 2 1 1.811611e+01 -1.928470e+00 -5.242223e-01 -1 -1 1 -2.507991e-01 -2.245695e-01 9.373577e-01 -8.960400e-02
188 2 2 1.798313e+01 -2.297983e+00 -8.883668e-01 -1 -1 1 3.126926e-01 -3.911425e-02 -9.327005e-01 1.753942e-01
189 2 4 1.762515e+01 -2.674035e+00 -1.085156e+00 -1 -1 1 2.010104e-01 -4.136183e-01 -8.593562e-01 2.236552e-01
190 2 4 1.720065e+01 -2.853874e+00 -1.366007e+00 -1 -1 1 -3.140338e-01 5.160282e-01 7.426501e-01 -2.890821e-01
191 2 1 1.666385e+01 -2.776859e+00 -1.600856e+00 -1 -1 1 -3.397897e-01 7.105715e-01 5.443525e-01 -2.886373e-01
192 2 4 1.622984e+01 -2.509891e+00 -1.650990e+00 -1 -1 1 1.911986e-01 -8.782545e-01 -2.417492e-01 3.656084e-01
193 2 4 1.589136e+01 -2.183705e+00 -1.875421e+00 -1 -1 1 -1.771622e-01 9.105096e-01 9.592796e-03 -3.734887e-01
194 2 1 1.568688e+01 -1.776607e+00 -2.212093e+00 -1 -1 1 1.256987e-01 -8.920104e-01 2.798583e-01 3.319588e-01
195 2 3 1.566250e+01 -1.397514e+00 -2.497147e+00 -1 -1 1 -1.085136e-01 7.108575e-01 -6.008821e-01 -3.490660e-01
196 2 4 1.575863e+01 -1.260541e+00 -3.001174e+00 -1 -1 1 -1.609637e-02 5.587121e-01 -7.951890e-01 -2.350664e-01
197 2 2 1.572842e+01 -1.152027e+00 -3.521662e+00 -1 -1 1 2.518329e-03 -4.947367e-01 8.630621e-01 1.017502e-01
198 2 4 1.582626e+01 -1.283215e+00 -3.979739e+00 -1 -1 1 -7.988139e-02 -1.151819e-01 9.715286e-01 1.910085e-01
199 2 3 1.566171e+01 -1.382045e+00 -4.428981e+00 -1 -1 1 -1.582942e-01 3.734123e-01 9.081200e-01 1.040396e-01
200 2 4 1.519673e+01 -1.379000e+00 -4.784227e+00 -1 -1 1 2.268546e-01 -6.414525e-01 -7.327947e-01 -9.365594e-03
