ITEM: TIMESTEP
166000000
ITEM: NUMBER OF ATOMS
200
ITEM: BOX BOUNDS pp pp pp
-2.0000000000000000e+01 2.0000000000000000e+01
-2.0000000000000000e+01 2.0000000000000000e+01
-2.0000000000000000e+01 2.0000000000000000e+01
ITEM: ATOMS id mol type x y z ix iy iz c_quat[1] c_quat[2] c_quat[3] c_quat[4]
1 1 1 6.863903e+00 -1.390352e+01 -1.165795e+01 -1 -1 1 3.621882e-02 -9.525321e-01 -2.924674e-01 -7.637822e-02
2 1 2 7.522763e+00 -1.501903e+01 -1.178450e+01 -1 -1 1 2.160728e-01 -9.198759e-01 3.214030e-01 -6.197501e-02
3 1 1 7.442611e+00 -1.509693e+01 -1.191962e+01 -1 -1 1 4.427522e-01 7.183627e-01 4.777475e-01 -2.443007e-01
4 1 3 8.517351e+00 -1.564775e+01 -1.075457e+01 -1 -1 1 -8.607521e-01 4.656318e-01 -1.792348e-01 -1.008351e-01
5 1 1 8.881492e+00 -1.552564e+01 -1.036023e+01 -1 -1 1 8.406770e-01 -2.913120e-01 3.313732e-01 3.139925e-01
6 1 2 9.306845e+00 -1.526105e+01 -1.010903e+01 -1 -1 1 -7.395754e-01 2.131207e-01 -4.778305e-01 -4.234217e-01
7 1 4 9.709246e+00 -1.508452e+01 -9.937980e+00 -1 -1 1 5.854579e-01 -4.066586e-02 5.666537e-01 5.783501e-01
8 1 1 1.010948e+01 -1.488590e+01 -1.004788e+01 -1 -1 1 -3.919170e-01 -1.495276e-01 -4.971098e-01 -7.595554e-01
9 1 1 1.046650e+01 -1.447929e+01 -1.001434e+01 -1 -1 1 1.628689e-01 1.798664e-01 5.735790e-01 7.823867e-01
10 1 4 1.056878e+01 -1.403124e+01 -1.020768e+01 -1 -1 1 9.494272e-02 -3.536706e-01 -5.274754e-01 -7.665981e-01
11 1 1 1.050966e+01 -1.352006e+01 -1.039492e+01 -1 -1 1 -3.299065e-01 4.056359e-01 5.040029e-01 6.874608e-01
12 1 1 1.039984e+01 -1.297449e+01 -1.022553e+01 -1 -1 1 -5.747351e-01 5.223613e-01 2.178898e-01 5.910519e-01
13 1 3 1.029882e+01 -1.256688e+01 -9.810637e+00 -1 -1 1 7.240773e-01 -5.462355e-01 1.878544e-03 -4.211120e-01
14 1 4 1.044665e+01 -1.233046e+01 -9.329285e+00 -1 -1 1 -8.250686e-01 5.062324e-01 -1.984120e-01 1.536984e-01
15 1 4 1.072751e+01 -1.217539e+01 -8.873129e+00 -1 -1 1 -8.445638e-01 3.839391e-01 -3.728177e-01 1.759561e-02
16 1 2 1.107895e+01 -1.199845e+01 -8.638470e+00 -1 -1 1 8.508718e-01 -1.545821e-01 4.899643e-01 1.098019e-01
17 1 1 1.153577e+01 -1.206535e+01 -8.455552e+00 -1 -1 1 7.428274e-01 -5.873899e-03 5.932667e-01 3.101733e-01
18 1 2 1.213861e+01 -1.209084e+01 -8.552269e+00 -1 -1 1 -5.670577e-01 -1.632034e-01 -5.493283e-01 -5.916491e-01
19 1 3 1.261347e+01 -1.192648e+01 -8.689874e+00 -1 -1 1 -3.114484e-01 -3.317148e-01 -4.693210e-01 -7.567714e-01
20 1 1 1.300374e+01 -1.153685e+01 -8.639849e+00 -1 -1 1 -1.991381e-01 -2.320365e-01 -5.061391e-01 -8.064281e-01
21 1 4 1.322208e+01 -1.108718e+01 -8.764102e+00 -1 -1 1 -9.770369e-02 4.561328e-01 3.470975e-01 8.135848e-01
22 1 1 1.322170e+01 -1.052130e+01 -8.687293e+00 -1 -1 1 -4.043137e-01 5.160961e-01 2.594828e-01 7.091149e-01
23 1 4 1.314073e+01 -1.012054e+01 -8.408623e+00 -1 -1 1 -6.616923e-01 5.464001e-01 7.562067e-02 5.078305e-01
24 1 3 1.318205e+01 -9.806476e+00 -8.036584e+00 -1 -1 1 -8.258234e-01 4.118146e-01 5.890869e-02 3.807285e-01
25 1 3 1.324427e+01 -9.611752e+00 -7.509101e+00 -1 -1 1 -8.647646e-01 4.590051e-01 -1.491126e-01 1.387875e-01
26 1 4 1.339177e+01 -9.500454e+00 -7.091647e+00 -1 -1 1 -9.021672e-01 3.182269e-01 -2.671798e-01 -1.159352e-01
27 1 4 1.379774e+01 -9.436216e+00 -6.637595e+00 -1 -1 1 -8.137780e-01 2.549003e-01 -3.795566e-01 -3.587868e-01
28 1 1 1.422638e+01 -9.296386e+00 -6.533870e+00 -1 -1 1 -6.572568e-01 3.889680e-02 -4.903179e-01 -5.710420e-01
29 1 1 1.453948e+01 -8.899170e+00 -6.167614e+00 -1 -1 1 -5.226395e-01 2.033100e-01 -5.601050e-01 -6.097502e-01
30 1 4 1.482071e+01 -8.515089e+00 -6.243352e+00 -1 -1 1 2.766837e-01 4.409460e-02 6.285023e-01 7.255940e-01
31 1 4 1.498422e+01 -8.059911e+00 -6.397021e+00 -1 -1 1 -1.436775e-02 1.755142e-01 5.382674e-01 8.241702e-01
32 1 3 1.500466e+01 -7.522548e+00 -6.350833e+00 -1 -1 1 -2.653086e-01 1.953202e-01 5.170082e-01 7.900404e-01
33 1 3 1.466123e+01 -7.172239e+00 -6.418813e+00 -1 -1 1 -4.691800e-01 3.327546e-01 5.549188e-01 6.010072e-01
34 1 1 1.429528e+01 -6.786331e+00 -6.287992e+00 -1 -1 1 -6.755650e-01 4.479471e-01 4.094026e-01 4.187419e-01
35 1 2 1.394981e+01 -6.518928e+00 -6.024161e+00 -1 -1 1 -8.039000e-01 5.302432e-01 2.128224e-01 1.652078e-01
36 1 2 1.385462e+01 -6.049785e+00 -5.666782e+00 -1 -1 1 -8.133106e-01 5.705120e-01 8.401214e-03 1.138916e-01
37 1 1 1.395012e+01 -5.785040e+00 -5.259019e+00 -1 -1 1 -8.152631e-01 4.860095e-01 -2.136776e-01 -2.312634e-01
38 1 1 1.429193e+01 -5.589390e+00 -4.931857e+00 -1 -1 1 -7.875444e-01 2.878945e-01 -3.879400e-01 -3.826135e-01
39 1 4 1.466593e+01 -5.131617e+00 -4.703593e+00 -1 -1 1 6.539266e-01 -3.170558e-01 5.907088e-01 3.505976e-01
40 1 4 1.510579e+01 -4.892028e+00 -4.693455e+00 -1 -1 1 4.149207e-01 -7.322668e-02 6.872865e-01 5.917059e-01
41 1 2 1.536345e+01 -4.484699e+00 -5.001286e+00 -1 -1 1 7.032809e-02 2.132833e-01 6.486313e-01 7.272150e-01
42 1 4 1.539402e+01 -3.978858e+00 -5.196109e+00 -1 -1 1 2.150358e-01 -3.210723e-01 -5.986034e-01 -7.016738e-01
43 1 3 1.528345e+01 -3.468812e+00 -5.208317e+00 -1 -1 1 -3.557006e-01 3.239352e-01 6.139396e-01 6.257965e-01
44 1 2 1.492619e+01 -3.009421e+00 -5.253682e+00 -1 -1 1 -5.167503e-01 4.714458e-01 4.731403e-01 5.355804e-01
45 1 1 1.466547e+01 -2.599900e+00 -5.043933e+00 -1 -1 1 -6.736980e-01 5.649502e-01 3.195836e-01 3.533110e-01
46 1 3 1.445524e+01 -2.218519e+00 -4.747979e+00 -1 -1 1 -8.255462e-01 5.371545e-01 1.278251e-01 1.166156e-01
47 1 4 1.435289e+01 -2.083503e+00 -4.307197e+00 -1 -1 1 -8.470940e-01 4.727447e-01 -1.937180e-02 -2.420102e-01
48 1 1 1.446094e+01 -1.776497e+00 -3.851614e+00 -1 -1 1 7.706156e-01 -4.569195e-01 1.809980e-01 4.057288e-01
49 1 4 1.467678e+01 -1.395781e+00 -3.550471e+00 -1 -1 1 7.020472e-01 -2.997898e-01 3.703639e-01 5.292319e-01
50 1 4 1.499896e+01 -1.089504e+00 -3.395576e+00 -1 -1 1 5.410111e-01 -1.731238e-01 5.038649e-01 6.507344e-01
51 1 4 1.518478e+01 -5.764046e-01 -3.307770e+00 -1 -1 1 2.026863e-01 -1.971902e-01 5.528324e-01 7.838435e-01
52 1 1 1.521955e+01 -1.338225e-02 -3.356211e+00 -1 -1 1 6.631591e-02 -8.183619e-02 6.092100e-01 7.859823e-01
53 1 3 1.524578e+01 5.066187e-01 -3.477839e+00 -1 -1 1 -9.657769e-02 2.167080e-02 6.904240e-01 7.166016e-01
54 1 4 1.509124e+01 9.473615e-01 -3.605611e+00 -1 -1 1 -4.090224e-01 1.850869e-01 6.631324e-01 5.989148e-01
55 1 4 1.467082e+01 1.181176e+00 -3.673106e+00 -1 -1 1 -5.999182e-01 4.894223e-01 4.968460e-01 3.920561e-01
56 1 4 1.429845e+01 1.535320e+00 -3.472104e+00 -1 -1 1 -6.934847e-01 4.933146e-01 4.175888e-01 3.183382e-01
57 1 1 1.409658e+01 1.791032e+00 -3.085267e+00 -1 -1 1 -7.695207e-01 6.043399e-01 2.058356e-01 1.558404e-02
58 1 1 1.393028e+01 2.217706e+00 -2.802852e+00 -1 -1 1 -8.158063e-01 5.542966e-01 6.290853e-03 -1.648505e-01
59 1 3 1.397052e+01 2.587567e+00 -2.471016e+00 -1 -1 1 8.186824e-01 -4.457940e-01 1.486038e-01 3.300663e-01
60 1 4 1.426857e+01 2.829991e+00 -2.086695e+00 -1 -1 1 6.017602e-01 -3.973743e-01 3.060676e-01 6.215312e-01
61 1 2 1.421219e+01 3.340147e+00 -1.889135e+00 -1 -1 1 5.260421e-01 -4.521146e-01 4.509240e-01 5.617291e-01
62 1 3 1.456354e+01 3.745392e+00 -1.981201e+00 -1 -1 1 3.056923e-01 -2.362032e-01 5.829593e-01 7.147858e-01
63 1 2 1.460838e+01 4.245825e+00 -2.068613e+00 -1 -1 1 8.975164e-02 -1.404384e-01 6.230394e-01 7.642274e-01
64 1 4 1.467657e+01 4.780670e+00 -2.160032e+00 -1 -1 1 -4.843304e-02 -1.371566e-01 8.175388e-01 5.572008e-01
65 1 2 1.456978e+01 4.976941e+00 -2.597719e+00 -1 -1 1 -1.848096e-01 2.490903e-01 7.219252e-01 6.185657e-01
66 1 1 1.440529e+01 5.256457e+00 -2.894343e+00 -1 -1 1 -3.538787e-01 5.014628e-01 6.212832e-01 4.871469e-01
67 1 2 1.418990e+01 5.814587e+00 -3.034018e+00 -1 -1 1 -4.906477e-01 4.501563e-01 5.881157e-01 4.590687e-01
68 1 1 1.378786e+01 6.222664e+00 -2.890087e+00 -1 -1 1 -6.274158e-01 6.618900e-01 3.274280e-01 2.470669e-01
69 1 1 1.366551e+01 6.721412e+00 -2.772684e+00 -1 -1 1 -6.762832e-01 7.174097e-01 8.165260e-02 1.459356e-01
70 1 2 1.381018e+01 7.272648e+00 -2.570352e+00 -1 -1 1 6.616225e-01 -7.220035e-01 1.995942e-01 -3.359808e-02
71 1 3 1.411798e+01 7.656897e+00 -2.372471e+00 -1 -1 1 7.095518e-01 -5.772297e-01 3.977659e-01 7.158534e-02
72 1 4 1.447792e+01 7.883560e+00 -2.191939e+00 -1 -1 1 7.261366e-01 -3.407874e-01 5.664015e-01 1.891533e-01
73 1 1 1.507590e+01 8.214579e+00 -1.953109e+00 -1 -1 1 -4.202292e-01 5.029370e-01 -4.491918e-01 -6.071972e-01
74 1 1 1.547544e+01 8.772455e+00 -1.243128e+00 -1 -1 1 -4.832602e-01 7.955993e-02 2.699457e-01 -8.290109e-01
75 1 3 1.528074e+01 8.801800e+00 -7.148895e-01 -1 -1 1 -2.713030e-01 3.044561e-01 1.580151e-01 -8.992955e-01
76 1 1 1.496706e+01 8.980686e+00 -3.136156e-01 -1 -1 1 7.796114e-02 -4.081895e-01 -2.726699e-03 9.095581e-01
77 1 4 1.536234e+01 8.763930e+00 -1.306163e-01 -1 -1 1 2.833431e-01 -9.739728e-02 -8.383510e-01 -4.554097e-01
78 1 1 1.529610e+01 9.332777e+00 5.982809e-01 -1 -1 1 -4.313468e-02 8.430801e-01 4.748367e-01 -2.487679e-01
79 1 4 1.505234e+01 9.637936e+00 2.772683e-01 -1 -1 1 7.232079e-02 9.538070e-01 1.190955e-02 -2.913418e-01
80 1 2 1.501121e+01 9.807126e+00 -2.073336e-01 -1 -1 1 -1.763861e-01 -8.320818e-01 4.995245e-01 1.643259e-01
81 1 4 1.362859e+01 9.712422e+00 5.294544e-01 -1 -1 1 4.576931e-02 1.922126e-01 -6.155718e-01 7.629094e-01
82 1 4 1.387049e+01 9.798937e+00 4.960095e-01 -1 -1 1 9.028047e-02 -3.299117e-01 1.821112e-01 9.218694e-01
83 1 4 1.398679e+01 8.882345e+00 1.386515e+00 -1 -1 1 5.756603e-01 -1.206340e-01 8.080404e-01 3.366694e-02
84 1 4 1.420841e+01 1.041510e+01 1.995002e+00 -1 -1 1 5.335971e-01 -2.467569e-01 4.383998e-02 8.077520e-01
85 1 1 1.420199e+01 1.072599e+01 2.394421e+00 -1 -1 1 -6.121413e-02 3.117694e-01 -1.520735e-01 -9.359093e-01
86 1 1 1.392222e+01 1.108972e+01 2.633716e+00 -1 -1 1 2.667291e-01 2.614452e-01 -2.803375e-01 -8.842584e-01
87 1 3 1.351540e+01 1.133682e+01 2.832365e+00 -1 -1 1 -5.920483e-01 -2.185475e-01 4.077335e-01 6.599009e-01
88 1 2 1.324518e+01 1.142877e+01 2.720525e+00 -1 -1 1 -2.321661e-01 -3.809257e-01 8.904149e-01 -9.030940e-02
89 1 2 1.319554e+01 1.207451e+01 2.381062e+00 -1 -1 1 -7.445221e-01 -1.674505e-02 6.143135e-01 -2.608166e-01
90 1 3 1.345351e+01 1.304814e+01 2.414830e+00 -1 -1 1 5.037851e-01 -8.041264e-01 -9.906079e-02 -2.996135e-01
91 1 3 1.336009e+01 1.362857e+01 2.257480e+00 -1 -1 1 -8.964550e-01 3.254946e-01 3.754249e-02 -2.983493e-01
92 1 2 1.270253e+01 1.405505e+01 2.388932e+00 -1 -1 1 -7.684422e-01 -3.288298e-01 2.574959e-01 -4.848334e-01
93 1 1 1.248414e+01 1.500368e+01 2.760109e+00 -1 -1 1 -6.910020e-01 5.181380e-01 3.617309e-01 -3.509985e-01
94 1 2 1.233314e+01 1.556480e+01 2.968252e+00 -1 -1 1 -2.075102e-01 1.817587e-01 2.609527e-02 -9.608446e-01
95 1 3 1.175269e+01 1.534301e+01 2.973251e+00 -1 -1 1 7.047732e-01 -6.633886e-02 4.733645e-01 -5.242326e-01
96 1 2 1.250057e+01 1.643512e+01 3.593018e+00 -1 -1 1 -3.196760e-01 9.370108e-01 -1.155640e-01 -8.039192e-02
97 1 2 1.256261e+01 1.685071e+01 3.431633e+00 -1 -1 1 -2.779580e-01 8.038540e-01 -4.733580e-01 -2.291075e-01
98 1 4 1.140723e+01 1.712767e+01 2.939930e+00 -1 -1 1 3.977639e-01 7.691716e-02 2.044514e-01 -8.911045e-01
99 1 2 1.219761e+01 1.719404e+01 2.457917e+00 -1 -1 1 -4.583591e-01 -6.384203e-01 4.261202e-01 -4.480492e-01
100 1 1 1.258194e+01 1.733186e+01 1.370677e+00 -1 -1 1 4.850217e-01 -2.256691e-01 2.666266e-01 8.017092e-01
101 2 4 1.702346e+01 1.078937e+01 -9.648179e+00 -1 -1 1 -4.202370e-01 8.393207e-01 -3.436548e-01 2.903401e-02
102 2 3 1.738011e+01 1.113636e+01 -9.876854e+00 -1 -1 1 -3.827488e-01 6.389129e-01 -6.623159e-01 -8.143235e-02
103 2 1 1.777308e+01 1.130923e+01 -1.020327e+01 -1 -1 1 2.801564e-01 -4.158561e-01 8.450587e-01 1.856122e-01
104 2 3 1.798803e+01 1.194015e+01 -1.100184e+01 -1 -1 1 5.407242e-01 7.824537e-01 -1.849675e-01 -2.473267e-01
105 2 3 1.825168e+01 1.290231e+01 -9.868794e+00 -1 -1 1 -5.875668e-01 3.186381e-01 3.686423e-01 -6.460169e-01
106 2 2 1.839976e+01 1.337353e+01 -9.343206e+00 -1 -1 1 6.260131e-01 -5.167426e-01 -1.958832e-01 5.501949e-01
107 2 3 1.769159e+01 1.347810e+01 -8.571222e+00 -1 -1 1 -2.493891e-01 3.623934e-01 7.190841e-01 -5.379536e-01
108 2 4 1.720778e+01 1.321706e+01 -8.080905e+00 -1 -1 1 1.285970e-01 -3.263589e-01 -8.154949e-02 -9.329000e-01
109 2 3 1.716926e+01 1.345208e+01 -7.565814e+00 -1 -1 1 -5.765551e-01 2.924584e-01 -2.124000e-01 7.327609e-01
110 2 2 1.765591e+01 1.352068e+01 -6.915515e+00 -1 -1 1 8.351502e-01 -3.692978e-01 -1.645152e-01 3.729317e-01
111 2 2 1.646899e+01 1.293640e+01 -7.037833e+00 -1 -1 1 -1.724244e-01 -1.254215e-01 5.089233e-01 8.339882e-01
112 2 3 1.609611e+01 1.382938e+01 -6.301435e+00 -1 -1 1 -3.194847e-01 1.022902e-01 1.704094e-01 -9.265133e-01
113 2 3 1.507322e+01 1.305272e+01 -6.473543e+00 -1 -1 1 -3.157191e-01 2.171637e-01 9.053465e-01 1.830549e-01
114 2 2 1.481302e+01 1.266854e+01 -6.173559e+00 -1 -1 1 -5.009889e-01 -1.019186e-01 8.178729e-01 -2.640201e-01
115 2 4 1.449518e+01 1.230645e+01 -6.094554e+00 -1 -1 1 2.700616e-01 -3.228654e-01 -7.923499e-01 4.415953e-01
116 2 4 1.405521e+01 1.206970e+01 -6.023594e+00 -1 -1 1 -1.516040e-02 6.392829e-01 5.789299e-01 -5.058930e-01
117 2 1 1.362669e+01 1.196347e+01 -6.160241e+00 -1 -1 1 1.684189e-01 7.961188e-01 2.972075e-01 -4.994974e-01
118 2 1 1.359107e+01 1.092596e+01 -5.504808e+00 -1 -1 1 4.321103e-01 -7.005220e-02 8.913338e-01 1.178876e-01
119 2 1 1.445294e+01 1.061807e+01 -4.788149e+00 -1 -1 1 7.035641e-01 1.290046e-01 -4.531086e-01 5.320225e-01
120 2 1 1.361729e+01 9.933328e+00 -5.886351e+00 -1 -1 1 -7.715430e-01 -7.320494e-02 -6.080328e-01 1.722167e-01
121 2 3 1.392403e+01 9.573387e+00 -5.915124e+00 -1 -1 1 -7.667278e-01 -3.083676e-01 -4.759780e-01 -3.008036e-01
122 2 1 1.443262e+01 9.503790e+00 -5.881384e+00 -1 -1 1 -6.289339e-01 -3.411359e-01 -4.265387e-01 -5.532930e-01
123 2 4 1.493624e+01 9.670300e+00 -5.818517e+00 -1 -1 1 -3.283559e-01 -4.712160e-01 -3.258622e-01 -7.509672e-01
124 2 1 1.559551e+01 8.978787e+00 -4.879533e+00 -1 -1 1 5.879461e-01 -7.048199e-01 -1.534498e-01 -3.660621e-01
125 2 4 1.514940e+01 8.780570e+00 -4.915293e+00 -1 -1 1 -4.277698e-01 -5.524023e-01 -5.087383e-01 5.030408e-01
126 2 2 1.539524e+01 9.643392e+00 -5.015531e+00 -1 -1 1 -5.976819e-01 -6.778042e-02 -3.141122e-01 -7.345174e-01
127 2 4 1.502628e+01 9.287027e+00 -4.352374e+00 -1 -1 1 1.995508e-01 -1.112526e-01 5.809594e-01 7.812096e-01
128 2 4 1.485653e+01 8.893230e+00 -3.189606e+00 -1 -1 1 3.138473e-01 -8.359029e-01 -1.624047e-01 -4.199892e-01
129 2 1 1.481096e+01 7.766359e+00 -3.364487e+00 -1 -1 1 6.117880e-01 3.303681e-01 -6.150914e-01 3.717996e-01
130 2 2 1.482395e+01 7.231667e+00 -3.227462e+00 -1 -1 1 4.473030e-01 1.477210e-01 -6.362736e-01 6.109455e-01
131 2 3 1.492751e+01 6.915872e+00 -2.819578e+00 -1 -1 1 1.568174e-01 -1.031833e-02 -6.313600e-01 7.593987e-01
132 2 4 1.475352e+01 6.496402e+00 -2.383343e+00 -1 -1 1 6.917117e-02 -1.998641e-01 -5.515632e-01 8.068753e-01
133 2 4 1.449174e+01 6.393275e+00 -1.998284e+00 -1 -1 1 3.172794e-01 3.150994e-01 3.917954e-01 -8.040787e-01
134 2 3 1.422034e+01 5.939129e+00 -1.835597e+00 -1 -1 1 4.468864e-01 4.919949e-01 4.416358e-01 -6.026536e-01
135 2 4 1.387639e+01 5.511359e+00 -1.771809e+00 -1 -1 1 -5.664602e-01 -6.608778e-01 -2.709676e-01 4.110231e-01
136 2 3 1.354945e+01 5.051640e+00 -1.869881e+00 -1 -1 1 -5.407613e-01 -7.613074e-01 -2.044082e-01 2.936078e-01
137 2 1 1.345409e+01 4.678258e+00 -2.144960e+00 -1 -1 1 5.797193e-01 8.075618e-01 2.847794e-02 -1.046822e-01
138 2 3 1.342608e+01 4.191117e+00 -2.377793e+00 -1 -1 1 5.117332e-01 8.486816e-01 -8.179249e-02 1.057288e-01
139 2 2 1.367371e+01 3.871819e+00 -2.735545e+00 -1 -1 1 4.003494e-01 8.549737e-01 -1.227820e-01 3.060473e-01
140 2 3 1.400893e+01 3.600649e+00 -3.015219e+00 -1 -1 1 2.828127e-01 6.935212e-01 -4.573391e-01 4.794645e-01
141 2 1 1.448571e+01 3.394357e+00 -3.088053e+00 -1 -1 1 4.962181e-02 5.565656e-01 -6.050794e-01 5.671431e-01
142 2 2 1.480407e+01 2.956450e+00 -3.204147e+00 -1 -1 1 1.463522e-01 4.150248e-01 -5.741584e-01 6.904184e-01
143 2 4 1.507348e+01 2.447204e+00 -2.971638e+00 -1 -1 1 -7.078552e-03 -9.876589e-02 7.286352e-01 -6.777064e-01
144 2 4 1.515077e+01 1.962767e+00 -2.656738e+00 -1 -1 1 -1.972869e-01 -1.180390e-01 -7.136292e-01 6.617235e-01
145 2 1 1.499383e+01 1.477020e+00 -2.466281e+00 -1 -1 1 -2.906379e-01 -3.480730e-01 -6.504663e-01 6.093180e-01
146 2 1 1.460525e+01 1.139184e+00 -2.542222e+00 -1 -1 1 -4.878324e-01 -6.113575e-01 -4.274728e-01 4.533526e-01
147 2 1 1.433166e+01 7.449904e-01 -2.675550e+00 -1 -1 1 -5.667111e-01 -7.406540e-01 -2.399531e-01 2.696158e-01
148 2 2 1.413691e+01 3.307844e-01 -3.050565e+00 -1 -1 1 -4.724177e-01 -8.273788e-01 -2.479096e-01 1.755186e-01
149 2 4 1.407420e+01 3.392573e-02 -3.452099e+00 -1 -1 1 4.378648e-01 8.982397e-01 3.794240e-02 -5.851504e-04
150 2 1 1.419215e+01 -3.837015e-01 -3.945523e+00 -1 -1 1 4.404415e-01 8.532879e-01 -2.030145e-01 1.915626e-01
151 2 1 1.450956e+01 -5.370220e-01 -4.358656e+00 -1 -1 1 3.505827e-01 7.649004e-01 -4.356155e-01 3.197785e-01
152 2 1 1.481134e+01 -9.477097e-01 -4.669410e+00 -1 -1 1 3.256764e-01 5.687209e-01 -5.070657e-01 5.597998e-01
153 2 4 1.521745e+01 -1.237920e+00 -4.562673e+00 -1 -1 1 6.107067e-02 3.712492e-01 -7.175001e-01 5.862065e-01
154 2 1 1.547031e+01 -1.702669e+00 -4.482016e+00 -1 -1 1 -3.462628e-02 1.240342e-01 -8.302577e-01 5.422995e-01
155 2 2 1.556340e+01 -2.222782e+00 -4.371773e+00 -1 -1 1 -1.792415e-01 -1.356632e-01 -7.742245e-01 5.916455e-01
156 2 4 1.543406e+01 -2.699801e+00 -4.137194e+00 -1 -1 1 -3.014659e-01 -3.762077e-01 -6.087256e-01 6.301104e-01
157 2 3 1.500973e+01 -3.109122e+00 -4.081351e+00 -1 -1 1 -4.000182e-01 -5.880880e-01 -4.419725e-01 5.466244e-01
158 2 2 1.482190e+01 -3.676789e+00 -4.200428e+00 -1 -1 1 -3.246309e-01 -7.017929e-01 -4.573347e-01 4.392567e-01
159 2 1 1.446577e+01 -3.848964e+00 -4.396644e+00 -1 -1 1 -4.617050e-01 -8.143967e-01 -1.382344e-01 3.232303e-01
160 2 3 1.422889e+01 -4.015167e+00 -4.862555e+00 -1 -1 1 4.634800e-01 8.670479e-01 -1.411238e-01 -1.161822e-01
161 2 1 1.426230e+01 -4.450105e+00 -5.387679e+00 -1 -1 1 5.021220e-01 8.049112e-01 -2.990385e-01 1.027979e-01
162 2 1 1.450156e+01 -4.787062e+00 -5.731257e+00 -1 -1 1 3.909294e-01 7.089660e-01 -4.981054e-01 3.105357e-01
163 2 4 1.477396e+01 -5.135653e+00 -5.925876e+00 -1 -1 1 3.293608e-01 4.669840e-01 -6.923975e-01 4.404920e-01
164 2 4 1.496336e+01 -5.640060e+00 -5.801882e+00 -1 -1 1 1.586630e-01 2.085574e-01 -7.501087e-01 6.071794e-01
165 2 3 1.504962e+01 -6.130057e+00 -5.517555e+00 -1 -1 1 -8.956513e-02 -4.242838e-02 -7.447178e-01 6.599798e-01
166 2 3 1.488260e+01 -6.623067e+00 -5.272591e+00 -1 -1 1 -2.247561e-01 -2.899248e-01 -6.937938e-01 6.197407e-01
167 2 4 1.462140e+01 -7.058716e+00 -5.177868e+00 -1 -1 1 -3.986940e-01 -4.928076e-01 -6.126780e-01 4.720269e-01
168 2 2 1.432466e+01 -7.455720e+00 -5.253223e+00 -1 -1 1 -4.766864e-01 -6.514895e-01 -4.584719e-01 3.716651e-01
169 2 2 1.404681e+01 -7.776260e+00 -5.616228e+00 -1 -1 1 -4.360852e-01 -8.339543e-01 -2.622700e-01 2.134582e-01
170 2 1 1.388689e+01 -7.926540e+00 -6.034394e+00 -1 -1 1 -4.073628e-01 -9.082005e-01 2.301669e-02 9.326165e-02
171 2 1 1.380346e+01 -8.006641e+00 -6.513976e+00 -1 -1 1 3.570089e-01 8.819871e-01 -3.072736e-01 -1.504068e-02
172 2 4 1.386891e+01 -8.327471e+00 -7.018375e+00 -1 -1 1 3.498249e-01 8.450503e-01 -3.802521e-01 1.375533e-01
173 2 4 1.405469e+01 -8.642553e+00 -7.497881e+00 -1 -1 1 4.587299e-01 6.860206e-01 -4.931617e-01 2.751985e-01
174 2 1 1.427143e+01 -8.999711e+00 -7.634132e+00 -1 -1 1 3.185112e-01 4.300864e-01 -7.317604e-01 4.220226e-01
175 2 1 1.444389e+01 -9.558152e+00 -7.655878e+00 -1 -1 1 2.309770e-01 7.841430e-02 -8.555154e-01 4.567212e-01
176 2 2 1.429917e+01 -1.006600e+01 -7.681353e+00 -1 -1 1 1.871201e-01 -1.088867e-01 -7.768685e-01 5.912741e-01
177 2 2 1.404768e+01 -1.048165e+01 -7.551616e+00 -1 -1 1 3.934643e-02 -3.320094e-01 -7.071879e-01 6.229823e-01
178 2 1 1.350853e+01 -1.071465e+01 -7.460243e+00 -1 -1 1 -1.085903e-01 -6.058149e-01 -4.988172e-01 6.102278e-01
179 2 4 1.298549e+01 -1.080615e+01 -7.571294e+00 -1 -1 1 -2.851213e-01 -7.625036e-01 -2.876859e-01 5.045105e-01
180 2 1 1.259587e+01 -1.097779e+01 -7.790904e+00 -1 -1 1 -2.708926e-01 -8.543906e-01 -6.081895e-02 4.392437e-01
181 2 4 1.215629e+01 -1.095292e+01 -8.116180e+00 -1 -1 1 2.382805e-01 9.047298e-01 -1.399266e-01 -3.242019e-01
182 2 2 1.198151e+01 -1.094474e+01 -8.586794e+00 -1 -1 1 3.397599e-01 7.901487e-01 -4.588038e-01 -2.229963e-01
183 2 3 1.174736e+01 -1.115857e+01 -9.086711e+00 -1 -1 1 4.203797e-01 6.946237e-01 -5.815617e-01 -5.064370e-02
184 2 4 1.172051e+01 -1.153967e+01 -9.465504e+00 -1 -1 1 4.949957e-01 3.797464e-01 -7.737867e-01 1.096634e-01
185 2 3 1.162667e+01 -1.201435e+01 -9.682867e+00 -1 -1 1 -4.860101e-01 -2.155204e-01 7.724275e-01 -3.474203e-01
186 2 1 1.155116e+01 -1.256152e+01 -9.656031e+00 -1 -1 1 -4.127289e-01 -6.506409e-02 7.629277e-01 -4.933183e-01
187 2 1 1.141882e+01 -1.295315e+01 -9.414072e+00 -1 -1 1 2.045884e-01 -1.717906e-01 -7.424348e-01 6.143469e-01
188 2 2 1.105162e+01 -1.333186e+01 -9.228019e+00 -1 -1 1 -5.128606e-02 4.477715e-01 6.553613e-01 -6.061122e-01
189 2 4 1.058268e+01 -1.344998e+01 -9.154442e+00 -1 -1 1 2.235107e-01 6.192728e-01 4.145984e-01 -6.282136e-01
190 2 4 1.010763e+01 -1.349307e+01 -9.216444e+00 -1 -1 1 -4.069062e-01 -7.287716e-01 -1.550753e-01 5.284609e-01
191 2 1 9.683948e+00 -1.367804e+01 -9.426792e+00 -1 -1 1 -4.431107e-01 -7.922311e-01 2.315339e-02 4.189114e-01
192 2 4 9.429161e+00 -1.391210e+01 -9.829497e+00 -1 -1 1 4.520058e-01 8.473131e-01 -1.557524e-01 -2.312843e-01
193 2 4 9.378234e+00 -1.399276e+01 -1.035111e+01 -1 -1 1 -4.128378e-01 -7.712562e-01 4.689834e-01 1.215866e-01
194 2 1 9.351479e+00 -1.430176e+01 -1.084305e+01 -1 -1 1 4.765532e-01 6.370673e-01 -5.945500e-01 1.164155e-01
195 2 3 9.408852e+00 -1.467199e+01 -1.119570e+01 -1 -1 1 -4.110553e-01 -5.518194e-01 6.499589e-01 -3.226178e-01
196 2 4 9.483796e+00 -1.516652e+01 -1.133948e+01 -1 -1 1 -3.602891e-01 -4.516527e-01 6.775114e-01 -4.551701e-01
197 2 2 9.617982e+00 -1.567037e+01 -1.123767e+01 -1 -1 1 -1.651922e-01 -1.204299e-01 7.909674e-01 -5.766964e-01
198 2 4 1.051094e+01 -1.576168e+01 -1.155186e+01 -1 -1 1 5.518608e-01 -1.023566e-01 -8.104683e-01 1.676718e-01
199 2 3 1.109144e+01 -1.555842e+01 -1.193629e+01 -1 -1 1 2.836999e-01 -1.382620e-01 8.694761e-01 3.800123e-01
200 2 4 1.188782e+01 -1.540052e+01 -1.212444e+01 -1 -1 1 -5.604234e-01 3.510665e-01 -7.358911e-01 -1.454033e-01
