ITEM: TIMESTEP
173000000
ITEM: NUMBER OF ATOMS
200
ITEM: BOX BOUNDS pp pp pp
-2.0000000000000000e+01 2.0000000000000000e+01
-2.0000000000000000e+01 2.0000000000000000e+01
-2.0000000000000000e+01 2.0000000000000000e+01
ITEM: ATOMS id mol type x y z ix iy iz c_quat[1] c_quat[2] c_quat[3] c_quat[4]
1 1 1 1.621719e+01 -1.830243e+01 -1.185774e+01 -1 -1 1 -2.805838e-01 2.107097e-02 5.329140e-01 7.980172e-01
2 1 2 1.676176e+01 -1.863908e+01 -1.075839e+01 -1 -1 1 -7.220381e-01 5.118836e-01 3.495017e-01 -3.073837e-01
3 1 1 1.649948e+01 -1.847200e+01 -1.040019e+01 -1 -1 1 -6.301659e-01 5.384749e-01 6.673883e-02 -5.554113e-01
4 1 3 1.652353e+01 -1.815730e+01 -9.995103e+00 -1 -1 1 4.329824e-01 -5.076575e-01 1.019883e-01 7.378404e-01
5 1 1 1.648748e+01 -1.772679e+01 -9.840862e+00 -1 -1 1 8.360442e-02 -3.570023e-01 2.374799e-01 8.995348e-01
6 1 2 1.623176e+01 -1.728131e+01 -9.857537e+00 -1 -1 1 -6.163581e-02 4.193196e-01 -4.858683e-01 -7.643978e-01
7 1 4 1.612351e+01 -1.679442e+01 -1.002485e+01 -1 -1 1 -2.305885e-01 -2.132427e-01 6.208075e-01 7.182997e-01
8 1 1 1.578542e+01 -1.641314e+01 -1.020184e+01 -1 -1 1 4.680126e-01 2.927693e-02 -5.954839e-01 -6.523082e-01
9 1 1 1.535928e+01 -1.615396e+01 -1.028829e+01 -1 -1 1 -6.422869e-01 2.569854e-02 6.132377e-01 4.590715e-01
10 1 4 1.484033e+01 -1.605834e+01 -1.023955e+01 -1 -1 1 7.908896e-01 -1.719299e-01 -4.978893e-01 -3.115123e-01
11 1 1 1.444229e+01 -1.601732e+01 -9.971310e+00 -1 -1 1 -8.746217e-01 2.146632e-01 4.343172e-01 1.802923e-02
12 1 1 1.402855e+01 -1.594030e+01 -9.644342e+00 -1 -1 1 -8.948187e-01 2.785554e-01 3.280315e-01 -1.187505e-01
13 1 3 1.386045e+01 -1.592925e+01 -9.180869e+00 -1 -1 1 7.458432e-01 -4.027237e-01 -1.367793e-01 5.126626e-01
14 1 4 1.377422e+01 -1.561154e+01 -8.732325e+00 -1 -1 1 -6.387116e-01 4.105529e-01 -8.517653e-02 -6.451657e-01
15 1 4 1.382072e+01 -1.523618e+01 -8.377218e+00 -1 -1 1 -5.306949e-01 3.785770e-01 -2.596522e-01 -7.124767e-01
16 1 2 1.384701e+01 -1.473786e+01 -8.255991e+00 -1 -1 1 2.990288e-01 -2.830967e-01 4.867828e-01 7.703769e-01
17 1 1 1.384390e+01 -1.422351e+01 -8.278932e+00 -1 -1 1 4.707222e-02 -1.982958e-01 6.405096e-01 7.404123e-01
18 1 2 1.383133e+01 -1.382777e+01 -8.610607e+00 -1 -1 1 1.432966e-01 -2.689730e-02 -6.887812e-01 -7.101571e-01
19 1 3 1.358452e+01 -1.338785e+01 -8.866662e+00 -1 -1 1 4.227110e-01 -2.360360e-01 -5.852786e-01 -6.504240e-01
20 1 1 1.315444e+01 -1.294018e+01 -8.833595e+00 -1 -1 1 6.633833e-01 -2.698612e-01 -4.567149e-01 -5.277396e-01
21 1 4 1.272515e+01 -1.276454e+01 -8.551314e+00 -1 -1 1 -7.847769e-01 4.470647e-01 3.021117e-01 3.049375e-01
22 1 1 1.258510e+01 -1.239554e+01 -8.146655e+00 -1 -1 1 -8.630078e-01 4.831374e-01 7.108711e-02 1.293927e-01
23 1 4 1.260826e+01 -1.217424e+01 -7.650664e+00 -1 -1 1 -8.935378e-01 3.999767e-01 -1.191418e-01 -1.655721e-01
24 1 3 1.286207e+01 -1.188064e+01 -7.253026e+00 -1 -1 1 -7.327670e-01 4.303668e-01 -3.219227e-01 -4.173761e-01
25 1 3 1.324345e+01 -1.150383e+01 -7.071057e+00 -1 -1 1 -5.232709e-01 3.698746e-01 -4.720757e-01 -6.054130e-01
26 1 4 1.345012e+01 -1.107094e+01 -7.123005e+00 -1 -1 1 -3.721456e-01 2.175109e-01 -6.949707e-01 -5.755106e-01
27 1 4 1.361538e+01 -1.060833e+01 -7.510189e+00 -1 -1 1 -4.642496e-02 1.693675e-02 -6.935580e-01 -7.187038e-01
28 1 1 1.360113e+01 -1.016168e+01 -7.716116e+00 -1 -1 1 1.733737e-01 -1.297589e-01 -7.253854e-01 -6.533913e-01
29 1 1 1.338195e+01 -9.762459e+00 -7.932101e+00 -1 -1 1 3.994353e-01 -3.375019e-01 -6.579033e-01 -5.419476e-01
30 1 4 1.301905e+01 -9.316115e+00 -7.955973e+00 -1 -1 1 -5.875698e-01 4.478359e-01 5.009572e-01 4.508289e-01
31 1 4 1.264956e+01 -8.988431e+00 -7.723160e+00 -1 -1 1 -7.597854e-01 4.690546e-01 3.529312e-01 2.795595e-01
32 1 3 1.245686e+01 -8.610615e+00 -7.420828e+00 -1 -1 1 -8.629262e-01 4.643161e-01 1.466719e-01 1.351155e-01
33 1 3 1.242945e+01 -8.345892e+00 -7.006491e+00 -1 -1 1 -8.831942e-01 4.361636e-01 -1.212457e-01 -1.225919e-01
34 1 1 1.266242e+01 -8.247146e+00 -6.557487e+00 -1 -1 1 -7.469798e-01 4.427615e-01 -1.088494e-01 -4.838752e-01
35 1 2 1.282917e+01 -7.928432e+00 -6.177323e+00 -1 -1 1 -7.544423e-01 2.410945e-01 -3.848979e-01 -4.738605e-01
36 1 2 1.323103e+01 -7.643841e+00 -5.998710e+00 -1 -1 1 -6.064960e-01 8.572994e-02 -4.603698e-01 -6.425516e-01
37 1 1 1.361482e+01 -7.259771e+00 -5.722501e+00 -1 -1 1 -3.326887e-01 1.757144e-01 -4.863945e-01 -7.885829e-01
38 1 1 1.379431e+01 -6.831721e+00 -5.784030e+00 -1 -1 1 -8.764480e-02 -3.677964e-02 -4.497028e-01 -8.881064e-01
39 1 4 1.371970e+01 -6.290018e+00 -5.673968e+00 -1 -1 1 -1.455304e-01 5.650813e-02 4.962409e-01 8.540332e-01
40 1 4 1.356209e+01 -5.827979e+00 -5.691369e+00 -1 -1 1 -4.787994e-01 2.270080e-01 4.452624e-01 7.217755e-01
41 1 2 1.327727e+01 -5.405727e+00 -5.662295e+00 -1 -1 1 -6.402783e-01 2.312244e-01 4.633260e-01 5.673694e-01
42 1 4 1.289837e+01 -5.149874e+00 -5.291252e+00 -1 -1 1 8.554523e-01 -3.025417e-01 -2.768796e-01 -3.162397e-01
43 1 3 1.259501e+01 -5.045701e+00 -4.814444e+00 -1 -1 1 -9.437721e-01 3.041304e-01 1.216883e-01 4.461939e-02
44 1 2 1.254367e+01 -4.844042e+00 -4.225655e+00 -1 -1 1 -9.288226e-01 3.473122e-01 -7.209525e-02 -1.070754e-01
45 1 1 1.279337e+01 -4.708259e+00 -3.689597e+00 -1 -1 1 -7.824628e-01 3.648021e-01 -3.021289e-01 -4.042147e-01
46 1 3 1.318107e+01 -4.398735e+00 -3.397259e+00 -1 -1 1 -6.460864e-01 3.220342e-01 -4.299828e-01 -5.422002e-01
47 1 4 1.354583e+01 -4.001695e+00 -3.336138e+00 -1 -1 1 -4.199484e-01 1.124838e-01 -5.941730e-01 -6.767194e-01
48 1 1 1.386533e+01 -3.529883e+00 -3.418729e+00 -1 -1 1 1.929158e-01 -1.622885e-02 5.923052e-01 7.821091e-01
49 1 4 1.389624e+01 -3.011166e+00 -3.561690e+00 -1 -1 1 -9.955864e-02 1.060236e-01 6.158023e-01 7.743607e-01
50 1 4 1.376757e+01 -2.457173e+00 -3.647945e+00 -1 -1 1 -3.653727e-01 2.480859e-01 5.551884e-01 7.047851e-01
51 1 4 1.342994e+01 -2.037648e+00 -3.595950e+00 -1 -1 1 -6.384925e-01 2.981364e-01 4.854545e-01 5.174708e-01
52 1 1 1.309598e+01 -1.698669e+00 -3.324594e+00 -1 -1 1 -8.052481e-01 3.360640e-01 3.655333e-01 3.240708e-01
53 1 3 1.283898e+01 -1.486227e+00 -2.942446e+00 -1 -1 1 -8.893377e-01 4.358240e-01 1.165840e-01 7.445846e-02
54 1 4 1.278665e+01 -1.303013e+00 -2.438756e+00 -1 -1 1 -9.361885e-01 3.403176e-01 -5.266750e-02 -7.043525e-02
55 1 4 1.296113e+01 -1.218230e+00 -1.942045e+00 -1 -1 1 -8.586913e-01 2.777182e-01 -2.159923e-01 -3.726516e-01
56 1 4 1.332293e+01 -1.036914e+00 -1.617492e+00 -1 -1 1 -6.919462e-01 1.969194e-01 -3.421164e-01 -6.044746e-01
57 1 1 1.363921e+01 -7.004478e-01 -1.344304e+00 -1 -1 1 -4.397789e-01 1.309135e-01 -4.220178e-01 -7.818933e-01
58 1 1 1.384742e+01 -2.476800e-01 -1.319821e+00 -1 -1 1 -2.545285e-01 -4.827446e-02 -5.677546e-01 -7.813703e-01
59 1 3 1.404778e+01 2.348966e-01 -1.208564e+00 -1 -1 1 1.340063e-01 -3.831910e-02 7.055943e-01 6.947738e-01
60 1 4 1.416147e+01 6.537835e-01 -1.422822e+00 -1 -1 1 -9.032672e-02 1.466478e-01 7.660429e-01 6.192849e-01
61 1 2 1.389968e+01 1.119408e+00 -1.682971e+00 -1 -1 1 -3.058425e-01 3.414248e-01 6.368692e-01 6.199089e-01
62 1 3 1.364353e+01 1.669996e+00 -1.698395e+00 -1 -1 1 -5.292708e-01 4.978796e-01 3.704040e-01 5.786097e-01
63 1 2 1.341674e+01 2.134772e+00 -1.473396e+00 -1 -1 1 -6.776661e-01 5.544410e-01 2.516014e-01 4.123840e-01
64 1 4 1.320382e+01 2.435407e+00 -1.097773e+00 -1 -1 1 -7.854432e-01 6.080360e-01 5.320245e-02 1.026674e-01
65 1 2 1.324493e+01 2.846780e+00 -7.148410e-01 -1 -1 1 -8.386840e-01 5.132144e-01 -1.401058e-01 -1.165785e-01
66 1 1 1.350656e+01 3.277897e+00 -4.075933e-01 -1 -1 1 -8.150642e-01 4.710215e-01 -3.362605e-01 -2.716419e-02
67 1 2 1.397125e+01 3.547400e+00 -1.893713e-01 -1 -1 1 -7.745200e-01 2.939679e-01 -5.181647e-01 -2.126193e-01
68 1 1 1.312111e+01 3.215461e+00 9.997825e-01 -1 -1 1 -6.527817e-01 9.339409e-02 7.312077e-01 1.746107e-01
69 1 1 1.331920e+01 3.277984e+00 1.730368e+00 -1 -1 1 -1.256723e-01 -3.250952e-01 5.223588e-01 -7.782422e-01
70 1 2 1.349968e+01 2.067052e+00 1.435848e+00 -1 -1 1 7.226834e-01 -1.934735e-02 -6.658393e-01 -1.844242e-01
71 1 3 1.337542e+01 1.539317e+00 1.681495e+00 -1 -1 1 -3.741157e-01 2.008849e-01 -8.633253e-01 2.726758e-01
72 1 4 1.397896e+01 1.759346e+00 2.590506e+00 -1 -1 1 1.693266e-01 8.853844e-01 -4.002768e-01 1.649286e-01
73 1 1 1.281663e+01 2.496005e+00 3.045016e+00 -1 -1 1 3.422793e-01 -8.188488e-01 -4.607347e-01 -7.412711e-03
74 1 1 1.269030e+01 1.594976e+00 3.684402e+00 -1 -1 1 -5.161827e-01 -3.224105e-01 7.570610e-01 -2.376248e-01
75 1 3 1.266702e+01 2.632426e+00 4.151228e+00 -1 -1 1 2.439653e-01 -7.760026e-01 -5.201309e-01 2.603167e-01
76 1 1 1.230138e+01 2.959457e+00 3.999229e+00 -1 -1 1 -4.558992e-02 9.328546e-01 9.025975e-02 -3.457703e-01
77 1 4 1.190749e+01 3.022506e+00 4.647041e+00 -1 -1 1 4.349756e-01 -6.178524e-01 9.786406e-02 6.476706e-01
78 1 1 1.143304e+01 3.282446e+00 5.570198e+00 -1 -1 1 -7.155813e-01 5.787646e-01 3.197220e-01 2.252841e-01
79 1 4 1.179908e+01 3.385070e+00 6.030611e+00 -1 -1 1 -1.715806e-01 2.364675e-01 -6.519630e-01 6.997053e-01
80 1 2 1.293407e+01 4.109495e+00 5.432315e+00 -1 -1 1 -4.526263e-01 6.642742e-01 -5.521903e-01 -2.212581e-01
81 1 4 1.201638e+01 5.164636e+00 5.825630e+00 -1 -1 1 4.298254e-01 -8.052561e-01 -3.918019e-01 1.153432e-01
82 1 4 1.239436e+01 5.744019e+00 5.390124e+00 -1 -1 1 -3.983857e-01 -8.867545e-01 -1.509147e-01 1.793882e-01
83 1 4 1.149674e+01 6.126716e+00 6.045490e+00 -1 -1 1 2.441934e-01 5.579592e-01 7.709523e-01 1.862356e-01
84 1 4 1.245094e+01 6.071193e+00 6.136187e+00 -1 -1 1 2.708273e-01 -1.494133e-01 6.268092e-01 7.151493e-01
85 1 1 1.252741e+01 6.509029e+00 5.940166e+00 -1 -1 1 -1.065579e-01 2.375052e-01 6.311065e-01 7.307129e-01
86 1 1 1.302529e+01 7.048399e+00 7.147977e+00 -1 -1 1 -2.238826e-01 -6.933775e-01 5.079968e-02 -6.830254e-01
87 1 3 1.347949e+01 7.122427e+00 7.196868e+00 -1 -1 1 -1.274648e-01 5.803117e-01 -3.146401e-01 7.402653e-01
88 1 2 1.382369e+01 7.135688e+00 7.504199e+00 -1 -1 1 4.420778e-01 -4.298089e-01 5.150391e-01 -5.954546e-01
89 1 2 1.480200e+01 7.064444e+00 7.810996e+00 -1 -1 1 -9.283343e-01 5.422039e-04 1.252783e-01 -3.500007e-01
90 1 3 1.453222e+01 8.061606e+00 7.928751e+00 -1 -1 1 8.510595e-02 8.283351e-02 -2.415113e-01 9.631033e-01
91 1 3 1.450607e+01 7.975528e+00 8.481356e+00 -1 -1 1 1.823465e-01 1.002182e-01 2.159593e-01 -9.539747e-01
92 1 2 1.429366e+01 7.870308e+00 8.969845e+00 -1 -1 1 4.695358e-01 3.074724e-01 1.296695e-01 -8.174244e-01
93 1 1 1.460860e+01 8.024377e+00 9.449707e+00 -1 -1 1 7.798519e-01 -1.251770e-01 4.192591e-01 4.476423e-01
94 1 2 1.424737e+01 9.183663e+00 1.029932e+01 -1 -1 1 -4.523288e-02 8.852070e-01 2.632896e-01 3.808427e-01
95 1 3 1.461706e+01 9.278024e+00 9.874536e+00 -1 -1 1 -2.907190e-02 7.954026e-01 2.439539e-01 5.540541e-01
96 1 2 1.506164e+01 8.588955e+00 9.849542e+00 -1 -1 1 3.510875e-01 6.752227e-02 8.957869e-01 -2.640910e-01
97 1 2 1.582496e+01 8.848860e+00 1.084753e+01 -1 -1 1 8.575932e-01 -1.650324e-01 -1.516531e-01 4.629249e-01
98 1 4 1.592655e+01 9.533350e+00 1.072749e+01 -1 -1 1 -4.686819e-01 -6.728744e-02 -4.517559e-01 -7.561258e-01
99 1 2 1.622938e+01 9.948955e+00 1.062227e+01 -1 -1 1 -8.107751e-02 -3.141541e-01 -3.967345e-01 -8.586824e-01
100 1 1 1.629460e+01 1.033190e+01 1.060270e+01 -1 -1 1 2.536925e-01 -5.887752e-01 -2.121403e-01 -7.375503e-01
101 2 4 1.555099e+01 1.100834e+01 -8.864399e+00 -1 -1 1 -6.360211e-01 3.549307e-03 -6.685951e-01 3.852858e-01
102 2 3 1.554845e+01 1.110742e+01 -9.260790e+00 -1 -1 1 1.468843e-01 5.160775e-01 -8.358954e-01 1.156198e-01
103 2 1 1.573120e+01 1.061262e+01 -9.490704e+00 -1 -1 1 5.173199e-02 1.214018e-01 -9.715094e-01 1.968628e-01
104 2 3 1.563800e+01 1.017260e+01 -9.628865e+00 -1 -1 1 -1.283581e-01 -2.891441e-01 -9.161817e-01 2.460304e-01
105 2 3 1.655084e+01 9.654236e+00 -8.815032e+00 -1 -1 1 -6.364636e-01 2.908432e-01 7.014081e-01 -1.354660e-01
106 2 2 1.765098e+01 9.473784e+00 -8.784899e+00 -1 -1 1 5.017636e-01 5.663957e-01 -4.381464e-01 4.852391e-01
107 2 3 1.784956e+01 9.000627e+00 -8.708427e+00 -1 -1 1 -3.252103e-01 -2.071247e-01 6.902954e-01 -6.122336e-01
108 2 4 1.776027e+01 8.608159e+00 -8.500525e+00 -1 -1 1 -6.285749e-02 1.270938e-01 6.159946e-01 -7.748850e-01
109 2 3 1.747299e+01 7.893363e+00 -8.910703e+00 -1 -1 1 -1.801525e-01 -5.163374e-01 -8.146244e-01 -1.932040e-01
110 2 2 1.754188e+01 7.596774e+00 -8.096727e+00 -1 -1 1 -5.284693e-01 -1.425362e-01 -4.887778e-01 6.793378e-01
111 2 2 1.737994e+01 7.092504e+00 -7.951030e+00 -1 -1 1 7.606784e-01 3.894481e-01 3.801690e-01 -3.537939e-01
112 2 3 1.739022e+01 6.611207e+00 -7.926304e+00 -1 -1 1 -8.527188e-01 -4.566278e-01 -2.501053e-01 -4.253212e-02
113 2 3 1.634626e+01 7.095913e+00 -8.039322e+00 -1 -1 1 8.168658e-02 -9.568902e-02 -8.501752e-02 -9.884042e-01
114 2 2 1.577701e+01 7.127827e+00 -7.324134e+00 -1 -1 1 -2.915171e-01 5.550016e-01 7.047743e-01 -3.320906e-01
115 2 4 1.496612e+01 6.720902e+00 -8.030022e+00 -1 -1 1 -4.972054e-01 -4.091704e-01 -6.445700e-01 4.121843e-01
116 2 4 1.535442e+01 5.775638e+00 -7.893665e+00 -1 -1 1 7.701919e-01 -4.688410e-01 3.160203e-01 -2.951674e-01
117 2 1 1.544677e+01 5.828991e+00 -7.756686e+00 -1 -1 1 2.499325e-01 6.587490e-01 -6.118826e-01 -3.594206e-01
118 2 1 1.424580e+01 5.891055e+00 -6.693706e+00 -1 -1 1 -2.905504e-01 2.008001e-01 -4.063152e-02 9.346705e-01
119 2 1 1.451158e+01 5.523013e+00 -6.451877e+00 -1 -1 1 -6.248413e-01 1.540296e-01 -7.579870e-01 1.063201e-01
120 2 1 1.538672e+01 6.218834e+00 -6.082975e+00 -1 -1 1 -7.698055e-01 1.590661e-01 -3.670933e-01 -4.973329e-01
121 2 3 1.559287e+01 5.139559e+00 -5.515691e+00 -1 -1 1 -6.943703e-01 3.719469e-01 -6.101498e-01 8.498615e-02
122 2 1 1.540530e+01 5.555631e+00 -4.741487e+00 -1 -1 1 4.730662e-01 -2.319301e-01 7.458982e-01 -4.074957e-01
123 2 4 1.620170e+01 6.113972e+00 -4.328621e+00 -1 -1 1 8.691956e-01 -2.828345e-01 -2.030716e-01 -3.510919e-01
124 2 1 1.546419e+01 6.744290e+00 -3.649318e+00 -1 -1 1 -1.292077e-01 -3.769693e-02 5.570765e-01 -8.194816e-01
125 2 4 1.536609e+01 6.551573e+00 -3.178477e+00 -1 -1 1 -2.714293e-01 -1.560392e-01 -5.275877e-01 7.897019e-01
126 2 2 1.513001e+01 6.264760e+00 -2.894089e+00 -1 -1 1 6.750262e-01 3.323430e-01 3.728595e-01 -5.430134e-01
127 2 4 1.490491e+01 5.996153e+00 -2.637179e+00 -1 -1 1 8.517364e-01 4.133979e-01 1.817009e-01 -2.657668e-01
128 2 4 1.498731e+01 5.511213e+00 -2.458376e+00 -1 -1 1 8.807231e-01 4.281043e-01 1.684252e-01 1.126341e-01
129 2 1 1.360313e+01 5.915181e+00 -1.918670e+00 -1 -1 1 7.241920e-02 8.053374e-03 4.225310e-01 -9.034147e-01
130 2 2 1.352159e+01 5.733491e+00 -1.430687e+00 -1 -1 1 2.851017e-01 2.727209e-01 3.856942e-01 -8.340146e-01
131 2 3 1.341509e+01 5.323344e+00 -1.142093e+00 -1 -1 1 -3.832678e-01 -4.399870e-01 -4.042623e-01 7.043361e-01
132 2 4 1.438218e+01 4.452466e+00 -9.303831e-01 -1 -1 1 -5.967346e-01 -7.354297e-01 2.873821e-01 1.430475e-01
133 2 4 1.438139e+01 4.047298e+00 -1.203141e+00 -1 -1 1 5.958172e-01 5.596973e-01 -5.685836e-01 9.194313e-02
134 2 3 1.428182e+01 3.618474e+00 -1.315974e+00 -1 -1 1 -4.674419e-01 -4.138498e-01 6.568703e-01 -4.227857e-01
135 2 4 1.440674e+01 3.148724e+00 -1.222560e+00 -1 -1 1 2.684907e-01 1.462597e-01 -7.513947e-01 5.847452e-01
136 2 3 1.434666e+01 2.641053e+00 -1.043583e+00 -1 -1 1 2.055158e-01 3.478984e-02 -6.841367e-01 6.989348e-01
137 2 1 1.434977e+01 2.268679e+00 -7.483902e-01 -1 -1 1 2.902450e-02 1.784144e-01 6.328622e-01 -7.528687e-01
138 2 3 1.417545e+01 1.743802e+00 -6.262097e-01 -1 -1 1 1.105192e-01 4.316980e-01 5.643625e-01 -6.949225e-01
139 2 2 1.372940e+01 1.460365e+00 -5.259188e-01 -1 -1 1 3.099985e-01 5.864269e-01 4.312103e-01 -6.116062e-01
140 2 3 1.329615e+01 1.187988e+00 -6.759342e-01 -1 -1 1 5.183119e-01 7.376661e-01 2.097183e-01 -3.784437e-01
141 2 1 1.309400e+01 7.740612e-01 -9.283207e-01 -1 -1 1 5.535682e-01 8.150057e-01 3.390623e-02 -1.678642e-01
142 2 2 1.290144e+01 5.113095e-01 -1.292934e+00 -1 -1 1 4.820313e-01 8.540638e-01 -1.856213e-01 -6.136395e-02
143 2 4 1.291346e+01 2.625032e-01 -1.725100e+00 -1 -1 1 -4.060768e-01 -8.394676e-01 3.460431e-01 -1.031988e-01
144 2 4 1.313935e+01 4.392766e-02 -2.219528e+00 -1 -1 1 3.738144e-01 7.727870e-01 -4.515280e-01 2.432808e-01
145 2 1 1.350892e+01 -1.703343e-01 -2.443041e+00 -1 -1 1 1.635613e-01 6.081201e-01 -6.857379e-01 3.649674e-01
146 2 1 1.386646e+01 -5.995129e-01 -2.552827e+00 -1 -1 1 7.898455e-02 3.326403e-01 -8.112001e-01 4.744115e-01
147 2 1 1.392839e+01 -1.127026e+00 -2.522226e+00 -1 -1 1 -5.965761e-02 6.887069e-02 -8.500554e-01 5.187520e-01
148 2 2 1.403627e+01 -1.586141e+00 -2.609364e+00 -1 -1 1 -6.160008e-02 -1.290500e-01 -8.157979e-01 5.603796e-01
149 2 4 1.380464e+01 -2.072149e+00 -2.424799e+00 -1 -1 1 2.386316e-01 3.802428e-01 7.190450e-01 -5.305135e-01
150 2 1 1.349570e+01 -2.506471e+00 -2.496526e+00 -1 -1 1 3.220011e-01 5.794395e-01 6.248299e-01 -4.124959e-01
151 2 1 1.306966e+01 -2.812591e+00 -2.759644e+00 -1 -1 1 3.881373e-01 7.815918e-01 3.824092e-01 -3.036889e-01
152 2 1 1.280876e+01 -2.978442e+00 -3.179644e+00 -1 -1 1 4.585535e-01 8.703042e-01 9.389564e-03 -1.794749e-01
153 2 4 1.260269e+01 -3.151227e+00 -3.647908e+00 -1 -1 1 4.765309e-01 8.436513e-01 -2.428413e-01 4.689224e-02
154 2 1 1.288927e+01 -3.496815e+00 -4.181932e+00 -1 -1 1 4.628257e-01 7.554943e-01 -4.066579e-01 2.228230e-01
155 2 2 1.321104e+01 -3.805143e+00 -4.404004e+00 -1 -1 1 3.144724e-01 6.253510e-01 -6.096452e-01 3.719891e-01
156 2 4 1.343212e+01 -4.217928e+00 -4.567010e+00 -1 -1 1 2.378850e-01 3.607353e-01 -7.838986e-01 4.458518e-01
157 2 3 1.371079e+01 -4.672798e+00 -4.498304e+00 -1 -1 1 9.546096e-02 1.203184e-01 -8.747947e-01 4.595051e-01
158 2 2 1.379268e+01 -5.131360e+00 -4.457024e+00 -1 -1 1 -9.496482e-02 -1.320628e-01 -7.776521e-01 6.072877e-01
159 2 1 1.357878e+01 -5.633453e+00 -4.479885e+00 -1 -1 1 -2.085286e-01 -4.261611e-01 -7.432314e-01 4.717092e-01
160 2 3 1.320092e+01 -6.015297e+00 -4.538261e+00 -1 -1 1 3.412492e-01 6.602161e-01 5.542385e-01 -3.748110e-01
161 2 1 1.290006e+01 -6.375385e+00 -4.816605e+00 -1 -1 1 3.311769e-01 8.390136e-01 3.654397e-01 -2.298520e-01
162 2 1 1.264844e+01 -6.494163e+00 -5.295408e+00 -1 -1 1 3.823431e-01 9.126768e-01 7.649559e-02 -1.224060e-01
163 2 4 1.261007e+01 -6.553543e+00 -5.805391e+00 -1 -1 1 3.343629e-01 9.322622e-01 -1.316180e-01 -4.201669e-02
164 2 4 1.266989e+01 -6.712043e+00 -6.343115e+00 -1 -1 1 2.326617e-01 9.206015e-01 -2.849126e-01 1.310960e-01
165 2 3 1.297033e+01 -6.782246e+00 -6.769089e+00 -1 -1 1 2.406826e-01 7.381922e-01 -5.921844e-01 2.155500e-01
166 2 3 1.309222e+01 -7.201589e+00 -7.152909e+00 -1 -1 1 2.805807e-01 5.625225e-01 -6.774064e-01 3.820516e-01
167 2 4 1.332523e+01 -7.656519e+00 -7.300103e+00 -1 -1 1 1.449014e-01 4.612448e-01 -6.710449e-01 5.620992e-01
168 2 2 1.356457e+01 -8.131557e+00 -7.205140e+00 -1 -1 1 4.869751e-02 1.925302e-01 -7.977454e-01 5.693531e-01
169 2 2 1.368191e+01 -8.675186e+00 -7.156561e+00 -1 -1 1 1.815016e-02 -4.491212e-02 -7.544872e-01 6.545246e-01
170 2 1 1.351129e+01 -9.141701e+00 -6.889672e+00 -1 -1 1 -1.090702e-01 -2.965936e-01 -6.687020e-01 6.730331e-01
171 2 1 1.310610e+01 -9.466181e+00 -6.765236e+00 -1 -1 1 3.298702e-01 5.774705e-01 5.113494e-01 -5.442751e-01
172 2 4 1.274746e+01 -9.789934e+00 -6.904789e+00 -1 -1 1 5.153897e-01 6.731061e-01 3.820366e-01 -3.678989e-01
173 2 4 1.251466e+01 -1.018510e+01 -7.206091e+00 -1 -1 1 6.074436e-01 7.627337e-01 1.500917e-01 -1.634687e-01
174 2 1 1.237057e+01 -1.059180e+01 -7.523429e+00 -1 -1 1 5.494959e-01 8.330081e-01 6.384502e-02 8.695571e-03
175 2 1 1.266020e+01 -1.085679e+01 -7.919733e+00 -1 -1 1 5.639521e-01 7.808400e-01 -2.299169e-01 1.392302e-01
176 2 2 1.300832e+01 -1.118378e+01 -8.183152e+00 -1 -1 1 4.047161e-01 6.693853e-01 -4.624857e-01 4.174149e-01
177 2 2 1.348999e+01 -1.155823e+01 -8.201080e+00 -1 -1 1 2.390242e-01 4.762200e-01 -6.306167e-01 5.642734e-01
178 2 1 1.373389e+01 -1.199531e+01 -8.099478e+00 -1 -1 1 8.657572e-02 1.690003e-01 -7.580738e-01 6.239132e-01
179 2 4 1.370476e+01 -1.261534e+01 -7.924431e+00 -1 -1 1 4.789523e-03 -8.243900e-02 -7.773675e-01 6.236030e-01
180 2 1 1.357356e+01 -1.302251e+01 -7.705884e+00 -1 -1 1 -2.480625e-01 -3.268545e-01 -7.340053e-01 5.411721e-01
181 2 4 1.329684e+01 -1.348904e+01 -7.715385e+00 -1 -1 1 3.154235e-01 5.196497e-01 6.356249e-01 -4.758710e-01
182 2 2 1.290205e+01 -1.378579e+01 -7.910916e+00 -1 -1 1 4.714551e-01 7.241150e-01 4.300942e-01 -2.615464e-01
183 2 3 1.268429e+01 -1.409287e+01 -8.289072e+00 -1 -1 1 4.934422e-01 8.530226e-01 1.520160e-01 -7.588392e-02
184 2 4 1.266946e+01 -1.437396e+01 -8.706841e+00 -1 -1 1 4.528593e-01 8.671810e-01 -9.837898e-02 1.823105e-01
185 2 3 1.303520e+01 -1.458029e+01 -9.142836e+00 -1 -1 1 -2.810229e-01 -8.405510e-01 2.395526e-01 -3.963770e-01
186 2 1 1.357843e+01 -1.454661e+01 -9.336195e+00 -1 -1 1 -5.564583e-02 -7.802863e-01 3.647112e-01 -5.050174e-01
187 2 1 1.407304e+01 -1.468885e+01 -9.463520e+00 -1 -1 1 -1.196160e-01 5.955940e-01 -5.432244e-01 5.795404e-01
188 2 2 1.447013e+01 -1.490813e+01 -9.261953e+00 -1 -1 1 3.030055e-01 -3.222280e-01 7.055332e-01 -5.536964e-01
189 2 4 1.489787e+01 -1.538677e+01 -9.077647e+00 -1 -1 1 3.293335e-01 -1.694884e-01 8.164730e-01 -4.429277e-01
190 2 4 1.520154e+01 -1.581775e+01 -9.095758e+00 -1 -1 1 -4.136498e-01 -8.271753e-02 -8.210266e-01 3.846648e-01
191 2 1 1.530415e+01 -1.632343e+01 -9.169690e+00 -1 -1 1 -4.194972e-01 -3.182897e-01 -7.868299e-01 3.218889e-01
192 2 4 1.508910e+01 -1.680973e+01 -9.301685e+00 -1 -1 1 5.108229e-01 5.995127e-01 5.644735e-01 -2.470105e-01
193 2 4 1.507718e+01 -1.723924e+01 -9.662419e+00 -1 -1 1 -5.471883e-01 -7.270945e-01 -4.134737e-01 -3.095214e-02
194 2 1 1.514525e+01 -1.745817e+01 -1.011730e+01 -1 -1 1 4.317783e-01 8.514690e-01 2.195952e-01 2.008631e-01
195 2 3 1.535278e+01 -1.765259e+01 -1.046762e+01 -1 -1 1 -2.283312e-01 -9.258364e-01 -2.956673e-02 -2.996960e-01
196 2 4 1.579872e+01 -1.761472e+01 -1.077599e+01 -1 -1 1 -8.092816e-02 -8.510747e-01 1.300311e-01 -5.022095e-01
197 2 2 1.632302e+01 -1.748273e+01 -1.093263e+01 -1 -1 1 -8.002004e-02 7.371509e-01 -4.030448e-01 5.364328e-01
198 2 4 1.688419e+01 -1.744661e+01 -1.086012e+01 -1 -1 1 3.032514e-01 -5.126942e-01 5.669651e-01 -5.689761e-01
199 2 3 1.744227e+01 -1.766741e+01 -1.084640e+01 -1 -1 1 -2.719044e-01 3.996152e-01 -5.737462e-01 6.612042e-01
200 2 4 1.870852e+01 -1.717871e+01 -1.155795e+01 -1 -1 1 -4.754524e-02 -8.477157e-01 4.199970e-01 3.204997e-01
