ITEM: TIMESTEP
104000000
ITEM: NUMBER OF ATOMS
200
ITEM: BOX BOUNDS pp pp pp
-2.0000000000000000e+01 2.0000000000000000e+01
-2.0000000000000000e+01 2.0000000000000000e+01
-2.0000000000000000e+01 2.0000000000000000e+01
ITEM: ATOMS id mol type x y z ix iy iz c_quat[1] c_quat[2] c_quat[3] c_quat[4]
1 1 1 5.595038e+00 2.491330e+00 1.877452e+01 -1 -1 0 5.507331e-01 3.564340e-01 5.988970e-01 -4.593150e-01
2 1 2 5.544313e+00 1.912540e+00 1.876556e+01 -1 -1 0 -5.999828e-01 -5.684504e-01 -4.873608e-01 2.817165e-01
3 1 1 5.973957e+00 2.214020e+00 -1.967972e+01 -1 -1 1 -1.315649e-01 7.933710e-01 -1.332034e-01 5.792323e-01
4 1 3 5.641640e+00 1.966747e+00 -1.954912e+01 -1 -1 1 -6.575703e-01 -9.100078e-02 -4.335740e-01 6.093716e-01
5 1 1 6.111596e+00 3.386056e+00 -1.904695e+01 -1 -1 1 -2.775435e-01 -4.457940e-01 -1.845213e-01 -8.307763e-01
6 1 2 5.441250e+00 3.615962e+00 -1.839898e+01 -1 -1 1 3.728248e-02 -5.046016e-02 -4.031837e-01 9.129659e-01
7 1 4 5.358406e+00 3.451498e+00 -1.792532e+01 -1 -1 1 -1.881109e-01 -1.971994e-01 -3.146410e-01 9.092457e-01
8 1 1 5.034306e+00 3.326734e+00 -1.760223e+01 -1 -1 1 4.634677e-01 3.629283e-01 2.037777e-01 -7.822758e-01
9 1 1 4.599495e+00 3.112466e+00 -1.736891e+01 -1 -1 1 6.859488e-01 4.129042e-01 1.084317e-01 -5.892597e-01
10 1 4 4.223157e+00 2.770559e+00 -1.720231e+01 -1 -1 1 -8.474044e-01 -4.102624e-01 1.516511e-02 3.366905e-01
11 1 1 4.186977e+00 2.189662e+00 -1.698881e+01 -1 -1 1 8.965525e-01 4.175774e-01 1.029422e-01 -1.059505e-01
12 1 1 4.253604e+00 1.692866e+00 -1.694879e+01 -1 -1 1 8.436787e-01 4.891394e-01 -4.152666e-02 2.173120e-01
13 1 3 4.481441e+00 1.181615e+00 -1.686712e+01 -1 -1 1 7.494866e-01 4.816778e-01 -7.393859e-02 4.480954e-01
14 1 4 4.872917e+00 8.914636e-01 -1.671911e+01 -1 -1 1 5.513392e-01 4.321860e-01 -1.918567e-01 6.873364e-01
15 1 4 5.375263e+00 7.415626e-01 -1.655205e+01 -1 -1 1 -2.879209e-01 -4.169977e-01 1.712562e-01 -8.449176e-01
16 1 2 5.746229e+00 7.302610e-01 -1.616723e+01 -1 -1 1 -4.574760e-03 -2.993072e-01 2.239949e-01 -9.274808e-01
17 1 1 5.968032e+00 7.187392e-01 -1.563822e+01 -1 -1 1 -2.030353e-01 1.452149e-01 -2.973000e-01 9.215758e-01
18 1 2 5.944835e+00 5.688123e-01 -1.506833e+01 -1 -1 1 -4.500755e-01 -8.334434e-03 -3.902480e-01 8.031619e-01
19 1 3 5.920228e+00 2.891563e-01 -1.467448e+01 -1 -1 1 -7.049213e-01 -2.077162e-01 -4.019405e-01 5.462451e-01
20 1 1 5.902067e+00 -3.462582e-01 -1.448184e+01 -1 -1 1 -7.984614e-01 -3.156013e-01 -4.414094e-01 2.607927e-01
21 1 4 5.975109e+00 -8.612186e-01 -1.446462e+01 -1 -1 1 8.203166e-01 4.361929e-01 3.634077e-01 6.892909e-02
22 1 1 6.314798e+00 -1.325712e+00 -1.447755e+01 -1 -1 1 7.182931e-01 5.637164e-01 3.811418e-01 1.449475e-01
23 1 4 6.755581e+00 -1.622267e+00 -1.469533e+01 -1 -1 1 6.678403e-01 5.525084e-01 6.657047e-02 4.942591e-01
24 1 3 7.313127e+00 -1.826428e+00 -1.474019e+01 -1 -1 1 4.159488e-01 5.876611e-01 -1.845786e-02 6.937581e-01
25 1 3 7.808306e+00 -1.888942e+00 -1.457735e+01 -1 -1 1 2.331674e-01 5.205113e-01 -5.380465e-02 8.196377e-01
26 1 4 8.300258e+00 -1.922864e+00 -1.429147e+01 -1 -1 1 2.150278e-02 4.091833e-01 -1.113233e-01 9.053804e-01
27 1 4 8.648066e+00 -1.814058e+00 -1.390201e+01 -1 -1 1 -2.053866e-01 2.583453e-01 -2.391875e-01 9.131612e-01
28 1 1 8.721959e+00 -1.668130e+00 -1.347772e+01 -1 -1 1 -5.145025e-01 1.657522e-01 -2.535439e-01 8.022025e-01
29 1 1 8.692408e+00 -1.861043e+00 -1.290464e+01 -1 -1 1 -6.992944e-01 1.640993e-02 -2.751951e-01 6.595345e-01
30 1 4 8.740431e+00 -2.184614e+00 -1.244567e+01 -1 -1 1 8.107459e-01 1.658381e-01 3.691582e-01 -4.229788e-01
31 1 4 8.692081e+00 -2.690871e+00 -1.211825e+01 -1 -1 1 9.093075e-01 2.195540e-01 3.161527e-01 -1.581248e-01
32 1 3 8.884354e+00 -3.167794e+00 -1.196045e+01 -1 -1 1 9.318914e-01 2.293879e-01 2.384914e-01 1.485983e-01
33 1 3 9.151489e+00 -3.503733e+00 -1.172237e+01 -1 -1 1 7.918477e-01 3.716952e-01 2.186085e-01 4.324699e-01
34 1 1 9.709126e+00 -3.703979e+00 -1.166383e+01 -1 -1 1 6.319357e-01 4.185391e-01 1.440121e-01 6.361940e-01
35 1 2 1.017476e+01 -3.680922e+00 -1.156202e+01 -1 -1 1 3.604054e-01 4.805740e-01 7.535929e-02 7.959130e-01
36 1 2 1.063906e+01 -3.478782e+00 -1.142849e+01 -1 -1 1 1.934944e-02 4.708751e-01 4.328219e-02 8.809250e-01
37 1 1 1.090528e+01 -3.019385e+00 -1.116484e+01 -1 -1 1 -2.158237e-01 4.900376e-01 -7.002511e-02 8.416530e-01
38 1 1 1.111439e+01 -2.789845e+00 -1.075144e+01 -1 -1 1 -5.106698e-01 4.430008e-01 -2.646127e-01 6.877112e-01
39 1 4 1.153650e+01 -2.789124e+00 -1.031225e+01 -1 -1 1 5.801990e-01 -2.950754e-01 4.288870e-01 -6.263829e-01
40 1 4 1.172499e+01 -2.982794e+00 -9.851903e+00 -1 -1 1 7.314022e-01 -1.747778e-01 5.771853e-01 -3.183719e-01
41 1 2 1.203664e+01 -3.315885e+00 -9.663621e+00 -1 -1 1 7.929554e-01 3.935860e-03 6.043359e-01 -7.735878e-02
42 1 4 1.256906e+01 -3.537800e+00 -9.561874e+00 -1 -1 1 7.113530e-01 9.066163e-02 6.966073e-01 2.226404e-02
43 1 3 1.300302e+01 -3.823844e+00 -9.679401e+00 -1 -1 1 6.509346e-01 3.014698e-01 6.602998e-01 2.222707e-01
44 1 2 1.341466e+01 -3.988374e+00 -1.004531e+01 -1 -1 1 5.240231e-01 5.101651e-01 5.388158e-01 4.181016e-01
45 1 1 1.376670e+01 -3.926640e+00 -1.033089e+01 -1 -1 1 3.213748e-01 6.983390e-01 2.931772e-01 5.684083e-01
46 1 3 1.420874e+01 -3.625951e+00 -1.050094e+01 -1 -1 1 1.790762e-01 7.255103e-01 7.504435e-02 6.602536e-01
47 1 4 1.465138e+01 -3.422257e+00 -1.050839e+01 -1 -1 1 -6.374678e-02 7.109288e-01 -1.067717e-01 6.921824e-01
48 1 1 1.511947e+01 -3.227658e+00 -1.032266e+01 -1 -1 1 1.915416e-01 -6.034239e-01 2.204886e-01 -7.420083e-01
49 1 4 1.543204e+01 -3.099370e+00 -9.905551e+00 -1 -1 1 4.861671e-01 -4.298300e-01 3.937382e-01 -6.510437e-01
50 1 4 1.573131e+01 -3.146662e+00 -9.439434e+00 -1 -1 1 6.286040e-01 -2.402998e-01 5.101167e-01 -5.356248e-01
51 1 4 1.598326e+01 -3.351885e+00 -9.047123e+00 -1 -1 1 7.634540e-01 -1.124635e-01 4.749211e-01 -4.230129e-01
52 1 1 1.628409e+01 -3.724195e+00 -8.720787e+00 -1 -1 1 8.043165e-01 1.658242e-01 5.438203e-01 -1.727333e-01
53 1 3 1.661890e+01 -4.173785e+00 -8.686467e+00 -1 -1 1 7.785056e-01 3.387023e-01 5.203341e-01 9.198988e-02
54 1 4 1.706547e+01 -4.449601e+00 -8.778795e+00 -1 -1 1 6.881989e-01 3.967288e-01 5.333657e-01 2.907053e-01
55 1 4 1.764341e+01 -4.639071e+00 -8.872759e+00 -1 -1 1 4.892507e-01 4.495761e-01 5.307298e-01 5.261568e-01
56 1 4 1.811241e+01 -4.519088e+00 -9.154124e+00 -1 -1 1 2.525121e-01 5.805169e-01 4.096535e-01 6.568270e-01
57 1 1 1.848965e+01 -4.161792e+00 -9.312524e+00 -1 -1 1 1.315161e-02 6.301844e-01 1.335675e-01 7.647577e-01
58 1 1 1.882313e+01 -3.775002e+00 -9.250770e+00 -1 -1 1 -2.265870e-01 6.516054e-01 -6.154445e-02 7.213051e-01
59 1 3 1.937628e+01 -3.692146e+00 -9.040629e+00 -1 -1 1 2.901140e-01 -5.205077e-01 2.217009e-01 -7.718512e-01
60 1 4 1.973246e+01 -3.618281e+00 -8.679472e+00 -1 -1 1 4.794994e-01 -3.855924e-01 4.462623e-01 -6.498067e-01
61 1 2 1.997971e+01 -3.666712e+00 -8.246358e+00 -1 -1 1 6.836445e-01 -2.248422e-01 4.660551e-01 -5.146541e-01
62 1 3 -1.968983e+01 -3.858274e+00 -7.899027e+00 0 -1 1 7.438626e-01 -1.332569e-02 5.216323e-01 -4.176010e-01
63 1 2 -1.937213e+01 -4.127906e+00 -7.656589e+00 0 -1 1 7.185994e-01 1.640079e-01 5.066389e-01 -4.472508e-01
64 1 4 -1.935834e+01 -4.614755e+00 -7.454267e+00 0 -1 1 8.532204e-01 2.808448e-01 4.244606e-01 -1.139047e-01
65 1 2 -1.915479e+01 -5.054973e+00 -7.406821e+00 0 -1 1 7.873002e-01 4.805506e-01 3.825403e-01 5.378204e-02
66 1 1 -1.880155e+01 -5.471615e+00 -7.482065e+00 0 -1 1 7.921126e-01 4.440547e-01 2.036651e-01 3.659147e-01
67 1 2 -1.826047e+01 -5.682465e+00 -7.564887e+00 0 -1 1 6.086265e-01 5.006316e-01 1.659602e-01 5.927891e-01
68 1 1 -1.764111e+01 -5.618588e+00 -7.574000e+00 0 -1 1 3.756969e-01 5.274706e-01 4.735758e-02 7.605155e-01
69 1 1 -1.719290e+01 -5.507098e+00 -7.250898e+00 0 -1 1 1.121614e-01 4.263264e-01 -8.129761e-02 8.938995e-01
70 1 2 -1.683607e+01 -5.390424e+00 -6.813395e+00 0 -1 1 1.770954e-01 -2.891755e-01 1.908317e-01 -9.211938e-01
71 1 3 -1.673841e+01 -5.179649e+00 -6.369274e+00 0 -1 1 4.290843e-01 -2.709127e-01 1.515517e-01 -8.482482e-01
72 1 4 -1.659356e+01 -5.070560e+00 -5.870138e+00 0 -1 1 6.732133e-01 -1.285241e-01 1.858316e-01 -7.040824e-01
73 1 1 -1.669224e+01 -5.212504e+00 -5.356075e+00 0 -1 1 8.042577e-01 -9.760267e-02 3.283755e-01 -4.856056e-01
74 1 1 -1.662486e+01 -5.531115e+00 -4.905465e+00 0 -1 1 8.946381e-01 9.974780e-02 3.660133e-01 -2.360239e-01
75 1 3 -1.640261e+01 -5.932819e+00 -4.645516e+00 0 -1 1 8.916700e-01 2.483525e-01 3.740452e-01 5.775616e-02
76 1 1 -1.606097e+01 -6.295683e+00 -4.471944e+00 0 -1 1 8.310960e-01 2.351215e-01 3.234812e-01 3.864677e-01
77 1 4 -1.556091e+01 -6.415236e+00 -4.452903e+00 0 -1 1 6.580384e-01 3.113974e-01 2.658467e-01 6.319357e-01
78 1 1 -1.505460e+01 -6.376882e+00 -4.143312e+00 0 -1 1 -5.228474e-01 -1.913515e-01 -2.559953e-01 -7.902415e-01
79 1 4 -1.461489e+01 -6.174982e+00 -3.884984e+00 0 -1 1 -2.378581e-01 -3.269465e-01 -2.610406e-01 -8.765770e-01
80 1 2 -1.428139e+01 -5.798376e+00 -3.685487e+00 0 -1 1 -2.009714e-01 4.676357e-01 -4.549990e-02 8.595680e-01
81 1 4 -1.318624e+01 -5.070704e+00 -4.018955e+00 0 -1 1 -3.785048e-01 -8.827402e-01 7.210355e-03 -2.783016e-01
82 1 4 -1.366961e+01 -5.016973e+00 -3.740927e+00 0 -1 1 -4.264135e-01 -3.040717e-01 -6.748152e-01 5.199388e-01
83 1 4 -1.222804e+01 -5.507764e+00 -3.266780e+00 0 -1 1 9.524595e-01 1.679733e-01 -2.536337e-01 1.660763e-02
84 1 4 -1.202511e+01 -4.165041e+00 -3.677911e+00 0 -1 1 -6.905859e-01 3.215664e-02 6.715295e-02 -7.194078e-01
85 1 1 -1.158706e+01 -4.981185e+00 -4.040454e+00 0 -1 1 4.359229e-01 6.559900e-01 -4.935969e-01 3.687959e-01
86 1 1 -1.167681e+01 -5.103276e+00 -4.126054e+00 0 -1 1 -3.432508e-01 5.111247e-01 -3.988023e-02 7.869815e-01
87 1 3 -1.140635e+01 -6.289265e+00 -4.735167e+00 0 -1 1 -1.047136e-01 1.786908e-01 -9.679144e-01 1.422895e-01
88 1 2 -1.137555e+01 -6.530686e+00 -5.293848e+00 0 -1 1 -5.746174e-02 -1.148358e-02 9.967834e-01 -5.467371e-02
89 1 2 -1.159023e+01 -6.839117e+00 -5.663165e+00 0 -1 1 -3.228756e-03 -4.331561e-01 -9.012499e-01 1.067902e-02
90 1 3 -1.150734e+01 -7.171296e+00 -5.679218e+00 0 -1 1 6.414010e-01 -7.060401e-01 1.595847e-01 -2.542536e-01
91 1 3 -1.144034e+01 -6.753212e+00 -6.910497e+00 0 -1 1 -4.719224e-01 9.429136e-02 -1.401053e-01 -8.653143e-01
92 1 2 -1.123957e+01 -6.380663e+00 -6.566121e+00 0 -1 1 4.452546e-02 -8.647360e-03 6.278445e-02 9.969959e-01
93 1 1 -1.127275e+01 -6.037750e+00 -6.295528e+00 0 -1 1 3.738824e-01 1.293987e-02 -1.892185e-01 -9.078771e-01
94 1 2 -9.677151e+00 -6.348346e+00 -6.035019e+00 0 -1 1 9.759889e-01 3.577065e-02 1.069122e-01 1.863758e-01
95 1 3 -9.601688e+00 -5.974059e+00 -6.817298e+00 0 -1 1 -8.576563e-02 -4.201304e-01 6.814175e-01 5.931314e-01
96 1 2 -9.822600e+00 -5.773988e+00 -7.175930e+00 0 -1 1 3.683159e-01 3.182115e-02 -8.078956e-01 -4.589504e-01
97 1 2 -9.692522e+00 -5.003624e+00 -7.593919e+00 0 -1 1 8.754808e-01 1.649643e-01 2.568121e-01 3.746567e-01
98 1 4 -9.776470e+00 -4.315846e+00 -6.914101e+00 0 -1 1 -4.160177e-01 6.997873e-01 2.921109e-01 5.018946e-01
99 1 2 -9.765773e+00 -4.828832e+00 -8.436719e+00 0 -1 1 8.462519e-01 3.659680e-01 3.859348e-01 3.129724e-02
100 1 1 -1.068755e+01 -4.373241e+00 -8.373168e+00 0 -1 1 5.350549e-01 4.697961e-01 1.641116e-02 -7.019534e-01
101 2 4 -1.739202e+01 5.253191e+00 -2.741512e+00 0 -1 1 -1.987624e-02 -3.255204e-01 -5.137923e-01 -7.935105e-01
102 2 3 -1.792063e+01 5.459572e+00 -2.495676e+00 0 -1 1 -3.956940e-01 7.336938e-02 -1.890037e-01 8.957236e-01
103 2 1 -1.806185e+01 5.390314e+00 -3.498145e+00 0 -1 1 -6.893647e-03 -8.874565e-03 -9.632488e-01 -2.683757e-01
104 2 3 -1.819208e+01 5.421943e+00 -3.940171e+00 0 -1 1 9.932729e-02 -4.988793e-01 -8.577983e-01 -7.372711e-02
105 2 3 -1.697093e+01 5.970511e+00 -3.949929e+00 0 -1 1 4.589866e-01 8.126131e-01 3.366485e-01 1.251362e-01
106 2 2 -1.676936e+01 5.872192e+00 -4.402277e+00 0 -1 1 3.837541e-01 8.654868e-01 -5.313490e-02 3.175563e-01
107 2 3 -1.621734e+01 5.565774e+00 -4.542448e+00 0 -1 1 -4.610031e-01 -7.760958e-01 -2.829108e-01 -3.242113e-01
108 2 4 -1.604139e+01 4.538078e+00 -4.395351e+00 0 -1 1 2.272721e-01 -8.065596e-01 3.175717e-01 4.437986e-01
109 2 3 -1.692481e+01 3.552910e+00 -3.649893e+00 0 -1 1 1.612272e-01 2.578025e-01 -8.665657e-01 3.957366e-01
110 2 2 -1.681922e+01 3.091853e+00 -3.791714e+00 0 -1 1 -2.833823e-02 -1.642557e-01 -9.366984e-01 3.079174e-01
111 2 2 -1.566665e+01 2.357964e+00 -4.321066e+00 0 -1 1 -7.570607e-01 -4.339301e-01 4.234202e-01 2.434732e-01
112 2 3 -1.589730e+01 1.850109e+00 -4.415223e+00 0 -1 1 -7.666726e-01 -2.619671e-01 5.811952e-01 -7.614817e-02
113 2 3 -1.623312e+01 1.460059e+00 -4.261013e+00 0 -1 1 -8.269790e-01 -2.160412e-01 4.521422e-01 -2.549499e-01
114 2 2 -1.624157e+01 1.009751e+00 -4.003718e+00 0 -1 1 -5.989844e-01 2.405391e-02 5.224320e-01 -6.063859e-01
115 2 4 -1.653365e+01 8.964359e-01 -3.549658e+00 0 -1 1 3.782236e-01 -1.904267e-01 -3.462755e-01 8.371248e-01
116 2 4 -1.654447e+01 -1.814806e-01 -3.864875e+00 0 -1 1 7.753811e-01 3.829834e-01 -3.305125e-01 3.779807e-01
117 2 1 -1.633126e+01 -5.679224e-01 -3.586069e+00 0 -1 1 5.915034e-01 1.463074e-01 -4.128789e-01 6.769409e-01
118 2 1 -1.581852e+01 -1.737394e+00 -4.033679e+00 0 -1 1 -8.559538e-01 -3.132381e-01 3.456633e-01 2.230291e-01
119 2 1 -1.597891e+01 -2.138146e+00 -3.960951e+00 0 -1 1 -7.984242e-01 -1.117891e-01 5.455591e-01 -2.288828e-01
120 2 1 -1.612219e+01 -2.579170e+00 -3.739189e+00 0 -1 1 7.256690e-01 -2.969986e-02 -4.775312e-01 4.944556e-01
121 2 3 -1.545224e+01 -3.438911e+00 -4.371253e+00 0 -1 1 9.857474e-01 1.031809e-01 8.790303e-02 9.964368e-02
122 2 1 -1.528466e+01 -3.820324e+00 -4.306716e+00 0 -1 1 8.630612e-01 1.781487e-01 -2.327015e-01 4.113859e-01
123 2 4 -1.507348e+01 -4.158344e+00 -3.981279e+00 0 -1 1 -6.314759e-01 -9.115667e-02 2.640978e-01 -7.233126e-01
124 2 1 -1.558677e+01 -5.203858e+00 -4.311098e+00 0 -1 1 -7.957812e-02 -6.402579e-01 7.594554e-01 8.345377e-02
125 2 4 -1.542938e+01 -5.377756e+00 -4.911243e+00 0 -1 1 1.841972e-01 4.426083e-01 -8.775308e-01 1.043877e-02
126 2 2 -1.554606e+01 -5.642228e+00 -5.493322e+00 0 -1 1 3.764810e-01 9.983018e-02 -9.191539e-01 -5.875495e-02
127 2 4 -1.590936e+01 -5.990991e+00 -5.742205e+00 0 -1 1 4.484984e-01 -2.110345e-01 -8.663914e-01 6.065930e-02
128 2 4 -1.633508e+01 -6.268539e+00 -5.793561e+00 0 -1 1 3.396549e-01 -4.798840e-01 -7.962864e-01 1.423866e-01
129 2 1 -1.686244e+01 -6.313796e+00 -5.830373e+00 0 -1 1 2.788705e-01 -6.812006e-01 -5.994892e-01 3.143400e-01
130 2 2 -1.734644e+01 -6.131292e+00 -5.971353e+00 0 -1 1 2.086331e-01 -8.438965e-01 -4.172439e-01 2.649877e-01
131 2 3 -1.780596e+01 -5.862810e+00 -6.198335e+00 0 -1 1 1.593698e-01 -9.270247e-01 -1.353685e-01 3.112906e-01
132 2 4 -1.790859e+01 -5.341774e+00 -6.352929e+00 0 -1 1 -2.574499e-01 8.676188e-01 -1.465206e-01 -3.993606e-01
133 2 4 -1.803061e+01 -4.891585e+00 -6.591055e+00 0 -1 1 -1.136690e-01 8.391762e-01 -3.877309e-01 -3.640431e-01
134 2 3 -1.803872e+01 -4.602468e+00 -7.026210e+00 0 -1 1 6.706818e-02 6.420694e-01 -6.383774e-01 -4.191934e-01
135 2 4 -1.806045e+01 -4.500594e+00 -7.504616e+00 0 -1 1 -2.042640e-01 -3.786122e-01 8.135840e-01 3.911651e-01
136 2 3 -1.826933e+01 -4.473447e+00 -7.970183e+00 0 -1 1 -3.164298e-01 -1.057202e-01 9.024471e-01 2.725520e-01
137 2 1 -1.861967e+01 -4.451370e+00 -8.384504e+00 0 -1 1 4.490106e-01 -1.400502e-02 -8.547012e-01 -2.601524e-01
138 2 3 -1.908788e+01 -4.421303e+00 -8.751065e+00 0 -1 1 5.659702e-01 -1.045252e-01 -8.029070e-01 -1.552177e-01
139 2 2 -1.949051e+01 -4.626133e+00 -8.851864e+00 0 -1 1 5.750119e-01 -2.593028e-01 -7.622394e-01 1.453086e-01
140 2 3 -1.998183e+01 -4.729972e+00 -8.696050e+00 0 -1 1 5.339561e-01 -4.475496e-01 -6.368138e-01 3.302398e-01
141 2 1 1.959220e+01 -4.739614e+00 -8.533396e+00 -1 -1 1 4.715988e-01 -5.216914e-01 -4.239229e-01 5.707206e-01
142 2 2 1.912896e+01 -4.679309e+00 -8.260362e+00 -1 -1 1 3.588970e-01 -6.190850e-01 -2.216965e-01 6.624028e-01
143 2 4 1.875288e+01 -4.281602e+00 -8.135026e+00 -1 -1 1 -1.743869e-01 6.847721e-01 -6.392833e-02 -7.046911e-01
144 2 4 1.835590e+01 -3.859359e+00 -8.206725e+00 -1 -1 1 2.352965e-02 -7.095849e-01 2.980300e-01 6.380547e-01
145 2 1 1.796374e+01 -3.546952e+00 -8.490617e+00 -1 -1 1 -3.552079e-01 -6.440544e-01 3.818140e-01 5.596779e-01
146 2 1 1.753187e+01 -3.464127e+00 -8.838530e+00 -1 -1 1 -4.098907e-01 -6.357390e-01 4.965102e-01 4.257971e-01
147 2 1 1.749715e+01 -3.446194e+00 -9.294613e+00 -1 -1 1 -4.027196e-01 -3.584056e-01 7.643301e-01 3.537821e-01
148 2 2 1.709586e+01 -3.583977e+00 -9.622809e+00 -1 -1 1 -5.388230e-01 -1.449924e-01 8.048403e-01 2.021858e-01
149 2 4 1.673959e+01 -3.869835e+00 -9.820101e+00 -1 -1 1 5.476992e-01 -3.091183e-02 -8.358638e-01 2.004394e-02
150 2 1 1.631230e+01 -4.154587e+00 -9.810422e+00 -1 -1 1 4.836187e-01 -2.603975e-01 -7.855956e-01 2.848607e-01
151 2 1 1.573824e+01 -4.276341e+00 -9.854573e+00 -1 -1 1 5.012145e-01 -4.567501e-01 -6.496338e-01 3.437139e-01
152 2 1 1.519056e+01 -4.251344e+00 -9.653577e+00 -1 -1 1 4.876254e-01 -6.110318e-01 -3.609614e-01 5.084963e-01
153 2 4 1.485042e+01 -3.937462e+00 -9.400815e+00 -1 -1 1 3.025850e-01 -7.025294e-01 -1.334218e-01 6.301535e-01
154 2 1 1.464687e+01 -3.456964e+00 -9.337423e+00 -1 -1 1 6.792114e-02 -7.093402e-01 1.242917e-01 6.904888e-01
155 2 2 1.421479e+01 -3.254583e+00 -9.344264e+00 -1 -1 1 3.831555e-02 -7.475344e-01 2.341534e-01 6.204002e-01
156 2 4 1.394145e+01 -2.917995e+00 -9.607910e+00 -1 -1 1 -2.282476e-01 -5.998311e-01 5.307732e-01 5.535210e-01
157 2 3 1.350396e+01 -2.826031e+00 -1.009569e+01 -1 -1 1 -4.579972e-01 -4.718509e-01 6.406555e-01 3.964289e-01
158 2 2 1.315314e+01 -2.977430e+00 -1.045262e+01 -1 -1 1 -5.306112e-01 -3.042474e-01 7.665005e-01 1.958627e-01
159 2 1 1.280569e+01 -3.255475e+00 -1.067391e+01 -1 -1 1 -5.964066e-01 -1.480801e-01 7.882461e-01 -3.224272e-02
160 2 3 1.230666e+01 -3.537011e+00 -1.080574e+01 -1 -1 1 6.751164e-01 -2.590607e-02 -7.318751e-01 8.891383e-02
161 2 1 1.195865e+01 -3.878049e+00 -1.070059e+01 -1 -1 1 5.266159e-01 -3.275545e-01 -6.889865e-01 3.750750e-01
162 2 1 1.135215e+01 -3.991517e+00 -1.052583e+01 -1 -1 1 5.244807e-01 -4.973139e-01 -5.843558e-01 3.689541e-01
163 2 4 1.086960e+01 -3.863480e+00 -1.033504e+01 -1 -1 1 3.462730e-01 -7.220285e-01 -3.636378e-01 4.759595e-01
164 2 4 1.042832e+01 -3.656132e+00 -1.027017e+01 -1 -1 1 1.938456e-01 -8.325520e-01 -1.329642e-01 5.015990e-01
165 2 3 1.001160e+01 -3.296583e+00 -1.048368e+01 -1 -1 1 1.953207e-01 -8.549723e-01 1.398483e-01 4.596897e-01
166 2 3 9.885117e+00 -2.929639e+00 -1.073958e+01 -1 -1 1 4.317218e-02 -7.708405e-01 4.564049e-01 4.423071e-01
167 2 4 9.840270e+00 -2.574678e+00 -1.122645e+01 -1 -1 1 -7.166894e-02 -6.841428e-01 6.365313e-01 3.487694e-01
168 2 2 9.796269e+00 -2.495786e+00 -1.179813e+01 -1 -1 1 -2.609635e-01 -4.191170e-01 8.160505e-01 3.005005e-01
169 2 2 9.769200e+00 -2.558733e+00 -1.234370e+01 -1 -1 1 -2.565549e-01 -2.699495e-01 9.142017e-01 1.598190e-01
170 2 1 9.535335e+00 -2.687424e+00 -1.294109e+01 -1 -1 1 -3.886558e-01 -9.499585e-02 9.063305e-01 1.359691e-01
171 2 1 9.142893e+00 -2.917172e+00 -1.328157e+01 -1 -1 1 3.957338e-01 -3.580685e-01 -8.451568e-01 -2.986149e-02
172 2 4 8.676475e+00 -2.918648e+00 -1.347486e+01 -1 -1 1 4.786114e-01 -5.564808e-01 -6.542934e-01 1.821000e-01
173 2 4 8.152956e+00 -2.740097e+00 -1.338831e+01 -1 -1 1 4.596285e-01 -7.107284e-01 -4.388456e-01 3.016975e-01
174 2 1 7.742654e+00 -2.460674e+00 -1.337785e+01 -1 -1 1 3.430547e-01 -8.462346e-01 -1.103708e-01 3.924522e-01
175 2 1 7.501752e+00 -1.977537e+00 -1.340674e+01 -1 -1 1 3.782156e-01 -8.150011e-01 1.754950e-01 4.024024e-01
176 2 2 7.446395e+00 -1.493523e+00 -1.346958e+01 -1 -1 1 2.201818e-01 -7.469086e-01 3.960011e-01 4.866524e-01
177 2 2 7.528853e+00 -1.093992e+00 -1.381979e+01 -1 -1 1 1.056783e-01 -5.655493e-01 6.432986e-01 5.051267e-01
178 2 1 7.452569e+00 -7.446254e-01 -1.425301e+01 -1 -1 1 -3.515226e-04 -4.488299e-01 7.681896e-01 4.565483e-01
179 2 4 7.216983e+00 -5.409251e-01 -1.480819e+01 -1 -1 1 -2.423052e-01 -2.227795e-01 8.535764e-01 4.038129e-01
180 2 1 6.888189e+00 -4.856102e-01 -1.524457e+01 -1 -1 1 -3.494373e-01 -1.714298e-02 8.851540e-01 3.067606e-01
181 2 4 6.426632e+00 -5.302632e-01 -1.549334e+01 -1 -1 1 5.093870e-01 -2.466690e-01 -8.123150e-01 -1.407962e-01
182 2 2 5.911490e+00 -4.728331e-01 -1.562872e+01 -1 -1 1 5.518995e-01 -4.833990e-01 -6.791373e-01 2.247099e-02
183 2 3 5.256661e+00 -2.486009e-01 -1.557914e+01 -1 -1 1 5.263209e-01 -6.798897e-01 -5.106198e-01 1.919983e-03
184 2 4 4.878010e+00 1.501042e-01 -1.555084e+01 -1 -1 1 5.040621e-01 -8.221243e-01 -2.265240e-01 1.368204e-01
185 2 3 4.787047e+00 6.912682e-01 -1.549099e+01 -1 -1 1 3.803889e-01 -8.678152e-01 1.491860e-01 2.827448e-01
186 2 1 4.847162e+00 1.207282e+00 -1.560841e+01 -1 -1 1 4.004017e-01 -7.695715e-01 4.005986e-01 2.948882e-01
187 2 1 5.010630e+00 1.615867e+00 -1.580511e+01 -1 -1 1 2.693876e-01 -6.415277e-01 6.195247e-01 3.634029e-01
188 2 2 5.174572e+00 1.927540e+00 -1.612498e+01 -1 -1 1 1.380060e-01 -3.842350e-01 8.465050e-01 3.416828e-01
189 2 4 5.355791e+00 1.967104e+00 -1.663335e+01 -1 -1 1 -1.086339e-01 9.747859e-02 -9.442082e-01 -2.952414e-01
190 2 4 5.424464e+00 2.090992e+00 -1.715004e+01 -1 -1 1 -1.758018e-02 3.352796e-02 9.641737e-01 2.625565e-01
191 2 1 5.200813e+00 1.994954e+00 -1.760872e+01 -1 -1 1 -3.462515e-02 3.298286e-01 9.048068e-01 2.670933e-01
192 2 4 4.883673e+00 2.223164e+00 -1.810926e+01 -1 -1 1 -1.949254e-01 5.610431e-01 7.506608e-01 2.893840e-01
193 2 4 4.622994e+00 2.654226e+00 -1.846918e+01 -1 -1 1 3.409116e-01 -7.548582e-01 -5.042821e-01 -2.442701e-01
194 2 1 4.411136e+00 3.090038e+00 -1.857874e+01 -1 -1 1 5.115856e-01 -7.758535e-01 -3.145727e-01 -1.933278e-01
195 2 3 4.255847e+00 3.662603e+00 -1.865802e+01 -1 -1 1 -5.490634e-01 8.255824e-01 6.368013e-02 1.135249e-01
196 2 4 4.403303e+00 4.165414e+00 -1.863573e+01 -1 -1 1 -6.104097e-01 7.578631e-01 -1.716609e-01 1.535450e-01
197 2 2 4.509517e+00 4.147836e+00 -1.874047e+01 -1 -1 1 -5.440867e-01 2.994909e-01 -4.951694e-01 6.075213e-01
198 2 4 5.712750e+00 4.585127e+00 -1.847666e+01 -1 -1 1 -1.747860e-01 8.851081e-01 -1.799983e-01 3.919619e-01
199 2 3 5.585222e+00 4.498198e+00 -1.837762e+01 -1 -1 1 -2.431706e-01 -1.741509e-01 -3.850533e-01 8.730827e-01
200 2 4 5.408577e+00 4.240238e+00 -1.790849e+01 -1 -1 1 3.634193e-01 3.416269e-01 3.535647e-01 -7.913339e-01
