ITEM: TIMESTEP
163000000
ITEM: NUMBER OF ATOMS
200
ITEM: BOX BOUNDS pp pp pp
-2.0000000000000000e+01 2.0000000000000000e+01
-2.0000000000000000e+01 2.0000000000000000e+01
-2.0000000000000000e+01 2.0000000000000000e+01
ITEM: ATOMS id mol type x y z ix iy iz c_quat[1] c_quat[2] c_quat[3] c_quat[4]
1 1 1 9.643021e+00 -1.412384e+01 -1.249572e+01 -1 -1 1 2.821654e-01 -8.919296e-02 6.378133e-01 7.110707e-01
2 1 2 9.749964e+00 -1.366029e+01 -1.265910e+01 -1 -1 1 1.057806e-01 -1.748330e-01 -6.156209e-01 -7.610879e-01
3 1 1 9.709889e+00 -1.312111e+01 -1.274775e+01 -1 -1 1 3.303209e-01 -2.679842e-01 -5.075384e-01 -7.493180e-01
4 1 3 9.538055e+00 -1.264530e+01 -1.271338e+01 -1 -1 1 -5.173018e-01 4.163946e-01 3.063594e-01 6.820252e-01
5 1 1 9.410075e+00 -1.221629e+01 -1.244986e+01 -1 -1 1 7.073696e-01 -4.338269e-01 -1.712642e-01 -5.311224e-01
6 1 2 9.304825e+00 -1.196528e+01 -1.208723e+01 -1 -1 1 -8.607258e-01 4.609725e-01 3.205459e-02 2.136070e-01
7 1 4 9.456428e+00 -1.161268e+01 -1.171796e+01 -1 -1 1 8.936778e-01 -3.989006e-01 1.663983e-01 -1.205399e-01
8 1 1 9.655938e+00 -1.150274e+01 -1.127460e+01 -1 -1 1 -8.750809e-01 3.297039e-01 -3.100254e-01 -1.715019e-01
9 1 1 1.001424e+01 -1.132706e+01 -1.102264e+01 -1 -1 1 7.996748e-01 -1.009509e-01 4.420052e-01 3.936502e-01
10 1 4 1.046575e+01 -1.106067e+01 -1.075099e+01 -1 -1 1 -6.847591e-01 1.381204e-01 -5.557738e-01 -4.507140e-01
11 1 1 1.089457e+01 -1.083374e+01 -1.079697e+01 -1 -1 1 4.656299e-01 4.531315e-02 6.106110e-01 6.389755e-01
12 1 1 1.129362e+01 -1.058504e+01 -1.096189e+01 -1 -1 1 2.356503e-01 2.602647e-01 6.294517e-01 6.931968e-01
13 1 3 1.145428e+01 -1.004788e+01 -1.125667e+01 -1 -1 1 4.718202e-02 -3.718723e-01 -5.747385e-01 -7.274342e-01
14 1 4 1.135278e+01 -9.516721e+00 -1.144265e+01 -1 -1 1 -3.096790e-01 4.938038e-01 4.936099e-01 6.454502e-01
15 1 4 1.131410e+01 -8.954842e+00 -1.136980e+01 -1 -1 1 -5.415880e-01 5.441913e-01 2.952370e-01 5.686593e-01
16 1 2 1.122361e+01 -8.490394e+00 -1.111523e+01 -1 -1 1 6.942202e-01 -5.895219e-01 -1.378713e-01 -3.892477e-01
17 1 1 1.124062e+01 -8.160689e+00 -1.069924e+01 -1 -1 1 8.454276e-01 -5.107586e-01 1.277815e-01 -8.972006e-02
18 1 2 1.153158e+01 -7.832962e+00 -1.029770e+01 -1 -1 1 -8.089763e-01 4.724334e-01 -3.473767e-01 4.115260e-02
19 1 3 1.196171e+01 -7.730931e+00 -1.002184e+01 -1 -1 1 -7.808838e-01 3.181233e-01 -4.796607e-01 -2.427829e-01
20 1 1 1.245984e+01 -7.850602e+00 -9.913933e+00 -1 -1 1 -7.280848e-01 6.814376e-02 -5.244326e-01 -4.361414e-01
21 1 4 1.297831e+01 -7.708887e+00 -9.837058e+00 -1 -1 1 5.506755e-01 6.452332e-02 5.652322e-01 6.108238e-01
22 1 1 1.338459e+01 -7.412998e+00 -9.847929e+00 -1 -1 1 3.904598e-01 1.506007e-01 5.644156e-01 7.115446e-01
23 1 4 1.372790e+01 -7.049162e+00 -1.002866e+01 -1 -1 1 1.498653e-01 3.114688e-01 5.224412e-01 7.794759e-01
24 1 3 1.393840e+01 -6.599898e+00 -1.017750e+01 -1 -1 1 -3.121114e-02 4.162944e-01 5.193329e-01 7.456662e-01
25 1 3 1.396587e+01 -6.075670e+00 -1.011591e+01 -1 -1 1 -3.369487e-01 5.137840e-01 3.579864e-01 7.030913e-01
26 1 4 1.382184e+01 -5.612701e+00 -1.006477e+01 -1 -1 1 -5.321820e-01 5.774219e-01 2.901773e-01 5.469583e-01
27 1 4 1.375787e+01 -5.131799e+00 -9.903604e+00 -1 -1 1 -7.272735e-01 5.098562e-01 1.491579e-01 4.345938e-01
28 1 1 1.375677e+01 -4.829081e+00 -9.461873e+00 -1 -1 1 -8.283400e-01 5.251406e-01 -8.393768e-02 1.761664e-01
29 1 1 1.398622e+01 -4.567219e+00 -9.050698e+00 -1 -1 1 -8.084535e-01 5.041832e-01 -2.893705e-01 -9.201600e-02
30 1 4 1.427823e+01 -4.491756e+00 -8.573462e+00 -1 -1 1 8.214590e-01 -3.323184e-01 4.065410e-01 2.224726e-01
31 1 4 1.476156e+01 -4.298616e+00 -8.342810e+00 -1 -1 1 6.840000e-01 -1.932883e-01 5.436493e-01 4.463509e-01
32 1 3 1.522570e+01 -4.098348e+00 -8.356630e+00 -1 -1 1 4.633614e-01 -1.880068e-02 5.659380e-01 6.816575e-01
33 1 3 1.558485e+01 -3.629114e+00 -8.477260e+00 -1 -1 1 2.387211e-01 5.730629e-02 5.465439e-01 8.006360e-01
34 1 1 1.572353e+01 -3.078313e+00 -8.420045e+00 -1 -1 1 2.448009e-02 8.813425e-02 5.934581e-01 7.996503e-01
35 1 2 1.559051e+01 -2.618348e+00 -8.584641e+00 -1 -1 1 -2.883271e-01 2.954584e-01 5.714349e-01 7.092488e-01
36 1 2 1.551662e+01 -2.118798e+00 -8.613941e+00 -1 -1 1 -4.872210e-01 3.599101e-01 4.476025e-01 6.578240e-01
37 1 1 1.526626e+01 -1.731391e+00 -8.434563e+00 -1 -1 1 -6.770586e-01 4.213856e-01 3.686595e-01 4.776149e-01
38 1 1 1.500273e+01 -1.338499e+00 -8.144946e+00 -1 -1 1 -7.645244e-01 5.391328e-01 1.618038e-01 3.140983e-01
39 1 4 1.488404e+01 -1.019374e+00 -7.738192e+00 -1 -1 1 8.525696e-01 -5.043043e-01 -3.091699e-02 -1.335903e-01
40 1 4 1.502662e+01 -7.927487e-01 -7.260779e+00 -1 -1 1 8.404746e-01 -4.833501e-01 1.924593e-01 1.514416e-01
41 1 2 1.523529e+01 -5.352577e-01 -6.864468e+00 -1 -1 1 7.126531e-01 -4.076472e-01 3.948170e-01 4.123940e-01
42 1 4 1.570225e+01 -2.566126e-01 -6.704032e+00 -1 -1 1 5.474623e-01 -2.936807e-01 5.323628e-01 5.750014e-01
43 1 3 1.608005e+01 7.472400e-02 -6.690512e+00 -1 -1 1 4.192265e-01 -1.666208e-01 6.269944e-01 6.351099e-01
44 1 2 1.635485e+01 4.830503e-01 -6.867502e+00 -1 -1 1 1.574198e-01 2.716505e-02 7.088967e-01 6.869836e-01
45 1 1 1.638915e+01 9.873438e-01 -7.151233e+00 -1 -1 1 -2.189422e-01 2.033896e-01 6.663367e-01 6.831488e-01
46 1 3 1.613228e+01 1.500338e+00 -7.271335e+00 -1 -1 1 -3.897952e-01 4.672093e-01 3.925703e-01 6.896838e-01
47 1 4 1.602533e+01 1.956042e+00 -7.091331e+00 -1 -1 1 -6.136830e-01 5.293905e-01 1.882887e-01 5.546948e-01
48 1 1 1.585617e+01 2.271672e+00 -6.719891e+00 -1 -1 1 7.896758e-01 -5.005090e-01 -8.162326e-02 -3.453122e-01
49 1 4 1.585357e+01 2.606657e+00 -6.359885e+00 -1 -1 1 8.624993e-01 -4.937440e-01 9.928876e-02 -4.953459e-02
50 1 4 1.599050e+01 2.971360e+00 -5.945205e+00 -1 -1 1 8.859861e-01 -3.919156e-01 2.468741e-01 -2.199847e-02
51 1 4 1.633354e+01 3.084738e+00 -5.511270e+00 -1 -1 1 8.032139e-01 -3.053605e-01 4.450595e-01 2.520405e-01
52 1 1 1.680643e+01 3.186466e+00 -5.366034e+00 -1 -1 1 6.680744e-01 -1.055726e-01 4.901533e-01 5.498006e-01
53 1 3 1.725873e+01 3.659914e+00 -5.281138e+00 -1 -1 1 5.090938e-01 -1.902120e-01 5.932623e-01 5.938710e-01
54 1 4 1.759673e+01 4.013777e+00 -5.499763e+00 -1 -1 1 2.315821e-01 8.698883e-02 6.741716e-01 6.959133e-01
55 1 4 1.777029e+01 4.404012e+00 -5.802448e+00 -1 -1 1 4.482745e-02 2.690600e-01 5.896101e-01 7.602350e-01
56 1 4 1.786427e+01 4.856360e+00 -5.996435e+00 -1 -1 1 -2.099040e-01 4.519961e-01 5.646039e-01 6.579227e-01
57 1 1 1.782077e+01 5.380518e+00 -6.048344e+00 -1 -1 1 -4.169872e-01 4.403477e-01 5.149650e-01 6.058272e-01
58 1 1 1.750163e+01 5.833726e+00 -6.000913e+00 -1 -1 1 -5.783789e-01 4.879259e-01 4.075727e-01 5.111660e-01
59 1 3 1.719549e+01 6.158898e+00 -5.741439e+00 -1 -1 1 7.059068e-01 -6.543343e-01 -1.820772e-01 -2.009730e-01
60 1 4 1.710352e+01 6.591482e+00 -5.572488e+00 -1 -1 1 7.542644e-01 -6.522106e-01 -6.812699e-04 -7.553878e-02
61 1 2 1.717793e+01 6.900424e+00 -5.199455e+00 -1 -1 1 7.964330e-01 -5.336351e-01 1.986100e-01 2.036715e-01
62 1 3 1.749992e+01 7.221332e+00 -4.929446e+00 -1 -1 1 6.880138e-01 -4.703636e-01 4.083539e-01 3.723468e-01
63 1 2 1.789520e+01 7.598626e+00 -4.842633e+00 -1 -1 1 4.827200e-01 -2.880910e-01 6.177002e-01 5.499376e-01
64 1 4 1.828061e+01 8.110831e+00 -5.023483e+00 -1 -1 1 3.135195e-01 -2.902418e-01 6.741019e-01 6.025379e-01
65 1 2 1.849476e+01 8.457709e+00 -5.258154e+00 -1 -1 1 1.270912e-01 -5.752124e-02 8.018395e-01 5.810272e-01
66 1 1 1.845865e+01 8.796916e+00 -5.825043e+00 -1 -1 1 -1.144977e-01 2.085522e-01 6.804402e-01 6.931071e-01
67 1 2 1.825049e+01 9.211438e+00 -5.977608e+00 -1 -1 1 -4.243887e-01 3.681103e-01 6.146772e-01 5.536794e-01
68 1 1 1.799931e+01 9.584353e+00 -6.075859e+00 -1 -1 1 -5.740408e-01 5.520204e-01 4.547216e-01 3.987215e-01
69 1 1 1.778104e+01 1.007208e+01 -5.973209e+00 -1 -1 1 -7.176105e-01 5.990399e-01 2.661561e-01 2.352601e-01
70 1 2 1.752854e+01 1.040835e+01 -5.626378e+00 -1 -1 1 7.649309e-01 -6.377028e-01 -8.206032e-02 -3.849612e-02
71 1 3 1.747000e+01 1.071892e+01 -5.220486e+00 -1 -1 1 8.283039e-01 -5.035846e-01 9.623509e-02 2.259513e-01
72 1 4 1.759896e+01 1.116422e+01 -4.923175e+00 -1 -1 1 6.981763e-01 -4.799191e-01 3.089364e-01 4.321871e-01
73 1 1 1.787297e+01 1.160267e+01 -4.777836e+00 -1 -1 1 -5.489266e-01 4.217807e-01 -5.237258e-01 -4.964795e-01
74 1 1 1.822890e+01 1.197952e+01 -4.962571e+00 -1 -1 1 2.336043e-01 -1.776222e-01 6.140547e-01 7.326774e-01
75 1 3 1.936208e+01 1.260157e+01 -4.391112e+00 -1 -1 1 6.508763e-01 -6.352240e-01 6.931657e-02 4.099338e-01
76 1 1 1.946146e+01 1.313100e+01 -4.205318e+00 -1 -1 1 -3.989987e-01 5.782620e-01 -3.214838e-01 -6.348711e-01
77 1 4 1.940242e+01 1.363604e+01 -4.048395e+00 -1 -1 1 2.100634e-01 -4.745719e-01 6.037420e-01 6.051037e-01
78 1 1 1.943510e+01 1.414444e+01 -3.650057e+00 -1 -1 1 3.284980e-01 -5.485220e-01 7.452616e-01 1.892032e-01
79 1 4 1.898587e+01 1.427367e+01 -3.886305e+00 -1 -1 1 -7.732332e-01 -2.275227e-02 6.295450e-01 -7.256624e-02
80 1 2 1.796956e+01 1.435276e+01 -3.883584e+00 -1 -1 1 2.846374e-01 -1.302153e-01 9.216506e-01 -2.293159e-01
81 1 4 1.849731e+01 1.480048e+01 -3.380245e+00 -1 -1 1 2.948253e-01 -6.600100e-01 1.149004e-01 6.813683e-01
82 1 4 1.777691e+01 1.451622e+01 -2.094370e+00 -1 -1 1 -6.324704e-01 4.620990e-01 -8.596500e-03 6.215882e-01
83 1 4 1.707436e+01 1.530279e+01 -2.188028e+00 -1 -1 1 1.410260e-01 1.955564e-01 -1.774515e-01 9.541385e-01
84 1 4 1.726511e+01 1.537253e+01 -1.771534e+00 -1 -1 1 2.147893e-01 -1.279558e-01 6.795545e-02 -9.658545e-01
85 1 1 1.728765e+01 1.554414e+01 -1.285402e+00 -1 -1 1 4.376773e-01 -1.792113e-02 4.737395e-02 -8.977044e-01
86 1 1 1.703514e+01 1.562244e+01 -8.324962e-01 -1 -1 1 8.028067e-01 -2.641377e-02 4.596335e-02 -5.938780e-01
87 1 3 1.682873e+01 1.542305e+01 -4.028278e-01 -1 -1 1 9.779707e-01 -6.193418e-02 6.356748e-02 -1.889355e-01
88 1 2 1.703957e+01 1.523325e+01 6.254295e-02 -1 -1 1 9.875379e-01 7.028716e-02 1.199381e-01 7.377931e-02
89 1 2 1.579430e+01 1.484003e+01 1.682481e-01 -1 -1 1 4.060066e-01 2.377203e-01 8.767103e-01 1.001336e-01
90 1 3 1.544414e+01 1.491317e+01 9.188419e-01 -1 -1 1 -6.465032e-01 9.477675e-02 -6.618885e-01 3.673618e-01
91 1 3 1.519230e+01 1.635995e+01 1.427942e+00 -1 -1 1 3.885224e-02 3.726882e-01 5.033794e-01 -7.785905e-01
92 1 2 1.537637e+01 1.681359e+01 1.303394e+00 -1 -1 1 -4.159441e-01 -6.041402e-01 -2.244241e-02 6.793389e-01
93 1 1 1.557447e+01 1.715320e+01 1.838564e+00 -1 -1 1 -8.023970e-01 -5.198408e-01 2.931159e-01 -2.751573e-03
94 1 2 1.568519e+01 1.735506e+01 2.971661e+00 -1 -1 1 -3.326215e-01 6.154785e-01 -6.142102e-01 3.650958e-01
95 1 3 1.544169e+01 1.810130e+01 3.306226e+00 -1 -1 1 4.793075e-01 1.046772e-01 1.162693e-01 8.635904e-01
96 1 2 1.523419e+01 1.832418e+01 2.869739e+00 -1 -1 1 -2.627759e-02 1.518454e-01 6.832005e-01 7.137854e-01
97 1 2 1.503897e+01 1.873045e+01 2.599595e+00 -1 -1 1 3.600622e-01 -4.606781e-01 -5.378213e-01 -6.073543e-01
98 1 4 1.488062e+01 1.846999e+01 1.908168e+00 -1 -1 1 9.148665e-01 2.951136e-01 5.437887e-02 -2.701298e-01
99 1 2 1.467000e+01 1.990017e+01 2.495031e+00 -1 -1 1 4.472658e-01 -4.093452e-01 8.522708e-02 7.906492e-01
100 1 1 1.455295e+01 -1.979268e+01 2.729651e+00 -1 0 1 2.740268e-02 -2.898300e-01 2.753176e-01 9.162139e-01
101 2 4 -1.647402e+01 1.590304e+01 -6.816416e+00 0 -1 1 -1.420894e-01 -2.033126e-01 -4.760783e-01 8.436967e-01
102 2 3 -1.649221e+01 1.509486e+01 -7.353553e+00 0 -1 1 8.746742e-01 4.759043e-01 5.998630e-02 -6.972642e-02
103 2 1 -1.705457e+01 1.498763e+01 -8.013876e+00 0 -1 1 5.400557e-01 5.789606e-01 -4.371030e-01 -4.267146e-01
104 2 3 -1.738154e+01 1.474744e+01 -8.306322e+00 0 -1 1 -5.693920e-01 -4.949432e-01 6.423801e-01 1.348026e-01
105 2 3 -1.828167e+01 1.508982e+01 -8.771923e+00 0 -1 1 8.224474e-02 -4.814398e-01 -4.416465e-01 7.525954e-01
106 2 2 -1.870907e+01 1.486993e+01 -8.560554e+00 0 -1 1 -4.845668e-04 -6.431610e-01 -2.765917e-01 7.140313e-01
107 2 3 -1.912357e+01 1.503157e+01 -8.598588e+00 0 -1 1 2.942413e-01 6.477403e-01 -1.661664e-02 -7.025514e-01
108 2 4 -1.968839e+01 1.499660e+01 -8.715015e+00 0 -1 1 -6.151364e-01 -6.221709e-01 2.044963e-01 4.389668e-01
109 2 3 -1.996637e+01 1.459481e+01 -8.992380e+00 0 -1 1 7.687442e-01 4.203578e-01 -4.624009e-01 -1.360773e-01
110 2 2 1.974857e+01 1.418645e+01 -9.061359e+00 -1 -1 1 8.198616e-01 1.354921e-01 -5.414429e-01 1.277046e-01
111 2 2 1.950946e+01 1.380151e+01 -8.829574e+00 -1 -1 1 -6.725056e-01 1.988477e-01 5.747436e-01 -4.217411e-01
112 2 3 1.958625e+01 1.261065e+01 -9.364629e+00 -1 -1 1 -8.998425e-01 -2.793637e-01 -2.626621e-01 2.079617e-01
113 2 3 1.982166e+01 1.216261e+01 -9.285074e+00 -1 -1 1 -8.956736e-01 -3.994100e-01 -8.369764e-02 -1.767349e-01
114 2 2 2.009063e+01 1.168606e+01 -9.129669e+00 -1 -1 1 7.266485e-01 3.139652e-01 -1.422341e-01 5.942872e-01
115 2 4 1.946591e+01 1.121060e+01 -9.364664e+00 -1 -1 1 1.564290e-01 9.611929e-01 -2.183335e-01 -6.299705e-02
116 2 4 1.838785e+01 1.065867e+01 -8.927393e+00 -1 -1 1 6.049580e-02 -4.433901e-01 6.619496e-02 -8.918317e-01
117 2 1 1.782681e+01 1.043214e+01 -1.003287e+01 -1 -1 1 -1.569693e-01 -3.889347e-01 3.562140e-01 8.349862e-01
118 2 1 1.737141e+01 1.080386e+01 -9.883212e+00 -1 -1 1 -4.407298e-01 -4.043441e-01 3.297251e-01 7.304413e-01
119 2 1 1.689305e+01 1.070818e+01 -9.902384e+00 -1 -1 1 7.419618e-01 2.958978e-01 -4.252677e-01 -4.255404e-01
120 2 1 1.694804e+01 1.120558e+01 -1.027651e+01 -1 -1 1 -8.956037e-01 -3.019509e-01 2.831061e-01 1.630050e-01
121 2 3 1.599562e+01 1.163309e+01 -9.287867e+00 -1 -1 1 -4.327334e-01 3.235098e-01 -4.267034e-01 7.252637e-01
122 2 1 1.703126e+01 1.279197e+01 -9.567365e+00 -1 -1 1 3.421870e-02 -9.630431e-01 -2.187680e-01 -1.533546e-01
123 2 4 1.733671e+01 1.223160e+01 -9.107127e+00 -1 -1 1 -4.271470e-01 7.027539e-01 -5.013414e-01 -2.689594e-01
124 2 1 1.675599e+01 1.269143e+01 -7.773779e+00 -1 -1 1 5.396941e-01 -3.551772e-01 -7.050698e-01 2.923285e-01
125 2 4 1.636752e+01 1.261065e+01 -7.514730e+00 -1 -1 1 -2.558008e-01 6.116865e-01 4.545272e-01 -5.948199e-01
126 2 2 1.715306e+01 1.154176e+01 -7.512433e+00 -1 -1 1 -7.357054e-01 1.948399e-01 -3.044568e-01 5.727836e-01
127 2 4 1.730206e+01 1.119389e+01 -7.130176e+00 -1 -1 1 7.925682e-01 4.650314e-02 4.696851e-01 -3.860946e-01
128 2 4 1.787406e+01 1.166561e+01 -5.988399e+00 -1 -1 1 -3.876597e-01 -5.926583e-01 4.103770e-01 -5.745144e-01
129 2 1 1.828135e+01 1.136272e+01 -5.885113e+00 -1 -1 1 1.949593e-01 3.591055e-01 -6.239654e-01 6.661090e-01
130 2 2 1.855992e+01 1.087891e+01 -5.610832e+00 -1 -1 1 2.647927e-02 1.818961e-01 -7.194832e-01 6.697437e-01
131 2 3 1.869289e+01 1.044611e+01 -5.405135e+00 -1 -1 1 -8.011313e-02 -3.286840e-02 -6.662720e-01 7.406640e-01
132 2 4 1.859836e+01 1.003826e+01 -5.091399e+00 -1 -1 1 -2.737164e-01 -3.234677e-01 -6.348722e-01 6.460536e-01
133 2 4 1.825524e+01 9.597415e+00 -4.896878e+00 -1 -1 1 3.142881e-01 4.886240e-01 4.712061e-01 -6.636523e-01
134 2 3 1.772125e+01 9.207718e+00 -4.898558e+00 -1 -1 1 5.466835e-01 6.170296e-01 3.775256e-01 -4.217653e-01
135 2 4 1.749918e+01 8.766792e+00 -5.119030e+00 -1 -1 1 -5.824981e-01 -7.624266e-01 -2.233343e-01 1.718240e-01
136 2 3 1.737564e+01 8.437443e+00 -5.420899e+00 -1 -1 1 -5.224443e-01 -8.519841e-01 3.401292e-02 -4.248080e-03
137 2 1 1.740090e+01 8.255633e+00 -5.863481e+00 -1 -1 1 4.740143e-01 7.831385e-01 -3.476360e-01 2.028637e-01
138 2 3 1.770036e+01 7.842348e+00 -6.003705e+00 -1 -1 1 3.961727e-01 5.988346e-01 -5.289467e-01 4.523933e-01
139 2 2 1.796607e+01 7.339720e+00 -6.014866e+00 -1 -1 1 3.735883e-01 3.853019e-01 -5.953013e-01 5.979888e-01
140 2 3 1.819678e+01 6.907084e+00 -5.791589e+00 -1 -1 1 2.066516e-01 1.472445e-01 -5.964984e-01 7.614485e-01
141 2 1 1.830057e+01 6.535225e+00 -5.401925e+00 -1 -1 1 -9.583111e-02 -1.108127e-01 -6.506026e-01 7.451531e-01
142 2 2 1.814608e+01 5.999156e+00 -5.143907e+00 -1 -1 1 -4.311676e-02 -2.418811e-01 -6.104946e-01 7.529481e-01
143 2 4 1.789193e+01 5.628410e+00 -4.873028e+00 -1 -1 1 2.193198e-01 4.940276e-01 4.770911e-01 -6.929788e-01
144 2 4 1.749633e+01 5.373993e+00 -4.892284e+00 -1 -1 1 -3.528645e-01 -6.869411e-01 -2.852198e-01 5.676691e-01
145 2 1 1.711969e+01 5.060326e+00 -5.113756e+00 -1 -1 1 -4.029023e-01 -8.095651e-01 -1.785316e-01 3.878150e-01
146 2 1 1.678755e+01 4.947717e+00 -5.495575e+00 -1 -1 1 -5.961933e-01 -7.339859e-01 1.291873e-01 2.985445e-01
147 2 1 1.654633e+01 4.474908e+00 -5.703736e+00 -1 -1 1 -5.652509e-01 -8.016148e-01 1.933759e-01 2.260328e-02
148 2 2 1.664482e+01 4.184120e+00 -6.139000e+00 -1 -1 1 -5.343823e-01 -7.042383e-01 4.644680e-01 -5.247247e-02
149 2 4 1.679850e+01 3.785430e+00 -6.389348e+00 -1 -1 1 4.596771e-01 5.831054e-01 -6.000622e-01 2.976749e-01
150 2 1 1.692026e+01 3.312372e+00 -6.501300e+00 -1 -1 1 3.016753e-01 3.312179e-01 -7.659292e-01 4.611282e-01
151 2 1 1.699678e+01 2.741338e+00 -6.469658e+00 -1 -1 1 2.758489e-01 1.674642e-01 -7.304835e-01 6.018779e-01
152 2 1 1.700594e+01 2.247012e+00 -6.365347e+00 -1 -1 1 1.426127e-01 -6.557317e-02 -6.949067e-01 7.017595e-01
153 2 4 1.678257e+01 1.805036e+00 -6.150884e+00 -1 -1 1 -7.013117e-02 -3.821572e-01 -6.749747e-01 6.272533e-01
154 2 1 1.635245e+01 1.432527e+00 -6.090203e+00 -1 -1 1 -1.177716e-01 -5.624495e-01 -5.192082e-01 6.326162e-01
155 2 2 1.580811e+01 1.221991e+00 -6.134302e+00 -1 -1 1 -3.983097e-01 -7.349543e-01 -3.423461e-01 4.289414e-01
156 2 4 1.543879e+01 1.156286e+00 -6.494912e+00 -1 -1 1 -5.466418e-01 -7.792181e-01 -2.918421e-04 3.065971e-01
157 2 3 1.521839e+01 8.214218e-01 -6.938782e+00 -1 -1 1 -4.996615e-01 -8.516900e-01 1.373654e-01 7.805966e-02
158 2 2 1.529235e+01 5.796813e-01 -7.447793e+00 -1 -1 1 -4.912596e-01 -7.673009e-01 3.791335e-01 -1.617748e-01
159 2 1 1.545359e+01 1.845362e-01 -7.795943e+00 -1 -1 1 -4.599765e-01 -6.513402e-01 4.960780e-01 -3.436339e-01
160 2 3 1.574978e+01 -2.206095e-01 -7.927390e+00 -1 -1 1 3.056132e-01 4.460122e-01 -6.463815e-01 5.383909e-01
161 2 1 1.604016e+01 -7.760069e-01 -7.856644e+00 -1 -1 1 2.448823e-01 1.918553e-01 -7.516122e-01 5.816384e-01
162 2 1 1.602453e+01 -1.226291e+00 -7.522351e+00 -1 -1 1 -3.477248e-02 -1.295509e-01 -7.361074e-01 6.634406e-01
163 2 4 1.580270e+01 -1.677964e+00 -7.358084e+00 -1 -1 1 -1.793415e-01 -3.830939e-01 -6.616645e-01 6.190928e-01
164 2 4 1.541730e+01 -2.080175e+00 -7.306124e+00 -1 -1 1 -3.251007e-01 -5.824477e-01 -5.204355e-01 5.331145e-01
165 2 3 1.521532e+01 -2.506060e+00 -7.534248e+00 -1 -1 1 -2.585218e-01 -7.357119e-01 -4.262551e-01 4.584768e-01
166 2 3 1.471792e+01 -2.828465e+00 -7.744702e+00 -1 -1 1 -4.396814e-01 -7.927725e-01 -3.487023e-01 2.379050e-01
167 2 4 1.454897e+01 -3.068658e+00 -8.191293e+00 -1 -1 1 -4.617919e-01 -8.765433e-01 -1.212041e-01 6.107127e-02
168 2 2 1.452508e+01 -3.160856e+00 -8.707636e+00 -1 -1 1 -4.637919e-01 -8.546213e-01 2.329983e-01 -1.520541e-02
169 2 2 1.455282e+01 -3.437211e+00 -9.098646e+00 -1 -1 1 -4.053992e-01 -7.695236e-01 4.339963e-01 -2.348023e-01
170 2 1 1.478599e+01 -3.809813e+00 -9.423510e+00 -1 -1 1 -4.405409e-01 -5.668136e-01 5.998386e-01 -3.533266e-01
171 2 1 1.496091e+01 -4.328936e+00 -9.542671e+00 -1 -1 1 3.382980e-01 2.775718e-01 -7.507132e-01 4.949122e-01
172 2 4 1.503116e+01 -4.801191e+00 -9.449144e+00 -1 -1 1 1.558826e-01 -1.049434e-02 -8.210936e-01 5.489952e-01
173 2 4 1.485301e+01 -5.364760e+00 -9.374986e+00 -1 -1 1 1.604413e-01 -1.895735e-01 -7.036733e-01 6.657059e-01
174 2 1 1.454126e+01 -5.705134e+00 -9.101320e+00 -1 -1 1 -6.109375e-02 -4.474434e-01 -5.826237e-01 6.757304e-01
175 2 1 1.407332e+01 -5.951973e+00 -8.947320e+00 -1 -1 1 -1.797286e-01 -5.695535e-01 -4.655859e-01 6.530974e-01
176 2 2 1.363392e+01 -6.165750e+00 -9.017383e+00 -1 -1 1 -2.482443e-01 -7.687114e-01 -2.333846e-01 5.412847e-01
177 2 2 1.323002e+01 -6.275909e+00 -9.259213e+00 -1 -1 1 -2.676567e-01 -8.514381e-01 -4.424571e-02 4.488377e-01
178 2 1 1.286910e+01 -6.304418e+00 -9.689198e+00 -1 -1 1 -3.251496e-01 -8.710993e-01 2.489951e-01 2.710445e-01
179 2 4 1.267999e+01 -6.510426e+00 -1.020625e+01 -1 -1 1 -5.243028e-01 -7.123136e-01 4.541001e-01 1.072798e-01
180 2 1 1.248767e+01 -6.870477e+00 -1.058201e+01 -1 -1 1 -5.479444e-01 -6.600009e-01 5.117701e-01 -4.740339e-02
181 2 4 1.258911e+01 -7.238937e+00 -1.093141e+01 -1 -1 1 5.477223e-01 4.241575e-01 -6.969224e-01 1.854449e-01
182 2 2 1.251911e+01 -7.712994e+00 -1.107254e+01 -1 -1 1 4.634401e-01 1.938158e-01 -7.625463e-01 4.076540e-01
183 2 3 1.251132e+01 -8.194128e+00 -1.100168e+01 -1 -1 1 3.078505e-01 5.724996e-02 -7.565451e-01 5.740993e-01
184 2 4 1.235041e+01 -8.563068e+00 -1.065658e+01 -1 -1 1 8.362036e-02 -1.918572e-01 -6.978463e-01 6.849884e-01
185 2 3 1.205045e+01 -9.012306e+00 -1.049621e+01 -1 -1 1 -1.230231e-02 3.698502e-01 6.622501e-01 -6.515246e-01
186 2 1 1.160369e+01 -9.305804e+00 -1.027093e+01 -1 -1 1 2.180511e-01 5.803051e-01 4.359299e-01 -6.524299e-01
187 2 1 1.104592e+01 -9.477139e+00 -1.027530e+01 -1 -1 1 -2.788658e-01 -7.303875e-01 -2.306338e-01 5.792892e-01
188 2 2 1.061311e+01 -9.601864e+00 -1.056479e+01 -1 -1 1 4.647536e-01 7.875151e-01 -1.729865e-02 -4.043821e-01
189 2 4 1.036764e+01 -9.780700e+00 -1.092474e+01 -1 -1 1 4.699746e-01 8.222663e-01 -2.339370e-01 -2.197168e-01
190 2 4 1.026367e+01 -1.009604e+01 -1.144797e+01 -1 -1 1 -5.407389e-01 -7.270314e-01 4.229132e-01 1.308683e-02
191 2 1 1.032772e+01 -1.051567e+01 -1.179181e+01 -1 -1 1 -5.618034e-01 -5.781274e-01 5.571338e-01 -1.993681e-01
192 2 4 1.046170e+01 -1.094835e+01 -1.200912e+01 -1 -1 1 4.216189e-01 3.840232e-01 -7.325566e-01 3.716510e-01
193 2 4 1.054820e+01 -1.148896e+01 -1.206418e+01 -1 -1 1 -3.135482e-01 -1.917301e-01 7.581818e-01 -5.385976e-01
194 2 1 1.055030e+01 -1.199241e+01 -1.191677e+01 -1 -1 1 1.541176e-01 -7.157514e-02 -7.774732e-01 6.055247e-01
195 2 3 1.034027e+01 -1.244529e+01 -1.180036e+01 -1 -1 1 -4.590342e-02 3.249616e-01 7.277533e-01 -6.022192e-01
196 2 4 9.948997e+00 -1.288811e+01 -1.162094e+01 -1 -1 1 9.128865e-02 5.156587e-01 6.474831e-01 -5.536498e-01
197 2 2 9.457504e+00 -1.312304e+01 -1.160292e+01 -1 -1 1 2.428897e-01 6.913529e-01 4.466628e-01 -5.133499e-01
198 2 4 9.001977e+00 -1.337782e+01 -1.184947e+01 -1 -1 1 -4.299300e-01 -7.979749e-01 -2.849073e-01 3.118078e-01
199 2 3 8.706226e+00 -1.360238e+01 -1.226959e+01 -1 -1 1 5.549734e-01 8.293717e-01 -1.251091e-02 -6.317027e-02
200 2 4 8.188401e+00 -1.281000e+01 -1.257298e+01 -1 -1 1 5.946960e-01 4.183067e-01 5.314774e-01 4.346125e-01
