ITEM: TIMESTEP
117000000
ITEM: NUMBER OF ATOMS
200
ITEM: BOX BOUNDS pp pp pp
-2.0000000000000000e+01 2.0000000000000000e+01
-2.0000000000000000e+01 2.0000000000000000e+01
-2.0000000000000000e+01 2.0000000000000000e+01
ITEM: ATOMS id mol type x y z ix iy iz c_quat[1] c_quat[2] c_quat[3] c_quat[4]
1 1 1 7.330468e+00 -3.427911e+00 -8.220828e+00 -1 -1 1 5.639124e-01 -7.115593e-01 -1.930813e-01 -3.720293e-01
2 1 2 6.748308e+00 -3.569213e+00 -8.053692e+00 -1 -1 1 -8.290041e-01 1.285452e-01 4.034879e-01 3.652750e-01
3 1 1 6.411066e+00 -3.488384e+00 -7.655500e+00 -1 -1 1 -9.293176e-01 2.841741e-01 1.930576e-01 1.354350e-01
4 1 3 5.134539e+00 -3.309899e+00 -7.829278e+00 -1 -1 1 -2.936654e-01 3.052239e-02 -9.054795e-01 3.048540e-01
5 1 1 5.518358e+00 -3.571842e+00 -7.984642e+00 -1 -1 1 -4.033662e-01 -6.387288e-01 4.528293e-01 -4.735682e-01
6 1 2 4.248221e+00 -3.228860e+00 -8.446726e+00 -1 -1 1 -1.761072e-01 1.786580e-01 9.654293e-01 7.080789e-02
7 1 4 4.117464e+00 -3.852265e+00 -9.217670e+00 -1 -1 1 -8.278854e-01 -2.359409e-01 2.105487e-01 4.632569e-01
8 1 1 3.732693e+00 -4.168921e+00 -9.149219e+00 -1 -1 1 8.763861e-01 2.269577e-01 -4.183624e-01 -7.355612e-02
9 1 1 3.549946e+00 -4.585958e+00 -8.950142e+00 -1 -1 1 7.617934e-01 1.070012e-01 -4.592239e-01 4.442240e-01
10 1 4 3.463278e+00 -4.913824e+00 -8.594832e+00 -1 -1 1 -5.522557e-01 5.135107e-02 3.862323e-01 -7.370219e-01
11 1 1 4.022187e+00 -5.672213e+00 -9.136352e+00 -1 -1 1 7.574632e-01 -1.361288e-01 5.963043e-01 -2.283411e-01
12 1 1 4.409196e+00 -5.947422e+00 -8.992089e+00 -1 -1 1 7.271370e-01 7.658201e-02 6.807170e-01 4.506946e-02
13 1 3 4.767429e+00 -6.389884e+00 -9.138227e+00 -1 -1 1 6.893681e-01 4.316017e-01 5.593153e-01 1.601810e-01
14 1 4 5.103177e+00 -6.667349e+00 -9.427892e+00 -1 -1 1 5.582218e-01 5.945221e-01 5.377388e-01 2.139363e-01
15 1 4 5.382015e+00 -6.732331e+00 -9.929859e+00 -1 -1 1 -4.038535e-01 -7.331256e-01 -3.244855e-01 -4.406114e-01
16 1 2 5.712782e+00 -6.648996e+00 -1.023676e+01 -1 -1 1 -1.140389e-01 -8.499619e-01 -9.705711e-02 -5.051136e-01
17 1 1 6.285523e+00 -6.573607e+00 -1.033987e+01 -1 -1 1 1.148499e-01 7.454544e-01 3.352002e-03 6.565790e-01
18 1 2 6.811372e+00 -6.354107e+00 -1.028709e+01 -1 -1 1 -1.329048e-01 6.407771e-01 -1.757549e-01 7.354259e-01
19 1 3 7.292041e+00 -6.188938e+00 -1.004648e+01 -1 -1 1 -3.667213e-01 5.018809e-01 -3.910435e-01 6.787607e-01
20 1 1 7.709748e+00 -6.179174e+00 -9.713737e+00 -1 -1 1 -5.337864e-01 3.651723e-01 -5.759616e-01 4.999895e-01
21 1 4 8.049855e+00 -6.500078e+00 -9.465228e+00 -1 -1 1 6.416961e-01 -1.640382e-01 6.981219e-01 -2.719253e-01
22 1 1 8.393680e+00 -6.935132e+00 -9.394361e+00 -1 -1 1 6.853911e-01 1.231162e-01 7.056008e-01 -1.311827e-01
23 1 4 8.834162e+00 -7.321482e+00 -9.527053e+00 -1 -1 1 6.420383e-01 3.174941e-01 6.947882e-01 6.522070e-02
24 1 3 9.230938e+00 -7.583793e+00 -9.746960e+00 -1 -1 1 5.210763e-01 4.932708e-01 6.823326e-01 1.399486e-01
25 1 3 9.650017e+00 -7.724893e+00 -1.018706e+01 -1 -1 1 4.048901e-01 6.133338e-01 5.768290e-01 3.565867e-01
26 1 4 9.909694e+00 -7.547718e+00 -1.070758e+01 -1 -1 1 2.615088e-01 7.386185e-01 3.615632e-01 5.052998e-01
27 1 4 1.026249e+01 -7.293728e+00 -1.096326e+01 -1 -1 1 3.281151e-02 8.151702e-01 1.195751e-01 5.657939e-01
28 1 1 1.071539e+01 -6.862194e+00 -1.109457e+01 -1 -1 1 -9.818106e-02 7.455889e-01 -3.935517e-02 6.579581e-01
29 1 1 1.108010e+01 -6.559912e+00 -1.100353e+01 -1 -1 1 -2.793970e-01 7.624795e-01 -2.718240e-01 5.164050e-01
30 1 4 1.159757e+01 -6.424391e+00 -1.088928e+01 -1 -1 1 4.275383e-01 -6.082085e-01 4.346818e-01 -5.082767e-01
31 1 4 1.203994e+01 -6.452840e+00 -1.055780e+01 -1 -1 1 6.164918e-01 -3.353029e-01 6.524091e-01 -2.861331e-01
32 1 3 1.264857e+01 -6.508161e+00 -1.048871e+01 -1 -1 1 5.651980e-01 -2.444527e-01 7.422746e-01 -2.642396e-01
33 1 3 1.306628e+01 -6.689347e+00 -1.047364e+01 -1 -1 1 5.966281e-01 -8.462096e-03 7.807597e-01 -1.854120e-01
34 1 1 1.345564e+01 -7.092250e+00 -1.056008e+01 -1 -1 1 5.690221e-01 1.745260e-01 8.035756e-01 -4.547178e-03
35 1 2 1.377758e+01 -7.377547e+00 -1.089987e+01 -1 -1 1 5.274578e-01 4.001135e-01 6.964547e-01 2.768543e-01
36 1 2 1.419877e+01 -7.409072e+00 -1.127323e+01 -1 -1 1 3.807132e-01 4.939604e-01 6.588578e-01 4.206745e-01
37 1 1 1.436717e+01 -7.212864e+00 -1.173891e+01 -1 -1 1 1.917205e-01 7.643517e-01 3.552818e-01 5.027769e-01
38 1 1 1.480573e+01 -6.955869e+00 -1.207021e+01 -1 -1 1 1.207492e-01 7.620961e-01 1.423169e-01 6.199799e-01
39 1 4 1.536287e+01 -6.753048e+00 -1.218074e+01 -1 -1 1 3.820496e-02 -6.554019e-01 7.261755e-02 -7.508098e-01
40 1 4 1.568541e+01 -6.364739e+00 -1.189452e+01 -1 -1 1 4.260450e-01 -6.193596e-01 2.049436e-01 -6.267994e-01
41 1 2 1.594717e+01 -6.175016e+00 -1.147987e+01 -1 -1 1 6.618332e-01 -4.967671e-01 3.678985e-01 -4.240872e-01
42 1 4 1.640602e+01 -6.229137e+00 -1.118765e+01 -1 -1 1 7.400453e-01 -2.802309e-01 4.809762e-01 -3.774459e-01
43 1 3 1.680498e+01 -6.406811e+00 -1.090612e+01 -1 -1 1 7.544552e-01 -1.783210e-01 6.178341e-01 -1.314531e-01
44 1 2 1.738159e+01 -6.637754e+00 -1.082489e+01 -1 -1 1 7.122711e-01 -3.595369e-02 6.764968e-01 1.836555e-01
45 1 1 1.787437e+01 -6.805603e+00 -1.097533e+01 -1 -1 1 5.954146e-01 2.168145e-01 7.313628e-01 2.521537e-01
46 1 3 1.828030e+01 -6.856829e+00 -1.132980e+01 -1 -1 1 4.142507e-01 4.483706e-01 6.742341e-01 4.156544e-01
47 1 4 1.865755e+01 -6.679704e+00 -1.173200e+01 -1 -1 1 2.522808e-01 4.957560e-01 5.279658e-01 6.417418e-01
48 1 1 1.889050e+01 -6.290071e+00 -1.200905e+01 -1 -1 1 1.275479e-01 -7.188949e-01 -2.827713e-01 -6.220628e-01
49 1 4 1.916478e+01 -5.792483e+00 -1.205196e+01 -1 -1 1 3.574895e-01 -6.797246e-01 -6.733021e-02 -6.369006e-01
50 1 4 1.936822e+01 -5.367548e+00 -1.171776e+01 -1 -1 1 5.429950e-01 -6.160744e-01 9.868368e-02 -5.620234e-01
51 1 4 1.969493e+01 -5.103175e+00 -1.131826e+01 -1 -1 1 7.082159e-01 -4.741876e-01 2.522299e-01 -4.582100e-01
52 1 1 -1.990149e+01 -5.010110e+00 -1.101128e+01 0 -1 1 7.597378e-01 -2.901178e-01 2.971287e-01 -5.003446e-01
53 1 3 -1.971874e+01 -5.130387e+00 -1.053676e+01 0 -1 1 8.825755e-01 -1.352235e-01 3.962229e-01 -2.139687e-01
54 1 4 -1.941549e+01 -5.484715e+00 -1.027888e+01 0 -1 1 9.279867e-01 1.011608e-01 3.556224e-01 4.625915e-02
55 1 4 -1.896729e+01 -5.807231e+00 -1.008875e+01 0 -1 1 8.052942e-01 1.388981e-01 4.126894e-01 4.023631e-01
56 1 4 -1.847450e+01 -5.840494e+00 -1.003952e+01 0 -1 1 5.357891e-01 2.935944e-01 3.199000e-01 7.241521e-01
57 1 1 -1.794611e+01 -5.618368e+00 -1.003238e+01 0 -1 1 3.595098e-01 2.888247e-01 2.003405e-01 8.644054e-01
58 1 1 -1.756689e+01 -5.299686e+00 -9.934753e+00 0 -1 1 3.315799e-02 3.661806e-01 1.691425e-01 9.144414e-01
59 1 3 -1.725845e+01 -4.978286e+00 -9.594250e+00 0 -1 1 1.327883e-01 -2.801168e-01 -2.883004e-01 -9.059717e-01
60 1 4 -1.728241e+01 -4.609851e+00 -9.363182e+00 0 -1 1 4.827969e-01 -3.405911e-01 -1.364683e-01 -7.951612e-01
61 1 2 -1.724286e+01 -4.323549e+00 -8.924178e+00 0 -1 1 6.253699e-01 -2.187775e-01 -6.909391e-02 -7.458384e-01
62 1 3 -1.743767e+01 -4.216749e+00 -8.481271e+00 0 -1 1 8.773620e-01 -2.044562e-01 1.360341e-02 -4.338762e-01
63 1 2 -1.737763e+01 -4.159171e+00 -7.897225e+00 0 -1 1 8.966314e-01 -2.626971e-01 2.053863e-01 -2.913053e-01
64 1 4 -1.727881e+01 -4.404034e+00 -7.483493e+00 0 -1 1 9.648841e-01 -1.311250e-01 1.792437e-01 1.402731e-01
65 1 2 -1.706954e+01 -4.480209e+00 -6.960638e+00 0 -1 1 9.098350e-01 -1.863388e-02 2.719701e-01 3.128663e-01
66 1 1 -1.669162e+01 -4.442902e+00 -6.610736e+00 0 -1 1 7.913826e-01 -1.864327e-02 3.951818e-01 4.660445e-01
67 1 2 -1.616793e+01 -4.502895e+00 -6.511612e+00 0 -1 1 6.409578e-01 2.470569e-01 4.212619e-01 5.921777e-01
68 1 1 -1.568717e+01 -4.391017e+00 -6.492221e+00 0 -1 1 3.906005e-01 3.120231e-01 2.948859e-01 8.143188e-01
69 1 1 -1.525785e+01 -4.081423e+00 -6.371452e+00 0 -1 1 1.822044e-01 3.319199e-01 2.449142e-01 8.925513e-01
70 1 2 -1.499015e+01 -3.573718e+00 -6.233238e+00 0 -1 1 9.751454e-02 -3.332730e-01 -1.241153e-01 -9.295243e-01
71 1 3 -1.499763e+01 -3.097278e+00 -5.932082e+00 0 -1 1 4.154342e-01 -3.821103e-01 2.028747e-02 -8.252239e-01
72 1 4 -1.505899e+01 -2.871340e+00 -5.502774e+00 0 -1 1 6.780718e-01 -3.772980e-01 5.818684e-02 -6.280757e-01
73 1 1 -1.492121e+01 -2.700648e+00 -4.973742e+00 0 -1 1 7.785259e-01 -2.192245e-01 1.075020e-01 -5.781707e-01
74 1 1 -1.505144e+01 -2.770839e+00 -4.432130e+00 0 -1 1 9.592720e-01 -3.495612e-02 8.480691e-02 -2.671761e-01
75 1 3 -1.496996e+01 -3.042703e+00 -3.960926e+00 0 -1 1 9.908818e-01 -6.135816e-02 1.120863e-01 4.272205e-02
76 1 1 -1.474716e+01 -3.200111e+00 -3.507161e+00 0 -1 1 9.405801e-01 1.061969e-01 2.244068e-01 2.316741e-01
77 1 4 -1.431160e+01 -3.385200e+00 -3.271034e+00 0 -1 1 7.767697e-01 2.569925e-01 2.266457e-01 5.284084e-01
78 1 1 -1.380960e+01 -3.311436e+00 -3.206174e+00 0 -1 1 4.280307e-01 4.559443e-01 1.453954e-01 7.666581e-01
79 1 4 -1.322271e+01 -4.357565e+00 -2.514990e+00 0 -1 1 1.103077e-01 -5.751691e-01 7.746101e-01 -2.387297e-01
80 1 2 -1.283380e+01 -4.653555e+00 -2.786067e+00 0 -1 1 1.329582e-01 -2.512085e-01 9.464968e-01 -1.528403e-01
81 1 4 -1.270407e+01 -5.087585e+00 -3.029443e+00 0 -1 1 1.053994e-01 6.901671e-02 9.787483e-01 -1.618004e-01
82 1 4 -1.274450e+01 -5.425042e+00 -3.429630e+00 0 -1 1 -6.477763e-02 -4.223910e-01 -8.734564e-01 2.333743e-01
83 1 4 -1.231050e+01 -5.882199e+00 -3.179039e+00 0 -1 1 5.773974e-01 5.660526e-01 2.967312e-01 -5.080820e-01
84 1 4 -1.258848e+01 -6.217945e+00 -3.165380e+00 0 -1 1 6.074951e-01 7.156725e-01 1.061590e-01 -3.278611e-01
85 1 1 -1.333585e+01 -6.748384e+00 -2.997381e+00 0 -1 1 -3.715347e-01 -5.575100e-01 -2.181527e-01 7.096154e-01
86 1 1 -1.385264e+01 -6.867889e+00 -3.051409e+00 0 -1 1 -6.838892e-01 -4.863480e-01 3.271764e-02 5.428542e-01
87 1 3 -1.412276e+01 -7.297097e+00 -3.014075e+00 0 -1 1 -8.737969e-01 -4.306472e-01 2.048479e-01 9.518054e-02
88 1 2 -1.450718e+01 -7.343511e+00 -2.436611e+00 0 -1 1 -3.721734e-01 -4.421071e-01 8.806659e-02 -8.113400e-01
89 1 2 -1.479421e+01 -8.444699e+00 -3.640315e+00 0 -1 1 6.745665e-01 4.832217e-01 5.427696e-01 -1.298384e-01
90 1 3 -1.426848e+01 -8.826468e+00 -2.847956e+00 0 -1 1 -1.508996e-02 -9.923269e-01 -1.206359e-01 -2.250759e-02
91 1 3 -1.512885e+01 -9.944962e+00 -2.940359e+00 0 -1 1 -1.716652e-01 2.846229e-01 6.629680e-01 6.708162e-01
92 1 2 -1.350877e+01 -1.009210e+01 -3.406808e+00 0 -1 1 -8.006878e-01 -5.870773e-01 8.412589e-02 8.462984e-02
93 1 1 -1.358096e+01 -1.054673e+01 -3.469973e+00 0 -1 1 -7.934246e-01 -4.264446e-01 3.429263e-01 -2.665032e-01
94 1 2 -1.346645e+01 -1.100974e+01 -3.327330e+00 0 -1 1 -6.467874e-01 -1.983922e-01 4.840668e-01 -5.549648e-01
95 1 3 -1.350126e+01 -1.137875e+01 -2.985758e+00 0 -1 1 4.892558e-01 6.040929e-02 -4.139507e-01 7.652609e-01
96 1 2 -1.351663e+01 -1.183943e+01 -4.373667e+00 0 -1 1 6.965972e-01 3.844040e-01 4.227194e-01 4.339287e-01
97 1 2 -1.309320e+01 -1.189890e+01 -4.522160e+00 0 -1 1 3.795004e-01 5.687808e-01 1.283136e-01 7.183339e-01
98 1 4 -1.264120e+01 -1.172340e+01 -4.407713e+00 0 -1 1 1.606541e-02 4.786173e-01 -2.839916e-01 8.306721e-01
99 1 2 -1.234557e+01 -1.169942e+01 -3.995784e+00 0 -1 1 -3.730888e-01 3.907562e-01 -4.326379e-01 7.217609e-01
100 1 1 -1.161210e+01 -1.207826e+01 -4.895594e+00 0 -1 1 6.133188e-01 2.246418e-01 7.481235e-01 -1.169929e-01
101 2 4 -1.652949e+01 4.419024e+00 -3.926244e+00 0 -1 1 1.416067e-01 -5.022799e-02 2.917839e-01 9.446094e-01
102 2 3 -1.665693e+01 4.004764e+00 -3.455383e+00 0 -1 1 -7.671672e-01 -3.950012e-01 4.955709e-01 -9.918641e-02
103 2 1 -1.675005e+01 3.561940e+00 -3.544125e+00 0 -1 1 6.445198e-01 2.801706e-01 -5.619615e-01 4.362315e-01
104 2 3 -1.667892e+01 3.646475e+00 -3.807779e+00 0 -1 1 6.042354e-03 8.671423e-02 -3.097274e-01 9.468437e-01
105 2 3 -1.571602e+01 2.800552e+00 -3.398833e+00 0 -1 1 -9.534625e-01 -1.139089e-01 1.923618e-01 2.023140e-01
106 2 2 -1.565091e+01 2.544480e+00 -3.217100e+00 0 -1 1 4.129890e-01 2.381370e-01 -6.617802e-01 -5.785999e-01
107 2 3 -1.455864e+01 2.227216e+00 -3.397324e+00 0 -1 1 -7.515645e-01 3.493899e-01 -5.522624e-01 8.990961e-02
108 2 4 -1.411536e+01 2.188868e+00 -3.219766e+00 0 -1 1 6.837707e-01 -8.138225e-02 6.627562e-01 2.942598e-01
109 2 3 -1.318272e+01 2.247507e+00 -2.934755e+00 0 -1 1 5.086023e-02 -7.749372e-01 5.362019e-01 3.307160e-01
110 2 2 -1.345038e+01 2.331636e+00 -1.680413e+00 0 -1 1 4.596834e-01 5.717129e-01 -4.685538e-01 4.922326e-01
111 2 2 -1.299173e+01 2.549424e+00 -1.734646e+00 0 -1 1 3.331601e-01 9.371139e-01 7.662910e-02 7.035573e-02
112 2 3 -1.255259e+01 2.224486e+00 -1.567896e+00 0 -1 1 1.300863e-01 -7.893330e-01 1.177822e-01 5.883522e-01
113 2 3 -1.270838e+01 1.080651e+00 -1.932966e+00 0 -1 1 4.767125e-01 1.783682e-02 8.708921e-01 -1.182117e-01
114 2 2 -1.253510e+01 9.930735e-01 -1.320628e+00 0 -1 1 8.257143e-01 4.198283e-01 -2.143348e-01 3.098398e-01
115 2 4 -1.221529e+01 5.454585e-01 -1.121365e+00 0 -1 1 5.768426e-01 3.755738e-01 -3.751134e-01 6.208758e-01
116 2 4 -1.217205e+01 -1.206432e-01 -1.592180e+00 0 -1 1 4.378213e-01 1.314336e-01 -7.506719e-01 4.770005e-01
117 2 1 -1.247160e+01 -6.344869e-01 -2.692169e+00 0 -1 1 -3.864318e-01 -5.188493e-01 -2.215046e-01 7.296585e-01
118 2 1 -1.247488e+01 -1.307250e+00 -1.759312e+00 0 -1 1 -2.499354e-01 4.757775e-01 7.868644e-01 -3.033356e-01
119 2 1 -1.288996e+01 -1.198014e+00 -1.960783e+00 0 -1 1 -3.086908e-01 7.279101e-01 4.295343e-01 -4.362995e-01
120 2 1 -1.335772e+01 -8.590416e-01 -2.083636e+00 0 -1 1 -2.030935e-01 8.206032e-01 2.632545e-01 -4.648230e-01
121 2 3 -1.331800e+01 -2.354001e+00 -2.812179e+00 0 -1 1 -2.337980e-01 -5.294300e-01 7.354120e-01 3.524364e-01
122 2 1 -1.352582e+01 -2.357137e+00 -3.220351e+00 0 -1 1 2.854575e-01 3.459885e-01 -8.784837e-01 -1.645366e-01
123 2 4 -1.382511e+01 -2.300179e+00 -3.012902e+00 0 -1 1 2.422393e-01 7.357559e-01 -5.889249e-01 -2.305447e-01
124 2 1 -1.390356e+01 -2.353490e+00 -3.593873e+00 0 -1 1 -2.435077e-01 -5.434223e-01 8.029287e-01 -2.649032e-02
125 2 4 -1.380161e+01 -2.611224e+00 -4.029379e+00 0 -1 1 2.438496e-01 2.823897e-01 -9.219078e-01 1.043047e-01
126 2 2 -1.385396e+01 -3.009627e+00 -4.316799e+00 0 -1 1 1.671060e-01 2.068220e-02 -9.631666e-01 2.096614e-01
127 2 4 -1.409191e+01 -3.446817e+00 -4.627791e+00 0 -1 1 1.670165e-01 -2.693368e-01 -9.226574e-01 2.196965e-01
128 2 4 -1.433734e+01 -3.756164e+00 -4.864020e+00 0 -1 1 1.583396e-01 -4.410745e-01 -7.790706e-01 4.164503e-01
129 2 1 -1.482590e+01 -3.943479e+00 -5.093609e+00 0 -1 1 1.465110e-01 -6.127307e-01 -6.663733e-01 3.988010e-01
130 2 2 -1.536280e+01 -3.924628e+00 -5.171972e+00 0 -1 1 5.907346e-02 -8.188762e-01 -3.948190e-01 4.123955e-01
131 2 3 -1.585546e+01 -3.727170e+00 -5.426900e+00 0 -1 1 -3.039177e-02 -9.202133e-01 -9.458184e-02 3.786001e-01
132 2 4 -1.615690e+01 -3.503557e+00 -5.910694e+00 0 -1 1 2.110149e-01 9.359544e-01 -1.798634e-01 -2.170512e-01
133 2 4 -1.621870e+01 -3.367267e+00 -6.274461e+00 0 -1 1 1.393116e-01 8.326020e-01 -5.141623e-01 -1.516686e-01
134 2 3 -1.627162e+01 -3.369000e+00 -6.790029e+00 0 -1 1 2.021576e-01 7.293055e-01 -6.496018e-01 -7.254920e-02
135 2 4 -1.625780e+01 -3.544005e+00 -7.224468e+00 0 -1 1 -2.218450e-01 -4.532562e-01 8.616137e-01 -5.445701e-02
136 2 3 -1.618597e+01 -3.944494e+00 -7.573131e+00 0 -1 1 -1.722674e-01 -1.362117e-01 9.513773e-01 -2.159898e-01
137 2 1 -1.623413e+01 -4.351893e+00 -7.997193e+00 0 -1 1 2.774919e-01 9.278628e-02 -9.243013e-01 2.450635e-01
138 2 3 -1.643963e+01 -4.790721e+00 -8.167778e+00 0 -1 1 2.006249e-01 -2.050254e-01 -8.774712e-01 3.843936e-01
139 2 2 -1.671594e+01 -5.181191e+00 -8.209168e+00 0 -1 1 9.790098e-02 -4.640047e-01 -7.780059e-01 4.120945e-01
140 2 3 -1.717891e+01 -5.339842e+00 -8.338520e+00 0 -1 1 -3.239155e-03 -7.005405e-01 -5.561613e-01 4.471209e-01
141 2 1 -1.763868e+01 -5.379943e+00 -8.540710e+00 0 -1 1 6.001515e-02 -8.265626e-01 -3.404164e-01 4.441950e-01
142 2 2 -1.810921e+01 -5.293305e+00 -8.874330e+00 0 -1 1 1.243812e-01 -8.993476e-01 -2.612569e-01 3.277928e-01
143 2 4 -1.842666e+01 -4.997460e+00 -9.116828e+00 0 -1 1 1.368878e-01 9.006607e-01 -1.467931e-01 -3.853878e-01
144 2 4 -1.868293e+01 -4.771862e+00 -9.538156e+00 0 -1 1 -1.179463e-01 -8.788493e-01 3.803097e-01 2.628252e-01
145 2 1 -1.872105e+01 -4.671047e+00 -1.007128e+01 0 -1 1 -2.771120e-01 -6.983119e-01 6.434673e-01 1.466944e-01
146 2 1 -1.872223e+01 -4.848958e+00 -1.055411e+01 0 -1 1 -3.644027e-01 -4.227753e-01 8.295866e-01 -1.605508e-02
147 2 1 -1.864451e+01 -5.182356e+00 -1.110581e+01 0 -1 1 -3.851828e-01 -1.964286e-01 9.016729e-01 6.003435e-03
148 2 2 -1.891368e+01 -5.592388e+00 -1.136535e+01 0 -1 1 -4.157162e-01 3.111988e-02 8.834045e-01 -2.140284e-01
149 2 4 -1.932611e+01 -5.979411e+00 -1.141162e+01 0 -1 1 4.040838e-01 -2.486684e-01 -7.872587e-01 3.938325e-01
150 2 1 -1.985226e+01 -6.228254e+00 -1.128193e+01 0 -1 1 3.556822e-01 -4.679267e-01 -6.669303e-01 4.579725e-01
151 2 1 1.970305e+01 -6.274725e+00 -1.104103e+01 -1 -1 1 1.871961e-01 -5.904809e-01 -4.568235e-01 6.384373e-01
152 2 1 1.926216e+01 -6.242942e+00 -1.095208e+01 -1 -1 1 1.531642e-01 -7.075763e-01 -1.769813e-01 6.667490e-01
153 2 4 1.885720e+01 -5.982431e+00 -1.090689e+01 -1 -1 1 -4.540387e-02 -7.331950e-01 9.182778e-02 6.722583e-01
154 2 1 1.840649e+01 -5.736827e+00 -1.111768e+01 -1 -1 1 -2.751736e-01 -7.263705e-01 2.997021e-01 5.539350e-01
155 2 2 1.803480e+01 -5.700140e+00 -1.151231e+01 -1 -1 1 -5.456069e-01 -5.455542e-01 4.724356e-01 4.260146e-01
156 2 4 1.757256e+01 -5.929302e+00 -1.180947e+01 -1 -1 1 -6.916536e-01 -3.941839e-01 5.596740e-01 2.302159e-01
157 2 3 1.725831e+01 -6.297146e+00 -1.199262e+01 -1 -1 1 -7.009794e-01 -2.507604e-01 6.640192e-01 -6.946700e-02
158 2 2 1.698747e+01 -6.674463e+00 -1.203111e+01 -1 -1 1 -6.072326e-01 -6.970671e-02 7.268141e-01 -3.132904e-01
159 2 1 1.670442e+01 -7.167992e+00 -1.189940e+01 -1 -1 1 -5.306428e-01 2.102985e-01 6.662439e-01 -4.799081e-01
160 2 3 1.618417e+01 -7.349186e+00 -1.158956e+01 -1 -1 1 5.386689e-01 -4.516584e-01 -5.215623e-01 4.835424e-01
161 2 1 1.574206e+01 -7.348433e+00 -1.113948e+01 -1 -1 1 3.707279e-01 -5.699576e-01 -2.796276e-01 6.778773e-01
162 2 1 1.534394e+01 -6.997061e+00 -1.103808e+01 -1 -1 1 3.808693e-01 -6.167795e-01 -8.320331e-02 6.838120e-01
163 2 4 1.503921e+01 -6.506024e+00 -1.100488e+01 -1 -1 1 -8.312716e-02 -6.232338e-01 1.672333e-01 7.594093e-01
164 2 4 1.455961e+01 -6.215442e+00 -1.107473e+01 -1 -1 1 -3.570820e-01 -5.645957e-01 2.690585e-01 6.937807e-01
165 2 3 1.402541e+01 -6.233167e+00 -1.129947e+01 -1 -1 1 -5.695690e-01 -4.449652e-01 4.483234e-01 5.259308e-01
166 2 3 1.357608e+01 -6.341367e+00 -1.148226e+01 -1 -1 1 -6.253459e-01 -4.067565e-01 5.892222e-01 3.103368e-01
167 2 4 1.320141e+01 -6.671029e+00 -1.167392e+01 -1 -1 1 -7.364296e-01 -1.251257e-01 6.593353e-01 8.539254e-02
168 2 2 1.271691e+01 -6.888617e+00 -1.156115e+01 -1 -1 1 -8.176109e-01 -4.880894e-02 5.594164e-01 -1.272137e-01
169 2 2 1.245371e+01 -7.252083e+00 -1.138186e+01 -1 -1 1 -7.093917e-01 1.075797e-01 6.039548e-01 -3.470283e-01
170 2 1 1.212169e+01 -7.505675e+00 -1.109897e+01 -1 -1 1 -6.407018e-01 2.441488e-01 5.075810e-01 -5.217797e-01
171 2 1 1.175013e+01 -7.555514e+00 -1.065085e+01 -1 -1 1 5.310726e-01 -4.194608e-01 -3.222594e-01 6.619391e-01
172 2 4 1.135474e+01 -7.435893e+00 -1.028557e+01 -1 -1 1 4.048690e-01 -4.974989e-01 -1.761224e-01 7.466973e-01
173 2 4 1.094099e+01 -7.331884e+00 -1.001801e+01 -1 -1 1 3.110184e-01 -5.587233e-01 -2.000609e-02 7.685673e-01
174 2 1 1.055276e+01 -7.060295e+00 -9.847768e+00 -1 -1 1 1.009781e-02 -6.355942e-01 1.269311e-01 7.614503e-01
175 2 1 1.020538e+01 -6.643331e+00 -9.982430e+00 -1 -1 1 -2.797356e-01 -5.341211e-01 3.126735e-01 7.339604e-01
176 2 2 9.719247e+00 -6.480725e+00 -1.013797e+01 -1 -1 1 -5.136340e-01 -4.676219e-01 4.662005e-01 5.478749e-01
177 2 2 9.288127e+00 -6.595371e+00 -1.044587e+01 -1 -1 1 -6.208718e-01 -3.079898e-01 6.573371e-01 2.959198e-01
178 2 1 8.757484e+00 -6.655096e+00 -1.050459e+01 -1 -1 1 -6.683994e-01 -2.998564e-01 6.548885e-01 1.856055e-01
179 2 4 8.341458e+00 -6.984335e+00 -1.057159e+01 -1 -1 1 -7.324948e-01 3.273778e-02 6.792463e-01 3.168552e-02
180 2 1 7.893241e+00 -7.265914e+00 -1.036501e+01 -1 -1 1 -7.087814e-01 2.558320e-01 6.221092e-01 -2.125069e-01
181 2 4 7.449381e+00 -7.372380e+00 -1.003278e+01 -1 -1 1 6.775022e-01 -4.296511e-01 -4.183565e-01 4.258738e-01
182 2 2 7.043805e+00 -7.319839e+00 -9.673788e+00 -1 -1 1 5.668905e-01 -5.515361e-01 -2.510967e-01 5.580264e-01
183 2 3 6.730636e+00 -6.998100e+00 -9.321608e+00 -1 -1 1 4.139615e-01 -5.956325e-01 -8.569441e-02 6.830185e-01
184 2 4 6.578491e+00 -6.591131e+00 -9.167717e+00 -1 -1 1 8.963220e-02 -5.165776e-01 1.112102e-01 8.442428e-01
185 2 3 6.192291e+00 -6.164543e+00 -9.211939e+00 -1 -1 1 -1.791537e-02 -5.990103e-01 3.494096e-01 7.202628e-01
186 2 1 5.882004e+00 -5.728435e+00 -9.506890e+00 -1 -1 1 -2.543848e-01 -4.671746e-01 5.006618e-01 6.829158e-01
187 2 1 5.462005e+00 -5.549347e+00 -9.743486e+00 -1 -1 1 -4.830117e-01 -3.595985e-01 6.211215e-01 5.015941e-01
188 2 2 5.042182e+00 -5.606593e+00 -1.000738e+01 -1 -1 1 -5.840264e-01 -1.605352e-01 7.222068e-01 3.340043e-01
189 2 4 4.618326e+00 -5.737440e+00 -1.012760e+01 -1 -1 1 6.359554e-01 8.804282e-02 -7.654223e-01 -4.402076e-02
190 2 4 4.225395e+00 -6.031475e+00 -1.012463e+01 -1 -1 1 -5.215817e-01 3.424235e-01 7.553913e-01 -2.002065e-01
191 2 1 3.611584e+00 -6.189608e+00 -1.051680e+01 -1 -1 1 -2.504213e-01 4.608612e-01 6.716709e-01 -5.232154e-01
192 2 4 3.808329e+00 -6.860364e+00 -1.051747e+01 -1 -1 1 4.043052e-02 -5.967611e-01 -1.149185e-01 -7.931174e-01
193 2 4 4.569787e+00 -8.292088e+00 -1.087337e+01 -1 -1 1 -7.816822e-01 -4.391642e-01 4.139265e-01 1.573932e-01
194 2 1 4.103140e+00 -8.306251e+00 -1.075252e+01 -1 -1 1 1.071987e-01 -7.235216e-01 -6.423211e-01 -2.290166e-01
195 2 3 4.138023e+00 -8.616009e+00 -1.130808e+01 -1 -1 1 -1.556263e-01 -7.826675e-01 -2.226153e-01 -5.600486e-01
196 2 4 4.351283e+00 -9.110395e+00 -1.176728e+01 -1 -1 1 1.590531e-01 -8.879607e-01 -4.301992e-01 3.400757e-02
197 2 2 4.184863e+00 -8.708641e+00 -1.211371e+01 -1 -1 1 2.300865e-01 -9.685067e-01 -5.807468e-02 7.538162e-02
198 2 4 4.357448e+00 -9.269733e+00 -1.282823e+01 -1 -1 1 -3.807532e-01 5.839915e-01 -6.930899e-01 1.833230e-01
199 2 3 3.583010e+00 -8.311566e+00 -1.223505e+01 -1 -1 1 -7.003144e-01 5.205285e-01 4.459089e-01 -1.994370e-01
200 2 4 3.232590e+00 -8.049435e+00 -1.203528e+01 -1 -1 1 -5.237984e-01 6.819700e-01 1.382975e-01 -4.913512e-01
