ITEM: TIMESTEP
187000000
ITEM: NUMBER OF ATOMS
200
ITEM: BOX BOUNDS pp pp pp
-2.0000000000000000e+01 2.0000000000000000e+01
-2.0000000000000000e+01 2.0000000000000000e+01
-2.0000000000000000e+01 2.0000000000000000e+01
ITEM: ATOMS id mol type x y z ix iy iz c_quat[1] c_quat[2] c_quat[3] c_quat[4]
1 1 1 -1.422241e+01 -1.389386e+01 -9.596648e-01 0 -1 1 3.695749e-02 -5.520478e-01 -3.933371e-01 7.342774e-01
2 1 2 -1.409966e+01 -1.384812e+01 -7.498374e-01 0 -1 1 6.630778e-01 -1.910311e-01 5.205748e-01 5.028289e-01
3 1 1 -1.407476e+01 -1.288315e+01 -8.721961e-01 0 -1 1 -6.235820e-01 -2.102468e-01 -4.997776e-01 -5.631733e-01
4 1 3 -1.427284e+01 -1.221954e+01 -3.607104e-02 0 -1 1 -7.472295e-01 5.857438e-01 3.109103e-01 -4.344029e-02
5 1 1 -1.452479e+01 -1.186274e+01 2.494650e-01 0 -1 1 -6.798840e-01 6.840690e-01 8.129305e-02 -2.513937e-01
6 1 2 -1.472244e+01 -1.142821e+01 5.677793e-01 0 -1 1 5.476613e-01 -7.524388e-01 7.682230e-02 3.577727e-01
7 1 4 -1.463786e+01 -1.089271e+01 6.204452e-01 0 -1 1 -3.000461e-01 6.786050e-01 -3.717512e-01 -5.579145e-01
8 1 1 -1.457792e+01 -1.044929e+01 3.790449e-01 0 -1 1 1.462038e-01 -5.161138e-01 6.091064e-01 5.841578e-01
9 1 1 -1.460410e+01 -1.004432e+01 8.800138e-02 0 -1 1 5.564541e-02 3.453114e-01 -7.294780e-01 -5.878142e-01
10 1 4 -1.478664e+01 -9.899436e+00 -4.244495e-01 0 -1 1 -1.963129e-01 -1.708424e-01 8.101330e-01 5.253176e-01
11 1 1 -1.505220e+01 -9.636621e+00 -7.894433e-01 0 -1 1 -3.886881e-01 -5.900147e-03 8.494555e-01 3.568082e-01
12 1 1 -1.547697e+01 -9.584579e+00 -1.093486e+00 0 -1 1 5.314651e-01 -2.550308e-01 -7.915630e-01 -1.610349e-01
13 1 3 -1.596668e+01 -9.286136e+00 -1.150576e+00 0 -1 1 -6.685202e-01 3.808330e-01 6.254159e-01 1.300073e-01
14 1 4 -1.641636e+01 -9.124830e+00 -9.887743e-01 0 -1 1 7.150947e-01 -5.110434e-01 -4.766832e-01 1.572752e-02
15 1 4 -1.678031e+01 -8.772247e+00 -7.469099e-01 0 -1 1 7.440277e-01 -6.119992e-01 -2.268857e-01 1.428379e-01
16 1 2 -1.694448e+01 -8.477260e+00 -3.384397e-01 0 -1 1 -6.251737e-01 6.660076e-01 -1.001194e-02 -4.068065e-01
17 1 1 -1.699449e+01 -7.995995e+00 -1.382802e-01 0 -1 1 -5.864108e-01 5.904719e-01 -2.166149e-01 -5.104345e-01
18 1 2 -1.691659e+01 -7.405273e+00 4.808451e-02 0 -1 1 5.128860e-01 -5.885083e-01 3.695108e-01 5.040513e-01
19 1 3 -1.676918e+01 -6.878563e+00 4.736167e-03 0 -1 1 1.656769e-01 -4.516876e-01 5.616688e-01 6.730956e-01
20 1 1 -1.673232e+01 -6.395196e+00 -1.865369e-01 0 -1 1 -5.672939e-02 -2.905248e-01 6.986659e-01 6.513394e-01
21 1 4 -1.702961e+01 -6.090555e+00 -5.089213e-01 0 -1 1 3.101742e-01 1.202034e-01 -7.092903e-01 -6.214905e-01
22 1 1 -1.751125e+01 -5.962717e+00 -7.310724e-01 0 -1 1 5.297752e-01 -2.947794e-02 -7.482265e-01 -3.982792e-01
23 1 4 -1.804175e+01 -5.880757e+00 -8.124725e-01 0 -1 1 7.070045e-01 -1.005524e-01 -6.669715e-01 -2.125624e-01
24 1 3 -1.860286e+01 -5.875753e+00 -6.909071e-01 0 -1 1 7.501692e-01 -3.867431e-01 -5.213863e-01 -1.258268e-01
25 1 3 -1.899951e+01 -5.818164e+00 -4.402269e-01 0 -1 1 7.303289e-01 -5.343499e-01 -3.936106e-01 1.617423e-01
26 1 4 -1.938719e+01 -5.516938e+00 -1.409646e-01 0 -1 1 7.614296e-01 -5.506116e-01 -2.128954e-01 2.678196e-01
27 1 4 -1.952328e+01 -5.141864e+00 2.625436e-01 0 -1 1 6.553594e-01 -6.006942e-01 6.180957e-02 4.537071e-01
28 1 1 -1.949884e+01 -4.612798e+00 4.667705e-01 0 -1 1 4.942063e-01 -5.824201e-01 2.840596e-01 5.795318e-01
29 1 1 -1.945463e+01 -4.115924e+00 4.276019e-01 0 -1 1 2.605423e-01 -4.092477e-01 5.812064e-01 6.533247e-01
30 1 4 -1.946778e+01 -3.643826e+00 2.307578e-01 0 -1 1 -3.494037e-02 3.079877e-01 -7.060057e-01 -6.367721e-01
31 1 4 -1.962177e+01 -3.258241e+00 -1.757763e-01 0 -1 1 1.900942e-01 1.227497e-01 -7.305986e-01 -6.442223e-01
32 1 3 1.996846e+01 -2.881031e+00 -3.149863e-01 -1 -1 1 4.435934e-01 4.564733e-02 -6.945746e-01 -5.645418e-01
33 1 3 1.953061e+01 -2.606353e+00 -4.047521e-01 -1 -1 1 6.422291e-01 -5.100335e-02 -6.513879e-01 -4.007920e-01
34 1 1 1.903401e+01 -2.626081e+00 -4.149907e-01 -1 -1 1 7.134332e-01 -2.194149e-01 -6.496846e-01 -1.441527e-01
35 1 2 1.849649e+01 -2.577203e+00 -2.200590e-01 -1 -1 1 7.858961e-01 -3.528936e-01 -4.971233e-01 1.034496e-01
36 1 2 1.808675e+01 -2.444556e+00 1.843719e-01 -1 -1 1 7.494945e-01 -5.289136e-01 -2.610443e-01 3.006066e-01
37 1 1 1.791169e+01 -2.179433e+00 6.396479e-01 -1 -1 1 5.568273e-01 -6.430051e-01 -6.708004e-02 5.215247e-01
38 1 1 1.786626e+01 -1.783076e+00 1.016018e+00 -1 -1 1 6.479368e-01 -4.377062e-01 1.945067e-01 5.922485e-01
39 1 4 1.802757e+01 -1.302021e+00 1.327094e+00 -1 -1 1 -4.418192e-01 4.454759e-01 -3.536539e-01 -6.937406e-01
40 1 4 1.801166e+01 -7.873456e-01 1.512728e+00 -1 -1 1 -3.121935e-01 4.680464e-01 -4.021951e-01 -7.222928e-01
41 1 2 1.809478e+01 -2.423844e-01 1.480575e+00 -1 -1 1 -4.677826e-02 2.759888e-01 -5.457366e-01 -7.898187e-01
42 1 4 1.804745e+01 2.159738e-01 1.182378e+00 -1 -1 1 -1.780037e-01 -3.633064e-02 6.050883e-01 7.751535e-01
43 1 3 1.773352e+01 6.288653e-01 1.010745e+00 -1 -1 1 4.357952e-01 -1.723115e-01 -6.006943e-01 -6.477327e-01
44 1 2 1.727681e+01 9.293109e-01 1.003795e+00 -1 -1 1 6.455680e-01 -2.882192e-01 -5.389399e-01 -4.579470e-01
45 1 1 1.681793e+01 1.326505e+00 1.132091e+00 -1 -1 1 7.866479e-01 -2.506906e-01 -4.294317e-01 -3.659614e-01
46 1 3 1.642894e+01 1.467278e+00 1.435463e+00 -1 -1 1 8.979176e-01 -2.230875e-01 -3.466292e-01 -1.543510e-01
47 1 4 1.604764e+01 1.609057e+00 1.809449e+00 -1 -1 1 9.691460e-01 -1.269307e-01 -1.983230e-01 -7.288751e-02
48 1 1 1.596888e+01 1.437705e+00 2.241892e+00 -1 -1 1 -8.592755e-01 2.865514e-01 2.082255e-01 -3.690204e-01
49 1 4 1.592189e+01 1.634526e+00 2.773748e+00 -1 -1 1 -7.280385e-01 4.046810e-01 2.299321e-02 -5.528693e-01
50 1 4 1.592313e+01 1.950286e+00 3.207745e+00 -1 -1 1 -5.753284e-01 3.577089e-01 -1.925582e-01 -7.099035e-01
51 1 4 1.606119e+01 2.395671e+00 3.568234e+00 -1 -1 1 -3.976568e-01 3.544621e-01 -3.410995e-01 -7.745171e-01
52 1 1 1.602844e+01 2.930854e+00 3.633847e+00 -1 -1 1 -9.971446e-02 3.107584e-01 -4.711048e-01 -8.194794e-01
53 1 3 1.588019e+01 3.457591e+00 3.617913e+00 -1 -1 1 1.781721e-01 1.835644e-01 -5.072241e-01 -8.229717e-01
54 1 4 1.559545e+01 3.945945e+00 3.679304e+00 -1 -1 1 3.918517e-01 2.126747e-01 -5.487321e-01 -7.071880e-01
55 1 4 1.506274e+01 4.072506e+00 3.588449e+00 -1 -1 1 6.785677e-01 3.003412e-02 -5.613424e-01 -4.727986e-01
56 1 4 1.458067e+01 3.908391e+00 3.658237e+00 -1 -1 1 7.881061e-01 -2.687308e-01 -5.328156e-01 -1.509305e-01
57 1 1 1.421046e+01 3.935236e+00 3.883199e+00 -1 -1 1 7.095767e-01 -5.586642e-01 -3.886263e-01 1.826603e-01
58 1 1 1.390205e+01 4.174159e+00 4.141804e+00 -1 -1 1 5.912894e-01 -6.929941e-01 -1.859149e-01 3.682006e-01
59 1 3 1.356393e+01 4.544742e+00 4.327524e+00 -1 -1 1 -6.035393e-01 6.780986e-01 -2.844463e-02 -4.184657e-01
60 1 4 1.285927e+01 3.246388e+00 3.906305e+00 -1 -1 1 7.639274e-01 3.953499e-01 -1.229807e-01 -4.949637e-01
61 1 2 1.387056e+01 3.371298e+00 4.833359e+00 -1 -1 1 3.059663e-01 -8.474403e-01 4.322849e-01 -3.687002e-02
62 1 3 1.315936e+01 3.316637e+00 4.902642e+00 -1 -1 1 -6.353384e-01 -5.587455e-01 -4.079626e-01 -3.430964e-01
63 1 2 1.363924e+01 2.127766e+00 5.774499e+00 -1 -1 1 8.647541e-02 -6.412080e-01 7.108296e-01 -2.758542e-01
64 1 4 1.293231e+01 2.529789e+00 6.004266e+00 -1 -1 1 5.419799e-01 -6.340916e-01 -4.212697e-01 3.559740e-01
65 1 2 1.260106e+01 2.495923e+00 5.508921e+00 -1 -1 1 -2.965274e-01 -7.701853e-01 4.975910e-01 2.670005e-01
66 1 1 1.169248e+01 2.338883e+00 5.106569e+00 -1 -1 1 6.151988e-01 6.946281e-01 -9.478682e-02 -3.606074e-01
67 1 2 1.127400e+01 1.932474e+00 5.088413e+00 -1 -1 1 6.242604e-01 7.378953e-01 -1.221037e-01 -2.256106e-01
68 1 1 1.122779e+01 2.322521e+00 5.164556e+00 -1 -1 1 3.480079e-01 -2.164135e-01 -5.827062e-01 7.017900e-01
69 1 1 1.078700e+01 2.850306e+00 4.415601e+00 -1 -1 1 -2.154911e-01 -7.688868e-01 -3.526690e-01 -4.878537e-01
70 1 2 1.014383e+01 1.871594e+00 4.196998e+00 -1 -1 1 1.122558e-01 1.808765e-02 -9.210252e-01 3.725373e-01
71 1 3 9.575201e+00 2.834001e+00 4.020388e+00 -1 -1 1 -8.634808e-02 6.190995e-01 7.657953e-01 1.510541e-01
72 1 4 9.287456e+00 2.990985e+00 3.688463e+00 -1 -1 1 -1.198574e-01 9.198788e-01 3.706836e-01 4.528588e-02
73 1 1 9.112826e+00 3.328988e+00 3.504535e+00 -1 -1 1 3.165020e-03 9.860301e-01 -1.029246e-01 -1.309245e-01
74 1 1 9.122665e+00 3.375212e+00 2.945034e+00 -1 -1 1 1.771402e-01 8.860005e-01 -4.156114e-01 1.043630e-01
75 1 3 9.412385e+00 3.329747e+00 2.620082e+00 -1 -1 1 3.084183e-02 6.928845e-01 -6.826011e-01 2.302513e-01
76 1 1 9.167746e+00 3.858645e+00 1.147394e+00 -1 -1 1 6.145871e-01 -1.374573e-01 4.588784e-01 6.267526e-01
77 1 4 9.304900e+00 3.329330e+00 1.066035e+00 -1 -1 1 7.601925e-01 1.413940e-01 -3.533108e-01 -5.265802e-01
78 1 1 1.048497e+01 3.538177e+00 1.123266e+00 -1 -1 1 9.187933e-01 -1.893552e-01 -2.077837e-01 2.771091e-01
79 1 4 9.414641e+00 3.129809e+00 5.871918e-01 -1 -1 1 -8.511068e-01 1.864845e-02 3.731053e-01 3.688657e-01
80 1 2 9.160620e+00 2.651919e+00 6.306907e-01 -1 -1 1 5.810789e-01 -1.340331e-01 -3.017498e-01 -7.438612e-01
81 1 4 8.990228e+00 2.326914e+00 -3.483789e-01 -1 -1 1 2.382193e-01 1.734390e-01 9.480157e-01 -1.201530e-01
82 1 4 8.920716e+00 1.981903e+00 -8.310239e-01 -1 -1 1 -3.406916e-01 -4.193136e-01 -4.093259e-02 8.404938e-01
83 1 4 9.785047e+00 1.337775e+00 -3.344159e-01 -1 -1 1 6.361425e-01 -6.457640e-01 -1.070832e-01 -4.084663e-01
84 1 4 9.871042e+00 1.089025e+00 -7.439916e-02 -1 -1 1 -2.886684e-01 2.799163e-01 6.641746e-01 -6.302297e-01
85 1 1 1.055232e+01 1.332204e+00 -1.578799e+00 -1 -1 1 -5.884010e-01 -3.740674e-01 -5.724569e-01 -4.314522e-01
86 1 1 1.048271e+01 3.118871e-01 -1.163681e+00 -1 -1 1 2.219756e-01 -2.863181e-01 -9.215527e-01 1.396046e-01
87 1 3 1.011745e+01 8.089929e-02 -1.270323e+00 -1 -1 1 -9.117125e-03 -7.061178e-01 -6.647062e-01 2.438855e-01
88 1 2 9.710790e+00 -9.939314e-02 -1.649205e+00 -1 -1 1 -1.513986e-01 -8.972317e-01 -3.295654e-01 2.518736e-01
89 1 2 9.445176e+00 -3.748390e-01 -5.341505e-01 -1 -1 1 -1.723120e-01 6.884333e-01 6.889969e-01 -1.471446e-01
90 1 3 9.098069e+00 -8.483019e-01 -5.046781e-01 -1 -1 1 8.855595e-01 -1.652264e-01 -2.625448e-01 -3.457670e-01
91 1 3 8.488867e+00 -5.359753e-01 -8.865441e-01 -1 -1 1 -4.419568e-01 5.618106e-01 6.615742e-01 -2.266335e-01
92 1 2 8.410220e+00 -1.250999e+00 -6.366303e-01 -1 -1 1 -8.672828e-01 -2.489696e-01 4.289828e-01 -4.252515e-02
93 1 1 7.701366e+00 -1.533602e+00 -1.147203e-01 -1 -1 1 -8.249453e-01 -4.265290e-02 5.626770e-01 -3.225891e-02
94 1 2 7.331142e+00 -1.765026e+00 2.270995e-01 -1 -1 1 8.516784e-01 -1.073450e-01 -4.190836e-01 2.957869e-01
95 1 3 6.877878e+00 -1.984014e+00 4.301277e-01 -1 -1 1 -3.779142e-01 6.251559e-01 -6.685278e-01 -1.393970e-01
96 1 2 6.612378e+00 -2.512220e+00 4.568995e-01 -1 -1 1 5.999094e-01 6.877383e-01 -9.848450e-02 -3.967690e-01
97 1 2 6.239396e+00 -2.838386e+00 2.298609e-01 -1 -1 1 -7.361194e-01 -5.505875e-01 3.713818e-01 1.306029e-01
98 1 4 5.578243e+00 -3.149183e+00 5.326991e-01 -1 -1 1 -1.612671e-01 -1.430020e-01 4.145349e-01 8.841404e-01
99 1 2 4.911739e+00 -3.368394e+00 5.783208e-01 -1 -1 1 -1.147736e-01 4.357566e-01 8.743994e-01 -1.799134e-01
100 1 1 4.531642e+00 -3.305122e+00 2.644029e-01 -1 -1 1 -4.743386e-02 -8.724672e-01 -4.830505e-01 5.668550e-02
101 2 4 1.150413e+01 1.554626e+01 -2.495778e+00 -1 -1 1 7.905113e-01 5.059764e-01 2.581080e-02 3.441128e-01
102 2 3 1.148225e+01 1.427148e+01 -2.581307e+00 -1 -1 1 -9.011477e-01 8.487655e-02 -3.555387e-01 2.330688e-01
103 2 1 1.187908e+01 1.415385e+01 -2.190206e+00 -1 -1 1 8.584043e-01 -7.530454e-03 4.586592e-01 2.296020e-01
104 2 3 1.203468e+01 1.396104e+01 -1.296489e+00 -1 -1 1 4.474837e-01 -8.326820e-01 -3.228676e-01 4.642794e-02
105 2 3 1.285951e+01 1.340161e+01 -2.133791e+00 -1 -1 1 5.308954e-01 6.429034e-01 -5.501816e-01 4.610203e-02
106 2 2 1.262725e+01 1.417935e+01 -2.004750e+00 -1 -1 1 -3.601604e-01 2.166303e-01 -1.315890e-01 8.977974e-01
107 2 3 1.276559e+01 1.424536e+01 -3.023564e+00 -1 -1 1 4.826014e-01 3.473658e-02 9.439779e-02 -8.700450e-01
108 2 4 1.316250e+01 1.306506e+01 -3.229756e+00 -1 -1 1 -6.423952e-01 2.318633e-01 -6.897973e-01 2.403073e-01
109 2 3 1.374918e+01 1.299555e+01 -3.340970e+00 -1 -1 1 -3.087276e-01 7.856527e-01 -3.910931e-01 3.667196e-01
110 2 2 1.427502e+01 1.296704e+01 -3.293808e+00 -1 -1 1 -4.555728e-01 4.211005e-01 -7.395449e-01 2.611534e-01
111 2 2 1.472753e+01 1.281110e+01 -3.387199e+00 -1 -1 1 4.842686e-01 -8.007290e-02 8.591067e-01 1.449410e-01
112 2 3 1.479705e+01 1.271276e+01 -2.832740e+00 -1 -1 1 -5.085463e-01 -1.360700e-01 -8.058772e-01 -2.709752e-01
113 2 3 1.456197e+01 1.271900e+01 -2.953056e+00 -1 -1 1 -2.565260e-01 1.202422e-01 -1.320589e-01 -9.498930e-01
114 2 2 1.391325e+01 1.205330e+01 -2.311935e+00 -1 -1 1 4.622919e-01 -4.161056e-01 -6.617090e-01 4.186687e-01
115 2 4 1.399207e+01 1.110681e+01 -3.086788e+00 -1 -1 1 -5.133191e-01 -3.304161e-01 -5.940474e-01 5.238668e-01
116 2 4 1.501943e+01 1.055681e+01 -2.064907e+00 -1 -1 1 9.378288e-01 -3.411108e-01 5.598884e-02 -3.139818e-02
117 2 1 1.459322e+01 1.093904e+01 -2.015270e+00 -1 -1 1 -6.082508e-01 6.015041e-01 -2.157852e-01 -4.708083e-01
118 2 1 1.473255e+01 1.141006e+01 -1.919520e+00 -1 -1 1 -3.396582e-01 4.598499e-01 -4.652459e-01 -6.758082e-01
119 2 1 1.477368e+01 1.182080e+01 -2.179396e+00 -1 -1 1 -2.705816e-03 7.937731e-02 -6.316970e-01 -7.711361e-01
120 2 1 1.564480e+01 1.161046e+01 -1.258819e+00 -1 -1 1 -9.127271e-01 1.437885e-01 -5.550376e-02 3.783828e-01
121 2 3 1.580243e+01 1.143355e+01 -7.626018e-01 -1 -1 1 -9.549796e-01 -2.177940e-02 -2.955525e-01 1.372560e-02
122 2 1 1.566889e+01 1.141638e+01 -6.671527e-01 -1 -1 1 7.362498e-01 -3.011546e-02 -3.632207e-01 5.701754e-01
123 2 4 1.574274e+01 1.137692e+01 -3.667715e-02 -1 -1 1 -5.971767e-01 1.129298e-01 3.205912e-01 -7.265315e-01
124 2 1 1.571484e+01 1.003086e+01 4.371361e-01 -1 -1 1 -4.785322e-01 -3.497994e-01 7.904368e-01 -1.544568e-01
125 2 4 1.547434e+01 9.583892e+00 2.641309e-01 -1 -1 1 5.924043e-01 1.044446e-01 -7.712685e-01 2.080703e-01
126 2 2 1.525091e+01 9.200688e+00 2.472193e-01 -1 -1 1 -3.721132e-01 2.456587e-01 6.733402e-01 -5.897427e-01
127 2 4 1.494039e+01 9.035608e+00 5.598990e-01 -1 -1 1 -1.330820e-01 4.159387e-01 4.149262e-01 -7.981982e-01
128 2 4 1.455208e+01 9.029983e+00 8.652434e-01 -1 -1 1 -1.279317e-01 -5.613478e-01 -1.578380e-01 8.022526e-01
129 2 1 1.405397e+01 9.032030e+00 8.468174e-01 -1 -1 1 4.539889e-01 6.108716e-01 -3.346778e-02 -6.477730e-01
130 2 2 1.445444e+01 9.259806e+00 1.632958e+00 -1 -1 1 -4.017668e-01 -7.316574e-01 -4.843931e-01 -2.619622e-01
131 2 3 1.502059e+01 8.736026e+00 2.662899e+00 -1 -1 1 -5.432476e-01 7.131686e-01 1.355118e-01 -4.217927e-01
132 2 4 1.479134e+01 9.111187e+00 2.920177e+00 -1 -1 1 4.697195e-01 -5.945997e-01 2.259366e-01 6.121825e-01
133 2 4 1.490991e+01 9.555487e+00 3.096151e+00 -1 -1 1 -2.952089e-01 5.026101e-01 -4.517281e-01 -6.754085e-01
134 2 3 1.527356e+01 8.598995e+00 3.913359e+00 -1 -1 1 1.219788e-01 7.603384e-01 -6.378623e-01 -1.176526e-02
135 2 4 1.464917e+01 8.891182e+00 4.568515e+00 -1 -1 1 -2.314292e-01 5.026613e-02 4.909022e-01 8.384085e-01
136 2 3 1.514600e+01 8.043874e+00 4.660658e+00 -1 -1 1 5.429206e-01 4.058160e-01 6.726011e-01 -2.969146e-01
137 2 1 1.509474e+01 7.651476e+00 4.419630e+00 -1 -1 1 -5.446664e-01 -7.030463e-01 -4.498094e-01 8.207233e-02
138 2 3 1.514271e+01 7.455686e+00 3.995397e+00 -1 -1 1 5.222558e-01 8.290449e-01 1.569405e-02 1.992164e-01
139 2 2 1.503009e+01 6.724043e+00 3.457072e+00 -1 -1 1 -8.117833e-01 -5.418768e-01 1.134905e-01 -1.857345e-01
140 2 3 1.532243e+01 6.215151e+00 3.433429e+00 -1 -1 1 6.454691e-01 4.674921e-01 -3.054430e-01 5.210810e-01
141 2 1 1.501536e+01 5.627095e+00 3.848991e+00 -1 -1 1 8.280609e-02 1.429669e-01 -9.628470e-01 -2.136102e-01
142 2 2 1.559063e+01 5.667055e+00 4.209925e+00 -1 -1 1 4.464588e-01 -2.892458e-01 -6.717189e-01 5.155630e-01
143 2 4 1.610994e+01 5.291459e+00 4.509638e+00 -1 -1 1 6.663261e-01 -6.399486e-01 1.514679e-01 3.514723e-01
144 2 4 1.493926e+01 4.227731e+00 4.789591e+00 -1 -1 1 -3.461441e-01 -6.926192e-02 -8.198124e-01 4.508821e-01
145 2 1 1.493802e+01 3.745072e+00 4.747540e+00 -1 -1 1 -5.332890e-01 -2.998545e-01 -7.711458e-01 1.761374e-01
146 2 1 1.492869e+01 3.228845e+00 4.448728e+00 -1 -1 1 4.877613e-01 5.393705e-01 6.838845e-01 -5.890989e-02
147 2 1 1.490925e+01 2.928638e+00 4.020659e+00 -1 -1 1 3.499457e-01 7.466841e-01 5.656619e-01 5.246168e-03
148 2 2 1.491322e+01 2.848177e+00 3.448471e+00 -1 -1 1 3.660000e-01 8.839547e-01 2.467397e-01 1.542325e-01
149 2 4 1.508334e+01 2.874098e+00 2.932542e+00 -1 -1 1 -3.098070e-01 -8.964016e-01 6.696413e-02 -3.098379e-01
150 2 1 1.545613e+01 2.861986e+00 2.609304e+00 -1 -1 1 -1.292294e-01 -8.778168e-01 2.536077e-01 -3.852538e-01
151 2 1 1.588810e+01 2.787013e+00 2.363376e+00 -1 -1 1 -1.203968e-01 -7.016450e-01 5.450231e-01 -4.428869e-01
152 2 1 1.637060e+01 2.643142e+00 2.324309e+00 -1 -1 1 1.271538e-01 -4.988506e-01 6.933915e-01 -5.041709e-01
153 2 4 1.673099e+01 2.339227e+00 2.494512e+00 -1 -1 1 3.391308e-01 -2.981770e-01 7.869610e-01 -4.204440e-01
154 2 1 1.708152e+01 1.924122e+00 2.452633e+00 -1 -1 1 3.646842e-01 -7.142500e-03 8.695300e-01 -3.329746e-01
155 2 2 1.730330e+01 1.562376e+00 2.201671e+00 -1 -1 1 3.135150e-01 1.104937e-01 7.867876e-01 -5.200623e-01
156 2 4 1.732477e+01 1.006264e+00 2.211222e+00 -1 -1 1 3.731378e-01 3.536178e-01 6.767956e-01 -5.269444e-01
157 2 3 1.715062e+01 5.115693e-01 2.138912e+00 -1 -1 1 4.501804e-01 6.100582e-01 5.505067e-01 -3.494409e-01
158 2 2 1.689545e+01 1.894719e-01 1.807127e+00 -1 -1 1 4.764725e-01 7.484472e-01 4.064363e-01 -2.181981e-01
159 2 1 1.690137e+01 -1.669629e-01 1.352194e+00 -1 -1 1 5.602910e-01 8.128869e-01 1.461280e-01 6.273275e-02
160 2 3 1.706108e+01 -5.051064e-01 9.302253e-01 -1 -1 1 -4.808900e-01 -8.473600e-01 -3.116874e-02 -2.230568e-01
161 2 1 1.737573e+01 -7.027751e-01 5.137877e-01 -1 -1 1 -4.212814e-01 -8.003251e-01 2.375400e-01 -3.543677e-01
162 2 1 1.775252e+01 -8.248066e-01 2.266405e-01 -1 -1 1 -1.764110e-01 -7.329133e-01 4.966964e-01 -4.301277e-01
163 2 4 1.810134e+01 -1.129902e+00 5.661641e-02 -1 -1 1 -6.483077e-02 -6.620955e-01 4.471115e-01 -5.979280e-01
164 2 4 1.851664e+01 -1.291070e+00 1.548006e-01 -1 -1 1 1.992973e-01 -4.594222e-01 5.986633e-01 -6.251512e-01
165 2 3 1.889459e+01 -1.526729e+00 4.096818e-01 -1 -1 1 4.171356e-01 -1.487139e-01 6.909572e-01 -5.713669e-01
166 2 3 1.906195e+01 -1.883737e+00 6.162136e-01 -1 -1 1 6.010280e-01 6.293356e-02 5.951739e-01 -5.296912e-01
167 2 4 1.918692e+01 -2.508977e+00 7.434779e-01 -1 -1 1 6.449230e-01 2.160180e-01 6.532579e-01 -3.326629e-01
168 2 2 1.933211e+01 -3.006940e+00 6.742447e-01 -1 -1 1 6.519576e-01 4.300198e-01 5.977348e-01 -1.809624e-01
169 2 2 1.933665e+01 -3.438417e+00 5.130322e-01 -1 -1 1 5.999870e-01 6.374122e-01 4.631817e-01 -1.385064e-01
170 2 1 1.931556e+01 -3.804728e+00 5.437471e-02 -1 -1 1 6.322965e-01 7.370228e-01 2.152083e-01 1.033630e-01
171 2 1 1.953245e+01 -4.087723e+00 -3.220505e-01 -1 -1 1 -5.073444e-01 -8.011691e-01 5.812761e-02 -3.120111e-01
172 2 4 -2.003177e+01 -4.283477e+00 -5.887244e-01 0 -1 1 -3.878164e-01 -7.375502e-01 1.770152e-01 -5.237211e-01
173 2 4 -1.942394e+01 -4.390693e+00 -7.038506e-01 0 -1 1 -1.463542e-01 -6.680438e-01 3.033962e-01 -6.635124e-01
174 2 1 -1.893257e+01 -4.444492e+00 -5.054794e-01 0 -1 1 3.352648e-02 -5.540895e-01 4.996503e-01 -6.649890e-01
175 2 1 -1.848715e+01 -4.718444e+00 -3.007217e-01 0 -1 1 1.458465e-01 -3.351271e-01 6.046335e-01 -7.076984e-01
176 2 2 -1.823843e+01 -5.054406e+00 8.106323e-02 0 -1 1 4.325822e-01 -1.210413e-01 6.665016e-01 -5.949767e-01
177 2 2 -1.810114e+01 -5.458155e+00 3.285845e-01 0 -1 1 5.354963e-01 1.212249e-01 6.569315e-01 -5.167100e-01
178 2 1 -1.810217e+01 -5.985054e+00 3.619076e-01 0 -1 1 6.281336e-01 3.711738e-01 6.281174e-01 -2.704567e-01
179 2 4 -1.804903e+01 -6.476277e+00 1.884223e-01 0 -1 1 6.229586e-01 5.970334e-01 4.976508e-01 -8.841544e-02
180 2 1 -1.791320e+01 -6.838125e+00 -2.156636e-01 0 -1 1 5.301538e-01 7.645334e-01 3.456706e-01 1.222188e-01
181 2 4 -1.770593e+01 -7.036267e+00 -6.773638e-01 0 -1 1 -4.960190e-01 -7.942652e-01 -1.072102e-01 -3.340868e-01
182 2 2 -1.730724e+01 -7.284813e+00 -9.924673e-01 0 -1 1 -4.568293e-01 -7.265163e-01 4.355674e-03 -5.132855e-01
183 2 3 -1.683718e+01 -7.301130e+00 -1.132480e+00 0 -1 1 -2.139718e-01 -6.376694e-01 3.445755e-01 -6.548752e-01
184 2 4 -1.642815e+01 -7.606534e+00 -1.092946e+00 0 -1 1 -1.144827e-01 -4.739566e-01 4.229032e-01 -7.638139e-01
185 2 3 -1.609011e+01 -7.725993e+00 -8.069378e-01 0 -1 1 -2.281990e-01 2.971352e-01 -5.637688e-01 7.360711e-01
186 2 1 -1.581637e+01 -8.117604e+00 -5.512430e-01 0 -1 1 -2.903087e-01 1.058671e-01 -5.566932e-01 7.711068e-01
187 2 1 -1.576153e+01 -8.428331e+00 -1.507432e-01 0 -1 1 5.356956e-01 1.112149e-01 5.562514e-01 -6.254964e-01
188 2 2 -1.569637e+01 -9.026163e+00 -3.099864e-02 0 -1 1 -3.947462e-01 -2.360828e-01 -6.518375e-01 6.029496e-01
189 2 4 -1.590954e+01 -9.371221e+00 1.756797e-02 0 -1 1 -7.411194e-01 -3.837820e-01 -4.344083e-01 3.387373e-01
190 2 4 -1.587446e+01 -9.907776e+00 2.669293e-02 0 -1 1 7.588816e-01 5.146363e-01 3.838592e-01 -1.090885e-01
191 2 1 -1.582650e+01 -1.034474e+01 -1.639853e-01 0 -1 1 7.198746e-01 6.655937e-01 1.330325e-01 1.451481e-01
192 2 4 -1.552853e+01 -1.075114e+01 -3.439432e-01 0 -1 1 -6.443552e-01 -6.799926e-01 -1.582462e-01 -3.120489e-01
193 2 4 -1.506695e+01 -1.101564e+01 -5.487557e-01 0 -1 1 4.658554e-01 7.039219e-01 1.015052e-02 5.360688e-01
194 2 1 -1.449598e+01 -1.101385e+01 -5.415667e-01 0 -1 1 -2.077318e-01 -6.135626e-01 2.046101e-01 -7.338413e-01
195 2 3 -1.393771e+01 -1.114366e+01 -3.002817e-01 0 -1 1 9.752344e-02 4.104986e-01 -4.694410e-01 7.756321e-01
196 2 4 -1.351365e+01 -1.135252e+01 -3.475845e-04 0 -1 1 -8.273205e-02 2.899049e-01 -5.207688e-01 7.986930e-01
197 2 2 -1.330406e+01 -1.164245e+01 3.563813e-01 0 -1 1 3.250903e-01 3.659155e-03 6.557607e-01 -6.813815e-01
198 2 4 -1.336352e+01 -1.220293e+01 4.977468e-01 0 -1 1 5.318351e-01 3.457591e-01 6.300750e-01 -4.478924e-01
199 2 3 -1.290916e+01 -1.146288e+01 1.770407e+00 0 -1 1 4.182931e-01 -5.777582e-01 -6.493074e-01 2.638677e-01
200 2 4 -1.318626e+01 -1.254178e+01 1.536739e+00 0 -1 1 -6.039683e-01 -5.150712e-01 6.076657e-01 2.581356e-02
