ITEM: TIMESTEP
154000000
ITEM: NUMBER OF ATOMS
200
ITEM: BOX BOUNDS pp pp pp
-2.0000000000000000e+01 2.0000000000000000e+01
-2.0000000000000000e+01 2.0000000000000000e+01
-2.0000000000000000e+01 2.0000000000000000e+01
ITEM: ATOMS id mol type x y z ix iy iz c_quat[1] c_quat[2] c_quat[3] c_quat[4]
1 1 1 -2.147414e-01 -5.023906e+00 -1.544150e+01 -1 -1 1 -8.857234e-02 8.154503e-01 5.653845e-01 8.681104e-02
2 1 2 -3.744330e-01 -4.777607e+00 -1.578442e+01 -1 -1 1 -2.065095e-01 9.661039e-01 1.440904e-01 5.687707e-02
3 1 1 3.538663e-01 -5.868244e+00 -1.612095e+01 -1 -1 1 4.253533e-01 7.374903e-01 -4.776420e-01 2.168887e-01
4 1 3 6.025771e-01 -6.199570e+00 -1.636865e+01 -1 -1 1 3.420777e-01 4.262397e-01 -7.685209e-01 3.326834e-01
5 1 1 6.507181e-01 -6.098087e+00 -1.646417e+01 -1 -1 1 -3.419071e-01 -1.915059e-01 3.223192e-01 8.617049e-01
6 1 2 1.427088e+00 -5.897169e+00 -1.648796e+01 -1 -1 1 1.416958e-01 5.879606e-01 -6.157662e-01 5.050314e-01
7 1 4 1.816800e+00 -6.217982e+00 -1.638016e+01 -1 -1 1 1.067268e-01 -2.799131e-01 6.994248e-01 -6.488936e-01
8 1 1 2.331781e+00 -6.563131e+00 -1.655964e+01 -1 -1 1 -5.298162e-01 -2.526529e-02 -6.098943e-01 5.888000e-01
9 1 1 2.937786e+00 -5.716792e+00 -1.633923e+01 -1 -1 1 8.130008e-01 -5.573496e-01 1.585251e-01 -5.710517e-02
10 1 4 3.321822e+00 -5.496228e+00 -1.606488e+01 -1 -1 1 7.544069e-01 -4.066020e-01 4.279439e-01 2.870697e-01
11 1 1 3.678222e+00 -5.217289e+00 -1.591643e+01 -1 -1 1 6.734256e-01 -2.806308e-01 5.605220e-01 3.918666e-01
12 1 1 4.176396e+00 -5.170978e+00 -1.600597e+01 -1 -1 1 5.197813e-01 2.143447e-02 6.280492e-01 5.787246e-01
13 1 3 4.627050e+00 -4.754094e+00 -1.616906e+01 -1 -1 1 -2.569008e-01 -1.721041e-01 -6.134581e-01 -7.266714e-01
14 1 4 4.832520e+00 -4.417857e+00 -1.645776e+01 -1 -1 1 2.729846e-02 4.037435e-01 5.141535e-01 7.562355e-01
15 1 4 5.096860e+00 -3.910278e+00 -1.661040e+01 -1 -1 1 -2.121081e-01 4.356245e-01 4.178635e-01 7.685256e-01
16 1 2 5.115177e+00 -3.343963e+00 -1.638989e+01 -1 -1 1 4.642995e-01 -3.967340e-01 -2.923939e-01 -7.358899e-01
17 1 1 4.996082e+00 -2.913115e+00 -1.613535e+01 -1 -1 1 6.484132e-01 -4.115231e-01 -2.326685e-01 -5.967197e-01
18 1 2 4.805719e+00 -2.570904e+00 -1.579584e+01 -1 -1 1 -8.216323e-01 4.217408e-01 3.690817e-02 3.816972e-01
19 1 3 4.858386e+00 -2.350167e+00 -1.528657e+01 -1 -1 1 -8.919230e-01 3.827060e-01 -9.757300e-02 2.202022e-01
20 1 1 5.096598e+00 -2.229267e+00 -1.475320e+01 -1 -1 1 -8.886624e-01 3.445197e-01 -3.006131e-01 -3.488728e-02
21 1 4 5.429595e+00 -2.250127e+00 -1.438156e+01 -1 -1 1 8.713612e-01 -1.452666e-01 3.936879e-01 2.542383e-01
22 1 1 5.910030e+00 -2.247888e+00 -1.413871e+01 -1 -1 1 7.099677e-01 -1.042286e-01 3.727196e-01 5.883557e-01
23 1 4 6.333536e+00 -2.009392e+00 -1.395194e+01 -1 -1 1 5.586957e-01 2.018023e-02 4.785834e-01 6.770597e-01
24 1 3 6.768647e+00 -1.667569e+00 -1.397768e+01 -1 -1 1 2.502345e-01 1.652105e-01 5.780095e-01 7.589422e-01
25 1 3 6.973568e+00 -1.204203e+00 -1.418438e+01 -1 -1 1 4.098579e-03 3.707539e-01 4.920880e-01 7.876384e-01
26 1 4 7.060701e+00 -6.944004e-01 -1.433257e+01 -1 -1 1 -1.909676e-01 5.634567e-01 3.475886e-01 7.247276e-01
27 1 4 7.310464e+00 -2.630469e-01 -1.412042e+01 -1 -1 1 -3.886421e-01 4.032739e-01 3.227040e-01 7.630134e-01
28 1 1 7.178288e+00 1.868182e-01 -1.394067e+01 -1 -1 1 -6.197311e-01 5.401146e-01 1.377992e-01 5.524680e-01
29 1 1 7.284206e+00 5.599226e-01 -1.358614e+01 -1 -1 1 -7.662927e-01 4.980371e-01 -4.952476e-02 4.028669e-01
30 1 4 7.420751e+00 7.610442e-01 -1.313015e+01 -1 -1 1 8.530594e-01 -4.082523e-01 2.845996e-01 -1.569167e-01
31 1 4 7.690667e+00 8.966345e-01 -1.271695e+01 -1 -1 1 8.523779e-01 -3.178176e-01 4.025772e-01 1.018596e-01
32 1 3 8.087035e+00 1.004647e+00 -1.244531e+01 -1 -1 1 8.024943e-01 -1.472188e-01 5.254801e-01 2.412469e-01
33 1 3 8.628574e+00 9.834762e-01 -1.248686e+01 -1 -1 1 6.314689e-01 6.590054e-02 5.516247e-01 5.409384e-01
34 1 1 9.197281e+00 1.181784e+00 -1.247104e+01 -1 -1 1 5.046582e-01 1.088718e-01 6.742416e-01 5.280769e-01
35 1 2 9.571561e+00 1.404824e+00 -1.274356e+01 -1 -1 1 2.242759e-01 3.721720e-01 5.078342e-01 7.438365e-01
36 1 2 9.804923e+00 1.830473e+00 -1.282612e+01 -1 -1 1 -7.185269e-02 4.787136e-01 4.123046e-01 7.718001e-01
37 1 1 1.007920e+01 2.338605e+00 -1.274585e+01 -1 -1 1 -2.231084e-01 4.020741e-01 3.849041e-01 8.002549e-01
38 1 1 1.010301e+01 2.833613e+00 -1.258348e+01 -1 -1 1 -4.664548e-01 4.783192e-01 2.115961e-01 7.133427e-01
39 1 4 1.020582e+01 3.276352e+00 -1.224356e+01 -1 -1 1 6.469303e-01 -4.468744e-01 -8.107994e-02 -6.125443e-01
40 1 4 1.030780e+01 3.537216e+00 -1.174644e+01 -1 -1 1 8.469295e-01 -3.324703e-01 1.244946e-01 -3.958220e-01
41 1 2 1.039560e+01 3.467679e+00 -1.123688e+01 -1 -1 1 9.493831e-01 -1.558047e-01 2.322613e-01 -1.430078e-01
42 1 4 1.065950e+01 3.497769e+00 -1.083396e+01 -1 -1 1 9.364775e-01 -8.964536e-02 2.827657e-01 -1.871289e-01
43 1 3 1.091574e+01 3.110446e+00 -1.058610e+01 -1 -1 1 9.390194e-01 2.002061e-02 2.086673e-01 2.725798e-01
44 1 2 1.142806e+01 2.988209e+00 -1.026763e+01 -1 -1 1 8.088802e-01 4.242560e-02 2.985630e-01 5.047504e-01
45 1 1 1.191475e+01 2.987362e+00 -1.003968e+01 -1 -1 1 6.106295e-01 1.870318e-01 3.512419e-01 6.846750e-01
46 1 3 1.247581e+01 3.222941e+00 -9.936240e+00 -1 -1 1 4.152450e-01 1.750254e-01 3.362383e-01 8.269713e-01
47 1 4 1.278182e+01 3.573068e+00 -9.855328e+00 -1 -1 1 9.305736e-02 3.509323e-01 3.975708e-01 8.426887e-01
48 1 1 1.299166e+01 4.077249e+00 -9.683843e+00 -1 -1 1 1.120597e-01 -3.503083e-01 -3.173777e-01 -8.740699e-01
49 1 4 1.302557e+01 4.556556e+00 -9.488046e+00 -1 -1 1 4.188758e-01 -4.070746e-01 -1.154994e-01 -8.034260e-01
50 1 4 1.301378e+01 4.853161e+00 -9.101793e+00 -1 -1 1 6.838466e-01 -4.176466e-01 6.587900e-02 -5.946302e-01
51 1 4 1.291795e+01 5.132217e+00 -8.600112e+00 -1 -1 1 8.135407e-01 -3.524719e-01 5.074223e-02 -4.597175e-01
52 1 1 1.294058e+01 5.174066e+00 -8.038744e+00 -1 -1 1 9.537554e-01 -1.612055e-01 1.454364e-01 -2.078743e-01
53 1 3 1.308831e+01 5.006803e+00 -7.589265e+00 -1 -1 1 9.257241e-01 -1.709977e-01 2.677453e-01 2.052003e-01
54 1 4 1.345290e+01 5.156968e+00 -7.186323e+00 -1 -1 1 8.663389e-01 -1.787442e-01 3.926547e-01 2.516538e-01
55 1 4 1.396040e+01 5.136754e+00 -7.109504e+00 -1 -1 1 7.142334e-01 5.413246e-02 4.167729e-01 5.596791e-01
56 1 4 1.453411e+01 5.362940e+00 -7.185963e+00 -1 -1 1 4.565835e-01 2.126229e-01 4.814911e-01 7.172792e-01
57 1 1 1.499473e+01 5.712058e+00 -7.123425e+00 -1 -1 1 2.657058e-01 1.984001e-01 4.726593e-01 8.164747e-01
58 1 1 1.525390e+01 6.198541e+00 -7.100265e+00 -1 -1 1 -4.978285e-02 2.866040e-01 3.908601e-01 8.732744e-01
59 1 3 1.526340e+01 6.689884e+00 -7.075035e+00 -1 -1 1 3.389555e-01 -4.199997e-01 -3.181178e-01 -7.794296e-01
60 1 4 1.527920e+01 7.117959e+00 -6.811690e+00 -1 -1 1 5.730076e-01 -3.753633e-01 -2.088085e-01 -6.979711e-01
61 1 2 1.512397e+01 7.515744e+00 -6.505570e+00 -1 -1 1 7.128944e-01 -3.956854e-01 -3.378866e-02 -5.779904e-01
62 1 3 1.513650e+01 7.745910e+00 -6.047994e+00 -1 -1 1 8.567038e-01 -3.750312e-01 1.112211e-01 -3.362144e-01
63 1 2 1.529223e+01 7.803152e+00 -5.563173e+00 -1 -1 1 9.170667e-01 -3.059467e-01 2.544439e-01 -2.536862e-02
64 1 4 1.561466e+01 7.793759e+00 -5.070156e+00 -1 -1 1 9.078134e-01 -2.242550e-01 3.126146e-01 1.669029e-01
65 1 2 1.596837e+01 7.864663e+00 -4.773146e+00 -1 -1 1 7.482719e-01 -8.650234e-02 4.699998e-01 4.601160e-01
66 1 1 1.649484e+01 8.092641e+00 -4.654617e+00 -1 -1 1 5.962780e-01 9.383237e-03 5.912582e-01 5.429348e-01
67 1 2 1.692076e+01 8.333457e+00 -4.827992e+00 -1 -1 1 3.850051e-01 2.193479e-01 6.326753e-01 6.351216e-01
68 1 1 1.726229e+01 8.746880e+00 -4.978237e+00 -1 -1 1 1.183903e-01 2.911365e-01 6.076905e-01 7.293391e-01
69 1 1 1.741098e+01 9.246190e+00 -5.158819e+00 -1 -1 1 -1.596286e-01 4.068022e-01 5.373737e-01 7.212907e-01
70 1 2 1.731734e+01 9.721248e+00 -5.222162e+00 -1 -1 1 3.977992e-01 -5.837915e-01 -3.645152e-01 -6.066893e-01
71 1 3 1.728140e+01 1.021641e+01 -5.126630e+00 -1 -1 1 5.826930e-01 -5.955488e-01 -2.230510e-01 -5.060027e-01
72 1 4 1.722879e+01 1.063786e+01 -4.884095e+00 -1 -1 1 7.353170e-01 -5.814841e-01 -6.961378e-02 -3.410852e-01
73 1 1 1.725660e+01 1.084463e+01 -4.496304e+00 -1 -1 1 7.877395e-01 -5.916095e-01 1.553952e-01 7.291823e-02
74 1 1 1.748513e+01 1.119528e+01 -4.229464e+00 -1 -1 1 5.343156e-01 -5.431485e-01 3.588351e-01 5.391974e-01
75 1 3 1.775803e+01 1.164302e+01 -4.386424e+00 -1 -1 1 4.591572e-01 -2.765350e-01 5.940137e-01 5.998756e-01
76 1 1 1.789889e+01 1.227284e+01 -4.531225e+00 -1 -1 1 -2.058583e-01 -9.030027e-03 -5.770380e-01 -7.902961e-01
77 1 4 1.801521e+01 1.274355e+01 -4.657814e+00 -1 -1 1 -1.574536e-01 2.783376e-01 5.921392e-01 7.396673e-01
78 1 1 1.777020e+01 1.285507e+01 -4.741347e+00 -1 -1 1 -2.622064e-03 -5.197864e-01 4.090010e-01 7.500223e-01
79 1 4 1.774208e+01 1.369085e+01 -3.966166e+00 -1 -1 1 -1.260137e-01 6.257328e-01 7.617249e-01 -1.111493e-01
80 1 2 1.839554e+01 1.400634e+01 -3.691269e+00 -1 -1 1 3.765262e-01 -8.655148e-01 3.138109e-01 -1.031259e-01
81 1 4 1.872299e+01 1.426406e+01 -3.797030e+00 -1 -1 1 -3.418274e-01 5.959841e-01 -6.659460e-01 -2.906422e-01
82 1 4 1.899915e+01 1.440731e+01 -4.301302e+00 -1 -1 1 -9.546228e-02 3.080184e-01 -8.186158e-01 -4.752681e-01
83 1 4 -1.980064e+01 1.490696e+01 -3.786154e+00 0 -1 1 -5.665865e-01 -5.984586e-01 5.203400e-01 -2.237706e-01
84 1 4 1.906967e+01 1.603003e+01 -4.280900e+00 -1 -1 1 -3.289528e-01 -5.910817e-01 -6.025254e-01 4.235275e-01
85 1 1 1.940086e+01 1.575517e+01 -4.603848e+00 -1 -1 1 -7.803913e-01 4.713052e-01 -4.016773e-01 -8.669600e-02
86 1 1 1.925660e+01 1.639553e+01 -3.784059e+00 -1 -1 1 7.654577e-01 -1.902250e-01 -6.127238e-01 4.958252e-02
87 1 3 1.922647e+01 1.699235e+01 -4.154234e+00 -1 -1 1 -4.312679e-01 -8.211799e-01 2.554243e-01 2.728188e-01
88 1 2 1.952689e+01 1.669769e+01 -3.550307e+00 -1 -1 1 8.042261e-01 2.751927e-02 5.895737e-01 6.975578e-02
89 1 2 1.965932e+01 1.720129e+01 -2.744416e+00 -1 -1 1 -2.613660e-02 -1.704107e-01 -2.741963e-01 9.460938e-01
90 1 3 1.939669e+01 1.715711e+01 -2.333058e+00 -1 -1 1 -4.816619e-01 -2.786174e-01 -2.547959e-01 7.908560e-01
91 1 3 -1.946070e+01 1.697472e+01 -1.375451e+00 0 -1 1 -1.937489e-01 -4.096347e-01 6.481092e-01 -6.120582e-01
92 1 2 -1.844526e+01 1.679319e+01 -1.941302e+00 0 -1 1 -4.033291e-01 -9.110857e-01 8.421805e-02 -1.247970e-02
93 1 1 -1.802608e+01 1.579837e+01 -1.809063e+00 0 -1 1 9.121978e-01 -3.494357e-01 1.568771e-01 -1.455318e-01
94 1 2 -1.766174e+01 1.594898e+01 -1.446834e+00 0 -1 1 -8.300689e-01 2.846853e-01 -4.016069e-01 -2.620149e-01
95 1 3 -1.718384e+01 1.639812e+01 -1.292762e+00 0 -1 1 4.329907e-01 -3.314129e-01 4.923815e-01 6.784136e-01
96 1 2 -1.676686e+01 1.552983e+01 -1.187506e+00 0 -1 1 -8.580814e-01 -2.702599e-01 -4.173822e-01 -1.282497e-01
97 1 2 -1.615881e+01 1.509829e+01 -1.060977e+00 0 -1 1 8.709985e-01 -1.656167e-02 9.457488e-02 4.818121e-01
98 1 4 -1.619772e+01 1.497277e+01 -9.651078e-01 0 -1 1 7.183769e-01 2.386948e-02 3.554089e-01 -5.975360e-01
99 1 2 -1.624153e+01 1.455410e+01 -5.303583e-01 0 -1 1 7.597464e-01 1.839897e-01 3.307386e-01 -5.287203e-01
100 1 1 -1.533155e+01 1.410425e+01 -2.287899e-01 0 -1 1 8.502103e-01 1.557877e-01 -3.838851e-01 -3.248152e-01
101 2 4 -1.582379e+01 1.285909e+01 -1.076356e+01 0 -1 1 9.124522e-01 -3.265099e-01 -1.341308e-01 -2.069568e-01
102 2 3 -1.589639e+01 1.301335e+01 -1.028863e+01 0 -1 1 9.061020e-01 -4.108489e-01 2.467503e-02 9.784417e-02
103 2 1 -1.579259e+01 1.321984e+01 -9.815996e+00 0 -1 1 8.491918e-01 -3.347181e-01 2.295452e-01 3.378551e-01
104 2 3 -1.559130e+01 1.345038e+01 -9.598863e+00 0 -1 1 -3.565990e-01 5.089937e-02 7.469497e-02 -9.298748e-01
105 2 3 -1.571026e+01 1.376859e+01 -9.117026e+00 0 -1 1 -1.342735e-01 -1.508606e-01 -1.369497e-01 9.697714e-01
106 2 2 -1.561488e+01 1.259980e+01 -8.316161e+00 0 -1 1 5.015340e-01 -3.024483e-01 3.681599e-01 -7.221128e-01
107 2 3 -1.507424e+01 1.194296e+01 -9.249518e+00 0 -1 1 -4.911257e-01 -3.896182e-01 6.337954e-01 4.530967e-01
108 2 4 -1.506196e+01 1.199971e+01 -9.587614e+00 0 -1 1 4.323039e-01 1.574082e-01 6.705305e-02 -8.853473e-01
109 2 3 -1.363870e+01 1.197009e+01 -9.006513e+00 0 -1 1 7.319623e-01 5.007034e-01 -4.612942e-01 2.711086e-02
110 2 2 -1.370299e+01 1.145750e+01 -9.050296e+00 0 -1 1 -6.715389e-01 -2.295009e-01 6.008471e-01 -3.678962e-01
111 2 2 -1.396019e+01 1.056279e+01 -8.889441e+00 0 -1 1 -8.321159e-01 1.420604e-01 1.389626e-01 5.177754e-01
112 2 3 -1.426236e+01 1.056336e+01 -8.454515e+00 0 -1 1 9.681722e-01 -1.633764e-01 -6.100310e-02 -1.795252e-01
113 2 3 -1.486609e+01 1.085624e+01 -8.211293e+00 0 -1 1 2.884035e-01 5.001231e-01 8.804547e-02 -8.117563e-01
114 2 2 -1.535659e+01 1.085066e+01 -7.579017e+00 0 -1 1 5.136114e-01 3.310040e-01 5.139172e-01 -6.021036e-01
115 2 4 -1.599054e+01 1.105515e+01 -7.616315e+00 0 -1 1 3.840909e-01 -9.508858e-02 4.586516e-01 -7.956576e-01
116 2 4 -1.600877e+01 1.080593e+01 -7.160712e+00 0 -1 1 -5.802026e-01 -1.740720e-01 -3.837504e-01 6.969932e-01
117 2 1 -1.605121e+01 1.217474e+01 -6.933344e+00 0 -1 1 1.525386e-01 7.911170e-01 4.827228e-01 -3.432851e-01
118 2 1 -1.661322e+01 1.216116e+01 -7.202034e+00 0 -1 1 -7.154042e-02 5.390575e-01 8.299824e-01 -1.242107e-01
119 2 1 -1.707438e+01 1.259637e+01 -7.021986e+00 0 -1 1 7.996667e-02 5.431855e-01 7.654972e-01 -3.355128e-01
120 2 1 -1.707295e+01 1.247652e+01 -7.034070e+00 0 -1 1 -4.377981e-01 -6.684373e-01 5.419620e-01 2.603872e-01
121 2 3 -1.796186e+01 1.281586e+01 -6.017374e+00 0 -1 1 -3.922258e-01 7.963501e-01 4.601523e-01 -1.565956e-02
122 2 1 -1.780956e+01 1.173231e+01 -5.797697e+00 0 -1 1 6.064900e-01 4.393343e-01 -5.583514e-01 3.569298e-01
123 2 4 -1.825549e+01 1.190995e+01 -5.455512e+00 0 -1 1 -1.950533e-01 -6.853347e-01 -3.856405e-01 -5.861331e-01
124 2 1 -1.907664e+01 1.150014e+01 -5.662441e+00 0 -1 1 -7.629812e-02 -2.459415e-01 7.689863e-01 5.851081e-01
125 2 4 -1.983658e+01 1.135974e+01 -5.550621e+00 0 -1 1 -5.932844e-01 -5.125089e-01 -3.180031e-02 6.199491e-01
126 2 2 -2.000747e+01 1.102143e+01 -4.701352e+00 0 -1 1 -9.025259e-01 -2.672085e-01 3.303925e-01 -6.991025e-02
127 2 4 1.932343e+01 1.118112e+01 -4.843752e+00 -1 -1 1 -1.065908e-03 9.928669e-01 1.187586e-01 -1.051244e-02
128 2 4 1.849794e+01 1.033312e+01 -4.616473e+00 -1 -1 1 3.917397e-01 -1.196877e-01 -7.003171e-01 5.846117e-01
129 2 1 1.813486e+01 9.990816e+00 -4.342290e+00 -1 -1 1 1.455634e-01 -3.818207e-01 -5.886517e-01 6.975051e-01
130 2 2 1.769813e+01 9.870185e+00 -4.090885e+00 -1 -1 1 -9.280197e-02 -5.583079e-01 -4.373500e-01 6.988598e-01
131 2 3 1.716760e+01 9.727493e+00 -4.084516e+00 -1 -1 1 -4.050829e-01 -6.668329e-01 -2.576768e-01 5.699513e-01
132 2 4 1.667305e+01 9.493712e+00 -4.256291e+00 -1 -1 1 4.576921e-01 7.800287e-01 1.008428e-01 -4.146129e-01
133 2 4 1.635746e+01 9.354063e+00 -4.613488e+00 -1 -1 1 3.986734e-01 8.633438e-01 -1.151480e-01 -2.871200e-01
134 2 3 1.609258e+01 9.099146e+00 -5.007985e+00 -1 -1 1 4.110199e-01 8.672202e-01 -2.712617e-01 -7.354557e-02
135 2 4 1.616373e+01 8.924069e+00 -5.505913e+00 -1 -1 1 -4.149393e-01 -6.802113e-01 5.975573e-01 -8.979489e-02
136 2 3 1.636268e+01 8.510450e+00 -5.810872e+00 -1 -1 1 -3.879680e-01 -4.198369e-01 7.840551e-01 -2.418171e-01
137 2 1 1.641415e+01 7.999901e+00 -5.893418e+00 -1 -1 1 3.143996e-01 2.711535e-01 -7.777344e-01 4.719724e-01
138 2 3 1.634570e+01 7.437518e+00 -6.005110e+00 -1 -1 1 2.763808e-01 -1.244458e-02 -8.133448e-01 5.117900e-01
139 2 2 1.614364e+01 6.928719e+00 -5.983219e+00 -1 -1 1 2.332773e-01 -2.161407e-01 -7.451534e-01 5.861837e-01
140 2 3 1.578810e+01 6.595501e+00 -5.912039e+00 -1 -1 1 1.327307e-01 -4.658092e-01 -5.996261e-01 6.370658e-01
141 2 1 1.525262e+01 6.496239e+00 -5.863702e+00 -1 -1 1 -7.011520e-02 -7.285876e-01 -3.439339e-01 5.881781e-01
142 2 2 1.478216e+01 6.311676e+00 -6.030987e+00 -1 -1 1 -9.003519e-02 -8.270077e-01 -2.565476e-01 4.920724e-01
143 2 4 1.432482e+01 6.269567e+00 -6.339617e+00 -1 -1 1 2.732953e-01 9.059812e-01 7.644982e-02 -3.141069e-01
144 2 4 1.400729e+01 6.391538e+00 -6.847218e+00 -1 -1 1 -2.026591e-01 -9.255254e-01 2.174999e-01 2.345757e-01
145 2 1 1.391229e+01 6.370398e+00 -7.426214e+00 -1 -1 1 -3.944674e-01 -7.748603e-01 4.899451e-01 6.277592e-02
146 2 1 1.398675e+01 6.052745e+00 -7.811752e+00 -1 -1 1 -3.425594e-01 -5.745403e-01 7.327848e-01 -1.248319e-01
147 2 1 1.399766e+01 5.618287e+00 -8.108073e+00 -1 -1 1 -3.798158e-01 -3.549834e-01 8.201711e-01 -2.388433e-01
148 2 2 1.408971e+01 5.196973e+00 -8.286786e+00 -1 -1 1 -2.490031e-01 -1.186352e-01 8.831614e-01 -3.794062e-01
149 2 4 1.401300e+01 4.574360e+00 -8.247978e+00 -1 -1 1 1.741189e-01 -1.705429e-01 -9.196762e-01 3.078854e-01
150 2 1 1.363979e+01 4.192387e+00 -8.399608e+00 -1 -1 1 1.576526e-01 -4.317334e-01 -7.942966e-01 3.972969e-01
151 2 1 1.325144e+01 3.888728e+00 -8.418476e+00 -1 -1 1 3.056783e-03 -6.755297e-01 -5.781856e-01 4.575497e-01
152 2 1 1.268771e+01 3.838496e+00 -8.549400e+00 -1 -1 1 -3.517297e-02 -8.076534e-01 -3.668543e-01 4.603008e-01
153 2 4 1.219567e+01 3.889295e+00 -8.832315e+00 -1 -1 1 -2.173079e-01 -8.916682e-01 -1.577067e-01 3.644635e-01
154 2 1 1.190829e+01 4.023685e+00 -9.208033e+00 -1 -1 1 -2.433539e-01 -9.112806e-01 9.504947e-02 3.182958e-01
155 2 2 1.176708e+01 4.168119e+00 -9.733856e+00 -1 -1 1 -2.046123e-01 -8.624037e-01 4.107352e-01 2.137529e-01
156 2 4 1.169762e+01 4.152407e+00 -1.025213e+01 -1 -1 1 -2.619842e-01 -7.285944e-01 6.212867e-01 1.204872e-01
157 2 3 1.170751e+01 4.047815e+00 -1.073329e+01 -1 -1 1 -1.860231e-01 -5.456771e-01 8.152020e-01 -5.547666e-02
158 2 2 1.182289e+01 3.718672e+00 -1.108962e+01 -1 -1 1 -1.718497e-01 -3.201867e-01 9.221416e-01 -1.326765e-01
159 2 1 1.162888e+01 3.331626e+00 -1.150710e+01 -1 -1 1 -2.936086e-01 -5.219112e-02 9.374405e-01 -1.796535e-01
160 2 3 1.138364e+01 2.919045e+00 -1.164395e+01 -1 -1 1 2.211110e-01 -2.190759e-01 -8.934382e-01 3.238577e-01
161 2 1 1.105363e+01 2.565784e+00 -1.166850e+01 -1 -1 1 2.348286e-01 -3.347728e-01 -7.330323e-01 5.435498e-01
162 2 1 1.056585e+01 2.397093e+00 -1.152302e+01 -1 -1 1 2.808307e-02 -6.135098e-01 -5.389850e-01 5.764652e-01
163 2 4 1.000509e+01 2.206295e+00 -1.158806e+01 -1 -1 1 2.161437e-02 -7.259306e-01 -3.899701e-01 5.661103e-01
164 2 4 9.508276e+00 2.105907e+00 -1.173339e+01 -1 -1 1 -4.575686e-02 -8.583019e-01 -1.880847e-01 4.752351e-01
165 2 3 9.047864e+00 2.208131e+00 -1.204540e+01 -1 -1 1 -2.360564e-01 -9.110576e-01 6.088827e-02 3.324817e-01
166 2 3 8.805051e+00 2.283184e+00 -1.250615e+01 -1 -1 1 -3.098950e-01 -8.733127e-01 2.764977e-01 2.546349e-01
167 2 4 8.573701e+00 2.056892e+00 -1.299440e+01 -1 -1 1 -5.041093e-01 -6.807222e-01 5.314956e-01 1.889089e-03
168 2 2 8.538698e+00 1.734011e+00 -1.338215e+01 -1 -1 1 -5.118744e-01 -5.028609e-01 6.828878e-01 -1.370395e-01
169 2 2 8.567971e+00 1.212263e+00 -1.349720e+01 -1 -1 1 -4.389721e-01 -3.191476e-01 7.481761e-01 -3.816816e-01
170 2 1 8.563430e+00 6.519421e-01 -1.345013e+01 -1 -1 1 -3.293704e-01 -5.797855e-02 8.188094e-01 -4.665884e-01
171 2 1 8.391137e+00 1.713404e-01 -1.337306e+01 -1 -1 1 2.068373e-01 -1.959568e-01 -7.881443e-01 5.455711e-01
172 2 4 8.048950e+00 -2.140206e-01 -1.317602e+01 -1 -1 1 1.426183e-01 -3.687949e-01 -6.467545e-01 6.521955e-01
173 2 4 7.574040e+00 -4.687662e-01 -1.300818e+01 -1 -1 1 -1.900253e-03 -5.645478e-01 -5.249073e-01 6.369886e-01
174 2 1 7.078078e+00 -7.080235e-01 -1.308956e+01 -1 -1 1 -8.616479e-02 -7.348727e-01 -3.570076e-01 5.701608e-01
175 2 1 6.545015e+00 -6.847579e-01 -1.329046e+01 -1 -1 1 -2.271455e-01 -8.310945e-01 -1.539839e-01 4.837105e-01
176 2 2 6.100066e+00 -6.589531e-01 -1.363531e+01 -1 -1 1 -4.602174e-01 -8.111257e-01 1.221324e-01 3.396450e-01
177 2 2 5.841898e+00 -9.516621e-01 -1.402060e+01 -1 -1 1 -4.296647e-01 -8.365971e-01 2.982616e-01 1.628915e-01
178 2 1 5.830089e+00 -1.125726e+00 -1.456180e+01 -1 -1 1 -4.013804e-01 -7.407611e-01 5.345625e-01 -6.640543e-02
179 2 4 5.896565e+00 -1.428336e+00 -1.499511e+01 -1 -1 1 -3.627968e-01 -6.164554e-01 6.595370e-01 -2.310240e-01
180 2 1 6.211149e+00 -1.876133e+00 -1.525961e+01 -1 -1 1 -3.278833e-01 -3.161680e-01 8.382131e-01 -2.998818e-01
181 2 4 6.139871e+00 -2.359541e+00 -1.534012e+01 -1 -1 1 2.579435e-01 5.736290e-02 -8.905819e-01 3.701871e-01
182 2 2 5.923487e+00 -2.867308e+00 -1.541565e+01 -1 -1 1 2.254877e-01 -1.043738e-01 -8.412977e-01 4.800829e-01
183 2 3 5.717857e+00 -3.217602e+00 -1.523505e+01 -1 -1 1 -1.667722e-02 -3.859050e-01 -6.158959e-01 6.866378e-01
184 2 4 5.287226e+00 -3.560963e+00 -1.517998e+01 -1 -1 1 -1.298811e-01 -6.182475e-01 -5.391886e-01 5.569350e-01
185 2 3 4.786765e+00 -3.819180e+00 -1.538230e+01 -1 -1 1 7.160838e-02 7.602292e-01 4.052803e-01 -5.026645e-01
186 2 1 4.328046e+00 -3.834302e+00 -1.565543e+01 -1 -1 1 2.514607e-01 8.867836e-01 1.024256e-01 -3.740205e-01
187 2 1 3.981460e+00 -3.827329e+00 -1.593493e+01 -1 -1 1 -3.806938e-01 -8.594414e-01 1.522840e-01 3.053558e-01
188 2 2 3.690603e+00 -4.112938e+00 -1.640468e+01 -1 -1 1 5.373858e-01 7.789220e-01 -3.159310e-01 -6.844455e-02
189 2 4 3.647635e+00 -4.420698e+00 -1.683403e+01 -1 -1 1 5.420426e-01 6.542765e-01 -5.217287e-01 7.688450e-02
190 2 4 3.644635e+00 -4.911037e+00 -1.710147e+01 -1 -1 1 -5.249763e-01 -5.086242e-01 6.125284e-01 -3.008493e-01
191 2 1 3.632827e+00 -5.393538e+00 -1.715315e+01 -1 -1 1 -4.665331e-01 -3.419993e-01 6.649652e-01 -4.724454e-01
192 2 4 3.961559e+00 -5.436889e+00 -1.846076e+01 -1 -1 1 -6.452854e-01 -5.996948e-01 -2.934664e-01 -3.712822e-01
193 2 4 3.350233e+00 -6.658854e+00 -1.769504e+01 -1 -1 1 -8.654426e-01 6.969796e-02 -3.813412e-01 3.173803e-01
194 2 1 3.613844e+00 -6.945234e+00 -1.737325e+01 -1 -1 1 9.060414e-01 4.980458e-02 3.868638e-01 1.641490e-01
195 2 3 2.797714e+00 -7.432149e+00 -1.755752e+01 -1 -1 1 4.922609e-01 5.502318e-01 6.317847e-01 -2.361615e-01
196 2 4 2.696251e+00 -7.685254e+00 -1.792082e+01 -1 -1 1 5.327355e-01 8.007198e-01 2.696630e-01 -4.819374e-02
197 2 2 2.813942e+00 -8.007809e+00 -1.830986e+01 -1 -1 1 -6.236703e-01 -7.220274e-01 2.389539e-02 -2.985645e-01
198 2 4 2.049087e+00 -8.089937e+00 -1.821097e+01 -1 -1 1 4.841529e-02 9.449573e-01 -1.130992e-01 3.031836e-01
199 2 3 7.923527e-01 -8.573586e+00 -1.847265e+01 -1 -1 1 -2.343753e-01 -3.142214e-01 -7.830272e-01 -4.829095e-01
200 2 4 8.795550e-02 -8.585568e+00 -1.870515e+01 -1 -1 1 2.550455e-01 4.949665e-01 2.716196e-01 -7.849731e-01
