ITEM: TIMESTEP
10000000
ITEM: NUMBER OF ATOMS
200
ITEM: BOX BOUNDS pp pp pp
-2.0000000000000000e+01 2.0000000000000000e+01
-2.0000000000000000e+01 2.0000000000000000e+01
-2.0000000000000000e+01 2.0000000000000000e+01
ITEM: ATOMS id mol type x y z ix iy iz c_quat[1] c_quat[2] c_quat[3] c_quat[4]
1 1 1 1.839699e+01 9.537521e+00 -1.821891e+01 -1 -1 1 4.060043e-01 7.975108e-01 1.885936e-01 4.044373e-01
2 1 2 1.793075e+01 8.220886e+00 -1.846373e+01 -1 -1 1 -2.385555e-01 2.611692e-01 -8.458346e-01 3.993066e-01
3 1 1 1.790915e+01 8.106334e+00 -1.830502e+01 -1 -1 1 -9.471675e-01 1.459524e-01 9.602824e-02 -2.689799e-01
4 1 3 1.719814e+01 7.456923e+00 -1.847435e+01 -1 -1 1 2.584961e-01 -6.340858e-01 6.483315e-01 3.328380e-01
5 1 1 1.623479e+01 6.999269e+00 -1.749925e+01 -1 -1 1 6.273908e-01 -3.708937e-01 2.251088e-03 -6.846996e-01
6 1 2 1.635034e+01 6.631506e+00 -1.869471e+01 -1 -1 1 9.270365e-01 1.656520e-01 1.519478e-01 -3.001245e-01
7 1 4 1.629142e+01 6.174179e+00 -1.847578e+01 -1 -1 1 9.445803e-01 3.175808e-01 7.957972e-02 2.403173e-02
8 1 1 1.571107e+01 6.801349e+00 -1.714850e+01 -1 -1 1 -6.634456e-01 6.267675e-02 5.973694e-01 -4.461628e-01
9 1 1 1.451617e+01 7.237037e+00 -1.750548e+01 -1 -1 1 1.489615e-01 2.181310e-03 5.242734e-01 -8.384171e-01
10 1 4 1.415752e+01 7.198597e+00 -1.854676e+01 -1 -1 1 -3.175961e-01 6.803628e-03 5.078998e-01 8.007023e-01
11 1 1 1.396673e+01 7.480639e+00 -1.943900e+01 -1 -1 1 -4.702649e-01 -2.742585e-01 -7.508232e-01 -3.740291e-01
12 1 1 1.412540e+01 7.421961e+00 -1.986079e+01 -1 -1 1 3.209443e-01 6.307021e-01 6.225010e-01 3.342185e-01
13 1 3 1.447586e+01 7.459412e+00 1.978155e+01 -1 -1 0 1.540401e-01 6.943661e-01 5.532003e-01 4.337013e-01
14 1 4 1.470743e+01 7.743290e+00 1.938914e+01 -1 -1 0 1.125620e-01 8.010710e-01 2.678941e-01 5.233047e-01
15 1 4 1.486455e+01 8.122461e+00 1.902881e+01 -1 -1 0 1.604209e-01 -8.420768e-01 -1.379106e-01 -4.961375e-01
16 1 2 1.511399e+01 8.585945e+00 1.898384e+01 -1 -1 0 4.257564e-01 -7.657631e-01 1.330434e-01 -4.632901e-01
17 1 1 1.548120e+01 9.023003e+00 1.910626e+01 -1 -1 0 -4.413725e-01 7.360599e-01 -3.562323e-01 3.694655e-01
18 1 2 1.597926e+01 9.201735e+00 1.916279e+01 -1 -1 0 -5.528028e-01 5.471274e-01 -5.503679e-01 3.035719e-01
19 1 3 1.645955e+01 9.166043e+00 1.920424e+01 -1 -1 0 -5.950867e-01 3.522903e-01 -7.151787e-01 1.014044e-01
20 1 1 1.697621e+01 9.062867e+00 1.914702e+01 -1 -1 0 -5.945903e-01 6.317029e-02 -8.015249e-01 5.452471e-03
21 1 4 1.751667e+01 8.809243e+00 1.895610e+01 -1 -1 0 5.162387e-01 5.505109e-02 8.496929e-01 9.213549e-02
22 1 1 1.780393e+01 8.606573e+00 1.856547e+01 -1 -1 0 3.674034e-01 3.771837e-01 8.262258e-01 2.002454e-01
23 1 4 1.794082e+01 8.462805e+00 1.811284e+01 -1 -1 0 2.521966e-01 6.600279e-01 6.642276e-01 2.440526e-01
24 1 3 1.799263e+01 8.525380e+00 1.749802e+01 -1 -1 0 8.968537e-02 8.070363e-01 5.299102e-01 2.446306e-01
25 1 3 1.807955e+01 8.761379e+00 1.706536e+01 -1 -1 0 -3.112738e-02 9.182798e-01 2.411830e-01 3.124486e-01
26 1 4 1.824101e+01 9.052340e+00 1.680152e+01 -1 -1 0 -2.231110e-01 9.287686e-01 -2.733710e-02 2.947255e-01
27 1 4 1.862215e+01 9.423946e+00 1.655791e+01 -1 -1 0 -2.845668e-01 8.632831e-01 -2.714610e-01 3.163432e-01
28 1 1 1.910848e+01 9.729017e+00 1.652358e+01 -1 -1 0 -4.291800e-01 6.837857e-01 -4.437722e-01 3.889830e-01
29 1 1 1.960902e+01 9.846447e+00 1.670908e+01 -1 -1 0 -5.135762e-01 5.145764e-01 -6.446318e-01 2.364327e-01
30 1 4 -1.992278e+01 9.689136e+00 1.679932e+01 0 -1 0 5.793462e-01 -2.291896e-01 7.821875e-01 3.569011e-03
31 1 4 -1.938494e+01 9.560152e+00 1.661583e+01 0 -1 0 4.329409e-01 -5.904383e-03 8.865629e-01 1.628913e-01
32 1 3 -1.907428e+01 9.388369e+00 1.622827e+01 0 -1 0 3.931856e-01 2.276005e-01 8.523474e-01 2.590500e-01
33 1 3 -1.884771e+01 9.411256e+00 1.576679e+01 0 -1 0 2.528136e-01 4.623288e-01 7.778534e-01 3.424639e-01
34 1 1 -1.872714e+01 9.408239e+00 1.525956e+01 0 -1 0 1.898371e-01 6.876961e-01 5.658536e-01 4.133348e-01
35 1 2 -1.877428e+01 9.702263e+00 1.469992e+01 0 -1 0 4.119175e-02 8.426678e-01 3.697860e-01 3.891947e-01
36 1 2 -1.870547e+01 1.019551e+01 1.444065e+01 0 -1 0 -1.851306e-01 8.972368e-01 2.150483e-01 3.383001e-01
37 1 1 -1.853661e+01 1.072958e+01 1.434101e+01 0 -1 0 -3.924952e-01 8.658700e-01 -1.428664e-01 2.753286e-01
38 1 1 -1.818974e+01 1.114491e+01 1.437969e+01 0 -1 0 -5.331598e-01 7.121697e-01 -3.738371e-01 2.622990e-01
39 1 4 -1.775209e+01 1.136355e+01 1.460329e+01 0 -1 0 5.570229e-01 -5.541273e-01 6.150780e-01 -6.593597e-02
40 1 4 -1.725481e+01 1.156176e+01 1.444600e+01 0 -1 0 4.671342e-01 -4.164017e-01 7.799410e-01 9.342666e-03
41 1 2 -1.676410e+01 1.142125e+01 1.419001e+01 0 -1 0 3.981578e-01 -6.553278e-02 9.108066e-01 8.721898e-02
42 1 4 -1.644862e+01 1.135141e+01 1.376409e+01 0 -1 0 2.639057e-01 1.319624e-01 9.430597e-01 1.535516e-01
43 1 3 -1.626310e+01 1.123331e+01 1.329879e+01 0 -1 0 2.030894e-01 4.411268e-01 8.204304e-01 3.017546e-01
44 1 2 -1.629319e+01 1.131295e+01 1.267891e+01 0 -1 0 6.881342e-02 6.108820e-01 7.036576e-01 3.563059e-01
45 1 1 -1.637733e+01 1.155209e+01 1.225527e+01 0 -1 0 -1.675675e-02 8.336242e-01 4.394358e-01 3.341948e-01
46 1 3 -1.636712e+01 1.195600e+01 1.196044e+01 0 -1 0 -2.258661e-01 8.793980e-01 2.372432e-01 3.454843e-01
47 1 4 -1.631552e+01 1.243653e+01 1.178146e+01 0 -1 0 -4.560848e-01 8.454067e-01 7.793830e-02 2.668328e-01
48 1 1 -1.608076e+01 1.289814e+01 1.177753e+01 0 -1 0 5.053038e-01 -8.041925e-01 2.610214e-01 -1.726568e-01
49 1 4 -1.566539e+01 1.327014e+01 1.175846e+01 0 -1 0 5.465949e-01 -6.828375e-01 4.625364e-01 -1.450068e-01
50 1 4 -1.520079e+01 1.347316e+01 1.185592e+01 0 -1 0 6.223345e-01 -4.690220e-01 6.253530e-01 -4.064128e-02
51 1 4 -1.466888e+01 1.359495e+01 1.182876e+01 0 -1 0 6.110868e-01 -2.648346e-01 7.357080e-01 -1.231637e-01
52 1 1 -1.420367e+01 1.347301e+01 1.178078e+01 0 -1 0 5.333294e-01 -2.002414e-02 8.454004e-01 2.137735e-02
53 1 3 -1.380910e+01 1.321909e+01 1.153309e+01 0 -1 0 4.467990e-01 2.590061e-01 8.282824e-01 2.173358e-01
54 1 4 -1.368440e+01 1.320179e+01 1.104591e+01 0 -1 0 3.262385e-01 5.877756e-01 6.748504e-01 3.044095e-01
55 1 4 -1.330014e+01 1.334827e+01 1.054662e+01 0 -1 0 1.444562e-01 6.843548e-01 5.126782e-01 4.979477e-01
56 1 4 -1.304315e+01 1.354884e+01 1.017743e+01 0 -1 0 -1.049004e-02 7.368983e-01 3.287276e-01 5.906006e-01
57 1 1 -1.292212e+01 1.400411e+01 9.981103e+00 0 -1 0 -1.537086e-01 8.159935e-01 1.209361e-01 5.439694e-01
58 1 1 -1.259031e+01 1.437363e+01 1.001289e+01 0 -1 0 -3.993722e-01 7.671649e-01 -1.180611e-01 4.878744e-01
59 1 3 -1.220873e+01 1.475632e+01 1.012837e+01 0 -1 0 5.053196e-01 -6.751362e-01 3.723736e-01 -3.875321e-01
60 1 4 -1.174784e+01 1.487110e+01 1.028099e+01 0 -1 0 5.588191e-01 -5.336514e-01 5.430760e-01 -3.286423e-01
61 1 2 -1.121913e+01 1.487243e+01 1.061825e+01 0 -1 0 5.992903e-01 -4.018738e-01 6.923453e-01 2.541742e-03
62 1 3 -1.069297e+01 1.485127e+01 1.052005e+01 0 -1 0 5.047425e-01 -1.230524e-01 8.411551e-01 1.501705e-01
63 1 2 -1.034728e+01 1.472104e+01 1.009748e+01 0 -1 0 3.918675e-01 1.406073e-01 8.462938e-01 3.323496e-01
64 1 4 -1.007399e+01 1.469277e+01 9.681989e+00 0 -1 0 2.346596e-01 3.582019e-01 8.507552e-01 3.046996e-01
65 1 2 -1.000188e+01 1.483345e+01 9.055374e+00 0 -1 0 1.103979e-01 6.590225e-01 5.268317e-01 5.253095e-01
66 1 1 -9.800595e+00 1.519794e+01 8.625266e+00 0 -1 0 -1.529213e-01 6.848473e-01 4.075511e-01 5.843812e-01
67 1 2 -9.730940e+00 1.570588e+01 8.522004e+00 0 -1 0 -3.183609e-01 7.665831e-01 8.606401e-02 5.509898e-01
68 1 1 -9.358193e+00 1.614161e+01 8.576131e+00 0 -1 0 -4.294351e-01 6.963662e-01 -1.126167e-01 5.638946e-01
69 1 1 -9.027430e+00 1.640141e+01 8.794169e+00 0 -1 0 -5.636375e-01 6.448223e-01 -3.689325e-01 3.611176e-01
70 1 2 -8.572122e+00 1.661905e+01 8.948341e+00 0 -1 0 6.260087e-01 -5.035204e-01 4.374166e-01 -4.040383e-01
71 1 3 -8.179805e+00 1.660062e+01 9.322080e+00 0 -1 0 7.332217e-01 -3.018962e-01 5.969002e-01 -1.222897e-01
72 1 4 -7.719244e+00 1.627848e+01 9.433037e+00 0 -1 0 7.435683e-01 -4.262045e-02 6.505449e-01 1.485967e-01
73 1 1 -7.214427e+00 1.624812e+01 9.379408e+00 0 -1 0 6.678159e-01 1.130224e-01 7.146345e-01 1.747725e-01
74 1 1 -6.761431e+00 1.605960e+01 9.145955e+00 0 -1 0 5.801524e-01 3.198692e-01 6.068085e-01 4.391929e-01
75 1 3 -6.296050e+00 1.626990e+01 8.850762e+00 0 -1 0 3.631166e-01 4.610065e-01 4.420484e-01 6.783896e-01
76 1 1 -5.909984e+00 1.665427e+01 8.680061e+00 0 -1 0 8.646210e-02 5.594441e-01 3.512178e-01 7.457832e-01
77 1 4 -5.590148e+00 1.713678e+01 8.683025e+00 0 -1 0 -1.691453e-01 5.642129e-01 9.747612e-02 8.022170e-01
78 1 1 -5.424469e+00 1.756079e+01 8.884605e+00 0 -1 0 -4.337111e-01 6.029425e-01 -1.960472e-01 6.402504e-01
79 1 4 -5.013697e+00 1.770160e+01 9.241842e+00 0 -1 0 -5.580561e-01 3.720154e-01 -2.079686e-01 7.119881e-01
80 1 2 -4.732296e+00 1.767631e+01 9.798516e+00 0 -1 0 7.210472e-01 -1.738532e-01 3.934344e-01 -5.432084e-01
81 1 4 -4.464253e+00 1.735478e+01 1.014624e+01 0 -1 0 7.971652e-01 5.252283e-02 5.105851e-01 -3.179179e-01
82 1 4 -4.203723e+00 1.691665e+01 1.042054e+01 0 -1 0 7.728949e-01 2.547095e-01 5.481459e-01 -1.931131e-01
83 1 4 -4.011493e+00 1.646374e+01 1.037963e+01 0 -1 0 8.331028e-01 3.787592e-01 3.830765e-01 1.254335e-01
84 1 4 -3.557325e+00 1.616875e+01 1.027549e+01 0 -1 0 6.281038e-01 5.895128e-01 3.484598e-01 3.695078e-01
85 1 1 -2.950074e+00 1.603338e+01 1.016142e+01 0 -1 0 5.007071e-01 5.449798e-01 2.922404e-01 6.057103e-01
86 1 1 -2.413670e+00 1.600500e+01 1.006011e+01 0 -1 0 3.550500e-01 5.703124e-01 1.509682e-01 7.251840e-01
87 1 3 -1.950493e+00 1.607702e+01 1.006442e+01 0 -1 0 1.186010e-01 5.969249e-01 1.742180e-01 7.741205e-01
88 1 2 -1.499145e+00 1.643549e+01 1.019484e+01 0 -1 0 -1.301520e-01 5.551911e-01 -6.345787e-02 8.190216e-01
89 1 2 -1.230885e+00 1.675784e+01 1.043175e+01 0 -1 0 4.548828e-01 -5.109148e-01 7.767343e-02 -7.252686e-01
90 1 3 -1.002620e+00 1.703602e+01 1.090850e+01 0 -1 0 6.330287e-01 -4.129142e-01 2.269654e-01 -6.142176e-01
91 1 3 -7.968439e-01 1.704508e+01 1.146123e+01 0 -1 0 7.773876e-01 -2.788867e-01 3.666143e-01 -4.283512e-01
92 1 2 -4.959943e-01 1.683717e+01 1.186334e+01 0 -1 0 8.405417e-01 -1.779409e-01 5.106796e-01 -3.214171e-02
93 1 1 -2.499558e-02 1.658985e+01 1.204168e+01 0 -1 0 7.866916e-01 6.497035e-02 5.796552e-01 2.022249e-01
94 1 2 4.581328e-01 1.628702e+01 1.200249e+01 0 -1 0 6.967310e-01 2.181966e-01 5.426276e-01 4.153450e-01
95 1 3 1.049425e+00 1.628398e+01 1.188027e+01 0 -1 0 4.990162e-01 2.964043e-01 5.903536e-01 5.609010e-01
96 1 2 1.483495e+00 1.645043e+01 1.160757e+01 0 -1 0 3.273013e-01 4.496309e-01 4.765741e-01 6.808693e-01
97 1 2 1.886437e+00 1.676769e+01 1.147078e+01 0 -1 0 7.947554e-02 4.766814e-01 3.944153e-01 7.815978e-01
98 1 4 2.191703e+00 1.718401e+01 1.149644e+01 0 -1 0 1.272728e-01 -5.214342e-01 -3.319848e-01 -7.756894e-01
99 1 2 2.296686e+00 1.767363e+01 1.158496e+01 0 -1 0 3.732418e-01 -5.820378e-01 -1.398964e-01 -7.087676e-01
100 1 1 2.374719e+00 1.806258e+01 1.182031e+01 0 -1 0 5.803039e-01 -6.020906e-01 9.734233e-02 -5.396839e-01
101 2 4 2.795936e+00 1.715984e+01 1.247309e+01 0 -1 0 2.124571e-01 -4.993566e-01 -5.716702e-01 6.153846e-01
102 2 3 2.257116e+00 1.709338e+01 1.265126e+01 0 -1 0 -2.520834e-02 7.118742e-01 3.365543e-01 -6.158984e-01
103 2 1 1.763812e+00 1.721697e+01 1.260565e+01 0 -1 0 -1.225487e-01 -8.047988e-01 -2.059455e-02 5.803934e-01
104 2 3 1.351504e+00 1.732028e+01 1.238269e+01 0 -1 0 1.989546e-01 8.317207e-01 -1.577663e-01 -4.937283e-01
105 2 3 1.015300e+00 1.751640e+01 1.203368e+01 0 -1 0 3.599408e-01 7.432924e-01 -3.481839e-01 -4.435391e-01
106 2 2 7.756105e-01 1.741895e+01 1.162769e+01 0 -1 0 4.617542e-01 6.214828e-01 -5.809452e-01 -2.510874e-01
107 2 3 6.246566e-01 1.720802e+01 1.123440e+01 0 -1 0 4.731542e-01 4.021158e-01 -7.821315e-01 -5.194606e-02
108 2 4 2.988337e-01 1.687471e+01 1.092304e+01 0 -1 0 5.828464e-01 1.433470e-01 -7.930742e-01 1.038034e-01
109 2 3 2.648569e-02 1.637633e+01 1.089216e+01 0 -1 0 5.342887e-01 -7.745580e-02 -7.892289e-01 2.926670e-01
110 2 2 -3.766708e-01 1.595016e+01 1.110308e+01 0 -1 0 -4.635951e-01 3.447920e-01 7.116770e-01 -3.996423e-01
111 2 2 -9.068538e-01 1.579459e+01 1.115659e+01 0 -1 0 -3.513110e-01 5.657305e-01 5.597317e-01 -4.931836e-01
112 2 3 -1.464853e+00 1.593931e+01 1.131291e+01 0 -1 0 -3.216495e-01 7.274438e-01 2.165922e-01 -5.660874e-01
113 2 3 -2.011338e+00 1.610050e+01 1.126237e+01 0 -1 0 -2.752318e-01 8.255617e-01 6.098750e-02 -4.888515e-01
114 2 2 -2.253937e+00 1.648030e+01 1.116184e+01 0 -1 0 -9.485946e-02 7.752641e-01 -3.068101e-01 -5.439069e-01
115 2 4 -2.437036e+00 1.686289e+01 1.093997e+01 0 -1 0 1.947326e-01 6.370617e-01 -4.316376e-01 -6.082110e-01
116 2 4 -2.830092e+00 1.715021e+01 1.057462e+01 0 -1 0 1.924109e-01 6.615066e-01 -5.790041e-01 -4.360520e-01
117 2 1 -3.000738e+00 1.721026e+01 1.010619e+01 0 -1 0 4.043075e-01 3.583841e-01 -7.592227e-01 -3.628736e-01
118 2 1 -3.365489e+00 1.723139e+01 9.744006e+00 0 -1 0 4.473115e-01 3.113944e-01 -8.163925e-01 -1.909170e-01
119 2 1 -3.712504e+00 1.705856e+01 9.348763e+00 0 -1 0 5.284031e-01 7.516361e-03 -8.426567e-01 -1.032637e-01
120 2 1 -4.043512e+00 1.681598e+01 9.156521e+00 0 -1 0 5.164410e-01 -1.970731e-01 -8.167246e-01 1.655650e-01
121 2 3 -4.627298e+00 1.658832e+01 9.295821e+00 0 -1 0 -5.394201e-01 3.959201e-01 6.831419e-01 -2.925582e-01
122 2 1 -5.020499e+00 1.653017e+01 9.509213e+00 0 -1 0 -4.149515e-01 5.597722e-01 4.653770e-01 -5.457971e-01
123 2 4 -5.390575e+00 1.675153e+01 9.743892e+00 0 -1 0 -2.133186e-01 6.421706e-01 2.211747e-01 -7.022776e-01
124 2 1 -5.846838e+00 1.709057e+01 9.795017e+00 0 -1 0 3.955626e-02 7.400522e-01 -5.477445e-02 -6.691471e-01
125 2 4 -6.335886e+00 1.722611e+01 9.591938e+00 0 -1 0 1.846169e-01 8.008357e-01 -1.655226e-01 -5.451432e-01
126 2 2 -6.721823e+00 1.731685e+01 9.131844e+00 0 -1 0 4.042412e-01 7.301313e-01 -4.057718e-01 -3.726211e-01
127 2 4 -7.027666e+00 1.713219e+01 8.644265e+00 0 -1 0 5.499946e-01 5.678032e-01 -5.766449e-01 -2.063640e-01
128 2 4 -7.210382e+00 1.678937e+01 8.323399e+00 0 -1 0 5.691540e-01 2.931098e-01 -7.663356e-01 5.366722e-02
129 2 1 -7.503051e+00 1.629268e+01 8.278234e+00 0 -1 0 6.261756e-01 8.899681e-02 -7.675576e-01 1.041102e-01
130 2 2 -7.873843e+00 1.599517e+01 8.312413e+00 0 -1 0 6.282201e-01 6.209105e-02 -7.024192e-01 3.287728e-01
131 2 3 -8.136464e+00 1.558432e+01 8.577279e+00 0 -1 0 4.997128e-01 -2.162379e-01 -6.306144e-01 5.530404e-01
132 2 4 -8.520275e+00 1.531789e+01 8.878231e+00 0 -1 0 -4.554326e-01 2.845778e-01 5.076786e-01 -6.736907e-01
133 2 4 -8.860093e+00 1.532334e+01 9.257851e+00 0 -1 0 -2.832440e-01 4.567077e-01 2.398818e-01 -8.084847e-01
134 2 3 -9.240929e+00 1.557407e+01 9.603702e+00 0 -1 0 3.097073e-02 5.460513e-01 4.043660e-02 -8.362019e-01
135 2 4 -9.751231e+00 1.573813e+01 9.786928e+00 0 -1 0 -2.900733e-01 -6.334363e-01 3.913757e-02 7.162989e-01
136 2 3 -1.027486e+01 1.584557e+01 9.662739e+00 0 -1 0 -5.246601e-01 -6.077677e-01 2.446439e-01 5.435987e-01
137 2 1 -1.073300e+01 1.562179e+01 9.462632e+00 0 -1 0 7.303012e-01 4.682764e-01 -2.632728e-01 -4.219773e-01
138 2 3 -1.109268e+01 1.522644e+01 9.395462e+00 0 -1 0 8.249599e-01 4.120852e-01 -3.537653e-01 -1.564515e-01
139 2 2 -1.120876e+01 1.473461e+01 9.443067e+00 0 -1 0 7.893640e-01 3.042098e-01 -4.777035e-01 2.369816e-01
140 2 3 -1.125290e+01 1.413083e+01 9.549510e+00 0 -1 0 6.820809e-01 4.327254e-02 -5.643136e-01 4.630803e-01
141 2 1 -1.139929e+01 1.383572e+01 9.873606e+00 0 -1 0 5.348793e-01 -1.045752e-01 -4.490711e-01 7.080277e-01
142 2 2 -1.165775e+01 1.370432e+01 1.040721e+01 0 -1 0 4.185801e-01 -3.149778e-01 -3.679923e-01 7.682196e-01
143 2 4 -1.198362e+01 1.374592e+01 1.082429e+01 0 -1 0 -1.723742e-01 4.901182e-01 2.533158e-01 -8.160285e-01
144 2 4 -1.242302e+01 1.395471e+01 1.108748e+01 0 -1 0 6.872405e-02 -5.338301e-01 -9.890294e-02 8.369711e-01
145 2 1 -1.293637e+01 1.417597e+01 1.121009e+01 0 -1 0 -2.233707e-01 -6.493759e-01 9.576976e-02 7.205863e-01
146 2 1 -1.347470e+01 1.440872e+01 1.109885e+01 0 -1 0 -4.306302e-01 -6.310166e-01 2.936047e-01 5.746060e-01
147 2 1 -1.391637e+01 1.437060e+01 1.088756e+01 0 -1 0 -6.750106e-01 -4.497957e-01 4.249793e-01 4.017923e-01
148 2 2 -1.437980e+01 1.406163e+01 1.087079e+01 0 -1 0 -6.962618e-01 -4.684659e-01 5.176391e-01 1.667601e-01
149 2 4 -1.464517e+01 1.361329e+01 1.064730e+01 0 -1 0 7.387445e-01 2.810058e-01 -5.938498e-01 1.504484e-01
150 2 1 -1.486514e+01 1.319144e+01 1.066836e+01 0 -1 0 7.012580e-01 1.305626e-01 -5.994784e-01 3.630652e-01
151 2 1 -1.486867e+01 1.275885e+01 1.098056e+01 0 -1 0 5.583927e-01 4.777586e-02 -5.878724e-01 5.833705e-01
152 2 1 -1.506949e+01 1.234757e+01 1.133703e+01 0 -1 0 4.741441e-01 -1.410221e-01 -4.986461e-01 7.117950e-01
153 2 4 -1.515967e+01 1.215949e+01 1.182634e+01 0 -1 0 3.715002e-01 -1.477295e-01 -3.155377e-01 8.605810e-01
154 2 1 -1.523898e+01 1.233484e+01 1.231161e+01 0 -1 0 1.928746e-02 -1.984600e-01 -2.401195e-01 9.500443e-01
155 2 2 -1.553753e+01 1.237863e+01 1.272147e+01 0 -1 0 -3.378948e-01 -3.103305e-01 -1.482615e-01 8.760939e-01
156 2 4 -1.600502e+01 1.244728e+01 1.301260e+01 0 -1 0 -4.888111e-01 -4.101020e-01 6.741471e-03 7.699576e-01
157 2 3 -1.652852e+01 1.239357e+01 1.311090e+01 0 -1 0 -6.286441e-01 -4.552773e-01 1.308930e-01 6.167628e-01
158 2 2 -1.692419e+01 1.222554e+01 1.307249e+01 0 -1 0 -8.192139e-01 -2.674859e-01 3.478665e-01 3.692272e-01
159 2 1 -1.730866e+01 1.185032e+01 1.316077e+01 0 -1 0 -8.795674e-01 -3.003547e-01 3.414980e-01 1.397400e-01
160 2 3 -1.754346e+01 1.140482e+01 1.333475e+01 0 -1 0 8.979398e-01 2.733278e-01 -3.319957e-01 9.367417e-02
161 2 1 -1.753443e+01 1.084122e+01 1.354742e+01 0 -1 0 7.735186e-01 1.574649e-01 -4.285126e-01 4.396029e-01
162 2 1 -1.750392e+01 1.046827e+01 1.381305e+01 0 -1 0 5.909044e-01 9.763908e-02 -3.907071e-01 6.990326e-01
163 2 4 -1.744101e+01 1.025775e+01 1.432788e+01 0 -1 0 3.394646e-01 -1.423524e-01 -3.457859e-01 8.630943e-01
164 2 4 -1.757536e+01 1.025112e+01 1.485204e+01 0 -1 0 1.782465e-01 -2.498050e-01 -2.653307e-01 9.140160e-01
165 2 3 -1.784055e+01 1.043464e+01 1.524085e+01 0 -1 0 -1.453850e-01 -3.270207e-01 -1.433405e-01 9.226994e-01
166 2 3 -1.826381e+01 1.046280e+01 1.551051e+01 0 -1 0 -2.734453e-01 -4.492149e-01 8.904173e-02 8.458754e-01
167 2 4 -1.876322e+01 1.053378e+01 1.565734e+01 0 -1 0 -4.965926e-01 -4.814968e-01 2.402577e-01 6.810528e-01
168 2 2 -1.933083e+01 1.044892e+01 1.560128e+01 0 -1 0 -7.475709e-01 -3.725973e-01 3.880561e-01 3.895144e-01
169 2 2 -1.977367e+01 1.012639e+01 1.556489e+01 0 -1 0 -7.891168e-01 -3.671438e-01 4.672244e-01 1.555680e-01
170 2 1 1.994603e+01 9.641374e+00 1.558642e+01 -1 -1 0 -8.170219e-01 -2.667280e-01 4.728640e-01 -1.942445e-01
171 2 1 1.981863e+01 9.165038e+00 1.575683e+01 -1 -1 0 7.683856e-01 6.737568e-02 -5.039855e-01 3.886422e-01
172 2 4 1.970896e+01 8.781229e+00 1.615131e+01 -1 -1 0 6.538174e-01 -4.546136e-02 -4.621804e-01 5.973654e-01
173 2 4 1.948923e+01 8.631856e+00 1.657861e+01 -1 -1 0 5.535137e-01 -1.861668e-01 -3.491253e-01 7.328547e-01
174 2 1 1.938636e+01 8.626281e+00 1.703157e+01 -1 -1 0 3.344975e-01 -2.372901e-01 -1.711514e-01 8.958304e-01
175 2 1 1.925106e+01 8.851654e+00 1.750200e+01 -1 -1 0 1.156022e-01 -3.144036e-01 2.685226e-02 9.418415e-01
176 2 2 1.893686e+01 9.129590e+00 1.779800e+01 -1 -1 0 -7.180228e-02 -3.837190e-01 1.950231e-01 8.997612e-01
177 2 2 1.849224e+01 9.510462e+00 1.791966e+01 -1 -1 0 -3.365626e-01 -4.083901e-01 3.402330e-01 7.772932e-01
178 2 1 1.795029e+01 9.635862e+00 1.795240e+01 -1 -1 0 -6.132763e-01 -3.443714e-01 4.713467e-01 5.321023e-01
179 2 4 1.732392e+01 9.559386e+00 1.803119e+01 -1 -1 0 -7.641739e-01 -3.492943e-01 3.826550e-01 3.841965e-01
180 2 1 1.693774e+01 9.166620e+00 1.797515e+01 -1 -1 0 -8.519869e-01 -1.868163e-01 4.699155e-01 1.356372e-01
181 2 4 1.666341e+01 8.769062e+00 1.804645e+01 -1 -1 0 7.958467e-01 4.652736e-02 -5.470425e-01 2.553582e-01
182 2 2 1.632472e+01 8.367786e+00 1.831602e+01 -1 -1 0 7.762299e-01 3.320552e-02 -4.306616e-01 4.592331e-01
183 2 3 1.624484e+01 8.068599e+00 1.883556e+01 -1 -1 0 5.823631e-01 -1.968068e-01 -4.246905e-01 6.646490e-01
184 2 4 1.601636e+01 7.972378e+00 1.936524e+01 -1 -1 0 4.725503e-01 -2.686914e-01 -3.079552e-01 7.808103e-01
185 2 3 1.581722e+01 8.013182e+00 1.988373e+01 -1 -1 0 1.458605e-01 -4.696538e-01 -2.510522e-01 8.337403e-01
186 2 1 1.542265e+01 8.177596e+00 -1.986101e+01 -1 -1 1 -1.572380e-01 -5.384257e-01 -1.194272e-01 8.192137e-01
187 2 1 1.498195e+01 8.369297e+00 -1.968278e+01 -1 -1 1 -2.891136e-01 -5.753827e-01 5.834542e-02 7.628525e-01
188 2 2 1.448931e+01 8.512919e+00 -1.977557e+01 -1 -1 1 -4.581473e-01 -5.586635e-01 2.904362e-01 6.274097e-01
189 2 4 1.396981e+01 8.583510e+00 -1.983998e+01 -1 -1 1 -6.012296e-01 -5.153941e-01 3.327961e-01 5.119947e-01
190 2 4 1.345875e+01 8.449275e+00 1.998184e+01 -1 -1 0 7.471835e-01 3.905039e-01 -4.310610e-01 -3.215741e-01
191 2 1 1.277618e+01 9.186969e+00 1.985170e+01 -1 -1 0 -3.299568e-01 -8.422006e-01 -2.022542e-02 4.259316e-01
192 2 4 1.172989e+01 9.704958e+00 1.986379e+01 -1 -1 0 8.377692e-02 5.186713e-01 8.327963e-01 1.743900e-01
193 2 4 1.160631e+01 9.908420e+00 1.953130e+01 -1 -1 0 1.519624e-01 9.413964e-01 2.465652e-01 1.728750e-01
194 2 1 1.171820e+01 9.987898e+00 1.903780e+01 -1 -1 0 -1.375929e-02 -9.496968e-01 -7.058368e-02 -3.048024e-01
195 2 3 1.201178e+01 1.038612e+01 1.889370e+01 -1 -1 0 2.562421e-01 -8.831074e-01 3.285531e-01 -2.156713e-01
196 2 4 1.256096e+01 1.052667e+01 1.860283e+01 -1 -1 0 -2.199266e-01 7.555513e-01 -5.376646e-01 3.028056e-01
197 2 2 1.220330e+01 1.031893e+01 1.719391e+01 -1 -1 0 -4.783480e-02 -7.237433e-01 4.490603e-01 5.217781e-01
198 2 4 1.128842e+01 9.963820e+00 1.701613e+01 -1 -1 0 -1.103953e-01 2.706585e-01 -9.539955e-01 -6.670465e-02
199 2 3 1.198702e+01 1.064220e+01 1.695293e+01 -1 -1 0 -5.181950e-01 3.137374e-01 -7.803416e-01 -1.552730e-01
200 2 4 1.161358e+01 1.155738e+01 1.682573e+01 -1 -1 0 -3.623927e-01 -8.990718e-01 1.828653e-01 -1.640176e-01
