ITEM: TIMESTEP
131000000
ITEM: NUMBER OF ATOMS
200
ITEM: BOX BOUNDS pp pp pp
-2.0000000000000000e+01 2.0000000000000000e+01
-2.0000000000000000e+01 2.0000000000000000e+01
-2.0000000000000000e+01 2.0000000000000000e+01
ITEM: ATOMS id mol type x y z ix iy iz c_quat[1] c_quat[2] c_quat[3] c_quat[4]
1 1 1 1.016072e+01 -7.809742e+00 -1.020454e+01 -1 -1 1 -6.084905e-01 1.317388e-01 -7.123592e-01 3.239268e-01
2 1 2 9.972530e+00 -6.935873e+00 -1.114461e+01 -1 -1 1 -6.600485e-01 -6.010620e-01 -4.425997e-01 8.465236e-02
3 1 1 9.547919e+00 -7.858889e+00 -1.136293e+01 -1 -1 1 -8.173356e-01 -8.475721e-02 -2.549624e-01 5.096792e-01
4 1 3 9.412909e+00 -7.994638e+00 -1.116096e+01 -1 -1 1 9.618785e-02 1.608695e-01 -5.868732e-01 7.876857e-01
5 1 1 9.817873e+00 -9.009014e+00 -1.112408e+01 -1 -1 1 4.370992e-01 -3.483992e-02 -8.742970e-01 2.081713e-01
6 1 2 1.092279e+01 -8.824770e+00 -1.243313e+01 -1 -1 1 7.714804e-01 2.159399e-01 4.002715e-01 4.449389e-01
7 1 4 1.144756e+01 -8.894041e+00 -1.249387e+01 -1 -1 1 -5.053687e-01 -3.625797e-01 -1.972257e-01 -7.577866e-01
8 1 1 1.132410e+01 -9.585529e+00 -1.216902e+01 -1 -1 1 7.556092e-01 6.224350e-02 5.819942e-01 2.940463e-01
9 1 1 1.145875e+01 -9.278445e+00 -1.143120e+01 -1 -1 1 4.403992e-01 -1.889493e-01 4.291338e-01 -7.656311e-01
10 1 4 1.259665e+01 -8.728049e+00 -1.078186e+01 -1 -1 1 -7.258649e-01 -1.060077e-01 3.680933e-01 -5.713053e-01
11 1 1 1.288991e+01 -8.854869e+00 -1.053751e+01 -1 -1 1 -2.143563e-01 -1.865411e-01 3.926996e-01 -8.746661e-01
12 1 1 1.331774e+01 -1.001520e+01 -1.124187e+01 -1 -1 1 6.671247e-01 6.711242e-01 -3.046738e-01 1.082163e-01
13 1 3 1.344411e+01 -1.040897e+01 -1.138047e+01 -1 -1 1 -4.954348e-01 -5.800207e-01 4.832863e-01 -4.295984e-01
14 1 4 1.314896e+01 -1.010399e+01 -1.218038e+01 -1 -1 1 2.768478e-01 -9.547646e-01 -6.521951e-02 8.675428e-02
15 1 4 1.320935e+01 -9.606914e+00 -1.242966e+01 -1 -1 1 1.950599e-01 -8.949854e-01 3.537677e-01 1.892120e-01
16 1 2 1.340639e+01 -9.725389e+00 -1.324572e+01 -1 -1 1 -5.251263e-01 2.740526e-01 -7.417184e-01 -3.146288e-01
17 1 1 1.385637e+01 -9.512344e+00 -1.343735e+01 -1 -1 1 4.848845e-01 -1.703680e-01 8.425238e-01 1.612933e-01
18 1 2 1.435221e+01 -9.656358e+00 -1.371939e+01 -1 -1 1 4.337611e-01 7.924961e-02 8.546795e-01 2.740323e-01
19 1 3 1.463153e+01 -9.733648e+00 -1.416658e+01 -1 -1 1 3.728548e-01 3.510079e-01 8.011412e-01 3.097506e-01
20 1 1 1.491485e+01 -9.544157e+00 -1.461750e+01 -1 -1 1 1.481303e-01 4.878011e-01 7.126567e-01 4.819003e-01
21 1 4 1.506865e+01 -9.170313e+00 -1.499323e+01 -1 -1 1 3.255453e-02 -5.913241e-01 -5.605040e-01 -5.788879e-01
22 1 1 1.524559e+01 -8.653371e+00 -1.525020e+01 -1 -1 1 2.587057e-01 -5.922108e-01 -4.738027e-01 -5.982212e-01
23 1 4 1.518512e+01 -8.103073e+00 -1.532710e+01 -1 -1 1 4.183715e-01 -7.552301e-01 -1.985875e-01 -4.638489e-01
24 1 3 1.525694e+01 -7.577822e+00 -1.522797e+01 -1 -1 1 6.519443e-01 -6.707069e-01 -1.225450e-01 -3.318187e-01
25 1 3 1.549430e+01 -7.132296e+00 -1.490114e+01 -1 -1 1 7.197663e-01 -6.480531e-01 1.430744e-01 -2.036991e-01
26 1 4 1.590067e+01 -6.801015e+00 -1.466190e+01 -1 -1 1 7.095219e-01 -5.591193e-01 4.103231e-01 -1.248971e-01
27 1 4 1.636251e+01 -6.670406e+00 -1.435856e+01 -1 -1 1 7.226922e-01 -3.253674e-01 6.040486e-01 8.352990e-02
28 1 1 1.690553e+01 -6.745508e+00 -1.424209e+01 -1 -1 1 7.491505e-01 -1.224388e-01 6.288430e-01 1.683412e-01
29 1 1 1.742621e+01 -6.600923e+00 -1.420289e+01 -1 -1 1 5.709238e-01 9.538066e-02 6.993429e-01 4.193663e-01
30 1 4 1.782429e+01 -6.514064e+00 -1.446525e+01 -1 -1 1 -4.160279e-01 -3.196410e-01 -6.356629e-01 -5.662889e-01
31 1 4 1.821839e+01 -6.243581e+00 -1.480610e+01 -1 -1 1 -1.985259e-01 -4.319340e-01 -5.734221e-01 -6.672388e-01
32 1 3 1.850677e+01 -5.797782e+00 -1.500283e+01 -1 -1 1 3.325368e-02 -5.471357e-01 -4.808674e-01 -6.843269e-01
33 1 3 1.874160e+01 -5.383300e+00 -1.513606e+01 -1 -1 1 1.828838e-01 -5.380195e-01 -4.203294e-01 -7.073978e-01
34 1 1 1.860530e+01 -4.895786e+00 -1.507141e+01 -1 -1 1 5.425397e-01 -6.709015e-01 -2.502916e-01 -4.391992e-01
35 1 2 1.864654e+01 -4.376520e+00 -1.487939e+01 -1 -1 1 6.621069e-01 -6.271400e-01 -4.961540e-02 -4.072447e-01
36 1 2 1.872913e+01 -4.053450e+00 -1.455480e+01 -1 -1 1 7.751282e-01 -5.907326e-01 9.767336e-02 -2.016708e-01
37 1 1 1.891744e+01 -3.767389e+00 -1.419790e+01 -1 -1 1 7.871442e-01 -5.535562e-01 2.561628e-01 9.143355e-02
38 1 1 1.921143e+01 -3.415898e+00 -1.392039e+01 -1 -1 1 7.976719e-01 -4.226330e-01 4.143506e-01 1.158208e-01
39 1 4 1.970401e+01 -3.223802e+00 -1.371556e+01 -1 -1 1 -6.969456e-01 2.734869e-01 -5.389165e-01 -3.860579e-01
40 1 4 -1.981725e+01 -3.130193e+00 -1.377463e+01 0 -1 1 -5.587066e-01 -5.919965e-02 -6.230411e-01 -5.442078e-01
41 1 2 -1.930998e+01 -2.773423e+00 -1.391449e+01 0 -1 1 -3.360173e-01 -1.111217e-01 -6.651517e-01 -6.575086e-01
42 1 4 -1.911974e+01 -2.347653e+00 -1.415760e+01 0 -1 1 -1.025963e-01 -2.368740e-01 -6.650684e-01 -7.007487e-01
43 1 3 -1.917301e+01 -1.823048e+00 -1.437483e+01 0 -1 1 2.316230e-01 -3.366888e-01 -5.765886e-01 -7.074864e-01
44 1 2 -1.920736e+01 -1.241627e+00 -1.441373e+01 0 -1 1 4.718445e-01 -4.308238e-01 -4.609195e-01 -6.158789e-01
45 1 1 -1.948416e+01 -8.115081e-01 -1.427220e+01 0 -1 1 7.044370e-01 -4.800684e-01 -3.198342e-01 -4.135323e-01
46 1 3 -1.967062e+01 -4.900970e-01 -1.390849e+01 0 -1 1 8.141219e-01 -5.558948e-01 -4.980055e-02 -1.603320e-01
47 1 4 -1.963078e+01 -1.093969e-01 -1.346106e+01 0 -1 1 8.739993e-01 -4.659130e-01 1.285142e-01 -5.034311e-02
48 1 1 -1.949981e+01 9.276105e-02 -1.302607e+01 0 -1 1 -9.154294e-01 2.482028e-01 -2.476348e-01 -1.976397e-01
49 1 4 -1.918731e+01 -5.412553e-02 -1.260334e+01 0 -1 1 -9.014576e-01 -2.291857e-03 -3.363549e-01 -2.724598e-01
50 1 4 -1.871829e+01 -1.203747e-01 -1.242754e+01 0 -1 1 -7.591107e-01 -1.063897e-01 -3.894329e-01 -5.106606e-01
51 1 4 -1.814792e+01 -7.104889e-02 -1.232665e+01 0 -1 1 -5.635892e-01 -1.892565e-01 -4.110198e-01 -6.910947e-01
52 1 1 -1.767164e+01 2.029846e-01 -1.233215e+01 0 -1 1 -2.984772e-01 -3.205192e-01 -4.115693e-01 -7.992431e-01
53 1 3 -1.739633e+01 6.153270e-01 -1.239328e+01 0 -1 1 2.374626e-02 -4.649916e-01 -3.824859e-01 -7.980749e-01
54 1 4 -1.725262e+01 1.194191e+00 -1.227638e+01 0 -1 1 2.838753e-01 -4.853546e-01 -3.078933e-01 -7.674942e-01
55 1 4 -1.721202e+01 1.657098e+00 -1.211188e+01 0 -1 1 5.174794e-01 -4.864961e-01 -1.680477e-01 -6.835910e-01
56 1 4 -1.728863e+01 2.011601e+00 -1.172674e+01 0 -1 1 7.350558e-01 -4.515395e-01 -9.928909e-03 -5.056743e-01
57 1 1 -1.732275e+01 2.190821e+00 -1.128457e+01 0 -1 1 9.180415e-01 -3.138811e-01 9.095161e-02 -2.245136e-01
58 1 1 -1.721745e+01 2.253524e+00 -1.074876e+01 0 -1 1 9.418612e-01 -2.716500e-01 1.977400e-01 1.649085e-03
59 1 3 -1.694668e+01 2.338733e+00 -1.026140e+01 0 -1 1 -9.154245e-01 1.380019e-01 -3.483194e-01 -1.470616e-01
60 1 4 -1.653797e+01 2.421014e+00 -9.896819e+00 0 -1 1 -8.163951e-01 8.346691e-02 -4.706767e-01 -3.240304e-01
61 1 2 -1.601353e+01 2.465931e+00 -9.796468e+00 0 -1 1 -5.976206e-01 -1.067907e-01 -5.231769e-01 -5.981065e-01
62 1 3 -1.554423e+01 2.639763e+00 -9.879084e+00 0 -1 1 -3.924677e-01 -2.650215e-01 -4.846936e-01 -7.353943e-01
63 1 2 -1.521810e+01 3.066511e+00 -9.984980e+00 0 -1 1 -1.089511e-01 -3.862289e-01 -4.183444e-01 -8.148281e-01
64 1 4 -1.497445e+01 3.535223e+00 -9.933761e+00 0 -1 1 1.025228e-01 -4.060922e-01 -3.601031e-01 -8.336090e-01
65 1 2 -1.490012e+01 4.045201e+00 -9.803614e+00 0 -1 1 3.557008e-01 -4.204658e-01 -2.395910e-01 -7.995509e-01
66 1 1 -1.492046e+01 4.476732e+00 -9.573698e+00 0 -1 1 5.807780e-01 -4.819351e-01 -5.711335e-02 -6.535851e-01
67 1 2 -1.489825e+01 4.827840e+00 -9.191170e+00 0 -1 1 7.319439e-01 -4.171951e-01 -2.674396e-02 -5.380438e-01
68 1 1 -1.484220e+01 4.999493e+00 -8.669487e+00 0 -1 1 9.033323e-01 -2.180343e-01 1.550823e-01 -3.352631e-01
69 1 1 -1.469069e+01 4.883305e+00 -8.156190e+00 0 -1 1 9.374808e-01 -1.888198e-01 2.922108e-01 9.467440e-03
70 1 2 -1.432959e+01 4.747524e+00 -7.784035e+00 0 -1 1 -8.637909e-01 1.169796e-01 -3.408193e-01 -3.521693e-01
71 1 3 -1.388110e+01 4.911691e+00 -7.511449e+00 0 -1 1 -7.573026e-01 -1.356092e-02 -4.684199e-01 -4.548533e-01
72 1 4 -1.340538e+01 5.035629e+00 -7.296760e+00 0 -1 1 -5.645549e-01 -1.639512e-03 -5.177085e-01 -6.428475e-01
73 1 1 -1.296604e+01 5.134981e+00 -7.308251e+00 0 -1 1 -3.729159e-01 -2.928620e-01 -4.859837e-01 -7.341563e-01
74 1 1 -1.259428e+01 5.572890e+00 -7.380195e+00 0 -1 1 -1.211078e-01 -3.872762e-01 -3.108814e-01 -8.594782e-01
75 1 3 -1.230935e+01 6.025215e+00 -7.334512e+00 0 -1 1 1.320592e-01 -4.191414e-01 -2.513376e-01 -8.623864e-01
76 1 1 -1.220906e+01 6.522471e+00 -7.085962e+00 0 -1 1 -4.452453e-01 4.204633e-01 9.728801e-02 7.845395e-01
77 1 4 -1.212203e+01 6.920406e+00 -6.693488e+00 0 -1 1 -6.155884e-01 3.710888e-01 -3.597644e-02 6.942980e-01
78 1 1 -1.212231e+01 7.014193e+00 -6.129372e+00 0 -1 1 -8.048493e-01 3.153917e-01 -1.904357e-01 4.652740e-01
79 1 4 -1.192649e+01 6.906504e+00 -5.602134e+00 0 -1 1 -9.169555e-01 1.547446e-01 -3.245847e-01 1.728914e-01
80 1 2 -1.173418e+01 7.314769e+00 -5.374975e+00 0 -1 1 3.539666e-01 -1.467882e-01 8.162460e-01 4.323231e-01
81 1 4 -1.168193e+01 7.521100e+00 -3.789020e+00 0 -1 1 -5.394904e-01 4.885718e-01 -1.162510e-01 6.758206e-01
82 1 4 -1.157608e+01 7.602916e+00 -3.272159e+00 0 -1 1 -7.538621e-01 4.514252e-01 -2.985738e-01 3.725062e-01
83 1 4 -1.129107e+01 8.136963e+00 -3.109348e+00 0 -1 1 3.799393e-01 -3.451919e-01 8.267277e-01 -2.302389e-01
84 1 4 -1.110040e+01 7.686121e+00 -2.531095e+00 0 -1 1 9.032061e-01 -2.621652e-01 3.331366e-01 -6.714249e-02
85 1 1 -1.065450e+01 7.673970e+00 -2.198602e+00 0 -1 1 8.393954e-01 -8.748995e-02 4.457352e-01 2.984646e-01
86 1 1 -1.025079e+01 7.664278e+00 -1.948127e+00 0 -1 1 7.319373e-01 1.504224e-01 4.162439e-01 5.180558e-01
87 1 3 -9.814025e+00 7.748203e+00 -1.787319e+00 0 -1 1 -6.080993e-01 -3.372050e-01 -5.197828e-01 -4.963203e-01
88 1 2 -9.355253e+00 7.808812e+00 -2.021701e+00 0 -1 1 -3.578181e-01 -4.582768e-01 -3.060304e-01 -7.538528e-01
89 1 2 -8.872280e+00 8.130954e+00 -1.970529e+00 0 -1 1 -4.314735e-02 -4.519594e-01 -1.032220e-01 -8.849951e-01
90 1 3 -8.192697e+00 7.245852e+00 -2.706089e+00 0 -1 1 6.188160e-01 6.278570e-01 4.720337e-01 6.826841e-03
91 1 3 -7.956169e+00 7.318225e+00 -2.573492e+00 0 -1 1 -6.060632e-01 -2.776059e-01 -3.678382e-01 6.483189e-01
92 1 2 -6.953438e+00 7.115600e+00 -2.714527e+00 0 -1 1 -5.881714e-01 -5.856262e-02 -5.936026e-01 -5.461326e-01
93 1 1 -6.554856e+00 7.357309e+00 -2.834566e+00 0 -1 1 3.973027e-01 2.462590e-01 6.235956e-01 6.266065e-01
94 1 2 -6.367860e+00 6.047823e+00 -3.035781e+00 0 -1 1 7.982243e-02 3.603211e-01 -7.850577e-01 -4.974751e-01
95 1 3 -5.843258e+00 6.492969e+00 -3.565989e+00 0 -1 1 4.683506e-01 2.820997e-01 2.662051e-01 7.938528e-01
96 1 2 -5.019553e+00 6.305926e+00 -2.825958e+00 0 -1 1 2.801521e-01 -9.134818e-01 -2.034176e-01 -2.137454e-01
97 1 2 -4.911851e+00 6.713203e+00 -3.009804e+00 0 -1 1 4.383138e-01 -8.962645e-01 6.771758e-02 2.296704e-03
98 1 4 -4.697457e+00 7.169065e+00 -3.082205e+00 0 -1 1 2.774269e-01 -6.964750e-01 5.649773e-01 3.446121e-01
99 1 2 -4.700105e+00 6.891040e+00 -1.994720e+00 0 -1 1 -4.531816e-01 3.918230e-01 -3.419288e-01 7.240068e-01
100 1 1 -4.472933e+00 6.819597e+00 -1.574418e+00 0 -1 1 -7.253092e-01 1.892044e-01 -4.434793e-01 4.913801e-01
101 2 4 -6.871639e+00 5.567334e+00 -1.005404e+01 0 -1 1 7.990981e-02 1.182628e-01 9.793818e-01 -1.429674e-01
102 2 3 -7.045374e+00 5.209460e+00 -1.045528e+01 0 -1 1 9.327174e-03 4.686737e-01 8.741338e-01 -1.270752e-01
103 2 1 -7.461865e+00 4.532385e+00 -1.071426e+01 0 -1 1 -4.534640e-01 3.705649e-02 -1.471215e-01 8.782667e-01
104 2 3 -6.909307e+00 4.562486e+00 -1.092761e+01 0 -1 1 5.922747e-01 -1.033272e-01 -6.409523e-01 4.771942e-01
105 2 3 -7.670606e+00 4.037289e+00 -1.238908e+01 0 -1 1 -5.208438e-01 -2.469976e-01 2.920822e-01 7.631526e-01
106 2 2 -8.098195e+00 4.064175e+00 -1.224544e+01 0 -1 1 8.358559e-01 1.349540e-01 -3.531392e-01 -3.980264e-01
107 2 3 -7.895326e+00 5.282330e+00 -1.162242e+01 0 -1 1 1.621808e-01 -4.780600e-01 -3.038596e-01 8.079761e-01
108 2 4 -8.378571e+00 5.207160e+00 -1.139447e+01 0 -1 1 6.010535e-02 5.846846e-01 1.589681e-01 -7.932593e-01
109 2 3 -8.900337e+00 5.014733e+00 -1.114249e+01 0 -1 1 -2.034867e-01 7.127082e-01 1.960468e-01 -6.420326e-01
110 2 2 -8.723205e+00 3.625526e+00 -1.061555e+01 0 -1 1 3.980626e-01 6.975176e-01 -5.793228e-01 1.392857e-01
111 2 2 -8.935564e+00 2.992246e+00 -1.002979e+01 0 -1 1 -6.937377e-01 5.415375e-02 6.613549e-01 2.800091e-01
112 2 3 -9.254246e+00 2.660830e+00 -9.329616e+00 0 -1 1 -6.826055e-01 3.157387e-01 5.185144e-02 6.570161e-01
113 2 3 -8.814211e+00 3.553510e+00 -8.957034e+00 0 -1 1 -7.022288e-01 3.695039e-01 6.078402e-01 -2.952795e-02
114 2 2 -9.272938e+00 3.623785e+00 -8.832179e+00 0 -1 1 -6.830119e-01 5.497828e-01 3.315141e-01 -3.483274e-01
115 2 4 -9.487605e+00 3.881423e+00 -8.418173e+00 0 -1 1 5.435261e-01 -5.680460e-01 -4.125646e-02 6.166045e-01
116 2 4 -9.766751e+00 3.884410e+00 -8.383703e+00 0 -1 1 -8.054767e-01 4.762549e-01 1.728527e-01 3.074255e-01
117 2 1 -9.837184e+00 4.182388e+00 -8.027794e+00 0 -1 1 -9.126277e-01 3.990539e-01 7.132341e-02 5.272158e-02
118 2 1 -1.059926e+01 5.073266e+00 -7.487614e+00 0 -1 1 1.214259e-01 -7.457043e-01 -1.888531e-01 -6.273080e-01
119 2 1 -1.028380e+01 5.396234e+00 -7.503521e+00 0 -1 1 -4.700664e-01 6.721809e-01 6.759324e-02 5.680155e-01
120 2 1 -1.007590e+01 5.737949e+00 -7.142226e+00 0 -1 1 -6.328766e-01 5.962199e-01 -1.936487e-01 4.544108e-01
121 2 3 -9.950611e+00 6.081844e+00 -6.678128e+00 0 -1 1 5.225634e-01 -8.352493e-01 9.405090e-02 1.429702e-01
122 2 1 -1.115753e+01 6.285445e+00 -6.230849e+00 0 -1 1 4.237751e-01 -1.349214e-01 -8.462164e-01 2.934770e-01
123 2 4 -1.156818e+01 5.904667e+00 -6.176860e+00 0 -1 1 3.078077e-01 -4.435671e-01 -7.269650e-01 4.242930e-01
124 2 1 -1.213762e+01 5.836448e+00 -6.122624e+00 0 -1 1 -1.443022e-01 6.957526e-01 5.412969e-01 -4.495585e-01
125 2 4 -1.266957e+01 5.822588e+00 -6.239053e+00 0 -1 1 1.183793e-01 -8.439603e-01 -3.195334e-01 4.142653e-01
126 2 2 -1.305929e+01 6.026876e+00 -6.395014e+00 0 -1 1 -1.017920e-01 -8.830638e-01 -2.818716e-03 4.580708e-01
127 2 4 -1.338604e+01 6.146031e+00 -6.764558e+00 0 -1 1 -2.327114e-01 -8.730540e-01 2.639957e-01 3.375329e-01
128 2 4 -1.359647e+01 6.134539e+00 -7.307435e+00 0 -1 1 -3.279541e-01 -8.190205e-01 4.113874e-01 2.289366e-01
129 2 1 -1.383537e+01 6.037170e+00 -7.896992e+00 0 -1 1 -4.531571e-01 -7.803518e-01 4.187366e-01 1.017805e-01
130 2 2 -1.384583e+01 5.786228e+00 -8.312746e+00 0 -1 1 -4.070499e-01 -6.074192e-01 6.786417e-01 -6.926615e-02
131 2 3 -1.382371e+01 5.308937e+00 -8.650316e+00 0 -1 1 -4.049448e-01 -4.786470e-01 7.331588e-01 -2.634290e-01
132 2 4 -1.372310e+01 4.873966e+00 -8.869556e+00 0 -1 1 2.570117e-01 1.146918e-01 -8.742652e-01 3.955390e-01
133 2 4 -1.390782e+01 4.246809e+00 -8.855715e+00 0 -1 1 2.784333e-01 -1.845444e-01 -8.107473e-01 4.807359e-01
134 2 3 -1.431575e+01 3.939304e+00 -8.690033e+00 0 -1 1 6.387411e-02 -4.703093e-01 -6.771625e-01 5.622991e-01
135 2 4 -1.474955e+01 3.768965e+00 -8.670245e+00 0 -1 1 1.159257e-01 6.606280e-01 4.679576e-01 -5.754542e-01
136 2 3 -1.522277e+01 3.535957e+00 -8.803211e+00 0 -1 1 7.541112e-02 7.584962e-01 4.157997e-01 -4.960921e-01
137 2 1 -1.573838e+01 3.632932e+00 -9.013388e+00 0 -1 1 -1.358755e-01 -8.997619e-01 -8.384202e-02 4.061241e-01
138 2 3 -1.604146e+01 3.687855e+00 -9.425464e+00 0 -1 1 -3.118892e-01 -8.722295e-01 2.249599e-01 3.022150e-01
139 2 2 -1.624333e+01 3.628954e+00 -9.966137e+00 0 -1 1 -4.265665e-01 -8.004094e-01 3.893125e-01 1.606910e-01
140 2 3 -1.623899e+01 3.406185e+00 -1.045677e+01 0 -1 1 -3.884026e-01 -6.456628e-01 6.515441e-01 -8.805244e-02
141 2 1 -1.617753e+01 3.096717e+00 -1.081498e+01 0 -1 1 -3.264183e-01 -4.864673e-01 7.849350e-01 -2.016870e-01
142 2 2 -1.611543e+01 2.639335e+00 -1.099930e+01 0 -1 1 -2.364145e-01 -1.871069e-01 9.184322e-01 -2.560886e-01
143 2 4 -1.609493e+01 2.120068e+00 -1.124704e+01 0 -1 1 2.238153e-01 7.089224e-02 -8.713710e-01 4.308058e-01
144 2 4 -1.631136e+01 1.617694e+00 -1.124919e+01 0 -1 1 -1.628890e-01 2.580426e-01 7.991229e-01 -5.179612e-01
145 2 1 -1.668428e+01 1.207849e+00 -1.110031e+01 0 -1 1 -1.587383e-01 4.480882e-01 6.325260e-01 -6.114982e-01
146 2 1 -1.720310e+01 9.978067e-01 -1.109300e+01 0 -1 1 -8.205933e-02 6.404392e-01 4.841947e-01 -5.904738e-01
147 2 1 -1.776506e+01 9.614945e-01 -1.122766e+01 0 -1 1 1.349251e-01 8.340353e-01 2.081504e-01 -4.928020e-01
148 2 2 -1.813785e+01 1.059403e+00 -1.159856e+01 0 -1 1 1.846549e-01 9.040986e-01 -3.070805e-02 -3.841422e-01
149 2 4 -1.842145e+01 1.110228e+00 -1.201292e+01 0 -1 1 -2.936498e-01 -8.520237e-01 3.519178e-01 2.529414e-01
150 2 1 -1.846692e+01 1.082244e+00 -1.258097e+01 0 -1 1 -3.491842e-01 -7.036713e-01 6.020415e-01 1.430492e-01
151 2 1 -1.847565e+01 8.981843e-01 -1.304128e+01 0 -1 1 -2.992610e-01 -5.590131e-01 7.720758e-01 -4.296637e-02
152 2 1 -1.848848e+01 6.504301e-01 -1.347544e+01 0 -1 1 -3.786832e-01 -3.992843e-01 8.066566e-01 -2.155833e-01
153 2 4 -1.851145e+01 1.411116e-01 -1.367899e+01 0 -1 1 -2.440219e-01 -1.456706e-01 8.617841e-01 -4.201923e-01
154 2 1 -1.847498e+01 -3.565007e-01 -1.362900e+01 0 -1 1 -1.416977e-01 1.897067e-02 7.841103e-01 -6.039312e-01
155 2 2 -1.861561e+01 -8.718523e-01 -1.349151e+01 0 -1 1 -1.136051e-01 1.989821e-01 7.270069e-01 -6.472719e-01
156 2 4 -1.896638e+01 -1.284672e+00 -1.331299e+01 0 -1 1 7.400769e-02 5.030671e-01 6.382079e-01 -5.780459e-01
157 2 3 -1.942387e+01 -1.380327e+00 -1.326541e+01 0 -1 1 2.759054e-01 6.711733e-01 2.644224e-01 -6.352034e-01
158 2 2 2.007383e+01 -1.643957e+00 -1.344748e+01 -1 -1 1 4.617881e-01 7.767658e-01 1.585410e-01 -3.978082e-01
159 2 1 1.984906e+01 -1.844953e+00 -1.384533e+01 -1 -1 1 4.994830e-01 8.193003e-01 -1.426382e-01 -2.427307e-01
160 2 3 1.972665e+01 -2.173718e+00 -1.426237e+01 -1 -1 1 -5.470426e-01 -7.968910e-01 2.540051e-01 3.450518e-02
161 2 1 1.980177e+01 -2.459818e+00 -1.466045e+01 -1 -1 1 -5.072954e-01 -6.404530e-01 5.472315e-01 -1.816837e-01
162 2 1 1.980179e+01 -3.012377e+00 -1.489068e+01 -1 -1 1 -5.173959e-01 -4.813566e-01 6.142996e-01 -3.510460e-01
163 2 4 1.987439e+01 -3.527618e+00 -1.486725e+01 -1 -1 1 -4.028995e-01 -2.201656e-01 7.124802e-01 -5.306328e-01
164 2 4 1.995438e+01 -4.050363e+00 -1.477330e+01 -1 -1 1 -2.708388e-01 -9.246055e-02 6.899730e-01 -6.648568e-01
165 2 3 1.985627e+01 -4.464967e+00 -1.445850e+01 -1 -1 1 -2.778084e-02 1.721425e-01 6.687545e-01 -7.227466e-01
166 2 3 1.945104e+01 -4.917444e+00 -1.418746e+01 -1 -1 1 2.161953e-02 4.047716e-01 6.600570e-01 -6.324692e-01
167 2 4 1.907153e+01 -5.148204e+00 -1.402133e+01 -1 -1 1 1.099516e-01 5.622712e-01 3.667074e-01 -7.329989e-01
168 2 2 1.845036e+01 -5.141468e+00 -1.400170e+01 -1 -1 1 2.607494e-01 6.675616e-01 2.057562e-01 -6.663600e-01
169 2 2 1.798226e+01 -5.126855e+00 -1.420842e+01 -1 -1 1 4.614139e-01 7.114087e-01 -1.215457e-01 -5.159666e-01
170 2 1 1.753993e+01 -5.312771e+00 -1.450382e+01 -1 -1 1 5.079160e-01 7.456802e-01 -2.653233e-01 -3.399791e-01
171 2 1 1.728845e+01 -5.543922e+00 -1.489653e+01 -1 -1 1 -5.547423e-01 -6.468492e-01 5.106926e-01 1.141937e-01
172 2 4 1.718147e+01 -5.969266e+00 -1.524157e+01 -1 -1 1 -5.561632e-01 -4.523129e-01 6.867241e-01 -1.204384e-01
173 2 4 1.693997e+01 -6.595127e+00 -1.545161e+01 -1 -1 1 -6.711875e-01 -2.803649e-01 6.579163e-01 -1.950618e-01
174 2 1 1.668481e+01 -7.050661e+00 -1.547638e+01 -1 -1 1 -6.159771e-01 -1.754044e-01 6.440202e-01 -4.183820e-01
175 2 1 1.669229e+01 -7.492835e+00 -1.521749e+01 -1 -1 1 -3.953428e-01 6.104167e-02 6.983829e-01 -5.934976e-01
176 2 2 1.643813e+01 -7.802508e+00 -1.480572e+01 -1 -1 1 -2.356872e-01 2.477067e-01 5.660690e-01 -7.501058e-01
177 2 2 1.613957e+01 -7.981946e+00 -1.445449e+01 -1 -1 1 8.948720e-02 4.595596e-01 4.735484e-01 -7.460220e-01
178 2 1 1.573250e+01 -8.394845e+00 -1.433065e+01 -1 -1 1 -2.987541e-02 4.923878e-01 4.144932e-01 -7.647595e-01
179 2 4 1.519599e+01 -8.340088e+00 -1.412154e+01 -1 -1 1 2.490526e-01 6.111316e-01 1.828187e-01 -7.287443e-01
180 2 1 1.474994e+01 -8.355573e+00 -1.414905e+01 -1 -1 1 4.691620e-01 6.423722e-01 -8.664394e-02 -5.997814e-01
181 2 4 1.431555e+01 -8.472364e+00 -1.431786e+01 -1 -1 1 -6.234556e-01 -6.059551e-01 2.994500e-01 3.930028e-01
182 2 2 1.392136e+01 -8.906024e+00 -1.457677e+01 -1 -1 1 -7.207341e-01 -5.298597e-01 3.680067e-01 2.536969e-01
183 2 3 1.362315e+01 -9.338523e+00 -1.463458e+01 -1 -1 1 -8.457837e-01 -2.802167e-01 4.531444e-01 -2.808403e-02
184 2 4 1.341881e+01 -9.743644e+00 -1.455084e+01 -1 -1 1 -7.543893e-01 -2.879423e-01 4.996715e-01 -3.135513e-01
185 2 3 1.323655e+01 -1.013179e+01 -1.443744e+01 -1 -1 1 -6.949449e-01 -2.099587e-01 4.659862e-01 -5.057922e-01
186 2 1 1.376274e+01 -1.036333e+01 -1.555175e+01 -1 -1 1 1.261504e-01 9.485593e-01 -2.348490e-01 -1.707840e-01
187 2 1 1.400663e+01 -1.080650e+01 -1.532351e+01 -1 -1 1 -3.034394e-01 9.457355e-01 1.063517e-01 -4.688465e-02
188 2 2 1.400172e+01 -1.057341e+01 -1.585223e+01 -1 -1 1 1.534872e-01 -9.719599e-01 1.554934e-01 -8.693367e-02
189 2 4 1.425378e+01 -1.025028e+01 -1.612090e+01 -1 -1 1 2.146420e-01 -8.587165e-01 4.621261e-01 5.453715e-02
190 2 4 1.379212e+01 -9.986437e+00 -1.709181e+01 -1 -1 1 -1.042393e-01 1.988445e-01 -8.765719e-01 -4.256956e-01
191 2 1 1.374264e+01 -9.178046e+00 -1.634202e+01 -1 -1 1 -8.495445e-01 4.861803e-01 1.267893e-01 -1.607088e-01
192 2 4 1.274204e+01 -8.963994e+00 -1.666908e+01 -1 -1 1 8.518888e-01 5.145133e-02 -2.477987e-02 -5.205998e-01
193 2 4 1.269756e+01 -8.795786e+00 -1.606017e+01 -1 -1 1 9.508740e-01 -1.811479e-01 2.334479e-01 -9.233699e-02
194 2 1 1.190367e+01 -8.048281e+00 -1.507528e+01 -1 -1 1 -1.393712e-01 -1.751755e-01 5.845295e-01 -7.798811e-01
195 2 3 1.200677e+01 -8.414757e+00 -1.474091e+01 -1 -1 1 1.559435e-01 1.283180e-01 5.700733e-01 -7.963872e-01
196 2 4 1.178254e+01 -8.727849e+00 -1.446591e+01 -1 -1 1 5.483606e-01 3.565383e-01 4.678432e-01 -5.943937e-01
197 2 2 1.147165e+01 -9.107939e+00 -1.436894e+01 -1 -1 1 7.399029e-01 4.781858e-01 3.361379e-01 -3.330065e-01
198 2 4 1.140241e+01 -9.622580e+00 -1.449952e+01 -1 -1 1 7.556081e-01 6.437267e-01 1.081049e-01 -5.464078e-02
199 2 3 1.010046e+01 -8.962381e+00 -1.398615e+01 -1 -1 1 9.395335e-02 2.300138e-01 1.075039e-02 -9.685819e-01
200 2 4 1.101241e+01 -9.437235e+00 -1.286545e+01 -1 -1 1 -1.325902e-02 -3.705354e-01 6.533623e-01 -6.600344e-01
