ITEM: TIMESTEP
142000000
ITEM: NUMBER OF ATOMS
200
ITEM: BOX BOUNDS pp pp pp
-2.0000000000000000e+01 2.0000000000000000e+01
-2.0000000000000000e+01 2.0000000000000000e+01
-2.0000000000000000e+01 2.0000000000000000e+01
ITEM: ATOMS id mol type x y z ix iy iz c_quat[1] c_quat[2] c_quat[3] c_quat[4]
1 1 1 1.258766e+01 -1.279905e+01 -1.152379e+01 -1 -1 1 -8.812845e-01 -2.390761e-01 -6.435447e-02 4.025404e-01
2 1 2 1.304671e+01 -1.196822e+01 -1.135260e+01 -1 -1 1 1.223941e-01 6.114740e-01 -3.917117e-01 -6.765214e-01
3 1 1 1.341356e+01 -1.167220e+01 -1.113592e+01 -1 -1 1 -3.601277e-01 -5.022696e-01 5.958843e-01 5.127916e-01
4 1 3 1.344444e+01 -1.080854e+01 -1.087370e+01 -1 -1 1 5.206713e-01 -8.382755e-01 1.562619e-01 -4.216472e-02
5 1 1 1.295902e+01 -1.074776e+01 -1.179435e+01 -1 -1 1 3.369825e-01 9.297639e-01 -5.725863e-02 1.367600e-01
6 1 2 1.197654e+01 -1.104970e+01 -1.152974e+01 -1 -1 1 3.701523e-01 -8.506582e-01 -3.581303e-01 1.054066e-01
7 1 4 1.169557e+01 -1.067704e+01 -1.160534e+01 -1 -1 1 -3.245333e-01 8.819167e-01 -3.674457e-03 -3.418883e-01
8 1 1 1.155633e+01 -1.027090e+01 -1.176067e+01 -1 -1 1 -7.692761e-02 7.898154e-01 -3.653742e-01 -4.865959e-01
9 1 1 1.144679e+01 -9.937672e+00 -1.203935e+01 -1 -1 1 1.337333e-01 5.847248e-01 -5.829173e-01 -5.481056e-01
10 1 4 1.111128e+01 -8.819568e+00 -1.168030e+01 -1 -1 1 3.800951e-01 -8.954732e-01 -2.076614e-01 1.026263e-01
11 1 1 1.096114e+01 -8.316075e+00 -1.192166e+01 -1 -1 1 2.459227e-01 -9.412143e-01 1.312551e-01 1.908134e-01
12 1 1 1.004778e+01 -8.175850e+00 -1.145711e+01 -1 -1 1 4.765884e-01 1.383127e-02 4.445940e-01 -7.582931e-01
13 1 3 1.001074e+01 -8.539289e+00 -1.105989e+01 -1 -1 1 -7.304692e-01 -1.775222e-01 -3.356178e-01 5.676806e-01
14 1 4 9.510025e+00 -7.483520e+00 -1.065024e+01 -1 -1 1 -8.420938e-02 7.116418e-02 -4.518091e-01 8.852757e-01
15 1 4 9.427314e+00 -7.603940e+00 -1.019068e+01 -1 -1 1 5.128065e-01 9.573164e-02 4.736318e-01 -7.096040e-01
16 1 2 1.011666e+01 -6.553730e+00 -1.003198e+01 -1 -1 1 -7.314627e-01 2.146321e-01 -3.223134e-01 -5.612570e-01
17 1 1 1.045415e+01 -6.185957e+00 -9.834051e+00 -1 -1 1 -5.408760e-01 1.814527e-01 -4.010629e-01 -7.167124e-01
18 1 2 1.076994e+01 -5.825857e+00 -9.858751e+00 -1 -1 1 2.669651e-01 6.054695e-02 5.527891e-01 7.870756e-01
19 1 3 1.094036e+01 -5.364668e+00 -9.929048e+00 -1 -1 1 -9.131936e-02 2.547291e-01 5.378489e-01 7.984312e-01
20 1 1 1.099750e+01 -4.767736e+00 -9.925110e+00 -1 -1 1 -2.226206e-01 2.379801e-01 4.912656e-01 8.077522e-01
21 1 4 1.084548e+01 -4.271741e+00 -9.800168e+00 -1 -1 1 4.804608e-01 -3.712488e-01 -3.392815e-01 -7.184844e-01
22 1 1 1.060449e+01 -3.875736e+00 -9.432237e+00 -1 -1 1 6.903320e-01 -4.091532e-01 -1.512595e-01 -5.771966e-01
23 1 4 1.056603e+01 -3.513992e+00 -8.963176e+00 -1 -1 1 8.346130e-01 -3.904418e-01 4.839884e-02 -3.855306e-01
24 1 3 1.068181e+01 -3.457942e+00 -8.419626e+00 -1 -1 1 8.785404e-01 -3.934523e-01 2.543997e-01 -9.296698e-02
25 1 3 1.113477e+01 -3.459219e+00 -8.007885e+00 -1 -1 1 8.605594e-01 -2.266219e-01 4.212435e-01 1.750254e-01
26 1 4 1.159763e+01 -3.316853e+00 -7.710032e+00 -1 -1 1 6.902240e-01 -1.456009e-01 6.077106e-01 3.647999e-01
27 1 4 1.213522e+01 -3.071820e+00 -7.773680e+00 -1 -1 1 4.979273e-01 6.667602e-03 6.432580e-01 5.815866e-01
28 1 1 1.256599e+01 -2.724499e+00 -7.952993e+00 -1 -1 1 2.672219e-01 7.097547e-02 6.801419e-01 6.789418e-01
29 1 1 1.278504e+01 -2.276445e+00 -8.249438e+00 -1 -1 1 3.506242e-02 2.194900e-01 6.607595e-01 7.169321e-01
30 1 4 1.283940e+01 -1.769836e+00 -8.513323e+00 -1 -1 1 1.852256e-01 -4.092205e-01 -5.786649e-01 -6.807180e-01
31 1 4 1.266222e+01 -1.298331e+00 -8.564327e+00 -1 -1 1 4.661922e-01 -5.234820e-01 -4.763786e-01 -5.307493e-01
32 1 3 1.260050e+01 -8.112128e-01 -8.484885e+00 -1 -1 1 5.971566e-01 -6.473801e-01 -2.260196e-01 -4.161949e-01
33 1 3 1.258189e+01 -3.308243e-01 -8.277354e+00 -1 -1 1 7.276620e-01 -6.289982e-01 9.486444e-03 -2.734579e-01
34 1 1 1.260003e+01 9.033563e-02 -8.088712e+00 -1 -1 1 8.386477e-01 -4.553977e-01 -1.720107e-02 -2.983072e-01
35 1 2 1.256835e+01 2.574404e-01 -7.678663e+00 -1 -1 1 8.407894e-01 -4.922827e-01 1.784834e-01 1.373846e-01
36 1 2 1.279639e+01 5.632180e-01 -7.415183e+00 -1 -1 1 8.136397e-01 -3.780994e-01 3.612891e-01 2.539713e-01
37 1 1 1.329949e+01 7.113467e-01 -7.237849e+00 -1 -1 1 6.753838e-01 -1.690071e-01 5.217800e-01 4.929898e-01
38 1 1 1.377503e+01 9.426061e-01 -7.278056e+00 -1 -1 1 5.076029e-01 6.034328e-03 6.464241e-01 5.695953e-01
39 1 4 1.415692e+01 1.324168e+00 -7.447933e+00 -1 -1 1 -2.576508e-01 -1.223645e-01 -6.415117e-01 -7.121135e-01
40 1 4 1.435126e+01 1.813781e+00 -7.705312e+00 -1 -1 1 -4.028830e-02 -2.427063e-01 -6.357510e-01 -7.316359e-01
41 1 2 1.428751e+01 2.238059e+00 -8.030489e+00 -1 -1 1 1.767254e-01 -5.160187e-01 -5.118190e-01 -6.637275e-01
42 1 4 1.430014e+01 2.724069e+00 -8.105359e+00 -1 -1 1 4.065280e-01 -5.664767e-01 -4.621351e-01 -5.479691e-01
43 1 3 1.411137e+01 3.223441e+00 -8.071190e+00 -1 -1 1 6.253368e-01 -5.569536e-01 -3.521925e-01 -4.179917e-01
44 1 2 1.386701e+01 3.589935e+00 -7.820467e+00 -1 -1 1 7.301557e-01 -6.322211e-01 -1.586813e-01 -2.049128e-01
45 1 1 1.381019e+01 3.934935e+00 -7.396612e+00 -1 -1 1 8.230885e-01 -5.593296e-01 9.638152e-02 -1.965433e-02
46 1 3 1.408231e+01 4.316390e+00 -7.107124e+00 -1 -1 1 7.148476e-01 -5.481993e-01 3.722143e-01 2.234436e-01
47 1 4 1.457452e+01 4.603269e+00 -6.973127e+00 -1 -1 1 6.076871e-01 -3.723752e-01 6.162207e-01 3.351494e-01
48 1 1 1.492106e+01 5.075787e+00 -7.044601e+00 -1 -1 1 -4.912526e-01 3.278030e-01 -7.330558e-01 -3.374098e-01
49 1 4 1.532675e+01 5.190118e+00 -7.355675e+00 -1 -1 1 -3.354880e-01 3.842140e-02 -7.977031e-01 -4.996413e-01
50 1 4 1.559519e+01 5.453597e+00 -7.764742e+00 -1 -1 1 -1.232270e-01 -2.576268e-01 -7.782681e-01 -5.592336e-01
51 1 4 1.566025e+01 5.739150e+00 -8.218067e+00 -1 -1 1 8.111156e-02 -3.637424e-01 -7.849812e-01 -4.948909e-01
52 1 1 1.554594e+01 6.130879e+00 -8.517743e+00 -1 -1 1 2.534052e-01 -5.164621e-01 -7.104727e-01 -4.053163e-01
53 1 3 1.528759e+01 6.644423e+00 -8.677458e+00 -1 -1 1 4.494869e-01 -7.294372e-01 -3.778499e-01 -3.508737e-01
54 1 4 1.510595e+01 7.132331e+00 -8.697260e+00 -1 -1 1 5.697602e-01 -7.554734e-01 -1.897467e-01 -2.619723e-01
55 1 4 1.514167e+01 7.641850e+00 -8.506641e+00 -1 -1 1 6.597784e-01 -7.313085e-01 8.795747e-02 -1.488080e-01
56 1 4 1.526187e+01 8.057858e+00 -8.266211e+00 -1 -1 1 6.572498e-01 -6.740977e-01 3.176260e-01 1.128213e-01
57 1 1 1.577405e+01 8.546068e+00 -8.207977e+00 -1 -1 1 5.821273e-01 -6.342093e-01 5.019567e-01 8.334193e-02
58 1 1 1.626581e+01 8.740774e+00 -8.250077e+00 -1 -1 1 6.011523e-01 -3.081167e-01 7.295556e-01 1.069051e-01
59 1 3 1.678087e+01 8.867753e+00 -8.548996e+00 -1 -1 1 -3.371672e-01 1.103904e-01 -8.764401e-01 -3.255534e-01
60 1 4 1.700942e+01 8.870735e+00 -9.068670e+00 -1 -1 1 -2.290633e-01 -2.544125e-01 -8.586518e-01 -3.814727e-01
61 1 2 1.710637e+01 9.106002e+00 -9.577277e+00 -1 -1 1 -4.288416e-02 -3.506518e-01 -8.233999e-01 -4.440911e-01
62 1 3 1.698257e+01 9.287961e+00 -1.002873e+01 -1 -1 1 9.620371e-02 -5.871146e-01 -7.101218e-01 -3.765213e-01
63 1 2 1.683034e+01 9.653680e+00 -1.046535e+01 -1 -1 1 2.602637e-01 -7.521442e-01 -4.949867e-01 -3.486117e-01
64 1 4 1.668619e+01 1.016572e+01 -1.056049e+01 -1 -1 1 3.708180e-01 -8.906159e-01 -1.483545e-01 -2.174587e-01
65 1 2 1.682964e+01 1.070584e+01 -1.060481e+01 -1 -1 1 4.330324e-01 -8.802474e-01 1.090036e-01 -1.605167e-01
66 1 1 1.709933e+01 1.109983e+01 -1.061325e+01 -1 -1 1 5.858894e-01 -7.297224e-01 3.278284e-01 -1.294888e-01
67 1 2 1.752102e+01 1.139872e+01 -1.051012e+01 -1 -1 1 7.048637e-01 -5.131742e-01 4.869547e-01 -5.190922e-02
68 1 1 1.807663e+01 1.149200e+01 -1.037715e+01 -1 -1 1 6.329786e-01 -3.598578e-01 6.707409e-01 1.412344e-01
69 1 1 1.858183e+01 1.147910e+01 -1.048530e+01 -1 -1 1 5.381409e-01 -9.896041e-02 7.522197e-01 3.671195e-01
70 1 2 1.908357e+01 1.152552e+01 -1.068400e+01 -1 -1 1 -3.925946e-01 -1.444394e-01 -7.777464e-01 -4.691666e-01
71 1 3 1.933643e+01 1.177889e+01 -1.099873e+01 -1 -1 1 -1.958903e-01 -3.057216e-01 -7.540074e-01 -5.473884e-01
72 1 4 1.946283e+01 1.210468e+01 -1.136905e+01 -1 -1 1 8.676184e-02 -5.535310e-01 -6.307016e-01 -5.369277e-01
73 1 1 1.950318e+01 1.263643e+01 -1.158427e+01 -1 -1 1 2.561605e-01 -6.609810e-01 -4.101063e-01 -5.738456e-01
74 1 1 1.948138e+01 1.317254e+01 -1.166797e+01 -1 -1 1 4.393867e-01 -6.951762e-01 -2.326873e-01 -5.191590e-01
75 1 3 1.950731e+01 1.371025e+01 -1.135553e+01 -1 -1 1 5.812070e-01 -7.180033e-01 4.759976e-02 -3.800052e-01
76 1 1 1.975658e+01 1.403379e+01 -1.105120e+01 -1 -1 1 -6.955746e-01 6.334778e-01 -2.939263e-01 1.687873e-01
77 1 4 -1.993899e+01 1.433297e+01 -1.078830e+01 0 -1 1 -7.483170e-01 4.666625e-01 -4.582338e-01 1.107677e-01
78 1 1 1.919036e+01 1.423012e+01 -1.070195e+01 -1 -1 1 7.223501e-01 4.830513e-01 -1.505331e-02 -4.946162e-01
79 1 4 1.863214e+01 1.450284e+01 -1.071547e+01 -1 -1 1 4.068289e-01 6.768188e-01 -4.032622e-01 -4.623701e-01
80 1 2 1.847290e+01 1.519141e+01 -9.444225e+00 -1 -1 1 5.625625e-01 -5.950942e-01 -7.370141e-02 -5.691700e-01
81 1 4 1.871061e+01 1.567694e+01 -9.203754e+00 -1 -1 1 -6.557257e-01 4.620252e-01 -3.436900e-03 5.971137e-01
82 1 4 1.947355e+01 1.582177e+01 -1.041602e+01 -1 -1 1 -8.135792e-01 -2.685554e-01 -4.905121e-01 1.592630e-01
83 1 4 1.965673e+01 1.528824e+01 -1.010119e+01 -1 -1 1 -8.208890e-01 -3.282279e-01 -4.514734e-01 1.207454e-01
84 1 4 1.929476e+01 1.621758e+01 -8.773497e+00 -1 -1 1 1.199348e-01 -4.314417e-02 -4.393946e-01 8.892056e-01
85 1 1 2.007867e+01 1.633208e+01 -8.365802e+00 -1 -1 1 1.402632e-01 -4.447486e-01 2.683079e-01 -8.429329e-01
86 1 1 -1.915129e+01 1.591954e+01 -8.649293e+00 0 -1 1 -3.851356e-01 3.374348e-01 -8.520605e-01 -1.086336e-01
87 1 3 -1.917133e+01 1.684294e+01 -8.266514e+00 0 -1 1 -6.378138e-01 1.698783e-01 -5.513010e-01 -5.102962e-01
88 1 2 -1.971810e+01 1.713041e+01 -7.372805e+00 0 -1 1 1.331406e-01 -4.072766e-01 1.829112e-01 8.848406e-01
89 1 2 -1.966608e+01 1.713080e+01 -6.227964e+00 0 -1 1 -4.980420e-01 3.523630e-01 -1.971200e-01 7.674231e-01
90 1 3 -1.958509e+01 1.706167e+01 -5.744218e+00 0 -1 1 -8.150283e-01 1.363554e-01 -2.443638e-01 5.073681e-01
91 1 3 1.944865e+01 1.731136e+01 -5.844215e+00 -1 -1 1 -6.884947e-01 1.134031e-01 7.427224e-02 7.124594e-01
92 1 2 -1.980026e+01 1.706125e+01 -5.117923e+00 0 -1 1 -9.906076e-01 1.054673e-01 6.253767e-02 6.051597e-02
93 1 1 -1.981321e+01 1.704468e+01 -4.599039e+00 0 -1 1 -9.444504e-01 6.962062e-02 -4.472760e-02 -3.180658e-01
94 1 2 -1.941374e+01 1.704897e+01 -4.402662e+00 0 -1 1 -6.163400e-01 -1.808654e-01 -1.515687e-02 -7.662786e-01
95 1 3 -1.908622e+01 1.719078e+01 -3.958086e+00 0 -1 1 1.846883e-01 8.281289e-02 -1.396948e-01 9.692872e-01
96 1 2 -1.914223e+01 1.723130e+01 -3.418756e+00 0 -1 1 1.928229e-01 5.545487e-02 3.033062e-01 -9.315307e-01
97 1 2 -1.934039e+01 1.720465e+01 -2.936661e+00 0 -1 1 -5.401654e-01 -1.734026e-01 -2.666514e-01 7.791341e-01
98 1 4 -1.964122e+01 1.722813e+01 -2.862485e+00 0 -1 1 9.349198e-02 7.760966e-01 3.745186e-01 -4.986674e-01
99 1 2 1.985631e+01 1.606726e+01 -1.915132e+00 -1 -1 1 3.528559e-01 -1.156532e-01 6.477538e-01 -6.652308e-01
100 1 1 1.945630e+01 1.656785e+01 -2.356141e+00 -1 -1 1 -3.289798e-01 5.451925e-01 4.026860e-01 -6.575571e-01
101 2 4 -1.420607e+01 1.506326e+01 -8.260876e+00 0 -1 1 -2.729582e-01 6.335665e-02 -6.259210e-01 7.278068e-01
102 2 3 -1.388332e+01 1.620449e+01 -9.014067e+00 0 -1 1 1.501624e-01 9.774964e-01 3.743687e-02 1.433547e-01
103 2 1 -1.362693e+01 1.634064e+01 -9.260465e+00 0 -1 1 4.030561e-02 8.280523e-01 -5.591837e-01 -4.302469e-03
104 2 3 -1.441562e+01 1.717253e+01 -8.915466e+00 0 -1 1 5.696817e-01 -8.128799e-01 -9.014299e-02 -8.101361e-02
105 2 3 -1.434418e+01 1.746070e+01 -9.730542e+00 0 -1 1 -5.442999e-01 5.168242e-03 3.359506e-01 -7.686665e-01
106 2 2 -1.474350e+01 1.756480e+01 -1.017772e+01 0 -1 1 -2.002471e-01 1.368191e-02 -9.574484e-01 -2.073802e-01
107 2 3 -1.476408e+01 1.753834e+01 -1.067259e+01 0 -1 1 -1.876269e-02 4.665199e-01 8.691714e-01 1.629364e-01
108 2 4 -1.497760e+01 1.769008e+01 -1.110452e+01 0 -1 1 -2.134146e-01 5.873764e-01 7.744553e-01 9.829634e-02
109 2 3 -1.544269e+01 1.791250e+01 -1.128286e+01 0 -1 1 -3.626388e-01 7.868817e-01 4.531320e-01 -2.097183e-01
110 2 2 -1.585649e+01 1.837044e+01 -1.134880e+01 0 -1 1 -3.654066e-01 8.654213e-01 2.625389e-01 -2.204479e-01
111 2 2 -1.605505e+01 1.836475e+01 -1.184097e+01 0 -1 1 -8.343582e-01 1.415904e-01 3.240685e-01 -4.228218e-01
112 2 3 -1.700017e+01 1.847868e+01 -1.316847e+01 0 -1 1 -3.276320e-01 -5.950530e-01 -7.311678e-01 -6.295134e-02
113 2 3 -1.688191e+01 1.839913e+01 -1.367288e+01 0 -1 1 1.994175e-01 8.398369e-01 4.549790e-01 2.188622e-01
114 2 2 -1.712256e+01 1.709630e+01 -1.344269e+01 0 -1 1 -9.001747e-01 3.661924e-01 -1.688149e-01 1.645911e-01
115 2 4 -1.733554e+01 1.715713e+01 -1.255838e+01 0 -1 1 3.802620e-01 -7.268485e-01 4.351268e-01 -3.711559e-01
116 2 4 -1.680382e+01 1.706569e+01 -1.212394e+01 0 -1 1 -9.961171e-01 -1.920123e-02 5.105418e-02 -6.910447e-02
117 2 1 -1.675364e+01 1.697666e+01 -1.155057e+01 0 -1 1 9.398032e-01 -1.242500e-03 1.177256e-01 3.207946e-01
118 2 1 -1.746931e+01 1.666591e+01 -1.129016e+01 0 -1 1 -7.647450e-02 7.775405e-01 5.522759e-01 -2.908157e-01
119 2 1 -1.789394e+01 1.671193e+01 -1.157572e+01 0 -1 1 7.325788e-02 9.355381e-01 2.232832e-01 -2.637163e-01
120 2 1 -1.769746e+01 1.524072e+01 -1.155952e+01 0 -1 1 3.854476e-01 2.886878e-01 -8.627505e-01 1.541139e-01
121 2 3 -1.785430e+01 1.479407e+01 -1.168871e+01 0 -1 1 -3.476325e-01 1.507688e-01 8.680730e-01 -3.207330e-01
122 2 1 -1.827552e+01 1.458466e+01 -1.189118e+01 0 -1 1 3.924045e-01 -3.604221e-01 -7.196052e-01 4.452897e-01
123 2 4 -1.877177e+01 1.451175e+01 -1.183317e+01 0 -1 1 5.079390e-02 -7.134740e-01 -5.186645e-01 4.683609e-01
124 2 1 -1.917551e+01 1.362611e+01 -1.153523e+01 0 -1 1 -5.219187e-01 5.371944e-02 6.618235e-01 -5.354482e-01
125 2 4 -1.934540e+01 1.328521e+01 -1.119083e+01 0 -1 1 3.243232e-01 -2.502202e-01 -5.718821e-01 7.107427e-01
126 2 2 -1.960186e+01 1.302149e+01 -1.075648e+01 0 -1 1 1.282626e-01 -3.676342e-01 -4.628995e-01 7.963151e-01
127 2 4 1.993401e+01 1.301085e+01 -1.052101e+01 -1 -1 1 -4.845525e-02 -5.540119e-01 -2.691754e-01 7.862999e-01
128 2 4 1.936259e+01 1.301462e+01 -1.049104e+01 -1 -1 1 -3.297325e-01 -6.811696e-01 -1.178546e-02 6.535638e-01
129 2 1 1.887799e+01 1.293758e+01 -1.063114e+01 -1 -1 1 -4.836702e-01 -7.262083e-01 2.236296e-01 4.343667e-01
130 2 2 1.840691e+01 1.261948e+01 -1.084919e+01 -1 -1 1 -5.089835e-01 -7.844155e-01 2.213361e-01 2.768367e-01
131 2 3 1.834576e+01 1.224509e+01 -1.129365e+01 -1 -1 1 -6.137019e-01 -6.290480e-01 4.757815e-01 -3.606313e-02
132 2 4 1.811094e+01 1.170354e+01 -1.153178e+01 -1 -1 1 7.146797e-01 4.349922e-01 -5.047101e-01 2.127966e-01
133 2 4 1.818340e+01 1.122905e+01 -1.152171e+01 -1 -1 1 5.708123e-01 3.230938e-01 -6.133691e-01 4.399569e-01
134 2 3 1.809168e+01 1.071215e+01 -1.132086e+01 -1 -1 1 5.272729e-01 4.117960e-02 -5.988102e-01 6.014265e-01
135 2 4 1.802544e+01 1.040165e+01 -1.089964e+01 -1 -1 1 -3.054629e-01 7.295599e-02 4.506311e-01 -8.356444e-01
136 2 3 1.793559e+01 1.027642e+01 -1.036621e+01 -1 -1 1 -1.303060e-01 1.346554e-01 2.823471e-01 -9.408339e-01
137 2 1 1.764323e+01 1.024802e+01 -9.845285e+00 -1 -1 1 -8.405319e-02 -3.443611e-01 -2.117528e-01 9.107751e-01
138 2 3 1.723956e+01 1.030360e+01 -9.516264e+00 -1 -1 1 -3.410707e-01 -4.261315e-01 -1.066861e-01 8.310841e-01
139 2 2 1.673307e+01 1.018495e+01 -9.302204e+00 -1 -1 1 -5.076280e-01 -4.844603e-01 -9.031571e-03 7.124118e-01
140 2 3 1.623428e+01 9.867544e+00 -9.226363e+00 -1 -1 1 -7.591475e-01 -4.993351e-01 1.477492e-02 4.173024e-01
141 2 1 1.593246e+01 9.412362e+00 -9.241555e+00 -1 -1 1 -7.791388e-01 -5.943126e-01 4.936162e-02 1.931287e-01
142 2 2 1.598198e+01 8.930035e+00 -9.455701e+00 -1 -1 1 -7.892999e-01 -4.248857e-01 3.933656e-01 -2.043068e-01
143 2 4 1.608699e+01 8.425485e+00 -9.364866e+00 -1 -1 1 6.566982e-01 3.510748e-01 -4.797681e-01 4.640222e-01
144 2 4 1.619046e+01 7.920240e+00 -9.227429e+00 -1 -1 1 -5.584111e-01 -1.834668e-01 5.451018e-01 -5.978135e-01
145 2 1 1.631432e+01 7.613330e+00 -8.798200e+00 -1 -1 1 -2.596035e-01 -4.286073e-02 5.987800e-01 -7.564598e-01
146 2 1 1.626552e+01 7.358835e+00 -8.338871e+00 -1 -1 1 -6.569132e-02 1.030867e-01 6.334404e-01 -7.640753e-01
147 2 1 1.605023e+01 7.097099e+00 -7.905141e+00 -1 -1 1 1.490159e-01 3.107586e-01 4.558355e-01 -8.206323e-01
148 2 2 1.569013e+01 6.880192e+00 -7.583390e+00 -1 -1 1 3.897840e-01 5.129732e-01 3.345452e-01 -6.877546e-01
149 2 4 1.518126e+01 6.706983e+00 -7.551640e+00 -1 -1 1 -5.781351e-01 -5.807208e-01 -1.577788e-01 5.510254e-01
150 2 1 1.478501e+01 6.379979e+00 -7.617338e+00 -1 -1 1 -6.586753e-01 -6.566076e-01 3.766620e-02 3.655058e-01
151 2 1 1.451195e+01 6.018808e+00 -7.845322e+00 -1 -1 1 -7.255348e-01 -6.419457e-01 2.156168e-01 1.225337e-01
152 2 1 1.435623e+01 5.557458e+00 -7.972382e+00 -1 -1 1 -7.290107e-01 -6.094963e-01 3.080809e-01 -4.630053e-02
153 2 4 1.441756e+01 5.062001e+00 -8.175471e+00 -1 -1 1 -6.816011e-01 -5.012991e-01 4.592593e-01 -2.705550e-01
154 2 1 1.455817e+01 4.537926e+00 -8.241545e+00 -1 -1 1 -5.614067e-01 -4.639247e-01 4.901202e-01 -4.789349e-01
155 2 2 1.483809e+01 4.173454e+00 -7.987548e+00 -1 -1 1 -3.000923e-01 -2.215023e-01 5.854074e-01 -7.198469e-01
156 2 4 1.500644e+01 3.872867e+00 -7.578013e+00 -1 -1 1 -3.392527e-02 -3.046094e-02 5.965266e-01 -8.012972e-01
157 2 3 1.491491e+01 3.507226e+00 -7.254876e+00 -1 -1 1 1.974396e-01 2.232292e-01 5.612440e-01 -7.721344e-01
158 2 2 1.457917e+01 3.155873e+00 -6.976839e+00 -1 -1 1 3.089881e-01 5.177348e-01 4.302487e-01 -6.718356e-01
159 2 1 1.414781e+01 2.787236e+00 -6.885169e+00 -1 -1 1 4.124363e-01 6.332517e-01 3.257195e-01 -5.681508e-01
160 2 3 1.375452e+01 2.407663e+00 -6.961335e+00 -1 -1 1 -3.769788e-01 -7.475259e-01 -2.452311e-01 4.888289e-01
161 2 1 1.336735e+01 2.231332e+00 -7.200650e+00 -1 -1 1 -5.634026e-01 -7.582886e-01 5.672938e-03 3.279386e-01
162 2 1 1.313801e+01 1.943061e+00 -7.597283e+00 -1 -1 1 -5.177285e-01 -8.177593e-01 2.363539e-01 8.581200e-02
163 2 4 1.306684e+01 1.651842e+00 -8.066386e+00 -1 -1 1 -5.102754e-01 -7.275300e-01 4.408326e-01 -1.264345e-01
164 2 4 1.328013e+01 1.247232e+00 -8.355957e+00 -1 -1 1 -4.516484e-01 -5.429525e-01 6.344374e-01 -3.141744e-01
165 2 3 1.346887e+01 7.593970e-01 -8.389689e+00 -1 -1 1 -3.322880e-01 -3.357387e-01 7.424747e-01 -4.749690e-01
166 2 3 1.363017e+01 2.487153e-01 -8.233114e+00 -1 -1 1 -2.213047e-01 -9.407570e-02 7.557975e-01 -6.090518e-01
167 2 4 1.373691e+01 -3.075947e-01 -8.129613e+00 -1 -1 1 -1.410348e-01 2.305719e-02 7.389504e-01 -6.584298e-01
168 2 2 1.364161e+01 -7.345339e-01 -7.871186e+00 -1 -1 1 -7.687499e-02 1.887478e-01 6.695069e-01 -7.143004e-01
169 2 2 1.325960e+01 -1.153299e+00 -7.561549e+00 -1 -1 1 7.713046e-02 4.530791e-01 5.676369e-01 -6.830510e-01
170 2 1 1.275958e+01 -1.322815e+00 -7.411531e+00 -1 -1 1 3.145433e-01 5.746200e-01 3.766724e-01 -6.549751e-01
171 2 1 1.222260e+01 -1.562373e+00 -7.482393e+00 -1 -1 1 -4.750728e-01 -7.165898e-01 -1.673325e-01 4.824983e-01
172 2 4 1.177975e+01 -1.820781e+00 -7.812980e+00 -1 -1 1 -5.442803e-01 -7.753659e-01 5.893022e-02 3.147917e-01
173 2 4 1.154320e+01 -2.094161e+00 -8.142890e+00 -1 -1 1 -5.990653e-01 -7.310928e-01 3.170724e-01 7.803264e-02
174 2 1 1.161688e+01 -2.447097e+00 -8.568964e+00 -1 -1 1 -5.532496e-01 -6.154870e-01 5.565361e-01 -7.319960e-02
175 2 1 1.174203e+01 -2.818652e+00 -8.809193e+00 -1 -1 1 -4.315327e-01 -4.663371e-01 7.190359e-01 -2.815966e-01
176 2 2 1.173733e+01 -3.359131e+00 -9.011775e+00 -1 -1 1 -4.555772e-01 -2.997054e-01 7.647012e-01 -3.433048e-01
177 2 2 1.172465e+01 -3.886184e+00 -8.940361e+00 -1 -1 1 -3.318651e-01 -7.292432e-03 7.925867e-01 -5.114868e-01
178 2 1 1.143627e+01 -4.321571e+00 -8.775760e+00 -1 -1 1 -1.330481e-01 3.377299e-01 7.371586e-01 -5.699420e-01
179 2 4 1.099303e+01 -4.606109e+00 -8.612159e+00 -1 -1 1 5.230185e-02 5.780420e-01 5.675531e-01 -5.839652e-01
180 2 1 1.048472e+01 -4.927179e+00 -8.854930e+00 -1 -1 1 1.551503e-01 7.964480e-01 4.658764e-01 -3.529280e-01
181 2 4 1.007423e+01 -4.895927e+00 -9.156754e+00 -1 -1 1 -2.590517e-01 -9.040389e-01 -1.441593e-01 3.079349e-01
182 2 2 9.850037e+00 -5.052587e+00 -9.611277e+00 -1 -1 1 -4.359314e-01 -8.851219e-01 8.289308e-02 1.401847e-01
183 2 3 9.790089e+00 -5.229533e+00 -1.007051e+01 -1 -1 1 -3.804629e-01 -8.663290e-01 3.228260e-01 -2.248145e-02
184 2 4 9.823937e+00 -5.445757e+00 -1.055988e+01 -1 -1 1 -2.922336e-01 -8.525325e-01 3.975446e-01 -1.724709e-01
185 2 3 1.028036e+01 -5.670125e+00 -1.084726e+01 -1 -1 1 1.975179e-01 6.165998e-01 -7.139624e-01 2.665502e-01
186 2 1 1.048267e+01 -6.085013e+00 -1.106367e+01 -1 -1 1 1.717446e-01 2.818693e-01 -9.035339e-01 2.732766e-01
187 2 1 1.070309e+01 -4.974829e+00 -1.192679e+01 -1 -1 1 2.472299e-01 1.589123e-01 7.197993e-01 6.288985e-01
188 2 2 1.088823e+01 -4.663203e+00 -1.237291e+01 -1 -1 1 6.541163e-02 4.787852e-01 6.045524e-01 6.332475e-01
189 2 4 1.094694e+01 -4.298077e+00 -1.269481e+01 -1 -1 1 1.518001e-01 -6.722225e-01 -4.085129e-01 -5.984905e-01
190 2 4 1.059676e+01 -5.247748e+00 -1.339036e+01 -1 -1 1 2.575840e-02 -2.061964e-01 9.672811e-01 -1.455567e-01
191 2 1 1.095866e+01 -4.246254e+00 -1.292639e+01 -1 -1 1 -8.973456e-01 3.147608e-01 3.092769e-01 -6.657988e-03
192 2 4 1.019505e+01 -3.254428e+00 -1.382388e+01 -1 -1 1 -2.486447e-01 -5.862164e-01 -7.061183e-01 -3.097146e-01
193 2 4 1.020241e+01 -3.231712e+00 -1.428031e+01 -1 -1 1 1.617889e-01 8.088441e-01 4.344915e-01 3.616803e-01
194 2 1 1.034370e+01 -2.957077e+00 -1.463199e+01 -1 -1 1 -1.363426e-01 8.997504e-01 1.646667e-01 3.804534e-01
195 2 3 1.026202e+01 -2.502160e+00 -1.570827e+01 -1 -1 1 -2.031528e-01 4.813237e-01 2.530440e-01 -8.142636e-01
196 2 4 1.132664e+01 -3.296389e+00 -1.615568e+01 -1 -1 1 7.889182e-01 3.459159e-01 4.364598e-03 5.078693e-01
197 2 2 1.049279e+01 -3.854832e+00 -1.606957e+01 -1 -1 1 4.476197e-01 9.053554e-02 -7.143063e-01 5.302891e-01
198 2 4 1.024194e+01 -4.343898e+00 -1.584630e+01 -1 -1 1 3.018185e-01 -1.460668e-01 -6.581022e-01 6.741451e-01
199 2 3 1.104114e+01 -5.289684e+00 -1.599285e+01 -1 -1 1 9.057538e-01 -2.888608e-02 1.470598e-01 3.964203e-01
200 2 4 1.129337e+01 -5.435912e+00 -1.570334e+01 -1 -1 1 -6.149747e-01 -1.205908e-01 3.572331e-02 -7.784522e-01
