ITEM: TIMESTEP
182000000
ITEM: NUMBER OF ATOMS
200
ITEM: BOX BOUNDS pp pp pp
-2.0000000000000000e+01 2.0000000000000000e+01
-2.0000000000000000e+01 2.0000000000000000e+01
-2.0000000000000000e+01 2.0000000000000000e+01
ITEM: ATOMS id mol type x y z ix iy iz c_quat[1] c_quat[2] c_quat[3] c_quat[4]
1 1 1 -1.586613e+01 -1.682822e+01 -1.281291e+00 0 -1 1 -2.998683e-01 5.220322e-01 -2.402436e-01 -7.614751e-01
2 1 2 -1.608168e+01 -1.635015e+01 -1.225834e+00 0 -1 1 2.035394e-01 -5.242824e-01 4.530306e-01 6.917101e-01
3 1 1 -1.617972e+01 -1.587266e+01 -1.480888e+00 0 -1 1 1.358018e-01 2.843339e-01 -6.583532e-01 -6.835812e-01
4 1 3 -1.654251e+01 -1.542446e+01 -1.666222e+00 0 -1 1 -4.013814e-01 -2.075473e-01 6.485780e-01 6.125061e-01
5 1 1 -1.703599e+01 -1.534482e+01 -1.805207e+00 0 -1 1 -6.428181e-01 1.246637e-01 5.865834e-01 4.766171e-01
6 1 2 -1.755550e+01 -1.525067e+01 -1.708293e+00 0 -1 1 7.699417e-01 -2.571972e-01 -5.256977e-01 -2.543252e-01
7 1 4 -1.798550e+01 -1.533719e+01 -1.337109e+00 0 -1 1 -8.682057e-01 2.813907e-01 4.072863e-01 -3.400184e-02
8 1 1 -1.836148e+01 -1.524627e+01 -8.557409e-01 0 -1 1 7.529653e-01 -5.523637e-01 -2.144012e-01 2.863036e-01
9 1 1 -1.864119e+01 -1.505120e+01 -3.920571e-01 0 -1 1 -7.424217e-01 5.318665e-01 9.753552e-02 -3.954932e-01
10 1 4 -1.853711e+01 -1.465930e+01 3.335123e-02 0 -1 1 4.960628e-01 -5.401742e-01 -1.721813e-03 6.798019e-01
11 1 1 -1.845123e+01 -1.419488e+01 2.077682e-01 0 -1 1 3.655225e-01 -4.167210e-01 2.931078e-01 7.789896e-01
12 1 1 -1.853684e+01 -1.373303e+01 3.222882e-01 0 -1 1 -2.013503e-01 4.134967e-01 -4.491674e-01 -7.659812e-01
13 1 3 -1.863981e+01 -1.321968e+01 2.633863e-01 0 -1 1 -1.682015e-01 -1.941774e-01 5.696736e-01 7.806891e-01
14 1 4 -1.902004e+01 -1.279090e+01 2.753778e-01 0 -1 1 4.208020e-01 1.915344e-01 -5.824859e-01 -6.685435e-01
15 1 4 -1.949666e+01 -1.268708e+01 9.913655e-02 0 -1 1 6.264282e-01 2.391012e-02 -6.186014e-01 -4.736542e-01
16 1 2 1.996986e+01 -1.262105e+01 7.958146e-02 -1 -1 1 -7.556235e-01 2.345287e-01 5.654528e-01 2.330076e-01
17 1 1 1.944375e+01 -1.253369e+01 3.027612e-01 -1 -1 1 -8.385945e-01 3.260553e-01 4.339697e-01 4.601593e-02
18 1 2 1.902043e+01 -1.246045e+01 6.878575e-01 -1 -1 1 8.542892e-01 -4.112086e-01 -2.887640e-01 1.330898e-01
19 1 3 1.887396e+01 -1.232880e+01 1.234190e+00 -1 -1 1 8.176675e-01 -4.563660e-01 -9.212241e-02 3.386198e-01
20 1 1 1.893344e+01 -1.204721e+01 1.702747e+00 -1 -1 1 6.500962e-01 -4.864740e-01 6.678354e-02 5.798775e-01
21 1 4 1.895366e+01 -1.146951e+01 1.995432e+00 -1 -1 1 -4.671596e-01 5.597127e-01 -2.574978e-01 -6.341755e-01
22 1 1 1.893906e+01 -1.096808e+01 1.962761e+00 -1 -1 1 -8.931239e-02 4.064193e-01 -4.639074e-01 -7.820720e-01
23 1 4 1.883080e+01 -1.044655e+01 1.837603e+00 -1 -1 1 9.267867e-02 3.226374e-01 -6.210927e-01 -7.082088e-01
24 1 3 1.870122e+01 -1.010790e+01 1.597176e+00 -1 -1 1 2.627544e-01 1.961953e-01 -7.657105e-01 -5.533127e-01
25 1 3 1.831259e+01 -9.862638e+00 1.280493e+00 -1 -1 1 4.846773e-01 -1.238730e-01 -7.018305e-01 -5.071265e-01
26 1 4 1.779988e+01 -9.588793e+00 1.235952e+00 -1 -1 1 6.736414e-01 -2.713727e-01 -5.606901e-01 -3.977319e-01
27 1 4 1.735114e+01 -9.321714e+00 1.420301e+00 -1 -1 1 7.890785e-01 -4.203736e-01 -4.000738e-01 -2.014499e-01
28 1 1 1.703733e+01 -9.222380e+00 1.800508e+00 -1 -1 1 7.682399e-01 -5.946247e-01 -2.130469e-01 1.041150e-01
29 1 1 1.685574e+01 -8.863988e+00 2.065358e+00 -1 -1 1 7.935041e-01 -5.634354e-01 -5.772498e-02 2.226199e-01
30 1 4 1.692201e+01 -8.554128e+00 2.490285e+00 -1 -1 1 -6.158795e-01 6.421764e-01 -7.839498e-02 -4.496179e-01
31 1 4 1.689429e+01 -8.002917e+00 2.714651e+00 -1 -1 1 -4.778514e-01 6.142737e-01 -3.770594e-01 -5.021475e-01
32 1 3 1.713015e+01 -7.554725e+00 2.686794e+00 -1 -1 1 -1.965060e-01 4.920262e-01 -5.008648e-01 -6.844195e-01
33 1 3 1.712075e+01 -7.079378e+00 2.532228e+00 -1 -1 1 -9.445779e-03 2.922973e-01 -6.303890e-01 -7.190846e-01
34 1 1 1.702976e+01 -6.637281e+00 2.261629e+00 -1 -1 1 2.264536e-01 8.571361e-02 -7.051276e-01 -6.664586e-01
35 1 2 1.668617e+01 -6.229124e+00 1.982187e+00 -1 -1 1 3.994826e-01 -5.662788e-02 -6.917299e-01 -5.989296e-01
36 1 2 1.620661e+01 -5.894023e+00 1.860619e+00 -1 -1 1 5.848012e-01 -2.334851e-01 -6.280334e-01 -4.572377e-01
37 1 1 1.579723e+01 -5.607483e+00 1.986490e+00 -1 -1 1 7.657735e-01 -3.276936e-01 -4.642267e-01 -3.011669e-01
38 1 1 1.534965e+01 -5.479631e+00 2.247673e+00 -1 -1 1 8.183555e-01 -4.582834e-01 -3.416261e-01 -5.968472e-02
39 1 4 1.513560e+01 -5.250146e+00 2.629198e+00 -1 -1 1 -7.920978e-01 5.677021e-01 7.639333e-02 -2.108542e-01
40 1 4 1.510492e+01 -4.809192e+00 3.066381e+00 -1 -1 1 -7.569127e-01 5.534689e-01 -1.120175e-01 -3.289489e-01
41 1 2 1.529800e+01 -4.350311e+00 3.330266e+00 -1 -1 1 -5.180541e-01 5.888241e-01 -3.010082e-01 -5.424945e-01
42 1 4 1.546273e+01 -3.865343e+00 3.384812e+00 -1 -1 1 3.233506e-01 -4.509216e-01 5.018796e-01 6.634991e-01
43 1 3 1.558372e+01 -3.374040e+00 3.248789e+00 -1 -1 1 -2.304101e-01 3.746655e-01 -6.706311e-01 -5.973197e-01
44 1 2 1.572010e+01 -2.995520e+00 2.965591e+00 -1 -1 1 -3.483207e-02 9.226737e-02 -7.754600e-01 -6.236467e-01
45 1 1 1.568072e+01 -2.668969e+00 2.616041e+00 -1 -1 1 9.005843e-02 -1.529443e-02 -8.966938e-01 -4.331233e-01
46 1 3 1.541997e+01 -2.363355e+00 2.206078e+00 -1 -1 1 2.773791e-01 -1.247832e-01 -8.591744e-01 -4.114721e-01
47 1 4 1.503573e+01 -2.239554e+00 1.845813e+00 -1 -1 1 3.745990e-01 -4.681048e-01 -7.541792e-01 -2.678940e-01
48 1 1 1.456339e+01 -1.936016e+00 1.672831e+00 -1 -1 1 -5.036885e-01 6.649558e-01 5.303647e-01 1.511455e-01
49 1 4 1.422187e+01 -1.565616e+00 1.634421e+00 -1 -1 1 -5.993126e-01 7.085353e-01 3.725603e-01 9.714567e-04
50 1 4 1.391851e+01 -1.093026e+00 1.723361e+00 -1 -1 1 -6.090411e-01 7.836699e-01 9.676951e-02 -7.460597e-02
51 1 4 1.392318e+01 -6.403535e-01 1.844462e+00 -1 -1 1 -5.123107e-01 7.910071e-01 -1.726549e-01 -2.864190e-01
52 1 1 1.412983e+01 -1.946190e-01 1.912888e+00 -1 -1 1 -4.634790e-01 6.508465e-01 -4.433252e-01 -4.062619e-01
53 1 3 1.436551e+01 2.984738e-01 1.821321e+00 -1 -1 1 -3.351329e-01 5.282684e-01 -6.417992e-01 -4.435224e-01
54 1 4 1.457400e+01 7.512169e-01 1.523865e+00 -1 -1 1 -1.975282e-01 4.296976e-01 -7.748091e-01 -4.195395e-01
55 1 4 1.458717e+01 1.057793e+00 1.039387e+00 -1 -1 1 3.864483e-02 2.073994e-01 -9.053667e-01 -3.685149e-01
56 1 4 1.450813e+01 1.176992e+00 5.274775e-01 -1 -1 1 2.273515e-01 -4.018533e-02 -9.163635e-01 -3.270692e-01
57 1 1 1.417592e+01 1.253913e+00 8.756194e-02 -1 -1 1 3.589058e-01 -3.458246e-01 -8.399384e-01 -2.146987e-01
58 1 1 1.372822e+01 1.483927e+00 -2.148384e-01 -1 -1 1 4.569529e-01 -4.700244e-01 -7.384932e-01 -1.577939e-01
59 1 3 1.323635e+01 1.670124e+00 -2.878462e-01 -1 -1 1 -4.624085e-01 6.937389e-01 5.497466e-01 5.180082e-02
60 1 4 1.290766e+01 2.018781e+00 -3.393133e-01 -1 -1 1 -5.259482e-01 8.001530e-01 2.614317e-01 -1.216023e-01
61 1 2 1.269114e+01 2.548125e+00 -1.674457e-01 -1 -1 1 -4.821448e-01 8.274884e-01 6.817604e-03 -2.876679e-01
62 1 3 1.250194e+01 3.046394e+00 -2.450290e-01 -1 -1 1 -5.382391e-01 7.961004e-01 -1.240099e-01 -2.472737e-01
63 1 2 1.124806e+01 3.863464e+00 -4.152615e-01 -1 -1 1 -7.491437e-03 7.625448e-01 6.390505e-01 1.004183e-01
64 1 4 1.097634e+01 4.082155e+00 -8.102471e-01 -1 -1 1 1.008645e-02 9.503277e-01 2.893597e-01 1.142215e-01
65 1 2 1.068121e+01 4.340654e+00 -4.906190e-01 -1 -1 1 4.699390e-01 -8.049462e-01 1.545161e-02 -3.619120e-01
66 1 1 1.011793e+01 4.686416e+00 -4.142187e-01 -1 -1 1 7.063437e-01 -2.620949e-01 1.449906e-01 -6.413755e-01
67 1 2 1.127201e+01 5.555316e+00 -2.870725e-01 -1 -1 1 -7.668906e-01 -5.372722e-01 2.426755e-01 -2.536257e-01
68 1 1 1.007932e+01 5.772734e+00 1.084217e-01 -1 -1 1 6.599183e-01 -6.365102e-01 -3.457643e-01 -1.995236e-01
69 1 1 9.987251e+00 6.180219e+00 3.577820e-01 -1 -1 1 7.536925e-01 -6.525448e-01 8.114551e-03 7.789157e-02
70 1 2 1.019191e+01 6.485058e+00 7.075644e-01 -1 -1 1 6.792654e-01 -5.308019e-01 3.134901e-01 3.982108e-01
71 1 3 1.046159e+01 6.952672e+00 6.947383e-01 -1 -1 1 -5.355587e-01 3.130334e-01 -5.981999e-01 -5.072906e-01
72 1 4 1.073265e+01 7.369350e+00 6.447626e-01 -1 -1 1 -2.837523e-01 1.840459e-01 -6.652052e-01 -6.656679e-01
73 1 1 1.081201e+01 7.829922e+00 3.387176e-01 -1 -1 1 7.063562e-02 8.151046e-02 7.222849e-01 6.831334e-01
74 1 1 1.073138e+01 8.433957e+00 1.842767e-01 -1 -1 1 2.019168e-01 -1.900613e-01 -6.791793e-01 -6.795747e-01
75 1 3 1.048773e+01 8.969812e+00 1.118708e-02 -1 -1 1 -4.776684e-01 3.995010e-01 4.767178e-01 6.204611e-01
76 1 1 1.014888e+01 9.283068e+00 2.510225e-01 -1 -1 1 -6.793235e-01 5.539568e-01 3.253446e-01 3.546863e-01
77 1 4 1.003874e+01 9.652545e+00 5.895087e-01 -1 -1 1 -7.230260e-01 6.902524e-01 2.799876e-02 -1.096239e-03
78 1 1 1.013134e+01 1.016132e+01 9.341909e-01 -1 -1 1 -8.680048e-01 4.932062e-01 -4.209553e-02 3.928361e-02
79 1 4 9.353999e+00 1.089423e+01 1.364685e+00 -1 -1 1 3.030808e-01 2.639691e-01 1.103691e-01 9.090000e-01
80 1 2 9.592975e+00 1.112178e+01 1.770300e+00 -1 -1 1 -1.970539e-01 2.260354e-01 -3.380750e-02 9.533807e-01
81 1 4 9.544649e+00 1.129619e+01 2.260826e+00 -1 -1 1 5.597255e-01 -1.492062e-01 1.254248e-01 -8.054276e-01
82 1 4 9.903441e+00 1.241778e+01 1.442112e+00 -1 -1 1 1.477629e-01 -5.174377e-02 5.590712e-01 8.142040e-01
83 1 4 9.860611e+00 1.285102e+01 1.352867e+00 -1 -1 1 -2.430605e-01 2.235327e-01 5.138829e-01 7.917570e-01
84 1 4 9.617171e+00 1.319489e+01 1.432007e+00 -1 -1 1 6.235927e-01 -5.253653e-01 -2.812466e-01 -5.059879e-01
85 1 1 9.267471e+00 1.387418e+01 5.289952e-01 -1 -1 1 -2.571564e-01 8.019223e-01 8.374946e-02 -5.327075e-01
86 1 1 8.693303e+00 1.401166e+01 1.043505e+00 -1 -1 1 6.680228e-01 1.989297e-01 -3.971459e-02 7.159576e-01
87 1 3 7.610425e+00 1.278216e+01 7.885997e-01 -1 -1 1 6.624302e-01 1.836501e-02 -3.450484e-01 -6.646733e-01
88 1 2 7.142215e+00 1.278053e+01 9.015704e-01 -1 -1 1 8.644263e-01 -6.543636e-02 -4.002018e-01 -2.971932e-01
89 1 2 6.754552e+00 1.262630e+01 1.160562e+00 -1 -1 1 8.925481e-01 -1.947234e-01 -3.520510e-01 2.037175e-01
90 1 3 6.417309e+00 1.241071e+01 1.483603e+00 -1 -1 1 -9.072618e-01 5.828829e-02 1.972871e-01 -3.668190e-01
91 1 3 6.472280e+00 1.218901e+01 1.911023e+00 -1 -1 1 6.525246e-01 -1.350434e-01 -1.804136e-01 7.234818e-01
92 1 2 6.559005e+00 1.136564e+01 1.966933e+00 -1 -1 1 8.669751e-01 1.572604e-02 3.965847e-01 3.013760e-01
93 1 1 6.939429e+00 1.121703e+01 2.028151e+00 -1 -1 1 -6.683892e-01 -3.326804e-01 -2.616706e-01 -6.116438e-01
94 1 2 7.176041e+00 1.016417e+01 2.480601e+00 -1 -1 1 -2.498188e-01 -8.449412e-01 4.570074e-01 1.216932e-01
95 1 3 6.169414e+00 1.086618e+01 2.993751e+00 -1 -1 1 -4.164928e-01 6.856243e-01 2.740994e-01 -5.303985e-01
96 1 2 5.892170e+00 1.129375e+01 3.110184e+00 -1 -1 1 -1.610737e-01 7.229723e-01 -5.293538e-02 -6.697493e-01
97 1 2 5.446892e+00 1.125258e+01 3.070970e+00 -1 -1 1 5.206603e-01 6.318210e-01 -4.546588e-01 -3.507141e-01
98 1 4 5.258352e+00 1.094196e+01 2.762783e+00 -1 -1 1 5.988340e-01 3.978383e-01 -6.941151e-01 -3.642416e-02
99 1 2 5.099391e+00 1.057493e+01 3.565487e+00 -1 -1 1 -5.046691e-02 -5.832919e-01 7.337635e-01 -3.446951e-01
100 1 1 4.662105e+00 1.092144e+01 3.650912e+00 -1 -1 1 3.658992e-01 9.026668e-01 2.261737e-01 -1.248451e-02
101 2 4 -1.581000e+01 4.409537e+00 -2.018862e+00 0 -1 1 3.471524e-01 -7.301218e-01 -4.951890e-01 -3.181120e-01
102 2 3 -1.582996e+01 4.963191e+00 -2.123408e+00 0 -1 1 2.837557e-01 -9.477514e-01 4.231053e-02 -1.394982e-01
103 2 1 -1.535966e+01 5.466810e+00 -2.887716e+00 0 -1 1 7.250364e-01 5.571249e-01 -9.835063e-02 3.927611e-01
104 2 3 -1.500596e+01 5.101503e+00 -2.807264e+00 0 -1 1 -4.244202e-01 -5.156913e-01 2.566077e-01 -6.986290e-01
105 2 3 -1.551781e+01 4.769315e+00 -4.365121e+00 0 -1 1 -4.697518e-01 -4.937555e-01 1.182795e-01 7.221833e-01
106 2 2 -1.603456e+01 4.652142e+00 -4.440621e+00 0 -1 1 7.275969e-01 3.548195e-01 -4.044803e-01 -4.255604e-01
107 2 3 -1.679159e+01 5.744073e+00 -3.999027e+00 0 -1 1 -4.998113e-01 5.523652e-01 6.399997e-01 -1.883660e-01
108 2 4 -1.722296e+01 5.879722e+00 -3.805816e+00 0 -1 1 2.220177e-01 -7.069031e-01 -3.666698e-01 5.626273e-01
109 2 3 -1.774340e+01 6.089431e+00 -3.850971e+00 0 -1 1 -1.576523e-01 -8.369529e-01 -4.000388e-02 5.225469e-01
110 2 2 -1.817814e+01 6.057993e+00 -4.257926e+00 0 -1 1 -1.717006e-01 -9.064587e-01 9.012780e-02 3.751380e-01
111 2 2 -1.840369e+01 6.101352e+00 -4.666876e+00 0 -1 1 -2.489839e-01 -8.607715e-01 3.903667e-01 2.114077e-01
112 2 3 -1.976296e+01 6.588188e+00 -4.583331e+00 0 -1 1 -1.651515e-01 4.176255e-01 1.281440e-01 -8.842472e-01
113 2 3 1.973616e+01 6.840921e+00 -4.379994e+00 -1 -1 1 -5.227537e-02 -5.458081e-01 9.948052e-02 8.303399e-01
114 2 2 1.934420e+01 7.147871e+00 -4.362455e+00 -1 -1 1 -2.837182e-01 -4.973108e-01 3.594761e-01 7.368602e-01
115 2 4 1.891819e+01 7.323227e+00 -4.575567e+00 -1 -1 1 5.694762e-01 3.292344e-01 -5.127118e-01 -5.517501e-01
116 2 4 1.839011e+01 7.034826e+00 -3.918757e+00 -1 -1 1 5.957419e-01 -4.149377e-01 -6.828276e-01 -8.163788e-02
117 2 1 1.787000e+01 7.108272e+00 -3.768259e+00 -1 -1 1 -5.456076e-01 6.678604e-01 4.549678e-01 -2.219892e-01
118 2 1 1.753354e+01 7.470171e+00 -3.652809e+00 -1 -1 1 -5.176991e-01 7.664012e-01 2.166901e-01 -3.125097e-01
119 2 1 1.722679e+01 7.954672e+00 -3.518956e+00 -1 -1 1 -4.802769e-01 8.004642e-01 1.860918e-02 -3.581130e-01
120 2 1 1.664811e+01 7.464569e+00 -3.255011e+00 -1 -1 1 -3.742292e-01 -8.141524e-01 -6.789477e-02 -4.387467e-01
121 2 3 1.715682e+01 6.465033e+00 -3.181053e+00 -1 -1 1 8.340672e-01 -5.163450e-01 -1.433147e-01 1.310751e-01
122 2 1 1.709914e+01 6.703183e+00 -2.744948e+00 -1 -1 1 7.879354e-01 -4.440098e-01 8.551578e-02 4.179716e-01
123 2 4 1.615272e+01 6.063811e+00 -3.272668e+00 -1 -1 1 -8.419996e-01 -1.427233e-02 -5.072601e-01 -1.830851e-01
124 2 1 1.570690e+01 6.914070e+00 -2.345207e+00 -1 -1 1 2.536652e-01 -8.585654e-01 2.372030e-01 -3.771661e-01
125 2 4 1.452641e+01 6.862198e+00 -3.125224e+00 -1 -1 1 -1.223665e-01 -2.376608e-01 -3.390519e-01 9.019909e-01
126 2 2 1.458594e+01 7.321358e+00 -2.881839e+00 -1 -1 1 5.515358e-01 5.066758e-01 2.988011e-01 5.914438e-01
127 2 4 1.370834e+01 7.263309e+00 -3.310724e+00 -1 -1 1 4.133640e-01 -2.026245e-01 5.905827e-01 6.627862e-01
128 2 4 1.317660e+01 6.421615e+00 -3.035743e+00 -1 -1 1 3.896376e-02 -5.431952e-01 8.341511e-01 8.725132e-02
129 2 1 1.247845e+01 6.704347e+00 -3.392084e+00 -1 -1 1 1.210605e-01 -5.612458e-01 -2.906814e-01 7.654096e-01
130 2 2 1.211577e+01 5.421598e+00 -3.083064e+00 -1 -1 1 -4.255298e-01 1.815890e-01 -2.384852e-01 8.538587e-01
131 2 3 1.300595e+01 4.768484e+00 -3.705646e+00 -1 -1 1 -4.968064e-01 2.422325e-01 -6.862379e-01 -4.728471e-01
132 2 4 1.329043e+01 5.008007e+00 -3.935143e+00 -1 -1 1 2.540698e-01 1.152220e-01 7.132066e-01 6.430465e-01
133 2 4 1.367810e+01 4.733699e+00 -2.965483e+00 -1 -1 1 -2.400784e-02 3.979238e-01 8.801633e-01 -2.576682e-01
134 2 3 1.364260e+01 4.519188e+00 -2.750764e+00 -1 -1 1 -8.291390e-01 -3.188846e-01 -1.489632e-01 4.343399e-01
135 2 4 1.336644e+01 4.067393e+00 -2.577985e+00 -1 -1 1 9.245030e-01 3.192751e-01 8.553108e-02 -1.898473e-01
136 2 3 1.342643e+01 3.607528e+00 -2.424695e+00 -1 -1 1 -9.331717e-01 -3.455553e-01 1.243470e-02 -9.811997e-02
137 2 1 1.357762e+01 3.108834e+00 -2.161951e+00 -1 -1 1 -8.927170e-01 -1.808181e-01 1.229441e-01 -3.940126e-01
138 2 3 1.299770e+01 3.130179e+00 -1.262692e+00 -1 -1 1 -2.994420e-01 -4.353559e-01 8.830956e-02 -8.443940e-01
139 2 2 1.337374e+01 3.209501e+00 -1.022679e+00 -1 -1 1 3.252676e-02 -3.495557e-01 2.908249e-01 -8.900414e-01
140 2 3 1.377968e+01 2.823007e+00 -6.350637e-01 -1 -1 1 1.477325e-01 -1.604109e-01 3.722413e-01 -9.021529e-01
141 2 1 1.388264e+01 2.704636e+00 -1.364326e-01 -1 -1 1 3.445068e-01 -2.016030e-02 4.278617e-01 -8.353700e-01
142 2 2 1.380004e+01 2.513617e+00 4.006765e-01 -1 -1 1 4.815039e-01 1.355549e-01 3.301643e-01 -8.004814e-01
143 2 4 1.357198e+01 2.140096e+00 7.960409e-01 -1 -1 1 -6.986353e-01 -2.883233e-01 -3.900951e-01 5.259318e-01
144 2 4 1.345614e+01 1.675161e+00 9.164095e-01 -1 -1 1 7.979199e-01 4.729430e-01 2.047100e-01 -3.126381e-01
145 2 1 1.342001e+01 1.100926e+00 9.896362e-01 -1 -1 1 8.038610e-01 5.617657e-01 1.645670e-01 -1.055675e-01
146 2 1 1.352649e+01 5.622148e-01 9.273103e-01 -1 -1 1 8.111169e-01 5.550904e-01 7.776961e-02 1.670808e-01
147 2 1 1.381866e+01 1.466296e-01 7.326106e-01 -1 -1 1 7.411307e-01 5.226890e-01 -1.615186e-01 3.891442e-01
148 2 2 1.417458e+01 -1.971192e-01 7.907549e-01 -1 -1 1 5.409153e-01 4.863409e-01 -2.508381e-01 6.387201e-01
149 2 4 1.459042e+01 -4.022206e-01 9.143557e-01 -1 -1 1 -3.418107e-01 -4.209553e-01 3.090668e-01 -7.813065e-01
150 2 1 1.492515e+01 -5.308833e-01 1.181292e+00 -1 -1 1 -5.689322e-03 -2.371759e-01 4.601089e-01 -8.555788e-01
151 2 1 1.510193e+01 -8.194650e-01 1.713910e+00 -1 -1 1 1.360086e-01 -8.421243e-02 4.446955e-01 -8.812808e-01
152 2 1 1.507623e+01 -9.412041e-01 2.190185e+00 -1 -1 1 3.743672e-01 6.274987e-02 4.511177e-01 -8.077156e-01
153 2 4 1.500702e+01 -1.302044e+00 2.582889e+00 -1 -1 1 5.319049e-01 2.112310e-01 4.360088e-01 -6.945177e-01
154 2 1 1.482536e+01 -1.689312e+00 2.887032e+00 -1 -1 1 6.272314e-01 3.923615e-01 3.800185e-01 -5.551750e-01
155 2 2 1.466654e+01 -2.165082e+00 2.962043e+00 -1 -1 1 7.968614e-01 4.992987e-01 2.396282e-01 -2.414355e-01
156 2 4 1.455599e+01 -2.643777e+00 2.922948e+00 -1 -1 1 6.469708e-01 7.186276e-01 1.764567e-01 -1.840278e-01
157 2 3 1.459736e+01 -3.088030e+00 2.614599e+00 -1 -1 1 6.349331e-01 7.598645e-01 -2.937893e-02 1.363923e-01
158 2 2 1.481504e+01 -3.581207e+00 2.376850e+00 -1 -1 1 5.914614e-01 7.129823e-01 -1.688111e-01 3.366489e-01
159 2 1 1.513848e+01 -3.914100e+00 2.201620e+00 -1 -1 1 4.167300e-01 6.479983e-01 -2.943991e-01 5.654763e-01
160 2 3 1.559810e+01 -4.111662e+00 2.213099e+00 -1 -1 1 -2.225804e-01 -5.394335e-01 4.793555e-01 -6.555057e-01
161 2 1 1.600515e+01 -4.441733e+00 2.351772e+00 -1 -1 1 -9.552638e-02 -3.436296e-01 6.236197e-01 -6.956234e-01
162 2 1 1.623370e+01 -4.785106e+00 2.673639e+00 -1 -1 1 1.349501e-01 -1.054008e-01 6.982251e-01 -6.950977e-01
163 2 4 1.624723e+01 -5.194166e+00 3.015344e+00 -1 -1 1 3.625803e-01 1.488029e-01 6.988488e-01 -5.983339e-01
164 2 4 1.618353e+01 -5.837002e+00 3.106289e+00 -1 -1 1 3.688395e-01 3.872090e-01 6.939161e-01 -4.821898e-01
165 2 3 1.596310e+01 -6.217932e+00 2.948272e+00 -1 -1 1 5.124373e-01 6.452253e-01 4.664982e-01 -3.216702e-01
166 2 3 1.584929e+01 -6.675688e+00 2.706351e+00 -1 -1 1 5.840734e-01 7.547341e-01 2.843583e-01 -9.151580e-02
167 2 4 1.588835e+01 -7.044699e+00 2.311077e+00 -1 -1 1 5.241190e-01 8.368698e-01 9.953827e-02 1.226391e-01
168 2 2 1.616666e+01 -7.486193e+00 1.968705e+00 -1 -1 1 4.785953e-01 8.137793e-01 3.805934e-02 3.275077e-01
169 2 2 1.657830e+01 -7.704620e+00 1.665174e+00 -1 -1 1 3.365098e-01 7.749653e-01 -1.712128e-01 5.068296e-01
170 2 1 1.710302e+01 -7.826906e+00 1.584610e+00 -1 -1 1 1.346764e-01 6.155275e-01 -3.981287e-01 6.666946e-01
171 2 1 1.755488e+01 -8.008840e+00 1.717872e+00 -1 -1 1 3.951032e-02 -4.613605e-01 4.750921e-01 -7.482466e-01
172 2 4 1.794424e+01 -8.303623e+00 1.949065e+00 -1 -1 1 1.197662e-01 -2.337916e-01 6.181734e-01 -7.408503e-01
173 2 4 1.814720e+01 -8.786978e+00 2.183908e+00 -1 -1 1 2.210828e-01 2.449062e-02 6.397160e-01 -7.357215e-01
174 2 1 1.805433e+01 -9.301255e+00 2.426896e+00 -1 -1 1 3.970236e-01 2.905855e-01 6.541723e-01 -5.744484e-01
175 2 1 1.789592e+01 -9.850590e+00 2.383370e+00 -1 -1 1 4.647478e-01 4.750666e-01 6.190308e-01 -4.184759e-01
176 2 2 1.770417e+01 -1.028175e+01 2.197514e+00 -1 -1 1 5.536205e-01 6.532663e-01 4.684561e-01 -2.174771e-01
177 2 2 1.774365e+01 -1.073674e+01 1.910067e+00 -1 -1 1 4.989314e-01 7.885860e-01 3.549764e-01 5.649207e-02
178 2 1 1.786018e+01 -1.100554e+01 1.405504e+00 -1 -1 1 4.501618e-01 8.495530e-01 1.190561e-01 2.478704e-01
179 2 4 1.823866e+01 -1.107735e+01 1.029975e+00 -1 -1 1 3.648603e-01 8.164407e-01 -1.499369e-01 4.216878e-01
180 2 1 1.869359e+01 -1.125430e+01 8.538387e-01 -1 -1 1 8.974322e-02 7.991365e-01 -1.849315e-01 5.649135e-01
181 2 4 1.928126e+01 -1.123125e+01 9.121780e-01 -1 -1 1 1.371194e-02 -5.962167e-01 5.794446e-01 -5.555012e-01
182 2 2 1.974491e+01 -1.148472e+01 1.068099e+00 -1 -1 1 1.868730e-01 -3.493040e-01 7.025028e-01 -5.912318e-01
183 2 3 -1.997610e+01 -1.192523e+01 1.074627e+00 0 -1 1 2.515755e-01 -1.009842e-01 8.137623e-01 -5.141040e-01
184 2 4 -1.982734e+01 -1.239597e+01 1.232574e+00 0 -1 1 4.021170e-01 1.921301e-01 7.627774e-01 -4.685708e-01
185 2 3 -1.979241e+01 -1.288036e+01 1.206411e+00 0 -1 1 -5.071707e-01 -4.488012e-01 -6.875257e-01 2.620378e-01
186 2 1 -1.981374e+01 -1.337927e+01 9.545893e-01 0 -1 1 -4.636155e-01 -6.794811e-01 -5.484098e-01 1.503756e-01
187 2 1 -1.980655e+01 -1.374013e+01 5.218425e-01 0 -1 1 4.454620e-01 7.926205e-01 3.977016e-01 1.230848e-01
188 2 2 -1.961810e+01 -1.375904e+01 -6.070352e-02 0 -1 1 -2.915404e-01 -8.989457e-01 -1.428551e-01 -2.940974e-01
189 2 4 -1.937672e+01 -1.376735e+01 -5.194837e-01 0 -1 1 -2.145113e-01 -8.998439e-01 1.455759e-01 -3.508184e-01
190 2 4 -1.900322e+01 -1.400239e+01 -8.694343e-01 0 -1 1 2.265300e-01 8.242543e-01 -1.421639e-01 4.990776e-01
191 2 1 -1.847399e+01 -1.399963e+01 -9.441775e-01 0 -1 1 1.877829e-02 6.681426e-01 -4.163555e-01 6.163448e-01
192 2 4 -1.796045e+01 -1.418805e+01 -8.101131e-01 0 -1 1 1.950922e-01 -4.846231e-01 5.405967e-01 -6.594200e-01
193 2 4 -1.748919e+01 -1.442132e+01 -7.267412e-01 0 -1 1 -2.830398e-01 2.651721e-01 -6.944431e-01 6.060702e-01
194 2 1 -1.722808e+01 -1.489400e+01 -5.384354e-01 0 -1 1 4.268501e-01 -4.584571e-03 7.944886e-01 -4.319328e-01
195 2 3 -1.710852e+01 -1.543530e+01 -6.272996e-01 0 -1 1 -4.314742e-01 -2.868265e-01 -7.723901e-01 3.673882e-01
196 2 4 -1.723641e+01 -1.599744e+01 -8.561401e-01 0 -1 1 -4.810098e-01 -6.194623e-01 -6.009354e-01 1.541840e-01
197 2 2 -1.723148e+01 -1.637464e+01 -1.316865e+00 0 -1 1 5.001858e-01 7.019399e-01 5.026110e-01 6.690750e-02
198 2 4 -1.706745e+01 -1.657596e+01 -1.822697e+00 0 -1 1 -4.017042e-01 -8.342708e-01 -2.236525e-01 -3.043116e-01
199 2 3 -1.671887e+01 -1.659570e+01 -2.226062e+00 0 -1 1 2.960644e-01 8.270293e-01 -6.899779e-02 4.728718e-01
200 2 4 -1.625329e+01 -1.658862e+01 -2.406620e+00 0 -1 1 -1.535478e-01 -7.488012e-01 2.904129e-01 -5.756562e-01
