ITEM: TIMESTEP
121000000
ITEM: NUMBER OF ATOMS
200
ITEM: BOX BOUNDS pp pp pp
-2.0000000000000000e+01 2.0000000000000000e+01
-2.0000000000000000e+01 2.0000000000000000e+01
-2.0000000000000000e+01 2.0000000000000000e+01
ITEM: ATOMS id mol type x y z ix iy iz c_quat[1] c_quat[2] c_quat[3] c_quat[4]
1 1 1 1.227251e+01 -1.140910e+01 -1.464249e+01 -1 -1 1 1.291756e-01 -8.973871e-01 -1.357257e-01 -3.994854e-01
2 1 2 1.225551e+01 -1.135061e+01 -1.422385e+01 -1 -1 1 -6.619161e-02 -4.170265e-01 -1.898574e-01 -8.863756e-01
3 1 1 1.216321e+01 -1.141915e+01 -1.384754e+01 -1 -1 1 -8.848044e-01 1.082385e-01 1.846428e-01 -4.138994e-01
4 1 3 1.237050e+01 -1.125942e+01 -1.342459e+01 -1 -1 1 4.523469e-01 -2.155296e-01 -1.464484e-01 8.529256e-01
5 1 1 1.225902e+01 -1.099603e+01 -1.301718e+01 -1 -1 1 3.374226e-02 -2.928497e-01 2.383074e-02 9.552657e-01
6 1 2 1.166630e+01 -1.125722e+01 -1.303806e+01 -1 -1 1 -8.809047e-03 -1.692238e-01 9.377882e-01 3.030494e-01
7 1 4 1.126171e+01 -1.060355e+01 -1.206950e+01 -1 -1 1 3.502626e-01 4.878878e-02 5.450559e-01 -7.601644e-01
8 1 1 1.048911e+01 -1.073399e+01 -1.232578e+01 -1 -1 1 -5.142803e-01 2.077964e-01 3.109519e-01 7.717806e-01
9 1 1 1.024822e+01 -1.045162e+01 -1.199066e+01 -1 -1 1 -8.334400e-01 3.252500e-01 1.261877e-01 4.285637e-01
10 1 4 1.086603e+01 -9.099484e+00 -1.241350e+01 -1 -1 1 -1.749150e-01 9.796698e-01 -9.706801e-02 -1.515389e-02
11 1 1 1.096930e+01 -8.707506e+00 -1.269584e+01 -1 -1 1 -1.359491e-01 8.661861e-01 -4.659155e-01 -1.190054e-01
12 1 1 1.034569e+01 -8.356990e+00 -1.280063e+01 -1 -1 1 1.632695e-01 2.095113e-01 -8.361570e-01 4.798850e-01
13 1 3 1.102143e+01 -8.177734e+00 -1.402234e+01 -1 -1 1 9.048192e-01 -1.467144e-01 3.995024e-01 -1.322347e-02
14 1 4 1.143765e+01 -8.379599e+00 -1.379467e+01 -1 -1 1 8.471041e-01 4.525063e-02 4.798121e-01 2.239359e-01
15 1 4 1.197667e+01 -8.523690e+00 -1.372268e+01 -1 -1 1 -6.814182e-01 -1.798866e-01 -4.672871e-01 -5.338097e-01
16 1 2 1.249265e+01 -8.364923e+00 -1.370237e+01 -1 -1 1 -4.847760e-01 -2.023111e-01 -5.182199e-01 -6.749152e-01
17 1 1 1.285302e+01 -8.040660e+00 -1.384523e+01 -1 -1 1 2.374646e-01 3.815911e-01 2.840636e-01 8.469396e-01
18 1 2 1.323294e+01 -7.700341e+00 -1.370168e+01 -1 -1 1 -4.660008e-02 4.096066e-01 2.517206e-01 8.756070e-01
19 1 3 1.337949e+01 -7.203387e+00 -1.337288e+01 -1 -1 1 -3.095747e-01 3.885031e-01 5.565978e-02 8.661010e-01
20 1 1 1.345948e+01 -6.783252e+00 -1.304663e+01 -1 -1 1 -5.475901e-01 3.621991e-01 2.084567e-02 7.540042e-01
21 1 4 1.345054e+01 -6.608008e+00 -1.252227e+01 -1 -1 1 7.733425e-01 -2.731286e-01 6.094108e-02 -5.688835e-01
22 1 1 1.358658e+01 -6.559020e+00 -1.198567e+01 -1 -1 1 8.581863e-01 -1.447004e-01 1.912275e-01 -4.538834e-01
23 1 4 1.354207e+01 -6.867728e+00 -1.156621e+01 -1 -1 1 9.853739e-01 -1.016315e-01 1.254588e-01 -5.449276e-02
24 1 3 1.380823e+01 -7.039889e+00 -1.115517e+01 -1 -1 1 9.596903e-01 3.682265e-02 2.468340e-01 1.292735e-01
25 1 3 1.422874e+01 -7.251109e+00 -1.078284e+01 -1 -1 1 8.508457e-01 7.766531e-02 2.837627e-01 4.353256e-01
26 1 4 1.476140e+01 -7.306807e+00 -1.044261e+01 -1 -1 1 6.519828e-01 -1.405478e-03 2.688282e-01 7.089766e-01
27 1 4 1.513727e+01 -7.053971e+00 -1.020155e+01 -1 -1 1 4.323236e-01 8.043231e-02 3.237012e-01 8.377616e-01
28 1 1 1.545781e+01 -6.578886e+00 -1.029078e+01 -1 -1 1 7.486192e-02 2.767691e-01 3.733041e-01 8.822917e-01
29 1 1 1.556610e+01 -6.097425e+00 -1.016311e+01 -1 -1 1 -2.442238e-01 3.780876e-01 2.251024e-01 8.641374e-01
30 1 4 1.553135e+01 -5.670974e+00 -9.798309e+00 -1 -1 1 4.648541e-01 -3.022246e-01 -1.087051e-01 -8.250783e-01
31 1 4 1.546244e+01 -5.332861e+00 -9.450515e+00 -1 -1 1 7.299241e-01 -3.181458e-01 4.254805e-02 -6.034764e-01
32 1 3 1.548103e+01 -5.286599e+00 -8.935526e+00 -1 -1 1 8.994961e-01 -2.171524e-01 1.787865e-01 -3.343455e-01
33 1 3 1.567827e+01 -5.427765e+00 -8.398003e+00 -1 -1 1 9.475769e-01 -7.796826e-02 2.870719e-01 -1.166564e-01
34 1 1 1.608243e+01 -5.568458e+00 -8.020985e+00 -1 -1 1 8.827266e-01 -3.802996e-02 4.581062e-01 9.739718e-02
35 1 2 1.652873e+01 -5.767146e+00 -7.930012e+00 -1 -1 1 7.807752e-01 1.662297e-01 4.043848e-01 4.463527e-01
36 1 2 1.705596e+01 -5.731595e+00 -7.747813e+00 -1 -1 1 6.012895e-01 2.150723e-01 5.102641e-01 5.760428e-01
37 1 1 1.750341e+01 -5.532330e+00 -7.845448e+00 -1 -1 1 3.515831e-01 3.791002e-01 5.210641e-01 6.790909e-01
38 1 1 1.785716e+01 -5.172789e+00 -8.004724e+00 -1 -1 1 1.084606e-01 4.942557e-01 2.397295e-01 8.285393e-01
39 1 4 1.811097e+01 -4.696930e+00 -7.909281e+00 -1 -1 1 2.004801e-01 -4.933402e-01 -1.233492e-01 -8.373817e-01
40 1 4 1.829166e+01 -4.331013e+00 -7.715758e+00 -1 -1 1 4.749503e-01 -5.091130e-01 -6.050353e-02 -7.152380e-01
41 1 2 1.843921e+01 -3.955569e+00 -7.311535e+00 -1 -1 1 6.021651e-01 -4.490412e-01 1.260574e-01 -6.479728e-01
42 1 4 1.849108e+01 -3.769653e+00 -6.833547e+00 -1 -1 1 7.882323e-01 -3.578138e-01 2.444192e-01 -4.369420e-01
43 1 3 1.870856e+01 -3.724094e+00 -6.330290e+00 -1 -1 1 8.433262e-01 -3.584441e-01 3.825341e-01 -1.182642e-01
44 1 2 1.912766e+01 -3.572804e+00 -6.098835e+00 -1 -1 1 8.314478e-01 -2.498300e-01 4.933789e-01 -5.344837e-02
45 1 1 1.963510e+01 -3.698389e+00 -5.948198e+00 -1 -1 1 7.267557e-01 -3.083646e-02 6.521951e-01 2.133468e-01
46 1 3 -1.984872e+01 -3.862777e+00 -6.014749e+00 0 -1 1 5.986806e-01 2.451984e-01 6.842116e-01 3.366211e-01
47 1 4 -1.936415e+01 -3.835928e+00 -6.278117e+00 0 -1 1 3.932730e-01 4.336892e-01 6.413987e-01 4.958404e-01
48 1 1 -1.894597e+01 -3.508353e+00 -6.576155e+00 0 -1 1 -1.421237e-01 -5.319410e-01 -5.096879e-01 -6.611036e-01
49 1 4 -1.874031e+01 -3.121306e+00 -6.867922e+00 0 -1 1 8.373007e-02 -6.778580e-01 -3.661436e-01 -6.320100e-01
50 1 4 -1.849900e+01 -2.545509e+00 -6.938955e+00 0 -1 1 2.415053e-01 -6.704260e-01 -1.323632e-01 -6.889733e-01
51 1 4 -1.817011e+01 -2.113583e+00 -6.798465e+00 0 -1 1 4.280720e-01 -6.456827e-01 1.159331e-01 -6.216170e-01
52 1 1 -1.778866e+01 -1.747949e+00 -6.510731e+00 0 -1 1 5.628986e-01 -5.165344e-01 1.998988e-01 -6.134964e-01
53 1 3 -1.750452e+01 -1.629614e+00 -6.097327e+00 0 -1 1 7.213114e-01 -3.979133e-01 3.731645e-01 -4.267589e-01
54 1 4 -1.716824e+01 -1.740506e+00 -5.621310e+00 0 -1 1 8.226546e-01 -2.225464e-01 5.032312e-01 -1.430768e-01
55 1 4 -1.670520e+01 -1.888468e+00 -5.448212e+00 0 -1 1 8.289610e-01 -4.179342e-02 5.523497e-01 -7.737451e-02
56 1 4 -1.631822e+01 -2.367610e+00 -5.412878e+00 0 -1 1 8.080162e-01 1.748651e-01 4.979553e-01 2.618635e-01
57 1 1 -1.582228e+01 -2.565137e+00 -5.250299e+00 0 -1 1 7.229731e-01 2.780494e-01 5.013293e-01 3.855740e-01
58 1 1 -1.529412e+01 -2.634864e+00 -5.404190e+00 0 -1 1 5.584881e-01 3.867824e-01 3.566067e-01 6.413440e-01
59 1 3 -1.479041e+01 -2.445391e+00 -5.449370e+00 0 -1 1 -2.667129e-01 -4.067231e-01 -3.311915e-01 -8.085498e-01
60 1 4 -1.437917e+01 -2.174968e+00 -5.311233e+00 0 -1 1 -4.167391e-02 -4.499369e-01 -3.459678e-01 -8.222690e-01
61 1 2 -1.420986e+01 -1.727561e+00 -5.280833e+00 0 -1 1 2.953458e-01 -5.356343e-01 -1.324645e-01 -7.799487e-01
62 1 3 -1.406998e+01 -1.286617e+00 -4.938294e+00 0 -1 1 5.349113e-01 -4.672758e-01 2.042645e-02 -7.036377e-01
63 1 2 -1.400456e+01 -1.031241e+00 -4.408810e+00 0 -1 1 7.276612e-01 -3.780020e-01 1.193293e-01 -5.598072e-01
64 1 4 -1.392659e+01 -9.718761e-01 -3.915899e+00 0 -1 1 8.869067e-01 -2.436705e-01 2.311423e-01 -3.171661e-01
65 1 2 -1.359478e+01 -1.075661e+00 -3.464073e+00 0 -1 1 8.994101e-01 -1.752732e-01 3.738170e-01 -1.435329e-01
66 1 1 -1.327702e+01 -1.295780e+00 -3.064419e+00 0 -1 1 8.800231e-01 -6.465674e-02 4.169373e-01 2.180418e-01
67 1 2 -1.282034e+01 -1.219620e+00 -2.792862e+00 0 -1 1 7.784653e-01 6.095638e-02 5.176613e-01 3.497183e-01
68 1 1 -1.235794e+01 -1.276573e+00 -2.834621e+00 0 -1 1 6.085272e-01 3.071747e-01 5.320614e-01 5.022441e-01
69 1 1 -1.181836e+01 -1.124633e+00 -2.855225e+00 0 -1 1 4.111532e-01 3.912243e-01 5.343385e-01 6.264015e-01
70 1 2 -1.138051e+01 -7.827790e-01 -3.027618e+00 0 -1 1 -1.496663e-01 -4.800022e-01 -4.013138e-01 -7.656012e-01
71 1 3 -1.107400e+01 -3.263573e-01 -3.061721e+00 0 -1 1 8.575522e-02 -5.733778e-01 -2.073875e-01 -7.879558e-01
72 1 4 -1.074063e+01 2.795441e-02 -2.935115e+00 0 -1 1 2.860556e-01 -4.963334e-01 -1.741374e-01 -8.009379e-01
73 1 1 -1.065522e+01 4.453260e-01 -2.664762e+00 0 -1 1 5.491459e-01 -4.819728e-01 -2.692385e-02 -6.822142e-01
74 1 1 -1.057237e+01 7.408548e-01 -2.191467e+00 0 -1 1 7.445205e-01 -4.076334e-01 1.099263e-01 -5.171464e-01
75 1 3 -1.033505e+01 8.259830e-01 -1.664020e+00 0 -1 1 7.927697e-01 -3.325378e-01 3.459909e-01 -3.757993e-01
76 1 1 -1.012611e+01 6.773751e-01 -1.218727e+00 0 -1 1 8.535486e-01 -2.712810e-01 4.432802e-01 -3.693414e-02
77 1 4 -9.677134e+00 5.270500e-01 -1.019265e+00 0 -1 1 8.053922e-01 -8.480987e-02 4.857973e-01 3.288643e-01
78 1 1 -1.103978e+01 1.275999e+00 -6.531627e-02 0 -1 1 6.802732e-02 -7.660455e-02 2.567034e-01 -9.610449e-01
79 1 4 -1.115933e+01 1.129704e+00 3.784538e-01 0 -1 1 -4.199624e-01 -1.452823e-01 -2.861796e-01 8.488969e-01
80 1 2 -1.109631e+01 1.978115e+00 1.058688e+00 0 -1 1 -4.347869e-02 -3.001396e-01 -2.575535e-01 9.174378e-01
81 1 4 -1.185759e+01 2.034636e+00 1.333712e+00 0 -1 1 -1.837022e-01 2.868241e-01 7.493037e-01 -5.679167e-01
82 1 4 -1.236165e+01 1.941553e+00 1.337801e+00 0 -1 1 5.515364e-02 6.390913e-01 4.704825e-01 -6.059428e-01
83 1 4 -1.286973e+01 1.534608e+00 1.229629e+00 0 -1 1 8.027267e-03 6.433306e-01 3.768435e-01 -6.663710e-01
84 1 4 -1.317204e+01 3.883538e-01 1.503273e+00 0 -1 1 1.723162e-01 -3.650593e-01 -8.820408e-01 -2.429872e-01
85 1 1 -1.374057e+01 -1.598380e-01 1.356789e+00 0 -1 1 -8.777188e-02 -3.192658e-02 -9.806278e-01 1.721798e-01
86 1 1 -1.362528e+01 -1.294258e-01 8.097906e-01 0 -1 1 4.913170e-01 8.630266e-01 1.085624e-01 -4.479811e-02
87 1 3 -1.392998e+01 -9.145030e-01 1.858903e+00 0 -1 1 -1.070466e-01 4.333333e-01 -2.993091e-01 8.433133e-01
88 1 2 -1.364737e+01 -9.996892e-01 2.279876e+00 0 -1 1 -3.428874e-01 3.017688e-01 -3.403648e-01 8.218976e-01
89 1 2 -1.323859e+01 -1.234482e+00 2.616905e+00 0 -1 1 2.734526e-01 -1.035348e-01 2.713038e-01 -9.170051e-01
90 1 3 -1.332693e+01 -1.218084e+00 3.095676e+00 0 -1 1 -6.957600e-01 -1.085349e-02 -2.668231e-01 6.667876e-01
91 1 3 -1.338825e+01 -1.466664e+00 3.520543e+00 0 -1 1 -8.285084e-01 -2.261160e-01 -1.583449e-01 4.872086e-01
92 1 2 -1.324219e+01 -1.800328e+00 4.004125e+00 0 -1 1 7.551649e-01 3.566570e-01 2.730751e-01 -4.774429e-01
93 1 1 -1.385323e+01 -2.331645e+00 4.849315e+00 0 -1 1 -3.738780e-01 -6.642480e-02 -7.520788e-01 5.386840e-01
94 1 2 -1.345595e+01 -2.445046e+00 5.068940e+00 0 -1 1 -5.552645e-01 -7.205242e-01 -6.796581e-02 -4.097644e-01
95 1 3 -1.423672e+01 -2.962941e+00 5.340282e+00 0 -1 1 7.842052e-01 5.499083e-01 2.600972e-01 -1.223621e-01
96 1 2 -1.402563e+01 -3.506080e+00 5.244655e+00 0 -1 1 6.828652e-01 6.302477e-01 3.653042e-01 -5.509898e-02
97 1 2 -1.385607e+01 -3.970784e+00 5.082526e+00 0 -1 1 5.690848e-01 7.442208e-01 3.461536e-01 4.955390e-02
98 1 4 -1.361559e+01 -4.249068e+00 4.686478e+00 0 -1 1 -5.009051e-01 -7.963269e-01 6.836067e-02 -3.320911e-01
99 1 2 -1.307831e+01 -4.845851e+00 4.025447e+00 0 -1 1 5.039743e-01 -4.995316e-01 6.194137e-01 3.358641e-01
100 1 1 -1.296804e+01 -4.838676e+00 5.282967e+00 0 -1 1 -6.480465e-01 5.084230e-01 -1.694087e-01 5.411492e-01
101 2 4 -6.955499e+00 -2.083741e+00 5.760333e-01 0 -1 1 5.212913e-01 5.299040e-01 6.261783e-01 -2.352824e-01
102 2 3 -7.364922e+00 -3.020261e+00 1.338491e+00 0 -1 1 1.311864e-01 2.897734e-01 -9.297008e-01 1.856821e-01
103 2 1 -7.252260e+00 -3.469559e+00 9.768110e-01 0 -1 1 -1.068168e-01 -1.756591e-01 -9.379914e-01 -2.791167e-01
104 2 3 -6.543248e+00 -3.364495e+00 1.569738e+00 0 -1 1 3.627586e-01 3.256162e-02 7.612136e-01 -5.365629e-01
105 2 3 -5.552660e+00 -3.342683e+00 1.062019e+00 0 -1 1 -3.690819e-01 -1.808663e-02 -7.303583e-01 -5.744809e-01
106 2 2 -5.031837e+00 -2.495050e+00 1.282144e+00 0 -1 1 -1.257080e-01 9.714893e-01 -9.280771e-02 -1.783054e-01
107 2 3 -5.242728e+00 -2.546149e+00 4.656424e-01 0 -1 1 -2.252136e-01 -7.934380e-01 5.232620e-01 2.143172e-01
108 2 4 -5.442668e+00 -2.403276e+00 5.534335e-01 0 -1 1 -3.292083e-01 -2.140181e-01 8.081205e-01 -4.390437e-01
109 2 3 -6.364116e+00 -2.416644e+00 1.696236e-01 0 -1 1 6.176267e-01 -4.559678e-01 -6.664424e-02 -6.373297e-01
110 2 2 -5.579138e+00 -1.901574e+00 -6.172110e-01 0 -1 1 -4.173248e-01 8.517936e-01 -2.777393e-01 1.521463e-01
111 2 2 -6.896865e+00 -1.941020e+00 -7.265223e-01 0 -1 1 -2.915810e-01 -7.690801e-02 8.768878e-01 -3.743440e-01
112 2 3 -7.833550e+00 -1.346726e+00 -9.286607e-01 0 -1 1 6.842070e-02 7.186779e-02 1.898883e-01 -9.767784e-01
113 2 3 -7.043916e+00 -1.095041e+00 -9.824435e-01 0 -1 1 -5.539815e-01 -6.747226e-01 -2.819112e-01 3.979699e-01
114 2 2 -6.657970e+00 -1.476980e-01 -6.123959e-01 0 -1 1 -9.971877e-02 -1.191064e-01 -1.333465e-01 -9.788200e-01
115 2 4 -6.438746e+00 1.257550e-01 -3.749735e-01 0 -1 1 -2.400565e-01 1.753739e-01 6.235592e-02 9.527479e-01
116 2 4 -5.675650e+00 5.079442e-01 -1.017302e+00 0 -1 1 6.573822e-01 9.647808e-02 7.292194e-01 1.636450e-01
117 2 1 -5.952895e+00 2.577327e-01 -1.311748e+00 0 -1 1 -3.158108e-01 1.180457e-01 7.792749e-01 5.282608e-01
118 2 1 -6.396628e+00 5.373884e-01 -1.395702e+00 0 -1 1 5.885081e-01 -4.309192e-01 -6.323847e-01 -2.608763e-01
119 2 1 -6.743213e+00 7.318557e-01 -1.235184e+00 0 -1 1 -6.193333e-01 7.014443e-01 3.415450e-01 -8.802936e-02
120 2 1 -7.179411e+00 1.519414e+00 -1.714237e+00 0 -1 1 -2.395538e-01 -6.235480e-01 -1.506720e-01 7.287659e-01
121 2 3 -7.658654e+00 1.556698e+00 -1.809860e+00 0 -1 1 5.589526e-01 5.804288e-01 -1.699582e-01 -5.672642e-01
122 2 1 -8.076623e+00 1.367948e+00 -1.975014e+00 0 -1 1 7.633634e-01 4.540936e-01 -3.379517e-01 -3.112298e-01
123 2 4 -8.437996e+00 9.433741e-01 -2.026854e+00 0 -1 1 8.676119e-01 2.454592e-01 -4.321315e-01 -1.618066e-02
124 2 1 -9.259113e+00 1.087661e+00 -2.016989e+00 0 -1 1 -4.261603e-01 -3.530644e-01 8.107383e-01 -1.908829e-01
125 2 4 -9.417603e+00 4.919366e-01 -2.193250e+00 0 -1 1 4.676504e-01 1.174134e-01 -8.139233e-01 3.241083e-01
126 2 2 -9.627486e+00 -4.643662e-02 -2.096498e+00 0 -1 1 3.961798e-01 -1.765813e-01 -7.960064e-01 4.221781e-01
127 2 4 -1.003349e+01 -2.933009e-01 -1.898105e+00 0 -1 1 2.070421e-01 -4.829524e-01 -6.419474e-01 5.583852e-01
128 2 4 -1.050782e+01 -4.483501e-01 -1.840006e+00 0 -1 1 1.268552e-01 -6.380858e-01 -4.286101e-01 6.269351e-01
129 2 1 -1.109151e+01 -4.158473e-01 -1.904398e+00 0 -1 1 8.976908e-02 -7.569631e-01 -3.031504e-01 5.718813e-01
130 2 2 -1.160125e+01 -2.733706e-01 -1.984529e+00 0 -1 1 -1.445419e-03 -8.407538e-01 -6.065985e-02 5.380069e-01
131 2 3 -1.195184e+01 -3.924856e-02 -2.308067e+00 0 -1 1 -1.364098e-01 -8.459805e-01 2.533233e-01 4.489284e-01
132 2 4 -1.224240e+01 -3.348902e-03 -2.733069e+00 0 -1 1 3.428002e-01 7.713257e-01 -4.746349e-01 -2.495322e-01
133 2 4 -1.235766e+01 -1.352436e-01 -3.233738e+00 0 -1 1 3.687000e-01 5.779834e-01 -7.173371e-01 -1.241889e-01
134 2 3 -1.259540e+01 -5.300770e-01 -3.771070e+00 0 -1 1 4.919901e-01 4.309136e-01 -7.546465e-01 5.261047e-02
135 2 4 -1.257155e+01 -9.608041e-01 -3.943573e+00 0 -1 1 -3.447914e-01 -1.972774e-01 8.857798e-01 -2.399890e-01
136 2 3 -1.274744e+01 -1.509956e+00 -4.154507e+00 0 -1 1 -2.989721e-01 1.035821e-01 9.042562e-01 -2.867177e-01
137 2 1 -1.310621e+01 -1.849293e+00 -4.199272e+00 0 -1 1 2.473322e-01 -3.661818e-01 -8.013701e-01 4.031670e-01
138 2 3 -1.357355e+01 -2.111909e+00 -4.094009e+00 0 -1 1 1.618609e-01 -5.498675e-01 -6.299717e-01 5.240062e-01
139 2 2 -1.405766e+01 -2.232389e+00 -4.127357e+00 0 -1 1 1.231938e-01 -6.904200e-01 -3.950974e-01 5.933308e-01
140 2 3 -1.458534e+01 -2.103489e+00 -4.159229e+00 0 -1 1 1.104477e-01 -7.990867e-01 -2.080012e-01 5.531702e-01
141 2 1 -1.504231e+01 -1.771649e+00 -4.407255e+00 0 -1 1 -1.680486e-01 -8.589264e-01 6.138417e-02 4.798303e-01
142 2 2 -1.531998e+01 -1.589581e+00 -4.756642e+00 0 -1 1 -2.175501e-01 -8.116565e-01 3.304847e-01 4.297273e-01
143 2 4 -1.549014e+01 -1.528442e+00 -5.219671e+00 0 -1 1 1.616645e-01 6.864379e-01 -6.350601e-01 -3.152241e-01
144 2 4 -1.558375e+01 -1.509207e+00 -5.772005e+00 0 -1 1 -2.796560e-01 -5.193359e-01 7.919596e-01 1.577426e-01
145 2 1 -1.588234e+01 -1.704806e+00 -6.264746e+00 0 -1 1 -4.677078e-01 -2.950103e-01 8.281957e-01 9.116092e-02
146 2 1 -1.622853e+01 -2.056163e+00 -6.528551e+00 0 -1 1 -5.467773e-01 5.562679e-02 8.320015e-01 -7.558930e-02
147 2 1 -1.664256e+01 -2.379650e+00 -6.515880e+00 0 -1 1 -5.454695e-01 9.729848e-02 7.800135e-01 -2.908177e-01
148 2 2 -1.703578e+01 -2.658742e+00 -6.271741e+00 0 -1 1 -3.840123e-01 3.493388e-01 6.858205e-01 -5.100463e-01
149 2 4 -1.747440e+01 -2.876530e+00 -6.127878e+00 0 -1 1 2.526117e-01 -5.508248e-01 -5.399274e-01 5.841727e-01
150 2 1 -1.790753e+01 -2.847312e+00 -5.873822e+00 0 -1 1 1.318701e-01 -6.049118e-01 -1.959641e-01 7.604539e-01
151 2 1 -1.840221e+01 -2.719167e+00 -5.755044e+00 0 -1 1 -1.622679e-02 -6.778581e-01 -5.955232e-02 7.325972e-01
152 2 1 -1.887727e+01 -2.564961e+00 -5.764511e+00 0 -1 1 -2.326205e-01 -6.954980e-01 1.284613e-01 6.675836e-01
153 2 4 -1.938296e+01 -2.518663e+00 -6.003436e+00 0 -1 1 -5.130638e-01 -6.368188e-01 2.925993e-01 4.955936e-01
154 2 1 -1.984882e+01 -2.760120e+00 -6.411201e+00 0 -1 1 -6.234790e-01 -6.157070e-01 4.076656e-01 2.568805e-01
155 2 2 2.005438e+01 -2.939631e+00 -6.826234e+00 -1 -1 1 -5.886571e-01 -3.946967e-01 6.753497e-01 2.039610e-01
156 2 4 1.987721e+01 -3.402461e+00 -7.069482e+00 -1 -1 1 -5.402725e-01 -1.762712e-01 8.210163e-01 -5.446293e-02
157 2 3 1.970735e+01 -3.906045e+00 -7.094754e+00 -1 -1 1 -5.093562e-01 -1.243055e-01 7.479595e-01 -4.070148e-01
158 2 2 1.946113e+01 -4.383725e+00 -6.955803e+00 -1 -1 1 -4.175493e-01 1.497267e-01 7.737775e-01 -4.522200e-01
159 2 1 1.915447e+01 -4.810928e+00 -6.952205e+00 -1 -1 1 -2.938080e-01 4.141896e-01 7.203169e-01 -4.725119e-01
160 2 3 1.861784e+01 -4.998878e+00 -6.790077e+00 -1 -1 1 2.249042e-01 -5.620387e-01 -5.284955e-01 5.951664e-01
161 2 1 1.807482e+01 -4.979916e+00 -6.700894e+00 -1 -1 1 1.697309e-02 -7.576140e-01 -3.168478e-01 5.703863e-01
162 2 1 1.751750e+01 -4.895042e+00 -6.867129e+00 -1 -1 1 -9.652640e-02 -8.608658e-01 -1.930755e-01 4.607761e-01
163 2 4 1.720675e+01 -4.641862e+00 -7.134301e+00 -1 -1 1 -2.060679e-01 -8.684460e-01 1.819580e-01 4.125879e-01
164 2 4 1.698058e+01 -4.513721e+00 -7.630380e+00 -1 -1 1 -2.767418e-01 -8.074953e-01 4.083467e-01 3.234476e-01
165 2 3 1.684326e+01 -4.614738e+00 -8.176046e+00 -1 -1 1 -3.676808e-01 -6.765499e-01 6.221691e-01 1.414095e-01
166 2 3 1.674703e+01 -4.831805e+00 -8.619347e+00 -1 -1 1 -3.740597e-01 -5.396336e-01 7.475056e-01 -1.005500e-01
167 2 4 1.687190e+01 -5.197476e+00 -8.934036e+00 -1 -1 1 -2.885821e-01 -2.808616e-01 8.926538e-01 -2.025000e-01
168 2 2 1.661314e+01 -5.687253e+00 -9.084643e+00 -1 -1 1 -3.622530e-01 -9.153026e-02 8.634152e-01 -3.389826e-01
169 2 2 1.623776e+01 -6.212219e+00 -9.068151e+00 -1 -1 1 -2.563296e-01 3.193339e-01 8.661959e-01 -2.864011e-01
170 2 1 1.574967e+01 -6.523288e+00 -9.095350e+00 -1 -1 1 -3.061887e-01 5.214636e-01 6.963765e-01 -3.865022e-01
171 2 1 1.519325e+01 -6.532383e+00 -9.077600e+00 -1 -1 1 6.808489e-02 -8.023796e-01 -4.358679e-01 4.019585e-01
172 2 4 1.473237e+01 -6.378153e+00 -9.343490e+00 -1 -1 1 -1.047108e-01 -9.099924e-01 -2.184602e-01 3.364886e-01
173 2 4 1.447210e+01 -6.163358e+00 -9.754802e+00 -1 -1 1 -2.024841e-01 -9.293703e-01 1.584686e-01 2.648749e-01
174 2 1 1.438102e+01 -6.065613e+00 -1.028127e+01 -1 -1 1 -2.498383e-01 -8.463032e-01 4.559134e-01 1.161669e-01
175 2 1 1.454074e+01 -6.156555e+00 -1.085217e+01 -1 -1 1 -1.243730e-01 -7.731903e-01 6.202789e-01 -4.429633e-02
176 2 2 1.476270e+01 -6.322223e+00 -1.128086e+01 -1 -1 1 -1.927270e-01 -4.974419e-01 8.419041e-01 -8.127396e-02
177 2 2 1.475823e+01 -6.611661e+00 -1.173987e+01 -1 -1 1 -2.363842e-01 -3.559138e-01 8.851692e-01 -1.841828e-01
178 2 1 1.460266e+01 -7.033811e+00 -1.201358e+01 -1 -1 1 -2.590378e-01 1.636837e-02 9.175540e-01 -3.012077e-01
179 2 4 1.425833e+01 -7.386759e+00 -1.226933e+01 -1 -1 1 -3.541689e-01 1.594215e-01 8.594391e-01 -3.324358e-01
180 2 1 1.390080e+01 -7.717007e+00 -1.231859e+01 -1 -1 1 -1.837496e-01 5.224659e-01 7.269471e-01 -4.059721e-01
181 2 4 1.335143e+01 -7.793511e+00 -1.233943e+01 -1 -1 1 9.572455e-02 -7.086550e-01 -5.213094e-01 4.657053e-01
182 2 2 1.284297e+01 -7.836435e+00 -1.252275e+01 -1 -1 1 1.488683e-01 -8.487968e-01 -2.596894e-01 4.358253e-01
183 2 3 1.245605e+01 -7.526601e+00 -1.283221e+01 -1 -1 1 1.245568e-02 -9.167803e-01 7.501813e-02 3.920856e-01
184 2 4 1.211760e+01 -7.329314e+00 -1.321689e+01 -1 -1 1 -5.526745e-02 -9.052482e-01 2.973955e-01 2.983741e-01
185 2 3 1.212971e+01 -7.156097e+00 -1.368633e+01 -1 -1 1 -1.893442e-01 -6.612211e-01 6.999599e-01 1.923319e-01
186 2 1 1.207666e+01 -7.433454e+00 -1.422735e+01 -1 -1 1 -2.312784e-01 -6.428930e-01 7.298780e-01 2.184138e-02
187 2 1 1.194873e+01 -7.792486e+00 -1.470866e+01 -1 -1 1 -4.066394e-01 -4.239119e-01 8.085986e-01 -3.333671e-02
188 2 2 1.169945e+01 -8.279938e+00 -1.495932e+01 -1 -1 1 -4.737071e-01 1.901842e-02 8.605128e-01 -1.864339e-01
189 2 4 1.143671e+01 -8.743753e+00 -1.494281e+01 -1 -1 1 3.575097e-01 -2.922983e-01 -8.029873e-01 3.767757e-01
190 2 4 1.080754e+01 -8.839439e+00 -1.487074e+01 -1 -1 1 2.611643e-01 -6.663735e-01 -6.059733e-01 3.471828e-01
191 2 1 1.037076e+01 -8.694025e+00 -1.493231e+01 -1 -1 1 7.625624e-02 8.853339e-01 1.659374e-01 -4.275905e-01
192 2 4 1.056320e+01 -8.638568e+00 -1.569792e+01 -1 -1 1 2.980367e-01 -7.569046e-01 3.674204e-01 4.508568e-01
193 2 4 1.055032e+01 -8.171316e+00 -1.587356e+01 -1 -1 1 -3.582303e-02 -5.245432e-01 6.386817e-01 5.618334e-01
194 2 1 1.043317e+01 -7.850947e+00 -1.626552e+01 -1 -1 1 -2.867815e-01 -2.484961e-01 7.775688e-01 5.013909e-01
195 2 3 1.000050e+01 -7.833417e+00 -1.659015e+01 -1 -1 1 -5.044782e-01 -4.140888e-02 8.284314e-01 2.397676e-01
196 2 4 9.416457e+00 -7.929948e+00 -1.676678e+01 -1 -1 1 -6.454465e-01 1.822265e-01 7.325888e-01 1.162149e-01
197 2 2 8.953602e+00 -8.009496e+00 -1.665149e+01 -1 -1 1 -6.225206e-01 4.214813e-01 6.255942e-01 -2.084549e-01
198 2 4 8.397054e+00 -7.651924e+00 -1.658253e+01 -1 -1 1 -6.799308e-01 5.631661e-01 3.750422e-01 -2.826329e-01
199 2 3 8.086264e+00 -7.290159e+00 -1.636367e+01 -1 -1 1 5.225139e-01 -7.082152e-01 -1.368096e-01 4.546357e-01
200 2 4 7.798510e+00 -6.792426e+00 -1.626102e+01 -1 -1 1 1.271723e-01 -7.935005e-01 1.680752e-01 5.709070e-01
