ITEM: TIMESTEP
180000000
ITEM: NUMBER OF ATOMS
200
ITEM: BOX BOUNDS pp pp pp
-2.0000000000000000e+01 2.0000000000000000e+01
-2.0000000000000000e+01 2.0000000000000000e+01
-2.0000000000000000e+01 2.0000000000000000e+01
ITEM: ATOMS id mol type x y z ix iy iz c_quat[1] c_quat[2] c_quat[3] c_quat[4]
1 1 1 -1.861645e+01 -1.803284e+01 -7.634239e+00 0 -1 1 -7.444876e-01 3.455980e-01 2.704869e-01 5.031273e-01
2 1 2 -1.877515e+01 -1.788840e+01 -7.217542e+00 0 -1 1 8.534950e-01 -5.191742e-01 5.701793e-03 -4.440733e-02
3 1 1 -1.874708e+01 -1.776537e+01 -6.695924e+00 0 -1 1 -8.600608e-01 3.900315e-01 -1.930473e-01 -2.662771e-01
4 1 3 -1.852920e+01 -1.752837e+01 -6.339391e+00 0 -1 1 8.284241e-01 -2.786565e-01 3.229373e-01 3.630091e-01
5 1 1 -1.807347e+01 -1.735083e+01 -6.132785e+00 0 -1 1 6.093653e-01 -1.171567e-01 3.702656e-01 6.912681e-01
6 1 2 -1.777534e+01 -1.697222e+01 -5.932523e+00 0 -1 1 -3.524618e-01 1.261864e-01 -3.758671e-01 -8.476861e-01
7 1 4 -1.760443e+01 -1.643534e+01 -5.781667e+00 0 -1 1 1.493526e-01 -1.232698e-01 4.324096e-01 8.806363e-01
8 1 1 -1.759729e+01 -1.590092e+01 -5.720179e+00 0 -1 1 1.284317e-01 4.906691e-02 -5.499238e-01 -8.238213e-01
9 1 1 -1.780892e+01 -1.531205e+01 -5.602686e+00 0 -1 1 -2.602204e-01 -1.365393e-01 5.265212e-01 7.977580e-01
10 1 4 -1.812510e+01 -1.496282e+01 -5.744454e+00 0 -1 1 5.585118e-01 -5.116708e-02 -5.672818e-01 -6.030240e-01
11 1 1 -1.857991e+01 -1.472757e+01 -5.705288e+00 0 -1 1 7.807548e-01 -2.723140e-01 -4.256081e-01 -3.675932e-01
12 1 1 -1.901228e+01 -1.450438e+01 -5.368858e+00 0 -1 1 -8.760752e-01 3.039941e-01 3.151890e-01 2.018310e-01
13 1 3 -1.926333e+01 -1.451632e+01 -4.911130e+00 0 -1 1 9.230904e-01 -3.045804e-01 -2.249026e-01 6.748169e-02
14 1 4 -1.931241e+01 -1.444423e+01 -4.290460e+00 0 -1 1 -8.841912e-01 3.243709e-01 6.974122e-02 -3.288246e-01
15 1 4 -1.921950e+01 -1.419844e+01 -3.732906e+00 0 -1 1 -6.855841e-01 4.426268e-01 -9.369154e-02 -5.703314e-01
16 1 2 -1.925029e+01 -1.381266e+01 -3.403197e+00 0 -1 1 5.757768e-01 -3.665935e-01 3.014214e-01 6.657593e-01
17 1 1 -1.896847e+01 -1.338847e+01 -3.296235e+00 0 -1 1 3.966013e-01 -2.684734e-01 3.696024e-01 7.962559e-01
18 1 2 -1.891456e+01 -1.284833e+01 -3.284051e+00 0 -1 1 -4.082206e-02 2.116108e-01 -4.542358e-01 -8.644214e-01
19 1 3 -1.910797e+01 -1.239527e+01 -3.225942e+00 0 -1 1 1.489771e-01 1.404674e-01 -6.264126e-01 -7.521183e-01
20 1 1 -1.936565e+01 -1.196458e+01 -3.431752e+00 0 -1 1 3.725418e-01 -4.854857e-03 -6.609671e-01 -6.513920e-01
21 1 4 -1.977689e+01 -1.184485e+01 -3.690491e+00 0 -1 1 -5.032023e-01 3.735634e-01 6.101924e-01 4.846679e-01
22 1 1 1.977110e+01 -1.147295e+01 -3.677603e+00 -1 -1 1 -6.334539e-01 5.021190e-01 4.761636e-01 3.462382e-01
23 1 4 1.942077e+01 -1.117864e+01 -3.464550e+00 -1 -1 1 -7.328859e-01 5.719582e-01 3.325689e-01 1.585560e-01
24 1 3 1.920861e+01 -1.078932e+01 -3.121099e+00 -1 -1 1 -7.915648e-01 6.010577e-01 1.102114e-01 2.889306e-03
25 1 3 1.929678e+01 -1.051660e+01 -2.698699e+00 -1 -1 1 -7.713193e-01 5.653655e-01 -7.163987e-02 -2.833658e-01
26 1 4 1.936344e+01 -9.994218e+00 -2.462006e+00 -1 -1 1 -5.945742e-01 6.431540e-01 -2.507796e-01 -4.122426e-01
27 1 4 1.961544e+01 -9.564209e+00 -2.346155e+00 -1 -1 1 -3.943710e-01 4.694388e-01 -4.707607e-01 -6.344155e-01
28 1 1 1.983216e+01 -9.088536e+00 -2.493246e+00 -1 -1 1 -1.587211e-01 2.488504e-01 -5.801081e-01 -7.591809e-01
29 1 1 1.984662e+01 -8.520526e+00 -2.686409e+00 -1 -1 1 8.758576e-03 1.930283e-01 -7.089245e-01 -6.782989e-01
30 1 4 1.976269e+01 -8.193118e+00 -3.020805e+00 -1 -1 1 -1.934415e-01 -1.309698e-02 7.964221e-01 5.728182e-01
31 1 4 1.949530e+01 -7.904122e+00 -3.342798e+00 -1 -1 1 -3.777109e-01 1.772269e-01 8.106066e-01 4.109039e-01
32 1 3 1.904659e+01 -7.643511e+00 -3.614988e+00 -1 -1 1 -5.059538e-01 3.954588e-01 6.848652e-01 3.443584e-01
33 1 3 1.856640e+01 -7.318347e+00 -3.605632e+00 -1 -1 1 -6.821757e-01 4.426180e-01 5.578983e-01 1.657561e-01
34 1 1 1.816000e+01 -7.234733e+00 -3.380320e+00 -1 -1 1 -6.416103e-01 6.511420e-01 3.636318e-01 -1.792269e-01
35 1 2 1.784728e+01 -6.891073e+00 -3.165094e+00 -1 -1 1 -7.019771e-01 6.360480e-01 1.299994e-01 -2.928672e-01
36 1 2 1.785268e+01 -6.540908e+00 -2.799951e+00 -1 -1 1 -5.912625e-01 5.970685e-01 -8.911805e-02 -5.347671e-01
37 1 1 1.769452e+01 -5.961420e+00 -2.677951e+00 -1 -1 1 -4.749605e-01 6.497998e-01 -2.906956e-01 -5.173672e-01
38 1 1 1.785885e+01 -5.488765e+00 -2.673886e+00 -1 -1 1 -2.707504e-01 5.407567e-01 -4.078440e-01 -6.840611e-01
39 1 4 1.790171e+01 -4.989100e+00 -2.866229e+00 -1 -1 1 -2.775715e-02 -3.055073e-01 5.936188e-01 7.439836e-01
40 1 4 1.772552e+01 -4.585868e+00 -3.128986e+00 -1 -1 1 -2.541990e-01 -1.832583e-01 7.300954e-01 6.072561e-01
41 1 2 1.728640e+01 -4.296667e+00 -3.413866e+00 -1 -1 1 -4.897869e-01 -3.089047e-02 6.760889e-01 5.495984e-01
42 1 4 1.678606e+01 -4.040501e+00 -3.491602e+00 -1 -1 1 6.910981e-01 -7.245121e-02 -6.150273e-01 -3.726603e-01
43 1 3 1.627320e+01 -3.999658e+00 -3.426190e+00 -1 -1 1 -8.037377e-01 2.741071e-01 5.021146e-01 1.635599e-01
44 1 2 1.586788e+01 -4.022644e+00 -3.064902e+00 -1 -1 1 -8.298548e-01 4.099793e-01 3.684840e-01 -8.647317e-02
45 1 1 1.561028e+01 -3.897597e+00 -2.704076e+00 -1 -1 1 -8.150249e-01 4.562695e-01 1.865771e-01 -3.045349e-01
46 1 3 1.549865e+01 -3.575140e+00 -2.304557e+00 -1 -1 1 -6.830542e-01 5.020881e-01 -5.842449e-02 -5.271917e-01
47 1 4 1.540924e+01 -3.076594e+00 -1.972802e+00 -1 -1 1 -5.635288e-01 5.587670e-01 -1.984114e-01 -5.751936e-01
48 1 1 1.548115e+01 -2.500280e+00 -1.818092e+00 -1 -1 1 2.787715e-01 -5.985410e-01 3.566981e-01 6.609097e-01
49 1 4 1.550769e+01 -1.997729e+00 -1.922514e+00 -1 -1 1 3.256067e-02 -3.721391e-01 5.913708e-01 7.146558e-01
50 1 4 1.525561e+01 -1.498198e+00 -2.034186e+00 -1 -1 1 -2.337525e-01 -3.507393e-01 6.041843e-01 6.762418e-01
51 1 4 1.482310e+01 -1.271050e+00 -2.344594e+00 -1 -1 1 -5.121526e-01 -1.250648e-01 6.609715e-01 5.340180e-01
52 1 1 1.427858e+01 -1.290847e+00 -2.415841e+00 -1 -1 1 -7.094827e-01 1.498310e-01 5.910377e-01 3.533545e-01
53 1 3 1.377299e+01 -1.174315e+00 -2.215111e+00 -1 -1 1 -8.107597e-01 2.663672e-01 4.907867e-01 1.756294e-01
54 1 4 1.329853e+01 -1.156762e+00 -1.902014e+00 -1 -1 1 -8.687462e-01 3.229473e-01 3.721106e-01 -5.018753e-02
55 1 4 1.297126e+01 -9.890440e-01 -1.526346e+00 -1 -1 1 -8.574007e-01 4.129232e-01 2.121138e-01 -2.221851e-01
56 1 4 1.288731e+01 -7.511907e-01 -1.063779e+00 -1 -1 1 -7.455895e-01 4.972326e-01 7.270914e-03 -4.436250e-01
57 1 1 1.300625e+01 -3.897672e-01 -6.949084e-01 -1 -1 1 -5.977138e-01 3.455981e-01 -2.122744e-01 -6.915488e-01
58 1 1 1.317479e+01 1.547295e-02 -3.365003e-01 -1 -1 1 -4.407585e-01 3.489862e-01 -3.229035e-01 -7.613632e-01
59 1 3 1.314105e+01 4.964541e-01 -1.411698e-01 -1 -1 1 2.389001e-01 -2.563546e-01 5.267155e-01 7.744546e-01
60 1 4 1.322631e+01 8.474008e-01 -2.994110e-01 -1 -1 1 2.513195e-02 5.356184e-02 5.784382e-01 8.135777e-01
61 1 2 1.313865e+01 1.404858e+00 -3.518025e-01 -1 -1 1 -2.505902e-01 1.848824e-01 4.160757e-01 8.543442e-01
62 1 3 1.295840e+01 1.866028e+00 -1.535004e-01 -1 -1 1 -4.338194e-01 1.903494e-01 3.375906e-01 8.133882e-01
63 1 2 1.282031e+01 2.262767e+00 3.958594e-02 -1 -1 1 -6.541858e-01 2.888840e-01 2.315298e-01 6.595308e-01
64 1 4 1.257182e+01 2.448778e+00 4.370841e-01 -1 -1 1 -8.427759e-01 3.915530e-01 9.211145e-02 3.576737e-01
65 1 2 1.257451e+01 2.524131e+00 9.795271e-01 -1 -1 1 9.105737e-01 -3.707356e-01 1.589495e-01 9.025371e-02
66 1 1 1.151354e+01 2.093747e+00 1.387712e+00 -1 -1 1 -7.066912e-01 -1.798992e-01 5.849386e-02 6.817641e-01
67 1 2 1.112064e+01 1.823312e+00 1.766525e+00 -1 -1 1 9.150934e-01 1.860935e-01 -2.764651e-02 -3.566637e-01
68 1 1 1.083959e+01 2.307258e+00 2.361433e+00 -1 -1 1 -6.045514e-01 1.879727e-01 -7.399442e-01 2.273026e-01
69 1 1 1.027722e+01 3.483440e+00 2.255830e+00 -1 -1 1 3.245422e-01 2.898421e-04 -3.686043e-01 -8.710931e-01
70 1 2 1.067921e+01 3.780887e+00 1.529581e+00 -1 -1 1 4.679031e-01 -4.029574e-01 1.072311e-01 7.792262e-01
71 1 3 9.611478e+00 3.506960e+00 1.104126e+00 -1 -1 1 5.532416e-05 4.358262e-01 8.085011e-01 -3.954510e-01
72 1 4 9.287937e+00 3.223579e+00 6.482714e-01 -1 -1 1 -1.555408e-01 4.117936e-01 7.729053e-01 -4.570017e-01
73 1 1 1.032325e+01 4.038031e+00 5.478936e-01 -1 -1 1 -2.182266e-01 9.601626e-01 1.548711e-01 8.049780e-02
74 1 1 1.033352e+01 4.495295e+00 3.907877e-01 -1 -1 1 3.219677e-01 -9.046227e-01 2.657293e-01 8.592216e-02
75 1 3 1.013117e+01 5.302698e+00 6.946602e-01 -1 -1 1 6.686638e-01 -6.239336e-01 -3.984059e-01 6.977323e-02
76 1 1 1.063237e+01 5.578216e+00 -2.050954e-01 -1 -1 1 -5.960066e-01 -2.322573e-01 3.277044e-01 -6.953003e-01
77 1 4 1.123617e+01 4.815652e+00 -5.358625e-01 -1 -1 1 9.009220e-01 4.025002e-01 2.492881e-02 1.603487e-01
78 1 1 1.152480e+01 4.417995e+00 -4.286950e-01 -1 -1 1 7.402604e-01 3.443183e-01 -1.822987e-01 5.479295e-01
79 1 4 1.145221e+01 4.900529e+00 -9.524498e-01 -1 -1 1 -4.381145e-01 4.006412e-01 2.935348e-01 -7.492527e-01
80 1 2 1.125765e+01 5.066510e+00 -1.469749e+00 -1 -1 1 -5.539904e-01 -3.682533e-01 -1.164062e-01 7.375187e-01
81 1 4 1.114616e+01 6.226537e+00 -1.306844e+00 -1 -1 1 1.666119e-01 6.329358e-01 7.196849e-01 2.317032e-01
82 1 4 1.104660e+01 6.260747e+00 -1.803525e+00 -1 -1 1 3.487835e-02 8.231222e-01 5.072763e-01 2.528322e-01
83 1 4 1.134592e+01 5.198144e+00 -2.089886e+00 -1 -1 1 -9.647110e-01 1.607458e-01 4.535464e-02 -2.035596e-01
84 1 4 1.078432e+01 6.370841e+00 -2.395281e+00 -1 -1 1 1.897895e-01 -7.139537e-01 -4.099972e-01 -5.349321e-01
85 1 1 1.088776e+01 6.894231e+00 -2.493454e+00 -1 -1 1 -3.180837e-01 8.175679e-01 1.499979e-01 4.559673e-01
86 1 1 1.104306e+01 7.390904e+00 -2.419005e+00 -1 -1 1 5.659522e-01 -7.843500e-01 9.416335e-02 -2.358524e-01
87 1 3 1.072823e+01 8.085528e+00 -2.996416e+00 -1 -1 1 3.570896e-01 -4.258561e-01 -7.034811e-01 -4.429988e-01
88 1 2 1.041707e+01 8.503075e+00 -3.132189e+00 -1 -1 1 5.592791e-01 -5.918676e-01 -5.030640e-01 -2.895276e-01
89 1 2 1.010927e+01 8.872558e+00 -3.014117e+00 -1 -1 1 6.853809e-01 -7.006831e-01 -1.952160e-01 -3.445319e-02
90 1 3 1.001199e+01 9.384020e+00 -2.804341e+00 -1 -1 1 -6.225042e-01 7.361205e-01 -4.435485e-02 -2.620070e-01
91 1 3 8.974350e+00 8.602748e+00 -2.517673e+00 -1 -1 1 6.756298e-01 -4.549020e-01 4.529101e-01 -3.625754e-01
92 1 2 9.421844e+00 8.532167e+00 -2.241959e+00 -1 -1 1 -7.564898e-01 2.630189e-01 -5.972585e-01 -4.273849e-02
93 1 1 9.937563e+00 8.508841e+00 -2.237676e+00 -1 -1 1 -6.290695e-01 -4.029747e-02 -7.240531e-01 -2.799906e-01
94 1 2 9.864040e+00 9.180800e+00 -2.093578e+00 -1 -1 1 -7.979846e-01 -4.802104e-01 -1.041950e-01 3.489441e-01
95 1 3 9.560718e+00 9.822196e+00 -1.673328e+00 -1 -1 1 -6.188135e-01 7.782825e-01 1.990675e-02 -1.046422e-01
96 1 2 9.628277e+00 1.033910e+01 -1.482089e+00 -1 -1 1 -5.547334e-01 7.378227e-01 -3.108222e-01 -2.264467e-01
97 1 2 9.547893e+00 1.013890e+01 -9.088276e-01 -1 -1 1 9.743137e-01 -7.271498e-02 1.918243e-01 -9.289093e-02
98 1 4 9.516559e+00 9.985198e+00 -2.680724e-01 -1 -1 1 -3.812378e-04 7.640281e-01 -6.316076e-01 -1.316539e-01
99 1 2 8.857341e+00 9.601192e+00 2.323153e-01 -1 -1 1 7.789941e-01 -3.694269e-01 5.064907e-01 1.261487e-02
100 1 1 8.054031e+00 9.889277e+00 6.302605e-01 -1 -1 1 3.382500e-01 3.473626e-01 -7.947782e-01 -3.650393e-01
101 2 4 1.681462e+01 -6.701967e-01 -5.438469e+00 -1 -1 1 6.824966e-01 1.314281e-01 -7.010008e-01 -1.597590e-01
102 2 3 1.629467e+01 5.588721e-01 -5.631843e+00 -1 -1 1 -2.780668e-01 8.362587e-01 3.858687e-01 2.728654e-01
103 2 1 1.625644e+01 5.022135e-01 -5.909217e+00 -1 -1 1 -3.791505e-01 7.112307e-01 -5.187159e-01 -2.851835e-01
104 2 3 1.557863e+01 1.533096e+00 -5.672836e+00 -1 -1 1 -2.130859e-01 5.206685e-01 8.260454e-01 -3.387848e-02
105 2 3 1.622984e+01 2.327804e+00 -6.581559e+00 -1 -1 1 -3.139084e-01 3.142768e-01 -6.072247e-02 -8.938705e-01
106 2 2 1.622626e+01 2.662072e+00 -6.335893e+00 -1 -1 1 2.137047e-01 1.424430e-01 -2.724445e-01 -9.272617e-01
107 2 3 1.584336e+01 2.870507e+00 -6.060172e+00 -1 -1 1 5.473383e-01 9.423437e-02 -2.586289e-01 -7.903491e-01
108 2 4 1.623031e+01 3.462261e+00 -5.636380e+00 -1 -1 1 -4.324693e-01 1.747222e-01 -1.857798e-01 8.648285e-01
109 2 3 1.648250e+01 3.864361e+00 -5.195194e+00 -1 -1 1 -8.013376e-02 -4.958104e-01 -8.599422e-01 -9.082945e-02
110 2 2 1.713606e+01 3.753095e+00 -4.308378e+00 -1 -1 1 9.480974e-01 -2.078176e-01 9.353201e-02 2.217544e-01
111 2 2 1.710140e+01 4.110117e+00 -3.955499e+00 -1 -1 1 2.821208e-01 -3.150774e-01 8.603973e-01 -2.843422e-01
112 2 3 1.726423e+01 5.138020e+00 -5.038201e+00 -1 -1 1 -1.664889e-01 -8.388757e-01 -1.729225e-01 4.885354e-01
113 2 3 1.686670e+01 5.549938e+00 -4.030876e+00 -1 -1 1 1.216078e-02 -3.473764e-01 -6.911618e-01 6.336223e-01
114 2 2 1.643126e+01 6.070351e+00 -4.393587e+00 -1 -1 1 -7.244106e-02 -3.244724e-01 1.056219e-01 9.371840e-01
115 2 4 1.655848e+01 4.929375e+00 -3.711640e+00 -1 -1 1 -8.865294e-01 -3.136208e-01 3.265338e-01 9.530606e-02
116 2 4 1.632182e+01 5.404367e+00 -2.706815e+00 -1 -1 1 -8.697854e-01 4.664377e-01 1.188420e-01 1.085631e-01
117 2 1 1.640523e+01 5.632044e+00 -2.263038e+00 -1 -1 1 -8.157876e-01 4.942125e-01 -1.558439e-01 -2.568214e-01
118 2 1 1.664358e+01 5.937984e+00 -1.924748e+00 -1 -1 1 -6.494533e-01 3.791512e-01 -3.519586e-01 -5.572969e-01
119 2 1 1.693844e+01 6.447383e+00 -1.851232e+00 -1 -1 1 3.952408e-01 -2.434963e-01 5.333842e-01 7.071037e-01
120 2 1 1.707026e+01 6.873701e+00 -1.845910e+00 -1 -1 1 1.183163e-01 -8.622003e-02 6.248577e-01 7.668900e-01
121 2 3 1.774082e+01 6.881206e+00 -9.649932e-01 -1 -1 1 2.454809e-01 -7.694192e-01 -5.650378e-02 5.869757e-01
122 2 1 1.806985e+01 7.023550e+00 -6.979007e-01 -1 -1 1 3.409388e-01 -4.555094e-01 4.979998e-01 6.544220e-01
123 2 4 1.726713e+01 6.155811e+00 2.324258e-01 -1 -1 1 -1.828862e-01 3.881638e-01 9.011094e-01 -6.231615e-02
124 2 1 1.680871e+01 6.115087e+00 -1.289844e-02 -1 -1 1 -6.522652e-02 7.705611e-01 5.956872e-01 -2.171124e-01
125 2 4 1.668427e+01 5.391052e+00 3.698607e-01 -1 -1 1 9.733805e-01 -2.810425e-02 2.121030e-01 -8.217535e-02
126 2 2 1.579258e+01 5.775101e+00 9.935514e-01 -1 -1 1 7.383296e-01 -3.268263e-01 3.518832e-01 -4.735316e-01
127 2 4 1.586259e+01 5.451650e+00 6.966282e-01 -1 -1 1 5.347576e-01 2.096658e-01 -6.736864e-01 4.649959e-01
128 2 4 1.587595e+01 5.055971e+00 9.663584e-01 -1 -1 1 2.077720e-01 -8.985076e-02 -6.820460e-01 6.953926e-01
129 2 1 1.605629e+01 4.367058e+00 1.506504e+00 -1 -1 1 3.414332e-01 -6.211905e-02 -7.665100e-01 5.403953e-01
130 2 2 1.683101e+01 3.691947e+00 7.909699e-01 -1 -1 1 -5.917402e-01 -6.433302e-01 3.869061e-01 -2.937234e-01
131 2 3 1.636117e+01 3.398084e+00 1.061660e+00 -1 -1 1 -1.006488e-01 9.825500e-01 -1.559903e-01 -1.150358e-02
132 2 4 1.627507e+01 2.112297e+00 1.561369e+00 -1 -1 1 -4.631451e-01 -3.249947e-01 8.241876e-01 2.428461e-02
133 2 4 1.532019e+01 1.741480e+00 1.659825e+00 -1 -1 1 -5.595636e-01 1.656934e-01 5.390226e-01 6.073623e-01
134 2 3 1.494341e+01 1.933268e+00 1.845140e+00 -1 -1 1 7.481593e-01 -3.861698e-01 -4.896956e-01 -2.265585e-01
135 2 4 1.495338e+01 1.030069e+00 1.665856e+00 -1 -1 1 2.391845e-01 5.046174e-01 -8.294281e-01 -1.418130e-02
136 2 3 1.405052e+01 1.786398e+00 1.459011e+00 -1 -1 1 3.671285e-01 8.367174e-01 2.257502e-01 -3.378721e-01
137 2 1 1.334316e+01 1.740969e+00 1.060569e+00 -1 -1 1 9.905018e-02 4.209514e-01 7.885209e-01 -4.372914e-01
138 2 3 1.286489e+01 1.415424e+00 8.841271e-01 -1 -1 1 2.074329e-01 6.529103e-01 6.227907e-01 -3.779041e-01
139 2 2 1.239776e+01 1.150885e+00 5.950930e-01 -1 -1 1 2.362829e-01 7.719742e-01 5.204537e-01 -2.781260e-01
140 2 3 1.212471e+01 1.086378e+00 2.141946e-01 -1 -1 1 3.411014e-01 9.087449e-01 1.734070e-01 -1.666207e-01
141 2 1 1.208581e+01 9.133721e-01 -2.855776e-01 -1 -1 1 2.654673e-01 9.624917e-01 -3.340172e-02 4.495787e-02
142 2 2 1.223137e+01 7.816595e-01 -8.460756e-01 -1 -1 1 1.603381e-01 9.345125e-01 -2.339705e-01 2.150253e-01
143 2 4 1.269094e+01 6.754776e-01 -1.261358e+00 -1 -1 1 -1.324721e-01 -8.116565e-01 4.128731e-01 -3.914086e-01
144 2 4 1.322564e+01 4.769137e-01 -1.448076e+00 -1 -1 1 4.254501e-02 6.137541e-01 -6.146944e-01 4.936057e-01
145 2 1 1.362234e+01 7.644733e-02 -1.561089e+00 -1 -1 1 -6.676350e-02 4.495821e-01 -6.652170e-01 5.923722e-01
146 2 1 1.394522e+01 -2.301166e-01 -1.503015e+00 -1 -1 1 -1.946394e-01 2.875858e-01 -7.435149e-01 5.714853e-01
147 2 1 1.418179e+01 -7.115119e-01 -1.224699e+00 -1 -1 1 -3.134302e-01 7.766251e-02 -7.939884e-01 5.150849e-01
148 2 2 1.428301e+01 -1.200783e+00 -1.168648e+00 -1 -1 1 -4.858330e-01 -2.703771e-01 -7.468271e-01 3.648449e-01
149 2 4 1.432241e+01 -1.697185e+00 -1.302154e+00 -1 -1 1 5.029045e-01 5.127379e-01 6.587521e-01 -2.241263e-01
150 2 1 1.431032e+01 -2.161765e+00 -1.612347e+00 -1 -1 1 4.839102e-01 6.629847e-01 5.683769e-01 -5.683177e-02
151 2 1 1.440565e+01 -2.391928e+00 -2.067641e+00 -1 -1 1 5.070742e-01 8.088463e-01 2.679479e-01 1.297972e-01
152 2 1 1.467427e+01 -2.514505e+00 -2.581648e+00 -1 -1 1 3.929401e-01 8.454408e-01 1.095543e-01 3.447110e-01
153 2 4 1.510293e+01 -2.528409e+00 -2.960062e+00 -1 -1 1 2.376780e-01 8.016075e-01 -1.645346e-01 5.233191e-01
154 2 1 1.558148e+01 -2.674961e+00 -3.085547e+00 -1 -1 1 1.586184e-01 6.559117e-01 -3.604679e-01 6.439588e-01
155 2 2 1.604754e+01 -2.797922e+00 -3.066750e+00 -1 -1 1 -6.783491e-02 4.809217e-01 -6.032826e-01 6.325842e-01
156 2 4 1.651636e+01 -3.110726e+00 -2.785489e+00 -1 -1 1 -2.316980e-01 2.171037e-01 -6.999228e-01 6.397578e-01
157 2 3 1.672238e+01 -3.467846e+00 -2.490208e+00 -1 -1 1 -3.930634e-01 -3.363443e-02 -6.591694e-01 6.402074e-01
158 2 2 1.680946e+01 -3.970980e+00 -2.271891e+00 -1 -1 1 -4.872487e-01 -2.000592e-01 -7.295331e-01 4.362871e-01
159 2 1 1.678908e+01 -4.501727e+00 -2.324848e+00 -1 -1 1 -5.980760e-01 -4.130762e-01 -6.528684e-01 2.131571e-01
160 2 3 1.678586e+01 -4.979620e+00 -2.586353e+00 -1 -1 1 5.752417e-01 6.095413e-01 5.408350e-01 -7.109049e-02
161 2 1 1.672101e+01 -5.273318e+00 -2.945555e+00 -1 -1 1 4.846604e-01 8.344294e-01 2.448226e-01 9.430718e-02
162 2 1 1.699722e+01 -5.402329e+00 -3.460992e+00 -1 -1 1 5.181675e-01 7.840205e-01 7.129288e-02 3.342629e-01
163 2 4 1.744240e+01 -5.606991e+00 -3.825400e+00 -1 -1 1 4.607245e-01 6.724490e-01 -2.675006e-01 5.137983e-01
164 2 4 1.796240e+01 -5.848907e+00 -3.843912e+00 -1 -1 1 2.480697e-01 5.613614e-01 -3.959248e-01 6.830655e-01
165 2 3 1.843444e+01 -5.920679e+00 -3.689616e+00 -1 -1 1 4.332714e-02 5.074772e-01 -4.212965e-01 7.503992e-01
166 2 3 1.883622e+01 -6.189985e+00 -3.385633e+00 -1 -1 1 -1.598877e-01 2.606073e-01 -5.014060e-01 8.093897e-01
167 2 4 1.900305e+01 -6.408124e+00 -2.927727e+00 -1 -1 1 -4.202821e-01 7.291448e-03 -5.186254e-01 7.445385e-01
168 2 2 1.905898e+01 -6.955857e+00 -2.586478e+00 -1 -1 1 -4.784554e-01 -1.426273e-01 -6.649493e-01 5.555000e-01
169 2 2 1.892893e+01 -7.403502e+00 -2.438954e+00 -1 -1 1 -6.189034e-01 -3.487367e-01 -5.236763e-01 4.702174e-01
170 2 1 1.873646e+01 -7.923294e+00 -2.398243e+00 -1 -1 1 -7.232164e-01 -5.287628e-01 -3.523660e-01 2.705663e-01
171 2 1 1.862788e+01 -8.410759e+00 -2.663914e+00 -1 -1 1 7.155256e-01 6.796170e-01 1.510636e-01 -5.765065e-02
172 2 4 1.872516e+01 -8.829735e+00 -2.940375e+00 -1 -1 1 5.921282e-01 7.864684e-01 -4.644571e-03 1.755847e-01
173 2 4 1.900595e+01 -9.172660e+00 -3.289329e+00 -1 -1 1 4.755838e-01 7.615267e-01 -2.010362e-01 3.917673e-01
174 2 1 1.945835e+01 -9.454427e+00 -3.525387e+00 -1 -1 1 3.187147e-01 6.696937e-01 -3.393736e-01 5.785818e-01
175 2 1 1.995393e+01 -9.808479e+00 -3.490029e+00 -1 -1 1 2.159602e-01 4.824232e-01 -4.571039e-01 7.153217e-01
176 2 2 -1.967835e+01 -1.005981e+01 -3.220058e+00 0 -1 1 -4.711315e-02 2.865517e-01 -5.603510e-01 7.756773e-01
177 2 2 -1.957929e+01 -1.052823e+01 -2.888773e+00 0 -1 1 -1.697336e-01 -4.431386e-02 -7.366695e-01 6.531040e-01
178 2 1 -1.965341e+01 -1.098350e+01 -2.674801e+00 0 -1 1 -2.500351e-01 -2.337334e-01 -5.601519e-01 7.543746e-01
179 2 4 -1.992916e+01 -1.136833e+01 -2.490968e+00 0 -1 1 -5.176361e-01 -4.194088e-01 -4.827957e-01 5.683814e-01
180 2 1 1.985122e+01 -1.193379e+01 -2.619762e+00 -1 -1 1 -5.834062e-01 -6.587820e-01 -3.683237e-01 2.999685e-01
181 2 4 1.974521e+01 -1.249492e+01 -2.854519e+00 -1 -1 1 6.475083e-01 6.751791e-01 3.533605e-01 -1.581447e-03
182 2 2 1.979232e+01 -1.282363e+01 -3.245962e+00 -1 -1 1 4.824712e-01 8.615050e-01 1.472415e-01 5.788381e-02
183 2 3 1.992075e+01 -1.299868e+01 -3.736264e+00 -1 -1 1 3.131438e-01 9.356457e-01 2.557838e-02 1.607913e-01
184 2 4 -1.977141e+01 -1.306549e+01 -4.138993e+00 0 -1 1 2.214230e-01 8.990643e-01 -2.305352e-01 2.991803e-01
185 2 3 -1.939173e+01 -1.322491e+01 -4.527229e+00 0 -1 1 -1.137894e-01 -7.644153e-01 3.792862e-01 -5.087861e-01
186 2 1 -1.889282e+01 -1.331468e+01 -4.485464e+00 0 -1 1 5.904890e-02 -5.815525e-01 6.299580e-01 -5.113344e-01
187 2 1 -1.843347e+01 -1.372498e+01 -4.488240e+00 0 -1 1 -5.035393e-02 3.654114e-01 -7.803220e-01 5.050114e-01
188 2 2 -1.819655e+01 -1.424591e+01 -4.541677e+00 0 -1 1 1.729059e-01 -2.434884e-02 9.019866e-01 -3.948808e-01
189 2 4 -1.807872e+01 -1.469851e+01 -4.568408e+00 0 -1 1 2.589969e-01 1.968695e-01 8.382656e-01 -4.375772e-01
190 2 4 -1.817680e+01 -1.518872e+01 -4.682633e+00 0 -1 1 -2.616488e-01 -4.703172e-01 -7.324283e-01 4.170017e-01
191 2 1 -1.849718e+01 -1.559702e+01 -4.871609e+00 0 -1 1 -4.041461e-01 -6.591888e-01 -5.551479e-01 3.065077e-01
192 2 4 -1.869647e+01 -1.594137e+01 -5.173927e+00 0 -1 1 4.761245e-01 7.955590e-01 3.517393e-01 -1.291157e-01
193 2 4 -1.869655e+01 -1.620162e+01 -5.625848e+00 0 -1 1 -3.655280e-01 -9.017716e-01 -2.293525e-01 2.438567e-02
194 2 1 -1.869161e+01 -1.615604e+01 -6.170931e+00 0 -1 1 3.782588e-01 9.118504e-01 -1.464443e-01 6.327065e-02
195 2 3 -1.857353e+01 -1.637645e+01 -6.573497e+00 0 -1 1 -2.759291e-01 -8.839273e-01 3.181224e-01 -2.033071e-01
196 2 4 -1.819630e+01 -1.650767e+01 -6.957451e+00 0 -1 1 -2.869660e-01 -6.573072e-01 6.416237e-01 -2.718764e-01
197 2 2 -1.797626e+01 -1.699761e+01 -7.249171e+00 0 -1 1 3.035629e-01 4.764256e-01 -7.540438e-01 3.350912e-01
198 2 4 -1.776357e+01 -1.742319e+01 -7.297832e+00 0 -1 1 -1.151731e-01 -2.651260e-01 7.901941e-01 -5.404041e-01
199 2 3 -1.763664e+01 -1.789523e+01 -7.197661e+00 0 -1 1 -4.994534e-02 -2.990865e-03 -7.960936e-01 6.031016e-01
200 2 4 -1.777109e+01 -1.833175e+01 -6.979652e+00 0 -1 1 3.346881e-01 2.750407e-01 7.072945e-01 -5.586331e-01
