ITEM: TIMESTEP
123000000
ITEM: NUMBER OF ATOMS
200
ITEM: BOX BOUNDS pp pp pp
-2.0000000000000000e+01 2.0000000000000000e+01
-2.0000000000000000e+01 2.0000000000000000e+01
-2.0000000000000000e+01 2.0000000000000000e+01
ITEM: ATOMS id mol type x y z ix iy iz c_quat[1] c_quat[2] c_quat[3] c_quat[4]
1 1 1 8.728439e+00 -9.291357e+00 -1.966252e+01 -1 -1 1 -5.928132e-01 -8.395404e-02 3.551529e-01 7.179071e-01
2 1 2 8.693851e+00 -9.164441e+00 1.929040e+01 -1 -1 0 1.545505e-01 4.061583e-01 -3.298126e-01 -8.380771e-01
3 1 1 9.258531e+00 -1.014506e+01 -1.993178e+01 -1 -1 1 -8.058425e-01 5.323889e-01 1.361197e-01 2.205703e-01
4 1 3 8.994007e+00 -1.069477e+01 -1.994574e+01 -1 -1 1 -4.214999e-02 3.387069e-01 8.659996e-01 -3.654391e-01
5 1 1 1.037768e+01 -1.126445e+01 -1.971748e+01 -1 -1 1 4.513658e-01 -7.524708e-01 2.629857e-01 -4.011174e-01
6 1 2 1.029925e+01 -1.061582e+01 1.901409e+01 -1 -1 0 -6.433534e-01 4.137536e-01 -2.643478e-01 -5.873879e-01
7 1 4 1.044299e+01 -1.012854e+01 1.917695e+01 -1 -1 0 3.308240e-01 -3.580255e-01 4.705016e-01 7.355280e-01
8 1 1 1.066257e+01 -1.093777e+01 -1.936003e+01 -1 -1 1 -6.398307e-01 5.255175e-01 -4.080368e-01 3.846478e-01
9 1 1 1.106373e+01 -1.103478e+01 -1.908287e+01 -1 -1 1 8.030802e-01 -2.036608e-01 5.596810e-01 1.848193e-02
10 1 4 1.103576e+01 -1.102680e+01 -1.855279e+01 -1 -1 1 2.783369e-01 5.077446e-01 -4.268607e-01 -6.946322e-01
11 1 1 1.155101e+01 -1.091084e+01 -1.740872e+01 -1 -1 1 -1.914870e-01 2.546551e-01 6.242117e-01 -7.133325e-01
12 1 1 1.193577e+01 -9.972830e+00 -1.745039e+01 -1 -1 1 -3.492467e-01 2.954155e-02 -5.929969e-03 -9.365463e-01
13 1 3 1.196947e+01 -9.392972e+00 -1.708466e+01 -1 -1 1 5.780085e-01 3.493155e-01 1.011212e-01 7.305200e-01
14 1 4 1.228121e+01 -9.270288e+00 -1.676109e+01 -1 -1 1 3.066794e-01 3.761545e-01 2.144896e-01 8.476141e-01
15 1 4 1.270972e+01 -8.971190e+00 -1.654977e+01 -1 -1 1 -3.477027e-02 -3.686250e-01 -1.426287e-01 -9.179127e-01
16 1 2 1.286282e+01 -8.543260e+00 -1.645211e+01 -1 -1 1 3.023547e-01 -4.360626e-01 -1.168800e-01 -8.395058e-01
17 1 1 1.286747e+01 -8.095816e+00 -1.612305e+01 -1 -1 1 -6.098392e-01 4.263884e-01 2.638110e-02 6.675277e-01
18 1 2 1.293998e+01 -7.886515e+00 -1.565207e+01 -1 -1 1 -7.887584e-01 3.278328e-01 -1.324367e-01 5.028383e-01
19 1 3 1.317987e+01 -7.792695e+00 -1.513112e+01 -1 -1 1 -8.049446e-01 2.755545e-01 -3.074259e-01 4.261728e-01
20 1 1 1.337161e+01 -7.982813e+00 -1.468548e+01 -1 -1 1 -9.031508e-01 1.230045e-01 -3.914744e-01 1.262391e-01
21 1 4 1.373643e+01 -7.986785e+00 -1.426339e+01 -1 -1 1 8.721763e-01 -2.777765e-02 4.796959e-01 -9.180783e-02
22 1 1 1.416351e+01 -8.288422e+00 -1.410416e+01 -1 -1 1 8.253834e-01 7.948583e-02 4.907231e-01 2.676098e-01
23 1 4 1.473429e+01 -8.406318e+00 -1.400979e+01 -1 -1 1 6.718837e-01 1.975363e-01 4.546456e-01 5.503172e-01
24 1 3 1.521847e+01 -8.364862e+00 -1.406705e+01 -1 -1 1 4.943316e-01 3.396134e-01 3.678763e-01 7.106096e-01
25 1 3 1.570063e+01 -7.994397e+00 -1.406275e+01 -1 -1 1 1.510324e-01 4.328129e-01 2.531589e-01 8.519230e-01
26 1 4 1.603775e+01 -7.611711e+00 -1.395925e+01 -1 -1 1 -1.152916e-01 4.191637e-01 9.702983e-02 8.953183e-01
27 1 4 1.629977e+01 -7.300497e+00 -1.368712e+01 -1 -1 1 -2.190739e-01 3.909350e-01 2.047659e-01 8.701996e-01
28 1 1 1.623219e+01 -6.829416e+00 -1.340828e+01 -1 -1 1 -5.528725e-01 3.994169e-01 1.620812e-01 7.131114e-01
29 1 1 1.609627e+01 -6.624106e+00 -1.305059e+01 -1 -1 1 -8.084831e-01 4.403120e-01 2.654248e-02 3.895842e-01
30 1 4 1.616346e+01 -6.337022e+00 -1.260772e+01 -1 -1 1 8.856518e-01 -3.641376e-01 1.153120e-01 -2.640601e-01
31 1 4 1.630753e+01 -6.349687e+00 -1.205790e+01 -1 -1 1 9.449250e-01 -2.221376e-01 2.399904e-01 1.327702e-02
32 1 3 1.665847e+01 -6.403822e+00 -1.153437e+01 -1 -1 1 8.811693e-01 -1.271492e-01 3.584129e-01 2.809162e-01
33 1 3 1.708487e+01 -6.336347e+00 -1.125654e+01 -1 -1 1 7.495007e-01 -8.498666e-02 4.594602e-01 4.689588e-01
34 1 1 1.754869e+01 -6.164855e+00 -1.119717e+01 -1 -1 1 5.422285e-01 5.925796e-02 4.850243e-01 6.835409e-01
35 1 2 1.794140e+01 -5.851258e+00 -1.117343e+01 -1 -1 1 2.798088e-01 1.746946e-01 4.491819e-01 8.303159e-01
36 1 2 1.829479e+01 -5.387602e+00 -1.102260e+01 -1 -1 1 9.621639e-02 1.262635e-01 4.881943e-01 8.581762e-01
37 1 1 1.834546e+01 -4.924329e+00 -1.105955e+01 -1 -1 1 -2.197674e-01 3.252611e-01 4.234930e-01 8.164320e-01
38 1 1 1.822168e+01 -4.411442e+00 -1.090784e+01 -1 -1 1 -4.445822e-01 3.240689e-01 3.466236e-01 7.597224e-01
39 1 4 1.806775e+01 -3.967730e+00 -1.066301e+01 -1 -1 1 7.220776e-01 -3.346970e-01 -2.375182e-01 -5.569263e-01
40 1 4 1.784832e+01 -3.714024e+00 -1.016417e+01 -1 -1 1 8.829111e-01 -3.736349e-01 -2.734512e-03 -2.843544e-01
41 1 2 1.791690e+01 -3.605634e+00 -9.661974e+00 -1 -1 1 9.360644e-01 -3.107382e-01 1.530446e-01 -6.166492e-02
42 1 4 1.816605e+01 -3.524836e+00 -9.217025e+00 -1 -1 1 9.510741e-01 -1.482777e-01 2.548258e-01 9.238792e-02
43 1 3 1.852369e+01 -3.530911e+00 -8.769982e+00 -1 -1 1 8.392915e-01 -9.600890e-02 4.131188e-01 3.401542e-01
44 1 2 1.903912e+01 -3.470048e+00 -8.552895e+00 -1 -1 1 7.082631e-01 6.772041e-02 4.673839e-01 5.247187e-01
45 1 1 1.948343e+01 -3.444649e+00 -8.465809e+00 -1 -1 1 5.431838e-01 2.104262e-01 4.988612e-01 6.417239e-01
46 1 3 -2.002613e+01 -3.232132e+00 -8.447168e+00 0 -1 1 3.076728e-01 3.329955e-01 5.028880e-01 7.359043e-01
47 1 4 -1.973952e+01 -2.842861e+00 -8.614019e+00 0 -1 1 -6.652755e-03 4.676859e-01 4.700337e-01 7.485279e-01
48 1 1 -1.948740e+01 -2.398836e+00 -8.617804e+00 0 -1 1 2.327332e-01 -5.035242e-01 -4.652024e-01 -6.898444e-01
49 1 4 -1.952290e+01 -1.827770e+00 -8.578216e+00 0 -1 1 4.652945e-01 -5.978964e-01 -1.757561e-01 -6.285942e-01
50 1 4 -1.937862e+01 -1.367934e+00 -8.379219e+00 0 -1 1 6.244009e-01 -5.769931e-01 8.723475e-02 -5.192230e-01
51 1 4 -1.917577e+01 -1.110651e+00 -7.948036e+00 0 -1 1 7.993073e-01 -3.850937e-01 1.644111e-01 -4.310216e-01
52 1 1 -1.904914e+01 -9.978726e-01 -7.431468e+00 0 -1 1 8.394654e-01 -3.378055e-01 3.904884e-01 -1.694226e-01
53 1 3 -1.868939e+01 -1.056932e+00 -7.078694e+00 0 -1 1 8.554402e-01 -2.352826e-01 4.586396e-01 5.013781e-02
54 1 4 -1.820045e+01 -1.179220e+00 -6.899537e+00 0 -1 1 7.881988e-01 3.550811e-02 5.247398e-01 3.195778e-01
55 1 4 -1.767296e+01 -1.219348e+00 -6.927527e+00 0 -1 1 6.120766e-01 2.300376e-01 5.646181e-01 5.036381e-01
56 1 4 -1.716758e+01 -1.095861e+00 -7.031393e+00 0 -1 1 4.228669e-01 3.334847e-01 5.296004e-01 6.553587e-01
57 1 1 -1.678459e+01 -8.643550e-01 -7.188294e+00 0 -1 1 1.851184e-01 4.908424e-01 4.698814e-01 7.099411e-01
58 1 1 -1.644196e+01 -4.100624e-01 -7.230792e+00 0 -1 1 -2.018962e-02 5.502601e-01 2.394146e-01 7.996792e-01
59 1 3 -1.614660e+01 5.952676e-02 -7.053350e+00 0 -1 1 2.851614e-01 -5.157813e-01 -6.720706e-02 -8.050689e-01
60 1 4 -1.600150e+01 3.054449e-01 -6.598133e+00 0 -1 1 5.425141e-01 -4.994196e-01 2.592239e-01 -6.237479e-01
61 1 2 -1.568502e+01 5.322482e-01 -6.247851e+00 0 -1 1 6.102169e-01 -4.068516e-01 3.981553e-01 -5.509804e-01
62 1 3 -1.550735e+01 4.498084e-01 -5.784631e+00 0 -1 1 8.067870e-01 -1.686229e-01 4.135777e-01 -3.868004e-01
63 1 2 -1.528665e+01 1.021467e-01 -5.429884e+00 0 -1 1 8.769898e-01 1.458166e-02 4.785932e-01 -4.030850e-02
64 1 4 -1.489173e+01 -2.015010e-01 -5.259553e+00 0 -1 1 8.239334e-01 1.648141e-01 5.008706e-01 2.076024e-01
65 1 2 -1.443243e+01 -3.455240e-01 -5.220578e+00 0 -1 1 6.948431e-01 3.168366e-01 5.292629e-01 3.697140e-01
66 1 1 -1.402393e+01 -5.669357e-01 -5.431189e+00 0 -1 1 6.161118e-01 4.949405e-01 3.449430e-01 5.064134e-01
67 1 2 -1.343320e+01 -5.193462e-01 -5.412455e+00 0 -1 1 4.006192e-01 4.236404e-01 3.347422e-01 7.402572e-01
68 1 1 -1.286043e+01 -1.962274e-01 -5.401888e+00 0 -1 1 9.685778e-02 4.269029e-01 2.335143e-01 8.682416e-01
69 1 1 -1.261004e+01 2.130635e-01 -5.282473e+00 0 -1 1 -2.225119e-01 4.596540e-01 1.419747e-01 8.479681e-01
70 1 2 -1.252608e+01 5.314816e-01 -4.941948e+00 0 -1 1 5.023485e-01 -4.825274e-01 -1.766803e-02 -7.172873e-01
71 1 3 -1.233990e+01 9.208470e-01 -4.586627e+00 0 -1 1 6.111830e-01 -3.057397e-01 -1.317910e-01 -7.180597e-01
72 1 4 -1.248484e+01 1.086158e+00 -4.094053e+00 0 -1 1 8.429890e-01 -3.002049e-01 1.040750e-01 -4.340679e-01
73 1 1 -1.241214e+01 1.113760e+00 -3.550350e+00 0 -1 1 9.383311e-01 -1.893777e-01 2.539360e-01 -1.385180e-01
74 1 1 -1.214589e+01 8.106713e-01 -3.152032e+00 0 -1 1 9.369444e-01 -1.107889e-01 2.655517e-01 1.983513e-01
75 1 3 -1.179833e+01 7.166694e-01 -2.761829e+00 0 -1 1 8.660454e-01 -7.589833e-02 3.204207e-01 3.762120e-01
76 1 1 -1.121638e+01 7.352980e-01 -2.583634e+00 0 -1 1 6.027229e-01 6.445774e-04 3.795715e-01 7.018904e-01
77 1 4 -1.057760e+01 1.304985e-01 -1.800955e+00 0 -1 1 -5.767278e-01 5.877028e-01 -4.722430e-01 -3.146061e-01
78 1 1 -1.129135e+01 6.998010e-01 -1.531165e+00 0 -1 1 2.897032e-01 2.818558e-01 9.006856e-01 1.593576e-01
79 1 4 -1.121991e+01 2.993749e-01 -1.857077e-01 0 -1 1 7.954108e-01 -8.258315e-02 -5.770233e-01 -1.659694e-01
80 1 2 -1.155476e+01 1.838041e-01 6.596991e-02 0 -1 1 -6.677144e-01 4.147884e-01 5.238440e-01 -3.281698e-01
81 1 4 -1.149704e+01 -7.115612e-01 1.855136e-01 0 -1 1 -7.612191e-01 5.288017e-01 3.627783e-01 -9.646775e-02
82 1 4 -1.169912e+01 -3.721786e-01 5.599110e-01 0 -1 1 -5.926858e-01 6.713322e-01 8.164128e-02 -4.374601e-01
83 1 4 -1.180058e+01 1.030448e-01 7.281672e-01 0 -1 1 4.616939e-01 -5.995098e-01 2.574112e-01 6.009710e-01
84 1 4 -1.236882e+01 -3.504404e-02 1.020317e+00 0 -1 1 6.761367e-02 -8.134512e-01 2.779250e-01 5.064418e-01
85 1 1 -1.249002e+01 3.680626e-01 8.936593e-01 0 -1 1 -2.001642e-01 -5.915017e-01 5.456023e-01 5.589080e-01
86 1 1 -1.281034e+01 7.058531e-01 5.994785e-01 0 -1 1 5.428688e-01 2.421531e-01 -6.519883e-01 -4.707085e-01
87 1 3 -1.284122e+01 1.651544e+00 7.705004e-01 0 -1 1 9.131955e-01 -1.868383e-01 -2.001550e-01 3.018333e-01
88 1 2 -1.371746e+01 2.174892e+00 1.091366e+00 0 -1 1 3.068840e-01 -5.783160e-01 4.152579e-01 -6.316120e-01
89 1 2 -1.474693e+01 2.196235e+00 9.695029e-01 0 -1 1 -6.492757e-01 -8.947114e-02 -3.816927e-01 6.517259e-01
90 1 3 -1.424658e+01 2.380363e+00 1.521207e+00 0 -1 1 5.610546e-01 3.827336e-01 2.775753e-01 6.794738e-01
91 1 3 -1.471133e+01 2.605054e+00 2.484565e+00 0 -1 1 -6.584579e-01 1.644946e-01 2.997874e-01 -6.704492e-01
92 1 2 -1.473801e+01 2.708689e+00 2.996945e+00 0 -1 1 -4.351358e-01 2.732138e-01 1.643603e-01 -8.420195e-01
93 1 1 -1.486342e+01 2.738245e+00 3.442065e+00 0 -1 1 6.312954e-02 -4.052490e-01 -5.575144e-02 9.103185e-01
94 1 2 -1.436502e+01 3.399630e+00 3.254230e+00 0 -1 1 4.129718e-02 -9.586970e-01 -2.102855e-01 1.870151e-01
95 1 3 -1.487817e+01 4.132030e+00 3.671624e+00 0 -1 1 -2.332866e-01 8.397362e-01 4.878513e-01 4.920896e-02
96 1 2 -1.489846e+01 4.586734e+00 3.394036e+00 0 -1 1 -1.265843e-01 9.889691e-01 -3.095523e-02 -7.041497e-02
97 1 2 -1.514187e+01 4.664863e+00 3.248187e+00 0 -1 1 2.232246e-01 -3.259111e-01 8.862710e-01 2.418188e-01
98 1 4 -1.571619e+01 5.049675e+00 3.996851e+00 0 -1 1 1.819713e-01 6.495875e-01 5.471962e-01 -4.954783e-01
99 1 2 -1.630934e+01 5.401294e+00 3.701276e+00 0 -1 1 -2.137732e-01 -7.552103e-01 -6.178121e-01 -4.761016e-02
100 1 1 -1.615390e+01 5.409958e+00 3.144700e+00 0 -1 1 -5.601949e-03 6.812217e-01 7.020706e-01 2.073706e-01
101 2 4 -4.971921e+00 -2.942975e+00 2.908441e-01 0 -1 1 5.984150e-01 3.123042e-02 -5.567759e-01 -5.752606e-01
102 2 3 -4.989809e+00 -2.499852e+00 3.952419e-01 0 -1 1 6.198353e-01 3.287935e-01 -3.406848e-01 6.258058e-01
103 2 1 -5.881132e+00 -1.687838e+00 -5.332880e-02 0 -1 1 -7.710224e-02 8.087909e-01 5.712414e-01 -1.166009e-01
104 2 3 -6.102693e+00 -1.512418e+00 -4.413729e-01 0 -1 1 1.200026e-02 9.802166e-01 1.733836e-01 -9.470719e-02
105 2 3 -6.084571e+00 -1.319618e+00 -8.871394e-01 0 -1 1 -7.787917e-02 -9.723392e-01 2.187182e-01 2.556464e-02
106 2 2 -5.872095e+00 -1.195892e+00 -1.356412e+00 0 -1 1 1.326412e-01 7.931381e-01 -5.900162e-01 7.224436e-02
107 2 3 -6.655430e+00 -6.480881e-01 -4.213816e-01 0 -1 1 -4.124158e-01 1.873641e-01 8.833593e-01 -1.203506e-01
108 2 4 -6.348094e+00 2.698340e-01 -1.408306e+00 0 -1 1 5.334390e-01 -6.158078e-01 -3.708280e-02 5.786610e-01
109 2 3 -7.466657e+00 2.274609e-01 -9.111464e-01 0 -1 1 5.451013e-01 -1.783914e-01 -3.451557e-01 -7.429055e-01
110 2 2 -7.827248e+00 4.406668e-01 -6.333759e-01 0 -1 1 8.442005e-01 -2.184383e-01 -3.322901e-01 -3.594350e-01
111 2 2 -7.236940e+00 1.249090e+00 -1.240549e+00 0 -1 1 5.203610e-01 -6.806645e-02 -3.166368e-01 7.901472e-01
112 2 3 -7.508287e+00 1.433824e+00 -1.827566e+00 0 -1 1 2.734188e-01 -1.376852e-01 -6.676251e-01 -6.786469e-01
113 2 3 -7.798319e+00 1.780259e+00 -1.831682e+00 0 -1 1 -5.512245e-01 4.615265e-01 4.747186e-01 5.077275e-01
114 2 2 -8.079255e+00 2.220892e+00 -2.599378e+00 0 -1 1 5.533734e-01 1.739648e-01 8.096306e-01 8.951211e-02
115 2 4 -9.053458e+00 2.069975e+00 -2.546589e+00 0 -1 1 3.130690e-01 1.513508e-01 9.374409e-01 1.689187e-02
116 2 4 -9.017854e+00 2.498112e+00 -2.110010e+00 0 -1 1 8.044318e-01 -5.732433e-01 1.159575e-01 -1.040934e-01
117 2 1 -9.793325e+00 3.526638e+00 -2.222856e+00 0 -1 1 2.645134e-01 1.628541e-01 3.267598e-01 -8.926025e-01
118 2 1 -1.009423e+01 3.291564e+00 -1.913423e+00 0 -1 1 -5.943259e-01 -3.511663e-01 -2.142297e-01 6.910605e-01
119 2 1 -1.035149e+01 2.724731e+00 -1.776004e+00 0 -1 1 8.592839e-01 3.759119e-01 1.969423e-01 -2.855437e-01
120 2 1 -1.040256e+01 2.239593e+00 -1.644177e+00 0 -1 1 9.402291e-01 2.664313e-01 2.087262e-01 3.764189e-02
121 2 3 -1.125032e+01 2.656296e+00 -1.090414e+00 0 -1 1 4.985306e-01 1.244926e-02 -2.517351e-01 8.294225e-01
122 2 1 -1.235652e+01 2.170075e+00 -1.358453e+00 0 -1 1 3.458785e-01 -5.192975e-01 -7.468009e-01 -2.301881e-01
123 2 4 -1.141740e+01 1.894097e+00 -2.307953e+00 0 -1 1 3.478353e-01 8.512683e-01 3.407407e-01 -1.955725e-01
124 2 1 -1.148128e+01 1.819213e+00 -2.706405e+00 0 -1 1 -3.643906e-01 -9.226956e-01 8.578180e-02 9.216204e-02
125 2 4 -1.148559e+01 1.736132e+00 -3.164890e+00 0 -1 1 3.354905e-01 7.377001e-01 -5.791816e-01 8.828025e-02
126 2 2 -1.124557e+01 1.503190e+00 -3.520445e+00 0 -1 1 2.109873e-01 5.101536e-01 -8.003663e-01 2.337552e-01
127 2 4 -1.118813e+01 1.072875e+00 -3.781076e+00 0 -1 1 2.199038e-01 1.389852e-01 -9.193799e-01 2.950694e-01
128 2 4 -1.141153e+01 6.282601e-01 -4.050286e+00 0 -1 1 2.893910e-01 -8.609853e-02 -8.693878e-01 3.911582e-01
129 2 1 -1.171897e+01 1.832173e-01 -3.981261e+00 0 -1 1 1.330154e-01 -4.033474e-01 -7.735411e-01 4.703744e-01
130 2 2 -1.218386e+01 -1.613006e-01 -4.035826e+00 0 -1 1 1.326455e-01 -6.027211e-01 -6.252522e-01 4.776945e-01
131 2 3 -1.271836e+01 -2.776663e-01 -4.186607e+00 0 -1 1 1.690910e-01 -7.678102e-01 -4.693638e-01 4.019618e-01
132 2 4 -1.317901e+01 -6.129904e-02 -4.282117e+00 0 -1 1 8.956080e-02 8.664652e-01 1.355904e-01 -4.720511e-01
133 2 4 -1.354767e+01 2.459224e-01 -4.535226e+00 0 -1 1 4.642249e-02 8.655324e-01 -1.526824e-01 -4.747491e-01
134 2 3 -1.377341e+01 5.656641e-01 -4.943118e+00 0 -1 1 1.315585e-01 7.840578e-01 -4.861861e-01 -3.627241e-01
135 2 4 -1.378164e+01 7.005266e-01 -5.460012e+00 0 -1 1 -3.257438e-01 -5.099082e-01 7.198061e-01 3.402407e-01
136 2 3 -1.413115e+01 5.700586e-01 -5.872095e+00 0 -1 1 -4.909589e-01 -3.472084e-01 7.669176e-01 2.241498e-01
137 2 1 -1.439391e+01 3.212464e-01 -6.268192e+00 0 -1 1 5.465903e-01 2.474106e-01 -7.992284e-01 -3.551098e-02
138 2 3 -1.469805e+01 -5.733298e-02 -6.458118e+00 0 -1 1 4.851381e-01 2.395431e-02 -8.317331e-01 2.688630e-01
139 2 2 -1.505048e+01 -4.396857e-01 -6.389456e+00 0 -1 1 4.516315e-01 -3.218637e-01 -7.559296e-01 3.478551e-01
140 2 3 -1.544663e+01 -6.369449e-01 -6.165388e+00 0 -1 1 3.458456e-01 -4.681616e-01 -5.838710e-01 5.659595e-01
141 2 1 -1.588293e+01 -6.419093e-01 -6.023814e+00 0 -1 1 1.485725e-01 -6.553516e-01 -3.225343e-01 6.666424e-01
142 2 2 -1.650389e+01 -5.136809e-01 -6.034928e+00 0 -1 1 7.980784e-02 -8.064341e-01 -2.458380e-01 5.318443e-01
143 2 4 -1.701028e+01 -2.986780e-01 -6.214356e+00 0 -1 1 -4.023579e-02 8.850632e-01 -7.131656e-03 -4.636738e-01
144 2 4 -1.738814e+01 -2.997962e-02 -6.563507e+00 0 -1 1 -2.249091e-01 -8.605929e-01 2.437113e-01 3.865237e-01
145 2 1 -1.762959e+01 1.361077e-02 -7.058010e+00 0 -1 1 -3.468837e-01 -7.328821e-01 5.116222e-01 2.842503e-01
146 2 1 -1.786123e+01 -2.607231e-01 -7.606279e+00 0 -1 1 -5.639958e-01 -5.758478e-01 5.851007e-01 8.924782e-02
147 2 1 -1.789243e+01 -6.733152e-01 -7.940518e+00 0 -1 1 -5.079920e-01 -2.881748e-01 8.071183e-01 -8.636805e-02
148 2 2 -1.804055e+01 -1.183520e+00 -8.054163e+00 0 -1 1 -4.400297e-01 -1.585288e-01 7.843318e-01 -4.075121e-01
149 2 4 -1.815981e+01 -1.718359e+00 -7.991647e+00 0 -1 1 3.593744e-01 -1.271771e-01 -7.911889e-01 4.782220e-01
150 2 1 -1.851663e+01 -2.144296e+00 -7.923336e+00 0 -1 1 3.256881e-01 -3.646755e-01 -6.330047e-01 6.002034e-01
151 2 1 -1.891333e+01 -2.184394e+00 -7.650519e+00 0 -1 1 1.142639e-01 -5.548501e-01 -3.670989e-01 7.377828e-01
152 2 1 -1.947784e+01 -2.131464e+00 -7.433123e+00 0 -1 1 -1.604056e-01 -6.906789e-01 -2.578561e-01 6.563101e-01
153 2 4 2.001422e+01 -2.327254e+00 -7.570319e+00 -1 -1 1 -2.134974e-01 -8.349352e-01 -1.180722e-01 4.933165e-01
154 2 1 1.957690e+01 -2.263896e+00 -7.834063e+00 -1 -1 1 -3.063851e-01 -8.384404e-01 2.026463e-01 4.025920e-01
155 2 2 1.934643e+01 -2.294728e+00 -8.276317e+00 -1 -1 1 -3.683782e-01 -7.960832e-01 4.096140e-01 2.505301e-01
156 2 4 1.930295e+01 -2.334602e+00 -8.766283e+00 -1 -1 1 -3.603369e-01 -5.930599e-01 7.114965e-01 1.104987e-01
157 2 3 1.916167e+01 -2.557963e+00 -9.279279e+00 -1 -1 1 -3.670050e-01 -4.609833e-01 8.043791e-01 -7.600022e-02
158 2 2 1.902801e+01 -2.919792e+00 -9.783168e+00 -1 -1 1 -3.758715e-01 -4.949785e-01 7.394377e-01 -2.587445e-01
159 2 1 1.911070e+01 -3.402786e+00 -9.948776e+00 -1 -1 1 -2.611050e-01 -1.531891e-01 8.698666e-01 -3.894731e-01
160 2 3 1.905256e+01 -3.942802e+00 -9.934115e+00 -1 -1 1 1.790566e-01 -1.018987e-01 -8.041351e-01 5.576039e-01
161 2 1 1.879772e+01 -4.396937e+00 -9.851612e+00 -1 -1 1 9.181068e-02 -3.279917e-01 -7.166544e-01 6.086040e-01
162 2 1 1.835826e+01 -4.757672e+00 -9.831113e+00 -1 -1 1 -1.070795e-01 -6.137664e-01 -6.090083e-01 4.908499e-01
163 2 4 1.788739e+01 -5.009809e+00 -9.926923e+00 -1 -1 1 -8.451715e-02 -7.600255e-01 -4.251082e-01 4.842532e-01
164 2 4 1.744479e+01 -5.030610e+00 -1.024116e+01 -1 -1 1 -2.519857e-01 -8.806633e-01 -1.807671e-01 3.581321e-01
165 2 3 1.719644e+01 -5.038035e+00 -1.067468e+01 -1 -1 1 -3.036499e-01 -9.141003e-01 1.117944e-01 2.443754e-01
166 2 3 1.698356e+01 -5.149984e+00 -1.119967e+01 -1 -1 1 -2.820084e-01 -9.022646e-01 3.226789e-01 4.762474e-02
167 2 4 1.710198e+01 -5.220307e+00 -1.173672e+01 -1 -1 1 -3.259523e-01 -7.551555e-01 5.670899e-01 -4.363834e-02
168 2 2 1.722375e+01 -5.536728e+00 -1.215094e+01 -1 -1 1 -3.150457e-01 -5.825526e-01 6.995951e-01 -2.682265e-01
169 2 2 1.737511e+01 -5.988160e+00 -1.229186e+01 -1 -1 1 -2.353580e-01 -2.428445e-01 8.605900e-01 -3.808123e-01
170 2 1 1.733530e+01 -6.483025e+00 -1.258005e+01 -1 -1 1 -2.266890e-01 -3.098126e-03 8.713387e-01 -4.351681e-01
171 2 1 1.713755e+01 -6.956487e+00 -1.247662e+01 -1 -1 1 7.775397e-02 -2.298055e-01 -8.175402e-01 5.222756e-01
172 2 4 1.673960e+01 -7.311606e+00 -1.238385e+01 -1 -1 1 -9.742041e-02 -4.948815e-01 -6.913355e-01 5.173555e-01
173 2 4 1.623265e+01 -7.613999e+00 -1.254162e+01 -1 -1 1 -2.139153e-03 -6.900925e-01 -4.950677e-01 5.278975e-01
174 2 1 1.567650e+01 -7.557529e+00 -1.267382e+01 -1 -1 1 -5.567339e-02 -8.510949e-01 -2.289247e-01 4.691816e-01
175 2 1 1.524024e+01 -7.555379e+00 -1.304536e+01 -1 -1 1 -9.250598e-02 -9.150848e-01 -1.370757e-01 3.677945e-01
176 2 2 1.498827e+01 -7.328469e+00 -1.336469e+01 -1 -1 1 -1.842310e-01 -8.836496e-01 2.421038e-01 3.558203e-01
177 2 2 1.484378e+01 -7.198915e+00 -1.389681e+01 -1 -1 1 -2.177019e-01 -7.827645e-01 5.336015e-01 2.348511e-01
178 2 1 1.476257e+01 -7.356848e+00 -1.450900e+01 -1 -1 1 -3.987484e-01 -5.814758e-01 6.956729e-01 1.375675e-01
179 2 4 1.461041e+01 -7.606600e+00 -1.495198e+01 -1 -1 1 -4.205888e-01 -3.405369e-01 8.394976e-01 -4.882144e-02
180 2 1 1.439523e+01 -8.096047e+00 -1.523224e+01 -1 -1 1 -4.408892e-01 -1.860576e-01 8.579419e-01 -1.869091e-01
181 2 4 1.414387e+01 -8.520582e+00 -1.536990e+01 -1 -1 1 3.754518e-01 -1.669109e-01 -8.646308e-01 2.891198e-01
182 2 2 1.373248e+01 -8.809047e+00 -1.551680e+01 -1 -1 1 4.318095e-01 -3.295689e-01 -7.601229e-01 3.565643e-01
183 2 3 1.333610e+01 -9.024453e+00 -1.539206e+01 -1 -1 1 2.591444e-01 -5.436814e-01 -6.230117e-01 4.991103e-01
184 2 4 1.283461e+01 -8.998410e+00 -1.532520e+01 -1 -1 1 1.529083e-01 -7.434848e-01 -3.719669e-01 5.343127e-01
185 2 3 1.228175e+01 -8.914203e+00 -1.549750e+01 -1 -1 1 3.305082e-02 -8.715527e-01 -1.933015e-01 4.493751e-01
186 2 1 1.192732e+01 -8.686792e+00 -1.575963e+01 -1 -1 1 -1.436071e-01 -8.953662e-01 1.617717e-01 3.892637e-01
187 2 1 1.167859e+01 -8.462897e+00 -1.617123e+01 -1 -1 1 -3.042347e-02 -8.741653e-01 3.603017e-01 3.241791e-01
188 2 2 1.167010e+01 -8.323771e+00 -1.666378e+01 -1 -1 1 -1.267118e-01 -6.986912e-01 6.741654e-01 2.031643e-01
189 2 4 1.125307e+01 -7.681118e+00 -1.705322e+01 -1 -1 1 -3.602317e-01 4.001169e-01 -8.035043e-01 -2.540089e-01
190 2 4 1.023447e+01 -6.821407e+00 -1.643088e+01 -1 -1 1 2.753739e-01 -4.831541e-01 -4.431049e-01 7.031283e-01
191 2 1 1.010072e+01 -6.249524e+00 -1.601379e+01 -1 -1 1 4.162798e-01 -6.740014e-01 -5.937986e-01 1.408419e-01
192 2 4 9.609378e+00 -5.969669e+00 -1.601365e+01 -1 -1 1 -2.822837e-01 8.920895e-01 2.631419e-01 -2.350501e-01
193 2 4 9.092412e+00 -6.829337e+00 -1.615789e+01 -1 -1 1 9.580407e-01 -2.780574e-01 6.637753e-02 -2.088480e-02
194 2 1 9.364173e+00 -5.992781e+00 -1.588334e+01 -1 -1 1 -6.800090e-01 -3.892685e-01 5.299872e-01 -3.243014e-01
195 2 3 8.821618e+00 -5.635396e+00 -1.538248e+01 -1 -1 1 1.385371e-01 3.336134e-01 1.984668e-01 9.111095e-01
196 2 4 9.034870e+00 -5.379304e+00 -1.504474e+01 -1 -1 1 3.136566e-01 -3.039973e-01 -3.239986e-03 -8.995525e-01
197 2 2 9.799149e+00 -5.074417e+00 -1.491682e+01 -1 -1 1 -1.207706e-02 6.614227e-01 5.872901e-01 4.663310e-01
198 2 4 9.860994e+00 -4.532928e+00 -1.523028e+01 -1 -1 1 2.592604e-01 -8.773961e-01 -1.097617e-01 -3.884745e-01
199 2 3 9.832668e+00 -4.194717e+00 -1.628844e+01 -1 -1 1 -3.483674e-01 8.609987e-01 -2.895666e-02 -3.694360e-01
200 2 4 1.056723e+01 -4.249683e+00 -1.650904e+01 -1 -1 1 8.569396e-01 -3.900964e-01 1.628493e-01 2.948887e-01
