ITEM: TIMESTEP
196000000
ITEM: NUMBER OF ATOMS
200
ITEM: BOX BOUNDS pp pp pp
-2.0000000000000000e+01 2.0000000000000000e+01
-2.0000000000000000e+01 2.0000000000000000e+01
-2.0000000000000000e+01 2.0000000000000000e+01
ITEM: ATOMS id mol type x y z ix iy iz c_quat[1] c_quat[2] c_quat[3] c_quat[4]
1 1 1 1.770473e+01 -1.977751e+00 -7.717676e+00 -1 -1 1 -9.480426e-01 2.327227e-01 1.283251e-01 -1.748943e-01
2 1 2 1.800987e+01 -1.063338e+00 -7.469694e+00 -1 -1 1 -7.902918e-01 1.211279e-01 1.454033e-01 -5.827734e-01
3 1 1 1.818537e+01 -1.045173e+00 -6.995394e+00 -1 -1 1 -4.783047e-01 9.550895e-02 -1.403954e-02 -8.728720e-01
4 1 3 1.837409e+01 -7.839196e-01 -6.578147e+00 -1 -1 1 -1.908300e-01 1.332242e-01 -1.056018e-01 -9.667903e-01
5 1 1 1.833430e+01 -2.931429e-01 -6.359883e+00 -1 -1 1 1.077344e-01 4.502268e-03 -5.529382e-02 -9.926307e-01
6 1 2 1.810409e+01 -4.058851e-02 -6.020627e+00 -1 -1 1 -3.927780e-01 -2.989186e-02 1.080022e-01 9.127800e-01
7 1 4 1.770771e+01 1.090101e-01 -5.707242e+00 -1 -1 1 7.488627e-01 -1.107615e-01 -5.254507e-02 -6.512876e-01
8 1 1 1.743754e+01 2.115325e-01 -5.160932e+00 -1 -1 1 -8.302298e-01 8.318709e-02 -3.156729e-02 5.502743e-01
9 1 1 1.721176e+01 -2.559957e-02 -4.711722e+00 -1 -1 1 9.653492e-01 -2.609882e-02 1.853544e-02 -2.589907e-01
10 1 4 1.723332e+01 -2.796943e-01 -4.290533e+00 -1 -1 1 -9.860993e-01 2.533372e-02 -9.623319e-03 -1.639319e-01
11 1 1 1.714070e+01 -3.471478e-01 -3.700151e+00 -1 -1 1 -9.782321e-01 -1.991945e-02 -1.094155e-01 -1.751955e-01
12 1 1 1.747273e+01 -5.289585e-01 -3.348173e+00 -1 -1 1 8.175007e-01 -2.976352e-02 1.191469e-01 5.626817e-01
13 1 3 1.785749e+01 -4.311535e-01 -2.904585e+00 -1 -1 1 -6.561885e-01 4.303325e-02 -1.941781e-01 -7.279146e-01
14 1 4 1.822261e+01 -1.559957e-01 -2.749481e+00 -1 -1 1 3.345981e-01 1.160710e-01 2.461168e-01 9.022185e-01
15 1 4 1.847702e+01 2.230870e-01 -2.487843e+00 -1 -1 1 1.853244e-01 7.839136e-02 3.647673e-01 9.090954e-01
16 1 2 1.845061e+01 7.926766e-01 -2.302103e+00 -1 -1 1 1.988290e-01 -1.534996e-01 -4.278280e-01 -8.682558e-01
17 1 1 1.826028e+01 1.372488e+00 -2.007581e+00 -1 -1 1 5.262372e-01 -2.012402e-01 -2.509881e-01 -7.871352e-01
18 1 2 1.798054e+01 1.615701e+00 -1.694135e+00 -1 -1 1 -7.106253e-01 2.317758e-01 2.979132e-01 5.937503e-01
19 1 3 1.769790e+01 1.876676e+00 -1.425215e+00 -1 -1 1 -8.661539e-01 3.168829e-01 2.100851e-01 3.243869e-01
20 1 1 1.746646e+01 2.069071e+00 -9.856777e-01 -1 -1 1 -9.293285e-01 2.693755e-01 1.145780e-01 2.250718e-01
21 1 4 1.741534e+01 1.968120e+00 -5.409269e-01 -1 -1 1 9.620829e-01 -2.537580e-01 -7.482125e-02 6.637136e-02
22 1 1 1.743018e+01 1.857198e+00 -4.668576e-02 -1 -1 1 9.091279e-01 -2.042736e-01 -5.880061e-02 3.581915e-01
23 1 4 1.750860e+01 1.901467e+00 4.958976e-01 -1 -1 1 8.279177e-01 -1.969551e-01 6.836376e-02 5.206605e-01
24 1 3 1.764507e+01 2.034187e+00 9.429659e-01 -1 -1 1 7.451696e-01 -2.054317e-01 2.236528e-01 5.937167e-01
25 1 3 1.794409e+01 2.210016e+00 1.238828e+00 -1 -1 1 5.724563e-01 -2.719798e-02 3.453480e-01 7.431614e-01
26 1 4 1.823911e+01 2.628968e+00 1.457632e+00 -1 -1 1 2.183355e-01 -3.889681e-03 2.682238e-01 9.382806e-01
27 1 4 1.827228e+01 3.136477e+00 1.642997e+00 -1 -1 1 -1.886298e-01 7.005311e-02 2.815895e-01 9.381997e-01
28 1 1 1.807788e+01 3.584410e+00 1.871522e+00 -1 -1 1 -3.484028e-01 1.774535e-02 3.660600e-01 8.627286e-01
29 1 1 1.771746e+01 3.921237e+00 2.023199e+00 -1 -1 1 -6.023643e-01 1.599448e-02 4.554124e-01 6.553633e-01
30 1 4 1.723252e+01 4.047216e+00 2.272948e+00 -1 -1 1 7.742254e-01 8.459899e-03 -4.108236e-01 -4.813806e-01
31 1 4 1.676372e+01 4.057223e+00 2.511374e+00 -1 -1 1 9.166869e-01 -1.529357e-01 -3.109025e-01 -1.990864e-01
32 1 3 1.644122e+01 3.949729e+00 2.972293e+00 -1 -1 1 9.682353e-01 -1.552305e-01 -1.918004e-01 4.045478e-02
33 1 3 1.636817e+01 3.825102e+00 3.402465e+00 -1 -1 1 8.800440e-01 -1.417033e-01 -1.130929e-01 4.389224e-01
34 1 1 1.635692e+01 3.799287e+00 3.933816e+00 -1 -1 1 7.895956e-01 -1.588225e-01 7.991281e-03 5.926637e-01
35 1 2 1.650296e+01 3.929391e+00 4.401305e+00 -1 -1 1 5.978502e-01 -1.959085e-01 1.196602e-01 7.680342e-01
36 1 2 1.663029e+01 4.352472e+00 4.803210e+00 -1 -1 1 2.868941e-01 -2.224751e-01 1.965627e-01 9.108017e-01
37 1 1 1.667042e+01 4.818556e+00 5.128958e+00 -1 -1 1 1.588425e-02 -2.054886e-01 2.555903e-01 9.445611e-01
38 1 1 1.639700e+01 5.250931e+00 5.271659e+00 -1 -1 1 -2.367394e-01 -1.906688e-01 3.671570e-01 8.790879e-01
39 1 4 1.599732e+01 5.635118e+00 5.351581e+00 -1 -1 1 4.693532e-01 9.734362e-02 -4.279098e-01 -7.662408e-01
40 1 4 1.558226e+01 5.823118e+00 5.574600e+00 -1 -1 1 6.079596e-01 1.349424e-01 -4.973085e-01 -6.040364e-01
41 1 2 1.500150e+01 5.739187e+00 5.702295e+00 -1 -1 1 8.451010e-01 7.150450e-03 -4.066169e-01 -3.470099e-01
42 1 4 1.454302e+01 5.639255e+00 5.969234e+00 -1 -1 1 -9.242197e-01 1.449296e-01 3.503620e-01 4.538632e-02
43 1 3 1.427543e+01 5.732447e+00 6.454853e+00 -1 -1 1 9.538949e-01 -2.209858e-01 -1.942268e-01 5.937740e-02
44 1 2 1.417069e+01 5.612912e+00 6.940022e+00 -1 -1 1 8.706196e-01 -2.550091e-01 -8.827751e-02 4.113379e-01
45 1 1 1.431996e+01 5.603533e+00 7.421611e+00 -1 -1 1 7.683209e-01 -2.222034e-01 -8.263889e-03 6.002003e-01
46 1 3 1.435965e+01 5.727675e+00 7.892536e+00 -1 -1 1 6.128901e-01 -1.806841e-01 1.390447e-01 7.565616e-01
47 1 4 1.456286e+01 6.096754e+00 8.283630e+00 -1 -1 1 3.235306e-01 -2.053024e-01 1.700558e-01 9.078876e-01
48 1 1 1.450633e+01 6.629019e+00 8.520828e+00 -1 -1 1 4.978252e-02 1.718289e-01 -2.554661e-01 -9.501229e-01
49 1 4 1.431639e+01 7.057024e+00 8.645072e+00 -1 -1 1 3.256621e-01 1.171414e-01 -3.631857e-01 -8.650539e-01
50 1 4 1.389085e+01 7.389490e+00 8.785010e+00 -1 -1 1 5.257802e-01 7.894671e-02 -4.042025e-01 -7.442734e-01
51 1 4 1.343520e+01 7.575045e+00 9.040142e+00 -1 -1 1 7.198254e-01 8.536779e-02 -3.971051e-01 -5.629132e-01
52 1 1 1.293719e+01 7.500940e+00 9.265702e+00 -1 -1 1 8.446314e-01 5.284917e-02 -4.073032e-01 -3.433785e-01
53 1 3 1.256833e+01 7.328524e+00 9.503592e+00 -1 -1 1 9.366641e-01 -2.102419e-02 -3.474749e-01 -3.846516e-02
54 1 4 1.236003e+01 7.052212e+00 1.005317e+01 -1 -1 1 9.290072e-01 -2.155661e-01 -1.819790e-01 2.395006e-01
55 1 4 1.239070e+01 6.950903e+00 1.056174e+01 -1 -1 1 8.008032e-01 -1.652764e-01 -4.306327e-02 5.740587e-01
56 1 4 1.244690e+01 7.039204e+00 1.107133e+01 -1 -1 1 7.557777e-01 -1.043692e-01 6.391264e-02 6.432902e-01
57 1 1 1.138060e+01 6.286451e+00 1.153092e+01 -1 -1 1 -9.109141e-01 2.973125e-01 1.123380e-01 2.630986e-01
58 1 1 1.136249e+01 6.550275e+00 1.192647e+01 -1 -1 1 -3.428638e-01 -7.848131e-01 4.551068e-01 -2.437018e-01
59 1 3 1.088680e+01 6.287662e+00 1.201095e+01 -1 -1 1 -2.830341e-01 -4.436407e-01 -7.505332e-02 -8.470192e-01
60 1 4 1.094316e+01 5.367695e+00 1.189648e+01 -1 -1 1 -4.114630e-01 -7.861540e-01 -8.705173e-02 4.528600e-01
61 1 2 1.070302e+01 4.962372e+00 1.266178e+01 -1 -1 1 -1.670203e-03 1.356149e-01 4.932516e-01 8.592489e-01
62 1 3 1.143470e+01 4.122133e+00 1.261470e+01 -1 -1 1 6.604766e-01 6.825421e-01 1.244850e-01 2.870722e-01
63 1 2 1.106727e+01 3.075316e+00 1.283106e+01 -1 -1 1 8.620060e-01 5.021942e-01 -5.571654e-02 -4.052614e-02
64 1 4 1.111365e+01 2.551349e+00 1.274249e+01 -1 -1 1 7.853087e-01 4.436934e-01 -2.692897e-01 3.375049e-01
65 1 2 1.030278e+01 2.490703e+00 1.194795e+01 -1 -1 1 -1.198093e-01 -3.809160e-01 -1.398235e-01 9.060895e-01
66 1 1 1.062638e+01 2.173490e+00 1.149953e+01 -1 -1 1 -6.585153e-01 5.774270e-01 -4.729649e-01 -9.612405e-02
67 1 2 1.016742e+01 2.583443e+00 1.031597e+01 -1 -1 1 2.761875e-01 -2.556307e-01 6.295798e-01 6.797078e-01
68 1 1 1.032805e+01 2.878650e+00 1.002566e+01 -1 -1 1 -2.021314e-02 -1.090161e-01 -6.514696e-01 -7.505293e-01
69 1 1 1.023064e+01 3.320862e+00 1.000031e+01 -1 -1 1 -1.573329e-01 5.953982e-02 7.351505e-01 6.567002e-01
70 1 2 9.930439e+00 3.737072e+00 9.880036e+00 -1 -1 1 5.188568e-01 -3.107292e-01 -5.791378e-01 -5.466574e-01
71 1 3 9.617371e+00 4.039207e+00 9.977054e+00 -1 -1 1 7.281710e-01 -4.635470e-01 -4.171692e-01 -2.843607e-01
72 1 4 9.407715e+00 4.401268e+00 1.019859e+01 -1 -1 1 7.592252e-01 -6.440123e-01 -7.407413e-02 -5.777712e-02
73 1 1 8.813039e+00 3.837126e+00 9.435397e+00 -1 -1 1 -5.090220e-01 5.966658e-01 -5.922314e-01 1.847931e-01
74 1 1 8.876198e+00 3.894179e+00 8.822251e+00 -1 -1 1 -7.452567e-02 -9.727184e-01 -8.611602e-02 2.021111e-01
75 1 3 9.002521e+00 4.086453e+00 8.232458e+00 -1 -1 1 -4.624230e-01 7.738568e-02 -6.124060e-02 -8.811504e-01
76 1 1 8.665287e+00 4.450289e+00 8.130095e+00 -1 -1 1 -4.858728e-01 -5.644910e-01 -6.126545e-01 2.644465e-01
77 1 4 9.607257e+00 4.932213e+00 7.945540e+00 -1 -1 1 4.954925e-01 -2.009414e-01 4.413622e-02 8.438968e-01
78 1 1 1.049622e+01 4.793239e+00 7.715900e+00 -1 -1 1 -6.324621e-01 -4.563444e-01 2.427353e-01 -5.769065e-01
79 1 4 1.073275e+01 4.484340e+00 7.854110e+00 -1 -1 1 -3.736139e-01 -4.657717e-01 2.526250e-01 -7.613475e-01
80 1 2 1.012055e+01 4.256471e+00 7.068738e+00 -1 -1 1 5.030746e-01 -4.959737e-01 -2.791717e-02 7.072105e-01
81 1 4 9.813067e+00 2.731659e+00 7.125370e+00 -1 -1 1 -2.651416e-01 1.906492e-01 -8.885127e-01 3.223322e-01
82 1 4 9.394295e+00 2.549983e+00 6.390207e+00 -1 -1 1 -3.578647e-01 -1.923096e-01 -6.220460e-01 6.693345e-01
83 1 4 9.873080e+00 2.041421e+00 6.197818e+00 -1 -1 1 1.801066e-01 2.279517e-01 -8.253261e-01 4.841864e-01
84 1 4 9.985125e+00 1.635411e+00 6.265193e+00 -1 -1 1 7.217749e-02 5.337193e-02 8.454580e-01 -5.264434e-01
85 1 1 1.003230e+01 6.205293e-01 5.919640e+00 -1 -1 1 -5.708319e-01 1.251888e-01 -7.972752e-01 1.510994e-01
86 1 1 1.038288e+01 3.604746e-01 5.635862e+00 -1 -1 1 -5.210081e-01 -3.344739e-01 -7.547819e-01 -2.167534e-01
87 1 3 1.096037e+01 -1.861432e-02 5.992714e+00 -1 -1 1 1.117448e-01 5.559132e-01 -2.402192e-01 -7.878885e-01
88 1 2 1.131329e+01 1.698349e-01 5.546442e+00 -1 -1 1 2.323004e-01 9.532062e-01 1.302844e-01 1.430402e-01
89 1 2 1.148821e+01 -4.857967e-01 5.943952e+00 -1 -1 1 -1.103022e-01 -9.316171e-01 3.600848e-02 -3.444219e-01
90 1 3 1.216367e+01 -1.305997e+00 6.125397e+00 -1 -1 1 2.768110e-01 6.680239e-01 -5.144050e-01 4.609850e-01
91 1 3 1.267133e+01 -1.591103e+00 5.656373e+00 -1 -1 1 5.317276e-01 3.897683e-01 -7.421468e-01 -1.206840e-01
92 1 2 1.232510e+01 -1.888104e+00 5.367181e+00 -1 -1 1 -6.415795e-01 -7.993042e-02 7.593363e-01 -7.345232e-02
93 1 1 1.288717e+01 -2.637977e+00 4.949109e+00 -1 -1 1 9.890918e-01 8.009899e-02 1.189137e-01 -3.377973e-02
94 1 2 1.312243e+01 -2.586812e+00 4.050316e+00 -1 -1 1 -4.767838e-01 -5.517271e-01 3.918415e-01 5.610122e-01
95 1 3 1.376874e+01 -2.642168e+00 3.891797e+00 -1 -1 1 7.740082e-01 3.785172e-01 -4.312730e-01 2.676557e-01
96 1 2 1.375482e+01 -3.117248e+00 3.931771e+00 -1 -1 1 4.851391e-01 1.759607e-01 -5.874594e-01 6.233533e-01
97 1 2 1.373738e+01 -3.365505e+00 2.698218e+00 -1 -1 1 -4.038113e-01 -5.708637e-01 -6.590365e-01 -2.769874e-01
98 1 4 1.431368e+01 -4.115463e+00 3.361195e+00 -1 -1 1 -1.056999e-01 -6.847779e-01 1.816954e-01 -6.977775e-01
99 1 2 1.537373e+01 -4.829882e+00 3.108564e+00 -1 -1 1 -7.558486e-02 -7.933648e-01 5.911800e-01 1.239572e-01
100 1 1 1.453059e+01 -5.115564e+00 3.861274e+00 -1 -1 1 7.294847e-01 -2.069744e-02 -6.313455e-01 2.623482e-01
101 2 4 1.517017e+01 1.580727e+01 2.839053e+00 -1 -1 1 -2.111734e-01 -4.719909e-01 -7.207692e-01 -4.616515e-01
102 2 3 1.524339e+01 1.607670e+01 2.360281e+00 -1 -1 1 -1.159358e-02 7.570392e-01 4.135969e-01 5.056628e-01
103 2 1 1.558323e+01 1.527940e+01 1.127767e+00 -1 -1 1 9.029030e-01 3.682124e-01 1.592610e-01 -1.543429e-01
104 2 3 1.561151e+01 1.475763e+01 1.184830e+00 -1 -1 1 -8.735573e-01 -4.638690e-01 -8.215664e-02 -1.223663e-01
105 2 3 1.583854e+01 1.437057e+01 1.228648e+00 -1 -1 1 -7.639641e-01 -4.772131e-01 1.783756e-01 -3.959908e-01
106 2 2 1.504806e+01 1.409829e+01 2.629763e-01 -1 -1 1 1.866202e-01 7.730100e-01 -4.702681e-01 -3.827222e-01
107 2 3 1.495661e+01 1.302780e+01 6.493548e-01 -1 -1 1 -5.801077e-02 3.661808e-01 -9.286778e-01 1.019586e-02
108 2 4 1.434775e+01 1.251807e+01 2.479710e-01 -1 -1 1 6.145050e-01 2.742607e-01 1.913505e-02 -7.394583e-01
109 2 3 1.492555e+01 1.317998e+01 -2.801168e-01 -1 -1 1 7.478946e-02 -9.702044e-01 -2.176300e-01 7.580980e-02
110 2 2 1.591481e+01 1.282510e+01 -7.986903e-01 -1 -1 1 2.859697e-01 8.657958e-01 -3.250020e-01 -2.509835e-01
111 2 2 1.630461e+01 1.223727e+01 -1.316287e+00 -1 -1 1 -1.694700e-01 6.932886e-01 -6.605019e-01 -2.331695e-01
112 2 3 1.593536e+01 1.218786e+01 -4.509327e-01 -1 -1 1 -7.896699e-01 3.705959e-01 1.498650e-01 -4.654251e-01
113 2 3 1.519638e+01 1.195072e+01 1.210582e-01 -1 -1 1 -1.199027e-01 -4.137708e-01 1.375280e-01 -8.919098e-01
114 2 2 1.553468e+01 1.206892e+01 4.665119e-01 -1 -1 1 1.859262e-01 -3.126996e-01 1.851367e-01 -9.128937e-01
115 2 4 1.623105e+01 1.202466e+01 1.024259e+00 -1 -1 1 1.250668e-01 -5.515598e-01 1.932459e-01 -8.017456e-01
116 2 4 1.666319e+01 1.118137e+01 1.253037e+00 -1 -1 1 -5.299324e-01 6.673160e-01 -5.200461e-01 -5.842059e-02
117 2 1 1.712747e+01 1.130941e+01 1.271734e+00 -1 -1 1 -5.386565e-01 3.488451e-01 -6.566934e-01 -3.961188e-01
118 2 1 1.637724e+01 1.232410e+01 2.037137e+00 -1 -1 1 1.657823e-01 -7.161939e-02 2.997110e-01 -9.367818e-01
119 2 1 1.622321e+01 1.224045e+01 2.456667e+00 -1 -1 1 6.505934e-01 3.111651e-02 2.984559e-01 -6.976275e-01
120 2 1 1.557124e+01 1.253088e+01 2.710126e+00 -1 -1 1 -7.554960e-01 4.119132e-02 2.100042e-01 6.192151e-01
121 2 3 1.522568e+01 1.207177e+01 2.606916e+00 -1 -1 1 5.683498e-01 3.267176e-01 7.085280e-01 -2.611937e-01
122 2 1 1.519057e+01 1.157622e+01 2.303408e+00 -1 -1 1 6.266210e-01 6.039185e-01 4.921364e-01 -2.074455e-02
123 2 4 1.533073e+01 1.054677e+01 3.453271e+00 -1 -1 1 5.984908e-03 -1.684783e-01 9.226906e-01 -3.467295e-01
124 2 1 1.542268e+01 1.012719e+01 3.367269e+00 -1 -1 1 1.408748e-01 1.709403e-01 8.918605e-01 -3.943584e-01
125 2 4 1.536684e+01 1.050543e+01 4.104597e+00 -1 -1 1 1.912301e-03 -3.640805e-02 4.238610e-02 -9.984359e-01
126 2 2 1.525562e+01 1.083666e+01 4.484367e+00 -1 -1 1 2.823473e-01 -6.503066e-03 -8.323676e-02 -9.556722e-01
127 2 4 1.536487e+01 1.067426e+01 5.483275e+00 -1 -1 1 -5.480244e-01 4.138530e-01 4.712437e-01 -5.534658e-01
128 2 4 1.504330e+01 1.078256e+01 5.811448e+00 -1 -1 1 -1.415610e-01 6.298145e-01 3.090917e-01 -6.983957e-01
129 2 1 1.457614e+01 1.087395e+01 5.963546e+00 -1 -1 1 -6.005627e-02 -7.180022e-01 -1.496433e-02 6.932836e-01
130 2 2 1.414811e+01 1.109637e+01 5.774882e+00 -1 -1 1 3.823364e-01 6.029679e-01 -2.756343e-01 -6.436414e-01
131 2 3 1.424511e+01 1.167665e+01 6.970519e+00 -1 -1 1 -5.385931e-01 -5.738410e-02 -3.595350e-02 -8.398404e-01
132 2 4 1.345765e+01 1.163202e+01 7.885187e+00 -1 -1 1 -4.027502e-01 4.529805e-01 4.893574e-01 -6.270009e-01
133 2 4 1.301477e+01 1.107335e+01 8.481345e+00 -1 -1 1 2.689124e-01 -5.945844e-01 -5.983510e-01 -4.648995e-01
134 2 3 1.249126e+01 9.964994e+00 8.548950e+00 -1 -1 1 -5.489376e-01 2.152402e-02 -6.123928e-01 5.684886e-01
135 2 4 1.249814e+01 1.004966e+01 9.141363e+00 -1 -1 1 -1.327164e-01 -5.008107e-02 3.012998e-01 -9.429192e-01
136 2 3 1.253381e+01 9.966219e+00 9.560476e+00 -1 -1 1 2.758841e-01 6.408069e-02 4.058508e-01 -8.689458e-01
137 2 1 1.232405e+01 9.786604e+00 1.001478e+01 -1 -1 1 5.996941e-01 1.829935e-01 2.823139e-01 -7.260711e-01
138 2 3 1.200316e+01 9.541547e+00 1.035855e+01 -1 -1 1 8.137981e-01 3.369215e-01 1.644817e-01 -4.440296e-01
139 2 2 1.291867e+01 9.416118e+00 1.158805e+01 -1 -1 1 -8.472402e-01 4.643684e-01 2.017384e-01 -1.607719e-01
140 2 3 1.319319e+01 8.608101e+00 1.172653e+01 -1 -1 1 9.835041e-01 -5.523714e-02 -5.152351e-02 -1.643591e-01
141 2 1 1.286863e+01 7.971499e+00 1.228351e+01 -1 -1 1 -8.862884e-01 -3.135631e-02 2.164514e-01 4.082381e-01
142 2 2 1.222061e+01 9.024758e+00 1.286001e+01 -1 -1 1 1.346073e-02 6.837117e-01 5.538311e-01 -4.750034e-01
143 2 4 1.222284e+01 9.171991e+00 1.199136e+01 -1 -1 1 -5.502350e-01 1.505563e-01 -2.020676e-01 -7.960797e-01
144 2 4 1.211730e+01 8.558162e+00 1.200952e+01 -1 -1 1 -5.758477e-01 7.115450e-01 4.009028e-01 3.714901e-02
145 2 1 1.261033e+01 8.243663e+00 1.088109e+01 -1 -1 1 3.765436e-02 -6.898998e-01 7.123741e-01 -1.230590e-01
146 2 1 1.290036e+01 8.021058e+00 1.050147e+01 -1 -1 1 1.294841e-01 -4.784942e-01 8.255073e-01 -2.698424e-01
147 2 1 1.326255e+01 7.733087e+00 1.043304e+01 -1 -1 1 -2.899190e-01 1.566490e-01 -9.024844e-01 2.773626e-01
148 2 2 1.355311e+01 7.314626e+00 1.030850e+01 -1 -1 1 3.025459e-01 8.974967e-02 9.251980e-01 -2.107598e-01
149 2 4 1.351079e+01 6.844108e+00 1.005524e+01 -1 -1 1 -3.578259e-01 -4.124858e-01 -8.246561e-01 1.475075e-01
150 2 1 1.350345e+01 6.566475e+00 9.614072e+00 -1 -1 1 -2.686769e-01 -6.052459e-01 -7.401082e-01 1.171746e-01
151 2 1 1.335317e+01 6.359793e+00 9.040192e+00 -1 -1 1 -2.964636e-01 -7.991211e-01 -5.156190e-01 -8.747465e-02
152 2 1 1.333787e+01 6.311580e+00 8.551303e+00 -1 -1 1 -1.534192e-01 -9.230962e-01 -3.296319e-01 -1.252947e-01
153 2 4 1.340678e+01 6.478853e+00 8.122051e+00 -1 -1 1 -3.111255e-02 -9.759871e-01 -8.794305e-03 -2.154156e-01
154 2 1 1.376674e+01 6.757420e+00 7.833939e+00 -1 -1 1 1.225601e-02 -8.894686e-01 4.062223e-01 -2.089948e-01
155 2 2 1.406783e+01 6.747893e+00 7.372410e+00 -1 -1 1 1.017829e-03 -7.986406e-01 5.449656e-01 -2.553127e-01
156 2 4 1.449673e+01 6.743039e+00 7.048304e+00 -1 -1 1 1.292775e-01 -6.953773e-01 5.866451e-01 -3.944431e-01
157 2 3 1.500596e+01 6.485083e+00 7.019623e+00 -1 -1 1 2.130963e-01 -3.542128e-01 8.619662e-01 -2.934918e-01
158 2 2 1.539980e+01 6.096482e+00 6.778823e+00 -1 -1 1 1.520995e-01 -1.955543e-01 9.168360e-01 -3.131071e-01
159 2 1 1.545046e+01 5.568413e+00 6.761745e+00 -1 -1 1 3.353892e-01 1.647986e-01 9.005518e-01 -2.221756e-01
160 2 3 1.552744e+01 5.037227e+00 6.466407e+00 -1 -1 1 -3.390792e-01 -4.169988e-01 -8.383736e-01 9.092238e-02
161 2 1 1.551544e+01 4.780871e+00 6.039059e+00 -1 -1 1 -1.498658e-01 -5.790225e-01 -7.926190e-01 1.184408e-01
162 2 1 1.525464e+01 4.725046e+00 5.630551e+00 -1 -1 1 -2.450161e-01 -8.441390e-01 -4.728444e-01 6.176330e-02
163 2 4 1.537778e+01 4.551805e+00 5.135134e+00 -1 -1 1 -1.965022e-01 -9.240573e-01 -3.223787e-01 -5.980792e-02
164 2 4 1.549621e+01 4.726550e+00 4.588686e+00 -1 -1 1 -1.281098e-01 -9.680296e-01 2.712997e-02 -2.139407e-01
165 2 3 1.579074e+01 4.872022e+00 4.131583e+00 -1 -1 1 -5.587682e-03 -9.264966e-01 2.263065e-01 -3.005963e-01
166 2 3 1.630021e+01 5.001685e+00 3.965332e+00 -1 -1 1 1.039983e-01 -7.335306e-01 6.207281e-01 -2.565421e-01
167 2 4 1.674972e+01 4.881201e+00 3.720849e+00 -1 -1 1 1.665827e-01 -5.205553e-01 7.843313e-01 -2.934225e-01
168 2 2 1.718445e+01 4.639697e+00 3.544572e+00 -1 -1 1 2.076955e-01 -3.234560e-01 8.345459e-01 -3.946796e-01
169 2 2 1.749365e+01 4.233435e+00 3.419831e+00 -1 -1 1 2.095336e-01 -2.634906e-02 8.884555e-01 -4.074901e-01
170 2 1 1.757095e+01 3.756683e+00 3.277454e+00 -1 -1 1 3.009352e-01 3.120049e-01 8.419018e-01 -3.213911e-01
171 2 1 1.758560e+01 3.344149e+00 3.107588e+00 -1 -1 1 -3.717494e-01 -5.876514e-01 -6.809758e-01 2.296524e-01
172 2 4 1.749427e+01 2.949605e+00 2.699740e+00 -1 -1 1 -1.614844e-01 -6.851429e-01 -6.725746e-01 2.283534e-01
173 2 4 1.728106e+01 2.797186e+00 2.253605e+00 -1 -1 1 -2.701321e-01 -8.588718e-01 -4.304416e-01 6.393773e-02
174 2 1 1.712177e+01 2.820588e+00 1.794516e+00 -1 -1 1 -8.884753e-02 -9.840049e-01 -1.497702e-01 3.754282e-02
175 2 1 1.715228e+01 3.042468e+00 1.364042e+00 -1 -1 1 -1.009444e-01 -9.571419e-01 2.697135e-01 -3.072784e-02
176 2 2 1.724889e+01 3.084364e+00 8.321132e-01 -1 -1 1 -7.624635e-02 -8.825565e-01 4.337471e-01 -1.647543e-01
177 2 2 1.755408e+01 3.017954e+00 3.824088e-01 -1 -1 1 -6.790638e-02 -7.701676e-01 5.878041e-01 -2.381533e-01
178 2 1 1.795330e+01 2.953749e+00 9.356787e-02 -1 -1 1 1.141091e-02 -6.122468e-01 7.339383e-01 -2.938677e-01
179 2 4 1.830516e+01 2.665994e+00 -1.668680e-01 -1 -1 1 7.259967e-02 -3.096134e-01 8.719973e-01 -3.721419e-01
180 2 1 1.855364e+01 2.173138e+00 -4.398414e-01 -1 -1 1 6.279730e-02 -9.338180e-02 9.024951e-01 -4.157391e-01
181 2 4 1.857864e+01 1.701790e+00 -6.773117e-01 -1 -1 1 3.394176e-03 -1.536011e-01 -8.631138e-01 4.810714e-01
182 2 2 1.842893e+01 1.204392e+00 -7.829636e-01 -1 -1 1 -2.479084e-02 -3.612951e-01 -8.493492e-01 3.840015e-01
183 2 3 1.818839e+01 7.606892e-01 -9.110718e-01 -1 -1 1 -1.200920e-01 -6.186893e-01 -6.460078e-01 4.306685e-01
184 2 4 1.781572e+01 5.141515e-01 -1.315859e+00 -1 -1 1 -1.674836e-01 -7.846371e-01 -5.400284e-01 2.542895e-01
185 2 3 1.751362e+01 5.147482e-01 -1.670183e+00 -1 -1 1 2.275580e-01 9.142251e-01 2.282635e-01 -2.455720e-01
186 2 1 1.734967e+01 5.611213e-01 -2.154135e+00 -1 -1 1 1.207240e-01 9.688713e-01 -1.026494e-01 -1.902029e-01
187 2 1 1.738735e+01 6.968115e-01 -2.727410e+00 -1 -1 1 -1.672065e-01 -9.118386e-01 3.686027e-01 6.873417e-02
188 2 2 1.757854e+01 7.156567e-01 -3.239143e+00 -1 -1 1 2.087301e-01 7.672817e-01 -6.057886e-01 2.703062e-02
189 2 4 1.790096e+01 5.623086e-01 -3.579697e+00 -1 -1 1 3.917407e-02 5.039773e-01 -8.567656e-01 1.021021e-01
190 2 4 1.818396e+01 2.574595e-01 -3.941598e+00 -1 -1 1 -2.671135e-02 -3.036542e-01 9.429939e-01 -1.335786e-01
191 2 1 1.834667e+01 -6.902095e-02 -4.379524e+00 -1 -1 1 -5.126717e-02 -8.661692e-02 9.851807e-01 -1.388819e-01
192 2 4 1.832748e+01 -4.707713e-01 -4.772880e+00 -1 -1 1 5.042202e-02 -1.686272e-01 -9.815194e-01 7.511449e-02
193 2 4 1.807412e+01 -7.996808e-01 -5.056187e+00 -1 -1 1 1.759089e-02 5.140709e-01 8.433004e-01 -1.557758e-01
194 2 1 1.770920e+01 -1.027803e+00 -5.451893e+00 -1 -1 1 4.566117e-02 -7.041378e-01 -6.931812e-01 1.469855e-01
195 2 3 1.737797e+01 -9.571584e-01 -5.861470e+00 -1 -1 1 -5.399137e-02 8.904896e-01 4.371518e-01 -1.140680e-01
196 2 4 1.718653e+01 -5.786345e-01 -6.320946e+00 -1 -1 1 2.649707e-02 9.936496e-01 1.080152e-01 1.705989e-02
197 2 2 1.726287e+01 -3.182762e-01 -6.750986e+00 -1 -1 1 -3.032515e-02 9.815279e-01 -1.886524e-01 9.673506e-03
198 2 4 1.746777e+01 -8.447716e-02 -7.225156e+00 -1 -1 1 -1.188681e-02 8.945281e-01 -4.383230e-01 8.689743e-02
199 2 3 1.737573e+01 3.084560e-01 -8.072432e+00 -1 -1 1 -2.245754e-01 -3.408381e-01 6.724885e-01 6.173772e-01
200 2 4 1.753809e+01 7.367548e-01 -8.021601e+00 -1 -1 1 9.631542e-01 -1.616801e-01 8.462111e-02 -1.975674e-01
