ITEM: TIMESTEP
170000000
ITEM: NUMBER OF ATOMS
200
ITEM: BOX BOUNDS pp pp pp
-2.0000000000000000e+01 2.0000000000000000e+01
-2.0000000000000000e+01 2.0000000000000000e+01
-2.0000000000000000e+01 2.0000000000000000e+01
ITEM: ATOMS id mol type x y z ix iy iz c_quat[1] c_quat[2] c_quat[3] c_quat[4]
1 1 1 1.621729e+01 1.858858e+01 -6.664027e+00 -1 -2 1 1.380795e-01 2.600213e-01 -6.721290e-01 -6.793862e-01
2 1 2 1.592766e+01 1.887961e+01 -7.040617e+00 -1 -2 1 -3.625064e-01 1.199379e-01 7.511611e-01 5.384803e-01
3 1 1 1.553671e+01 1.903902e+01 -7.298976e+00 -1 -2 1 -5.253224e-01 3.658816e-01 7.103933e-01 2.924182e-01
4 1 3 1.504068e+01 1.918294e+01 -7.286429e+00 -1 -2 1 6.224815e-01 -5.732381e-01 -5.324470e-01 -2.037611e-02
5 1 1 1.455514e+01 1.956388e+01 -7.121359e+00 -1 -2 1 6.303414e-01 -7.061620e-01 -3.224953e-01 1.306144e-03
6 1 2 1.435024e+01 1.994275e+01 -6.917445e+00 -1 -2 1 -6.244347e-01 7.411962e-01 8.279833e-02 -2.320645e-01
7 1 4 1.428650e+01 -1.958627e+01 -6.747274e+00 -1 -1 1 5.427386e-01 -7.241566e-01 1.625677e-01 3.931969e-01
8 1 1 1.429496e+01 -1.912665e+01 -6.617813e+00 -1 -1 1 -5.064310e-01 6.162576e-01 -4.104124e-01 -4.419454e-01
9 1 1 1.446935e+01 -1.869419e+01 -6.709400e+00 -1 -1 1 4.455698e-01 -4.857744e-01 5.834500e-01 4.744226e-01
10 1 4 1.475004e+01 -1.820643e+01 -6.803147e+00 -1 -1 1 -2.436715e-01 3.848018e-01 -6.821532e-01 -5.720304e-01
11 1 1 1.483736e+01 -1.788543e+01 -7.153957e+00 -1 -1 1 -7.703382e-03 -7.311159e-02 7.650831e-01 6.397212e-01
12 1 1 1.463610e+01 -1.751216e+01 -7.443840e+00 -1 -1 1 -2.549476e-01 4.886827e-02 7.439117e-01 6.157995e-01
13 1 3 1.436384e+01 -1.714636e+01 -7.703943e+00 -1 -1 1 4.423742e-01 -2.625277e-01 -6.502772e-01 -5.590383e-01
14 1 4 1.398388e+01 -1.684794e+01 -7.773731e+00 -1 -1 1 -6.659740e-01 3.850866e-01 5.453203e-01 3.328854e-01
15 1 4 1.355013e+01 -1.643495e+01 -7.603936e+00 -1 -1 1 -7.165616e-01 5.584833e-01 3.684155e-01 1.972457e-01
16 1 2 1.336044e+01 -1.606723e+01 -7.332357e+00 -1 -1 1 7.902689e-01 -5.861155e-01 -1.588971e-01 -8.182533e-02
17 1 1 1.327561e+01 -1.565749e+01 -7.026132e+00 -1 -1 1 7.116944e-01 -6.653929e-01 1.074230e-01 1.979992e-01
18 1 2 1.353239e+01 -1.511212e+01 -6.768026e+00 -1 -1 1 -6.314322e-01 6.750339e-01 -2.506437e-01 -2.877505e-01
19 1 3 1.379616e+01 -1.469518e+01 -6.714695e+00 -1 -1 1 -5.038366e-01 5.015828e-01 -5.443482e-01 -4.452509e-01
20 1 1 1.419288e+01 -1.433226e+01 -6.833094e+00 -1 -1 1 -4.067789e-01 3.421680e-01 -6.607838e-01 -5.299214e-01
21 1 4 1.436598e+01 -1.381502e+01 -7.069783e+00 -1 -1 1 2.543959e-01 -3.166767e-01 7.595585e-01 5.080054e-01
22 1 1 1.458765e+01 -1.353754e+01 -7.431753e+00 -1 -1 1 6.897417e-02 -1.637790e-02 8.427779e-01 5.335726e-01
23 1 4 1.462520e+01 -1.320608e+01 -7.842418e+00 -1 -1 1 -1.416847e-01 1.654390e-01 7.988254e-01 5.607436e-01
24 1 3 1.442138e+01 -1.280544e+01 -8.152312e+00 -1 -1 1 -3.037238e-01 2.278318e-01 7.722552e-01 5.093784e-01
25 1 3 1.402911e+01 -1.248285e+01 -8.328534e+00 -1 -1 1 -4.683084e-01 5.505973e-01 6.481614e-01 2.396178e-01
26 1 4 1.365288e+01 -1.206843e+01 -8.408520e+00 -1 -1 1 -5.844375e-01 6.462972e-01 4.288568e-01 2.383582e-01
27 1 4 1.343907e+01 -1.157481e+01 -8.341350e+00 -1 -1 1 -7.299088e-01 6.206721e-01 2.621790e-01 1.151583e-01
28 1 1 1.330037e+01 -1.121328e+01 -8.052179e+00 -1 -1 1 -8.239101e-01 5.568344e-01 5.950990e-02 -8.698361e-02
29 1 1 1.330121e+01 -1.084747e+01 -7.565624e+00 -1 -1 1 -8.028752e-01 5.248509e-01 -1.085073e-01 -2.610541e-01
30 1 4 1.348827e+01 -1.053928e+01 -7.244907e+00 -1 -1 1 6.110593e-01 -4.880594e-01 2.776207e-01 5.579707e-01
31 1 4 1.364917e+01 -1.003393e+01 -7.074647e+00 -1 -1 1 4.306664e-01 -3.739483e-01 5.325821e-01 6.253362e-01
32 1 3 1.381197e+01 -9.565249e+00 -7.183881e+00 -1 -1 1 1.878899e-01 -1.938796e-01 5.956654e-01 7.564991e-01
33 1 3 1.390204e+01 -9.084385e+00 -7.345253e+00 -1 -1 1 -7.989773e-03 -5.119766e-02 7.221332e-01 6.898106e-01
34 1 1 1.381746e+01 -8.609579e+00 -7.655460e+00 -1 -1 1 -2.252311e-01 1.717505e-01 6.405541e-01 7.137668e-01
35 1 2 1.352002e+01 -8.285110e+00 -7.824457e+00 -1 -1 1 -4.926701e-01 3.631908e-01 5.997842e-01 5.153907e-01
36 1 2 1.301246e+01 -7.855024e+00 -7.859028e+00 -1 -1 1 -6.502648e-01 4.448371e-01 5.121068e-01 3.420852e-01
37 1 1 1.266835e+01 -7.408645e+00 -7.681995e+00 -1 -1 1 -7.598486e-01 4.613358e-01 3.820453e-01 2.526675e-01
38 1 1 1.235115e+01 -7.130257e+00 -7.309169e+00 -1 -1 1 -8.191746e-01 5.508685e-01 1.480308e-01 -5.986495e-02
39 1 4 1.230056e+01 -6.703948e+00 -6.956987e+00 -1 -1 1 8.319439e-01 -5.381664e-01 7.180709e-02 1.144116e-01
40 1 4 1.247956e+01 -6.407036e+00 -6.527540e+00 -1 -1 1 7.288877e-01 -4.646009e-01 2.690243e-01 4.248467e-01
41 1 2 1.266511e+01 -5.868895e+00 -6.411350e+00 -1 -1 1 5.367119e-01 -4.600579e-01 4.853305e-01 5.145303e-01
42 1 4 1.296435e+01 -5.408908e+00 -6.396261e+00 -1 -1 1 -4.171198e-01 2.967371e-01 -6.705901e-01 -5.369051e-01
43 1 3 1.328442e+01 -5.018914e+00 -6.568996e+00 -1 -1 1 2.191349e-01 -1.257122e-01 7.698907e-01 5.860416e-01
44 1 2 1.348996e+01 -4.624278e+00 -6.935281e+00 -1 -1 1 -5.055513e-02 1.002336e-01 7.466052e-01 6.557271e-01
45 1 1 1.345032e+01 -4.079548e+00 -7.220606e+00 -1 -1 1 -2.286277e-01 2.259049e-01 6.127550e-01 7.219610e-01
46 1 3 1.322726e+01 -3.575484e+00 -7.344647e+00 -1 -1 1 -4.667917e-01 3.213245e-01 5.696077e-01 5.953177e-01
47 1 4 1.282802e+01 -3.159084e+00 -7.220915e+00 -1 -1 1 -6.617729e-01 4.773942e-01 3.291375e-01 4.752051e-01
48 1 1 1.269160e+01 -2.770609e+00 -6.826980e+00 -1 -1 1 7.892524e-01 -5.192297e-01 -1.013469e-01 -3.117851e-01
49 1 4 1.267390e+01 -2.546549e+00 -6.395909e+00 -1 -1 1 8.404144e-01 -5.313597e-01 8.062487e-02 6.971463e-02
50 1 4 1.290491e+01 -2.321849e+00 -5.912541e+00 -1 -1 1 8.564446e-01 -3.550930e-01 2.734475e-01 2.561995e-01
51 1 4 1.327145e+01 -2.036320e+00 -5.589441e+00 -1 -1 1 7.498739e-01 -2.612242e-01 4.279916e-01 4.315950e-01
52 1 1 1.375462e+01 -1.818266e+00 -5.439217e+00 -1 -1 1 6.304017e-01 -9.189326e-02 5.506889e-01 5.393432e-01
53 1 3 1.417167e+01 -1.633921e+00 -5.574040e+00 -1 -1 1 4.214235e-01 2.362681e-01 6.148154e-01 6.233631e-01
54 1 4 1.452197e+01 -1.233661e+00 -5.805858e+00 -1 -1 1 1.932905e-01 2.988077e-01 6.159304e-01 7.028389e-01
55 1 4 1.469751e+01 -7.869398e-01 -5.981596e+00 -1 -1 1 -9.028067e-02 4.840118e-01 5.089632e-01 7.060726e-01
56 1 4 1.485452e+01 -2.111910e-01 -5.905930e+00 -1 -1 1 -3.254865e-01 4.484986e-01 3.838676e-01 7.386158e-01
57 1 1 1.480518e+01 2.680636e-01 -5.754393e+00 -1 -1 1 -6.078609e-01 4.843732e-01 2.379615e-01 5.824621e-01
58 1 1 1.462258e+01 5.761750e-01 -5.350320e+00 -1 -1 1 -8.060652e-01 5.463618e-01 3.317033e-02 2.250497e-01
59 1 3 1.469190e+01 1.065518e+00 -4.924721e+00 -1 -1 1 8.000103e-01 -4.949377e-01 8.729109e-02 -3.277202e-01
60 1 4 1.488651e+01 1.255652e+00 -4.453086e+00 -1 -1 1 7.744910e-01 -5.641880e-01 2.817062e-01 -4.997280e-02
61 1 2 1.519858e+01 1.445924e+00 -4.120211e+00 -1 -1 1 8.037152e-01 -3.992970e-01 4.187528e-01 1.387439e-01
62 1 3 1.569540e+01 1.576675e+00 -3.890263e+00 -1 -1 1 7.034773e-01 -2.527559e-01 5.148360e-01 4.197358e-01
63 1 2 1.622899e+01 1.696039e+00 -3.813408e+00 -1 -1 1 5.795208e-01 -7.685745e-02 5.507580e-01 5.957467e-01
64 1 4 1.666667e+01 2.093012e+00 -3.872774e+00 -1 -1 1 3.848054e-01 -4.706892e-02 6.520469e-01 6.515705e-01
65 1 2 1.700490e+01 2.395692e+00 -4.149177e+00 -1 -1 1 1.467799e-01 2.078892e-01 6.502304e-01 7.158479e-01
66 1 1 1.720462e+01 2.933863e+00 -4.245450e+00 -1 -1 1 -5.469136e-02 2.628416e-01 5.603478e-01 7.835391e-01
67 1 2 1.711220e+01 3.519200e+00 -4.381097e+00 -1 -1 1 -3.394460e-01 3.480978e-01 5.577557e-01 6.726908e-01
68 1 1 1.691480e+01 4.046290e+00 -4.352436e+00 -1 -1 1 -5.567202e-01 4.457179e-01 3.880686e-01 5.837816e-01
69 1 1 1.669186e+01 4.470197e+00 -4.120155e+00 -1 -1 1 -7.109469e-01 5.335632e-01 1.603795e-01 4.291192e-01
70 1 2 1.671716e+01 4.828028e+00 -3.676781e+00 -1 -1 1 8.227083e-01 -5.273960e-01 9.939457e-02 -1.874171e-01
71 1 3 1.694336e+01 5.062678e+00 -3.321699e+00 -1 -1 1 7.946419e-01 -4.992469e-01 3.371449e-01 7.503412e-02
72 1 4 1.734492e+01 5.205187e+00 -3.028546e+00 -1 -1 1 7.861403e-01 -2.505391e-01 4.500867e-01 3.415194e-01
73 1 1 1.673028e+01 5.410945e+00 -2.395926e+00 -1 -1 1 1.420696e-01 8.225835e-01 3.503172e-01 -4.247946e-01
74 1 1 1.619100e+01 5.068570e+00 -1.119642e+00 -1 -1 1 -5.517241e-01 6.112489e-01 3.552997e-01 4.424223e-01
75 1 3 1.623853e+01 5.562540e+00 -1.117717e+00 -1 -1 1 7.106191e-01 -5.586807e-01 -1.779567e-01 -3.888802e-01
76 1 1 1.657288e+01 6.185205e+00 -7.870320e-01 -1 -1 1 5.145190e-01 -6.758353e-01 2.850264e-02 -5.269767e-01
77 1 4 1.678360e+01 6.491402e+00 -5.308390e-01 -1 -1 1 -7.459909e-01 5.797220e-01 -2.038353e-01 2.566539e-01
78 1 1 1.565359e+01 6.499979e+00 -2.766433e-01 -1 -1 1 7.400924e-01 -3.569149e-01 -6.072065e-02 -5.667345e-01
79 1 4 1.571909e+01 6.636301e+00 1.943388e-01 -1 -1 1 -9.355582e-01 2.661159e-01 -1.347775e-01 1.890721e-01
80 1 2 1.516802e+01 7.595284e+00 -4.573260e-01 -1 -1 1 1.795141e-01 5.029311e-01 -4.995054e-01 -6.821506e-01
81 1 4 1.613808e+01 8.064963e+00 4.534790e-01 -1 -1 1 -7.556597e-01 4.053269e-01 -2.681458e-01 -4.390744e-01
82 1 4 1.460394e+01 8.600525e+00 8.387741e-01 -1 -1 1 8.549989e-03 -1.803092e-01 -4.950811e-01 -8.498884e-01
83 1 4 1.464274e+01 9.133930e+00 8.118794e-01 -1 -1 1 3.012890e-01 -2.041953e-01 -5.374084e-01 -7.607374e-01
84 1 4 1.426537e+01 9.486527e+00 9.257699e-01 -1 -1 1 6.303492e-01 -4.847700e-01 -3.124139e-01 -5.196686e-01
85 1 1 1.401397e+01 9.764318e+00 1.272023e+00 -1 -1 1 -7.701536e-01 5.892296e-01 8.556331e-02 2.288031e-01
86 1 1 1.403615e+01 1.019328e+01 2.065166e-01 -1 -1 1 8.983731e-01 3.773013e-01 -6.496335e-02 -2.152888e-01
87 1 3 1.439622e+01 1.140372e+01 6.893624e-01 -1 -1 1 1.064402e-01 -8.123070e-01 -3.453079e-02 5.723945e-01
88 1 2 1.413256e+01 1.153987e+01 1.521359e+00 -1 -1 1 -2.021266e-01 7.571529e-01 9.564548e-02 -6.137722e-01
89 1 2 1.386996e+01 1.189855e+01 1.534791e+00 -1 -1 1 2.411346e-02 6.451207e-01 -2.755277e-01 -7.122656e-01
90 1 3 1.416962e+01 1.206318e+01 2.476082e+00 -1 -1 1 -8.263714e-01 3.615833e-01 -3.231964e-01 -2.862025e-01
91 1 3 1.421601e+01 1.161901e+01 3.310450e+00 -1 -1 1 5.528977e-01 -8.319961e-01 4.536967e-02 5.317688e-03
92 1 2 1.431875e+01 1.045808e+01 3.444374e+00 -1 -1 1 -9.220997e-01 1.909542e-01 2.479012e-01 2.276262e-01
93 1 1 1.408942e+01 1.036200e+01 3.995392e+00 -1 -1 1 -9.582274e-01 2.316033e-01 1.610689e-01 -4.708414e-02
94 1 2 1.407462e+01 1.020161e+01 4.415105e+00 -1 -1 1 7.579201e-01 -3.495305e-01 -1.745047e-01 5.224305e-01
95 1 3 1.412810e+01 1.035559e+01 4.871858e+00 -1 -1 1 4.712556e-01 -3.216852e-01 -1.387020e-01 8.094433e-01
96 1 2 1.386854e+01 9.487144e+00 5.256587e+00 -1 -1 1 5.281126e-01 2.479303e-01 -1.804536e-01 -7.918738e-01
97 1 2 1.344005e+01 9.544324e+00 5.555667e+00 -1 -1 1 7.676111e-01 1.940092e-01 -2.024919e-01 -5.763078e-01
98 1 4 1.297788e+01 9.411789e+00 5.814531e+00 -1 -1 1 -8.737538e-01 -2.366501e-01 2.700076e-01 3.280958e-01
99 1 2 1.318226e+01 1.083041e+01 6.267620e+00 -1 -1 1 -6.501067e-01 3.805485e-01 5.640155e-02 -6.552580e-01
100 1 1 1.333210e+01 1.081915e+01 6.180944e+00 -1 -1 1 7.515781e-01 -5.295802e-01 -3.208095e-01 -2.275006e-01
101 2 4 1.415281e+01 1.399816e+01 -4.972741e+00 -1 -1 1 4.523795e-01 7.065899e-01 -5.025244e-01 -2.086928e-01
102 2 3 1.331620e+01 1.462358e+01 -5.573096e+00 -1 -1 1 -2.428910e-02 -6.522245e-01 -4.709709e-01 5.934641e-01
103 2 1 1.284257e+01 1.475056e+01 -5.687426e+00 -1 -1 1 -2.781610e-01 -7.380421e-01 -3.029662e-02 6.140052e-01
104 2 3 1.234866e+01 1.459449e+01 -5.860820e+00 -1 -1 1 4.561571e-01 7.699295e-01 -1.150337e-01 -4.311572e-01
105 2 3 1.238830e+01 1.420384e+01 -5.832989e+00 -1 -1 1 -4.059166e-01 -7.793665e-01 -4.408975e-01 1.828358e-01
106 2 2 1.139147e+01 1.396848e+01 -5.544445e+00 -1 -1 1 2.551124e-01 5.346362e-01 7.645339e-01 2.541056e-01
107 2 3 1.158090e+01 1.405038e+01 -6.024689e+00 -1 -1 1 -1.374825e-01 -6.818413e-01 -5.196586e-01 -4.961310e-01
108 2 4 1.129095e+01 1.240059e+01 -6.071963e+00 -1 -1 1 7.343028e-01 1.207310e-01 -4.622276e-01 -4.822542e-01
109 2 3 1.087256e+01 1.219229e+01 -5.721300e+00 -1 -1 1 9.277880e-01 -1.119971e-01 -3.364641e-01 -1.160089e-01
110 2 2 1.069830e+01 1.204232e+01 -5.308942e+00 -1 -1 1 8.582975e-01 -2.555883e-01 -2.875892e-01 3.395475e-01
111 2 2 1.035518e+01 1.168414e+01 -4.595118e+00 -1 -1 1 -3.178164e-01 -1.932299e-01 6.462798e-01 -6.663163e-01
112 2 3 1.033290e+01 1.129259e+01 -4.238988e+00 -1 -1 1 2.535409e-02 -7.014961e-02 -6.226954e-01 7.789009e-01
113 2 3 1.124004e+01 1.027202e+01 -4.227731e+00 -1 -1 1 2.209258e-01 -5.601362e-01 7.963170e-01 5.760605e-02
114 2 2 1.150777e+01 1.013807e+01 -4.525399e+00 -1 -1 1 2.801256e-01 -1.730615e-01 9.283315e-01 1.725689e-01
115 2 4 1.166671e+01 1.008875e+01 -5.016219e+00 -1 -1 1 7.694746e-02 1.511520e-01 9.456325e-01 2.775091e-01
116 2 4 1.292987e+01 9.431970e+00 -4.924232e+00 -1 -1 1 -5.412540e-01 6.191061e-01 -5.442703e-01 1.658960e-01
117 2 1 1.326453e+01 9.534075e+00 -5.256282e+00 -1 -1 1 -5.511407e-01 -1.349835e-01 2.632210e-01 -7.802167e-01
118 2 1 1.375336e+01 8.763417e+00 -6.077607e+00 -1 -1 1 -4.595446e-01 1.957866e-01 -6.072407e-01 -6.178552e-01
119 2 1 1.388679e+01 8.605747e+00 -6.217811e+00 -1 -1 1 1.647379e-01 2.346580e-01 3.171503e-01 9.039982e-01
120 2 1 1.416533e+01 7.593173e+00 -5.401689e+00 -1 -1 1 -3.084827e-01 -4.286751e-03 -8.047907e-01 5.070818e-01
121 2 3 1.460376e+01 7.166851e+00 -4.479902e+00 -1 -1 1 4.125971e-01 2.535506e-01 -8.611255e-01 1.547209e-01
122 2 1 1.433341e+01 6.717454e+00 -4.527240e+00 -1 -1 1 2.097459e-01 -2.279368e-01 -9.231894e-01 2.275362e-01
123 2 4 1.546401e+01 6.621440e+00 -5.535587e+00 -1 -1 1 -8.968124e-01 -3.386706e-01 1.088856e-01 2.630089e-01
124 2 1 1.585180e+01 6.069387e+00 -5.034024e+00 -1 -1 1 4.636164e-01 -3.920007e-01 7.944004e-01 1.798014e-02
125 2 4 1.616405e+01 6.984521e+00 -4.623600e+00 -1 -1 1 -1.116654e-01 -8.154726e-01 -4.650161e-01 3.260296e-01
126 2 2 1.666557e+01 6.183092e+00 -4.435424e+00 -1 -1 1 -6.107837e-01 4.177975e-01 3.498223e-01 5.744675e-01
127 2 4 1.745831e+01 6.652241e+00 -4.425125e+00 -1 -1 1 -9.560973e-01 -8.050256e-02 -1.900617e-01 -2.080239e-01
128 2 4 1.777311e+01 5.860500e+00 -3.942285e+00 -1 -1 1 -5.490754e-01 -5.575824e-01 5.671912e-01 -2.567338e-01
129 2 1 1.781315e+01 5.353071e+00 -4.049178e+00 -1 -1 1 -4.708298e-01 -3.452234e-01 6.790068e-01 -4.450730e-01
130 2 2 1.787997e+01 4.803961e+00 -3.932898e+00 -1 -1 1 -3.795550e-01 -1.204404e-01 6.993574e-01 -5.935751e-01
131 2 3 1.783109e+01 4.325999e+00 -3.601598e+00 -1 -1 1 1.408583e-01 -1.612499e-01 -7.351415e-01 6.432141e-01
132 2 4 1.749315e+01 3.960122e+00 -3.338292e+00 -1 -1 1 -4.994272e-02 -3.857525e-01 -6.059752e-01 6.938982e-01
133 2 4 1.701565e+01 3.644494e+00 -3.269698e+00 -1 -1 1 1.712419e-01 6.537826e-01 4.587248e-01 -5.769021e-01
134 2 3 1.657179e+01 3.451536e+00 -3.316846e+00 -1 -1 1 3.776312e-01 7.420732e-01 2.816152e-01 -4.768804e-01
135 2 4 1.622951e+01 3.201379e+00 -3.666838e+00 -1 -1 1 -4.537830e-01 -8.370970e-01 8.169197e-02 2.944081e-01
136 2 3 1.599000e+01 3.051454e+00 -4.192483e+00 -1 -1 1 -5.485792e-01 -7.764164e-01 2.813097e-01 1.307796e-01
137 2 1 1.587860e+01 2.689833e+00 -4.538697e+00 -1 -1 1 5.213953e-01 7.352024e-01 -4.226910e-01 9.463962e-02
138 2 3 1.597475e+01 2.330962e+00 -4.847716e+00 -1 -1 1 4.817605e-01 5.450953e-01 -6.308026e-01 2.699369e-01
139 2 2 1.596287e+01 1.861272e+00 -5.088670e+00 -1 -1 1 4.639610e-01 3.877089e-01 -6.924445e-01 3.936275e-01
140 2 3 1.589690e+01 1.312444e+00 -5.099021e+00 -1 -1 1 4.541079e-01 2.745995e-01 -6.304488e-01 5.664940e-01
141 2 1 1.596253e+01 8.133419e-01 -4.858058e+00 -1 -1 1 2.125773e-01 -6.493850e-02 -7.595989e-01 6.112310e-01
142 2 2 1.573467e+01 3.965466e-01 -4.700268e+00 -1 -1 1 1.832504e-02 -3.071642e-01 -7.211847e-01 6.206504e-01
143 2 4 1.536224e+01 5.071910e-03 -4.709358e+00 -1 -1 1 4.924378e-03 4.326996e-01 6.837749e-01 -5.875362e-01
144 2 4 1.486052e+01 -2.127453e-01 -4.721134e+00 -1 -1 1 -1.129571e-01 -6.516947e-01 -4.493677e-01 6.005026e-01
145 2 1 1.435047e+01 -3.219529e-01 -4.842682e+00 -1 -1 1 -2.488116e-01 -7.710319e-01 -2.458433e-01 5.321313e-01
146 2 1 1.391448e+01 -3.288988e-01 -5.191019e+00 -1 -1 1 -4.107862e-01 -8.113332e-01 1.041667e-01 4.026692e-01
147 2 1 1.361630e+01 -5.366563e-01 -5.540022e+00 -1 -1 1 -4.359103e-01 -8.375372e-01 2.034744e-01 2.590594e-01
148 2 2 1.346762e+01 -7.338131e-01 -5.982536e+00 -1 -1 1 -5.227005e-01 -7.255091e-01 4.435907e-01 6.039933e-02
149 2 4 1.344967e+01 -1.135813e+00 -6.411721e+00 -1 -1 1 4.997415e-01 6.363361e-01 -5.609869e-01 1.750100e-01
150 2 1 1.364859e+01 -1.569593e+00 -6.639755e+00 -1 -1 1 3.489686e-01 4.140013e-01 -7.645615e-01 3.496706e-01
151 2 1 1.382156e+01 -2.107666e+00 -6.688096e+00 -1 -1 1 2.268956e-01 2.286330e-01 -7.954710e-01 5.132945e-01
152 2 1 1.387200e+01 -2.625764e+00 -6.565269e+00 -1 -1 1 1.225757e-01 -1.947286e-03 -7.451676e-01 6.555125e-01
153 2 4 1.369344e+01 -3.121322e+00 -6.307535e+00 -1 -1 1 -5.889757e-02 -2.253735e-01 -6.783184e-01 6.968658e-01
154 2 1 1.330020e+01 -3.479785e+00 -6.120582e+00 -1 -1 1 -1.884464e-01 -5.073310e-01 -5.816395e-01 6.072880e-01
155 2 2 1.282146e+01 -3.746651e+00 -6.239213e+00 -1 -1 1 -4.064983e-01 -7.073399e-01 -3.612608e-01 4.515751e-01
156 2 4 1.248318e+01 -4.073534e+00 -6.464079e+00 -1 -1 1 -4.586689e-01 -8.167208e-01 -1.779302e-01 3.015473e-01
157 2 3 1.230550e+01 -4.439503e+00 -6.863165e+00 -1 -1 1 -5.819572e-01 -8.065183e-01 5.383461e-02 8.919592e-02
158 2 2 1.229491e+01 -4.882082e+00 -7.176840e+00 -1 -1 1 -5.909008e-01 -7.741075e-01 1.853775e-01 -1.312595e-01
159 2 1 1.251719e+01 -5.316483e+00 -7.482406e+00 -1 -1 1 -5.580634e-01 -6.413534e-01 4.003364e-01 -3.419966e-01
160 2 3 1.270325e+01 -5.725096e+00 -7.586504e+00 -1 -1 1 3.837912e-01 5.769848e-01 -4.849125e-01 5.335286e-01
161 2 1 1.312032e+01 -6.032536e+00 -7.423939e+00 -1 -1 1 2.060785e-01 4.057882e-01 -6.515922e-01 6.068732e-01
162 2 1 1.345089e+01 -6.496749e+00 -7.274825e+00 -1 -1 1 1.896326e-02 1.709783e-01 -7.186428e-01 6.737651e-01
163 2 4 1.350119e+01 -6.890290e+00 -6.948372e+00 -1 -1 1 -2.064048e-01 -8.106954e-02 -7.080834e-01 6.704049e-01
164 2 4 1.337900e+01 -7.341045e+00 -6.746173e+00 -1 -1 1 -3.714431e-01 -2.911739e-01 -5.899288e-01 6.551579e-01
165 2 3 1.321314e+01 -7.855892e+00 -6.687380e+00 -1 -1 1 -5.176457e-01 -4.729441e-01 -5.320653e-01 4.746296e-01
166 2 3 1.294916e+01 -8.332713e+00 -6.765557e+00 -1 -1 1 -6.512758e-01 -5.694426e-01 -3.908957e-01 3.142856e-01
167 2 4 1.278720e+01 -8.764293e+00 -7.087257e+00 -1 -1 1 -5.945043e-01 -7.740545e-01 -1.774007e-01 1.262270e-01
168 2 2 1.267096e+01 -9.110756e+00 -7.427429e+00 -1 -1 1 -5.737873e-01 -8.150219e-01 6.611980e-02 -4.621279e-02
169 2 2 1.288478e+01 -9.500423e+00 -7.852239e+00 -1 -1 1 -5.919664e-01 -7.413539e-01 2.043980e-01 -2.412295e-01
170 2 1 1.327600e+01 -9.765569e+00 -8.195839e+00 -1 -1 1 -3.883229e-01 -7.148387e-01 4.249274e-01 -3.970487e-01
171 2 1 1.380412e+01 -1.014114e+01 -8.310482e+00 -1 -1 1 2.740084e-01 5.575870e-01 -5.103602e-01 5.945995e-01
172 2 4 1.422040e+01 -1.049701e+01 -8.256279e+00 -1 -1 1 1.001525e-01 3.594348e-01 -6.391288e-01 6.725254e-01
173 2 4 1.448364e+01 -1.093434e+01 -7.986123e+00 -1 -1 1 -1.126375e-01 6.750813e-02 -7.210823e-01 6.802909e-01
174 2 1 1.449548e+01 -1.142653e+01 -7.871530e+00 -1 -1 1 -1.326167e-01 -6.654374e-02 -5.733913e-01 8.057339e-01
175 2 1 1.433046e+01 -1.172311e+01 -7.465551e+00 -1 -1 1 -3.641911e-01 -3.062940e-01 -4.711726e-01 7.426609e-01
176 2 2 1.402918e+01 -1.225614e+01 -7.402282e+00 -1 -1 1 -2.695528e-01 -3.790804e-01 -4.867901e-01 7.393746e-01
177 2 2 1.375906e+01 -1.260446e+01 -7.209608e+00 -1 -1 1 -6.102806e-01 -5.222831e-01 -3.800761e-01 4.586067e-01
178 2 1 1.350405e+01 -1.301582e+01 -7.321931e+00 -1 -1 1 -7.057464e-01 -6.676524e-01 -8.061126e-02 2.228545e-01
179 2 4 1.343840e+01 -1.347038e+01 -7.641398e+00 -1 -1 1 -7.379957e-01 -6.674141e-01 9.078021e-02 -4.098365e-02
180 2 1 1.349377e+01 -1.399641e+01 -7.862479e+00 -1 -1 1 -7.219524e-01 -5.492511e-01 3.082867e-01 -2.864737e-01
181 2 4 1.349238e+01 -1.447098e+01 -7.800433e+00 -1 -1 1 6.783236e-01 5.848949e-01 -2.136178e-01 3.900546e-01
182 2 2 1.386447e+01 -1.481689e+01 -7.892905e+00 -1 -1 1 4.472884e-01 5.196402e-01 -3.783070e-01 6.219252e-01
183 2 3 1.421585e+01 -1.513230e+01 -7.712450e+00 -1 -1 1 2.417908e-01 3.457870e-01 -5.179083e-01 7.441367e-01
184 2 4 1.440371e+01 -1.544271e+01 -7.323710e+00 -1 -1 1 -1.418466e-02 1.328708e-01 -5.976776e-01 7.905224e-01
185 2 3 1.446917e+01 -1.588887e+01 -6.983721e+00 -1 -1 1 1.774148e-01 7.547695e-02 6.673727e-01 -7.193337e-01
186 2 1 1.438110e+01 -1.629700e+01 -6.720358e+00 -1 -1 1 3.395899e-01 2.674638e-01 5.926367e-01 -6.796496e-01
187 2 1 1.411250e+01 -1.679212e+01 -6.622067e+00 -1 -1 1 -4.845769e-01 -4.098799e-01 -5.604259e-01 5.320775e-01
188 2 2 1.389031e+01 -1.726525e+01 -6.570815e+00 -1 -1 1 5.412031e-01 6.367744e-01 3.490997e-01 -4.239658e-01
189 2 4 1.370294e+01 -1.778850e+01 -6.841948e+00 -1 -1 1 6.225100e-01 7.268612e-01 2.648271e-01 -1.184089e-01
190 2 4 1.369192e+01 -1.810689e+01 -7.235773e+00 -1 -1 1 -6.236839e-01 -7.727756e-01 -1.754667e-02 -1.163118e-01
191 2 1 1.396517e+01 -1.856483e+01 -7.641404e+00 -1 -1 1 -6.530236e-01 -6.811028e-01 7.481293e-02 -3.225867e-01
192 2 4 1.433165e+01 -1.889785e+01 -7.861105e+00 -1 -1 1 4.726101e-01 6.282339e-01 -2.348592e-01 5.716669e-01
193 2 4 1.476961e+01 -1.913573e+01 -7.720568e+00 -1 -1 1 -3.182392e-01 -4.812026e-01 4.006053e-01 -7.118169e-01
194 2 1 1.506535e+01 -1.945049e+01 -7.613477e+00 -1 -1 1 1.290776e-01 3.709748e-01 -3.291768e-01 8.586963e-01
195 2 3 1.539264e+01 -1.960658e+01 -7.189042e+00 -1 -1 1 1.316123e-01 -1.812498e-01 4.865010e-01 -8.444782e-01
196 2 4 1.555414e+01 -1.986049e+01 -6.740467e+00 -1 -1 1 3.517266e-01 -2.721091e-03 5.709611e-01 -7.418115e-01
197 2 2 1.548678e+01 1.977127e+01 -6.364456e+00 -1 -2 1 -5.005813e-01 -2.322245e-01 -5.322837e-01 6.420001e-01
198 2 4 1.526742e+01 1.929855e+01 -6.152288e+00 -1 -2 1 -6.804982e-01 -3.867454e-01 -4.062193e-01 4.715252e-01
199 2 3 1.522120e+01 1.874400e+01 -6.042591e+00 -1 -2 1 7.869689e-01 4.563605e-01 3.939119e-01 -1.313334e-01
200 2 4 1.539152e+01 1.827811e+01 -6.140404e+00 -1 -2 1 6.987933e-01 6.524730e-01 2.776768e-01 9.414085e-02
