ITEM: TIMESTEP
23000000
ITEM: NUMBER OF ATOMS
200
ITEM: BOX BOUNDS pp pp pp
-2.0000000000000000e+01 2.0000000000000000e+01
-2.0000000000000000e+01 2.0000000000000000e+01
-2.0000000000000000e+01 2.0000000000000000e+01
ITEM: ATOMS id mol type x y z ix iy iz c_quat[1] c_quat[2] c_quat[3] c_quat[4]
1 1 1 1.547537e+01 8.142423e+00 1.051726e+01 -1 -1 0 2.114910e-01 3.576963e-01 4.262327e-01 8.035239e-01
2 1 2 1.596717e+01 8.781947e+00 1.120778e+01 -1 -1 0 -8.607082e-02 -8.553748e-01 -3.551038e-01 -3.671880e-01
3 1 1 1.541311e+01 8.722628e+00 1.163695e+01 -1 -1 0 -5.222620e-01 2.187551e-01 7.174358e-01 4.058009e-01
4 1 3 1.495186e+01 8.934437e+00 1.159986e+01 -1 -1 0 -6.893915e-01 4.516027e-01 5.145948e-01 2.366145e-01
5 1 1 1.464471e+01 9.246861e+00 1.177860e+01 -1 -1 0 7.711975e-01 -5.722077e-01 -2.771903e-01 3.159684e-02
6 1 2 1.448479e+01 9.547438e+00 1.210157e+01 -1 -1 0 -7.210947e-01 5.970551e-01 2.774063e-02 -3.503970e-01
7 1 4 1.316112e+01 9.146471e+00 1.271249e+01 -1 -1 0 -5.184438e-01 5.105706e-01 2.932793e-01 6.200975e-01
8 1 1 1.319638e+01 9.594163e+00 1.296428e+01 -1 -1 0 7.065331e-01 -5.610366e-01 -2.937034e-02 -4.303327e-01
9 1 1 1.229611e+01 9.198730e+00 1.308631e+01 -1 -1 0 -5.919295e-01 3.545754e-01 -4.916915e-02 7.221345e-01
10 1 4 1.231465e+01 9.353081e+00 1.350698e+01 -1 -1 0 8.233487e-01 -1.739050e-01 1.278442e-02 -5.400838e-01
11 1 1 1.229678e+01 9.400458e+00 1.412320e+01 -1 -1 0 9.133996e-01 -1.218577e-02 5.879151e-02 -4.026119e-01
12 1 1 1.223014e+01 9.164920e+00 1.453275e+01 -1 -1 0 9.915544e-01 1.103530e-01 6.751323e-02 -9.165877e-03
13 1 3 1.248332e+01 8.936522e+00 1.514357e+01 -1 -1 0 9.507720e-01 5.224056e-02 2.581721e-01 1.632504e-01
14 1 4 1.290559e+01 8.666537e+00 1.532537e+01 -1 -1 0 8.385523e-01 1.254623e-01 2.086800e-01 4.873827e-01
15 1 4 1.345285e+01 8.651894e+00 1.552038e+01 -1 -1 0 -5.744631e-01 -2.117981e-01 -2.052352e-01 -7.635524e-01
16 1 2 1.391753e+01 8.830906e+00 1.562237e+01 -1 -1 0 -2.791990e-01 -3.489991e-01 -2.182095e-01 -8.675437e-01
17 1 1 1.433451e+01 9.134970e+00 1.588361e+01 -1 -1 0 1.680253e-01 2.951683e-01 1.936292e-01 9.204080e-01
18 1 2 1.445743e+01 9.629866e+00 1.613610e+01 -1 -1 0 -2.745570e-01 2.966135e-01 4.765656e-02 9.134373e-01
19 1 3 1.450658e+01 1.000226e+01 1.653340e+01 -1 -1 0 -5.874020e-01 2.081435e-01 5.435007e-02 7.801803e-01
20 1 1 1.443688e+01 1.018737e+01 1.699443e+01 -1 -1 0 -7.945964e-01 1.240650e-01 -1.365455e-02 5.941700e-01
21 1 4 1.447115e+01 1.015806e+01 1.761239e+01 -1 -1 0 8.726436e-01 -2.324670e-02 2.193534e-01 -4.357027e-01
22 1 1 1.463949e+01 9.872273e+00 1.811632e+01 -1 -1 0 9.205568e-01 -2.831038e-02 3.599537e-01 -1.490201e-01
23 1 4 1.494770e+01 9.512897e+00 1.839540e+01 -1 -1 0 9.194188e-01 1.534951e-01 3.353199e-01 1.366341e-01
24 1 3 1.539216e+01 9.234764e+00 1.855768e+01 -1 -1 0 7.788104e-01 3.294245e-01 3.980329e-01 3.556736e-01
25 1 3 1.590478e+01 9.152005e+00 1.831908e+01 -1 -1 0 5.311888e-01 5.237980e-01 3.085426e-01 5.901488e-01
26 1 4 1.645255e+01 9.196941e+00 1.828670e+01 -1 -1 0 3.576771e-01 5.320231e-01 2.472408e-01 7.265607e-01
27 1 4 1.686896e+01 9.433982e+00 1.822099e+01 -1 -1 0 7.104103e-02 5.847934e-01 1.365875e-01 7.964382e-01
28 1 1 1.729490e+01 9.762079e+00 1.843921e+01 -1 -1 0 -1.716095e-01 5.236983e-01 -5.509270e-02 8.326194e-01
29 1 1 1.761100e+01 9.975988e+00 1.881980e+01 -1 -1 0 -4.284992e-01 3.940346e-01 -2.942846e-01 7.579721e-01
30 1 4 1.788150e+01 9.989132e+00 1.927703e+01 -1 -1 0 5.795727e-01 -1.983830e-01 3.421875e-01 -7.124938e-01
31 1 4 1.790578e+01 9.826272e+00 1.972441e+01 -1 -1 0 7.751911e-01 -4.182807e-02 3.224874e-01 -5.416005e-01
32 1 3 1.792808e+01 9.595506e+00 -1.982841e+01 -1 -1 1 9.121879e-01 8.127925e-02 3.457278e-01 -2.043994e-01
33 1 3 1.835322e+01 9.342244e+00 -1.944902e+01 -1 -1 1 8.428814e-01 6.087462e-02 5.345937e-01 7.396671e-03
34 1 1 1.881945e+01 9.082952e+00 -1.936938e+01 -1 -1 1 7.522912e-01 2.202557e-01 5.524835e-01 2.833853e-01
35 1 2 1.936176e+01 8.890581e+00 -1.936695e+01 -1 -1 1 6.414892e-01 3.022009e-01 5.396332e-01 4.538306e-01
36 1 2 1.984018e+01 8.962780e+00 -1.959799e+01 -1 -1 1 4.630400e-01 4.453275e-01 3.877405e-01 6.610104e-01
37 1 1 -1.964554e+01 9.169288e+00 -1.971670e+01 0 -1 1 1.847567e-01 5.598241e-01 2.657027e-01 7.628001e-01
38 1 1 -1.926610e+01 9.660973e+00 -1.976947e+01 0 -1 1 -1.011002e-01 5.696352e-01 3.001232e-01 7.584329e-01
39 1 4 -1.917091e+01 1.016287e+01 -1.954834e+01 0 -1 1 3.969930e-01 -6.219588e-01 -9.309234e-02 -6.685040e-01
40 1 4 -1.884137e+01 1.050644e+01 -1.924610e+01 0 -1 1 5.692230e-01 -5.287419e-01 1.321129e-01 -6.156000e-01
41 1 2 -1.852791e+01 1.074173e+01 -1.884002e+01 0 -1 1 6.911733e-01 -3.821712e-01 3.036786e-01 -5.329202e-01
42 1 4 -1.824961e+01 1.074009e+01 -1.844019e+01 0 -1 1 7.564846e-01 -3.350309e-01 4.792959e-01 -2.928496e-01
43 1 3 -1.788027e+01 1.058229e+01 -1.812778e+01 0 -1 1 8.144781e-01 -1.309149e-01 5.509551e-01 -1.262347e-01
44 1 2 -1.744742e+01 1.041068e+01 -1.789141e+01 0 -1 1 7.626132e-01 6.126052e-02 6.338799e-01 1.134224e-01
45 1 1 -1.693688e+01 1.019669e+01 -1.802213e+01 0 -1 1 5.660135e-01 3.060859e-01 6.396189e-01 4.205090e-01
46 1 3 -1.660366e+01 1.012613e+01 -1.834406e+01 0 -1 1 4.078950e-01 6.030535e-01 4.978843e-01 4.712318e-01
47 1 4 -1.617144e+01 1.027576e+01 -1.860898e+01 0 -1 1 1.992730e-01 6.167372e-01 5.130926e-01 5.627269e-01
48 1 1 -1.579970e+01 1.065754e+01 -1.889927e+01 0 -1 1 -5.835702e-02 -7.093776e-01 -2.119367e-01 -6.696721e-01
49 1 4 -1.544456e+01 1.100038e+01 -1.886911e+01 0 -1 1 2.176705e-01 -7.523254e-01 1.019689e-01 -6.133745e-01
50 1 4 -1.508987e+01 1.137926e+01 -1.859849e+01 0 -1 1 4.105677e-01 -6.739261e-01 2.964156e-01 -5.379549e-01
51 1 4 -1.460360e+01 1.167822e+01 -1.850909e+01 0 -1 1 5.057358e-01 -5.282313e-01 2.096253e-01 -6.490456e-01
52 1 1 -1.428930e+01 1.174649e+01 -1.814806e+01 0 -1 1 6.781893e-01 -3.708131e-01 3.773800e-01 -5.100404e-01
53 1 3 -1.398962e+01 1.153793e+01 -1.770709e+01 0 -1 1 8.045711e-01 -2.024428e-01 5.317873e-01 -1.699545e-01
54 1 4 -1.346480e+01 1.141615e+01 -1.746899e+01 0 -1 1 7.511296e-01 -1.223576e-02 6.588809e-01 -3.912244e-02
55 1 4 -1.301454e+01 1.117285e+01 -1.748658e+01 0 -1 1 7.137390e-01 1.745969e-01 6.308495e-01 2.492417e-01
56 1 4 -1.258035e+01 1.116412e+01 -1.764943e+01 0 -1 1 5.319348e-01 4.031038e-01 5.803731e-01 4.666045e-01
57 1 1 -1.207053e+01 1.120050e+01 -1.781827e+01 0 -1 1 3.564620e-01 4.768888e-01 6.274453e-01 5.018210e-01
58 1 1 -1.176670e+01 1.146920e+01 -1.824477e+01 0 -1 1 1.186913e-01 6.572002e-01 4.224992e-01 6.127762e-01
59 1 3 -1.153299e+01 1.184934e+01 -1.846452e+01 0 -1 1 9.736276e-02 -7.355874e-01 -2.489537e-01 -6.224578e-01
60 1 4 -1.111060e+01 1.226750e+01 -1.851440e+01 0 -1 1 3.746684e-01 -6.606969e-01 -6.396435e-02 -6.473112e-01
61 1 2 -1.077377e+01 1.268664e+01 -1.830303e+01 0 -1 1 5.050900e-01 -5.765703e-01 1.070673e-01 -6.332357e-01
62 1 3 -1.063753e+01 1.292782e+01 -1.789038e+01 0 -1 1 6.984347e-01 -4.894580e-01 2.388875e-01 -4.642765e-01
63 1 2 -1.037986e+01 1.301754e+01 -1.741210e+01 0 -1 1 7.761868e-01 -4.196786e-01 4.311959e-01 -1.883454e-01
64 1 4 -9.934213e+00 1.303412e+01 -1.716332e+01 0 -1 1 7.630512e-01 -2.725741e-01 5.859090e-01 -1.292087e-02
65 1 2 -9.428857e+00 1.282934e+01 -1.712891e+01 0 -1 1 7.192921e-01 -2.578250e-02 6.567981e-01 2.248786e-01
66 1 1 -8.877815e+00 1.286417e+01 -1.712937e+01 0 -1 1 5.945405e-01 1.299191e-01 6.666654e-01 4.303484e-01
67 1 2 -8.388324e+00 1.294742e+01 -1.743692e+01 0 -1 1 3.769967e-01 3.653148e-01 5.557510e-01 6.446390e-01
68 1 1 -7.967262e+00 1.328074e+01 -1.762710e+01 0 -1 1 2.333349e-01 3.878230e-01 5.710054e-01 6.849095e-01
69 1 1 -7.784972e+00 1.361025e+01 -1.787382e+01 0 -1 1 1.379643e-02 5.866824e-01 3.460566e-01 7.320234e-01
70 1 2 -7.457212e+00 1.407007e+01 -1.789216e+01 0 -1 1 1.756274e-01 -5.500562e-01 -3.007298e-01 -7.590486e-01
71 1 3 -7.471767e+00 1.464365e+01 -1.783637e+01 0 -1 1 4.724344e-01 -6.050995e-01 -1.678137e-01 -6.184649e-01
72 1 4 -7.397967e+00 1.506157e+01 -1.759567e+01 0 -1 1 5.954942e-01 -6.447780e-01 8.842891e-02 -4.709866e-01
73 1 1 -7.128300e+00 1.539892e+01 -1.731526e+01 0 -1 1 6.572610e-01 -6.162047e-01 3.042812e-01 -3.093747e-01
74 1 1 -6.677103e+00 1.555477e+01 -1.705791e+01 0 -1 1 6.691096e-01 -4.538883e-01 5.842377e-01 -7.031470e-02
75 1 3 -6.143198e+00 1.574661e+01 -1.715065e+01 0 -1 1 5.675482e-01 -3.331139e-01 7.521068e-01 3.548873e-02
76 1 1 -5.657977e+00 1.571027e+01 -1.727938e+01 0 -1 1 5.194516e-01 -6.019837e-02 8.287954e-01 1.991088e-01
77 1 4 -5.231934e+00 1.568080e+01 -1.764272e+01 0 -1 1 3.055343e-01 1.039126e-01 9.047170e-01 2.780973e-01
78 1 1 -5.069280e+00 1.562475e+01 -1.815330e+01 0 -1 1 1.999193e-01 4.487403e-01 7.742484e-01 3.990036e-01
79 1 4 -4.970982e+00 1.590757e+01 -1.865905e+01 0 -1 1 -3.702443e-02 6.338058e-01 6.369899e-01 4.372222e-01
80 1 2 -4.983226e+00 1.620608e+01 -1.907009e+01 0 -1 1 2.194212e-01 -7.388954e-01 -5.271367e-01 -3.577917e-01
81 1 4 -4.983141e+00 1.682382e+01 -1.923733e+01 0 -1 1 2.721477e-01 -8.933442e-01 -3.412330e-02 -3.559599e-01
82 1 4 -4.783682e+00 1.728226e+01 -1.929276e+01 0 -1 1 4.128461e-01 -8.267621e-01 1.082812e-01 -3.664665e-01
83 1 4 -4.425227e+00 1.765424e+01 -1.921875e+01 0 -1 1 5.134189e-01 -7.263543e-01 3.703828e-01 -2.676324e-01
84 1 4 -3.991769e+00 1.786346e+01 -1.911473e+01 0 -1 1 6.269928e-01 -5.203421e-01 5.655218e-01 -1.277072e-01
85 1 1 -3.456377e+00 1.779638e+01 -1.902353e+01 0 -1 1 6.264133e-01 -3.108651e-01 7.143767e-01 2.520391e-02
86 1 1 -2.943462e+00 1.775617e+01 -1.905497e+01 0 -1 1 6.021076e-01 -1.601047e-02 7.758065e-01 1.879742e-01
87 1 3 -2.482775e+00 1.757415e+01 -1.929377e+01 0 -1 1 5.377753e-01 1.736473e-01 7.627577e-01 3.143964e-01
88 1 2 -2.107178e+00 1.765648e+01 -1.979619e+01 0 -1 1 3.282639e-01 4.124982e-01 7.355516e-01 4.255020e-01
89 1 2 -1.973673e+00 1.776845e+01 1.970516e+01 0 -1 0 -1.131203e-01 -6.892477e-01 -5.849674e-01 -4.122555e-01
90 1 3 -1.854190e+00 1.814030e+01 1.928230e+01 0 -1 0 7.291788e-02 -7.614784e-01 -3.275301e-01 -5.545788e-01
91 1 3 -1.676353e+00 1.855800e+01 1.906797e+01 0 -1 0 3.139456e-01 -7.875668e-01 -1.669711e-01 -5.032866e-01
92 1 2 -1.012277e+00 1.898137e+01 1.844820e+01 0 -1 0 7.930464e-01 -6.017351e-01 9.647308e-03 9.433585e-02
93 1 1 -1.249801e+00 1.970271e+01 1.772294e+01 0 -1 0 -3.654818e-01 -3.109727e-02 2.177220e-01 -9.044629e-01
94 1 2 -1.897932e+00 1.936857e+01 1.714829e+01 0 -1 0 1.975219e-01 3.139166e-01 -8.242252e-01 -4.278952e-01
95 1 3 -2.654258e+00 -1.963530e+01 1.787154e+01 0 0 0 3.016459e-01 -3.716971e-01 -4.962535e-02 -8.765776e-01
96 1 2 -2.568196e+00 -1.937202e+01 1.822313e+01 0 0 0 6.213193e-01 -4.696525e-01 2.222887e-01 -5.864952e-01
97 1 2 -2.369650e+00 -1.931764e+01 1.872016e+01 0 0 0 8.198239e-01 -3.027537e-01 4.165208e-01 -2.504785e-01
98 1 4 -3.354371e+00 -1.850083e+01 1.855451e+01 0 0 0 -2.552863e-01 -1.529783e-02 -1.602964e-01 -9.533624e-01
99 1 2 -3.341082e+00 -1.813064e+01 1.883900e+01 0 0 0 -3.341009e-01 9.844799e-02 1.270961e-01 9.287256e-01
100 1 1 -2.781310e+00 -1.788264e+01 1.897605e+01 0 0 0 4.491550e-01 1.652661e-01 -8.557387e-01 1.966170e-01
101 2 4 2.916704e+00 1.966678e+01 1.982525e+01 0 -1 0 -6.346833e-01 6.686274e-01 2.165847e-01 -3.212564e-01
102 2 3 2.097972e+00 1.990325e+01 1.934679e+01 0 -1 0 -4.979388e-01 5.172874e-01 4.990485e-01 -4.852023e-01
103 2 1 1.662558e+00 2.008590e+01 1.956989e+01 0 -1 0 3.493011e-01 -6.844055e-01 -2.193134e-01 6.012316e-01
104 2 3 9.803058e-01 -2.002643e+01 1.892089e+01 0 0 0 3.870129e-01 -1.668630e-01 6.231010e-01 6.588801e-01
105 2 3 4.554202e-01 -2.014632e+01 1.939242e+01 0 0 0 6.144155e-01 4.021190e-01 -6.422571e-01 -2.197719e-01
106 2 2 -8.516219e-02 1.960133e+01 1.919382e+01 0 -1 0 7.291438e-01 2.344405e-01 -6.429094e-01 7.388367e-03
107 2 3 -3.547136e-01 1.922733e+01 1.933924e+01 0 -1 0 6.686594e-01 -1.029689e-02 -6.514050e-01 3.584134e-01
108 2 4 -6.005690e-01 1.882599e+01 1.953783e+01 0 -1 0 4.865988e-01 -3.175799e-01 -5.786695e-01 5.722816e-01
109 2 3 -8.644995e-01 1.867158e+01 1.989640e+01 0 -1 0 -1.329564e-01 4.333523e-01 4.501569e-01 -7.693420e-01
110 2 2 -1.201833e+00 1.869938e+01 -1.980741e+01 0 -1 1 2.150970e-01 5.198124e-01 1.945240e-01 -8.035476e-01
111 2 2 -1.619201e+00 1.881929e+01 -1.970716e+01 0 -1 1 4.076747e-01 5.087168e-01 -5.747747e-02 -7.561117e-01
112 2 3 -2.155277e+00 1.883869e+01 -1.979366e+01 0 -1 1 5.545030e-01 5.269971e-01 -1.690660e-01 -6.214637e-01
113 2 3 -2.574553e+00 1.874354e+01 -1.988563e+01 0 -1 1 6.395824e-01 5.331112e-01 -3.789022e-01 -4.039307e-01
114 2 2 -3.006830e+00 1.835740e+01 1.994972e+01 0 -1 0 7.229080e-01 4.851921e-01 -4.781404e-01 -1.156482e-01
115 2 4 -3.314798e+00 1.784331e+01 1.976616e+01 0 -1 0 7.666105e-01 3.044575e-01 -5.494332e-01 1.331810e-01
116 2 4 -3.430981e+00 1.731471e+01 1.986941e+01 0 -1 0 6.886579e-01 1.641176e-01 -5.701995e-01 4.167591e-01
117 2 1 -3.685004e+00 1.689547e+01 -1.975062e+01 0 -1 1 6.398376e-01 -7.863562e-02 -5.388027e-01 5.423246e-01
118 2 1 -3.883022e+00 1.664291e+01 -1.930524e+01 0 -1 1 5.450784e-01 -1.521603e-01 -3.504470e-01 7.462732e-01
119 2 1 -3.924394e+00 1.657516e+01 -1.878873e+01 0 -1 1 3.063503e-01 -2.495978e-01 -2.654294e-01 8.794303e-01
120 2 1 -4.205949e+00 1.681424e+01 -1.838180e+01 0 -1 1 -1.062516e-01 -4.160505e-01 -1.057792e-01 8.968965e-01
121 2 3 -4.709094e+00 1.691463e+01 -1.813662e+01 0 -1 1 3.707351e-01 4.833937e-01 4.458694e-02 -7.917689e-01
122 2 1 -5.245024e+00 1.688239e+01 -1.806832e+01 0 -1 1 6.155497e-01 4.753870e-01 -9.332985e-02 -6.216071e-01
123 2 4 -5.723985e+00 1.663741e+01 -1.819325e+01 0 -1 1 7.476255e-01 4.849029e-01 -2.575095e-01 -3.736499e-01
124 2 1 -6.129477e+00 1.626207e+01 -1.820867e+01 0 -1 1 7.775935e-01 4.987846e-01 -3.627694e-01 -1.223135e-01
125 2 4 -6.247668e+00 1.574710e+01 -1.835867e+01 0 -1 1 7.936701e-01 3.455118e-01 -4.787172e-01 1.467625e-01
126 2 2 -6.255294e+00 1.523788e+01 -1.819716e+01 0 -1 1 7.095623e-01 1.680554e-01 -5.255165e-01 4.383049e-01
127 2 4 -6.271006e+00 1.480057e+01 -1.790620e+01 0 -1 1 5.538923e-01 2.282663e-03 -5.578392e-01 6.180725e-01
128 2 4 -6.391862e+00 1.449591e+01 -1.740830e+01 0 -1 1 3.512794e-01 -1.935141e-01 -5.621256e-01 7.233049e-01
129 2 1 -6.697053e+00 1.426085e+01 -1.697494e+01 0 -1 1 1.401942e-01 -4.373921e-01 -5.005131e-01 7.338395e-01
130 2 2 -7.153700e+00 1.401846e+01 -1.682250e+01 0 -1 1 6.616139e-02 -6.332941e-01 -4.014415e-01 6.583357e-01
131 2 3 -7.728436e+00 1.408054e+01 -1.672723e+01 0 -1 1 -1.315249e-01 -7.492721e-01 -1.872441e-01 6.214758e-01
132 2 4 -8.164803e+00 1.418013e+01 -1.687880e+01 0 -1 1 3.244155e-01 7.575346e-01 -1.013444e-01 -5.573377e-01
133 2 4 -8.647154e+00 1.404463e+01 -1.705900e+01 0 -1 1 2.565776e-01 8.344624e-01 -1.030946e-01 -4.766675e-01
134 2 3 -8.894884e+00 1.400329e+01 -1.749590e+01 0 -1 1 4.395066e-01 7.001935e-01 -4.863457e-01 -2.828972e-01
135 2 4 -9.215845e+00 1.371165e+01 -1.788494e+01 0 -1 1 -5.371852e-01 -6.150640e-01 5.763054e-01 3.162873e-02
136 2 3 -9.323579e+00 1.323321e+01 -1.819169e+01 0 -1 1 -5.771998e-01 -3.917931e-01 7.086687e-01 -1.054856e-01
137 2 1 -9.525070e+00 1.269508e+01 -1.826673e+01 0 -1 1 5.495916e-01 1.203529e-01 -7.465597e-01 3.551237e-01
138 2 3 -9.728957e+00 1.222822e+01 -1.805386e+01 0 -1 1 4.846999e-01 -9.859125e-02 -6.653101e-01 5.592033e-01
139 2 2 -9.999280e+00 1.187328e+01 -1.776702e+01 0 -1 1 3.152140e-01 -3.359957e-01 -5.745524e-01 6.764884e-01
140 2 3 -1.054778e+01 1.169991e+01 -1.761406e+01 0 -1 1 3.385809e-01 -5.347640e-01 -4.132150e-01 6.547089e-01
141 2 1 -1.099144e+01 1.185306e+01 -1.739845e+01 0 -1 1 7.402994e-02 -6.563000e-01 -1.959513e-01 7.248400e-01
142 2 2 -1.140782e+01 1.210306e+01 -1.727465e+01 0 -1 1 -9.386120e-02 -6.670817e-01 6.962604e-02 7.357610e-01
143 2 4 -1.187521e+01 1.236593e+01 -1.743590e+01 0 -1 1 3.680711e-01 6.410812e-01 -2.785017e-01 -6.131683e-01
144 2 4 -1.237557e+01 1.228162e+01 -1.767482e+01 0 -1 1 -4.710546e-01 -6.409577e-01 4.081808e-01 4.479611e-01
145 2 1 -1.272133e+01 1.228839e+01 -1.803923e+01 0 -1 1 -4.828318e-01 -5.762202e-01 6.109159e-01 2.482449e-01
146 2 1 -1.294670e+01 1.191628e+01 -1.844351e+01 0 -1 1 -6.051787e-01 -3.489964e-01 6.945765e-01 1.718249e-01
147 2 1 -1.321832e+01 1.145548e+01 -1.864139e+01 0 -1 1 -5.718989e-01 -1.446109e-01 7.958053e-01 -1.367964e-01
148 2 2 -1.359061e+01 1.097778e+01 -1.872591e+01 0 -1 1 -6.158746e-01 1.686658e-02 6.823871e-01 -3.933978e-01
149 2 4 -1.399159e+01 1.066246e+01 -1.853900e+01 0 -1 1 5.398612e-01 -2.559855e-01 -6.117673e-01 5.184228e-01
150 2 1 -1.430606e+01 1.051613e+01 -1.810427e+01 0 -1 1 3.652469e-01 -3.890832e-01 -5.079032e-01 6.761977e-01
151 2 1 -1.479723e+01 1.039629e+01 -1.793170e+01 0 -1 1 3.329483e-01 -5.264778e-01 -3.143697e-01 7.163367e-01
152 2 1 -1.533258e+01 1.053810e+01 -1.780336e+01 0 -1 1 3.687027e-01 -6.172912e-01 -1.378372e-01 6.811834e-01
153 2 4 -1.577228e+01 1.100810e+01 -1.778709e+01 0 -1 1 -2.167111e-02 -7.075789e-01 8.847944e-02 7.007380e-01
154 2 1 -1.620710e+01 1.118845e+01 -1.799677e+01 0 -1 1 -2.534099e-01 -7.224543e-01 2.865052e-01 5.759843e-01
155 2 2 -1.663008e+01 1.128684e+01 -1.833484e+01 0 -1 1 -4.405529e-01 -5.776328e-01 5.335876e-01 4.330564e-01
156 2 4 -1.690115e+01 1.117213e+01 -1.874514e+01 0 -1 1 -5.144544e-01 -4.348380e-01 7.186257e-01 1.727126e-01
157 2 3 -1.715455e+01 1.073767e+01 -1.898588e+01 0 -1 1 -5.286580e-01 -2.073715e-01 8.139580e-01 -1.224346e-01
158 2 2 -1.739323e+01 1.024845e+01 -1.913691e+01 0 -1 1 -5.421989e-01 4.775845e-02 7.975084e-01 -2.602305e-01
159 2 1 -1.773997e+01 9.888446e+00 -1.910177e+01 0 -1 1 -4.803368e-01 2.496126e-01 7.580369e-01 -3.637996e-01
160 2 3 -1.816044e+01 9.603174e+00 -1.889363e+01 0 -1 1 3.758186e-01 -4.535422e-01 -6.368530e-01 4.974718e-01
161 2 1 -1.862639e+01 9.480956e+00 -1.863423e+01 0 -1 1 2.245620e-01 -5.917138e-01 -5.116929e-01 5.810482e-01
162 2 1 -1.913341e+01 9.644585e+00 -1.847444e+01 0 -1 1 1.213037e-01 -6.983437e-01 -2.724721e-01 6.506615e-01
163 2 4 -1.967645e+01 9.752474e+00 -1.864701e+01 0 -1 1 -8.381189e-02 -8.077882e-01 -9.422219e-02 5.758263e-01
164 2 4 1.993546e+01 9.907880e+00 -1.887822e+01 -1 -1 1 -1.870008e-01 -8.082654e-01 2.433914e-01 5.024922e-01
165 2 3 1.958272e+01 1.003737e+01 -1.923713e+01 -1 -1 1 -2.181807e-01 -7.670429e-01 4.981493e-01 3.404257e-01
166 2 3 1.950352e+01 9.953819e+00 -1.972693e+01 -1 -1 1 -3.361068e-01 -4.572426e-01 7.981876e-01 2.021337e-01
167 2 4 1.928003e+01 9.822946e+00 1.972265e+01 -1 -1 0 -4.234935e-01 -3.108947e-01 8.508738e-01 -3.390192e-03
168 2 2 1.898671e+01 9.458175e+00 1.945111e+01 -1 -1 0 -4.687633e-01 -1.328666e-01 8.674735e-01 -1.004842e-01
169 2 2 1.862954e+01 9.143140e+00 1.935980e+01 -1 -1 0 -4.852331e-01 8.553300e-02 8.167644e-01 -3.002148e-01
170 2 1 1.813787e+01 8.806106e+00 1.924461e+01 -1 -1 0 -4.648548e-01 3.890258e-01 7.595134e-01 -2.360262e-01
171 2 1 1.763706e+01 8.730287e+00 1.914218e+01 -1 -1 0 4.574679e-01 -6.276206e-01 -5.598212e-01 2.888180e-01
172 2 4 1.719388e+01 8.941403e+00 1.932623e+01 -1 -1 0 4.504994e-01 -6.908202e-01 -2.802940e-01 4.911751e-01
173 2 4 1.681685e+01 9.383605e+00 1.942737e+01 -1 -1 0 2.952721e-01 -7.785952e-01 -2.603028e-02 5.531061e-01
174 2 1 1.648994e+01 9.821254e+00 1.932096e+01 -1 -1 0 2.614860e-02 -8.276018e-01 2.275535e-01 5.124558e-01
175 2 1 1.619401e+01 1.017500e+01 1.898930e+01 -1 -1 0 -1.965113e-01 -7.383789e-01 4.459213e-01 4.661911e-01
176 2 2 1.596821e+01 1.028760e+01 1.849614e+01 -1 -1 0 -3.248540e-01 -6.418660e-01 6.316888e-01 2.888725e-01
177 2 2 1.580843e+01 1.014659e+01 1.805884e+01 -1 -1 0 -3.957980e-01 -5.363145e-01 7.326995e-01 1.373395e-01
178 2 1 1.572749e+01 9.922981e+00 1.759027e+01 -1 -1 0 -4.086602e-01 -2.674063e-01 8.680494e-01 -8.933662e-02
179 2 4 1.547729e+01 9.463771e+00 1.735721e+01 -1 -1 0 -3.475867e-01 1.108788e-01 9.098008e-01 -1.978684e-01
180 2 1 1.501512e+01 9.172524e+00 1.711064e+01 -1 -1 0 -3.848424e-01 3.993127e-01 8.088800e-01 -1.953428e-01
181 2 4 1.460899e+01 8.980514e+00 1.715232e+01 -1 -1 0 2.687926e-01 -5.936883e-01 -6.703166e-01 3.549089e-01
182 2 2 1.410164e+01 9.020632e+00 1.713268e+01 -1 -1 0 9.281620e-02 -8.176673e-01 -4.132322e-01 3.899289e-01
183 2 3 1.361253e+01 9.143963e+00 1.684985e+01 -1 -1 0 4.203507e-02 -9.193665e-01 -2.054569e-01 3.328449e-01
184 2 4 1.335010e+01 9.433919e+00 1.647254e+01 -1 -1 0 2.188458e-02 -9.528884e-01 5.500901e-02 2.974875e-01
185 2 3 1.323594e+01 9.723083e+00 1.608372e+01 -1 -1 0 -1.080577e-01 -8.804704e-01 3.985415e-01 2.329378e-01
186 2 1 1.326899e+01 9.813920e+00 1.559336e+01 -1 -1 0 -1.309622e-01 -7.174856e-01 6.702116e-01 1.374031e-01
187 2 1 1.345615e+01 9.715025e+00 1.503736e+01 -1 -1 0 -1.750036e-01 -4.655200e-01 8.633910e-01 8.497521e-02
188 2 2 1.341336e+01 9.469671e+00 1.457361e+01 -1 -1 0 -2.120702e-01 -3.262381e-01 9.208158e-01 -2.633042e-02
189 2 4 1.335189e+01 9.035453e+00 1.428697e+01 -1 -1 0 -1.636588e-01 1.953343e-02 9.659251e-01 -1.995570e-01
190 2 4 1.315636e+01 8.541660e+00 1.392438e+01 -1 -1 0 -1.782074e-01 3.028471e-01 9.095068e-01 -2.220880e-01
191 2 1 1.275350e+01 8.315084e+00 1.373612e+01 -1 -1 0 1.484562e-01 -5.752979e-01 -7.027110e-01 3.913953e-01
192 2 4 1.225497e+01 8.104197e+00 1.370961e+01 -1 -1 0 1.455934e-01 -7.411345e-01 -5.124352e-01 4.085736e-01
193 2 4 1.180381e+01 8.186193e+00 1.354474e+01 -1 -1 0 -1.023490e-02 -8.689097e-01 -2.747228e-01 4.116048e-01
194 2 1 1.170473e+01 8.548691e+00 1.312466e+01 -1 -1 0 3.769769e-02 9.296696e-01 -8.922166e-02 -3.554334e-01
195 2 3 1.147326e+01 8.767647e+00 1.276084e+01 -1 -1 0 -4.245306e-02 -9.097065e-01 3.378666e-01 2.376510e-01
196 2 4 1.016701e+01 9.319363e+00 1.231784e+01 -1 -1 0 -2.900313e-01 -3.931508e-01 -2.627331e-02 8.721376e-01
197 2 2 1.061108e+01 9.204681e+00 1.182938e+01 -1 -1 0 1.290886e-02 3.944499e-02 -3.673472e-01 -9.291574e-01
198 2 4 1.066972e+01 9.259684e+00 1.168637e+01 -1 -1 0 -3.998120e-01 -6.073458e-01 -1.040236e-02 -6.864206e-01
199 2 3 1.139548e+01 8.022563e+00 1.130785e+01 -1 -1 0 -8.715321e-01 2.689888e-01 -3.372920e-01 -2.330471e-01
200 2 4 1.088343e+01 7.573260e+00 1.196637e+01 -1 -1 0 -7.050712e-01 -1.160088e-01 4.753383e-01 -5.132933e-01
