ITEM: TIMESTEP
211000000
ITEM: NUMBER OF ATOMS
200
ITEM: BOX BOUNDS pp pp pp
-2.0000000000000000e+01 2.0000000000000000e+01
-2.0000000000000000e+01 2.0000000000000000e+01
-2.0000000000000000e+01 2.0000000000000000e+01
ITEM: ATOMS id mol type x y z ix iy iz c_quat[1] c_quat[2] c_quat[3] c_quat[4]
1 1 1 1.780798e+01 -1.053168e+01 1.302355e+01 -1 -1 1 6.749834e-01 -1.978055e-02 3.658088e-01 6.404609e-01
2 1 2 1.684711e+01 -1.015910e+01 1.299659e+01 -1 -1 1 -9.012311e-02 6.077460e-01 2.293699e-01 7.549252e-01
3 1 1 1.751671e+01 -9.586953e+00 1.329536e+01 -1 -1 1 -5.044710e-01 8.423420e-01 4.138351e-02 -1.850847e-01
4 1 3 1.752494e+01 -9.005781e+00 1.320038e+01 -1 -1 1 -4.184064e-01 8.496821e-01 -2.679412e-01 -1.765895e-01
5 1 1 1.769779e+01 -8.571450e+00 1.315573e+01 -1 -1 1 4.320902e-01 -6.818110e-01 5.148469e-01 2.887291e-01
6 1 2 1.807731e+01 -8.197337e+00 1.290809e+01 -1 -1 1 3.639833e-01 -5.366992e-01 6.605896e-01 3.782743e-01
7 1 4 1.826997e+01 -7.816093e+00 1.249401e+01 -1 -1 1 -1.517536e-01 4.472242e-01 -7.539438e-01 -4.566510e-01
8 1 1 1.844559e+01 -7.692185e+00 1.205115e+01 -1 -1 1 2.963352e-02 -1.255301e-01 8.640897e-01 4.865317e-01
9 1 1 1.842859e+01 -7.391717e+00 1.157197e+01 -1 -1 1 1.967873e-01 -5.187364e-02 -8.651739e-01 -4.583209e-01
10 1 4 1.812148e+01 -7.214279e+00 1.119934e+01 -1 -1 1 -3.491739e-01 3.309719e-01 8.141234e-01 3.251743e-01
11 1 1 1.774747e+01 -6.919803e+00 1.091430e+01 -1 -1 1 -4.889682e-01 4.901128e-01 6.460430e-01 3.214467e-01
12 1 1 1.736870e+01 -6.555706e+00 1.093641e+01 -1 -1 1 5.999481e-01 -6.524668e-01 -4.197980e-01 -1.952409e-01
13 1 3 1.723334e+01 -6.039076e+00 1.099645e+01 -1 -1 1 -7.019251e-01 6.707381e-01 1.618477e-01 1.766831e-01
14 1 4 1.722544e+01 -5.645011e+00 1.125747e+01 -1 -1 1 6.934814e-01 -6.913069e-01 1.482184e-01 1.385984e-01
15 1 4 1.745296e+01 -5.107611e+00 1.140165e+01 -1 -1 1 6.320183e-01 -6.359456e-01 3.941925e-01 2.018375e-01
16 1 2 1.779652e+01 -4.653148e+00 1.145146e+01 -1 -1 1 -5.063360e-01 5.242566e-01 -5.908694e-01 -3.459078e-01
17 1 1 1.820751e+01 -4.339085e+00 1.123377e+01 -1 -1 1 -3.136063e-01 3.547773e-01 -8.018006e-01 -3.645543e-01
18 1 2 1.843711e+01 -4.134413e+00 1.079406e+01 -1 -1 1 1.631689e-01 -8.050508e-02 8.933830e-01 4.108061e-01
19 1 3 1.848924e+01 -3.903928e+00 1.031552e+01 -1 -1 1 -3.331695e-02 1.454669e-01 8.904535e-01 4.299092e-01
20 1 1 1.831987e+01 -3.635583e+00 9.872849e+00 -1 -1 1 -1.684726e-01 3.759038e-01 7.902681e-01 4.536403e-01
21 1 4 1.811677e+01 -3.334484e+00 9.511158e+00 -1 -1 1 3.375977e-01 -6.151596e-01 -6.036221e-01 -3.784797e-01
22 1 1 1.781240e+01 -2.916051e+00 9.363148e+00 -1 -1 1 5.257878e-01 -6.647368e-01 -4.761894e-01 -2.343411e-01
23 1 4 1.753990e+01 -2.482615e+00 9.451974e+00 -1 -1 1 6.318792e-01 -7.437276e-01 -2.116068e-01 -5.310789e-02
24 1 3 1.742739e+01 -2.012744e+00 9.784192e+00 -1 -1 1 5.513570e-01 -8.106505e-01 3.057752e-02 1.947209e-01
25 1 3 1.756863e+01 -1.532477e+00 9.809110e+00 -1 -1 1 5.674041e-01 -7.045035e-01 3.307709e-01 2.689201e-01
26 1 4 1.783307e+01 -1.150871e+00 9.918143e+00 -1 -1 1 5.513947e-01 -5.204577e-01 5.525851e-01 3.460309e-01
27 1 4 1.823151e+01 -8.298295e-01 9.844950e+00 -1 -1 1 3.653363e-01 -3.155294e-01 6.956566e-01 5.320080e-01
28 1 1 1.840872e+01 -4.502364e-01 9.590829e+00 -1 -1 1 2.395750e-01 -1.759857e-01 8.430805e-01 4.481608e-01
29 1 1 1.862246e+01 -2.803620e-01 9.064694e+00 -1 -1 1 1.213654e-01 5.383464e-02 8.996326e-01 4.159730e-01
30 1 4 1.864454e+01 -5.769313e-02 8.626315e+00 -1 -1 1 6.736804e-02 -2.976427e-01 -8.406886e-01 -4.473400e-01
31 1 4 1.840620e+01 1.718618e-01 8.235683e+00 -1 -1 1 1.926763e-01 -6.016813e-01 -6.573178e-01 -4.108391e-01
32 1 3 1.834420e+01 5.917544e-01 7.905767e+00 -1 -1 1 3.588654e-01 -6.269660e-01 -5.763176e-01 -3.820829e-01
33 1 3 1.806542e+01 1.030471e+00 7.834472e+00 -1 -1 1 5.806630e-01 -6.660814e-01 -4.335292e-01 -1.766873e-01
34 1 1 1.776330e+01 1.370249e+00 7.910235e+00 -1 -1 1 6.433778e-01 -7.273990e-01 -2.362324e-01 3.391080e-02
35 1 2 1.761901e+01 1.852123e+00 8.002283e+00 -1 -1 1 7.234249e-01 -6.732187e-01 1.304520e-02 1.525216e-01
36 1 2 1.767780e+01 2.282660e+00 8.263338e+00 -1 -1 1 7.194564e-01 -5.735534e-01 2.439541e-01 3.064398e-01
37 1 1 1.793608e+01 2.698074e+00 8.360726e+00 -1 -1 1 6.513862e-01 -4.335435e-01 5.045008e-01 3.649862e-01
38 1 1 1.841059e+01 2.967556e+00 8.302727e+00 -1 -1 1 5.480076e-01 -2.481911e-01 6.290416e-01 4.923369e-01
39 1 4 1.881005e+01 3.324981e+00 8.168515e+00 -1 -1 1 -3.814769e-01 5.316469e-02 -7.465977e-01 -5.424396e-01
40 1 4 1.916455e+01 3.512062e+00 7.793670e+00 -1 -1 1 -2.184512e-01 -2.423531e-01 -8.121642e-01 -4.836666e-01
41 1 2 1.938605e+01 3.914080e+00 7.490353e+00 -1 -1 1 -2.742957e-03 -3.611832e-01 -7.495948e-01 -5.546592e-01
42 1 4 1.942739e+01 4.302630e+00 7.135892e+00 -1 -1 1 -1.918752e-01 5.358421e-01 6.050093e-01 5.567952e-01
43 1 3 1.929993e+01 4.755919e+00 6.906519e+00 -1 -1 1 3.688692e-01 -6.320588e-01 -4.911507e-01 -4.724491e-01
44 1 2 1.918680e+01 5.334601e+00 6.795028e+00 -1 -1 1 4.453415e-01 -6.953918e-01 -2.849448e-01 -4.867316e-01
45 1 1 1.900507e+01 5.826555e+00 7.049581e+00 -1 -1 1 6.531276e-01 -7.043386e-01 -1.322404e-01 -2.446302e-01
46 1 3 1.911973e+01 6.302901e+00 7.365204e+00 -1 -1 1 7.307705e-01 -6.612891e-01 1.355382e-01 -1.014914e-01
47 1 4 1.944103e+01 6.516048e+00 7.764230e+00 -1 -1 1 8.390883e-01 -4.425481e-01 2.991970e-01 1.027771e-01
48 1 1 1.984040e+01 6.745870e+00 7.961664e+00 -1 -1 1 -7.619708e-01 2.873852e-01 -5.060637e-01 -2.840946e-01
49 1 4 -1.974145e+01 6.990612e+00 8.130151e+00 0 -1 1 -6.396351e-01 1.720702e-01 -6.049534e-01 -4.419164e-01
50 1 4 -1.928374e+01 7.295497e+00 8.043981e+00 0 -1 1 -4.250794e-01 6.641932e-02 -6.536613e-01 -6.225937e-01
51 1 4 -1.893615e+01 7.548590e+00 7.745218e+00 0 -1 1 -2.772556e-01 -1.689077e-01 -5.639774e-01 -7.592951e-01
52 1 1 -1.871142e+01 7.933315e+00 7.565374e+00 0 -1 1 -2.497385e-02 -3.293760e-01 -5.628534e-01 -7.576832e-01
53 1 3 -1.866626e+01 8.364794e+00 7.481057e+00 0 -1 1 2.169371e-01 -5.333282e-01 -4.030407e-01 -7.113773e-01
54 1 4 -1.870438e+01 8.825254e+00 7.486012e+00 0 -1 1 4.453603e-01 -6.468491e-01 -2.360830e-01 -5.722807e-01
55 1 4 -1.865524e+01 9.338461e+00 7.668475e+00 0 -1 1 6.218429e-01 -5.727257e-01 -6.587357e-02 -5.300542e-01
56 1 4 -1.855767e+01 9.728179e+00 8.056308e+00 0 -1 1 7.778547e-01 -4.950228e-01 7.036224e-02 -3.807146e-01
57 1 1 -1.848623e+01 9.825150e+00 8.662914e+00 0 -1 1 8.968675e-01 -3.452449e-01 2.059745e-01 -1.844159e-01
58 1 1 -1.823893e+01 9.832086e+00 9.117071e+00 0 -1 1 9.231047e-01 -2.620186e-01 2.814669e-01 5.827750e-04
59 1 3 -1.795086e+01 9.821327e+00 9.435425e+00 0 -1 1 8.320002e-01 -1.290847e-01 4.017078e-01 3.601995e-01
60 1 4 -1.744472e+01 9.889029e+00 9.649356e+00 0 -1 1 6.594062e-01 2.101732e-02 4.943323e-01 5.660188e-01
61 1 2 -1.694878e+01 1.009241e+01 9.642466e+00 0 -1 1 -3.992856e-01 -1.283731e-01 -3.851295e-01 -8.220502e-01
62 1 3 -1.735003e+01 9.812871e+00 1.071303e+01 0 -1 1 3.393011e-01 -2.765575e-01 -6.231143e-01 -6.481661e-01
63 1 2 -1.631978e+01 9.767742e+00 1.106469e+01 0 -1 1 3.101582e-01 -3.826881e-01 8.658594e-01 -8.740279e-02
64 1 4 -1.632517e+01 9.405361e+00 1.161140e+01 0 -1 1 1.116416e-02 -1.408316e-01 7.795982e-01 -6.101381e-01
65 1 2 -1.635556e+01 8.915933e+00 1.167348e+01 0 -1 1 3.207708e-01 2.678762e-01 7.891842e-01 -4.500408e-01
66 1 1 -1.579677e+01 8.580796e+00 1.205907e+01 0 -1 1 -4.275089e-01 8.677708e-01 2.284439e-01 -1.096511e-01
67 1 2 -1.531098e+01 8.044168e+00 1.205798e+01 0 -1 1 -1.684178e-01 -4.065696e-01 3.615405e-01 -8.219641e-01
68 1 1 -1.474996e+01 7.278552e+00 1.229302e+01 0 -1 1 -8.553870e-01 -2.285539e-01 3.904683e-01 2.522115e-01
69 1 1 -1.450865e+01 7.774246e+00 1.288394e+01 0 -1 1 -2.362706e-01 2.072138e-01 7.567932e-01 -5.731515e-01
70 1 2 -1.380059e+01 6.733073e+00 1.211968e+01 0 -1 1 5.557336e-01 2.904217e-01 -6.705407e-01 -3.964727e-01
71 1 3 -1.418939e+01 6.493007e+00 1.192686e+01 0 -1 1 6.008024e-01 -4.029972e-02 -7.907320e-01 -1.102514e-01
72 1 4 -1.509374e+01 6.342775e+00 1.155320e+01 0 -1 1 -6.214583e-01 -2.906880e-01 -6.733990e-01 2.753614e-01
73 1 1 -1.497586e+01 5.878826e+00 1.134392e+01 0 -1 1 6.269536e-01 5.008345e-01 5.967325e-01 2.097673e-03
74 1 1 -1.522243e+01 5.229415e+00 1.227985e+01 0 -1 1 8.675899e-01 1.352921e-01 -4.437706e-01 1.790292e-01
75 1 3 -1.545558e+01 4.819403e+00 1.254396e+01 0 -1 1 -7.792497e-01 1.623459e-01 4.596550e-01 -3.938668e-01
76 1 1 -1.511737e+01 4.075275e+00 1.262469e+01 0 -1 1 -9.092832e-01 1.163642e-01 -2.674070e-01 2.969123e-01
77 1 4 -1.552705e+01 4.758333e+00 1.360315e+01 0 -1 1 1.175274e-01 -6.213747e-01 -4.213766e-01 -6.500174e-01
78 1 1 -1.563646e+01 4.882944e+00 1.348016e+01 0 -1 1 -6.292156e-01 -3.063837e-01 1.156579e-01 7.048688e-01
79 1 4 -1.612712e+01 4.719505e+00 1.353733e+01 0 -1 1 -8.362817e-01 -2.402583e-01 2.663422e-01 4.146935e-01
80 1 2 -1.641291e+01 4.359116e+00 1.364304e+01 0 -1 1 8.663134e-01 2.917166e-01 -4.046866e-01 -2.512659e-02
81 1 4 -1.787091e+01 4.972596e+00 1.393449e+01 0 -1 1 -2.376718e-01 5.956539e-01 7.671183e-01 -1.543000e-02
82 1 4 -1.824589e+01 4.197261e+00 1.295146e+01 0 -1 1 2.627037e-01 -1.622181e-01 8.181268e-01 4.851191e-01
83 1 4 -1.853626e+01 4.610587e+00 1.443549e+01 0 -1 1 2.081652e-01 -7.439730e-01 1.800944e-01 -6.088821e-01
84 1 4 -1.932116e+01 4.201489e+00 1.431487e+01 0 -1 1 -2.741745e-01 -2.633209e-01 -6.273270e-02 9.227974e-01
85 1 1 -1.915808e+01 3.894202e+00 1.355275e+01 0 -1 1 -7.008274e-01 -6.330926e-01 -3.068624e-01 -1.177717e-01
86 1 1 -1.990870e+01 4.412783e+00 1.369591e+01 0 -1 1 1.462678e-01 9.491232e-01 2.761433e-01 3.893261e-02
87 1 3 1.938488e+01 3.867056e+00 1.294056e+01 -1 -1 1 -6.007355e-01 -6.955403e-01 6.683054e-02 3.884254e-01
88 1 2 1.831336e+01 4.532091e+00 1.282574e+01 -1 -1 1 -3.280388e-01 -5.129405e-01 -7.894331e-01 -7.796073e-02
89 1 2 1.845382e+01 4.582761e+00 1.233279e+01 -1 -1 1 2.682244e-01 7.146199e-01 5.034806e-01 4.048227e-01
90 1 3 1.864348e+01 4.860593e+00 1.199218e+01 -1 -1 1 3.155148e-02 8.904188e-01 2.462693e-02 4.533788e-01
91 1 3 1.902133e+01 4.948442e+00 1.163146e+01 -1 -1 1 -6.783070e-02 8.376350e-01 -2.765572e-01 4.661359e-01
92 1 2 1.951331e+01 5.069351e+00 1.173736e+01 -1 -1 1 3.897781e-01 -6.276137e-01 6.297913e-01 -2.398686e-01
93 1 1 2.001888e+01 5.038641e+00 1.175538e+01 -1 -1 1 4.831468e-01 -3.423168e-01 7.920162e-01 -1.486566e-01
94 1 2 1.928081e+01 5.808760e+00 1.251478e+01 -1 -1 1 -1.156062e-01 -9.651246e-02 9.795599e-02 -9.837302e-01
95 1 3 1.932661e+01 6.053160e+00 1.294487e+01 -1 -1 1 3.156035e-01 -1.758582e-01 1.811206e-01 -9.146932e-01
96 1 2 1.924683e+01 6.128152e+00 1.344051e+01 -1 -1 1 6.514208e-01 -6.712413e-02 2.418167e-01 -7.160098e-01
97 1 2 1.918507e+01 7.102916e+00 1.341187e+01 -1 -1 1 -6.185382e-01 5.454257e-01 4.826912e-01 -2.948397e-01
98 1 4 1.868154e+01 7.092386e+00 1.231380e+01 -1 -1 1 3.759306e-02 3.921962e-01 9.190313e-01 1.226004e-02
99 1 2 1.961754e+01 7.096165e+00 1.212178e+01 -1 -1 1 5.895280e-01 1.895722e-01 -7.798099e-01 -9.173753e-02
100 1 1 -1.969378e+01 7.343125e+00 1.097592e+01 0 -1 1 8.245893e-01 1.470048e-01 5.462492e-01 7.345151e-03
101 2 4 -7.255847e+00 1.618242e+01 1.167552e+01 0 -1 1 3.635782e-01 6.680169e-01 -6.447700e-01 7.639324e-02
102 2 3 -7.217058e+00 1.569799e+01 1.133028e+01 0 -1 1 3.692385e-01 4.076748e-01 -7.830097e-01 2.904478e-01
103 2 1 -7.931182e+00 1.682428e+01 1.060200e+01 0 -1 1 -3.534619e-01 -4.552097e-01 -8.113173e-01 9.804594e-02
104 2 3 -7.411096e+00 1.673452e+01 9.863274e+00 0 -1 1 7.907548e-01 5.851268e-02 6.079059e-01 -4.163460e-02
105 2 3 -7.000046e+00 1.646208e+01 9.946484e+00 0 -1 1 7.168772e-01 1.929885e-01 5.446084e-01 3.901849e-01
106 2 2 -6.543698e+00 1.636181e+01 9.741893e+00 0 -1 1 5.614317e-01 4.471401e-01 3.528454e-01 6.003002e-01
107 2 3 -6.310335e+00 1.545857e+01 1.019384e+01 0 -1 1 4.516620e-01 5.841878e-02 -5.943447e-01 6.628296e-01
108 2 4 -6.420252e+00 1.509282e+01 1.054293e+01 0 -1 1 2.395022e-01 -3.015172e-01 -5.970250e-01 7.037664e-01
109 2 3 -6.728858e+00 1.471376e+01 1.076854e+01 0 -1 1 1.944827e-01 -4.456046e-01 -5.086525e-01 7.105531e-01
110 2 2 -6.986280e+00 1.364850e+01 1.141919e+01 0 -1 1 -1.449932e-01 5.037641e-02 9.119362e-01 -3.805411e-01
111 2 2 -7.077677e+00 1.321819e+01 1.119630e+01 0 -1 1 -1.685651e-01 3.034498e-01 8.195503e-01 -4.558961e-01
112 2 3 -6.359869e+00 1.198447e+01 1.073885e+01 0 -1 1 -9.117991e-01 -1.078396e-02 -2.030426e-01 3.567628e-01
113 2 3 -6.322042e+00 1.161502e+01 1.112377e+01 0 -1 1 9.834095e-01 1.470920e-01 1.052969e-01 1.350242e-02
114 2 2 -6.849198e+00 1.244973e+01 1.236221e+01 0 -1 1 -4.514603e-01 4.542065e-01 4.787588e-01 -6.005581e-01
115 2 4 -7.778388e+00 1.224135e+01 1.277032e+01 0 -1 1 -2.362658e-01 -4.785584e-02 -2.390986e-01 9.405956e-01
116 2 4 -7.807999e+00 1.207592e+01 1.328959e+01 0 -1 1 -6.698188e-01 -1.800741e-01 -1.786999e-01 6.978412e-01
117 2 1 -8.152088e+00 1.189067e+01 1.355289e+01 0 -1 1 8.820048e-01 2.172442e-01 -1.249869e-01 -3.990623e-01
118 2 1 -8.808124e+00 1.232073e+01 1.469818e+01 0 -1 1 -4.354474e-01 2.489125e-01 7.911988e-01 -3.499037e-01
119 2 1 -9.120203e+00 1.185384e+01 1.472001e+01 0 -1 1 2.508226e-01 -4.684303e-01 -7.155346e-01 4.535101e-01
120 2 1 -9.544826e+00 1.143326e+01 1.454846e+01 0 -1 1 3.706163e-01 -4.380015e-01 -6.250474e-01 5.292580e-01
121 2 3 -1.010527e+01 1.027555e+01 1.387390e+01 0 -1 1 1.549599e-01 -1.616389e-01 9.473578e-01 -2.288526e-01
122 2 1 -1.055163e+01 1.112905e+01 1.322226e+01 0 -1 1 2.917097e-01 -4.532314e-01 -7.993599e-01 -2.655380e-01
123 2 4 -1.081669e+01 1.131927e+01 1.288999e+01 0 -1 1 -3.283704e-01 7.239975e-01 5.953347e-01 1.165206e-01
124 2 1 -1.087564e+01 1.171699e+01 1.253728e+01 0 -1 1 -4.436754e-01 7.783484e-01 3.930643e-01 2.069452e-01
125 2 4 -1.087629e+01 1.232976e+01 1.271000e+01 0 -1 1 6.848044e-01 -1.315443e-01 -4.697823e-01 5.413350e-01
126 2 2 -1.152457e+01 1.316975e+01 1.229266e+01 0 -1 1 1.893941e-01 5.665376e-01 7.364280e-01 3.175514e-01
127 2 4 -1.183987e+01 1.341673e+01 1.278284e+01 0 -1 1 5.365586e-01 -3.328978e-01 -2.614812e-01 7.300079e-01
128 2 4 -1.270766e+01 1.243207e+01 1.296261e+01 0 -1 1 6.901698e-01 9.509716e-02 -5.944085e-01 -4.016225e-01
129 2 1 -1.294615e+01 1.297391e+01 1.260387e+01 0 -1 1 7.032322e-01 5.552776e-01 -3.179389e-01 -3.099129e-01
130 2 2 -1.383445e+01 1.274488e+01 1.245279e+01 0 -1 1 3.068360e-02 -3.714531e-01 -9.269141e-01 4.371822e-02
131 2 3 -1.412428e+01 1.261512e+01 1.203797e+01 0 -1 1 7.370878e-02 -5.914133e-01 -7.966883e-01 1.004242e-01
132 2 4 -1.453019e+01 1.261254e+01 1.176627e+01 0 -1 1 -1.016386e-01 -9.031111e-01 -3.865633e-01 1.569358e-01
133 2 4 -1.509383e+01 1.209074e+01 1.156645e+01 0 -1 1 -3.777859e-02 -8.449626e-01 -4.899526e-01 2.110861e-01
134 2 3 -1.538306e+01 1.218294e+01 1.124699e+01 0 -1 1 2.603511e-01 9.442629e-01 4.814713e-02 -1.956189e-01
135 2 4 -1.533892e+01 1.217433e+01 1.077194e+01 0 -1 1 -2.333649e-01 -8.675970e-01 4.359266e-01 5.276644e-02
136 2 3 -1.631712e+01 1.186460e+01 1.049577e+01 0 -1 1 3.067700e-01 -4.882175e-01 8.007040e-01 1.625085e-01
137 2 1 -1.660927e+01 1.182794e+01 1.017191e+01 0 -1 1 1.972527e-01 -7.480267e-01 6.300997e-01 6.724458e-02
138 2 3 -1.651345e+01 1.175816e+01 9.540635e+00 0 -1 1 -8.241118e-02 -6.865767e-01 7.163611e-01 -9.299311e-02
139 2 2 -1.779675e+01 1.144699e+01 9.346757e+00 0 -1 1 -3.683039e-01 2.738716e-01 8.153954e-01 3.528127e-01
140 2 3 -1.759905e+01 1.102487e+01 9.396786e+00 0 -1 1 3.628518e-01 7.662746e-01 -5.294470e-01 -2.911588e-02
141 2 1 -1.752628e+01 1.079341e+01 8.884689e+00 0 -1 1 3.210451e-01 6.211241e-01 -6.994800e-01 1.478599e-01
142 2 2 -1.737662e+01 1.040506e+01 8.540133e+00 0 -1 1 -3.260293e-01 -3.553341e-01 8.412501e-01 -2.444193e-01
143 2 4 -1.732739e+01 9.870579e+00 8.390339e+00 0 -1 1 -2.648190e-01 -1.758063e-01 8.430301e-01 -4.338932e-01
144 2 4 -1.747350e+01 9.366557e+00 8.308341e+00 0 -1 1 -2.388879e-01 1.039722e-01 8.449855e-01 -4.670352e-01
145 2 1 -1.774264e+01 8.982011e+00 8.507140e+00 0 -1 1 5.538086e-02 -3.752165e-01 -6.450297e-01 6.633869e-01
146 2 1 -1.817874e+01 8.719974e+00 8.634279e+00 0 -1 1 4.756372e-02 5.760020e-01 4.892878e-01 -6.531132e-01
147 2 1 -1.865667e+01 8.614526e+00 8.666616e+00 0 -1 1 -1.783639e-01 -7.119957e-01 -2.315253e-01 6.384704e-01
148 2 2 -1.919911e+01 8.452781e+00 8.553963e+00 0 -1 1 2.253074e-01 8.158172e-01 1.763468e-01 -5.025740e-01
149 2 4 -1.966517e+01 8.377860e+00 8.202453e+00 0 -1 1 -2.969365e-01 -8.940548e-01 5.904277e-02 3.301647e-01
150 2 1 -1.990591e+01 8.260680e+00 7.646444e+00 0 -1 1 -5.000558e-01 -7.907423e-01 3.387426e-01 9.962025e-02
151 2 1 2.002895e+01 7.845133e+00 7.281212e+00 -1 -1 1 -5.226254e-01 -7.147452e-01 4.390641e-01 -1.523964e-01
152 2 1 -1.983440e+01 7.337404e+00 7.025612e+00 0 -1 1 -4.919314e-01 -5.514140e-01 5.788848e-01 -3.447294e-01
153 2 4 -1.972193e+01 6.795974e+00 6.863560e+00 0 -1 1 -4.589044e-01 -3.019596e-01 6.860428e-01 -4.770456e-01
154 2 1 -1.980421e+01 6.298221e+00 6.863551e+00 0 -1 1 -4.491761e-01 -2.262395e-01 6.372402e-01 -5.839362e-01
155 2 2 -1.977370e+01 5.917770e+00 7.130487e+00 0 -1 1 -1.960721e-01 1.731429e-02 6.073179e-01 -7.696888e-01
156 2 4 -1.997579e+01 5.527567e+00 7.561328e+00 0 -1 1 -2.504082e-02 2.505560e-01 5.654807e-01 -7.853829e-01
157 2 3 1.970962e+01 5.304197e+00 7.904315e+00 -1 -1 1 1.731533e-01 4.489237e-01 4.090887e-01 -7.753269e-01
158 2 2 1.927222e+01 5.048058e+00 8.023976e+00 -1 -1 1 4.529223e-01 5.968231e-01 2.337569e-01 -6.196945e-01
159 2 1 1.880704e+01 4.804888e+00 8.078199e+00 -1 -1 1 5.539450e-01 6.726804e-01 6.459204e-02 -4.862858e-01
160 2 3 1.846916e+01 4.566321e+00 7.833051e+00 -1 -1 1 -6.731066e-01 -6.673766e-01 1.688527e-01 2.702308e-01
161 2 1 1.811464e+01 4.158858e+00 7.653506e+00 -1 -1 1 -7.254203e-01 -6.218386e-01 2.751952e-01 1.065352e-01
162 2 1 1.793247e+01 3.681655e+00 7.468096e+00 -1 -1 1 -6.863694e-01 -6.571083e-01 2.960559e-01 -9.724525e-02
163 2 4 1.801205e+01 3.198519e+00 7.225206e+00 -1 -1 1 -5.649787e-01 -6.047802e-01 4.278033e-01 -3.633515e-01
164 2 4 1.823759e+01 2.740492e+00 7.201819e+00 -1 -1 1 -3.526624e-01 -5.272233e-01 4.621679e-01 -6.197303e-01
165 2 3 1.858541e+01 2.366182e+00 7.385014e+00 -1 -1 1 -2.328455e-01 -3.230733e-01 5.281045e-01 -7.500082e-01
166 2 3 1.873070e+01 2.006988e+00 7.710898e+00 -1 -1 1 -7.934418e-02 -1.979008e-01 4.478938e-01 -8.682919e-01
167 2 4 1.882656e+01 1.804645e+00 8.234315e+00 -1 -1 1 2.387151e-01 2.560642e-02 5.520691e-01 -7.984855e-01
168 2 2 1.884341e+01 1.485760e+00 8.578124e+00 -1 -1 1 4.014456e-01 1.823459e-01 4.523762e-01 -7.752078e-01
169 2 2 1.855795e+01 1.102509e+00 8.983065e+00 -1 -1 1 4.197007e-01 3.788908e-01 3.182148e-01 -7.609418e-01
170 2 1 1.809851e+01 9.153676e-01 9.099730e+00 -1 -1 1 5.843659e-01 5.597928e-01 5.496343e-02 -5.849167e-01
171 2 1 1.770866e+01 4.515074e-01 9.195201e+00 -1 -1 1 -6.985472e-01 -6.165995e-01 -6.072823e-02 3.579790e-01
172 2 4 1.749252e+01 -2.229322e-03 9.050094e+00 -1 -1 1 -7.275171e-01 -6.752528e-01 6.876365e-02 1.001205e-01
173 2 4 1.740189e+01 -5.303356e-01 8.940506e+00 -1 -1 1 -7.607504e-01 -5.974618e-01 1.871765e-01 -1.710650e-01
174 2 1 1.769566e+01 -1.004074e+00 8.800320e+00 -1 -1 1 -5.774990e-01 -6.142854e-01 2.688187e-01 -4.657089e-01
175 2 1 1.807671e+01 -1.333715e+00 8.756996e+00 -1 -1 1 -4.063358e-01 -5.220567e-01 3.558819e-01 -6.600728e-01
176 2 2 1.847060e+01 -1.681613e+00 8.989319e+00 -1 -1 1 -2.364420e-01 -2.393122e-01 5.004178e-01 -7.977511e-01
177 2 2 1.858289e+01 -1.918989e+00 9.449437e+00 -1 -1 1 -1.476894e-02 -4.020867e-02 5.504173e-01 -8.337901e-01
178 2 1 1.865519e+01 -2.227996e+00 9.926768e+00 -1 -1 1 1.128497e-01 9.853657e-02 4.533340e-01 -8.786602e-01
179 2 4 1.843895e+01 -2.504824e+00 1.025319e+01 -1 -1 1 3.325645e-01 2.911525e-01 4.231080e-01 -7.909555e-01
180 2 1 1.809671e+01 -2.693109e+00 1.049558e+01 -1 -1 1 5.339670e-01 4.605563e-01 2.344697e-01 -6.691720e-01
181 2 4 1.759246e+01 -3.126006e+00 1.063811e+01 -1 -1 1 -7.008348e-01 -4.882798e-01 -1.945939e-01 4.822309e-01
182 2 2 1.735740e+01 -3.618540e+00 1.062354e+01 -1 -1 1 -8.077643e-01 -5.513172e-01 -4.953279e-02 2.027626e-01
183 2 3 1.732694e+01 -4.133408e+00 1.043299e+01 -1 -1 1 -7.711228e-01 -6.136988e-01 1.494321e-01 -8.008395e-02
184 2 4 1.746290e+01 -4.597827e+00 1.032134e+01 -1 -1 1 -6.434750e-01 -6.378616e-01 2.463071e-01 -3.441008e-01
185 2 3 1.786648e+01 -5.115990e+00 1.026841e+01 -1 -1 1 5.488339e-01 4.924578e-01 -2.755315e-01 6.167245e-01
186 2 1 1.820841e+01 -5.360883e+00 1.051247e+01 -1 -1 1 3.048314e-01 3.020076e-01 -4.909647e-01 7.581707e-01
187 2 1 1.837918e+01 -5.698186e+00 1.085907e+01 -1 -1 1 -1.479540e-01 -1.310608e-01 5.044542e-01 -8.405109e-01
188 2 2 1.833596e+01 -5.838506e+00 1.140391e+01 -1 -1 1 -1.835852e-01 -4.832686e-02 -4.858515e-01 8.531760e-01
189 2 4 1.812906e+01 -6.182980e+00 1.183919e+01 -1 -1 1 -3.015645e-01 -2.656807e-01 -4.337895e-01 8.064114e-01
190 2 4 1.777889e+01 -6.494318e+00 1.208078e+01 -1 -1 1 5.411226e-01 4.399252e-01 3.522042e-01 -6.241829e-01
191 2 1 1.734825e+01 -6.953750e+00 1.221841e+01 -1 -1 1 6.798997e-01 5.774368e-01 2.212857e-01 -3.941267e-01
192 2 4 1.722352e+01 -7.444101e+00 1.210236e+01 -1 -1 1 -7.029201e-01 -6.778308e-01 -1.305693e-01 1.714654e-01
193 2 4 1.721836e+01 -7.877649e+00 1.183472e+01 -1 -1 1 7.427595e-01 6.607265e-01 -4.778790e-02 9.728908e-02
194 2 1 1.736681e+01 -8.378529e+00 1.183998e+01 -1 -1 1 -7.007412e-01 -6.594908e-01 5.864981e-03 -2.720280e-01
195 2 3 1.781044e+01 -8.779314e+00 1.187538e+01 -1 -1 1 -6.309411e-01 -4.656292e-01 2.287805e-01 -5.768555e-01
196 2 4 1.821317e+01 -9.052911e+00 1.219437e+01 -1 -1 1 3.396638e-01 3.874028e-01 -2.587891e-01 8.170531e-01
197 2 2 1.853805e+01 -9.374727e+00 1.252373e+01 -1 -1 1 -2.268730e-01 -1.996704e-01 3.046983e-01 -9.032272e-01
198 2 4 1.871772e+01 -9.346763e+00 1.301441e+01 -1 -1 1 7.905914e-02 -1.064093e-01 3.036287e-01 -9.435234e-01
199 2 3 1.861348e+01 -9.412894e+00 1.351626e+01 -1 -1 1 -4.971154e-01 -4.306981e-03 -3.401894e-01 7.982036e-01
200 2 4 1.879070e+01 -8.967950e+00 1.412223e+01 -1 -1 1 -7.470730e-01 -4.418252e-02 3.213719e-01 -5.802154e-01
