ITEM: TIMESTEP
271000000
ITEM: NUMBER OF ATOMS
200
ITEM: BOX BOUNDS pp pp pp
-2.0000000000000000e+01 2.0000000000000000e+01
-2.0000000000000000e+01 2.0000000000000000e+01
-2.0000000000000000e+01 2.0000000000000000e+01
ITEM: ATOMS id mol type x y z ix iy iz c_quat[1] c_quat[2] c_quat[3] c_quat[4]
1 1 1 7.060952e+00 -6.891286e+00 -1.439380e+01 -1 0 2 -4.207233e-01 -6.827871e-01 5.911171e-01 8.587366e-02
2 1 2 6.808891e+00 -7.296969e+00 -1.465237e+01 -1 0 2 -5.332780e-01 -4.948253e-01 6.703763e-01 -1.461441e-01
3 1 1 6.743729e+00 -7.848737e+00 -1.485044e+01 -1 0 2 -4.145344e-01 -2.994935e-01 7.671901e-01 -3.871489e-01
4 1 3 6.846348e+00 -8.362514e+00 -1.481894e+01 -1 0 2 2.365508e-01 9.595984e-03 -8.468309e-01 4.762658e-01
5 1 1 6.510835e+00 -8.814825e+00 -1.476089e+01 -1 0 2 1.603178e-01 -3.225196e-01 -7.734419e-01 5.216004e-01
6 1 2 6.144601e+00 -9.109441e+00 -1.463457e+01 -1 0 2 -1.303632e-02 -5.608254e-01 -6.216026e-01 5.467312e-01
7 1 4 5.677472e+00 -9.305898e+00 -1.469844e+01 -1 0 2 -1.840139e-01 -7.360594e-01 -4.495422e-01 4.714522e-01
8 1 1 5.237037e+00 -9.515255e+00 -1.495368e+01 -1 0 2 1.695795e-01 8.462849e-01 3.360725e-01 -3.769615e-01
9 1 1 4.908290e+00 -9.483692e+00 -1.529463e+01 -1 0 2 -3.125924e-01 -9.052032e-01 -4.611549e-02 2.841946e-01
10 1 4 4.678874e+00 -9.539886e+00 -1.581934e+01 -1 0 2 4.138119e-01 8.767262e-01 -2.200575e-01 -1.080999e-01
11 1 1 4.713185e+00 -9.669755e+00 -1.629686e+01 -1 0 2 3.849152e-01 7.784255e-01 -4.958439e-01 -5.735238e-03
12 1 1 4.813747e+00 -9.859447e+00 -1.679347e+01 -1 0 2 -3.526778e-01 -6.001252e-01 7.001819e-01 -1.587873e-01
13 1 3 4.995437e+00 -1.035400e+01 -1.708619e+01 -1 0 2 2.393877e-01 3.810436e-01 -8.336907e-01 3.200924e-01
14 1 4 5.054988e+00 -1.082443e+01 -1.726845e+01 -1 0 2 -2.282113e-01 -2.296434e-01 8.212724e-01 -4.697819e-01
15 1 4 5.003922e+00 -1.145259e+01 -1.716396e+01 -1 0 2 -1.150410e-01 8.504475e-02 8.270563e-01 -5.436091e-01
16 1 2 4.659921e+00 -1.189879e+01 -1.715444e+01 -1 0 2 1.966320e-02 -4.293373e-01 -7.563515e-01 4.931686e-01
17 1 1 4.204709e+00 -1.213651e+01 -1.718552e+01 -1 0 2 -7.073198e-02 -6.418652e-01 -5.774732e-01 4.995306e-01
18 1 2 3.713505e+00 -1.237393e+01 -1.737911e+01 -1 0 2 1.298713e-01 7.913283e-01 4.009194e-01 -4.429409e-01
19 1 3 3.249474e+00 -1.234529e+01 -1.771683e+01 -1 0 2 3.014230e-01 8.949529e-01 6.827040e-02 -3.217805e-01
20 1 1 3.052661e+00 -1.269073e+01 -1.817525e+01 -1 0 2 3.727067e-01 9.209153e-01 1.998770e-02 -1.122728e-01
21 1 4 2.959206e+00 -1.288129e+01 -1.863448e+01 -1 0 2 -3.493547e-01 -9.142112e-01 2.047271e-01 -1.600061e-02
22 1 1 3.022006e+00 -1.305440e+01 -1.911517e+01 -1 0 2 -2.820441e-01 -8.913527e-01 3.030162e-01 -1.847233e-01
23 1 4 3.476390e+00 -1.303004e+01 -1.932481e+01 -1 0 2 -6.646635e-02 -7.895905e-01 5.823049e-01 -1.817968e-01
24 1 3 3.829738e+00 -1.314322e+01 -1.966410e+01 -1 0 2 -1.495883e-03 -5.684923e-01 7.924621e-01 -2.209480e-01
25 1 3 4.129470e+00 -1.356436e+01 -1.982988e+01 -1 0 2 1.167420e-01 -2.349056e-01 9.139250e-01 -3.097287e-01
26 1 4 4.364320e+00 -1.412093e+01 -1.999588e+01 -1 0 2 1.597197e-01 8.349057e-03 9.483787e-01 -2.738573e-01
27 1 4 4.469524e+00 -1.446497e+01 1.972912e+01 -1 0 1 1.280103e-01 2.419087e-01 8.798913e-01 -3.884390e-01
28 1 1 4.198669e+00 -1.493123e+01 1.963882e+01 -1 0 1 3.072748e-01 5.131067e-01 7.390514e-01 -3.100109e-01
29 1 1 3.941630e+00 -1.527064e+01 1.928301e+01 -1 0 1 3.564309e-01 7.188891e-01 5.803404e-01 -1.391420e-01
30 1 4 3.835308e+00 -1.552181e+01 1.878588e+01 -1 0 1 -3.397829e-01 -8.577920e-01 -3.856169e-01 6.328645e-03
31 1 4 3.811143e+00 -1.548406e+01 1.824579e+01 -1 0 1 -2.384171e-01 -9.555035e-01 -1.133267e-01 -1.316339e-01
32 1 3 4.036185e+00 -1.541693e+01 1.771343e+01 -1 0 1 -2.463596e-01 -8.907451e-01 2.214601e-01 -3.111840e-01
33 1 3 4.483615e+00 -1.556475e+01 1.738998e+01 -1 0 1 -2.086252e-01 -7.035070e-01 5.273764e-01 -4.282845e-01
34 1 1 4.863417e+00 -1.599967e+01 1.713400e+01 -1 0 1 -1.705108e-01 -5.965542e-01 5.031191e-01 -6.015981e-01
35 1 2 5.304144e+00 -1.623095e+01 1.723309e+01 -1 0 1 4.566073e-02 -3.884342e-01 5.789315e-01 -7.154525e-01
36 1 2 5.577899e+00 -1.658479e+01 1.753335e+01 -1 0 1 2.972257e-01 -1.504734e-01 7.568277e-01 -5.623402e-01
37 1 1 5.569673e+00 -1.724778e+01 1.769061e+01 -1 0 1 4.351325e-01 1.035886e-01 7.813396e-01 -4.352441e-01
38 1 1 5.612297e+00 -1.778269e+01 1.765608e+01 -1 0 1 4.524325e-01 3.350673e-01 7.596602e-01 -3.255012e-01
39 1 4 5.742939e+00 -1.824850e+01 1.748414e+01 -1 0 1 -4.130258e-01 -5.274923e-01 -7.146024e-01 2.012585e-01
40 1 4 5.628654e+00 -1.862551e+01 1.711334e+01 -1 0 1 -3.931361e-01 -7.673280e-01 -5.065913e-01 4.127375e-03
41 1 2 5.630469e+00 -1.883484e+01 1.664263e+01 -1 0 1 -3.008761e-01 -8.998753e-01 -3.096269e-01 -6.188029e-02
42 1 4 5.740839e+00 -1.888101e+01 1.611545e+01 -1 0 1 1.415353e-01 9.643502e-01 1.715983e-01 1.433546e-01
43 1 3 5.810814e+00 -1.858981e+01 1.573488e+01 -1 0 1 5.284578e-02 -9.802218e-01 1.011716e-01 -1.616691e-01
44 1 2 6.182941e+00 -1.842287e+01 1.532623e+01 -1 0 1 2.111329e-02 -8.788089e-01 4.253412e-01 -2.152535e-01
45 1 1 6.631301e+00 -1.839921e+01 1.505977e+01 -1 0 1 5.276857e-02 -6.422740e-01 7.425662e-01 -1.824693e-01
46 1 3 6.907632e+00 -1.857712e+01 1.461306e+01 -1 0 1 9.448731e-03 -4.813335e-01 8.379070e-01 -2.571781e-01
47 1 4 7.144530e+00 -1.888981e+01 1.433049e+01 -1 0 1 1.071692e-02 -1.633906e-01 9.581916e-01 -2.346434e-01
48 1 1 7.144540e+00 -1.932992e+01 1.411201e+01 -1 0 1 -7.941942e-02 -1.830852e-01 -9.358931e-01 2.903041e-01
49 1 4 7.026060e+00 -1.978775e+01 1.396439e+01 -1 0 1 -1.187737e-01 -4.610504e-01 -8.155100e-01 3.290422e-01
50 1 4 6.674681e+00 1.988211e+01 1.350080e+01 -1 -1 1 -4.298744e-02 -5.932500e-01 -7.826375e-01 1.835351e-01
51 1 4 6.269815e+00 1.982011e+01 1.310394e+01 -1 -1 1 -1.155144e-01 -8.648536e-01 -4.821401e-01 7.890223e-02
52 1 1 6.136555e+00 1.999916e+01 1.260671e+01 -1 -1 1 -1.412017e-01 -9.855876e-01 -9.255770e-02 -1.059309e-02
53 1 3 6.307657e+00 -1.988654e+01 1.213795e+01 -1 0 1 6.572378e-03 9.570257e-01 -2.560912e-01 1.359262e-01
54 1 4 6.626079e+00 -1.962982e+01 1.188208e+01 -1 0 1 -2.066618e-01 8.407426e-01 -4.508116e-01 2.172826e-01
55 1 4 7.021915e+00 -1.943616e+01 1.159942e+01 -1 0 1 -2.479331e-01 7.263582e-01 -6.021921e-01 2.197671e-01
56 1 4 7.561063e+00 -1.938005e+01 1.150986e+01 -1 0 1 3.006707e-01 -5.733318e-01 7.487750e-01 -1.422105e-01
57 1 1 7.963232e+00 -1.954237e+01 1.133978e+01 -1 0 1 3.816262e-01 -2.384188e-01 8.873459e-01 -1.006739e-01
58 1 1 8.360428e+00 -1.980059e+01 1.100344e+01 -1 0 1 -2.793174e-01 -9.385255e-02 -9.527268e-01 -7.406145e-02
59 1 3 8.485022e+00 1.997788e+01 1.055369e+01 -1 -1 1 -2.123912e-01 -3.646837e-01 -8.682056e-01 -2.609883e-01
60 1 4 8.956140e+00 1.977318e+01 1.027029e+01 -1 -1 1 -4.963460e-01 8.062535e-02 -5.640191e-01 6.549982e-01
61 1 2 9.293132e+00 -1.955135e+01 9.774513e+00 -1 0 1 2.494958e-02 2.431910e-01 9.678599e-01 -5.901515e-02
62 1 3 1.015161e+01 -1.996105e+01 9.719274e+00 -1 0 1 -7.161003e-01 -5.155786e-01 -4.158600e-01 -2.200896e-01
63 1 2 1.049771e+01 1.975394e+01 9.456068e+00 -1 -1 1 5.383137e-01 7.089938e-01 2.722114e-01 3.653042e-01
64 1 4 1.042419e+01 1.846379e+01 1.009090e+01 -1 -1 1 -6.821548e-01 1.901556e-01 7.045923e-01 4.533694e-02
65 1 2 9.982548e+00 1.836394e+01 1.019752e+01 -1 -1 1 -6.878310e-01 3.174316e-01 5.723374e-01 -3.139358e-01
66 1 1 9.572784e+00 1.831865e+01 1.052728e+01 -1 -1 1 6.659457e-01 -3.854691e-01 -4.202354e-01 4.809700e-01
67 1 2 8.380346e+00 1.749409e+01 9.762877e+00 -1 -1 1 -4.577062e-01 -2.186692e-01 -4.702238e-01 7.222039e-01
68 1 1 8.177232e+00 1.702465e+01 1.000247e+01 -1 -1 1 6.861591e-01 4.120377e-01 4.259795e-01 -4.218438e-01
69 1 1 8.576886e+00 1.647277e+01 1.012138e+01 -1 -1 1 -3.489138e-01 7.629982e-01 -4.832649e-01 2.500958e-01
70 1 2 7.472860e+00 1.679095e+01 1.051193e+01 -1 -1 1 1.381486e-01 -5.157505e-01 -7.611305e-01 -3.682346e-01
71 1 3 7.898767e+00 1.558610e+01 1.101680e+01 -1 -1 1 -8.936452e-01 3.469029e-01 -7.968538e-02 2.733258e-01
72 1 4 8.006696e+00 1.540948e+01 1.146885e+01 -1 -1 1 -9.575821e-01 2.001278e-01 -1.752308e-01 -1.108135e-01
73 1 1 7.957543e+00 1.559844e+01 1.201333e+01 -1 -1 1 9.754811e-01 9.245854e-03 1.951464e-01 -1.013366e-01
74 1 1 8.237190e+00 1.630729e+01 1.316507e+01 -1 -1 1 6.836177e-01 -7.091979e-01 -8.256738e-02 1.512874e-01
75 1 3 8.323413e+00 1.635362e+01 1.312960e+01 -1 -1 1 2.930957e-01 -4.660188e-01 5.107494e-01 6.603456e-01
76 1 1 7.525388e+00 1.672966e+01 1.399450e+01 -1 -1 1 -2.701811e-01 -6.244784e-01 -4.781474e-01 -5.553413e-01
77 1 4 8.034367e+00 1.653203e+01 1.458163e+01 -1 -1 1 -7.716607e-01 -3.410052e-01 -3.009649e-01 -4.446069e-01
78 1 1 7.857285e+00 1.580605e+01 1.496738e+01 -1 -1 1 -5.234884e-01 -1.901690e-01 -6.030361e-02 8.283472e-01
79 1 4 7.504814e+00 1.555762e+01 1.531234e+01 -1 -1 1 8.268150e-01 2.342449e-01 -1.167646e-02 -5.112436e-01
80 1 2 7.288347e+00 1.519722e+01 1.560445e+01 -1 -1 1 9.413913e-01 2.633181e-01 -7.348279e-02 -1.976012e-01
81 1 4 7.127741e+00 1.486875e+01 1.607139e+01 -1 -1 1 9.601873e-01 2.791977e-01 -6.201656e-03 7.104125e-03
82 1 4 7.241351e+00 1.438719e+01 1.623640e+01 -1 -1 1 -8.736060e-01 -3.209702e-01 1.485314e-01 -3.342589e-01
83 1 4 6.935647e+00 1.378647e+01 1.552983e+01 -1 -1 1 9.437470e-01 -1.688942e-01 1.324125e-01 -2.515616e-01
84 1 4 6.754285e+00 1.455313e+01 1.513411e+01 -1 -1 1 -5.707164e-01 8.012653e-01 -1.754101e-01 -3.857501e-02
85 1 1 5.818901e+00 1.460235e+01 1.488539e+01 -1 -1 1 -5.004500e-01 7.207381e-01 4.304147e-01 -2.117301e-01
86 1 1 5.456297e+00 1.502549e+01 1.477879e+01 -1 -1 1 -4.263861e-01 8.439552e-01 3.536640e-02 -3.235488e-01
87 1 3 4.796297e+00 1.366276e+01 1.443751e+01 -1 -1 1 3.844607e-01 1.188263e-01 -7.594726e-01 -5.111473e-01
88 1 2 4.377090e+00 1.387352e+01 1.432092e+01 -1 -1 1 4.891503e-01 1.823011e-01 -7.910220e-01 -3.190336e-01
89 1 2 3.885972e+00 1.378214e+01 1.407144e+01 -1 -1 1 5.913916e-01 -7.729349e-02 -7.885561e-01 -1.498698e-01
90 1 3 3.506666e+00 1.367612e+01 1.408446e+01 -1 -1 1 -4.374075e-01 3.891299e-01 7.374438e-01 -3.367926e-01
91 1 3 3.035837e+00 1.421106e+01 1.408439e+01 -1 -1 1 5.449834e-01 -6.057390e-01 -5.727565e-01 8.957277e-02
92 1 2 2.532158e+00 1.448176e+01 1.399006e+01 -1 -1 1 4.872143e-01 -8.062250e-01 -3.000977e-01 1.502160e-01
93 1 1 2.300345e+00 1.503605e+01 1.378196e+01 -1 -1 1 -5.127910e-01 7.616797e-01 -5.630905e-02 -3.920698e-01
94 1 2 1.247437e+00 1.488419e+01 1.418468e+01 -1 -1 1 -3.233518e-01 -1.683581e-01 9.309398e-01 -2.121861e-02
95 1 3 4.940786e-01 1.598598e+01 1.417193e+01 -1 -1 1 2.186335e-01 -6.134676e-01 -4.507166e-01 -6.105010e-01
96 1 2 5.137620e-01 1.651290e+01 1.415251e+01 -1 -1 1 4.672938e-01 -6.876892e-01 -2.317863e-01 -5.049704e-01
97 1 2 5.527579e-01 1.695342e+01 1.427087e+01 -1 -1 1 -5.401823e-01 7.878261e-01 -7.501038e-02 2.861932e-01
98 1 4 8.838472e-01 1.730676e+01 1.444967e+01 -1 -1 1 -6.500994e-01 6.751591e-01 -3.485692e-01 -5.520545e-03
99 1 2 1.295190e+00 1.761368e+01 1.446121e+01 -1 -1 1 -4.434679e-01 4.796830e-01 -6.941211e-01 -3.023842e-01
100 1 1 3.797602e-01 1.793998e+01 1.568825e+01 -1 -1 1 6.791761e-01 -3.578673e-01 -4.704613e-01 -4.351057e-01
101 2 4 7.253168e+00 -1.077415e+01 4.588644e-01 -1 0 1 -8.675810e-01 -5.005057e-02 -3.137764e-01 3.825473e-01
102 2 3 7.435842e+00 -1.113312e+01 6.808215e-01 -1 0 1 9.359251e-01 1.012159e-01 3.069860e-01 1.398536e-01
103 2 1 7.780380e+00 -1.132852e+01 9.772691e-01 -1 0 1 -8.317273e-01 -1.176892e-01 -2.336165e-01 -4.896960e-01
104 2 3 8.148923e+00 -1.132278e+01 1.216952e+00 -1 0 1 -5.138139e-01 -2.697703e-01 -2.848812e-01 -7.629299e-01
105 2 3 8.456226e+00 -1.237247e+01 2.348780e+00 -1 0 1 -8.567386e-01 4.163587e-01 -1.268959e-01 2.766619e-01
106 2 2 8.642257e+00 -1.228295e+01 2.815696e+00 -1 0 1 -8.796103e-01 3.349399e-01 -3.218593e-01 -1.025065e-01
107 2 3 8.062984e+00 -1.188913e+01 3.223716e+00 -1 0 1 -5.751230e-01 6.797871e-01 -1.243062e-01 -4.378024e-01
108 2 4 7.706568e+00 -1.230739e+01 4.161435e+00 -1 0 1 -7.348664e-01 -1.661204e-01 6.493377e-01 -1.036145e-01
109 2 3 7.230902e+00 -1.168410e+01 4.413817e+00 -1 0 1 -4.801847e-01 5.107938e-01 1.377666e-01 -6.996662e-01
110 2 2 6.816467e+00 -1.286191e+01 4.627582e+00 -1 0 1 3.605183e-01 4.462063e-02 4.786913e-01 -7.993060e-01
111 2 2 7.013969e+00 -1.300196e+01 4.743692e+00 -1 0 1 -6.712797e-01 4.865835e-01 3.056738e-01 -4.681705e-01
112 2 3 6.828706e+00 -1.281656e+01 5.134286e+00 -1 0 1 2.681303e-01 -6.237740e-01 -5.710868e-02 7.319499e-01
113 2 3 5.994029e+00 -1.351123e+01 6.208978e+00 -1 0 1 -1.836912e-01 4.829549e-01 -1.664635e-01 8.398226e-01
114 2 2 5.260603e+00 -1.347510e+01 6.316160e+00 -1 0 1 2.149796e-02 -3.221445e-01 -9.332785e-01 -1.573274e-01
115 2 4 5.341723e+00 -1.278819e+01 6.379937e+00 -1 0 1 4.918911e-01 -6.775537e-01 -3.071575e-01 -4.523477e-01
116 2 4 5.222118e+00 -1.242946e+01 6.552950e+00 -1 0 1 7.445369e-01 -6.486456e-01 -9.473107e-02 -1.262923e-01
117 2 1 5.342657e+00 -1.207777e+01 6.899187e+00 -1 0 1 6.526318e-01 -6.457820e-01 2.675186e-01 2.923545e-01
118 2 1 3.742591e+00 -1.253152e+01 7.408279e+00 -1 0 1 -5.823159e-01 2.218239e-01 6.656007e-01 4.107043e-01
119 2 1 3.180793e+00 -1.235126e+01 7.358510e+00 -1 0 1 6.243553e-01 -5.286974e-01 -5.526689e-01 -1.587973e-01
120 2 1 2.813837e+00 -1.208330e+01 7.495395e+00 -1 0 1 6.341438e-01 -7.155002e-01 -2.638782e-01 1.276300e-01
121 2 3 2.042033e+00 -1.155570e+01 6.448139e+00 -1 0 1 -4.041540e-01 -8.044237e-01 -4.328877e-01 4.658724e-02
122 2 1 1.575942e+00 -1.246718e+01 5.858482e+00 -1 0 1 -6.547590e-01 -3.295379e-01 -4.121290e-01 5.411517e-01
123 2 4 1.322322e+00 -1.292296e+01 5.873287e+00 -1 0 1 8.574991e-01 4.516471e-01 1.509404e-01 -1.947493e-01
124 2 1 1.403345e+00 -1.340958e+01 5.916840e+00 -1 0 1 8.689211e-01 4.464342e-01 5.764658e-02 2.057898e-01
125 2 4 1.684603e+00 -1.382506e+01 5.993774e+00 -1 0 1 -7.567533e-01 -3.767402e-01 4.305153e-02 -5.324827e-01
126 2 2 2.134853e+00 -1.398251e+01 6.204136e+00 -1 0 1 4.671060e-01 2.870009e-01 -2.448332e-01 7.996870e-01
127 2 4 2.335518e+00 -1.487441e+01 6.729207e+00 -1 0 1 -8.735759e-01 -2.600423e-01 2.657747e-01 -3.140174e-01
128 2 4 2.349467e+00 -1.532570e+01 7.000617e+00 -1 0 1 -7.787002e-01 -2.850081e-01 2.361574e-01 -5.065827e-01
129 2 1 2.593200e+00 -1.577725e+01 7.218524e+00 -1 0 1 6.201207e-01 2.751788e-01 -2.328583e-01 6.967812e-01
130 2 2 3.035049e+00 -1.632723e+01 7.094469e+00 -1 0 1 7.790236e-01 -1.679415e-01 -5.098315e-01 3.240212e-01
131 2 3 2.800476e+00 -1.638635e+01 7.523611e+00 -1 0 1 5.446121e-01 -3.679818e-01 -3.864950e-01 6.469997e-01
132 2 4 3.723193e+00 -1.697512e+01 7.139079e+00 -1 0 1 5.220700e-01 6.646920e-01 -5.303693e-01 -6.584738e-02
133 2 4 3.851634e+00 -1.710288e+01 7.081453e+00 -1 0 1 -6.736998e-01 -1.176488e-01 -7.267946e-01 6.369322e-02
134 2 3 3.424802e+00 -1.722011e+01 8.136654e+00 -1 0 1 2.384057e-01 -3.141745e-01 -7.968299e-01 -4.577327e-01
135 2 4 3.765394e+00 -1.767213e+01 8.392784e+00 -1 0 1 1.987977e-02 -4.377025e-01 7.608504e-01 4.786731e-01
136 2 3 4.591015e+00 -1.775152e+01 9.131354e+00 -1 0 1 -7.110064e-01 6.243806e-01 2.827876e-01 1.570029e-01
137 2 1 4.008420e+00 -1.822245e+01 9.429065e+00 -1 0 1 -2.717824e-02 -1.693086e-01 -7.461090e-01 6.433640e-01
138 2 3 3.807273e+00 -1.892194e+01 9.245769e+00 -1 0 1 -1.829365e-01 -3.980121e-01 -8.543044e-01 2.797939e-01
139 2 2 4.930459e+00 -1.888337e+01 9.521179e+00 -1 0 1 7.389432e-02 6.763612e-01 1.485434e-01 7.176420e-01
140 2 3 5.639608e+00 -1.975209e+01 9.755839e+00 -1 0 1 5.344391e-01 6.047592e-01 -1.075603e-01 5.805789e-01
141 2 1 5.567371e+00 -1.893199e+01 9.843224e+00 -1 0 1 -1.579156e-01 -7.936756e-01 -4.822397e-01 -3.355391e-01
142 2 2 6.244026e+00 -1.989693e+01 9.659545e+00 -1 0 1 7.486603e-01 8.452374e-02 -3.851228e-01 -5.329577e-01
143 2 4 7.358104e+00 -1.972642e+01 1.031116e+01 -1 0 1 9.228101e-01 2.265079e-01 -2.975751e-01 9.254623e-02
144 2 4 7.291137e+00 1.980361e+01 1.060114e+01 -1 -1 1 8.683377e-01 4.408710e-02 -3.307558e-01 3.669422e-01
145 2 1 7.393765e+00 1.949310e+01 1.111329e+01 -1 -1 1 7.589639e-01 1.172073e-02 -2.347554e-01 6.072284e-01
146 2 1 7.272121e+00 1.937270e+01 1.161039e+01 -1 -1 1 6.407315e-01 -7.393573e-02 -1.430661e-01 7.506855e-01
147 2 1 7.340931e+00 1.939515e+01 1.209831e+01 -1 -1 1 -4.304585e-01 1.008558e-01 5.086990e-02 -8.955143e-01
148 2 2 7.397165e+00 1.974218e+01 1.253026e+01 -1 -1 1 -1.090036e-01 1.613347e-01 -1.412121e-01 -9.706433e-01
149 2 4 7.300112e+00 -1.982714e+01 1.273334e+01 -1 0 1 -1.140360e-01 -8.854170e-02 3.805740e-01 9.134110e-01
150 2 1 6.974569e+00 -1.936842e+01 1.266867e+01 -1 0 1 -4.834316e-01 1.784607e-01 3.615592e-01 7.769946e-01
151 2 1 6.594265e+00 -1.904663e+01 1.301736e+01 -1 0 1 -7.137173e-01 1.224475e-01 2.368196e-01 6.477119e-01
152 2 1 6.392276e+00 -1.886444e+01 1.345451e+01 -1 0 1 -8.330270e-01 1.790352e-02 1.994375e-01 5.157230e-01
153 2 4 6.052942e+00 -1.903652e+01 1.383330e+01 -1 0 1 -9.746102e-01 5.151059e-02 1.386301e-01 1.681167e-01
154 2 1 5.977793e+00 -1.923673e+01 1.441291e+01 -1 0 1 -9.855694e-01 8.010218e-02 -1.563576e-02 -1.482972e-01
155 2 2 6.129102e+00 -1.943443e+01 1.484096e+01 -1 0 1 -8.540829e-01 8.546355e-02 -9.943201e-02 -5.033405e-01
156 2 4 6.487412e+00 -1.955453e+01 1.539625e+01 -1 0 1 -7.200566e-01 1.689304e-01 -1.034155e-01 -6.650460e-01
157 2 3 6.787873e+00 -1.928323e+01 1.581965e+01 -1 0 1 -4.410007e-01 1.892018e-01 -1.659450e-01 -8.615006e-01
158 2 2 6.924052e+00 -1.890680e+01 1.616275e+01 -1 0 1 -2.460781e-01 1.627579e-01 -2.384518e-01 -9.252546e-01
159 2 1 6.834121e+00 -1.854159e+01 1.650754e+01 -1 0 1 -1.711345e-02 2.152699e-01 -3.533773e-01 -9.102145e-01
160 2 3 6.546728e+00 -1.811371e+01 1.654161e+01 -1 0 1 -2.794835e-01 -1.356579e-01 4.888638e-01 8.151675e-01
161 2 1 6.234051e+00 -1.773198e+01 1.654923e+01 -1 0 1 -4.961840e-01 -8.990642e-02 5.575616e-01 6.594265e-01
162 2 1 5.797099e+00 -1.759065e+01 1.652751e+01 -1 0 1 -6.734003e-01 7.252828e-02 5.518885e-01 4.865087e-01
163 2 4 5.281024e+00 -1.750119e+01 1.658280e+01 -1 0 1 -7.521735e-01 2.339222e-01 5.201485e-01 3.300924e-01
164 2 4 4.806929e+00 -1.734226e+01 1.682201e+01 -1 0 1 -8.631616e-01 3.267108e-01 3.775729e-01 7.517214e-02
165 2 3 4.526702e+00 -1.718301e+01 1.725652e+01 -1 0 1 -7.995453e-01 5.498527e-01 1.810731e-01 -1.600059e-01
166 2 3 4.485651e+00 -1.693995e+01 1.775306e+01 -1 0 1 -7.014163e-01 5.411712e-01 -8.904542e-03 -4.637560e-01
167 2 4 4.507820e+00 -1.654463e+01 1.816247e+01 -1 0 1 -6.396024e-01 4.990524e-01 -1.893967e-01 -5.531585e-01
168 2 2 4.643484e+00 -1.609778e+01 1.840531e+01 -1 0 1 -5.142482e-01 4.233080e-01 -3.535178e-01 -6.567985e-01
169 2 2 4.941763e+00 -1.574684e+01 1.841815e+01 -1 0 1 -3.017843e-01 2.271302e-01 -3.674015e-01 -8.499143e-01
170 2 1 4.962837e+00 -1.521674e+01 1.850730e+01 -1 0 1 -8.905351e-03 1.463098e-01 -4.770517e-01 -8.665655e-01
171 2 1 4.717173e+00 -1.476985e+01 1.852490e+01 -1 0 1 -3.445488e-01 -9.625456e-02 4.932862e-01 7.928997e-01
172 2 4 4.263071e+00 -1.442194e+01 1.849758e+01 -1 0 1 -5.984153e-01 5.300959e-02 5.051587e-01 6.195996e-01
173 2 4 3.786199e+00 -1.419009e+01 1.871028e+01 -1 0 1 -8.001401e-01 5.768514e-02 4.049119e-01 4.387421e-01
174 2 1 3.450110e+00 -1.416497e+01 1.919358e+01 -1 0 1 -9.371905e-01 1.720255e-01 2.299979e-01 1.979449e-01
175 2 1 3.229019e+00 -1.412468e+01 1.967213e+01 -1 0 1 -9.747459e-01 1.917591e-01 1.128480e-01 -1.908278e-02
176 2 2 3.238660e+00 -1.433445e+01 -1.987421e+01 -1 0 2 -8.918496e-01 1.292649e-01 5.534358e-02 -4.299208e-01
177 2 2 3.335954e+00 -1.425076e+01 -1.930704e+01 -1 0 2 -8.435058e-01 8.962985e-02 -1.352453e-01 -5.120285e-01
178 2 1 3.634567e+00 -1.419537e+01 -1.890731e+01 -1 0 2 -6.383349e-01 -6.656262e-03 -2.389181e-01 -7.317119e-01
179 2 4 3.731328e+00 -1.382421e+01 -1.846349e+01 -1 0 2 -4.843196e-01 9.648766e-02 -3.547310e-01 -7.939084e-01
180 2 1 4.041490e+00 -1.336796e+01 -1.843823e+01 -1 0 2 -1.950395e-01 -6.841027e-02 -4.903934e-01 -8.466368e-01
181 2 4 4.180234e+00 -1.282708e+01 -1.850062e+01 -1 0 2 -5.740735e-02 1.387685e-01 4.826368e-01 8.628496e-01
182 2 2 4.083262e+00 -1.235555e+01 -1.854293e+01 -1 0 2 -3.279521e-01 3.280882e-01 4.570741e-01 7.588734e-01
183 2 3 4.017714e+00 -1.179452e+01 -1.837634e+01 -1 0 2 -5.382750e-01 4.112923e-01 2.713344e-01 6.837224e-01
184 2 4 4.004893e+00 -1.130902e+01 -1.805309e+01 -1 0 2 -6.886985e-01 4.138467e-01 1.545076e-01 5.749371e-01
185 2 3 3.928805e+00 -1.111523e+01 -1.760939e+01 -1 0 2 8.196857e-01 -3.635004e-01 -3.983222e-02 -4.409038e-01
186 2 1 3.957122e+00 -1.099828e+01 -1.706482e+01 -1 0 2 9.196739e-01 -2.771515e-01 9.070692e-02 -2.629814e-01
187 2 1 4.095229e+00 -1.097826e+01 -1.654714e+01 -1 0 2 -8.890260e-01 3.329439e-01 -2.867484e-01 -1.286720e-01
188 2 2 4.411491e+00 -1.084836e+01 -1.620431e+01 -1 0 2 8.046930e-01 -2.096857e-01 4.244621e-01 3.582361e-01
189 2 4 4.948139e+00 -1.078089e+01 -1.598726e+01 -1 0 2 6.727687e-01 -9.701995e-02 4.455665e-01 5.826148e-01
190 2 4 5.405740e+00 -1.055147e+01 -1.596077e+01 -1 0 2 -4.225455e-01 -1.257013e-01 -3.967468e-01 -8.051375e-01
191 2 1 5.666885e+00 -1.015271e+01 -1.578149e+01 -1 0 2 -2.900894e-01 -1.197286e-01 -4.965783e-01 -8.092732e-01
192 2 4 5.883036e+00 -9.665877e+00 -1.589653e+01 -1 0 2 -5.665820e-02 3.219964e-01 5.103484e-01 7.953947e-01
193 2 4 5.921074e+00 -9.089619e+00 -1.584733e+01 -1 0 2 3.637122e-01 -3.332020e-01 -3.502857e-01 -7.962348e-01
194 2 1 5.702061e+00 -8.584460e+00 -1.566701e+01 -1 0 2 -6.398017e-01 4.056593e-01 1.231029e-01 6.410461e-01
195 2 3 5.568801e+00 -8.289749e+00 -1.533978e+01 -1 0 2 7.945565e-01 -4.074323e-01 -4.605490e-02 -4.478370e-01
196 2 4 5.520495e+00 -8.180717e+00 -1.473349e+01 -1 0 2 9.264702e-01 -3.192707e-01 1.239514e-01 -1.560613e-01
197 2 2 5.772203e+00 -8.106622e+00 -1.422062e+01 -1 0 2 -9.139009e-01 2.600565e-01 -2.935540e-01 1.047937e-01
198 2 4 6.022182e+00 -8.260651e+00 -1.382041e+01 -1 0 2 -8.802460e-01 1.315718e-01 -3.301530e-01 -3.144117e-01
199 2 3 6.422588e+00 -8.153287e+00 -1.362572e+01 -1 0 2 -6.243252e-01 -7.645836e-02 -3.501970e-01 -6.940708e-01
200 2 4 6.130262e+00 -7.719221e+00 -1.257299e+01 -1 0 2 4.174377e-01 -6.490006e-01 -1.552860e-01 -6.167902e-01
