ITEM: TIMESTEP
256000000
ITEM: NUMBER OF ATOMS
200
ITEM: BOX BOUNDS pp pp pp
-2.0000000000000000e+01 2.0000000000000000e+01
-2.0000000000000000e+01 2.0000000000000000e+01
-2.0000000000000000e+01 2.0000000000000000e+01
ITEM: ATOMS id mol type x y z ix iy iz c_quat[1] c_quat[2] c_quat[3] c_quat[4]
1 1 1 -2.102651e+00 1.709747e+01 -1.832452e+01 -1 -1 2 -3.517527e-01 -8.477102e-01 9.604717e-03 3.969448e-01
2 1 2 -2.614335e+00 1.802743e+01 -1.833890e+01 -1 -1 2 1.435912e-01 8.197484e-01 3.089417e-01 4.603794e-01
3 1 1 -2.312449e+00 1.838387e+01 -1.857031e+01 -1 -1 2 1.862301e-01 -8.433158e-01 -1.128404e-01 -4.913287e-01
4 1 3 -1.828070e+00 1.875290e+01 -1.867714e+01 -1 -1 2 -3.397733e-01 7.751974e-01 -1.358661e-01 5.149404e-01
5 1 1 -1.382299e+00 1.898115e+01 -1.856235e+01 -1 -1 2 -4.602576e-01 6.210804e-01 -3.281450e-01 5.429023e-01
6 1 2 -9.255137e-01 1.921440e+01 -1.818661e+01 -1 -1 2 -5.841679e-01 5.187255e-01 -4.423698e-01 4.404324e-01
7 1 4 -4.129139e-01 1.916771e+01 -1.792830e+01 -1 -1 2 -5.267293e-01 4.311669e-01 -7.181782e-01 1.444696e-01
8 1 1 3.872087e-02 1.895518e+01 -1.796852e+01 -1 -1 2 5.959711e-01 -2.433507e-01 7.583614e-01 -1.024053e-01
9 1 1 5.312588e-01 1.879181e+01 -1.812547e+01 -1 -1 2 -5.230230e-01 9.054126e-02 -8.244552e-01 1.962724e-01
10 1 4 8.311548e-01 1.845214e+01 -1.831640e+01 -1 -1 2 5.456963e-01 2.541528e-01 7.976268e-01 3.759601e-02
11 1 1 9.098256e-01 1.808889e+01 -1.869984e+01 -1 -1 2 5.268613e-01 5.469103e-01 6.312991e-01 1.573772e-01
12 1 1 1.131596e+00 1.797557e+01 -1.925764e+01 -1 -1 2 -3.870029e-01 -7.216458e-01 -4.566706e-01 -3.477184e-01
13 1 3 1.485824e+00 1.801285e+01 -1.964471e+01 -1 -1 2 3.262378e-01 7.844901e-01 2.392920e-01 4.699825e-01
14 1 4 1.892844e+00 1.824893e+01 2.001115e+01 -1 -1 1 -1.340613e-01 -8.308506e-01 -3.270010e-02 -5.391155e-01
15 1 4 2.354090e+00 1.849971e+01 1.990255e+01 -1 -1 1 5.982619e-02 -7.707852e-01 2.679445e-01 -5.749059e-01
16 1 2 2.938948e+00 1.848051e+01 1.984779e+01 -1 -1 1 -1.548986e-01 5.927551e-01 -5.741783e-01 5.431088e-01
17 1 1 3.369478e+00 1.839853e+01 -2.002063e+01 -1 -1 2 -3.181858e-01 4.359368e-01 -6.668887e-01 5.137864e-01
18 1 2 3.868908e+00 1.804862e+01 -1.998938e+01 -1 -1 2 3.430840e-01 -2.377555e-01 7.710382e-01 -4.809010e-01
19 1 3 4.170763e+00 1.770053e+01 -1.997866e+01 -1 -1 2 4.040223e-01 -1.166084e-02 8.098620e-01 -4.251513e-01
20 1 1 4.291526e+00 1.717736e+01 -1.993863e+01 -1 -1 2 4.841970e-01 2.617813e-01 7.682422e-01 -3.268451e-01
21 1 4 4.285315e+00 1.667536e+01 1.990895e+01 -1 -1 1 -6.009092e-01 -5.015817e-01 -6.218005e-01 2.623221e-02
22 1 1 4.356750e+00 1.621114e+01 1.938570e+01 -1 -1 1 -5.348238e-01 -6.156372e-01 -5.610800e-01 -1.419283e-01
23 1 4 4.505309e+00 1.600217e+01 1.892780e+01 -1 -1 1 -3.556135e-01 -8.184671e-01 -3.935595e-01 -2.208202e-01
24 1 3 4.756062e+00 1.599307e+01 1.850325e+01 -1 -1 1 -1.221535e-01 -8.986622e-01 -2.494427e-01 -3.395042e-01
25 1 3 4.986459e+00 1.622284e+01 1.815244e+01 -1 -1 1 2.184163e-02 -9.247339e-01 2.907036e-02 -3.788735e-01
26 1 4 5.288649e+00 1.661639e+01 1.794862e+01 -1 -1 1 2.238649e-01 -8.808718e-01 2.688701e-01 -3.188389e-01
27 1 4 5.765090e+00 1.688773e+01 1.781764e+01 -1 -1 1 3.206769e-01 -7.126990e-01 5.279990e-01 -3.323305e-01
28 1 1 6.342682e+00 1.682969e+01 1.783280e+01 -1 -1 1 4.137051e-01 -4.778060e-01 7.153524e-01 -2.980275e-01
29 1 1 6.822751e+00 1.664037e+01 1.776576e+01 -1 -1 1 4.325635e-01 -2.512743e-01 8.417174e-01 -2.031303e-01
30 1 4 7.205555e+00 1.625781e+01 1.765794e+01 -1 -1 1 -4.626139e-01 -4.557014e-02 -8.706193e-01 1.610399e-01
31 1 4 7.546428e+00 1.601098e+01 1.727145e+01 -1 -1 1 -3.550455e-01 -2.600028e-01 -8.941503e-01 -8.268269e-02
32 1 3 7.671131e+00 1.578373e+01 1.687539e+01 -1 -1 1 -3.511882e-01 -5.675695e-01 -7.204925e-01 -1.882079e-01
33 1 3 7.873054e+00 1.575086e+01 1.645254e+01 -1 -1 1 -1.584287e-01 -6.653270e-01 -7.228494e-01 -9.863568e-02
34 1 1 7.765674e+00 1.579220e+01 1.596549e+01 -1 -1 1 -7.761860e-02 -8.907560e-01 -4.359528e-01 -1.023437e-01
35 1 2 7.749800e+00 1.597850e+01 1.551724e+01 -1 -1 1 3.534411e-02 -9.605584e-01 -2.397802e-01 -1.363222e-01
36 1 2 7.759798e+00 1.645243e+01 1.519475e+01 -1 -1 1 -1.434843e-01 -9.750082e-01 1.634326e-01 -4.539941e-02
37 1 1 7.976948e+00 1.646905e+01 1.473500e+01 -1 -1 1 4.882645e-02 -8.725385e-01 4.296305e-01 -2.273988e-01
38 1 1 8.503146e+00 1.648609e+01 1.444152e+01 -1 -1 1 7.948005e-02 -7.406961e-01 5.886223e-01 -3.139681e-01
39 1 4 8.991619e+00 1.628508e+01 1.427576e+01 -1 -1 1 -1.293084e-01 3.432034e-01 -8.995102e-01 2.374282e-01
40 1 4 9.233079e+00 1.598310e+01 1.386260e+01 -1 -1 1 -7.946609e-02 2.023006e-01 -9.445534e-01 2.461269e-01
41 1 2 9.331709e+00 1.555532e+01 1.366309e+01 -1 -1 1 -1.626465e-01 -1.557451e-01 -9.726871e-01 5.629754e-02
42 1 4 9.380847e+00 1.524902e+01 1.318136e+01 -1 -1 1 1.051535e-01 3.833800e-01 9.147094e-01 -7.258920e-02
43 1 3 9.172777e+00 1.504403e+01 1.280028e+01 -1 -1 1 1.704284e-02 -6.727754e-01 -7.292872e-01 1.233816e-01
44 1 2 8.832371e+00 1.509169e+01 1.236064e+01 -1 -1 1 1.584752e-02 -8.781167e-01 -4.763585e-01 4.174338e-02
45 1 1 8.675055e+00 1.537916e+01 1.192380e+01 -1 -1 1 -1.228281e-02 -9.688785e-01 -2.426430e-01 -4.741255e-02
46 1 3 8.687141e+00 1.571235e+01 1.151053e+01 -1 -1 1 -9.967247e-03 -9.920567e-01 1.202630e-01 -3.550988e-02
47 1 4 8.911170e+00 1.600400e+01 1.118535e+01 -1 -1 1 7.259509e-02 -8.835973e-01 4.619488e-01 -2.427061e-02
48 1 1 9.181085e+00 1.609767e+01 1.071527e+01 -1 -1 1 -8.827055e-02 7.583238e-01 -6.355589e-01 1.149703e-01
49 1 4 9.628987e+00 1.601390e+01 1.046147e+01 -1 -1 1 -1.770010e-01 4.214343e-01 -8.891039e-01 2.362294e-02
50 1 4 9.790780e+00 1.583795e+01 9.942022e+00 -1 -1 1 -6.828608e-02 2.313993e-01 -9.704557e-01 -2.666236e-03
51 1 4 9.867074e+00 1.553482e+01 9.477758e+00 -1 -1 1 -2.654871e-02 -8.623653e-02 -9.957854e-01 -1.642597e-02
52 1 1 9.667767e+00 1.524737e+01 9.099774e+00 -1 -1 1 -2.033258e-03 -4.413522e-01 -8.964865e-01 3.893642e-02
53 1 3 9.511476e+00 1.518781e+01 8.546331e+00 -1 -1 1 -1.195720e-01 6.471571e-01 7.506089e-01 5.896239e-02
54 1 4 9.107568e+00 1.533629e+01 8.217271e+00 -1 -1 1 -9.974810e-02 8.698489e-01 4.830495e-01 -8.745843e-03
55 1 4 8.864697e+00 1.564591e+01 7.858057e+00 -1 -1 1 -1.473467e-01 9.783866e-01 1.450315e-01 3.812990e-03
56 1 4 8.932379e+00 1.613770e+01 7.577129e+00 -1 -1 1 1.398353e-01 -9.733457e-01 1.815605e-01 8.940763e-03
57 1 1 9.154515e+00 1.646140e+01 7.227947e+00 -1 -1 1 1.733552e-01 -8.630106e-01 4.741059e-01 1.960007e-02
58 1 1 9.489568e+00 1.664505e+01 6.702366e+00 -1 -1 1 -7.067226e-02 7.450657e-01 -6.629026e-01 2.104075e-02
59 1 3 9.779983e+00 1.660011e+01 6.180113e+00 -1 -1 1 5.789584e-03 -5.074254e-01 8.615142e-01 -1.670754e-02
60 1 4 9.914595e+00 1.638020e+01 5.689482e+00 -1 -1 1 6.809128e-03 2.606631e-01 -9.615932e-01 8.571407e-02
61 1 2 9.976319e+00 1.608566e+01 5.328939e+00 -1 -1 1 -3.450603e-02 -2.224557e-01 -9.665159e-01 1.231655e-01
62 1 3 9.739498e+00 1.583869e+01 4.943998e+00 -1 -1 1 -1.362458e-01 -5.873431e-01 -7.977337e-01 -9.279531e-03
63 1 2 1.046999e+01 1.476548e+01 5.044894e+00 -1 -1 1 -8.129583e-01 2.949882e-01 4.643417e-02 4.999246e-01
64 1 4 1.042437e+01 1.412367e+01 4.161186e+00 -1 -1 1 -7.554382e-01 -3.066883e-01 -2.358806e-01 5.287871e-01
65 1 2 1.030119e+01 1.376078e+01 4.273853e+00 -1 -1 1 2.186914e-01 3.365624e-01 -8.462891e-01 3.502778e-01
66 1 1 9.602613e+00 1.361083e+01 4.889106e+00 -1 -1 1 -3.628501e-01 -8.480506e-03 8.956980e-01 -2.568911e-01
67 1 2 9.087439e+00 1.317001e+01 5.039617e+00 -1 -1 1 -4.775922e-01 5.747717e-01 3.802174e-01 5.449568e-01
68 1 1 8.726842e+00 1.217284e+01 4.539896e+00 -1 -1 1 -4.778128e-01 2.417267e-01 -5.347301e-01 6.537024e-01
69 1 1 8.870094e+00 1.183489e+01 4.903334e+00 -1 -1 1 7.172060e-01 7.609839e-02 5.738038e-01 -3.880383e-01
70 1 2 8.815025e+00 1.145168e+01 4.942070e+00 -1 -1 1 -8.886087e-01 -3.254448e-01 -2.918515e-01 1.388635e-01
71 1 3 9.045196e+00 1.099139e+01 4.906405e+00 -1 -1 1 -8.124429e-01 -5.063449e-01 -2.470682e-02 -2.879947e-01
72 1 4 9.422344e+00 1.066416e+01 4.933431e+00 -1 -1 1 -5.722038e-01 -5.785806e-01 -2.249704e-02 -5.807935e-01
73 1 1 1.028839e+01 1.004402e+01 4.523480e+00 -1 -1 1 4.058876e-01 8.109499e-01 -3.872148e-01 -1.663737e-01
74 1 1 9.962819e+00 9.433994e+00 4.985696e+00 -1 -1 1 3.517309e-01 5.630683e-02 6.599906e-01 -6.614585e-01
75 1 3 1.119012e+01 9.909647e+00 5.252349e+00 -1 -1 1 -3.291023e-01 6.534963e-01 7.563438e-02 -6.774317e-01
76 1 1 1.173591e+01 1.032877e+01 5.017332e+00 -1 -1 1 -2.869772e-01 -7.809313e-01 -1.482855e-01 -5.346044e-01
77 1 4 1.183937e+01 9.164790e+00 5.518817e+00 -1 -1 1 -3.204901e-01 4.730627e-02 9.437969e-01 -6.554134e-02
78 1 1 1.275831e+01 9.041203e+00 4.583624e+00 -1 -1 1 -7.521537e-01 8.880289e-03 -4.295053e-01 -4.997112e-01
79 1 4 1.326826e+01 9.278163e+00 4.505374e+00 -1 -1 1 5.208213e-01 2.519487e-01 3.602231e-01 7.317830e-01
80 1 2 1.314277e+01 7.819265e+00 5.247481e+00 -1 -1 1 -5.366932e-01 2.180569e-01 -7.703074e-01 2.665297e-01
81 1 4 1.376564e+01 8.673868e+00 6.063357e+00 -1 -1 1 -5.874144e-01 2.927392e-01 6.797718e-01 -3.273507e-01
82 1 4 1.422318e+01 9.027051e+00 5.929120e+00 -1 -1 1 2.692093e-01 -6.730253e-01 3.674450e-01 5.827070e-01
83 1 4 1.427608e+01 8.309568e+00 6.601955e+00 -1 -1 1 4.689267e-01 -7.735606e-01 3.697149e-01 2.121853e-01
84 1 4 1.483984e+01 8.518561e+00 6.503536e+00 -1 -1 1 -4.765726e-01 5.513677e-01 -2.060424e-01 -6.530075e-01
85 1 1 1.489072e+01 8.998814e+00 6.554296e+00 -1 -1 1 2.494833e-01 -4.320362e-01 4.443552e-01 7.440775e-01
86 1 1 1.478917e+01 9.494995e+00 6.409232e+00 -1 -1 1 6.150848e-03 -3.753633e-01 6.556698e-01 6.551043e-01
87 1 3 1.485367e+01 1.000731e+01 7.974821e+00 -1 -1 1 3.042145e-01 -4.429259e-01 4.231570e-01 -7.295261e-01
88 1 2 1.512476e+01 9.740014e+00 8.431235e+00 -1 -1 1 5.716235e-01 -1.502438e-01 6.125287e-01 -5.248637e-01
89 1 2 1.533648e+01 9.436962e+00 8.670307e+00 -1 -1 1 7.261279e-01 6.770733e-02 6.151678e-01 -2.995374e-01
90 1 3 1.514094e+01 1.080916e+01 9.347563e+00 -1 -1 1 -1.262465e-01 -8.571319e-01 -2.628926e-01 -4.245872e-01
91 1 3 1.402055e+01 1.005827e+01 8.996966e+00 -1 -1 1 1.455796e-01 2.934307e-01 7.478284e-01 -5.774580e-01
92 1 2 1.377328e+01 9.612382e+00 9.131228e+00 -1 -1 1 -5.240273e-01 -4.177503e-01 -7.237029e-01 1.647246e-01
93 1 1 1.386772e+01 9.167267e+00 8.891137e+00 -1 -1 1 -5.632366e-01 -7.274730e-01 -3.839845e-01 -7.812496e-02
94 1 2 1.451783e+01 8.354055e+00 9.300038e+00 -1 -1 1 -7.327063e-01 -2.603213e-01 3.940234e-01 -4.900202e-01
95 1 3 1.451783e+01 8.039726e+00 9.743766e+00 -1 -1 1 -3.832578e-01 4.603548e-02 3.984409e-01 -8.320091e-01
96 1 2 1.443851e+01 7.994568e+00 1.018167e+01 -1 -1 1 -4.339187e-02 2.317564e-01 4.076061e-01 -8.821924e-01
97 1 2 1.416272e+01 7.948168e+00 1.056319e+01 -1 -1 1 3.371961e-01 3.000979e-01 1.994629e-01 -8.697440e-01
98 1 4 1.449272e+01 8.247729e+00 1.144173e+01 -1 -1 1 -3.390972e-01 2.453523e-01 4.888613e-01 7.653953e-01
99 1 2 1.560903e+01 7.230348e+00 1.134022e+01 -1 -1 1 4.343098e-01 -5.979536e-01 6.612595e-01 1.286952e-01
100 1 1 1.602563e+01 7.326657e+00 1.109135e+01 -1 -1 1 -3.656982e-01 3.092591e-01 -8.266170e-01 -2.955131e-01
101 2 4 -3.706279e+00 -1.984636e+01 1.047713e+01 -1 0 1 -6.869894e-02 8.782899e-01 4.379382e-01 1.791577e-01
102 2 3 -3.640593e+00 -1.956308e+01 1.000601e+01 -1 0 1 -6.789746e-02 9.438773e-01 5.720168e-02 3.181408e-01
103 2 1 -3.361157e+00 -1.924055e+01 9.788552e+00 -1 0 1 2.301546e-01 -8.637238e-01 3.650171e-01 -2.603319e-01
104 2 3 -2.969381e+00 -1.900729e+01 9.622877e+00 -1 0 1 -3.974821e-01 5.903180e-01 -6.676990e-01 2.184280e-01
105 2 3 -3.973505e+00 -1.892273e+01 8.586547e+00 -1 0 1 7.656449e-02 2.120815e-01 -8.221401e-01 -5.227284e-01
106 2 2 -3.596998e+00 -1.884282e+01 7.761452e+00 -1 0 1 -8.093755e-01 -3.689752e-01 -3.268537e-01 3.192730e-01
107 2 3 -3.564538e+00 -1.939470e+01 7.732656e+00 -1 0 1 -8.602538e-01 -4.491825e-01 -2.411349e-01 7.244638e-03
108 2 4 -3.253047e+00 2.023225e+01 7.740689e+00 -1 -1 1 8.365699e-01 4.054357e-01 -2.982127e-04 3.684734e-01
109 2 3 -2.955923e+00 1.988174e+01 7.903531e+00 -1 -1 1 5.924964e-01 4.107088e-01 -3.477549e-02 6.921394e-01
110 2 2 -2.479943e+00 1.990782e+01 8.162963e+00 -1 -1 1 1.330539e-01 4.077811e-01 -1.884041e-01 8.834677e-01
111 2 2 -2.222859e+00 1.997530e+01 8.587990e+00 -1 -1 1 1.966916e-01 -3.034619e-01 2.826969e-01 -8.884288e-01
112 2 3 -1.517430e+00 -1.960410e+01 8.126129e+00 -1 0 1 1.316356e-01 -4.577860e-01 5.302719e-01 7.013671e-01
113 2 3 -1.593920e+00 -1.921165e+01 7.834316e+00 -1 0 1 -5.606314e-02 -2.304651e-01 7.267750e-01 6.446246e-01
114 2 2 -6.417951e-01 -1.914761e+01 8.386248e+00 -1 0 1 -2.042404e-01 4.940784e-01 -6.740431e-01 5.097433e-01
115 2 4 -1.196499e-01 -1.840103e+01 8.412791e+00 -1 0 1 1.514028e-01 -6.562964e-01 -5.937820e-01 4.401989e-01
116 2 4 -1.826505e-01 -1.904363e+01 7.842326e+00 -1 0 1 -7.672209e-01 4.436755e-01 -7.761296e-02 4.566185e-01
117 2 1 1.844192e-01 -1.965105e+01 7.378311e+00 -1 0 1 -8.583504e-01 7.748265e-02 8.957371e-02 4.992069e-01
118 2 1 7.256101e-01 -1.860954e+01 7.659395e+00 -1 0 1 -3.649967e-01 3.135224e-01 -1.357191e-01 -8.660609e-01
119 2 1 5.205689e-01 -1.813088e+01 7.899353e+00 -1 0 1 8.016557e-02 2.871193e-01 -1.441077e-01 -9.435936e-01
120 2 1 1.193711e+00 -1.792242e+01 7.845878e+00 -1 0 1 -1.834537e-01 4.259929e-01 3.451339e-01 -8.159396e-01
121 2 3 2.052447e+00 -1.871039e+01 7.553164e+00 -1 0 1 3.384780e-02 -3.499163e-01 9.232379e-01 1.550636e-01
122 2 1 2.641709e+00 -1.839270e+01 7.249517e+00 -1 0 1 4.740707e-01 3.555141e-01 5.076885e-01 6.253952e-01
123 2 4 3.331255e+00 -1.848622e+01 8.037886e+00 -1 0 1 -6.718597e-01 -6.234684e-01 -1.789885e-01 -3.575679e-01
124 2 1 3.891659e+00 -1.938365e+01 8.971595e+00 -1 0 1 7.441226e-02 -8.187440e-01 5.325891e-01 -2.011712e-01
125 2 4 4.348259e+00 -1.939666e+01 8.721974e+00 -1 0 1 -1.845025e-01 6.171537e-01 -7.512188e-01 1.440500e-01
126 2 2 4.127369e+00 -1.919158e+01 7.961288e+00 -1 0 1 7.020053e-01 -5.825666e-01 4.065153e-01 5.049771e-02
127 2 4 4.547980e+00 -1.889377e+01 7.538815e+00 -1 0 1 -9.642791e-01 7.232043e-02 2.468117e-01 -6.339944e-02
128 2 4 4.289158e+00 -1.876300e+01 6.536980e+00 -1 0 1 -2.987815e-01 -8.322545e-01 -3.995361e-01 -2.417707e-01
129 2 1 4.662233e+00 1.981725e+01 7.316224e+00 -1 -1 1 -6.735139e-02 4.967038e-01 -8.385358e-01 2.135578e-01
130 2 2 4.962505e+00 1.953947e+01 7.075454e+00 -1 -1 1 2.253830e-01 -7.590757e-02 9.687750e-01 -7.011045e-02
131 2 3 5.974327e+00 -1.990774e+01 6.095769e+00 -1 0 1 6.395271e-01 2.475168e-01 5.224663e-01 5.067242e-01
132 2 4 6.050914e+00 1.942899e+01 6.615203e+00 -1 -1 1 -6.420282e-01 -4.752729e-02 3.433013e-01 -6.838751e-01
133 2 4 6.090727e+00 1.920487e+01 7.069865e+00 -1 -1 1 -2.878149e-01 1.195820e-01 4.258379e-01 -8.494262e-01
134 2 3 6.623555e+00 1.903208e+01 5.858255e+00 -1 -1 1 6.508158e-01 1.465031e-01 7.449611e-01 2.938792e-03
135 2 4 6.968721e+00 1.860701e+01 5.697032e+00 -1 -1 1 -6.009639e-01 -3.746061e-01 -7.058662e-01 1.629829e-02
136 2 3 7.115458e+00 1.827774e+01 5.328689e+00 -1 -1 1 5.603139e-01 6.250008e-01 5.221331e-01 1.509946e-01
137 2 1 7.293756e+00 1.806247e+01 4.927330e+00 -1 -1 1 3.917669e-01 8.143687e-01 3.761849e-01 2.044680e-01
138 2 3 7.674283e+00 1.777571e+01 4.536863e+00 -1 -1 1 -2.946357e-01 -7.466107e-01 -5.014106e-01 -3.230321e-01
139 2 2 7.964631e+00 1.647703e+01 5.521439e+00 -1 -1 1 -5.690920e-01 -1.161659e-01 8.131001e-01 3.883326e-02
140 2 3 8.293940e+00 1.576661e+01 5.704441e+00 -1 -1 1 9.496080e-01 -2.477084e-01 -1.899336e-01 2.846809e-02
141 2 1 9.060960e+00 1.573799e+01 5.750302e+00 -1 -1 1 -9.879717e-01 -1.121196e-02 4.266564e-02 -1.482087e-01
142 2 2 9.149990e+00 1.550487e+01 6.151369e+00 -1 -1 1 8.759258e-01 6.033024e-02 2.248218e-02 4.781306e-01
143 2 4 9.525924e+00 1.547104e+01 6.591010e+00 -1 -1 1 6.888221e-01 4.197812e-02 -9.390748e-03 7.236530e-01
144 2 4 9.826774e+00 1.550426e+01 7.016636e+00 -1 -1 1 4.604537e-01 1.051974e-01 4.833175e-02 8.801023e-01
145 2 1 1.004927e+01 1.563369e+01 7.534361e+00 -1 -1 1 2.746474e-01 -3.081781e-02 6.239048e-02 9.590237e-01
146 2 1 1.004332e+01 1.595441e+01 7.932370e+00 -1 -1 1 -1.484026e-01 -7.253664e-02 1.333802e-01 9.772026e-01
147 2 1 9.845111e+00 1.623128e+01 8.411700e+00 -1 -1 1 3.723651e-01 1.340178e-01 -1.871231e-02 -9.181685e-01
148 2 2 9.409198e+00 1.631478e+01 8.751121e+00 -1 -1 1 6.614021e-01 9.699914e-02 -3.687658e-02 -7.428180e-01
149 2 4 8.914623e+00 1.613984e+01 9.086135e+00 -1 -1 1 -9.040821e-01 -5.423457e-02 -1.413657e-02 4.236678e-01
150 2 1 8.735032e+00 1.576591e+01 9.457267e+00 -1 -1 1 -9.783438e-01 -1.455724e-01 -2.818918e-02 1.444211e-01
151 2 1 8.765282e+00 1.528545e+01 9.797986e+00 -1 -1 1 -9.430805e-01 -1.423748e-01 7.348211e-02 -2.914257e-01
152 2 1 9.017700e+00 1.499983e+01 1.019968e+01 -1 -1 1 -7.903313e-01 -8.262728e-02 4.548703e-02 -6.053761e-01
153 2 4 9.137961e+00 1.494030e+01 1.077866e+01 -1 -1 1 -7.730407e-01 -1.062636e-01 -1.482086e-01 -6.075774e-01
154 2 1 9.584025e+00 1.501493e+01 1.118855e+01 -1 -1 1 -4.996692e-01 -2.673222e-02 -5.247774e-02 -8.642119e-01
155 2 2 9.776139e+00 1.537494e+01 1.154611e+01 -1 -1 1 -1.629866e-01 3.914196e-02 -6.567069e-02 -9.836618e-01
156 2 4 9.778584e+00 1.577567e+01 1.189899e+01 -1 -1 1 1.849042e-01 -9.400089e-03 -1.216244e-01 -9.751562e-01
157 2 3 9.554952e+00 1.604115e+01 1.231186e+01 -1 -1 1 4.134907e-01 6.539492e-02 -1.620637e-01 -8.935795e-01
158 2 2 9.154628e+00 1.617669e+01 1.265180e+01 -1 -1 1 6.863772e-01 1.132258e-01 -2.184147e-01 -6.843692e-01
159 2 1 8.620595e+00 1.606770e+01 1.286720e+01 -1 -1 1 9.095682e-01 7.221996e-02 -1.922137e-01 -3.612810e-01
160 2 3 8.283225e+00 1.573165e+01 1.327507e+01 -1 -1 1 -9.717953e-01 3.991649e-02 1.597315e-01 1.688384e-01
161 2 1 8.182173e+00 1.550223e+01 1.367513e+01 -1 -1 1 -9.541865e-01 1.184720e-01 1.733212e-01 -2.131954e-01
162 2 1 8.263090e+00 1.536270e+01 1.424887e+01 -1 -1 1 -8.871610e-01 1.004011e-01 7.426151e-03 -4.503441e-01
163 2 4 8.429000e+00 1.537834e+01 1.474130e+01 -1 -1 1 -7.184466e-01 9.474170e-02 -7.075414e-02 -6.854578e-01
164 2 4 8.671133e+00 1.562496e+01 1.515592e+01 -1 -1 1 -4.174688e-01 1.170628e-01 -1.388208e-01 -8.903622e-01
165 2 3 8.810827e+00 1.596904e+01 1.554875e+01 -1 -1 1 -2.270838e-01 1.703941e-01 -2.240908e-01 -9.322994e-01
166 2 3 8.801167e+00 1.645315e+01 1.584447e+01 -1 -1 1 1.057075e-01 1.705720e-01 -2.169452e-01 -9.553355e-01
167 2 4 8.432197e+00 1.676852e+01 1.616907e+01 -1 -1 1 3.707848e-01 2.950778e-01 -3.072115e-01 -8.252689e-01
168 2 2 7.856185e+00 1.691466e+01 1.638540e+01 -1 -1 1 6.371047e-01 2.550456e-01 -2.100997e-01 -6.963529e-01
169 2 2 7.420969e+00 1.684006e+01 1.650644e+01 -1 -1 1 7.629164e-01 2.747039e-01 -4.216629e-01 -4.058286e-01
170 2 1 6.905303e+00 1.667894e+01 1.656787e+01 -1 -1 1 8.097575e-01 3.033199e-01 -4.511074e-01 -2.208891e-01
171 2 1 6.501290e+00 1.624490e+01 1.671186e+01 -1 -1 1 -8.817569e-01 -1.499861e-01 4.471834e-01 -5.984915e-03
172 2 4 6.217368e+00 1.592691e+01 1.701071e+01 -1 -1 1 -8.418367e-01 1.729506e-01 3.976837e-01 -3.213202e-01
173 2 4 6.069430e+00 1.576253e+01 1.754508e+01 -1 -1 1 -7.751600e-01 1.055563e-01 2.542932e-01 -5.686122e-01
174 2 1 6.053731e+00 1.574924e+01 1.801232e+01 -1 -1 1 -6.015252e-01 1.689193e-01 9.331644e-02 -7.751940e-01
175 2 1 6.042554e+00 1.589223e+01 1.852962e+01 -1 -1 1 -3.059141e-01 2.667749e-01 7.092173e-02 -9.111629e-01
176 2 2 5.836087e+00 1.609455e+01 1.892234e+01 -1 -1 1 -2.318817e-02 3.228639e-01 -1.402114e-01 -9.357147e-01
177 2 2 5.594063e+00 1.645994e+01 1.916524e+01 -1 -1 1 9.588135e-02 3.624971e-01 -3.609295e-01 -8.538926e-01
178 2 1 5.290045e+00 1.688768e+01 1.905408e+01 -1 -1 1 2.839659e-01 2.859010e-01 -4.982863e-01 -7.676814e-01
179 2 4 4.920961e+00 1.724223e+01 1.895534e+01 -1 -1 1 5.019052e-01 1.432717e-01 -5.870994e-01 -6.187719e-01
180 2 1 4.403392e+00 1.735752e+01 1.889788e+01 -1 -1 1 6.913624e-01 -7.650834e-02 -5.864039e-01 -4.150842e-01
181 2 4 3.936105e+00 1.738933e+01 1.895290e+01 -1 -1 1 -7.827022e-01 1.431477e-01 5.580451e-01 2.355240e-01
182 2 2 3.459489e+00 1.731923e+01 1.918500e+01 -1 -1 1 -8.634121e-01 2.602935e-01 4.189957e-01 -1.058742e-01
183 2 3 3.030882e+00 1.729528e+01 1.958146e+01 -1 -1 1 -8.501679e-01 3.746153e-01 3.016991e-01 -2.141390e-01
184 2 4 2.898754e+00 1.731144e+01 -1.994483e+01 -1 -1 2 -6.904938e-01 4.291693e-01 2.376701e-01 -5.315496e-01
185 2 3 2.734458e+00 1.749763e+01 -1.945631e+01 -1 -1 2 5.261572e-01 -4.871986e-01 -1.093327e-02 6.969050e-01
186 2 1 2.639220e+00 1.802431e+01 -1.902899e+01 -1 -1 2 3.451062e-01 -5.532041e-01 9.816580e-02 7.518181e-01
187 2 1 2.360990e+00 1.850178e+01 -1.886323e+01 -1 -1 2 -1.236406e-02 5.572595e-01 -1.873741e-01 -8.088262e-01
188 2 2 1.999072e+00 1.883445e+01 -1.889220e+01 -1 -1 2 -1.983990e-01 -4.968847e-01 3.933364e-01 7.476831e-01
189 2 4 1.537500e+00 1.911270e+01 -1.897170e+01 -1 -1 2 -3.448503e-01 -4.805252e-01 4.706364e-01 6.547329e-01
190 2 4 1.057489e+00 1.922759e+01 -1.909877e+01 -1 -1 2 5.657697e-01 4.155333e-01 -5.306861e-01 -4.749831e-01
191 2 1 5.548269e-01 1.913038e+01 -1.918418e+01 -1 -1 2 6.758779e-01 4.066243e-01 -5.444059e-01 -2.854260e-01
192 2 4 1.462545e-01 1.881576e+01 -1.928916e+01 -1 -1 2 -7.660340e-01 -1.030796e-01 6.336176e-01 -3.309603e-02
193 2 4 -2.988107e-01 1.856509e+01 -1.902159e+01 -1 -1 2 8.325507e-01 5.576332e-02 -5.249010e-01 1.680139e-01
194 2 1 -4.923015e-01 1.827652e+01 -1.870158e+01 -1 -1 2 -7.292513e-01 9.113423e-02 4.935235e-01 -4.651039e-01
195 2 3 -6.928386e-01 1.799945e+01 -1.839279e+01 -1 -1 2 5.200237e-01 -2.994619e-01 -4.974349e-01 6.264634e-01
196 2 4 -1.042946e+00 1.790260e+01 -1.804810e+01 -1 -1 2 4.558237e-01 -4.229902e-01 -3.626397e-01 6.941156e-01
197 2 2 -1.436985e+00 1.807258e+01 -1.776685e+01 -1 -1 2 -2.892410e-01 5.205496e-01 1.610230e-01 -7.870447e-01
198 2 4 -1.693253e+00 1.846636e+01 -1.755740e+01 -1 -1 2 -7.718653e-02 -4.693652e-01 8.422098e-03 8.795838e-01
199 2 3 -2.193120e+00 1.863694e+01 -1.738368e+01 -1 -1 2 -1.399844e-01 -5.631563e-01 1.234769e-01 8.049924e-01
200 2 4 -2.716921e+00 1.885009e+01 -1.744223e+01 -1 -1 2 -6.020539e-01 -4.319306e-01 2.694614e-01 6.151078e-01
