ITEM: TIMESTEP
224000000
ITEM: NUMBER OF ATOMS
200
ITEM: BOX BOUNDS pp pp pp
-2.0000000000000000e+01 2.0000000000000000e+01
-2.0000000000000000e+01 2.0000000000000000e+01
-2.0000000000000000e+01 2.0000000000000000e+01
ITEM: ATOMS id mol type x y z ix iy iz c_quat[1] c_quat[2] c_quat[3] c_quat[4]
1 1 1 1.523102e+01 -2.415189e+00 1.370486e+01 -1 -1 1 -4.401788e-02 3.104595e-02 9.118375e-01 4.070024e-01
2 1 2 1.515228e+01 -2.159990e+00 1.318220e+01 -1 -1 1 -2.242208e-01 2.713665e-01 8.684548e-01 3.491011e-01
3 1 1 1.480459e+01 -1.977826e+00 1.286260e+01 -1 -1 1 -3.799346e-01 4.934011e-01 7.567379e-01 1.988786e-01
4 1 3 1.436386e+01 -1.770839e+00 1.271517e+01 -1 -1 1 -4.722099e-01 6.315554e-01 6.128073e-01 5.121427e-02
5 1 1 1.393373e+01 -1.426955e+00 1.263312e+01 -1 -1 1 -4.472829e-01 7.995575e-01 4.007917e-01 -3.429694e-03
6 1 2 1.359890e+01 -9.548482e-01 1.260278e+01 -1 -1 1 -4.876233e-01 8.555766e-01 1.357235e-01 -1.085878e-01
7 1 4 1.347550e+01 -4.079995e-01 1.250188e+01 -1 -1 1 3.136178e-01 -9.100679e-01 1.867156e-01 1.963608e-01
8 1 1 1.361507e+01 9.784979e-02 1.218732e+01 -1 -1 1 -2.643942e-01 8.625548e-01 -4.165513e-01 -1.121605e-01
9 1 1 1.390348e+01 4.028688e-01 1.191611e+01 -1 -1 1 3.228758e-01 -6.531544e-01 6.709572e-01 1.376843e-01
10 1 4 1.426400e+01 5.061196e-01 1.165796e+01 -1 -1 1 -3.187894e-01 3.780322e-01 -8.543376e-01 -1.599133e-01
11 1 1 1.453503e+01 4.378446e-01 1.130550e+01 -1 -1 1 -2.903801e-01 7.702974e-02 -9.412875e-01 -1.540250e-01
12 1 1 1.470901e+01 3.659305e-01 1.078897e+01 -1 -1 1 7.571214e-02 2.057205e-01 9.335941e-01 2.834587e-01
13 1 3 1.461463e+01 4.419951e-01 1.027547e+01 -1 -1 1 7.350206e-02 -5.025730e-01 -8.093802e-01 -2.948246e-01
14 1 4 1.431667e+01 6.278293e-01 9.838297e+00 -1 -1 1 -2.482694e-01 7.169848e-01 6.219900e-01 1.934518e-01
15 1 4 1.406149e+01 1.046936e+00 9.590164e+00 -1 -1 1 -3.995174e-01 7.890671e-01 4.427943e-01 1.472827e-01
16 1 2 1.380584e+01 1.573980e+00 9.512951e+00 -1 -1 1 4.364696e-01 -8.841130e-01 -1.361150e-01 -9.649437e-02
17 1 1 1.386994e+01 2.145434e+00 9.413745e+00 -1 -1 1 4.496064e-01 -8.751205e-01 1.783162e-01 -1.488558e-02
18 1 2 1.415786e+01 2.545570e+00 9.394216e+00 -1 -1 1 -3.325009e-01 8.175216e-01 -4.378069e-01 -1.715423e-01
19 1 3 1.445180e+01 2.881623e+00 9.183576e+00 -1 -1 1 -3.928283e-01 6.742521e-01 -6.139421e-01 -1.189335e-01
20 1 1 1.493914e+01 3.049390e+00 9.028732e+00 -1 -1 1 -4.381428e-01 3.978091e-01 -7.980050e-01 -1.138725e-01
21 1 4 1.541003e+01 2.929448e+00 8.805232e+00 -1 -1 1 3.836083e-01 -8.742959e-02 8.757713e-01 2.796880e-01
22 1 1 1.573203e+01 3.096554e+00 8.414848e+00 -1 -1 1 1.839440e-01 8.992687e-02 9.093939e-01 3.620503e-01
23 1 4 1.587382e+01 3.275062e+00 7.908710e+00 -1 -1 1 7.391749e-02 2.682002e-01 8.591144e-01 4.295664e-01
24 1 3 1.582808e+01 3.489087e+00 7.433802e+00 -1 -1 1 -1.064770e-01 5.953891e-01 6.960475e-01 3.869009e-01
25 1 3 1.572084e+01 3.904050e+00 7.111501e+00 -1 -1 1 -3.023148e-01 6.525491e-01 6.357508e-01 2.803681e-01
26 1 4 1.547582e+01 4.355640e+00 6.860240e+00 -1 -1 1 -3.121130e-01 8.689117e-01 2.367698e-01 3.025193e-01
27 1 4 1.550552e+01 4.867615e+00 6.782674e+00 -1 -1 1 -4.043726e-01 8.877690e-01 -1.003391e-01 1.956553e-01
28 1 1 1.573381e+01 5.348212e+00 6.753181e+00 -1 -1 1 -5.486228e-01 7.789366e-01 -2.660337e-01 1.466183e-01
29 1 1 1.611293e+01 5.684606e+00 6.901202e+00 -1 -1 1 -5.907565e-01 6.034052e-01 -5.316004e-01 -6.564974e-02
30 1 4 1.654675e+01 5.842842e+00 6.888861e+00 -1 -1 1 5.708371e-01 -4.317946e-01 6.853911e-01 1.339305e-01
31 1 4 1.701604e+01 5.884657e+00 6.841770e+00 -1 -1 1 5.577671e-01 -1.560936e-01 7.903998e-01 1.994966e-01
32 1 3 1.751252e+01 5.846520e+00 6.557184e+00 -1 -1 1 4.679878e-01 -4.383910e-02 7.848740e-01 4.037802e-01
33 1 3 1.778831e+01 5.938115e+00 6.254965e+00 -1 -1 1 2.892407e-01 3.509529e-01 7.589126e-01 4.660725e-01
34 1 1 1.797136e+01 6.136397e+00 5.794438e+00 -1 -1 1 1.561822e-01 5.543736e-01 6.432425e-01 5.044959e-01
35 1 2 1.806852e+01 6.458025e+00 5.381996e+00 -1 -1 1 -4.801549e-02 6.839179e-01 5.384425e-01 4.899291e-01
36 1 2 1.800798e+01 7.014723e+00 5.147120e+00 -1 -1 1 -2.913189e-01 8.068336e-01 2.669657e-01 4.391835e-01
37 1 1 1.810996e+01 7.542854e+00 5.069259e+00 -1 -1 1 -3.583174e-01 8.382389e-01 -1.158611e-02 4.108891e-01
38 1 1 1.838210e+01 7.932131e+00 5.179237e+00 -1 -1 1 -6.276513e-01 7.070606e-01 -2.044065e-01 2.536477e-01
39 1 4 1.863831e+01 8.312123e+00 5.498836e+00 -1 -1 1 7.049121e-01 -5.957166e-01 3.372453e-01 -1.857046e-01
40 1 4 1.903964e+01 8.538048e+00 5.730917e+00 -1 -1 1 7.277157e-01 -4.511393e-01 5.157454e-01 -3.016428e-02
41 1 2 1.962447e+01 8.697524e+00 5.787024e+00 -1 -1 1 6.238646e-01 -2.888024e-01 7.142413e-01 1.313225e-01
42 1 4 -1.985278e+01 8.635213e+00 5.638809e+00 0 -1 1 -5.170123e-01 5.158114e-03 -7.824976e-01 -3.469427e-01
43 1 3 -1.940249e+01 8.740458e+00 5.429377e+00 0 -1 1 4.091528e-01 9.845606e-02 8.191265e-01 3.897849e-01
44 1 2 -1.908329e+01 8.771997e+00 5.003409e+00 0 -1 1 2.607930e-01 3.068955e-01 7.601376e-01 5.098951e-01
45 1 1 -1.893866e+01 8.995699e+00 4.623942e+00 0 -1 1 1.237489e-01 4.930971e-01 7.005504e-01 5.007700e-01
46 1 3 -1.889955e+01 9.344072e+00 4.223946e+00 0 -1 1 -8.511416e-02 6.958244e-01 4.865826e-01 5.213649e-01
47 1 4 -1.879995e+01 9.832620e+00 4.015584e+00 0 -1 1 -2.834462e-01 7.966528e-01 2.189959e-01 4.868710e-01
48 1 1 -1.868068e+01 1.037664e+01 3.920748e+00 0 -1 1 4.887758e-01 -7.732934e-01 8.210814e-03 -4.037922e-01
49 1 4 -1.845479e+01 1.082089e+01 4.162391e+00 0 -1 1 5.147348e-01 -7.643824e-01 2.973744e-01 -2.496720e-01
50 1 4 -1.801587e+01 1.107201e+01 4.369742e+00 0 -1 1 5.797373e-01 -5.984418e-01 5.519096e-01 -3.417480e-02
51 1 4 -1.759809e+01 1.120840e+01 4.549416e+00 0 -1 1 6.489598e-01 -3.317206e-01 6.793158e-01 8.568959e-02
52 1 1 -1.702160e+01 1.127615e+01 4.369891e+00 0 -1 1 5.008944e-01 -1.448222e-01 8.324352e-01 1.875713e-01
53 1 3 -1.667561e+01 1.132605e+01 4.047197e+00 0 -1 1 3.710242e-01 1.125150e-01 8.816132e-01 2.691461e-01
54 1 4 -1.539766e+01 1.109816e+01 4.538496e+00 0 -1 1 -9.890960e-02 -9.029129e-01 3.827777e-01 1.686604e-01
55 1 4 -1.551868e+01 1.145919e+01 3.632992e+00 0 -1 1 -3.879007e-01 -1.910488e-01 -6.960468e-01 -5.731948e-01
56 1 4 -1.442259e+01 1.167671e+01 3.889284e+00 0 -1 1 4.101307e-01 -6.557167e-01 4.355121e-01 4.606056e-01
57 1 1 -1.429179e+01 1.212629e+01 3.777310e+00 0 -1 1 2.945848e-01 -5.010805e-01 6.379002e-01 5.051944e-01
58 1 1 -1.421785e+01 1.246456e+01 3.436877e+00 0 -1 1 3.276020e-02 -1.367235e-01 7.038813e-01 6.962647e-01
59 1 3 -1.347429e+01 1.238937e+01 3.943994e+00 0 -1 1 8.409223e-01 -1.525405e-01 -1.957438e-01 -4.809008e-01
60 1 4 -1.389682e+01 1.346000e+01 4.474001e+00 0 -1 1 5.619672e-02 3.546742e-01 4.376990e-01 -8.242983e-01
61 1 2 -1.383955e+01 1.381475e+01 4.678237e+00 0 -1 1 -3.866304e-01 -1.477237e-01 -2.412482e-01 8.777778e-01
62 1 3 -1.409072e+01 1.333573e+01 5.130845e+00 0 -1 1 2.770223e-01 1.118545e-01 -9.125592e-01 -2.792541e-01
63 1 2 -1.287885e+01 1.437792e+01 5.607346e+00 0 -1 1 1.418655e-01 -9.848154e-01 5.297936e-02 -8.488804e-02
64 1 4 -1.343095e+01 1.321629e+01 5.734619e+00 0 -1 1 7.500672e-01 2.331522e-01 6.528097e-03 -6.188672e-01
65 1 2 -1.308976e+01 1.357631e+01 6.557498e+00 0 -1 1 -1.538511e-01 2.004502e-01 6.820382e-02 9.651413e-01
66 1 1 -1.313294e+01 1.388910e+01 6.994203e+00 0 -1 1 -5.525218e-01 1.695998e-01 -8.376522e-02 8.117505e-01
67 1 2 -1.321721e+01 1.396571e+01 7.485654e+00 0 -1 1 -8.173330e-01 1.132128e-01 -9.762450e-02 5.564343e-01
68 1 1 -1.377579e+01 1.375054e+01 7.630277e+00 0 -1 1 4.963588e-01 3.471869e-01 4.139365e-01 -6.795188e-01
69 1 1 -1.410372e+01 1.330080e+01 7.773638e+00 0 -1 1 7.223801e-01 4.616141e-01 1.451685e-01 -4.939691e-01
70 1 2 -1.440755e+01 1.279339e+01 7.859270e+00 0 -1 1 8.523580e-01 4.424860e-01 6.783452e-02 -2.703524e-01
71 1 3 -1.502329e+01 1.402554e+01 8.854687e+00 0 -1 1 -1.320054e-01 5.286192e-01 3.286234e-01 7.714551e-01
72 1 4 -1.492468e+01 1.449614e+01 8.950138e+00 0 -1 1 4.035112e-01 -7.533140e-01 1.666099e-01 -4.918718e-01
73 1 1 -1.558543e+01 1.410478e+01 8.509308e+00 0 -1 1 8.963934e-01 2.085983e-01 -2.979305e-01 -2.533831e-01
74 1 1 -1.643085e+01 1.518128e+01 8.110334e+00 0 -1 1 3.114340e-01 2.716465e-01 8.928719e-01 1.788764e-01
75 1 3 -1.588703e+01 1.614963e+01 8.630514e+00 0 -1 1 -1.861308e-02 -6.050539e-02 3.166394e-01 -9.464313e-01
76 1 1 -1.590842e+01 1.615173e+01 9.114435e+00 0 -1 1 3.606677e-01 6.317725e-02 2.874556e-01 -8.850405e-01
77 1 4 -1.526935e+01 1.638535e+01 9.249393e+00 0 -1 1 -2.265756e-02 -3.299128e-01 -7.050749e-01 -6.273065e-01
78 1 1 -1.436650e+01 1.725581e+01 9.590718e+00 0 -1 1 -4.412044e-01 1.333782e-01 1.892947e-02 -8.872376e-01
79 1 4 -1.437079e+01 1.751476e+01 1.002352e+01 0 -1 1 3.301559e-02 -1.370946e-01 7.659324e-02 9.870403e-01
80 1 2 -1.447366e+01 1.768658e+01 1.058918e+01 0 -1 1 -3.288842e-01 -2.392554e-01 1.680795e-02 9.134055e-01
81 1 4 -1.385160e+01 1.775012e+01 1.164824e+01 0 -1 1 -1.915523e-01 1.825723e-01 6.977871e-01 -6.656338e-01
82 1 4 -1.448474e+01 1.771934e+01 1.159304e+01 0 -1 1 -5.141649e-01 -6.216568e-02 -4.450677e-01 7.305372e-01
83 1 4 -1.452067e+01 1.724197e+01 1.183667e+01 0 -1 1 -6.635793e-01 -3.137072e-01 -3.862732e-01 5.586083e-01
84 1 4 -1.464516e+01 1.672697e+01 1.195139e+01 0 -1 1 9.008155e-01 3.714880e-01 1.971712e-01 -1.079425e-01
85 1 1 -1.518050e+01 1.665558e+01 1.251107e+01 0 -1 1 2.279833e-02 -6.981758e-01 7.079405e-01 -1.041685e-01
86 1 1 -1.564733e+01 1.733236e+01 1.133516e+01 0 -1 1 9.540676e-02 -4.070240e-01 9.960772e-02 9.029437e-01
87 1 3 -1.607061e+01 1.765577e+01 1.154192e+01 0 -1 1 -1.530544e-01 -4.631031e-01 2.190722e-01 8.450546e-01
88 1 2 -1.697148e+01 1.780720e+01 1.156191e+01 0 -1 1 5.815835e-02 4.589174e-01 7.301228e-01 5.029246e-01
89 1 2 -1.656882e+01 1.753825e+01 1.091244e+01 0 -1 1 1.734231e-01 -9.275843e-01 2.988504e-01 1.421273e-01
90 1 3 -1.732226e+01 1.719750e+01 1.140564e+01 0 -1 1 -7.651418e-01 -3.593089e-01 3.619518e-01 -3.929962e-01
91 1 3 -1.785575e+01 1.695700e+01 1.139928e+01 0 -1 1 7.740262e-02 -8.477730e-01 -5.241788e-01 -2.294343e-02
92 1 2 -1.831754e+01 1.629258e+01 1.175687e+01 0 -1 1 -2.111998e-01 -5.596693e-01 7.799546e-01 -1.839449e-01
93 1 1 -1.890757e+01 1.572935e+01 1.089901e+01 0 -1 1 5.195381e-01 1.007051e-01 -6.604840e-01 -5.326344e-01
94 1 2 -1.946031e+01 1.587324e+01 1.088258e+01 0 -1 1 6.920134e-01 -1.658871e-01 -6.414372e-01 -2.866309e-01
95 1 3 2.004719e+01 1.590751e+01 1.093425e+01 -1 -1 1 7.543477e-01 -3.669507e-01 -5.437847e-01 2.459729e-02
96 1 2 1.915830e+01 1.571535e+01 9.782446e+00 -1 -1 1 6.169598e-01 1.697371e-01 7.470645e-01 -1.801235e-01
97 1 2 1.930613e+01 1.529465e+01 9.536784e+00 -1 -1 1 -6.317214e-01 -5.144881e-01 -5.687150e-01 -1.131076e-01
98 1 4 1.950522e+01 1.500674e+01 9.215960e+00 -1 -1 1 4.774636e-01 7.816045e-01 2.700343e-01 2.969924e-01
99 1 2 1.952090e+01 1.470418e+01 8.186117e+00 -1 -1 1 6.041883e-02 7.831130e-01 -3.632082e-01 -5.011620e-01
100 1 1 1.896641e+01 1.453356e+01 8.417804e+00 -1 -1 1 -6.606311e-01 4.033222e-01 -5.494987e-01 -3.145613e-01
101 2 4 -1.650010e+01 1.806391e+01 2.048591e-02 0 -1 1 -8.793403e-02 -1.377362e-01 -8.342063e-01 5.266842e-01
102 2 3 -1.614328e+01 1.779581e+01 1.081661e+00 0 -1 1 -6.661088e-01 6.619897e-02 7.022440e-01 -2.424256e-01
103 2 1 -1.672531e+01 1.706386e+01 9.334350e-01 0 -1 1 -6.812659e-02 9.813383e-02 9.463058e-01 -3.003894e-01
104 2 3 -1.696960e+01 1.665260e+01 8.050035e-01 0 -1 1 -9.931628e-02 -4.887280e-01 -8.293417e-01 2.519395e-01
105 2 3 -1.722094e+01 1.646668e+01 5.137495e-01 0 -1 1 1.572331e-01 7.934735e-01 5.453399e-01 -2.197314e-01
106 2 2 -1.711211e+01 1.665450e+01 -1.473403e-01 0 -1 1 1.394300e-01 7.774748e-01 5.921335e-01 1.595937e-01
107 2 3 -1.628632e+01 1.637192e+01 -5.035242e-01 0 -1 1 -9.528952e-01 -1.563462e-01 2.113071e-01 1.513141e-01
108 2 4 -1.571082e+01 1.695028e+01 -1.119439e+00 0 -1 1 -6.367429e-01 -6.080425e-01 2.567599e-01 -3.986441e-01
109 2 3 -1.571851e+01 1.661796e+01 -1.160375e+00 0 -1 1 -4.068557e-01 -1.608361e-02 -9.110232e-01 6.516527e-02
110 2 2 -1.568776e+01 1.715640e+01 -2.046461e+00 0 -1 1 2.999740e-01 4.590011e-01 5.853598e-02 -8.342105e-01
111 2 2 -1.454181e+01 1.677830e+01 -2.195497e+00 0 -1 1 -4.825138e-01 -4.260161e-01 7.596964e-01 9.247739e-02
112 2 3 -1.435663e+01 1.709503e+01 -2.453546e+00 0 -1 1 -7.640618e-01 4.861341e-01 1.232730e-01 4.058165e-01
113 2 3 -1.460341e+01 1.798564e+01 -3.306523e+00 0 -1 1 5.038343e-01 7.430682e-01 -3.220157e-02 -4.392763e-01
114 2 2 -1.485716e+01 1.768315e+01 -3.616074e+00 0 -1 1 7.332474e-01 5.696797e-01 -3.138011e-01 -1.983487e-01
115 2 4 -1.504022e+01 1.719274e+01 -3.701675e+00 0 -1 1 7.317742e-01 4.622125e-01 -4.835100e-01 1.307068e-01
116 2 4 -1.502947e+01 1.670106e+01 -3.763867e+00 0 -1 1 -5.116832e-01 -1.116121e-01 7.102972e-01 -4.703200e-01
117 2 1 -1.520405e+01 1.629713e+01 -3.496029e+00 0 -1 1 -1.410489e-01 2.632236e-01 7.173741e-01 -6.294386e-01
118 2 1 -1.570267e+01 1.618317e+01 -3.345748e+00 0 -1 1 1.336586e-01 5.979409e-01 5.016329e-01 -6.107098e-01
119 2 1 -1.612514e+01 1.597595e+01 -3.345643e+00 0 -1 1 3.672912e-01 7.101875e-01 3.044228e-01 -5.177428e-01
120 2 1 -1.635963e+01 1.576326e+01 -3.619717e+00 0 -1 1 -5.975851e-01 -7.614128e-01 1.069546e-01 2.273834e-01
121 2 3 -1.657896e+01 1.551371e+01 -3.976347e+00 0 -1 1 6.516255e-01 5.774719e-01 -4.914884e-01 -1.869799e-02
122 2 1 -1.773367e+01 1.630941e+01 -3.279007e+00 0 -1 1 4.478552e-01 -5.149998e-01 -6.170385e-01 -3.917453e-01
123 2 4 -1.806222e+01 1.663238e+01 -3.378932e+00 0 -1 1 -4.886850e-01 7.789288e-01 3.549082e-01 1.688109e-01
124 2 1 -1.815335e+01 1.707385e+01 -3.255117e+00 0 -1 1 -5.303937e-01 8.326455e-01 6.307332e-02 -1.463073e-01
125 2 4 -1.813649e+01 1.758833e+01 -3.248159e+00 0 -1 1 4.073405e-01 -8.008969e-01 2.945796e-01 3.253626e-01
126 2 2 -1.796388e+01 1.802057e+01 -3.420079e+00 0 -1 1 1.162345e-01 -5.877647e-01 5.788176e-01 5.531657e-01
127 2 4 -1.827121e+01 1.836934e+01 -2.837425e+00 0 -1 1 -9.447413e-01 1.922079e-01 2.596871e-01 -5.552148e-02
128 2 4 -1.851881e+01 1.853292e+01 -2.377809e+00 0 -1 1 -9.763633e-01 1.726501e-01 1.249464e-01 -3.598741e-02
129 2 1 -1.848973e+01 1.853780e+01 -1.805805e+00 0 -1 1 -8.098924e-01 3.566939e-01 -1.053357e-01 -4.535947e-01
130 2 2 -1.928766e+01 1.821921e+01 -7.739225e-01 0 -1 1 4.720156e-01 -1.935567e-01 -7.113757e-01 4.834064e-01
131 2 3 2.015077e+01 1.768310e+01 -8.189618e-01 -1 -1 1 8.876667e-02 -9.215288e-02 3.554277e-01 -9.259047e-01
132 2 4 1.981788e+01 1.683049e+01 -7.695244e-01 -1 -1 1 -3.588182e-01 -2.415692e-01 -7.544079e-01 4.937231e-01
133 2 4 1.978811e+01 1.641656e+01 -7.782539e-01 -1 -1 1 -4.845190e-01 -4.958135e-01 -6.168056e-01 3.727750e-01
134 2 3 1.980153e+01 1.603632e+01 1.663922e-01 -1 -1 1 -2.590738e-01 8.526376e-01 7.004765e-02 4.483116e-01
135 2 4 1.906525e+01 1.544657e+01 6.832525e-02 -1 -1 1 2.566103e-01 4.304455e-01 -7.672026e-01 4.003349e-01
136 2 3 1.832028e+01 1.588887e+01 -5.939614e-02 -1 -1 1 -2.680819e-01 -8.338212e-01 -4.693853e-01 -1.120343e-01
137 2 1 1.802369e+01 1.537769e+01 8.453371e-01 -1 -1 1 9.659130e-02 4.017413e-01 5.891397e-01 -6.943979e-01
138 2 3 1.868871e+01 1.547015e+01 1.526375e+00 -1 -1 1 2.707609e-01 -8.004447e-01 -3.281781e-01 4.222274e-01
139 2 2 1.861086e+01 1.524311e+01 1.848024e+00 -1 -1 1 -2.047096e-02 -4.761120e-02 -5.332883e-01 -8.443445e-01
140 2 3 1.949401e+01 1.519397e+01 3.206399e+00 -1 -1 1 7.378132e-01 2.204973e-01 -4.541379e-01 4.480752e-01
141 2 1 1.951474e+01 1.476718e+01 3.367501e+00 -1 -1 1 -4.602290e-01 -1.795484e-02 5.841575e-01 -6.683015e-01
142 2 2 -1.981954e+01 1.367840e+01 3.297624e+00 0 -1 1 8.022011e-01 -3.541912e-01 4.220526e-01 -2.299860e-01
143 2 4 -1.952058e+01 1.351897e+01 3.563596e+00 0 -1 1 8.652645e-01 -1.053245e-01 4.361202e-01 2.236588e-01
144 2 4 -1.902904e+01 1.348118e+01 3.646474e+00 0 -1 1 6.759652e-01 1.187008e-01 4.417663e-01 5.777748e-01
145 2 1 -1.833239e+01 1.329724e+01 3.528201e+00 0 -1 1 -8.437520e-01 1.030720e-01 -5.067796e-01 -1.436421e-01
146 2 1 -1.788645e+01 1.319611e+01 3.465972e+00 0 -1 1 -6.063241e-01 -3.789193e-01 -5.077056e-01 -4.806518e-01
147 2 1 -1.708135e+01 1.287386e+01 3.573407e+00 0 -1 1 6.602887e-01 -4.347987e-01 2.094624e-02 6.119887e-01
148 2 2 -1.758548e+01 1.175826e+01 3.371897e+00 0 -1 1 -7.610639e-01 -5.585963e-01 3.270143e-01 4.258562e-02
149 2 4 -1.757670e+01 1.122557e+01 3.346134e+00 0 -1 1 6.968922e-01 5.103635e-01 -3.888644e-01 3.203979e-01
150 2 1 -1.744055e+01 1.075086e+01 3.434057e+00 0 -1 1 5.897912e-01 2.674500e-01 -5.298703e-01 5.475895e-01
151 2 1 -1.741863e+01 1.028380e+01 3.736460e+00 0 -1 1 5.138179e-01 6.402781e-02 -5.183509e-01 6.805908e-01
152 2 1 -1.748684e+01 1.004752e+01 4.256180e+00 0 -1 1 2.384589e-01 -1.798767e-01 -3.948446e-01 8.688380e-01
153 2 4 -1.785877e+01 9.913296e+00 4.776297e+00 0 -1 1 9.860447e-02 -4.460731e-01 -2.893708e-01 8.411661e-01
154 2 1 -1.834060e+01 1.003000e+01 5.079827e+00 0 -1 1 -1.558753e-01 -5.067102e-01 -9.498016e-02 8.425713e-01
155 2 2 -1.892552e+01 1.007555e+01 5.198802e+00 0 -1 1 -4.113798e-01 -6.039618e-01 1.246898e-03 6.826384e-01
156 2 4 -1.944044e+01 9.964602e+00 5.088192e+00 0 -1 1 -5.906945e-01 -6.128836e-01 1.283860e-01 5.088917e-01
157 2 3 -1.983512e+01 9.702767e+00 4.842385e+00 0 -1 1 -6.968449e-01 -5.364776e-01 3.059740e-01 3.646628e-01
158 2 2 1.984088e+01 9.323534e+00 4.721632e+00 -1 -1 1 -7.422033e-01 -5.202881e-01 4.097320e-01 1.027339e-01
159 2 1 1.971161e+01 8.851746e+00 4.596379e+00 -1 -1 1 -7.274623e-01 -3.526230e-01 5.583933e-01 -1.861520e-01
160 2 3 1.953411e+01 8.364439e+00 4.587654e+00 -1 -1 1 6.984301e-01 2.410775e-01 -5.474259e-01 3.929402e-01
161 2 1 1.950915e+01 7.953794e+00 4.836868e+00 -1 -1 1 5.436861e-01 3.407664e-02 -5.902239e-01 5.957180e-01
162 2 1 1.939437e+01 7.495804e+00 5.059966e+00 -1 -1 1 4.934230e-01 -1.251306e-01 -4.846575e-01 7.113250e-01
163 2 4 1.925223e+01 7.247116e+00 5.459512e+00 -1 -1 1 1.844767e-01 -2.721550e-01 -4.042126e-01 8.535292e-01
164 2 4 1.893793e+01 7.327471e+00 5.927781e+00 -1 -1 1 -3.145616e-02 -3.273692e-01 -2.991956e-01 8.957243e-01
165 2 3 1.851154e+01 7.294586e+00 6.209283e+00 -1 -1 1 -2.890548e-01 -5.003043e-01 -1.706308e-01 7.981404e-01
166 2 3 1.798879e+01 7.237613e+00 6.282455e+00 -1 -1 1 -5.349510e-01 -5.408252e-01 -2.341816e-02 6.486811e-01
167 2 4 1.749612e+01 7.116312e+00 6.232996e+00 -1 -1 1 -6.409290e-01 -5.756897e-01 1.824911e-01 4.738020e-01
168 2 2 1.704227e+01 6.821644e+00 6.140625e+00 -1 -1 1 -7.143361e-01 -5.922392e-01 2.792361e-01 2.469896e-01
169 2 2 1.684423e+01 6.425641e+00 5.804153e+00 -1 -1 1 -6.799390e-01 -5.603465e-01 4.719037e-01 3.164946e-02
170 2 1 1.669018e+01 5.941002e+00 5.672325e+00 -1 -1 1 -6.258022e-01 -4.140172e-01 5.872964e-01 -3.033881e-01
171 2 1 1.666003e+01 5.369011e+00 5.778031e+00 -1 -1 1 6.106794e-01 2.200383e-01 -5.679621e-01 5.060365e-01
172 2 4 1.662755e+01 4.942693e+00 6.111985e+00 -1 -1 1 5.250431e-01 4.595817e-02 -5.104192e-01 6.794776e-01
173 2 4 1.667305e+01 4.611375e+00 6.623096e+00 -1 -1 1 3.452976e-01 -9.440659e-02 -4.405504e-01 8.232693e-01
174 2 1 1.653850e+01 4.583131e+00 7.139819e+00 -1 -1 1 -3.790632e-02 -2.573797e-01 -3.414263e-01 9.031871e-01
175 2 1 1.627528e+01 4.556481e+00 7.694388e+00 -1 -1 1 -6.373556e-02 -3.498874e-01 -2.053372e-01 9.117857e-01
176 2 2 1.589282e+01 4.612891e+00 8.014890e+00 -1 -1 1 -4.403397e-01 -4.025080e-01 -1.198509e-01 7.935515e-01
177 2 2 1.533800e+01 4.442021e+00 8.046766e+00 -1 -1 1 -6.629534e-01 -5.045763e-01 1.137077e-01 5.412635e-01
178 2 1 1.499752e+01 4.002859e+00 8.029521e+00 -1 -1 1 -7.563253e-01 -5.606122e-01 2.283630e-01 2.480652e-01
179 2 4 1.461277e+01 3.459927e+00 8.062014e+00 -1 -1 1 -8.270189e-01 -5.163168e-01 2.194825e-01 3.583442e-02
180 2 1 1.457106e+01 2.959581e+00 7.943329e+00 -1 -1 1 -7.613091e-01 -4.980255e-01 3.320210e-01 -2.492814e-01
181 2 4 1.463027e+01 2.487823e+00 8.035099e+00 -1 -1 1 7.099302e-01 2.883884e-01 -4.132077e-01 4.920271e-01
182 2 2 1.471892e+01 2.100749e+00 8.375168e+00 -1 -1 1 5.977378e-01 2.114731e-01 -3.628191e-01 6.828989e-01
183 2 3 1.499851e+01 1.888928e+00 8.798062e+00 -1 -1 1 3.292175e-01 7.093840e-02 -3.730333e-01 8.645402e-01
184 2 4 1.502068e+01 1.743416e+00 9.322697e+00 -1 -1 1 2.022305e-01 -4.397221e-02 -2.881618e-01 9.349503e-01
185 2 3 1.495884e+01 1.740239e+00 9.901486e+00 -1 -1 1 6.287894e-02 1.207742e-01 2.669048e-01 -9.540554e-01
186 2 1 1.469873e+01 1.725956e+00 1.034809e+01 -1 -1 1 3.642036e-01 3.427133e-01 1.271129e-01 -8.565895e-01
187 2 1 1.426618e+01 1.658420e+00 1.049541e+01 -1 -1 1 -6.294948e-01 -3.285394e-01 -5.616330e-02 7.018859e-01
188 2 2 1.390728e+01 1.350209e+00 1.071467e+01 -1 -1 1 8.164932e-01 3.822808e-01 6.428350e-03 -4.326186e-01
189 2 4 1.365546e+01 9.214959e-01 1.065796e+01 -1 -1 1 9.069646e-01 3.476880e-01 -2.001798e-01 -1.282821e-01
190 2 4 1.354255e+01 3.678062e-01 1.067772e+01 -1 -1 1 -8.592006e-01 -4.352206e-01 2.077317e-01 -1.708946e-01
191 2 1 1.368212e+01 -1.195004e-01 1.082046e+01 -1 -1 1 -7.626065e-01 -2.927736e-01 3.147825e-01 -4.833498e-01
192 2 4 1.389759e+01 -5.444832e-01 1.118113e+01 -1 -1 1 6.948272e-01 2.339533e-01 -2.607868e-01 6.280694e-01
193 2 4 1.416352e+01 -7.990768e-01 1.159485e+01 -1 -1 1 -5.328184e-01 -2.000271e-01 8.612143e-02 -8.177266e-01
194 2 1 1.449142e+01 -6.780587e-01 1.200168e+01 -1 -1 1 1.788653e-01 1.525713e-01 -2.993129e-01 9.247384e-01
195 2 3 1.475582e+01 -6.945163e-01 1.244701e+01 -1 -1 1 -6.437969e-02 5.832822e-02 -2.607130e-01 9.614998e-01
196 2 4 1.477407e+01 -7.006618e-01 1.304855e+01 -1 -1 1 3.272126e-01 6.423107e-02 3.126951e-01 -8.893976e-01
197 2 2 1.458171e+01 -8.891688e-01 1.346665e+01 -1 -1 1 6.687348e-01 1.493039e-01 3.556511e-01 -6.356213e-01
198 2 4 1.445940e+01 -1.305953e+00 1.380143e+01 -1 -1 1 -7.540340e-01 -3.459522e-01 -2.984577e-01 4.718821e-01
199 2 3 1.428690e+01 -1.787867e+00 1.394199e+01 -1 -1 1 -7.385160e-01 -5.672605e-01 -1.756572e-01 3.193026e-01
200 2 4 1.410332e+01 -2.106167e+00 1.374025e+01 -1 -1 1 -7.947550e-01 -5.739432e-01 1.958788e-01 2.418893e-02
