ITEM: TIMESTEP
278000000
ITEM: NUMBER OF ATOMS
200
ITEM: BOX BOUNDS pp pp pp
-2.0000000000000000e+01 2.0000000000000000e+01
-2.0000000000000000e+01 2.0000000000000000e+01
-2.0000000000000000e+01 2.0000000000000000e+01
ITEM: ATOMS id mol type x y z ix iy iz c_quat[1] c_quat[2] c_quat[3] c_quat[4]
1 1 1 6.640940e+00 -1.250708e+01 -1.464002e+01 -1 0 2 5.784970e-02 4.028919e-01 -9.055139e-01 -1.199008e-01
2 1 2 6.682687e+00 -1.272429e+01 -1.509088e+01 -1 0 2 1.626496e-01 -7.376579e-02 -9.806732e-01 -7.989820e-02
3 1 1 7.592826e+00 -1.218948e+01 -1.547647e+01 -1 0 2 -5.123146e-01 -6.222841e-01 5.736727e-01 1.455882e-01
4 1 3 7.627858e+00 -1.136722e+01 -1.608218e+01 -1 0 2 -4.443755e-01 -7.694012e-01 7.895888e-02 -4.520152e-01
5 1 1 7.025055e+00 -1.166105e+01 -1.681171e+01 -1 0 2 -7.444336e-01 -6.455478e-01 1.455884e-02 -1.699257e-01
6 1 2 7.446681e+00 -1.200102e+01 -1.697386e+01 -1 0 2 5.358909e-01 5.930389e-01 -3.004322e-01 5.204482e-01
7 1 4 7.752424e+00 -1.281748e+01 -1.749285e+01 -1 0 2 2.928051e-01 8.422436e-01 -4.040935e-01 2.039592e-01
8 1 1 7.938032e+00 -1.307332e+01 -1.790670e+01 -1 0 2 2.205036e-01 8.316621e-01 -3.914529e-01 3.263141e-01
9 1 1 8.394160e+00 -1.310148e+01 -1.815945e+01 -1 0 2 -4.531306e-02 -6.618296e-01 6.694749e-01 -3.342629e-01
10 1 4 8.739667e+00 -1.341879e+01 -1.834649e+01 -1 0 2 2.539506e-03 3.740099e-01 -8.623890e-01 3.411676e-01
11 1 1 8.827629e+00 -1.389710e+01 -1.853796e+01 -1 0 2 -3.113767e-02 7.500563e-02 -8.929428e-01 4.427841e-01
12 1 1 8.927886e+00 -1.441214e+01 -1.870578e+01 -1 0 2 1.439916e-02 9.965945e-02 8.480111e-01 -5.203248e-01
13 1 3 8.649081e+00 -1.484916e+01 -1.864558e+01 -1 0 2 -1.568529e-01 -4.400524e-01 -6.894726e-01 5.535148e-01
14 1 4 8.248296e+00 -1.528019e+01 -1.880111e+01 -1 0 2 2.281299e-01 6.818946e-01 5.705630e-01 -3.967799e-01
15 1 4 7.815313e+00 -1.544766e+01 -1.905809e+01 -1 0 2 3.338489e-01 8.368304e-01 2.980689e-01 -3.153010e-01
16 1 2 7.560837e+00 -1.563393e+01 -1.954442e+01 -1 0 2 -3.674932e-01 -9.153540e-01 -1.133827e-01 1.192486e-01
17 1 1 7.532010e+00 -1.575880e+01 2.005428e+01 -1 0 1 -2.953061e-01 -9.508165e-01 9.309626e-02 -8.686484e-03
18 1 2 7.593802e+00 -1.579545e+01 1.953043e+01 -1 0 1 2.394364e-01 8.856070e-01 -3.703968e-01 1.455223e-01
19 1 3 7.957802e+00 -1.590355e+01 1.916145e+01 -1 0 1 8.992888e-02 7.176560e-01 -6.134585e-01 3.170982e-01
20 1 1 8.304601e+00 -1.624875e+01 1.889655e+01 -1 0 1 1.559963e-01 4.957586e-01 -7.471772e-01 4.142642e-01
21 1 4 8.516618e+00 -1.672550e+01 1.875862e+01 -1 0 1 -6.419075e-02 -2.259142e-01 8.984598e-01 -3.709614e-01
22 1 1 8.622103e+00 -1.721527e+01 1.869355e+01 -1 0 1 3.492109e-02 2.840512e-02 9.090395e-01 -4.142715e-01
23 1 4 8.649964e+00 -1.769814e+01 1.872131e+01 -1 0 1 9.006458e-02 1.969631e-01 8.347248e-01 -5.062888e-01
24 1 3 8.445075e+00 -1.814387e+01 1.869592e+01 -1 0 1 2.565634e-01 4.932009e-01 7.458653e-01 -3.668965e-01
25 1 3 8.070274e+00 -1.845468e+01 1.857475e+01 -1 0 1 3.578752e-01 7.398199e-01 4.661459e-01 -3.275666e-01
26 1 4 7.800525e+00 -1.872613e+01 1.810055e+01 -1 0 1 3.575799e-01 8.516276e-01 3.623066e-01 -1.249038e-01
27 1 4 7.730563e+00 -1.885854e+01 1.753775e+01 -1 0 1 3.921547e-01 9.154387e-01 2.455784e-02 8.708388e-02
28 1 1 7.851904e+00 -1.892695e+01 1.702586e+01 -1 0 1 2.418542e-01 9.016744e-01 -2.457156e-01 2.609859e-01
29 1 1 8.217726e+00 -1.898608e+01 1.665112e+01 -1 0 1 1.708202e-01 7.121118e-01 -5.870605e-01 3.450758e-01
30 1 4 8.574842e+00 -1.942845e+01 1.645588e+01 -1 0 1 -1.005607e-01 -4.821384e-01 6.997110e-01 -5.175275e-01
31 1 4 8.952365e+00 -1.982087e+01 1.648131e+01 -1 0 1 -6.825825e-03 -2.461274e-01 8.694616e-01 -4.282655e-01
32 1 3 9.053935e+00 1.966123e+01 1.658501e+01 -1 -1 1 8.137771e-02 -8.311601e-02 8.616173e-01 -4.940496e-01
33 1 3 8.999544e+00 1.909533e+01 1.648418e+01 -1 -1 1 1.156043e-01 1.835949e-01 8.384278e-01 -4.999673e-01
34 1 1 8.777229e+00 1.859802e+01 1.645642e+01 -1 -1 1 2.376715e-01 4.764338e-01 6.857973e-01 -4.961907e-01
35 1 2 8.301476e+00 1.831103e+01 1.634393e+01 -1 -1 1 4.675520e-01 6.512804e-01 4.546293e-01 -3.879964e-01
36 1 2 7.988478e+00 1.802827e+01 1.594217e+01 -1 -1 1 5.980132e-01 7.570542e-01 1.555196e-01 -2.122799e-01
37 1 1 7.873316e+00 1.769659e+01 1.568473e+01 -1 -1 1 5.263270e-01 8.465902e-01 5.349791e-02 -5.833395e-02
38 1 1 7.926857e+00 1.744922e+01 1.521710e+01 -1 -1 1 4.452632e-01 8.561222e-01 -2.284378e-01 1.288861e-01
39 1 4 8.183204e+00 1.700069e+01 1.491299e+01 -1 -1 1 -4.289053e-01 -8.119292e-01 2.592236e-01 -2.993566e-01
40 1 4 8.503478e+00 1.678857e+01 1.469317e+01 -1 -1 1 -2.932352e-01 -7.105428e-01 4.895590e-01 -4.116722e-01
41 1 2 8.951334e+00 1.650506e+01 1.456905e+01 -1 -1 1 -1.305576e-01 -4.969428e-01 6.932411e-01 -5.053902e-01
42 1 4 9.188473e+00 1.612088e+01 1.464507e+01 -1 -1 1 -9.117028e-02 2.298115e-01 -7.440612e-01 6.206832e-01
43 1 3 9.365475e+00 1.568237e+01 1.476513e+01 -1 -1 1 2.405312e-01 3.940808e-02 7.572403e-01 -6.059529e-01
44 1 2 9.317216e+00 1.518135e+01 1.486286e+01 -1 -1 1 3.302136e-01 2.341120e-01 7.150989e-01 -5.698983e-01
45 1 1 9.042528e+00 1.463121e+01 1.479539e+01 -1 -1 1 4.127045e-01 5.270895e-01 6.094377e-01 -4.247792e-01
46 1 3 8.921373e+00 1.411571e+01 1.456627e+01 -1 -1 1 5.133147e-01 6.418598e-01 5.238750e-01 -2.237834e-01
47 1 4 8.805557e+00 1.379145e+01 1.426404e+01 -1 -1 1 4.096047e-01 8.582737e-01 2.852518e-01 -1.192541e-01
48 1 1 8.604629e+00 1.363664e+01 1.385574e+01 -1 -1 1 -2.572872e-01 -9.563272e-01 -1.338808e-01 3.629853e-02
49 1 4 8.651207e+00 1.367408e+01 1.330869e+01 -1 -1 1 -2.453552e-01 -9.518840e-01 1.700659e-01 -6.924757e-02
50 1 4 8.901011e+00 1.363109e+01 1.288047e+01 -1 -1 1 -2.637935e-01 -8.241665e-01 4.758787e-01 -1.571689e-01
51 1 4 9.232919e+00 1.342465e+01 1.255653e+01 -1 -1 1 -1.629128e-01 -6.604441e-01 6.601704e-01 -3.185089e-01
52 1 1 9.581600e+00 1.308976e+01 1.231102e+01 -1 -1 1 -9.350956e-02 -4.384073e-01 8.142241e-01 -3.689094e-01
53 1 3 9.841610e+00 1.260794e+01 1.223314e+01 -1 -1 1 -6.178374e-03 1.276370e-01 -9.193664e-01 3.720700e-01
54 1 4 9.780259e+00 1.200088e+01 1.207866e+01 -1 -1 1 -4.583830e-02 -1.268137e-01 -9.349716e-01 3.280934e-01
55 1 4 9.618166e+00 1.156234e+01 1.198217e+01 -1 -1 1 1.265828e-01 3.661882e-01 8.158513e-01 -4.292664e-01
56 1 4 9.341945e+00 1.114669e+01 1.179153e+01 -1 -1 1 1.616308e-01 6.049677e-01 6.670461e-01 -4.036571e-01
57 1 1 8.910499e+00 1.091793e+01 1.161332e+01 -1 -1 1 2.289394e-01 8.288038e-01 3.515335e-01 -3.702637e-01
58 1 1 8.530769e+00 1.081442e+01 1.115535e+01 -1 -1 1 2.688685e-01 9.331208e-01 1.159258e-01 -2.087019e-01
59 1 3 7.371374e+00 1.064381e+01 1.122897e+01 -1 -1 1 5.440684e-02 -7.526858e-01 -6.512135e-01 -8.015600e-02
60 1 4 7.840890e+00 9.570305e+00 1.094811e+01 -1 -1 1 -8.834000e-01 -2.651458e-01 -2.626876e-01 -2.833678e-01
61 1 2 7.220456e+00 9.069464e+00 1.142841e+01 -1 -1 1 -7.255867e-01 -5.424774e-01 4.073649e-01 -1.153088e-01
62 1 3 6.110170e+00 9.071837e+00 1.083620e+01 -1 -1 1 -6.981209e-02 -5.002657e-01 1.742141e-01 8.452869e-01
63 1 2 5.684305e+00 9.311444e+00 1.072962e+01 -1 -1 1 -2.747784e-01 -4.517637e-01 4.991975e-01 6.864460e-01
64 1 4 5.223844e+00 9.555972e+00 1.047015e+01 -1 -1 1 5.399857e-01 2.030499e-01 -6.243412e-01 -5.266728e-01
65 1 2 4.780943e+00 9.541243e+00 1.044562e+01 -1 -1 1 6.620951e-01 6.472099e-02 -7.231310e-01 -1.858034e-01
66 1 1 4.398944e+00 9.472828e+00 1.045089e+01 -1 -1 1 -6.090595e-01 2.954028e-01 7.100599e-01 -1.939037e-01
67 1 2 3.820728e+00 9.440932e+00 1.060867e+01 -1 -1 1 5.799922e-01 -6.044854e-01 -4.688386e-01 2.799944e-01
68 1 1 3.418293e+00 9.636781e+00 1.073190e+01 -1 -1 1 3.260171e-01 -8.193359e-01 -1.276373e-01 4.539936e-01
69 1 1 3.622416e+00 8.875911e+00 1.180534e+01 -1 -1 1 -7.413601e-01 6.246593e-01 -1.814858e-01 1.650721e-01
70 1 2 3.936084e+00 9.061234e+00 1.218088e+01 -1 -1 1 7.584163e-01 -4.316814e-01 4.646267e-01 1.502596e-01
71 1 3 4.463389e+00 9.444388e+00 1.219092e+01 -1 -1 1 5.079115e-01 -2.837100e-01 6.640923e-01 4.695914e-01
72 1 4 4.445845e+00 9.499600e+00 1.347082e+01 -1 -1 1 -4.306539e-01 7.594949e-01 -4.875494e-01 4.539284e-04
73 1 1 4.041543e+00 1.048865e+01 1.303253e+01 -1 -1 1 -6.805028e-01 -7.006233e-01 -1.849330e-01 -1.088240e-01
74 1 1 3.104686e+00 1.035166e+01 1.431417e+01 -1 -1 1 -6.992036e-01 5.221202e-01 4.774211e-01 1.028298e-01
75 1 3 2.667947e+00 1.042914e+01 1.353403e+01 -1 -1 1 -7.049622e-01 7.674471e-02 -6.485457e-01 -2.766350e-01
76 1 1 1.687401e+00 1.132540e+01 1.425716e+01 -1 -1 1 -2.767034e-01 -3.971544e-01 -3.966024e-01 7.800065e-01
77 1 4 1.272013e+00 1.109766e+01 1.422984e+01 -1 -1 1 6.917189e-01 5.041321e-01 1.120321e-01 -5.048016e-01
78 1 1 7.217165e-01 1.118425e+01 1.548727e+01 -1 -1 1 5.602355e-01 -7.862081e-02 3.714502e-02 -8.237567e-01
79 1 4 5.724636e-01 1.118044e+01 1.597654e+01 -1 -1 1 9.021731e-01 -4.891628e-02 1.106669e-01 -4.140577e-01
80 1 2 3.905530e-01 1.091077e+01 1.649275e+01 -1 -1 1 8.485121e-01 9.933819e-02 2.354346e-01 -4.633894e-01
81 1 4 -6.558470e-02 1.135304e+01 1.614511e+01 -1 -1 1 6.078483e-01 -3.025869e-01 7.339175e-01 1.807810e-02
82 1 4 -4.079683e-01 1.231411e+01 1.695549e+01 -1 -1 1 8.907455e-02 -7.809692e-01 -3.836313e-01 4.847471e-01
83 1 4 -8.496736e-01 1.235240e+01 1.694021e+01 -1 -1 1 -8.578981e-02 -8.523838e-01 -1.443276e-01 4.952287e-01
84 1 4 -1.132421e+00 1.201312e+01 1.766982e+01 -1 -1 1 2.982661e-01 -9.084477e-01 -1.050877e-01 2.733434e-01
85 1 1 -1.926804e+00 1.260614e+01 1.730064e+01 -1 -1 1 -1.588174e-01 -2.072849e-01 -1.688532e-01 9.504202e-01
86 1 1 -2.170554e+00 1.257059e+01 1.764292e+01 -1 -1 1 -5.945924e-01 -2.672390e-01 -5.133349e-02 7.565766e-01
87 1 3 -2.592878e+00 1.232051e+01 1.778753e+01 -1 -1 1 -8.025607e-01 -3.688716e-01 1.151168e-01 4.545087e-01
88 1 2 -3.836650e+00 1.270539e+01 1.797030e+01 -1 -1 1 3.744626e-01 4.592923e-01 5.837429e-01 -5.550429e-01
89 1 2 -3.977548e+00 1.218471e+01 1.798211e+01 -1 -1 1 6.255444e-01 6.330180e-01 4.392775e-01 -1.225470e-01
90 1 3 -3.987417e+00 1.306991e+01 1.853604e+01 -1 -1 1 -4.538307e-01 -3.490388e-02 -3.075730e-01 -8.355946e-01
91 1 3 -3.834676e+00 1.337163e+01 1.895720e+01 -1 -1 1 4.416510e-02 -6.315284e-02 2.729080e-01 9.589486e-01
92 1 2 -3.616422e+00 1.405522e+01 1.849314e+01 -1 -1 1 2.396569e-02 -8.634760e-01 -3.579436e-03 5.038075e-01
93 1 1 -4.405257e+00 1.398681e+01 1.813896e+01 -1 -1 1 4.367927e-01 5.825054e-01 -3.321949e-01 -5.996217e-01
94 1 2 -4.871456e+00 1.390038e+01 1.787806e+01 -1 -1 1 7.212089e-01 2.955021e-01 -5.349965e-01 -3.260598e-01
95 1 3 -4.577334e+00 1.517070e+01 1.825897e+01 -1 -1 1 7.274533e-01 -5.797703e-01 6.207967e-02 3.616962e-01
96 1 2 -4.507784e+00 1.560804e+01 1.856014e+01 -1 -1 1 5.502773e-01 -5.105192e-01 2.908421e-01 5.932756e-01
97 1 2 -4.327712e+00 1.596717e+01 1.803310e+01 -1 -1 1 7.392132e-01 4.555566e-01 -6.865213e-03 4.959686e-01
98 1 4 -5.387259e+00 1.627670e+01 1.807304e+01 -1 -1 1 -1.483658e-01 9.502337e-01 2.485291e-01 1.152254e-01
99 1 2 -5.215417e+00 1.666286e+01 1.784458e+01 -1 -1 1 -2.162194e-01 9.482923e-01 -2.318752e-01 -1.499429e-02
100 1 1 -5.295575e+00 1.641948e+01 1.667502e+01 -1 -1 1 4.947198e-01 1.800905e-01 7.886795e-01 3.174970e-01
101 2 4 -1.150384e+00 1.398768e+01 4.611348e+00 -1 -1 1 -3.705308e-01 1.031421e-01 -8.389787e-01 3.849459e-01
102 2 3 -5.490704e-01 1.482524e+01 5.012553e+00 -1 -1 1 2.458846e-01 -5.673827e-01 -4.571415e-01 -6.392490e-01
103 2 1 -6.070446e-01 1.546064e+01 5.197204e+00 -1 -1 1 5.062275e-01 -6.986320e-01 -1.562149e-01 -4.808782e-01
104 2 3 -4.294252e-01 1.581395e+01 5.369826e+00 -1 -1 1 -6.660702e-01 6.862044e-01 -2.017762e-01 2.115662e-01
105 2 3 8.519828e-02 1.540047e+01 4.968509e+00 -1 -1 1 5.243458e-01 3.482801e-01 -7.636970e-01 -1.432803e-01
106 2 2 9.225046e-01 1.578502e+01 4.192473e+00 -1 -1 1 8.956653e-01 7.983488e-02 8.555396e-02 4.290578e-01
107 2 3 1.401737e+00 1.561669e+01 4.451010e+00 -1 -1 1 -7.107077e-01 -2.306381e-01 -1.022982e-01 -6.566854e-01
108 2 4 1.841163e+00 1.570628e+01 4.651188e+00 -1 -1 1 -3.130566e-01 -2.641973e-01 1.190530e-01 -9.044455e-01
109 2 3 1.609459e+00 1.478782e+01 3.412708e+00 -1 -1 1 5.177849e-01 5.588871e-01 6.389736e-01 -1.060978e-01
110 2 2 1.677376e+00 1.450561e+01 4.966563e+00 -1 -1 1 5.444454e-01 -1.225187e-02 -6.632790e-01 5.133128e-01
111 2 2 1.783498e+00 1.381735e+01 4.725511e+00 -1 -1 1 -5.443976e-01 4.604141e-01 4.700938e-01 5.202518e-01
112 2 3 3.071514e+00 1.364712e+01 4.240552e+00 -1 -1 1 -7.691372e-01 -4.112321e-01 -2.827350e-01 -3.992205e-01
113 2 3 3.610867e+00 1.341785e+01 4.160369e+00 -1 -1 1 5.370914e-01 4.422798e-01 1.140198e-01 7.091692e-01
114 2 2 3.763113e+00 1.302491e+01 4.107271e+00 -1 -1 1 -1.576118e-01 3.826178e-01 4.555049e-01 -7.882116e-01
115 2 4 4.554335e+00 1.187067e+01 4.363311e+00 -1 -1 1 4.360915e-03 8.697399e-01 -4.905819e-01 5.350560e-02
116 2 4 4.246441e+00 1.293424e+01 4.791395e+00 -1 -1 1 -6.023104e-01 -4.609947e-01 -1.710773e-01 -6.288391e-01
117 2 1 4.725899e+00 1.297289e+01 4.847914e+00 -1 -1 1 -2.899185e-01 -5.144513e-01 1.805571e-02 -8.068216e-01
118 2 1 5.103922e+00 1.316538e+01 5.086798e+00 -1 -1 1 1.321374e-01 -4.536931e-01 1.120446e-01 -8.741558e-01
119 2 1 5.387582e+00 1.348521e+01 5.449278e+00 -1 -1 1 3.683180e-01 -3.946486e-01 2.921239e-01 -7.894669e-01
120 2 1 5.769926e+00 1.289446e+01 5.105052e+00 -1 -1 1 -6.994932e-01 -4.927565e-01 -4.716745e-01 2.131278e-01
121 2 3 5.938481e+00 1.247248e+01 4.921252e+00 -1 -1 1 -6.937827e-01 -6.101291e-01 -3.494976e-01 -1.557546e-01
122 2 1 6.331925e+00 1.220330e+01 4.718463e+00 -1 -1 1 5.228374e-01 7.472085e-01 2.809820e-01 2.989475e-01
123 2 4 6.510400e+00 1.105510e+01 5.145129e+00 -1 -1 1 -6.338961e-01 -4.113459e-01 3.692628e-01 5.409392e-01
124 2 1 6.964008e+00 1.159907e+01 6.347147e+00 -1 -1 1 -4.123920e-01 8.738982e-01 2.347511e-01 -1.054829e-01
125 2 4 6.967239e+00 1.109316e+01 6.835250e+00 -1 -1 1 -3.728548e-02 8.227137e-01 3.551072e-01 4.423243e-01
126 2 2 7.338222e+00 9.557226e+00 6.969658e+00 -1 -1 1 3.027709e-01 -5.497239e-01 7.784726e-01 1.067297e-02
127 2 4 7.645020e+00 9.485299e+00 6.584744e+00 -1 -1 1 -2.019990e-01 1.493925e-01 -9.617364e-01 -1.092766e-01
128 2 4 8.228136e+00 9.082648e+00 6.995057e+00 -1 -1 1 9.484176e-01 1.077807e-01 -4.923932e-02 2.940457e-01
129 2 1 8.267683e+00 8.679864e+00 7.243003e+00 -1 -1 1 -7.816846e-01 -1.664461e-02 -2.253031e-01 -5.813180e-01
130 2 2 8.591598e+00 8.683274e+00 7.534268e+00 -1 -1 1 -5.027733e-01 -1.321198e-01 -1.654154e-01 -8.380938e-01
131 2 3 8.780402e+00 9.024729e+00 8.104485e+00 -1 -1 1 -4.100137e-01 6.000477e-02 -3.448108e-02 -9.094500e-01
132 2 4 9.514388e+00 8.535694e+00 8.808748e+00 -1 -1 1 6.146686e-01 -7.013586e-01 -3.146370e-01 -1.768679e-01
133 2 4 1.034964e+01 8.663646e+00 9.085290e+00 -1 -1 1 4.069877e-01 -8.512918e-01 2.809795e-01 1.752537e-01
134 2 3 1.053646e+01 9.073975e+00 8.933514e+00 -1 -1 1 2.252978e-01 -6.163062e-01 6.439301e-01 3.933975e-01
135 2 4 1.069181e+01 9.313182e+00 8.509378e+00 -1 -1 1 -4.751881e-02 3.034953e-01 -8.091214e-01 -5.009543e-01
136 2 3 1.100488e+01 9.685444e+00 9.149890e+00 -1 -1 1 -4.507525e-01 -6.621910e-01 -5.353431e-01 2.678302e-01
137 2 1 1.151385e+01 9.633484e+00 9.813760e+00 -1 -1 1 -4.176123e-02 -1.439825e-01 1.332670e-01 9.796759e-01
138 2 3 1.123992e+01 9.988452e+00 1.002237e+01 -1 -1 1 -4.417333e-01 -9.226954e-02 3.474772e-01 8.219596e-01
139 2 2 1.091602e+01 9.454067e+00 1.046030e+01 -1 -1 1 3.837562e-01 2.790526e-01 -8.796186e-01 -3.364366e-02
140 2 3 1.048761e+01 9.266288e+00 1.010193e+01 -1 -1 1 -5.286347e-01 -2.860768e-01 7.985996e-01 -3.072709e-02
141 2 1 1.004514e+01 1.044382e+01 9.934204e+00 -1 -1 1 4.210450e-01 -7.001552e-01 -1.825298e-01 -5.469796e-01
142 2 2 1.020320e+01 1.083929e+01 1.015168e+01 -1 -1 1 -6.452352e-01 6.728427e-01 -6.164907e-02 3.565860e-01
143 2 4 9.469578e+00 1.111055e+01 1.051763e+01 -1 -1 1 2.081966e-01 -2.347478e-01 -2.957645e-01 -9.022589e-01
144 2 4 9.409817e+00 1.152278e+01 1.066678e+01 -1 -1 1 4.829569e-01 -2.950973e-01 -3.463970e-01 -7.481172e-01
145 2 1 9.210020e+00 1.193181e+01 1.088118e+01 -1 -1 1 -7.202790e-01 2.580776e-01 3.031998e-01 5.680352e-01
146 2 1 8.862648e+00 1.208816e+01 1.128433e+01 -1 -1 1 -8.143119e-01 3.686205e-01 2.286225e-01 3.856770e-01
147 2 1 8.676593e+00 1.210700e+01 1.188262e+01 -1 -1 1 -8.406941e-01 5.152047e-01 1.285126e-01 1.062170e-01
148 2 2 8.711845e+00 1.230588e+01 1.238652e+01 -1 -1 1 -9.427922e-01 3.111390e-01 -1.071296e-02 -1.192503e-01
149 2 4 8.822836e+00 1.231271e+01 1.287598e+01 -1 -1 1 8.817038e-01 -1.787469e-01 1.336450e-01 4.156765e-01
150 2 1 9.112018e+00 1.250110e+01 1.335457e+01 -1 -1 1 6.986533e-01 -2.402258e-01 2.614352e-01 6.211496e-01
151 2 1 9.462152e+00 1.282337e+01 1.360831e+01 -1 -1 1 4.396109e-01 -1.877998e-01 3.387420e-01 8.103872e-01
152 2 1 9.748727e+00 1.333310e+01 1.370641e+01 -1 -1 1 2.113605e-01 -1.372136e-01 3.709974e-01 8.937897e-01
153 2 4 9.754451e+00 1.381976e+01 1.367419e+01 -1 -1 1 -1.192171e-01 1.930523e-02 4.866821e-01 8.651908e-01
154 2 1 9.715951e+00 1.434608e+01 1.357201e+01 -1 -1 1 -3.851710e-01 1.372798e-01 5.584492e-01 7.217563e-01
155 2 2 9.401049e+00 1.471571e+01 1.364015e+01 -1 -1 1 -5.534136e-01 1.066726e-01 5.670034e-01 6.007174e-01
156 2 4 8.969365e+00 1.502760e+01 1.371752e+01 -1 -1 1 -7.211349e-01 3.388115e-01 4.398104e-01 4.144129e-01
157 2 3 8.569562e+00 1.518961e+01 1.396495e+01 -1 -1 1 -8.255248e-01 3.791548e-01 3.970402e-01 1.308033e-01
158 2 2 8.256135e+00 1.534421e+01 1.444757e+01 -1 -1 1 -8.525345e-01 4.892802e-01 1.610938e-01 -8.853609e-02
159 2 1 8.114630e+00 1.557855e+01 1.488327e+01 -1 -1 1 -8.626873e-01 4.627244e-01 2.723220e-03 -2.040815e-01
160 2 3 8.327701e+00 1.585428e+01 1.537444e+01 -1 -1 1 7.714080e-01 -4.390144e-01 1.605809e-01 4.317520e-01
161 2 1 8.610516e+00 1.625378e+01 1.572632e+01 -1 -1 1 6.286897e-01 -3.952988e-01 3.504739e-01 5.706629e-01
162 2 1 8.854851e+00 1.673550e+01 1.588234e+01 -1 -1 1 3.784794e-01 -3.333162e-01 4.778644e-01 7.192353e-01
163 2 4 9.009433e+00 1.721176e+01 1.581619e+01 -1 -1 1 2.405622e-01 -2.181347e-01 6.122719e-01 7.208816e-01
164 2 4 9.061098e+00 1.771522e+01 1.555097e+01 -1 -1 1 -5.505921e-02 4.187889e-02 6.807776e-01 7.292164e-01
165 2 3 8.867593e+00 1.815891e+01 1.528000e+01 -1 -1 1 -3.217272e-01 2.672002e-01 6.246949e-01 6.594331e-01
166 2 3 8.587095e+00 1.865601e+01 1.519732e+01 -1 -1 1 -5.929184e-01 3.748681e-01 4.850422e-01 5.221645e-01
167 2 4 8.298565e+00 1.907507e+01 1.553513e+01 -1 -1 1 -7.725715e-01 4.098555e-01 2.670992e-01 4.047341e-01
168 2 2 8.063132e+00 1.940065e+01 1.592474e+01 -1 -1 1 -8.875683e-01 3.761253e-01 1.794785e-01 1.963157e-01
169 2 2 7.798173e+00 1.965697e+01 1.632430e+01 -1 -1 1 -9.203911e-01 3.817945e-01 4.203347e-02 7.311840e-02
170 2 1 7.921500e+00 1.960759e+01 1.686307e+01 -1 -1 1 -8.782678e-01 3.741367e-01 -7.520032e-02 -2.881185e-01
171 2 1 8.169742e+00 1.985239e+01 1.729210e+01 -1 -1 1 7.129262e-01 -3.213660e-01 2.672631e-01 5.630547e-01
172 2 4 8.540880e+00 -1.968462e+01 1.756907e+01 -1 0 1 5.528516e-01 -3.047063e-01 3.854493e-01 6.730066e-01
173 2 4 8.840390e+00 -1.919540e+01 1.767161e+01 -1 0 1 1.991646e-01 -1.432798e-01 4.665802e-01 8.497690e-01
174 2 1 8.923649e+00 -1.872148e+01 1.773075e+01 -1 0 1 -1.336943e-02 -1.184614e-01 5.418428e-01 8.319823e-01
175 2 1 8.798394e+00 -1.826178e+01 1.760748e+01 -1 0 1 -2.404737e-01 7.559412e-02 5.267087e-01 8.118102e-01
176 2 2 8.404104e+00 -1.788138e+01 1.759429e+01 -1 0 1 -5.533748e-01 2.657258e-01 4.708354e-01 6.336246e-01
177 2 2 8.044895e+00 -1.747059e+01 1.776127e+01 -1 0 1 -7.289110e-01 3.050039e-01 3.358197e-01 5.127246e-01
178 2 1 7.602982e+00 -1.730710e+01 1.812401e+01 -1 0 1 -8.662130e-01 3.492814e-01 2.138680e-01 2.862482e-01
179 2 4 7.439881e+00 -1.723448e+01 1.862303e+01 -1 0 1 -9.225389e-01 3.826208e-01 4.868525e-02 -1.237542e-02
180 2 1 7.500998e+00 -1.721804e+01 1.911111e+01 -1 0 1 -8.754150e-01 3.146970e-01 -7.757545e-02 -3.586034e-01
181 2 4 7.592050e+00 -1.695499e+01 1.963475e+01 -1 0 1 8.558129e-01 -2.955019e-01 2.150252e-01 3.660971e-01
182 2 2 7.951384e+00 -1.684288e+01 1.991921e+01 -1 0 1 6.936571e-01 -1.746236e-01 3.090934e-01 6.267437e-01
183 2 3 8.377228e+00 -1.655806e+01 -1.988433e+01 -1 0 2 3.727062e-01 -7.527093e-02 3.803825e-01 8.430501e-01
184 2 4 8.610497e+00 -1.606362e+01 -1.984734e+01 -1 0 2 8.783593e-02 4.489197e-02 4.866500e-01 8.680100e-01
185 2 3 8.742956e+00 -1.558464e+01 -1.986201e+01 -1 0 2 5.703099e-02 -1.005984e-01 -5.990902e-01 -7.922868e-01
186 2 1 8.554561e+00 -1.501898e+01 -1.995177e+01 -1 0 2 3.550501e-01 -2.098136e-01 -4.649270e-01 -7.834287e-01
187 2 1 8.340410e+00 -1.458032e+01 -1.980583e+01 -1 0 2 -6.397826e-01 2.692864e-01 3.581678e-01 6.244028e-01
188 2 2 7.949581e+00 -1.439130e+01 -1.945918e+01 -1 0 2 8.267874e-01 -3.350369e-01 -2.733017e-01 -3.598320e-01
189 2 4 7.784305e+00 -1.411592e+01 -1.900960e+01 -1 0 2 9.328647e-01 -2.926111e-01 -9.232090e-02 -1.887303e-01
190 2 4 7.679358e+00 -1.406821e+01 -1.848061e+01 -1 0 2 -9.558187e-01 2.788644e-01 -4.006202e-02 -8.390642e-02
191 2 1 7.845037e+00 -1.413772e+01 -1.804986e+01 -1 0 2 -9.516132e-01 8.590669e-02 -1.255698e-01 -2.669919e-01
192 2 4 8.104158e+00 -1.415410e+01 -1.757800e+01 -1 0 2 7.633251e-01 -1.564771e-01 2.130966e-01 5.894400e-01
193 2 4 8.382799e+00 -1.387045e+01 -1.709930e+01 -1 0 2 -5.997957e-01 1.753228e-01 -3.137962e-01 -7.148699e-01
194 2 1 8.556236e+00 -1.348820e+01 -1.680535e+01 -1 0 2 3.128845e-01 -7.896516e-02 3.753436e-01 8.688987e-01
195 2 3 8.793856e+00 -1.308355e+01 -1.682308e+01 -1 0 2 -7.202202e-02 -1.577830e-01 -4.674502e-01 -8.668377e-01
196 2 4 9.067636e+00 -1.313485e+01 -1.611665e+01 -1 0 2 6.446747e-01 3.353239e-01 2.527509e-01 6.388032e-01
197 2 2 9.607179e+00 -1.308246e+01 -1.611074e+01 -1 0 2 -3.696061e-01 -4.694640e-01 -2.178678e-01 -7.717049e-01
198 2 4 1.004558e+01 -1.285379e+01 -1.588116e+01 -1 0 2 -7.880656e-03 -4.134959e-01 1.210648e-01 -9.023870e-01
199 2 3 1.033942e+01 -1.272945e+01 -1.548283e+01 -1 0 2 3.013655e-01 -2.814030e-01 2.297085e-01 -8.816038e-01
200 2 4 1.089746e+01 -1.315183e+01 -1.590399e+01 -1 0 2 -4.688718e-01 5.327047e-01 6.690781e-01 -2.207247e-01
