ITEM: TIMESTEP
209000000
ITEM: NUMBER OF ATOMS
200
ITEM: BOX BOUNDS pp pp pp
-2.0000000000000000e+01 2.0000000000000000e+01
-2.0000000000000000e+01 2.0000000000000000e+01
-2.0000000000000000e+01 2.0000000000000000e+01
ITEM: ATOMS id mol type x y z ix iy iz c_quat[1] c_quat[2] c_quat[3] c_quat[4]
1 1 1 1.727544e+01 -1.040520e+01 1.173445e+01 -1 -1 1 -9.632817e-02 3.021133e-01 -9.464625e-01 6.047537e-02
2 1 2 1.805340e+01 -9.800108e+00 1.238466e+01 -1 -1 1 -3.673863e-02 9.850025e-01 3.967347e-02 1.638486e-01
3 1 1 1.835370e+01 -9.440076e+00 1.171246e+01 -1 -1 1 -5.984750e-01 5.237909e-01 -3.668681e-01 -4.825750e-01
4 1 3 1.855209e+01 -9.004711e+00 1.177852e+01 -1 -1 1 -5.290705e-01 4.280130e-01 -5.515860e-01 -4.823299e-01
5 1 1 1.886030e+01 -8.642033e+00 1.180222e+01 -1 -1 1 3.687119e-01 -2.701077e-01 6.767418e-01 5.771603e-01
6 1 2 1.907517e+01 -8.334484e+00 1.150999e+01 -1 -1 1 1.716247e-01 6.400149e-02 7.341591e-01 6.538037e-01
7 1 4 1.917966e+01 -7.906330e+00 1.129041e+01 -1 -1 1 -1.046195e-01 -2.005604e-02 -8.356649e-01 -5.388105e-01
8 1 1 1.920529e+01 -7.649580e+00 1.095285e+01 -1 -1 1 -1.362450e-01 3.484961e-01 8.054072e-01 4.596814e-01
9 1 1 1.895759e+01 -7.372260e+00 1.053996e+01 -1 -1 1 3.136786e-01 -5.587049e-01 -6.775170e-01 -3.611445e-01
10 1 4 1.857383e+01 -7.117654e+00 1.047369e+01 -1 -1 1 -3.692521e-01 7.654614e-01 5.014373e-01 1.621186e-01
11 1 1 1.839284e+01 -6.665462e+00 1.036749e+01 -1 -1 1 -4.950044e-01 8.161624e-01 2.832679e-01 9.278415e-02
12 1 1 1.834449e+01 -6.144688e+00 1.024438e+01 -1 -1 1 5.627231e-01 -8.229879e-01 -3.453160e-02 -6.957836e-02
13 1 3 1.850330e+01 -5.643216e+00 1.039514e+01 -1 -1 1 -5.731635e-01 7.396084e-01 -3.294654e-01 -1.261573e-01
14 1 4 1.872736e+01 -5.156528e+00 1.038338e+01 -1 -1 1 5.427572e-01 -6.471669e-01 5.352967e-01 6.857790e-03
15 1 4 1.919086e+01 -4.842807e+00 1.027557e+01 -1 -1 1 4.030856e-01 -4.791831e-01 7.416347e-01 2.405901e-01
16 1 2 1.959524e+01 -4.735396e+00 9.996433e+00 -1 -1 1 -2.512940e-01 2.239879e-01 -8.643026e-01 -3.737136e-01
17 1 1 1.983399e+01 -4.484245e+00 9.528058e+00 -1 -1 1 -1.129640e-01 -1.620145e-02 -8.729447e-01 -4.742828e-01
18 1 2 1.977718e+01 -4.226287e+00 8.991487e+00 -1 -1 1 -9.496792e-02 3.325659e-01 8.284419e-01 4.405282e-01
19 1 3 1.959085e+01 -3.983751e+00 8.535825e+00 -1 -1 1 -2.769065e-01 4.408644e-01 7.552250e-01 3.982419e-01
20 1 1 1.931929e+01 -3.603026e+00 8.241239e+00 -1 -1 1 -3.573564e-01 6.172873e-01 5.519206e-01 4.320144e-01
21 1 4 1.902055e+01 -3.195014e+00 8.228004e+00 -1 -1 1 5.670401e-01 -7.211245e-01 -3.825999e-01 -1.098285e-01
22 1 1 1.872431e+01 -2.810662e+00 8.394657e+00 -1 -1 1 6.189390e-01 -7.652283e-01 -1.398048e-01 1.086037e-01
23 1 4 1.857803e+01 -2.317235e+00 8.605912e+00 -1 -1 1 7.000453e-01 -6.961175e-01 4.373471e-02 1.531151e-01
24 1 3 1.867744e+01 -1.790247e+00 8.705709e+00 -1 -1 1 5.916463e-01 -6.817526e-01 3.311976e-01 2.747293e-01
25 1 3 1.898988e+01 -1.407014e+00 8.793086e+00 -1 -1 1 4.983301e-01 -4.836264e-01 5.325045e-01 4.839541e-01
26 1 4 1.923407e+01 -9.125466e-01 8.668611e+00 -1 -1 1 2.778142e-01 -3.956139e-01 6.479770e-01 5.885870e-01
27 1 4 1.933295e+01 -4.337885e-01 8.377349e+00 -1 -1 1 2.910087e-02 -2.295429e-01 7.556470e-01 6.127485e-01
28 1 1 1.926678e+01 -1.338126e-01 7.980538e+00 -1 -1 1 -1.267914e-01 2.943386e-02 8.014204e-01 5.837662e-01
29 1 1 1.899631e+01 1.921295e-01 7.669474e+00 -1 -1 1 -3.529438e-01 3.292504e-01 7.169145e-01 5.030492e-01
30 1 4 1.862477e+01 6.194525e-01 7.523186e+00 -1 -1 1 5.241072e-01 -3.635344e-01 -6.542114e-01 -4.064010e-01
31 1 4 1.818842e+01 8.464064e-01 7.468017e+00 -1 -1 1 6.807985e-01 -3.802575e-01 -5.856272e-01 -2.212656e-01
32 1 3 1.775393e+01 1.038773e+00 7.735554e+00 -1 -1 1 7.364635e-01 -5.425494e-01 -3.962225e-01 7.917962e-02
33 1 3 1.747728e+01 1.332723e+00 8.095788e+00 -1 -1 1 7.534383e-01 -5.826484e-01 -1.164359e-01 2.815925e-01
34 1 1 1.738837e+01 1.778985e+00 8.429227e+00 -1 -1 1 6.381148e-01 -6.038657e-01 1.794584e-01 4.426629e-01
35 1 2 1.767030e+01 2.232655e+00 8.648740e+00 -1 -1 1 4.679075e-01 -5.244774e-01 3.937723e-01 5.923930e-01
36 1 2 1.785530e+01 2.685548e+00 8.714618e+00 -1 -1 1 4.131014e-01 -3.540149e-01 5.307634e-01 6.498545e-01
37 1 1 1.805032e+01 3.131673e+00 8.579622e+00 -1 -1 1 2.207224e-01 -1.811648e-01 6.613396e-01 6.936071e-01
38 1 1 1.822295e+01 3.564387e+00 8.327804e+00 -1 -1 1 6.277051e-02 -4.064519e-02 7.209741e-01 6.889152e-01
39 1 4 1.815947e+01 3.986189e+00 7.995222e+00 -1 -1 1 1.911080e-01 -2.344344e-01 -6.918243e-01 -6.556656e-01
40 1 4 1.789242e+01 4.361538e+00 7.847909e+00 -1 -1 1 4.668536e-01 -3.927395e-01 -6.174741e-01 -4.965169e-01
41 1 2 1.763820e+01 4.733394e+00 7.825592e+00 -1 -1 1 6.115087e-01 -5.240990e-01 -4.346692e-01 -4.030385e-01
42 1 4 1.732185e+01 5.294332e+00 7.994694e+00 -1 -1 1 -6.923522e-01 6.177489e-01 1.995656e-01 3.149734e-01
43 1 3 1.727322e+01 5.724328e+00 8.380456e+00 -1 -1 1 8.072476e-01 -5.611802e-01 1.195272e-02 -1.824421e-01
44 1 2 1.738242e+01 5.947984e+00 8.884999e+00 -1 -1 1 8.228926e-01 -5.085013e-01 2.030622e-01 1.517895e-01
45 1 1 1.773235e+01 6.271230e+00 9.260352e+00 -1 -1 1 7.421956e-01 -4.690472e-01 4.334743e-01 2.030773e-01
46 1 3 1.813237e+01 6.438060e+00 9.453822e+00 -1 -1 1 6.905321e-01 -1.728508e-01 5.677928e-01 4.133998e-01
47 1 4 1.857589e+01 6.740023e+00 9.474699e+00 -1 -1 1 4.183752e-01 -5.674179e-02 6.276467e-01 6.540659e-01
48 1 1 1.882301e+01 7.204734e+00 9.362013e+00 -1 -1 1 -3.940191e-01 3.918968e-02 -7.014450e-01 -5.926112e-01
49 1 4 1.906653e+01 7.500560e+00 9.097182e+00 -1 -1 1 -1.722324e-01 -2.565866e-01 -7.435402e-01 -5.929986e-01
50 1 4 1.915504e+01 7.972998e+00 8.695543e+00 -1 -1 1 3.056380e-02 -3.897485e-01 -6.095720e-01 -6.896259e-01
51 1 4 1.898640e+01 8.468245e+00 8.511335e+00 -1 -1 1 2.440578e-01 -5.920194e-01 -4.178788e-01 -6.444580e-01
52 1 1 1.893134e+01 9.014578e+00 8.529089e+00 -1 -1 1 4.728892e-01 -7.130086e-01 -1.786378e-01 -4.858837e-01
53 1 3 1.904412e+01 9.545721e+00 8.690914e+00 -1 -1 1 6.254832e-01 -6.318759e-01 1.504926e-03 -4.577132e-01
54 1 4 1.923668e+01 9.906500e+00 9.051523e+00 -1 -1 1 7.793462e-01 -5.039147e-01 2.155272e-01 -3.037062e-01
55 1 4 1.957174e+01 1.007128e+01 9.457535e+00 -1 -1 1 8.493474e-01 -3.731495e-01 3.731522e-01 -1.122005e-02
56 1 4 2.000805e+01 1.021736e+01 9.793231e+00 -1 -1 1 7.839972e-01 -2.389403e-01 5.641963e-01 9.969125e-02
57 1 1 -1.950034e+01 1.020119e+01 9.974129e+00 0 -1 1 7.463939e-01 -2.728564e-02 6.329729e-01 2.037081e-01
58 1 1 -1.904435e+01 1.018868e+01 9.843054e+00 0 -1 1 5.926359e-01 2.483268e-01 6.362358e-01 4.269900e-01
59 1 3 -1.852950e+01 1.026283e+01 9.701953e+00 0 -1 1 4.591429e-01 2.639385e-01 5.920102e-01 6.074933e-01
60 1 4 -1.822356e+01 1.042914e+01 9.373108e+00 0 -1 1 2.458847e-01 5.043119e-01 5.311561e-01 6.348885e-01
61 1 2 -1.782741e+01 1.072507e+01 9.178716e+00 0 -1 1 -4.341813e-02 -6.726299e-01 -2.652016e-01 -6.894578e-01
62 1 3 -1.751339e+01 9.107691e+00 8.707825e+00 0 -1 1 4.646482e-01 2.192618e-01 -8.036788e-01 -3.002111e-01
63 1 2 -1.738860e+01 8.891417e+00 9.756472e+00 0 -1 1 -4.071474e-01 3.131419e-02 8.480862e-01 -3.376392e-01
64 1 4 -1.761332e+01 8.485356e+00 9.836964e+00 0 -1 1 -3.384272e-01 2.244295e-01 7.219116e-01 -5.603054e-01
65 1 2 -1.793891e+01 8.196170e+00 1.004302e+01 0 -1 1 9.379454e-02 -4.545221e-01 -5.772733e-01 6.718391e-01
66 1 1 -1.846394e+01 8.088847e+00 1.011035e+01 0 -1 1 -1.287581e-01 -6.530364e-01 -3.689210e-01 6.487388e-01
67 1 2 -1.725702e+01 7.545669e+00 1.076214e+01 0 -1 1 -7.889919e-01 1.329055e-01 8.751101e-03 -5.997927e-01
68 1 1 -1.722335e+01 7.617582e+00 1.125645e+01 0 -1 1 8.063369e-01 -1.288174e-01 1.353423e-01 5.611678e-01
69 1 1 -1.691561e+01 7.818084e+00 1.169479e+01 0 -1 1 6.433733e-01 -7.276565e-02 3.255650e-01 6.890452e-01
70 1 2 -1.646940e+01 7.566567e+00 1.256618e+01 0 -1 1 6.118426e-01 5.836467e-01 -5.213726e-01 -1.147860e-01
71 1 3 -1.638805e+01 8.192214e+00 1.338910e+01 0 -1 1 -2.059714e-01 2.786381e-01 -6.641462e-01 6.624549e-01
72 1 4 -1.628570e+01 7.750791e+00 1.356458e+01 0 -1 1 4.766631e-01 5.830611e-02 7.357199e-01 -4.776075e-01
73 1 1 -1.627931e+01 7.208670e+00 1.361081e+01 0 -1 1 -6.264246e-01 -3.669831e-01 -6.415800e-01 2.475697e-01
74 1 1 -1.603400e+01 7.131621e+00 1.362589e+01 0 -1 1 -9.333062e-03 -2.866467e-01 -4.153822e-01 8.632521e-01
75 1 3 -1.625155e+01 6.314610e+00 1.375746e+01 0 -1 1 -5.441940e-01 -3.792220e-01 -4.232016e-01 6.172066e-01
76 1 1 -1.649828e+01 5.950016e+00 1.375590e+01 0 -1 1 7.768417e-01 5.102211e-01 2.118283e-01 -3.021922e-01
77 1 4 -1.712441e+01 5.300956e+00 1.434351e+01 0 -1 1 6.895991e-01 4.563082e-01 -4.701545e-01 -3.085299e-01
78 1 1 -1.783785e+01 5.246029e+00 1.501502e+01 0 -1 1 6.211502e-01 2.188676e-01 -4.705118e-01 -5.872718e-01
79 1 4 -1.831494e+01 5.193146e+00 1.517519e+01 0 -1 1 8.715284e-01 -5.056063e-02 -4.200193e-01 -2.479226e-01
80 1 2 -1.921747e+01 6.243487e+00 1.516335e+01 0 -1 1 7.447621e-02 4.664388e-01 4.370312e-01 7.654357e-01
81 1 4 -1.903053e+01 5.667106e+00 1.608363e+01 0 -1 1 9.351039e-01 -3.016476e-01 -1.273786e-01 1.355140e-01
82 1 4 -1.903203e+01 5.681187e+00 1.654777e+01 0 -1 1 -8.391990e-01 2.270845e-01 1.733541e-02 -4.938393e-01
83 1 4 -1.889964e+01 5.686842e+00 1.697890e+01 0 -1 1 -7.229376e-01 1.690363e-01 -7.038180e-02 -6.662090e-01
84 1 4 -1.936329e+01 5.949035e+00 1.766457e+01 0 -1 1 -7.560120e-01 2.485937e-02 5.181469e-01 -3.991888e-01
85 1 1 1.997406e+01 5.593087e+00 1.720465e+01 -1 -1 1 8.654886e-01 1.202390e-01 -4.672528e-01 1.347102e-01
86 1 1 1.962126e+01 5.415910e+00 1.760177e+01 -1 -1 1 9.063080e-01 -4.165467e-02 -3.246195e-01 2.673814e-01
87 1 3 1.954389e+01 5.222224e+00 1.806810e+01 -1 -1 1 -7.801564e-01 9.009590e-02 1.675211e-01 -5.959659e-01
88 1 2 1.966647e+01 5.272636e+00 1.853926e+01 -1 -1 1 4.323193e-01 -2.214692e-01 -1.330790e-01 8.639105e-01
89 1 2 1.949857e+01 5.521209e+00 1.894448e+01 -1 -1 1 3.267330e-02 -2.815321e-01 2.100592e-02 9.587653e-01
90 1 3 1.914759e+01 5.698120e+00 1.945042e+01 -1 -1 1 9.837569e-02 4.274110e-01 -2.161843e-02 -8.984290e-01
91 1 3 1.912888e+01 5.868426e+00 -2.009894e+01 -1 -1 2 8.223833e-01 1.530703e-01 -1.045910e-01 5.378810e-01
92 1 2 1.837088e+01 6.629897e+00 1.984979e+01 -1 -1 1 4.146824e-01 -7.376915e-01 -1.885036e-01 4.983133e-01
93 1 1 1.786369e+01 7.158704e+00 1.977794e+01 -1 -1 1 -5.433374e-01 7.670581e-01 2.470642e-01 -2.352990e-01
94 1 2 1.763318e+01 7.644522e+00 1.966167e+01 -1 -1 1 -3.841261e-01 8.576005e-01 -3.747539e-02 -3.399472e-01
95 1 3 1.693364e+01 7.299369e+00 1.932718e+01 -1 -1 1 1.070874e-01 5.265306e-01 -8.351103e-01 -1.178499e-01
96 1 2 1.655767e+01 8.222473e+00 1.888949e+01 -1 -1 1 3.368009e-01 -7.151099e-01 -5.368141e-01 2.949808e-01
97 1 2 1.612154e+01 8.376260e+00 1.886767e+01 -1 -1 1 -2.896110e-01 8.265956e-01 1.858134e-01 -4.453523e-01
98 1 4 1.586051e+01 8.809407e+00 1.880305e+01 -1 -1 1 -1.673869e-02 -7.964917e-01 1.456002e-01 5.866186e-01
99 1 2 1.544534e+01 9.067663e+00 1.854105e+01 -1 -1 1 2.970057e-01 6.922319e-01 -3.619557e-01 -5.491727e-01
100 1 1 1.517559e+01 9.698691e+00 1.974929e+01 -1 -1 1 7.041319e-01 -1.655552e-01 -1.852154e-01 6.651954e-01
101 2 4 -5.224880e+00 8.610623e+00 1.150641e+01 0 -1 1 -3.834580e-01 2.087219e-02 5.313454e-01 -7.551135e-01
102 2 3 -5.243948e+00 8.300256e+00 1.040138e+01 0 -1 1 -8.840409e-01 -3.764279e-01 -1.570304e-02 -2.766354e-01
103 2 1 -5.789440e+00 8.621543e+00 1.110766e+01 0 -1 1 -3.653103e-02 -7.044057e-01 6.837184e-01 -1.871020e-01
104 2 3 -6.359226e+00 8.629420e+00 1.132310e+01 0 -1 1 -5.636976e-01 8.065274e-01 -1.748078e-01 -3.465368e-02
105 2 3 -7.080515e+00 8.682782e+00 1.094122e+01 0 -1 1 -5.517168e-01 7.976593e-01 2.347634e-01 -6.507164e-02
106 2 2 -7.443988e+00 7.985164e+00 9.673373e+00 0 -1 1 4.181012e-01 2.663264e-01 6.051762e-01 6.229152e-01
107 2 3 -7.240292e+00 8.333071e+00 9.402141e+00 0 -1 1 -6.169058e-02 -4.992885e-01 -5.386044e-01 -6.758776e-01
108 2 4 -7.153793e+00 8.338017e+00 8.498298e+00 0 -1 1 -1.096363e-01 -9.133341e-01 -1.038541e-01 3.781732e-01
109 2 3 -7.892597e+00 8.598083e+00 9.055715e+00 0 -1 1 -2.107819e-01 7.690873e-01 1.249838e-01 -5.903006e-01
110 2 2 -8.259990e+00 8.904884e+00 8.991517e+00 0 -1 1 5.424441e-02 8.202670e-01 -1.353326e-01 -5.530865e-01
111 2 2 -8.209896e+00 9.137298e+00 8.809614e+00 0 -1 1 6.150676e-01 -6.941710e-01 2.699803e-01 2.587067e-01
112 2 3 -9.332366e+00 9.620163e+00 9.079694e+00 0 -1 1 1.620242e-01 -8.884617e-01 -3.084235e-01 2.987623e-01
113 2 3 -9.541599e+00 9.955909e+00 8.785009e+00 0 -1 1 1.634509e-01 8.806433e-01 -2.458902e-01 -3.705257e-01
114 2 2 -1.059258e+01 9.956455e+00 9.405162e+00 0 -1 1 4.362966e-02 -4.091673e-01 -7.518715e-02 9.083091e-01
115 2 4 -1.046089e+01 1.028546e+01 9.632880e+00 0 -1 1 -2.031226e-01 -9.545038e-01 1.406057e-01 1.670141e-01
116 2 4 -1.110534e+01 1.020949e+01 1.066453e+01 0 -1 1 -6.388446e-01 5.014069e-02 2.600175e-01 7.223256e-01
117 2 1 -1.150832e+01 1.038251e+01 1.098363e+01 0 -1 1 -8.452501e-01 9.340743e-02 2.560458e-01 4.596389e-01
118 2 1 -1.093035e+01 1.038281e+01 1.113079e+01 0 -1 1 6.973912e-01 7.111485e-01 -8.856517e-02 -8.339315e-03
119 2 1 -1.211857e+01 9.887647e+00 1.214439e+01 0 -1 1 -4.255208e-01 2.032743e-01 8.774166e-01 8.804398e-02
120 2 1 -1.238623e+01 9.235547e+00 1.230469e+01 0 -1 1 -6.986932e-01 8.898204e-02 7.083663e-01 4.612176e-02
121 2 3 -1.318606e+01 9.377262e+00 1.243470e+01 0 -1 1 -1.666668e-02 -3.630636e-01 6.920016e-01 -6.237314e-01
122 2 1 -1.336757e+01 9.988395e+00 1.226884e+01 0 -1 1 -6.523023e-01 2.208749e-01 6.768487e-01 2.599842e-01
123 2 4 -1.273731e+01 1.139689e+01 1.169395e+01 0 -1 1 -7.860102e-02 9.261038e-01 3.034485e-01 -2.099347e-01
124 2 1 -1.295304e+01 1.165276e+01 1.130762e+01 0 -1 1 -8.967186e-02 9.743217e-01 2.554514e-02 -2.049479e-01
125 2 4 -1.284504e+01 1.199394e+01 1.088242e+01 0 -1 1 2.818079e-02 -8.697469e-01 4.446099e-01 2.122927e-01
126 2 2 -1.395740e+01 1.257133e+01 1.139145e+01 0 -1 1 4.051172e-01 -3.713806e-01 4.148162e-01 -7.251786e-01
127 2 4 -1.414626e+01 1.281274e+01 1.071129e+01 0 -1 1 2.693521e-01 -6.475512e-01 -3.282236e-04 -7.128301e-01
128 2 4 -1.413336e+01 1.380365e+01 9.912492e+00 0 -1 1 1.180928e-01 -7.457706e-01 -5.966944e-01 2.717281e-01
129 2 1 -1.448592e+01 1.401641e+01 9.624244e+00 0 -1 1 -1.249117e-02 -9.454497e-01 -8.233432e-02 3.149441e-01
130 2 2 -1.469484e+01 1.410793e+01 9.196415e+00 0 -1 1 -4.773536e-02 -9.457017e-01 2.650854e-01 1.819324e-01
131 2 3 -1.510011e+01 1.317399e+01 9.194262e+00 0 -1 1 9.646754e-01 7.035293e-02 -2.271154e-01 1.134477e-01
132 2 4 -1.515801e+01 1.282021e+01 9.481193e+00 0 -1 1 8.071728e-01 -5.632154e-02 -3.483199e-01 4.732580e-01
133 2 4 -1.545863e+01 1.258921e+01 9.876445e+00 0 -1 1 8.168904e-01 -5.074193e-02 -1.425289e-01 5.565975e-01
134 2 3 -1.547853e+01 1.225809e+01 1.058859e+01 0 -1 1 -4.395929e-01 7.687143e-02 8.630704e-01 -2.365551e-01
135 2 4 -1.588567e+01 1.195354e+01 1.064576e+01 0 -1 1 -2.480974e-01 4.438846e-01 7.267234e-01 -4.618303e-01
136 2 3 -1.632046e+01 1.178787e+01 1.080407e+01 0 -1 1 4.332765e-02 6.489309e-01 4.573499e-01 -6.065001e-01
137 2 1 -1.680554e+01 1.148805e+01 1.055719e+01 0 -1 1 -3.262921e-02 7.912074e-01 4.685428e-01 -3.916553e-01
138 2 3 -1.689031e+01 1.141364e+01 1.118424e+01 0 -1 1 7.615230e-01 -9.325849e-02 -6.138079e-01 -1.860793e-01
139 2 2 -1.746933e+01 1.135874e+01 1.126075e+01 0 -1 1 -7.866128e-01 1.628447e-01 5.881281e-01 -9.395369e-02
140 2 3 -1.833940e+01 1.156111e+01 9.971454e+00 0 -1 1 3.399805e-01 7.059636e-01 -8.608968e-02 -6.153187e-01
141 2 1 -1.876042e+01 1.138366e+01 9.815594e+00 0 -1 1 4.654283e-01 7.639333e-01 -2.040572e-01 -3.976721e-01
142 2 2 -1.900064e+01 1.133393e+01 9.403457e+00 0 -1 1 -4.732443e-01 -6.637061e-01 5.471560e-01 1.901430e-01
143 2 4 -1.929898e+01 1.104823e+01 9.085165e+00 0 -1 1 -5.674638e-01 -5.497865e-01 6.124139e-01 2.586332e-02
144 2 4 -1.942621e+01 1.056538e+01 8.819256e+00 0 -1 1 -5.879912e-01 -3.452549e-01 7.148456e-01 -1.551170e-01
145 2 1 -1.941165e+01 1.013505e+01 8.740360e+00 0 -1 1 4.036941e-01 1.670317e-01 -8.010264e-01 4.092532e-01
146 2 1 -1.959781e+01 9.557585e+00 8.802390e+00 0 -1 1 -3.721692e-01 5.391421e-02 7.677943e-01 -5.187247e-01
147 2 1 -1.987501e+01 9.121137e+00 8.970917e+00 0 -1 1 3.149660e-01 -2.041404e-01 -6.709612e-01 6.394797e-01
148 2 2 1.981197e+01 8.881155e+00 9.367247e+00 -1 -1 1 -1.300047e-01 3.742642e-01 4.656753e-01 -7.913101e-01
149 2 4 1.939109e+01 8.800991e+00 9.625836e+00 -1 -1 1 -1.195554e-01 -5.502080e-01 -2.925585e-01 7.729083e-01
150 2 1 1.888289e+01 8.612309e+00 9.659390e+00 -1 -1 1 -2.196280e-01 -7.019317e-01 -1.856126e-01 6.516160e-01
151 2 1 1.843002e+01 8.572016e+00 9.404425e+00 -1 -1 1 -5.571313e-01 -6.779707e-01 5.860587e-02 4.759472e-01
152 2 1 1.805336e+01 8.119544e+00 9.147531e+00 -1 -1 1 -6.096851e-01 -7.567055e-01 1.631802e-01 1.704497e-01
153 2 4 1.794639e+01 7.720539e+00 8.779340e+00 -1 -1 1 -6.084162e-01 -6.839845e-01 4.000673e-01 -4.405752e-02
154 2 1 1.793148e+01 7.224445e+00 8.609460e+00 -1 -1 1 -4.817023e-01 -7.312692e-01 4.228502e-01 -2.332509e-01
155 2 2 1.809922e+01 6.765370e+00 8.336201e+00 -1 -1 1 -4.292723e-01 -6.055568e-01 5.369025e-01 -4.009514e-01
156 2 4 1.835799e+01 6.326035e+00 8.202505e+00 -1 -1 1 -3.715624e-01 -3.562533e-01 6.626759e-01 -5.439536e-01
157 2 3 1.851004e+01 5.889733e+00 8.432189e+00 -1 -1 1 -1.218403e-01 -3.435928e-02 7.730890e-01 -6.215366e-01
158 2 2 1.840936e+01 5.398881e+00 8.608368e+00 -1 -1 1 2.225117e-03 1.766519e-01 6.851580e-01 -7.066454e-01
159 2 1 1.806286e+01 5.080492e+00 8.867256e+00 -1 -1 1 2.121188e-01 3.980453e-01 6.045830e-01 -6.565401e-01
160 2 3 1.778293e+01 4.658704e+00 9.030531e+00 -1 -1 1 -3.412953e-01 -5.634808e-01 -4.875456e-01 5.729801e-01
161 2 1 1.745838e+01 4.259079e+00 8.981499e+00 -1 -1 1 -4.226012e-01 -7.083966e-01 -3.703666e-01 4.270961e-01
162 2 1 1.714213e+01 3.960518e+00 8.617230e+00 -1 -1 1 -4.813056e-01 -8.224033e-01 -1.208444e-01 2.781984e-01
163 2 4 1.696330e+01 3.577067e+00 8.258561e+00 -1 -1 1 -5.497351e-01 -8.348536e-01 2.830289e-02 3.116630e-03
164 2 4 1.705659e+01 3.218704e+00 7.866910e+00 -1 -1 1 -5.479064e-01 -7.725996e-01 2.079092e-01 -2.442586e-01
165 2 3 1.728000e+01 2.789946e+00 7.666378e+00 -1 -1 1 -4.956751e-01 -7.262418e-01 2.497535e-01 -4.055887e-01
166 2 3 1.763392e+01 2.511021e+00 7.502111e+00 -1 -1 1 -2.901894e-01 -6.303808e-01 4.297925e-01 -5.776578e-01
167 2 4 1.809936e+01 2.258946e+00 7.574825e+00 -1 -1 1 -1.075473e-01 -4.652826e-01 5.071162e-01 -7.174809e-01
168 2 2 1.846819e+01 1.965871e+00 7.959270e+00 -1 -1 1 1.912372e-01 -1.840021e-01 6.591515e-01 -7.036269e-01
169 2 2 1.856305e+01 1.658248e+00 8.312834e+00 -1 -1 1 4.010543e-01 3.610748e-02 5.351283e-01 -7.426233e-01
170 2 1 1.842024e+01 1.198929e+00 8.628724e+00 -1 -1 1 6.289811e-01 2.865345e-01 5.386224e-01 -4.818367e-01
171 2 1 1.840033e+01 6.857191e-01 8.688930e+00 -1 -1 1 -6.605586e-01 -4.230585e-01 -4.944660e-01 3.744158e-01
172 2 4 1.828570e+01 1.441052e-01 8.613396e+00 -1 -1 1 -6.128744e-01 -6.432760e-01 -3.612931e-01 2.829281e-01
173 2 4 1.816748e+01 -3.128594e-01 8.348946e+00 -1 -1 1 -7.386119e-01 -6.528050e-01 -1.678668e-01 1.090118e-02
174 2 1 1.819460e+01 -7.671980e-01 7.956650e+00 -1 -1 1 -6.694017e-01 -7.197105e-01 1.847942e-02 -1.832395e-01
175 2 1 1.854184e+01 -1.110802e+00 7.674929e+00 -1 -1 1 -5.903603e-01 -6.617474e-01 2.296298e-01 -4.010428e-01
176 2 2 1.897973e+01 -1.412144e+00 7.601395e+00 -1 -1 1 -3.942396e-01 -5.235518e-01 4.538231e-01 -6.037493e-01
177 2 2 1.939943e+01 -1.885309e+00 7.751481e+00 -1 -1 1 -3.183464e-01 -4.249146e-01 4.351511e-01 -7.271497e-01
178 2 1 1.971140e+01 -2.098442e+00 8.212361e+00 -1 -1 1 -5.763209e-02 -2.256602e-01 5.206962e-01 -8.213595e-01
179 2 4 1.978073e+01 -2.394200e+00 8.623970e+00 -1 -1 1 2.752837e-01 3.180435e-02 4.983483e-01 -8.214964e-01
180 2 1 1.972360e+01 -2.684002e+00 9.014093e+00 -1 -1 1 3.984366e-01 2.651636e-01 3.890313e-01 -7.871411e-01
181 2 4 1.957892e+01 -3.109260e+00 9.390114e+00 -1 -1 1 -4.247320e-01 -3.722209e-01 -3.650244e-01 7.401429e-01
182 2 2 1.909727e+01 -3.380557e+00 9.464515e+00 -1 -1 1 -7.333552e-01 -4.455619e-01 -2.012557e-01 4.723991e-01
183 2 3 1.879356e+01 -3.784961e+00 9.415793e+00 -1 -1 1 -8.112243e-01 -5.333694e-01 -2.917404e-02 2.378679e-01
184 2 4 1.867734e+01 -4.295237e+00 9.348287e+00 -1 -1 1 -8.182440e-01 -5.501776e-01 1.662831e-01 -1.145343e-02
185 2 3 1.873253e+01 -4.902991e+00 9.242809e+00 -1 -1 1 7.735568e-01 5.242202e-01 -2.554050e-01 2.481357e-01
186 2 1 1.899640e+01 -5.472256e+00 9.272569e+00 -1 -1 1 6.562182e-01 3.849582e-01 -3.214585e-01 5.637812e-01
187 2 1 1.930477e+01 -5.779957e+00 9.587126e+00 -1 -1 1 -4.216324e-01 -2.606032e-01 3.765396e-01 -7.826430e-01
188 2 2 1.959331e+01 -5.922352e+00 9.960369e+00 -1 -1 1 1.072633e-01 1.199438e-01 -4.194621e-01 8.933978e-01
189 2 4 1.952642e+01 -6.097335e+00 1.051282e+01 -1 -1 1 -5.941868e-02 -5.836820e-02 -3.906760e-01 9.167523e-01
190 2 4 1.932387e+01 -6.248358e+00 1.097156e+01 -1 -1 1 2.589839e-01 2.188992e-01 3.443404e-01 -8.754657e-01
191 2 1 1.910366e+01 -6.500583e+00 1.135171e+01 -1 -1 1 3.487571e-01 4.035915e-01 2.787702e-01 -7.986047e-01
192 2 4 1.868624e+01 -6.783778e+00 1.159711e+01 -1 -1 1 -5.395969e-01 -4.926424e-01 -2.368921e-01 6.403287e-01
193 2 4 1.824620e+01 -7.191367e+00 1.159591e+01 -1 -1 1 7.901180e-01 5.299790e-01 1.253249e-01 -2.812997e-01
194 2 1 1.801053e+01 -7.620255e+00 1.160862e+01 -1 -1 1 -5.568377e-01 -7.944221e-01 -3.315761e-02 2.402621e-01
195 2 3 1.794279e+01 -8.026800e+00 1.124870e+01 -1 -1 1 -6.244362e-01 -7.499446e-01 2.162556e-01 -2.993427e-02
196 2 4 1.799737e+01 -8.500240e+00 1.093294e+01 -1 -1 1 4.936909e-01 8.108756e-01 -2.245477e-01 2.198373e-01
197 2 2 1.836828e+01 -8.818314e+00 1.063998e+01 -1 -1 1 -5.058103e-01 -5.338515e-01 5.631442e-01 -3.768649e-01
198 2 4 1.818976e+01 -9.237323e+00 9.954062e+00 -1 -1 1 1.043303e-01 -1.811927e-01 9.219265e-01 -3.260919e-01
199 2 3 1.917271e+01 -8.536758e+00 9.346989e+00 -1 -1 1 6.825867e-01 3.396900e-01 -3.572793e-01 5.394790e-01
200 2 4 1.928069e+01 -7.611136e+00 9.138496e+00 -1 -1 1 1.949741e-01 -9.228892e-01 -1.743967e-01 -2.825710e-01
