ITEM: TIMESTEP
292000000
ITEM: NUMBER OF ATOMS
200
ITEM: BOX BOUNDS pp pp pp
-2.0000000000000000e+01 2.0000000000000000e+01
-2.0000000000000000e+01 2.0000000000000000e+01
-2.0000000000000000e+01 2.0000000000000000e+01
ITEM: ATOMS id mol type x y z ix iy iz c_quat[1] c_quat[2] c_quat[3] c_quat[4]
1 1 1 1.636983e+01 -1.134764e+01 -1.612745e+01 -1 0 2 6.013365e-01 7.711987e-01 -1.248037e-01 -1.675441e-01
2 1 2 1.629637e+01 -1.224077e+01 -1.600187e+01 -1 0 2 8.048995e-01 -9.067369e-02 -9.254538e-02 -5.790945e-01
3 1 1 1.623101e+01 -1.242478e+01 -1.551052e+01 -1 0 2 -9.769037e-01 1.566539e-01 -6.808649e-02 1.283859e-01
4 1 3 1.493701e+01 -1.194409e+01 -1.587388e+01 -1 0 2 -2.707082e-01 -5.227504e-01 -6.108926e-01 5.293952e-01
5 1 1 1.458097e+01 -1.214773e+01 -1.606592e+01 -1 0 2 5.042131e-01 7.095855e-01 2.671412e-01 -4.133922e-01
6 1 2 1.436856e+01 -1.260588e+01 -1.630138e+01 -1 0 2 6.268345e-01 7.630252e-01 8.466712e-02 -1.330507e-01
7 1 4 1.437798e+01 -1.292706e+01 -1.674020e+01 -1 0 2 5.845975e-01 7.886329e-01 -1.714693e-01 8.307916e-02
8 1 1 1.457949e+01 -1.331333e+01 -1.712074e+01 -1 0 2 5.493767e-01 7.011610e-01 -3.749830e-01 2.568000e-01
9 1 1 1.480016e+01 -1.378231e+01 -1.729635e+01 -1 0 2 -4.535784e-01 -6.179897e-01 4.182055e-01 -4.872982e-01
10 1 4 1.523069e+01 -1.417966e+01 -1.722913e+01 -1 0 2 2.800928e-01 3.642918e-01 -6.669979e-01 5.864753e-01
11 1 1 1.541513e+01 -1.469883e+01 -1.711761e+01 -1 0 2 1.925757e-01 2.200246e-01 -6.736780e-01 6.787207e-01
12 1 1 1.542447e+01 -1.514801e+01 -1.684432e+01 -1 0 2 3.970988e-02 1.062945e-01 7.466469e-01 -6.554716e-01
13 1 3 1.524611e+01 -1.558697e+01 -1.663215e+01 -1 0 2 -1.243620e-01 -2.860253e-01 -6.177137e-01 7.219096e-01
14 1 4 1.493566e+01 -1.587998e+01 -1.644605e+01 -1 0 2 3.251969e-01 5.099772e-01 4.449159e-01 -6.604696e-01
15 1 4 1.444265e+01 -1.631116e+01 -1.653274e+01 -1 0 2 3.681098e-01 6.811783e-01 3.518167e-01 -5.260382e-01
16 1 2 1.400236e+01 -1.639176e+01 -1.668538e+01 -1 0 2 -5.480717e-01 -7.307053e-01 -3.746852e-02 4.053188e-01
17 1 1 1.364465e+01 -1.653859e+01 -1.707506e+01 -1 0 2 -5.938475e-01 -7.275528e-01 2.820003e-01 1.961836e-01
18 1 2 1.344143e+01 -1.682499e+01 -1.752771e+01 -1 0 2 5.686165e-01 7.543041e-01 -3.259775e-01 -3.793857e-02
19 1 3 1.342197e+01 -1.721741e+01 -1.789658e+01 -1 0 2 5.425995e-01 6.115687e-01 -5.516768e-01 1.649913e-01
20 1 1 1.355395e+01 -1.775840e+01 -1.816501e+01 -1 0 2 5.233902e-01 4.296504e-01 -6.741516e-01 2.949284e-01
21 1 4 1.374299e+01 -1.822726e+01 -1.820157e+01 -1 0 2 -3.399253e-01 -2.627927e-01 7.716292e-01 -4.690194e-01
22 1 1 1.370000e+01 -1.873935e+01 -1.814313e+01 -1 0 2 -2.376057e-01 4.067662e-02 7.471952e-01 -6.193450e-01
23 1 4 1.350533e+01 -1.925908e+01 -1.802063e+01 -1 0 2 -2.460484e-01 2.138568e-01 6.826317e-01 -6.540179e-01
24 1 3 1.318126e+01 -1.950003e+01 -1.776766e+01 -1 0 2 -8.653452e-02 4.250623e-01 5.231716e-01 -7.335702e-01
25 1 3 1.262647e+01 -1.966084e+01 -1.758166e+01 -1 0 2 1.475217e-01 6.017663e-01 3.988934e-01 -6.760169e-01
26 1 4 1.207168e+01 -1.972571e+01 -1.762612e+01 -1 0 2 3.274726e-01 7.313343e-01 1.060515e-01 -5.887826e-01
27 1 4 1.160836e+01 2.018525e+01 -1.775623e+01 -1 -1 2 4.814570e-01 7.444197e-01 -8.838444e-02 -4.541219e-01
28 1 1 1.118606e+01 1.985714e+01 -1.799628e+01 -1 -1 2 5.982519e-01 7.513979e-01 -1.301494e-01 -2.460834e-01
29 1 1 1.090884e+01 1.961439e+01 -1.833354e+01 -1 -1 2 6.141319e-01 6.705753e-01 -4.113444e-01 -6.298082e-02
30 1 4 1.087745e+01 1.923441e+01 -1.874746e+01 -1 -1 2 -5.678032e-01 -5.661346e-01 5.694206e-01 -1.812495e-01
31 1 4 1.096836e+01 1.867351e+01 -1.888634e+01 -1 -1 2 -4.999781e-01 -4.214753e-01 6.240011e-01 -4.277886e-01
32 1 3 1.099904e+01 1.814061e+01 -1.880200e+01 -1 -1 2 -4.784144e-01 -2.228336e-01 6.316746e-01 -5.678485e-01
33 1 3 1.101145e+01 1.758873e+01 -1.855459e+01 -1 -1 2 -2.882654e-01 7.778489e-02 6.976666e-01 -6.512402e-01
34 1 1 1.090313e+01 1.715620e+01 -1.840775e+01 -1 -1 2 -1.808900e-01 1.657176e-01 5.340122e-01 -8.091029e-01
35 1 2 1.057499e+01 1.687928e+01 -1.800960e+01 -1 -1 2 -6.087232e-02 3.585685e-01 4.479952e-01 -8.167151e-01
36 1 2 1.023955e+01 1.700313e+01 -1.761445e+01 -1 -1 2 1.774100e-01 3.860409e-01 1.823687e-01 -8.867017e-01
37 1 1 9.833036e+00 1.701191e+01 -1.734362e+01 -1 -1 2 3.539190e-01 4.617740e-01 -4.143054e-03 -8.133197e-01
38 1 1 9.359009e+00 1.703551e+01 -1.729138e+01 -1 -1 2 4.481936e-01 5.148329e-01 -2.122914e-01 -6.992868e-01
39 1 4 8.804378e+00 1.694234e+01 -1.741796e+01 -1 -1 2 -7.302318e-01 -4.055956e-01 3.349589e-01 4.359544e-01
40 1 4 8.283661e+00 1.677294e+01 -1.742894e+01 -1 -1 2 -7.122748e-01 -5.484281e-01 3.711359e-01 2.327002e-01
41 1 2 8.053883e+00 1.637062e+01 -1.765645e+01 -1 -1 2 -7.412964e-01 -4.088974e-01 5.307933e-01 -3.925682e-02
42 1 4 7.976518e+00 1.577731e+01 -1.775029e+01 -1 -1 2 6.837611e-01 1.983461e-01 -6.753099e-01 1.925776e-01
43 1 3 7.857787e+00 1.529500e+01 -1.755854e+01 -1 -1 2 -5.817818e-01 -6.901488e-02 6.156998e-01 -5.269541e-01
44 1 2 7.656876e+00 1.491511e+01 -1.727025e+01 -1 -1 2 -3.698054e-01 2.500767e-01 6.124873e-01 -6.523534e-01
45 1 1 7.281958e+00 1.467392e+01 -1.693629e+01 -1 -1 2 -2.975414e-01 3.979934e-01 4.347128e-01 -7.510627e-01
46 1 3 6.786536e+00 1.460662e+01 -1.659438e+01 -1 -1 2 -1.544384e-01 5.643819e-01 3.145029e-01 -7.474689e-01
47 1 4 6.284159e+00 1.476022e+01 -1.650603e+01 -1 -1 2 4.240064e-02 7.189354e-01 8.649994e-02 -6.883690e-01
48 1 1 5.822445e+00 1.500782e+01 -1.661989e+01 -1 -1 2 -2.705938e-01 -7.219290e-01 1.450982e-01 6.201162e-01
49 1 4 5.381004e+00 1.511097e+01 -1.702080e+01 -1 -1 2 -3.070176e-01 -7.465871e-01 3.842591e-01 4.479876e-01
50 1 4 5.029904e+00 1.515300e+01 -1.736677e+01 -1 -1 2 -3.838522e-01 -6.603316e-01 5.682755e-01 3.060762e-01
51 1 4 4.829167e+00 1.511448e+01 -1.783820e+01 -1 -1 2 -4.295378e-01 -4.808913e-01 7.570957e-01 1.051051e-01
52 1 1 4.525093e+00 1.487025e+01 -1.822194e+01 -1 -1 2 -4.770297e-01 -4.153386e-01 7.740389e-01 -2.828744e-02
53 1 3 4.346257e+00 1.445348e+01 -1.851044e+01 -1 -1 2 4.188522e-01 1.979093e-01 -8.656011e-01 1.900777e-01
54 1 4 4.196699e+00 1.401250e+01 -1.865094e+01 -1 -1 2 2.999513e-01 -1.324679e-01 -8.693111e-01 3.698373e-01
55 1 4 3.799703e+00 1.357356e+01 -1.887985e+01 -1 -1 2 -2.928904e-01 3.002337e-01 8.282773e-01 -3.715261e-01
56 1 4 3.420681e+00 1.326441e+01 -1.880759e+01 -1 -1 2 -1.939418e-01 5.361956e-01 6.478895e-01 -5.050940e-01
57 1 1 2.940015e+00 1.320293e+01 -1.880995e+01 -1 -1 2 4.418104e-02 -7.441099e-01 -3.809635e-01 5.470057e-01
58 1 1 2.391989e+00 1.324863e+01 -1.895955e+01 -1 -1 2 2.866266e-01 8.215695e-01 2.765330e-02 -4.920407e-01
59 1 3 2.484646e+00 1.277771e+01 -1.785807e+01 -1 -1 2 -6.363955e-02 6.784120e-01 3.043908e-01 6.656226e-01
60 1 4 1.701224e+00 1.196527e+01 -1.738714e+01 -1 -1 2 -3.391107e-01 3.977378e-01 8.505630e-01 5.788919e-02
61 1 2 1.210735e+00 1.207910e+01 -1.757302e+01 -1 -1 2 -4.241457e-01 6.186899e-01 6.576478e-01 -6.944470e-02
62 1 3 2.056479e+00 1.132007e+01 -1.859405e+01 -1 -1 2 -6.661676e-01 -3.653516e-01 5.753565e-01 3.028266e-01
63 1 2 1.698830e+00 1.106153e+01 -1.880468e+01 -1 -1 2 7.044796e-01 1.501725e-01 -6.923283e-01 4.287479e-02
64 1 4 6.204211e-01 1.152245e+01 -1.846656e+01 -1 -1 2 7.460056e-02 3.393736e-01 8.272811e-01 -4.414366e-01
65 1 2 2.585479e-01 1.129082e+01 -1.856548e+01 -1 -1 2 -3.204139e-01 -6.360048e-01 -5.169749e-01 4.749419e-01
66 1 1 -6.108988e-02 1.096507e+01 -1.872295e+01 -1 -1 2 4.834907e-01 7.503968e-01 2.904352e-01 -3.446575e-01
67 1 2 -3.369997e-01 1.057574e+01 -1.896440e+01 -1 -1 2 5.143686e-01 8.464313e-01 3.399199e-02 -1.335048e-01
68 1 1 -7.881129e-01 1.046632e+01 -1.827027e+01 -1 -1 2 6.460282e-01 6.025186e-01 -2.694316e-01 3.834390e-01
69 1 1 -4.569257e-01 9.977622e+00 -1.817768e+01 -1 -1 2 -5.494577e-01 -4.503169e-01 2.956114e-01 -6.386900e-01
70 1 2 -1.244530e-01 9.691013e+00 -1.788601e+01 -1 -1 2 1.427595e-01 2.357860e-01 -5.869696e-01 7.612433e-01
71 1 3 2.338753e-01 9.531504e+00 -1.767441e+01 -1 -1 2 2.817956e-01 -4.830709e-01 -6.965741e-01 4.494645e-01
72 1 4 3.143394e-01 9.319601e+00 -1.748769e+01 -1 -1 2 1.370563e-01 9.208722e-01 3.290251e-01 -1.579636e-01
73 1 1 -3.381333e-01 8.839234e+00 -1.753216e+01 -1 -1 2 8.349757e-01 5.207112e-01 3.624759e-02 -1.742454e-01
74 1 1 -1.004563e+00 9.400649e+00 -1.643658e+01 -1 -1 2 4.007125e-02 -5.366755e-01 -4.872489e-01 6.877225e-01
75 1 3 -6.213675e-01 9.843242e+00 -1.614776e+01 -1 -1 2 -3.991749e-01 8.730232e-01 -7.584072e-02 -2.697000e-01
76 1 1 -1.384668e+00 9.563537e+00 -1.576542e+01 -1 -1 2 -3.241989e-01 -8.183263e-01 -2.392361e-01 -4.098819e-01
77 1 4 -2.036606e+00 8.160815e+00 -1.579726e+01 -1 -1 2 -8.245184e-01 -1.223615e-02 4.416924e-01 3.534509e-01
78 1 1 -2.458258e+00 8.149557e+00 -1.546221e+01 -1 -1 2 -9.369654e-01 7.792939e-02 3.362299e-01 5.451928e-02
79 1 4 -3.746424e+00 8.658842e+00 -1.601996e+01 -1 -1 2 1.289509e-02 -6.262593e-01 -7.668022e-01 1.401694e-01
80 1 2 -4.090938e+00 8.590745e+00 -1.641497e+01 -1 -1 2 -5.671632e-02 -8.067704e-01 -5.786460e-01 1.052315e-01
81 1 4 -4.459527e+00 8.698179e+00 -1.697065e+01 -1 -1 2 -6.537227e-01 -1.510686e-01 -6.665768e-01 -3.248081e-01
82 1 4 -5.517783e+00 8.371829e+00 -1.604435e+01 -1 -1 2 6.668951e-01 -3.725351e-01 -2.277881e-01 -6.038054e-01
83 1 4 -5.556670e+00 9.605370e+00 -1.674259e+01 -1 -1 2 2.871254e-01 -2.757055e-02 8.205481e-02 9.539737e-01
84 1 4 -5.278046e+00 9.488360e+00 -1.700391e+01 -1 -1 2 -6.317694e-01 -4.346397e-01 6.379850e-01 -7.022105e-02
85 1 1 -5.507039e+00 1.000257e+01 -1.767472e+01 -1 -1 2 -4.006599e-01 -1.318464e-01 -7.853150e-01 4.531760e-01
86 1 1 -5.104920e+00 1.084905e+01 -1.809861e+01 -1 -1 2 -2.377596e-02 4.308696e-01 3.688270e-01 8.232574e-01
87 1 3 -4.025184e+00 1.128494e+01 -1.751657e+01 -1 -1 2 2.806640e-01 -9.147284e-01 2.414858e-01 -1.618156e-01
88 1 2 -4.872395e+00 1.203895e+01 -1.853036e+01 -1 -1 2 -4.146390e-01 -6.886271e-01 -4.170488e-01 -4.241905e-01
89 1 2 -4.402261e+00 1.199429e+01 -1.904023e+01 -1 -1 2 -3.325061e-01 -6.747461e-01 -3.471950e-01 -5.600116e-01
90 1 3 -3.994851e+00 1.221851e+01 -1.916398e+01 -1 -1 2 -9.490854e-03 7.574945e-01 4.300213e-03 6.527584e-01
91 1 3 -4.163201e+00 1.265524e+01 -1.989278e+01 -1 -1 2 6.171809e-03 -5.500680e-01 -4.107058e-02 -8.340865e-01
92 1 2 -3.958856e+00 1.199310e+01 1.902838e+01 -1 -1 1 -5.861306e-01 -4.248840e-01 6.702586e-01 1.633334e-01
93 1 1 -3.521891e+00 1.353040e+01 1.891605e+01 -1 -1 1 7.022748e-01 7.317474e-02 -1.484864e-01 6.923924e-01
94 1 2 -3.684324e+00 1.393113e+01 1.810119e+01 -1 -1 1 3.546911e-01 2.748963e-01 9.584026e-02 8.885049e-01
95 1 3 -3.524110e+00 1.303583e+01 1.735417e+01 -1 -1 1 9.651908e-01 -1.323506e-01 1.909131e-01 -1.201758e-01
96 1 2 -3.351193e+00 1.360831e+01 1.660996e+01 -1 -1 1 3.748313e-01 6.726555e-01 2.420977e-01 5.902752e-01
97 1 2 -3.618883e+00 1.332873e+01 1.633192e+01 -1 -1 1 -7.705091e-01 5.685489e-01 -2.849413e-01 -4.331599e-02
98 1 4 -4.893648e+00 1.347268e+01 1.603982e+01 -1 -1 1 -4.551409e-01 -1.896916e-02 -8.726229e-01 -1.761145e-01
99 1 2 -5.103940e+00 1.360659e+01 1.647471e+01 -1 -1 1 8.951024e-01 3.531880e-01 -2.403142e-01 1.276678e-01
100 1 1 -5.841945e+00 1.317642e+01 1.705701e+01 -1 -1 1 -8.018938e-01 -1.918894e-01 -1.923186e-01 5.321262e-01
101 2 4 1.184520e+01 1.416211e+01 7.308447e+00 -1 -1 1 7.913224e-01 2.811763e-01 5.378870e-01 7.366309e-02
102 2 3 1.084486e+01 1.374129e+01 7.543671e+00 -1 -1 1 -3.624945e-01 -2.200591e-01 -4.435081e-01 7.896026e-01
103 2 1 1.059407e+01 1.348115e+01 7.845334e+00 -1 -1 1 6.931339e-01 3.957105e-01 2.673989e-01 -5.398856e-01
104 2 3 1.040204e+01 1.299999e+01 8.035953e+00 -1 -1 1 -7.998557e-01 -4.481545e-01 -2.155144e-01 3.360684e-01
105 2 3 1.022251e+01 1.245821e+01 8.016660e+00 -1 -1 1 8.789540e-01 4.766058e-01 1.681515e-02 -1.987721e-03
106 2 2 1.039615e+01 1.212681e+01 9.317911e+00 -1 -1 1 7.591257e-01 7.250507e-02 -4.862808e-01 4.266172e-01
107 2 3 1.006326e+01 1.184838e+01 9.717496e+00 -1 -1 1 5.509332e-01 -2.871121e-01 -4.701501e-01 6.268956e-01
108 2 4 9.787281e+00 1.171986e+01 1.011509e+01 -1 -1 1 2.552002e-01 -4.742316e-01 -3.222003e-01 7.785655e-01
109 2 3 9.284631e+00 1.171752e+01 1.024635e+01 -1 -1 1 -5.623934e-02 6.656238e-01 1.656987e-01 -7.254833e-01
110 2 2 8.977175e+00 1.166458e+01 1.104752e+01 -1 -1 1 -7.397894e-01 4.714782e-02 6.067730e-01 -2.869064e-01
111 2 2 9.091575e+00 1.216712e+01 1.038421e+01 -1 -1 1 2.570320e-01 7.509968e-01 -4.433969e-01 4.163381e-01
112 2 3 7.676314e+00 1.196068e+01 9.531352e+00 -1 -1 1 3.209483e-01 3.149435e-01 6.279560e-01 -6.351961e-01
113 2 3 7.431734e+00 1.146502e+01 9.405642e+00 -1 -1 1 -3.823669e-01 -6.122901e-01 -5.785917e-01 3.796419e-01
114 2 2 7.191123e+00 1.120151e+01 9.088525e+00 -1 -1 1 -5.407606e-01 -8.197109e-01 -3.559726e-02 1.854315e-01
115 2 4 7.145019e+00 1.096532e+01 8.592743e+00 -1 -1 1 -5.747298e-01 -7.354590e-01 3.588300e-01 5.176189e-03
116 2 4 5.741668e+00 1.170698e+01 9.155806e+00 -1 -1 1 -3.955641e-01 5.796689e-01 7.065238e-01 -9.130755e-02
117 2 1 5.911594e+00 1.179232e+01 9.252082e+00 -1 -1 1 -2.312447e-01 8.594711e-01 -5.751971e-02 -4.522463e-01
118 2 1 4.911694e+00 1.071242e+01 9.977972e+00 -1 -1 1 7.968758e-01 -2.738251e-01 -5.002851e-01 -1.993076e-01
119 2 1 4.493095e+00 1.076922e+01 1.020327e+01 -1 -1 1 8.155797e-01 -4.809558e-01 -3.010032e-01 1.136154e-01
120 2 1 4.207490e+00 1.075660e+01 1.049616e+01 -1 -1 1 7.110891e-01 -3.180937e-01 -1.130825e-01 6.167503e-01
121 2 3 3.912117e+00 1.095735e+01 1.096388e+01 -1 -1 1 -6.538251e-01 3.433369e-01 -7.560962e-02 -6.700117e-01
122 2 1 3.957915e+00 1.136606e+01 1.131223e+01 -1 -1 1 -3.632143e-01 3.203148e-01 -2.199491e-01 -8.468153e-01
123 2 4 3.164814e+00 1.030990e+01 1.223036e+01 -1 -1 1 -2.883368e-01 8.750452e-02 9.004866e-01 -3.135740e-01
124 2 1 3.177805e+00 1.062116e+01 1.210032e+01 -1 -1 1 -6.794091e-01 -1.869604e-01 2.879363e-01 6.484919e-01
125 2 4 3.419995e+00 1.164765e+01 1.305341e+01 -1 -1 1 4.759541e-01 2.425142e-01 4.278853e-02 8.442888e-01
126 2 2 3.110909e+00 1.066009e+01 1.371916e+01 -1 -1 1 9.606848e-02 -7.501333e-01 3.266249e-01 -5.669101e-01
127 2 4 3.942248e+00 1.093872e+01 1.366169e+01 -1 -1 1 -3.583532e-02 -9.103047e-01 4.061413e-01 7.148711e-02
128 2 4 3.266190e+00 1.145706e+01 1.378538e+01 -1 -1 1 -6.776678e-01 -4.024279e-01 -6.033210e-01 -1.217451e-01
129 2 1 3.918737e+00 1.165614e+01 1.482442e+01 -1 -1 1 -2.124165e-01 4.938575e-01 -5.056675e-01 6.747476e-01
130 2 2 4.304472e+00 1.144707e+01 1.510123e+01 -1 -1 1 -4.409482e-01 2.345102e-01 -6.772089e-01 5.403312e-01
131 2 3 4.545133e+00 1.106501e+01 1.527115e+01 -1 -1 1 -6.125891e-01 -1.212188e-01 -7.490108e-01 2.214125e-01
132 2 4 5.019098e+00 1.071594e+01 1.579369e+01 -1 -1 1 -7.337948e-01 6.563333e-01 1.721700e-01 -3.360482e-02
133 2 4 4.981011e+00 1.094472e+01 1.612423e+01 -1 -1 1 4.499272e-01 -7.317297e-01 3.452384e-02 5.108280e-01
134 2 3 4.912323e+00 1.096083e+01 1.723980e+01 -1 -1 1 -3.786077e-01 3.315563e-01 5.041916e-01 -7.017959e-01
135 2 4 4.784207e+00 1.161134e+01 1.697285e+01 -1 -1 1 2.661355e-01 -5.440776e-01 1.923110e-01 7.721191e-01
136 2 3 3.946111e+00 1.181514e+01 1.761690e+01 -1 -1 1 -3.533816e-01 3.069678e-01 4.174958e-01 -7.788385e-01
137 2 1 3.656688e+00 1.193344e+01 1.799906e+01 -1 -1 1 -1.114896e-01 -4.326794e-01 -1.865304e-01 8.749657e-01
138 2 3 3.305726e+00 1.197157e+01 1.831092e+01 -1 -1 1 4.947454e-01 3.830275e-01 -6.081383e-02 -7.777008e-01
139 2 2 3.146375e+00 1.180430e+01 1.927329e+01 -1 -1 1 -1.086160e-01 8.324143e-01 -2.811888e-01 4.649967e-01
140 2 3 2.937367e+00 1.165760e+01 1.916207e+01 -1 -1 1 -6.494529e-01 -6.089532e-01 -2.257342e-01 3.955137e-01
141 2 1 2.598638e+00 1.272180e+01 1.963134e+01 -1 -1 1 2.858265e-01 8.188994e-01 4.970567e-01 -2.533047e-02
142 2 2 2.277836e+00 1.347036e+01 1.953514e+01 -1 -1 1 -1.141090e-01 -7.224415e-01 -6.514567e-01 -2.016471e-01
143 2 4 2.799644e+00 1.379990e+01 -1.980087e+01 -1 -1 2 1.918712e-01 -3.716480e-01 -8.611565e-02 -9.042385e-01
144 2 4 2.822423e+00 1.412694e+01 -1.951077e+01 -1 -1 2 5.371069e-01 -4.886799e-01 -7.225325e-03 -6.874998e-01
145 2 1 2.890104e+00 1.436844e+01 -1.906358e+01 -1 -1 2 -7.239684e-01 4.421605e-01 -1.587520e-01 5.051353e-01
146 2 1 3.077217e+00 1.448704e+01 -1.861622e+01 -1 -1 2 -8.584488e-01 3.222383e-01 -2.907267e-01 2.733241e-01
147 2 1 3.234126e+00 1.446840e+01 -1.800952e+01 -1 -1 2 -9.401953e-01 6.381631e-02 -3.112809e-01 1.227371e-01
148 2 2 3.571649e+00 1.430188e+01 -1.756444e+01 -1 -1 2 -8.995067e-01 -2.992926e-02 -4.308851e-01 -6.580217e-02
149 2 4 4.112964e+00 1.424732e+01 -1.727569e+01 -1 -1 2 8.299920e-01 1.226696e-01 4.780856e-01 2.598068e-01
150 2 1 4.653277e+00 1.414601e+01 -1.721604e+01 -1 -1 2 6.828896e-01 3.303136e-01 4.919786e-01 4.272140e-01
151 2 1 5.186044e+00 1.403539e+01 -1.717572e+01 -1 -1 2 5.304769e-01 3.999863e-01 5.596606e-01 4.953637e-01
152 2 1 5.667959e+00 1.402670e+01 -1.739115e+01 -1 -1 2 3.591513e-01 5.058057e-01 4.969406e-01 6.068122e-01
153 2 4 6.039786e+00 1.434925e+01 -1.757463e+01 -1 -1 2 1.859960e-01 5.970068e-01 2.621496e-01 7.350279e-01
154 2 1 6.348590e+00 1.483406e+01 -1.772654e+01 -1 -1 2 -8.462173e-02 6.375554e-01 1.656562e-01 7.476097e-01
155 2 2 6.450491e+00 1.526732e+01 -1.755181e+01 -1 -1 2 -4.301339e-01 6.701153e-01 -4.482150e-02 6.032589e-01
156 2 4 6.710436e+00 1.563640e+01 -1.731654e+01 -1 -1 2 -6.283619e-01 5.772511e-01 -1.831008e-01 4.882792e-01
157 2 3 6.960728e+00 1.584646e+01 -1.700048e+01 -1 -1 2 -7.456199e-01 4.739206e-01 -3.914441e-01 2.573357e-01
158 2 2 7.489351e+00 1.597309e+01 -1.668060e+01 -1 -1 2 -7.098061e-01 3.759986e-01 -5.766826e-01 1.491226e-01
159 2 1 7.968369e+00 1.585199e+01 -1.653265e+01 -1 -1 2 -6.877853e-01 1.943149e-01 -6.757627e-01 -1.803824e-01
160 2 3 8.467626e+00 1.586596e+01 -1.666793e+01 -1 -1 2 5.800240e-01 9.540989e-02 7.735241e-01 2.369168e-01
161 2 1 8.976844e+00 1.597225e+01 -1.689075e+01 -1 -1 2 4.506936e-01 1.601524e-01 8.604338e-01 1.757275e-01
162 2 1 9.199768e+00 1.582745e+01 -1.730258e+01 -1 -1 2 3.250945e-01 4.804103e-01 7.395279e-01 3.414939e-01
163 2 4 9.350717e+00 1.603183e+01 -1.785266e+01 -1 -1 2 1.096346e-01 6.589724e-01 6.027556e-01 4.363728e-01
164 2 4 9.480557e+00 1.633053e+01 -1.828764e+01 -1 -1 2 -1.641521e-01 7.590480e-01 4.607990e-01 4.296097e-01
165 2 3 9.535007e+00 1.682749e+01 -1.852383e+01 -1 -1 2 -3.767141e-01 7.701972e-01 2.969185e-01 4.203833e-01
166 2 3 9.630876e+00 1.737441e+01 -1.860762e+01 -1 -1 2 -4.917463e-01 7.972089e-01 -4.772205e-02 3.469383e-01
167 2 4 9.875693e+00 1.778204e+01 -1.841665e+01 -1 -1 2 -6.919180e-01 6.689782e-01 -1.296548e-01 2.385524e-01
168 2 2 1.005684e+01 1.816345e+01 -1.813095e+01 -1 -1 2 -7.320896e-01 6.039625e-01 -2.923619e-01 1.174674e-01
169 2 2 1.038205e+01 1.839226e+01 -1.782022e+01 -1 -1 2 -7.836781e-01 3.892985e-01 -4.687899e-01 -1.205463e-01
170 2 1 1.084361e+01 1.850534e+01 -1.766810e+01 -1 -1 2 -7.053961e-01 2.137173e-01 -5.957424e-01 -3.191116e-01
171 2 1 1.131290e+01 1.871611e+01 -1.764324e+01 -1 -1 2 5.773339e-01 -1.524399e-01 6.998785e-01 3.919409e-01
172 2 4 1.174991e+01 1.886481e+01 -1.785882e+01 -1 -1 2 3.629307e-01 1.555903e-01 7.937303e-01 4.626718e-01
173 2 4 1.217518e+01 1.916007e+01 -1.809444e+01 -1 -1 2 2.235810e-01 1.790789e-01 8.276453e-01 4.826443e-01
174 2 1 1.222381e+01 1.953569e+01 -1.850983e+01 -1 -1 2 -1.034778e-01 4.892319e-01 6.477284e-01 5.747977e-01
175 2 1 1.249339e+01 -1.991794e+01 -1.869839e+01 -1 0 2 -2.541938e-01 4.542975e-01 5.566719e-01 6.473914e-01
176 2 2 1.238289e+01 -1.931126e+01 -1.867066e+01 -1 0 2 -4.797815e-01 6.054218e-01 1.795802e-01 6.091184e-01
177 2 2 1.247429e+01 -1.886385e+01 -1.847430e+01 -1 0 2 -6.831936e-01 5.508859e-01 6.443551e-02 4.749939e-01
178 2 1 1.254185e+01 -1.855814e+01 -1.812275e+01 -1 0 2 -8.158494e-01 4.814891e-01 -9.774535e-02 3.049654e-01
179 2 4 1.262202e+01 -1.842749e+01 -1.770087e+01 -1 0 2 -9.158078e-01 3.525654e-01 -1.867356e-01 4.608094e-02
180 2 1 1.300298e+01 -1.827727e+01 -1.726184e+01 -1 0 2 -7.867790e-01 3.896208e-01 -4.075698e-01 -2.511202e-01
181 2 4 1.335641e+01 -1.807426e+01 -1.696877e+01 -1 0 2 7.352603e-01 -2.181872e-01 5.485282e-01 3.330218e-01
182 2 2 1.382147e+01 -1.782238e+01 -1.697374e+01 -1 0 2 5.786998e-01 -7.951831e-02 5.979080e-01 5.488983e-01
183 2 3 1.431104e+01 -1.752711e+01 -1.706036e+01 -1 0 2 3.961238e-01 9.952025e-02 6.644930e-01 6.258041e-01
184 2 4 1.466770e+01 -1.725193e+01 -1.729606e+01 -1 0 2 1.382137e-01 2.414496e-01 6.800407e-01 6.783389e-01
185 2 3 1.472433e+01 -1.682268e+01 -1.754287e+01 -1 0 2 1.110562e-01 -4.811949e-01 -5.658427e-01 -6.602576e-01
186 2 1 1.476128e+01 -1.625187e+01 -1.764112e+01 -1 0 2 3.615956e-01 -4.407122e-01 -4.995694e-01 -6.522667e-01
187 2 1 1.461047e+01 -1.576551e+01 -1.767601e+01 -1 0 2 -5.802238e-01 4.901655e-01 4.000660e-01 5.128600e-01
188 2 2 1.442324e+01 -1.540384e+01 -1.742879e+01 -1 0 2 7.266911e-01 -5.491962e-01 -3.007355e-01 -2.825981e-01
189 2 4 1.424853e+01 -1.501027e+01 -1.702865e+01 -1 0 2 8.033022e-01 -5.794103e-01 -2.864080e-02 -1.347928e-01
190 2 4 1.440272e+01 -1.476621e+01 -1.652612e+01 -1 0 2 -8.075482e-01 5.012356e-01 -2.184514e-01 -2.211511e-01
191 2 1 1.471715e+01 -1.440243e+01 -1.616679e+01 -1 0 2 -6.784165e-01 4.827614e-01 -3.318667e-01 -4.433475e-01
192 2 4 1.501196e+01 -1.394973e+01 -1.608770e+01 -1 0 2 5.369521e-01 -3.435309e-01 5.399183e-01 5.496883e-01
193 2 4 1.533764e+01 -1.357601e+01 -1.622374e+01 -1 0 2 -3.686289e-01 1.624414e-01 -6.731879e-01 -6.201157e-01
194 2 1 1.550364e+01 -1.308461e+01 -1.637269e+01 -1 0 2 1.574081e-01 -2.501789e-02 7.482579e-01 6.439774e-01
195 2 3 1.548457e+01 -1.259332e+01 -1.661519e+01 -1 0 2 1.743448e-01 -1.310185e-01 -6.995549e-01 -6.804858e-01
196 2 4 1.525995e+01 -1.216604e+01 -1.684473e+01 -1 0 2 4.910932e-01 -3.150205e-01 -5.784158e-01 -5.701094e-01
197 2 2 1.505176e+01 -1.175317e+01 -1.691390e+01 -1 0 2 -7.277526e-01 3.934721e-01 4.377560e-01 3.520307e-01
198 2 4 1.531020e+01 -1.051181e+01 -1.758777e+01 -1 0 2 -2.670471e-01 8.866039e-01 1.521208e-01 -3.456568e-01
199 2 3 1.528328e+01 -1.094689e+01 -1.782492e+01 -1 0 2 5.729432e-01 -6.987268e-01 -2.034460e-01 -3.769970e-01
200 2 4 1.622801e+01 -1.068962e+01 -1.843860e+01 -1 0 2 7.222205e-01 4.450693e-01 3.267278e-01 4.166051e-01
