ITEM: TIMESTEP
274000000
ITEM: NUMBER OF ATOMS
200
ITEM: BOX BOUNDS pp pp pp
-2.0000000000000000e+01 2.0000000000000000e+01
-2.0000000000000000e+01 2.0000000000000000e+01
-2.0000000000000000e+01 2.0000000000000000e+01
ITEM: ATOMS id mol type x y z ix iy iz c_quat[1] c_quat[2] c_quat[3] c_quat[4]
1 1 1 6.572489e+00 -1.377963e+01 -1.084661e+01 -1 0 2 -1.481477e-01 -8.196289e-01 -4.264273e-02 -5.517628e-01
2 1 2 7.059724e+00 -1.362927e+01 -1.094882e+01 -1 0 2 -3.498366e-02 7.960995e-01 -3.548281e-01 4.889773e-01
3 1 1 5.871779e+00 -1.401183e+01 -1.173577e+01 -1 0 2 2.781366e-01 -1.178260e-01 8.934763e-01 -3.323509e-01
4 1 3 5.986065e+00 -1.451084e+01 -1.192436e+01 -1 0 2 -3.530521e-01 -2.396949e-01 -8.303778e-01 3.582922e-01
5 1 1 5.935419e+00 -1.503027e+01 -1.210913e+01 -1 0 2 -3.110097e-01 -5.661591e-01 -7.392551e-01 1.903650e-01
6 1 2 5.852581e+00 -1.539355e+01 -1.252775e+01 -1 0 2 -3.277086e-01 -7.305007e-01 -5.985808e-01 2.601600e-02
7 1 4 5.762263e+00 -1.550350e+01 -1.307173e+01 -1 0 2 -1.963680e-01 -9.235758e-01 -3.293116e-01 -1.128142e-03
8 1 1 5.677182e+00 -1.550017e+01 -1.362089e+01 -1 0 2 1.557121e-01 9.724018e-01 1.382501e-01 1.052397e-01
9 1 1 5.912205e+00 -1.529917e+01 -1.405997e+01 -1 0 2 -3.060893e-02 -9.571116e-01 2.033208e-01 -2.041104e-01
10 1 4 6.257693e+00 -1.519024e+01 -1.447315e+01 -1 0 2 -2.352907e-02 8.711824e-01 -3.686069e-01 3.234449e-01
11 1 1 6.700624e+00 -1.497312e+01 -1.468806e+01 -1 0 2 -1.686834e-01 7.695820e-01 -4.992453e-01 3.606155e-01
12 1 1 7.173833e+00 -1.507306e+01 -1.465470e+01 -1 0 2 3.561648e-01 -5.073250e-01 7.350296e-01 -2.747715e-01
13 1 3 7.700885e+00 -1.526673e+01 -1.480353e+01 -1 0 2 -3.160761e-01 2.450214e-01 -9.036645e-01 1.531368e-01
14 1 4 8.044601e+00 -1.552908e+01 -1.507578e+01 -1 0 2 3.376427e-01 -9.616519e-03 9.314953e-01 -1.349865e-01
15 1 4 8.259195e+00 -1.590359e+01 -1.544267e+01 -1 0 2 2.555760e-01 2.119378e-01 9.238041e-01 -1.906546e-01
16 1 2 8.146022e+00 -1.631491e+01 -1.574592e+01 -1 0 2 -3.102177e-01 -4.735110e-01 -8.106863e-01 1.494661e-01
17 1 1 8.033666e+00 -1.663530e+01 -1.615231e+01 -1 0 2 -2.506691e-01 -6.966762e-01 -6.671013e-01 8.235960e-02
18 1 2 7.930752e+00 -1.676306e+01 -1.669612e+01 -1 0 2 1.615864e-01 8.755522e-01 4.455792e-01 9.358089e-02
19 1 3 7.972665e+00 -1.662068e+01 -1.722516e+01 -1 0 2 9.724536e-02 9.671417e-01 1.254488e-01 1.986021e-01
20 1 1 8.249540e+00 -1.638573e+01 -1.765367e+01 -1 0 2 3.629760e-02 9.272496e-01 -1.099640e-01 3.560878e-01
21 1 4 8.624234e+00 -1.620954e+01 -1.792484e+01 -1 0 2 4.862251e-02 -8.765453e-01 3.963076e-01 -2.687833e-01
22 1 1 9.150992e+00 -1.618095e+01 -1.815226e+01 -1 0 2 1.241444e-01 -7.279005e-01 6.154561e-01 -2.756137e-01
23 1 4 9.648586e+00 -1.632149e+01 -1.827792e+01 -1 0 2 2.341877e-01 -4.125389e-01 8.339804e-01 -2.818589e-01
24 1 3 9.985769e+00 -1.669280e+01 -1.843132e+01 -1 0 2 2.765523e-01 -1.131733e-01 9.222594e-01 -2.452514e-01
25 1 3 1.015466e+01 -1.708771e+01 -1.870806e+01 -1 0 2 2.717693e-01 1.660363e-01 9.365957e-01 -1.461570e-01
26 1 4 1.021813e+01 -1.740563e+01 -1.912247e+01 -1 0 2 2.399407e-01 4.174096e-01 8.741423e-01 -6.381936e-02
27 1 4 1.020288e+01 -1.767662e+01 -1.962762e+01 -1 0 2 1.245785e-01 6.412220e-01 7.556906e-01 4.739513e-02
28 1 1 9.979748e+00 -1.759321e+01 1.981310e+01 -1 0 1 4.550245e-02 8.797366e-01 4.648037e-01 8.916575e-02
29 1 1 9.799343e+00 -1.742059e+01 1.940650e+01 -1 0 1 1.629086e-02 9.766488e-01 1.881957e-01 1.023430e-01
30 1 4 9.936046e+00 -1.719959e+01 1.885374e+01 -1 0 1 4.366203e-02 -9.737519e-01 1.329744e-02 -2.229888e-01
31 1 4 1.019361e+01 -1.690844e+01 1.855454e+01 -1 0 1 1.127594e-01 -8.803825e-01 4.034252e-01 -2.223961e-01
32 1 3 1.072231e+01 -1.672368e+01 1.823333e+01 -1 0 1 1.541385e-01 -7.476860e-01 5.825702e-01 -2.789604e-01
33 1 3 1.126198e+01 -1.686059e+01 1.799905e+01 -1 0 1 1.953947e-01 -5.347876e-01 7.781976e-01 -2.650126e-01
34 1 1 1.167047e+01 -1.718142e+01 1.783715e+01 -1 0 1 1.892794e-01 -2.289097e-01 9.331185e-01 -2.026415e-01
35 1 2 1.183432e+01 -1.757380e+01 1.746687e+01 -1 0 1 1.144499e-01 -5.128966e-02 9.241701e-01 -3.608048e-01
36 1 2 1.185020e+01 -1.796748e+01 1.716055e+01 -1 0 1 1.104717e-01 2.795010e-01 9.200447e-01 -2.513823e-01
37 1 1 1.174847e+01 -1.828890e+01 1.681694e+01 -1 0 1 1.262112e-01 5.883250e-01 7.794583e-01 -1.743252e-01
38 1 1 1.144873e+01 -1.846541e+01 1.636059e+01 -1 0 1 1.833590e-02 8.135021e-01 5.500558e-01 -1.879274e-01
39 1 4 1.119932e+01 -1.838404e+01 1.585860e+01 -1 0 1 4.663640e-02 -9.107229e-01 -4.091234e-01 3.204489e-02
40 1 4 1.099586e+01 -1.797889e+01 1.554430e+01 -1 0 1 -5.639997e-03 -9.926711e-01 4.769779e-02 1.108927e-01
41 1 2 1.102101e+01 -1.771233e+01 1.508569e+01 -1 0 1 -4.563901e-02 -9.184982e-01 3.875615e-01 6.382914e-02
42 1 4 1.123078e+01 -1.760945e+01 1.451039e+01 -1 0 1 1.083289e-02 8.660601e-01 -4.935113e-01 7.917875e-02
43 1 3 1.154127e+01 -1.758633e+01 1.409772e+01 -1 0 1 1.048463e-01 -6.978674e-01 6.764704e-01 -2.106563e-01
44 1 2 1.186375e+01 -1.772910e+01 1.367395e+01 -1 0 1 -1.565539e-02 -3.718070e-01 9.173646e-01 -1.412682e-01
45 1 1 1.185470e+01 -1.807002e+01 1.316918e+01 -1 0 1 -1.220347e-01 -1.744965e-01 9.594209e-01 -1.848514e-01
46 1 3 1.176279e+01 -1.856370e+01 1.290658e+01 -1 0 1 -1.212040e-01 1.439747e-01 9.549927e-01 -2.292810e-01
47 1 4 1.151831e+01 -1.897427e+01 1.271897e+01 -1 0 1 -1.366135e-01 3.192698e-01 8.602883e-01 -3.732392e-01
48 1 1 1.106273e+01 -1.933499e+01 1.273594e+01 -1 0 1 -6.280033e-02 -5.908923e-01 -7.036497e-01 3.895889e-01
49 1 4 1.055343e+01 -1.946412e+01 1.264815e+01 -1 0 1 -1.288608e-01 -7.869477e-01 -4.199548e-01 4.332969e-01
50 1 4 1.009685e+01 -1.943191e+01 1.222527e+01 -1 0 1 -2.021742e-01 -9.125336e-01 -1.604821e-01 3.172593e-01
51 1 4 9.772895e+00 -1.927529e+01 1.179036e+01 -1 0 1 -2.960253e-01 -9.138972e-01 1.634548e-01 2.245962e-01
52 1 1 9.600709e+00 -1.914116e+01 1.130942e+01 -1 0 1 -5.045541e-01 -7.106621e-01 4.203511e-01 2.523678e-01
53 1 3 9.356324e+00 -1.938475e+01 1.095975e+01 -1 0 1 5.333482e-01 6.297698e-01 -5.560101e-01 -9.890617e-02
54 1 4 9.256181e+00 -1.972082e+01 1.057982e+01 -1 0 1 5.328460e-01 5.334269e-01 -6.466089e-01 1.158782e-01
55 1 4 9.257920e+00 1.981202e+01 1.041431e+01 -1 -1 1 4.755652e-01 2.778629e-01 -7.713617e-01 3.187962e-01
56 1 4 9.178962e+00 1.926383e+01 1.052239e+01 -1 -1 1 -3.103742e-01 4.670198e-02 8.129960e-01 -4.904327e-01
57 1 1 8.941715e+00 1.882973e+01 1.068942e+01 -1 -1 1 -2.254786e-01 2.177249e-01 7.242465e-01 -6.141843e-01
58 1 1 8.626423e+00 1.843657e+01 1.096542e+01 -1 -1 1 1.091580e-01 -3.803192e-01 -6.358419e-01 6.626816e-01
59 1 3 9.768135e+00 1.750708e+01 1.101090e+01 -1 -1 1 5.173773e-01 3.744551e-01 -6.527313e-01 4.074875e-01
60 1 4 9.821586e+00 1.696745e+01 1.107006e+01 -1 -1 1 -3.718199e-01 -8.309350e-02 7.906116e-01 -4.793524e-01
61 1 2 1.004690e+01 1.632108e+01 1.041247e+01 -1 -1 1 -8.125992e-01 -1.051231e-01 -4.603918e-01 -3.415715e-01
62 1 3 9.556512e+00 1.552013e+01 1.079254e+01 -1 -1 1 7.463531e-03 -4.945883e-01 7.268759e-01 -4.764222e-01
63 1 2 9.890384e+00 1.511540e+01 1.078550e+01 -1 -1 1 2.134232e-01 -8.827418e-02 8.451059e-01 -4.821350e-01
64 1 4 9.931149e+00 1.461901e+01 1.072246e+01 -1 -1 1 3.545098e-01 2.064544e-01 8.045566e-01 -4.294043e-01
65 1 2 1.059045e+01 1.408760e+01 9.998412e+00 -1 -1 1 -5.855115e-01 2.387745e-01 -7.738482e-01 3.635788e-02
66 1 1 1.104064e+01 1.447439e+01 9.654504e+00 -1 -1 1 3.474450e-01 4.793526e-01 -1.735664e-01 -7.870056e-01
67 1 2 1.103478e+01 1.357760e+01 9.884034e+00 -1 -1 1 -3.481672e-01 -5.258601e-02 -8.460284e-01 4.003126e-01
68 1 1 1.094636e+01 1.300395e+01 9.776489e+00 -1 -1 1 -3.637638e-01 -3.318626e-01 -8.226501e-01 2.842355e-01
69 1 1 1.138381e+01 1.236917e+01 9.509894e+00 -1 -1 1 -6.884163e-01 -3.131021e-01 6.537264e-01 -2.630270e-02
70 1 2 1.114136e+01 1.201576e+01 9.407682e+00 -1 -1 1 -5.813203e-01 8.940017e-03 7.601326e-01 -2.901470e-01
71 1 3 1.085456e+01 1.166662e+01 9.767685e+00 -1 -1 1 4.069409e-01 -2.423611e-01 -6.526547e-01 5.913561e-01
72 1 4 1.066841e+01 1.111717e+01 9.550555e+00 -1 -1 1 -5.058478e-01 -5.403217e-01 2.062148e-01 6.400359e-01
73 1 1 1.019479e+01 1.097755e+01 9.546539e+00 -1 -1 1 6.496615e-01 5.306197e-01 -3.482367e-01 -4.184661e-01
74 1 1 9.257288e+00 1.104140e+01 9.622489e+00 -1 -1 1 -8.076283e-01 -7.480887e-02 2.750568e-01 5.162208e-01
75 1 3 8.881638e+00 1.091816e+01 9.910053e+00 -1 -1 1 -9.412070e-01 1.076745e-02 2.751595e-01 1.957055e-01
76 1 1 7.988715e+00 1.040961e+01 9.471178e+00 -1 -1 1 7.745421e-01 -3.100812e-02 -1.739537e-01 -6.073410e-01
77 1 4 7.658405e+00 1.031860e+01 9.787824e+00 -1 -1 1 -9.444852e-01 1.071323e-01 2.643846e-01 1.630069e-01
78 1 1 7.555661e+00 1.016808e+01 1.029485e+01 -1 -1 1 -9.258162e-01 1.544738e-01 1.427638e-01 -3.140393e-01
79 1 4 6.397112e+00 1.026587e+01 1.076290e+01 -1 -1 1 1.284137e-01 -7.244926e-01 -3.077030e-01 -6.032738e-01
80 1 2 6.856211e+00 9.765014e+00 1.077926e+01 -1 -1 1 2.275440e-01 -2.280857e-01 7.934259e-01 5.164068e-01
81 1 4 6.550418e+00 1.047407e+01 1.170801e+01 -1 -1 1 1.681135e-01 5.727649e-01 7.989734e-01 7.293625e-02
82 1 4 5.942627e+00 1.012630e+01 1.160231e+01 -1 -1 1 6.845119e-01 4.234333e-01 4.500288e-01 -3.868098e-01
83 1 4 5.473054e+00 1.048459e+01 1.277055e+01 -1 -1 1 5.921157e-01 -5.761010e-01 -5.583777e-01 7.563696e-02
84 1 4 5.688908e+00 1.070100e+01 1.296906e+01 -1 -1 1 4.774099e-01 1.112168e-01 1.101830e-01 8.646215e-01
85 1 1 5.583955e+00 1.025946e+01 1.418291e+01 -1 -1 1 -3.444519e-01 1.410032e-01 9.168633e-01 -1.443353e-01
86 1 1 4.871358e+00 1.063348e+01 1.364519e+01 -1 -1 1 -4.823494e-01 -4.855990e-01 8.204628e-02 7.244315e-01
87 1 3 3.965240e+00 1.127802e+01 1.422243e+01 -1 -1 1 1.653032e-01 -2.947994e-01 -3.233210e-01 -8.838731e-01
88 1 2 4.357132e+00 1.083473e+01 1.507990e+01 -1 -1 1 1.595811e-01 -3.105453e-01 -7.589562e-01 5.496189e-01
89 1 2 3.944047e+00 1.057455e+01 1.524676e+01 -1 -1 1 -2.406281e-01 -6.219996e-01 -5.292628e-01 5.244955e-01
90 1 3 4.460413e+00 1.078863e+01 1.565924e+01 -1 -1 1 4.044378e-01 7.482191e-01 -5.255873e-01 -1.887492e-02
91 1 3 3.530178e+00 1.096687e+01 1.675970e+01 -1 -1 1 5.719353e-01 1.391152e-02 -7.743505e-01 2.703290e-01
92 1 2 3.977721e+00 1.221651e+01 1.677218e+01 -1 -1 1 -5.474206e-01 -5.821835e-01 1.597656e-01 -5.795411e-01
93 1 1 4.478994e+00 1.205321e+01 1.688176e+01 -1 -1 1 2.945523e-01 4.734974e-01 -3.842392e-01 7.357985e-01
94 1 2 4.816130e+00 1.184314e+01 1.720718e+01 -1 -1 1 1.485639e-01 -2.080955e-01 5.397277e-01 -8.020717e-01
95 1 3 5.193256e+00 1.131631e+01 1.737841e+01 -1 -1 1 1.538778e-01 -4.531422e-02 6.191440e-01 -7.687190e-01
96 1 2 6.088267e+00 1.204344e+01 1.784332e+01 -1 -1 1 7.120428e-01 1.347289e-01 -3.482855e-01 5.945926e-01
97 1 2 6.204748e+00 1.183413e+01 1.824085e+01 -1 -1 1 4.028016e-01 1.567735e-02 -3.266690e-01 8.548640e-01
98 1 4 6.088889e+00 1.184080e+01 1.872056e+01 -1 -1 1 3.812686e-02 -1.457628e-01 -2.275809e-01 9.620325e-01
99 1 2 7.078375e+00 1.105359e+01 1.961761e+01 -1 -1 1 5.875241e-01 2.347404e-01 -6.078272e-01 4.798524e-01
100 1 1 7.291786e+00 1.067759e+01 1.987323e+01 -1 -1 1 1.656907e-01 4.265898e-03 -6.930513e-01 7.015756e-01
101 2 4 -3.271609e-01 -1.810251e+01 2.974102e+00 -1 0 1 5.886070e-01 -5.621295e-01 3.124636e-01 4.898150e-01
102 2 3 -6.117333e-01 -1.784132e+01 4.362077e+00 -1 0 1 4.807990e-01 -7.170689e-01 -1.027678e-01 -4.940479e-01
103 2 1 -4.373581e-01 -1.830107e+01 4.739299e+00 -1 0 1 7.537412e-01 -1.763892e-01 2.318728e-01 -5.890637e-01
104 2 3 3.318355e-01 -1.794565e+01 5.391920e+00 -1 0 1 1.130660e-01 -5.461261e-01 7.491216e-01 -3.574623e-01
105 2 3 -4.129760e-01 -1.744889e+01 5.381612e+00 -1 0 1 7.296218e-01 2.072992e-02 -6.414295e-01 2.362000e-01
106 2 2 -8.034438e-01 -1.775709e+01 5.733371e+00 -1 0 1 -6.236822e-01 2.472715e-01 5.292288e-01 -5.194172e-01
107 2 3 -1.045965e+00 -1.775972e+01 6.075686e+00 -1 0 1 2.586070e-01 -3.555244e-01 -3.066798e-01 8.441992e-01
108 2 4 -2.180189e+00 -1.818884e+01 6.072049e+00 -1 0 1 3.044578e-01 -1.483802e-01 -3.316067e-01 -8.805258e-01
109 2 3 -1.576795e+00 -1.829350e+01 6.497712e+00 -1 0 1 8.600264e-01 2.306108e-01 2.052656e-01 4.062504e-01
110 2 2 -1.729722e+00 -1.864625e+01 7.515323e+00 -1 0 1 -9.952384e-02 5.612100e-01 -6.512274e-02 8.190832e-01
111 2 2 -1.412310e+00 -1.941431e+01 8.130893e+00 -1 0 1 5.024615e-01 -6.743951e-01 -3.323898e-01 -4.268966e-01
112 2 3 -6.220301e-01 -1.951414e+01 8.005757e+00 -1 0 1 -5.945261e-01 -6.866540e-01 -9.289167e-02 -4.079414e-01
113 2 3 -5.089562e-01 1.975280e+01 8.010492e+00 -1 -1 1 -7.672729e-01 -3.625819e-01 -5.430072e-02 5.261920e-01
114 2 2 -8.035234e-01 1.919291e+01 7.636698e+00 -1 -1 1 -4.716486e-01 -2.328735e-01 5.196597e-01 6.732543e-01
115 2 4 -3.481712e-01 1.884400e+01 6.911118e+00 -1 -1 1 7.984668e-01 5.612230e-01 1.770736e-01 -1.269823e-01
116 2 4 -8.834047e-02 1.878896e+01 6.400852e+00 -1 -1 1 6.708501e-01 6.044203e-01 5.528995e-02 -4.261211e-01
117 2 1 -1.807562e-01 1.842897e+01 6.128449e+00 -1 -1 1 -7.092455e-01 -6.476842e-01 2.580035e-01 1.044523e-01
118 2 1 -1.154611e-01 1.794214e+01 5.939054e+00 -1 -1 1 6.671397e-01 4.694637e-01 -5.202048e-01 2.528150e-01
119 2 1 -1.769707e-02 1.770904e+01 5.529748e+00 -1 -1 1 -5.297083e-01 -4.168606e-01 4.542897e-01 -5.824579e-01
120 2 1 1.507412e-01 1.732932e+01 5.880854e+00 -1 -1 1 2.550802e-01 1.831273e-01 -6.327642e-01 7.078192e-01
121 2 3 1.578022e-01 1.698738e+01 6.197911e+00 -1 -1 1 -9.598783e-02 -1.608778e-01 -6.471419e-01 7.389939e-01
122 2 1 1.936192e-01 1.641628e+01 5.860936e+00 -1 -1 1 -1.122630e-01 -2.423588e-01 -3.678694e-01 8.906915e-01
123 2 4 -4.184089e-01 1.608780e+01 6.394995e+00 -1 -1 1 3.927085e-01 -2.883831e-01 -3.180138e-01 -8.133157e-01
124 2 1 -2.686893e-01 1.589738e+01 7.051873e+00 -1 -1 1 9.762641e-02 5.801088e-01 -7.837882e-01 1.990449e-01
125 2 4 8.896682e-02 1.611984e+01 7.620084e+00 -1 -1 1 -6.419393e-01 3.364444e-01 3.166342e-01 -6.119329e-01
126 2 2 -2.994775e-02 1.574204e+01 7.617181e+00 -1 -1 1 6.060322e-01 3.004520e-01 2.205945e-01 7.027031e-01
127 2 4 3.906732e-01 1.582729e+01 7.791332e+00 -1 -1 1 3.066425e-01 2.771036e-01 7.769083e-02 9.072751e-01
128 2 4 6.288340e-01 1.579169e+01 8.870511e+00 -1 -1 1 -5.626844e-01 7.549366e-01 3.043073e-01 -1.444093e-01
129 2 1 1.066814e+00 1.565169e+01 8.992484e+00 -1 -1 1 -4.328660e-01 3.243799e-01 9.979966e-02 -8.351316e-01
130 2 2 1.109606e+00 1.567656e+01 9.428228e+00 -1 -1 1 8.429413e-02 -2.015908e-01 -4.010461e-02 9.750114e-01
131 2 3 2.241116e+00 1.512156e+01 1.019232e+01 -1 -1 1 6.963480e-01 -6.242633e-01 1.820999e-01 -3.037012e-01
132 2 4 2.472971e+00 1.556545e+01 1.054508e+01 -1 -1 1 8.080102e-01 -4.475604e-01 3.424555e-01 -1.718532e-01
133 2 4 2.864816e+00 1.622737e+01 9.695976e+00 -1 -1 1 7.760315e-01 5.269108e-01 -3.734088e-02 -3.445952e-01
134 2 3 3.529754e+00 1.644396e+01 9.773685e+00 -1 -1 1 4.231087e-01 5.379319e-01 -6.892763e-01 -2.377110e-01
135 2 4 3.594381e+00 1.649116e+01 9.878507e+00 -1 -1 1 3.745413e-01 -3.081524e-02 3.482120e-02 -9.260436e-01
136 2 3 4.774410e+00 1.750916e+01 1.006432e+01 -1 -1 1 -1.369153e-01 -8.367306e-01 1.343605e-01 -5.129166e-01
137 2 1 5.291278e+00 1.758862e+01 9.923093e+00 -1 -1 1 -1.575266e-02 7.137122e-01 -3.701586e-01 5.944320e-01
138 2 3 5.811454e+00 1.764107e+01 1.004272e+01 -1 -1 1 2.181202e-01 -5.409317e-01 4.987013e-01 -6.411813e-01
139 2 2 6.266776e+00 1.758315e+01 1.018691e+01 -1 -1 1 -3.979072e-01 3.829163e-01 -5.356897e-01 6.388126e-01
140 2 3 6.748658e+00 1.855003e+01 1.000399e+01 -1 -1 1 -7.137479e-01 3.572372e-01 5.430831e-01 -2.607799e-01
141 2 1 7.562321e+00 1.930332e+01 9.279284e+00 -1 -1 1 -7.662626e-01 2.219498e-04 -2.363304e-01 -5.974860e-01
142 2 2 7.931961e+00 1.924273e+01 9.468190e+00 -1 -1 1 -5.466751e-01 -2.160387e-01 -2.072527e-01 -7.819974e-01
143 2 4 7.949579e+00 1.926050e+01 1.033193e+01 -1 -1 1 7.132853e-01 -4.903649e-01 -1.467724e-02 -5.005506e-01
144 2 4 7.975495e+00 1.943352e+01 1.079664e+01 -1 -1 1 8.558021e-01 -4.663024e-01 1.751303e-01 -1.396218e-01
145 2 1 8.246708e+00 1.969037e+01 1.119362e+01 -1 -1 1 8.610920e-01 -3.638140e-01 3.503703e-01 -5.831505e-02
146 2 1 8.728920e+00 1.969476e+01 1.152235e+01 -1 -1 1 8.099191e-01 -1.768480e-01 5.365968e-01 1.575428e-01
147 2 1 9.208074e+00 1.968866e+01 1.158190e+01 -1 -1 1 -7.071503e-01 -7.351903e-02 -6.136626e-01 -3.434408e-01
148 2 2 9.809500e+00 1.967413e+01 1.149007e+01 -1 -1 1 -5.062711e-01 -2.062326e-01 -6.401570e-01 -5.397747e-01
149 2 4 1.021848e+01 1.988244e+01 1.125083e+01 -1 -1 1 2.348767e-01 4.368594e-01 5.138444e-01 6.999648e-01
150 2 1 1.073440e+01 -1.974502e+01 1.132822e+01 -1 0 1 1.215113e-01 3.077980e-01 4.402061e-01 8.346939e-01
151 2 1 1.091335e+01 -1.923747e+01 1.139206e+01 -1 0 1 -2.222072e-01 3.616993e-01 3.661293e-01 8.280984e-01
152 2 1 1.093829e+01 -1.871228e+01 1.176649e+01 -1 0 1 -4.556513e-01 3.681218e-01 1.293362e-01 8.000877e-01
153 2 4 1.085936e+01 -1.839483e+01 1.204120e+01 -1 0 1 -7.130635e-01 2.558669e-01 1.719658e-01 6.296827e-01
154 2 1 1.067275e+01 -1.818594e+01 1.250292e+01 -1 0 1 -8.665615e-01 2.041400e-01 1.007054e-01 4.441356e-01
155 2 2 1.065543e+01 -1.810368e+01 1.306025e+01 -1 0 1 -9.656965e-01 1.560784e-01 -9.436470e-02 1.848380e-01
156 2 4 1.073249e+01 -1.838000e+01 1.349407e+01 -1 0 1 -9.873054e-01 2.859855e-02 -1.233027e-01 -9.595082e-02
157 2 3 1.099799e+01 -1.862998e+01 1.377838e+01 -1 0 1 -9.072928e-01 -5.852408e-02 -4.835509e-02 -4.135898e-01
158 2 2 1.146676e+01 -1.873958e+01 1.423604e+01 -1 0 1 -7.586081e-01 4.450213e-03 -6.592362e-02 -6.481883e-01
159 2 1 1.182930e+01 -1.863689e+01 1.464085e+01 -1 0 1 -5.103462e-01 -3.781754e-02 -1.318696e-01 -8.489564e-01
160 2 3 1.204100e+01 -1.833235e+01 1.496481e+01 -1 0 1 1.937907e-01 1.125402e-01 1.289371e-01 9.659995e-01
161 2 1 1.220823e+01 -1.792602e+01 1.533482e+01 -1 0 1 -4.838425e-02 1.100600e-01 1.216987e-01 9.852589e-01
162 2 1 1.218055e+01 -1.763659e+01 1.572821e+01 -1 0 1 -2.765719e-01 2.034959e-02 1.322952e-01 9.516259e-01
163 2 4 1.189136e+01 -1.738214e+01 1.611673e+01 -1 0 1 -5.257987e-01 -9.186403e-02 2.220613e-01 8.159568e-01
164 2 4 1.143179e+01 -1.728041e+01 1.635950e+01 -1 0 1 -7.813912e-01 -5.258476e-02 2.602981e-01 5.647190e-01
165 2 3 1.099009e+01 -1.737398e+01 1.659391e+01 -1 0 1 -9.205669e-01 7.640589e-02 3.151785e-01 2.176724e-01
166 2 3 1.079339e+01 -1.754221e+01 1.703548e+01 -1 0 1 -9.695204e-01 2.825364e-02 2.358561e-01 6.003200e-02
167 2 4 1.065885e+01 -1.779902e+01 1.750982e+01 -1 0 1 -9.536126e-01 2.800689e-02 1.940820e-01 -2.284093e-01
168 2 2 1.066447e+01 -1.791458e+01 1.802838e+01 -1 0 1 -8.780887e-01 1.276312e-01 5.804784e-02 -4.574943e-01
169 2 2 1.089474e+01 -1.789676e+01 1.855851e+01 -1 0 1 -6.499346e-01 1.746816e-01 -1.606136e-03 -7.396410e-01
170 2 1 1.095921e+01 -1.772046e+01 1.903664e+01 -1 0 1 -4.756500e-01 1.890046e-01 -1.498670e-01 -8.459162e-01
171 2 1 1.103479e+01 -1.739002e+01 1.931860e+01 -1 0 1 1.141762e-01 -1.187342e-01 2.086692e-01 9.640141e-01
172 2 4 1.090965e+01 -1.694596e+01 1.964705e+01 -1 0 1 -2.286678e-01 -1.229536e-01 2.011592e-01 9.445255e-01
173 2 4 1.060688e+01 -1.661370e+01 2.002197e+01 -1 0 1 -4.172518e-01 -2.658898e-01 2.746285e-01 8.244894e-01
174 2 1 1.008584e+01 -1.647364e+01 -1.984217e+01 -1 0 2 -7.274030e-01 -1.251286e-01 3.070097e-01 6.008101e-01
175 2 1 9.611154e+00 -1.648774e+01 -1.960931e+01 -1 0 2 -8.763066e-01 -1.224060e-01 2.777357e-01 3.741208e-01
176 2 2 9.245358e+00 -1.679938e+01 -1.938494e+01 -1 0 2 -9.423896e-01 -1.220218e-01 2.982434e-01 8.979591e-02
177 2 2 9.048246e+00 -1.717064e+01 -1.894825e+01 -1 0 2 -9.376987e-01 9.130267e-02 2.183176e-01 -2.544060e-01
178 2 1 9.012696e+00 -1.738608e+01 -1.840103e+01 -1 0 2 -8.418784e-01 1.467715e-01 1.133694e-01 -5.068000e-01
179 2 4 9.149895e+00 -1.733136e+01 -1.794381e+01 -1 0 2 -6.410093e-01 1.870712e-01 5.104339e-02 -7.426345e-01
180 2 1 9.273606e+00 -1.709617e+01 -1.745091e+01 -1 0 2 -4.342367e-01 1.338088e-01 -1.117670e-01 -8.837657e-01
181 2 4 9.179661e+00 -1.676379e+01 -1.689899e+01 -1 0 2 3.018999e-01 -2.735616e-01 1.829792e-01 8.947285e-01
182 2 2 9.052696e+00 -1.629892e+01 -1.677106e+01 -1 0 2 -9.804968e-02 -2.150994e-01 3.305596e-01 9.137006e-01
183 2 3 8.745413e+00 -1.586624e+01 -1.669205e+01 -1 0 2 -3.570242e-01 -1.087468e-01 3.717512e-01 8.500052e-01
184 2 4 8.363364e+00 -1.557947e+01 -1.663281e+01 -1 0 2 -5.644656e-01 -1.113779e-01 5.020270e-01 6.457108e-01
185 2 3 7.835061e+00 -1.537587e+01 -1.650506e+01 -1 0 2 7.810607e-01 5.831756e-02 -4.076775e-01 -4.694063e-01
186 2 1 7.466858e+00 -1.535304e+01 -1.611501e+01 -1 0 2 9.150161e-01 7.148652e-03 -3.190442e-01 -2.467898e-01
187 2 1 7.112926e+00 -1.566093e+01 -1.578316e+01 -1 0 2 -9.545797e-01 7.133060e-02 2.882790e-01 -2.418176e-02
188 2 2 6.966766e+00 -1.597575e+01 -1.537485e+01 -1 0 2 8.859623e-01 1.307201e-02 -3.073402e-01 3.470473e-01
189 2 4 6.900384e+00 -1.622394e+01 -1.484837e+01 -1 0 2 7.453467e-01 -1.914759e-01 -1.748051e-01 6.141974e-01
190 2 4 6.980729e+00 -1.621365e+01 -1.433976e+01 -1 0 2 -5.390406e-01 2.146900e-01 5.017515e-02 -8.129120e-01
191 2 1 6.981640e+00 -1.596234e+01 -1.390162e+01 -1 0 2 -4.038664e-01 2.077528e-01 -6.446744e-02 -8.885802e-01
192 2 4 6.947550e+00 -1.561234e+01 -1.353719e+01 -1 0 2 2.003496e-01 -2.339230e-01 1.977409e-01 9.306120e-01
193 2 4 6.855194e+00 -1.515183e+01 -1.330605e+01 -1 0 2 7.438307e-02 2.155378e-01 -2.784708e-01 -9.329869e-01
194 2 1 6.538949e+00 -1.468874e+01 -1.320085e+01 -1 0 2 -3.988661e-01 -1.427725e-01 3.417487e-01 8.388859e-01
195 2 3 6.166507e+00 -1.437053e+01 -1.304952e+01 -1 0 2 5.762173e-01 6.519698e-02 -4.177842e-01 -6.994136e-01
196 2 4 5.737975e+00 -1.419759e+01 -1.296590e+01 -1 0 2 7.730487e-01 -1.385695e-01 -3.753315e-01 -4.922606e-01
197 2 2 5.200739e+00 -1.416017e+01 -1.271431e+01 -1 0 2 -9.091672e-01 9.118990e-02 3.315506e-01 2.348906e-01
198 2 4 4.900132e+00 -1.435302e+01 -1.230731e+01 -1 0 2 -9.184070e-01 2.382308e-01 2.864921e-01 -1.330298e-01
199 2 3 4.697392e+00 -1.422039e+01 -1.187826e+01 -1 0 2 -8.777424e-01 2.962959e-01 2.753842e-02 -3.755246e-01
200 2 4 4.868521e+00 -1.386760e+01 -1.138902e+01 -1 0 2 -6.228660e-01 4.472365e-01 -1.864022e-01 -6.142244e-01
