ITEM: TIMESTEP
205000000
ITEM: NUMBER OF ATOMS
200
ITEM: BOX BOUNDS pp pp pp
-2.0000000000000000e+01 2.0000000000000000e+01
-2.0000000000000000e+01 2.0000000000000000e+01
-2.0000000000000000e+01 2.0000000000000000e+01
ITEM: ATOMS id mol type x y z ix iy iz c_quat[1] c_quat[2] c_quat[3] c_quat[4]
1 1 1 9.713548e+00 -7.146780e+00 4.392768e+00 -1 -1 1 -3.062545e-01 -8.895490e-01 -1.468844e-01 -3.055091e-01
2 1 2 9.993883e+00 -7.014403e+00 3.971591e+00 -1 -1 1 1.079982e-01 9.042659e-01 -2.513020e-01 3.278519e-01
3 1 1 9.587322e+00 -7.093244e+00 2.892620e+00 -1 -1 1 -1.815513e-01 -9.566799e-01 1.770392e-01 1.430380e-01
4 1 3 9.547998e+00 -7.234504e+00 2.403218e+00 -1 -1 1 5.036359e-01 4.913464e-01 -6.893781e-01 -1.723006e-01
5 1 1 9.908306e+00 -6.668112e+00 2.442785e+00 -1 -1 1 -4.432535e-01 -8.149149e-02 -8.207764e-01 -3.510149e-01
6 1 2 9.934307e+00 -5.754524e+00 2.148773e+00 -1 -1 1 5.685739e-01 2.850354e-01 6.443616e-01 4.245900e-01
7 1 4 1.030429e+01 -5.695808e+00 1.821769e+00 -1 -1 1 -3.281336e-01 -5.228697e-01 -5.829593e-01 -5.282935e-01
8 1 1 1.059923e+01 -5.409372e+00 1.430963e+00 -1 -1 1 1.046521e-01 6.732207e-01 4.046750e-01 6.099672e-01
9 1 1 1.098931e+01 -5.058495e+00 1.143603e+00 -1 -1 1 1.157221e-01 -6.693559e-01 -3.771174e-01 -6.295661e-01
10 1 4 1.109389e+01 -4.521835e+00 1.186695e+00 -1 -1 1 -4.976843e-01 6.945786e-01 1.256622e-01 5.040634e-01
11 1 1 1.109359e+01 -4.023962e+00 1.390339e+00 -1 -1 1 -6.699233e-01 6.363411e-01 3.897734e-02 3.804649e-01
12 1 1 1.119287e+01 -3.524830e+00 1.608600e+00 -1 -1 1 6.670013e-01 -6.612096e-01 2.091099e-01 -2.723678e-01
13 1 3 1.153101e+01 -3.233110e+00 1.970934e+00 -1 -1 1 -7.119904e-01 5.801306e-01 -3.945062e-01 2.971515e-02
14 1 4 1.197367e+01 -3.053270e+00 2.197014e+00 -1 -1 1 7.190612e-01 -4.419168e-01 5.309981e-01 7.550807e-02
15 1 4 1.240646e+01 -2.869056e+00 2.292398e+00 -1 -1 1 6.814744e-01 -2.416546e-01 6.480496e-01 2.392224e-01
16 1 2 1.294777e+01 -2.857043e+00 2.154707e+00 -1 -1 1 -5.690428e-01 -2.054721e-02 -7.357752e-01 -3.666102e-01
17 1 1 1.338467e+01 -2.829691e+00 1.848983e+00 -1 -1 1 -3.704729e-01 -2.673704e-01 -7.218580e-01 -5.197922e-01
18 1 2 1.377459e+01 -2.513619e+00 1.525870e+00 -1 -1 1 1.965647e-01 4.132562e-01 6.232039e-01 6.341912e-01
19 1 3 1.401768e+01 -2.056212e+00 1.325964e+00 -1 -1 1 -4.551770e-02 5.093971e-01 4.609011e-01 7.252675e-01
20 1 1 1.406910e+01 -1.471934e+00 1.234198e+00 -1 -1 1 -3.088067e-01 6.256596e-01 2.596839e-01 6.676472e-01
21 1 4 1.423303e+01 -8.916179e-01 1.396245e+00 -1 -1 1 4.937666e-01 -5.768734e-01 -1.031381e-01 -6.424750e-01
22 1 1 1.430494e+01 -5.444077e-01 1.758646e+00 -1 -1 1 7.311643e-01 -5.142499e-01 3.834588e-02 -4.466266e-01
23 1 4 1.441158e+01 -2.951677e-01 2.253969e+00 -1 -1 1 7.972279e-01 -4.941825e-01 2.623599e-01 -2.266684e-01
24 1 3 1.462257e+01 -2.102661e-01 2.724139e+00 -1 -1 1 8.905900e-01 -3.275741e-01 3.127952e-01 -4.127714e-02
25 1 3 1.500092e+01 -1.249812e-01 3.043568e+00 -1 -1 1 8.997637e-01 -1.756750e-01 3.930265e-01 7.137106e-02
26 1 4 1.543976e+01 -1.609162e-01 3.358170e+00 -1 -1 1 7.454117e-01 -5.590037e-02 5.005834e-01 4.366380e-01
27 1 4 1.592886e+01 1.341133e-02 3.425906e+00 -1 -1 1 6.005334e-01 4.009387e-02 6.202040e-01 5.030896e-01
28 1 1 1.643450e+01 2.028849e-01 3.253862e+00 -1 -1 1 3.883223e-01 1.961863e-01 5.783294e-01 6.901100e-01
29 1 1 1.685165e+01 5.228891e-01 3.021521e+00 -1 -1 1 1.518978e-01 3.087654e-01 5.043474e-01 7.919752e-01
30 1 4 1.703416e+01 9.411349e-01 2.893698e+00 -1 -1 1 7.946103e-02 -4.059206e-01 -5.728758e-01 -7.076212e-01
31 1 4 1.705365e+01 1.490422e+00 2.738890e+00 -1 -1 1 3.734630e-01 -5.271649e-01 -3.950124e-01 -6.531368e-01
32 1 3 1.695622e+01 2.014475e+00 2.826907e+00 -1 -1 1 5.711253e-01 -5.311889e-01 -3.008252e-01 -5.487789e-01
33 1 3 1.672746e+01 2.472124e+00 3.059652e+00 -1 -1 1 7.272528e-01 -5.569013e-01 -1.778575e-01 -3.596261e-01
34 1 1 1.669203e+01 2.859153e+00 3.490964e+00 -1 -1 1 8.950354e-01 -4.130567e-01 6.135659e-03 -1.681017e-01
35 1 2 1.685214e+01 2.930143e+00 4.009973e+00 -1 -1 1 9.118080e-01 -3.268539e-01 1.963331e-01 1.524007e-01
36 1 2 1.718776e+01 3.087166e+00 4.395272e+00 -1 -1 1 8.014771e-01 -3.011961e-01 3.373081e-01 3.913293e-01
37 1 1 1.754545e+01 3.355830e+00 4.658599e+00 -1 -1 1 7.054635e-01 -1.385559e-01 5.264403e-01 4.538548e-01
38 1 1 1.797475e+01 3.506421e+00 4.681797e+00 -1 -1 1 5.296474e-01 3.847192e-02 5.514849e-01 6.433179e-01
39 1 4 1.836348e+01 3.847236e+00 4.579122e+00 -1 -1 1 -2.772867e-01 -1.922510e-01 -5.304303e-01 -7.776859e-01
40 1 4 1.869091e+01 4.307259e+00 4.612101e+00 -1 -1 1 -1.007627e-01 -1.576434e-01 -5.293508e-01 -8.275162e-01
41 1 2 1.871969e+01 4.826414e+00 4.454739e+00 -1 -1 1 2.227323e-01 -3.805434e-01 -4.288149e-01 -7.884763e-01
42 1 4 1.862466e+01 5.370156e+00 4.638414e+00 -1 -1 1 -4.994678e-01 4.462291e-01 2.504904e-01 6.990465e-01
43 1 3 1.854477e+01 5.803970e+00 4.934897e+00 -1 -1 1 6.717224e-01 -4.427719e-01 -9.601317e-02 -5.861089e-01
44 1 2 1.862111e+01 6.204418e+00 5.373482e+00 -1 -1 1 7.472571e-01 -3.651062e-01 9.463198e-02 -5.471280e-01
45 1 1 1.874698e+01 6.175956e+00 5.906165e+00 -1 -1 1 8.834129e-01 -3.405618e-01 2.589845e-01 -1.911185e-01
46 1 3 1.900010e+01 6.162749e+00 6.368489e+00 -1 -1 1 8.412204e-01 -3.316517e-01 4.029967e-01 1.412411e-01
47 1 4 1.942434e+01 6.150464e+00 6.647777e+00 -1 -1 1 8.450019e-01 -1.190048e-01 4.315504e-01 2.925300e-01
48 1 1 -2.002133e+01 6.251284e+00 6.871973e+00 0 -1 1 -7.214162e-01 6.854645e-04 -5.523477e-01 -4.176962e-01
49 1 4 -1.956186e+01 6.280575e+00 6.852773e+00 0 -1 1 -5.141475e-01 -2.259800e-01 -5.929939e-01 -5.770126e-01
50 1 4 -1.913781e+01 6.479608e+00 6.642708e+00 0 -1 1 -2.889578e-01 -4.428768e-01 -4.475718e-01 -7.211400e-01
51 1 4 -1.872131e+01 6.820537e+00 6.762449e+00 0 -1 1 -8.684076e-02 -4.134069e-01 -3.912905e-01 -8.175850e-01
52 1 1 -1.847399e+01 7.401901e+00 6.894325e+00 0 -1 1 1.466936e-01 -3.518677e-01 -3.238211e-01 -8.659157e-01
53 1 3 -1.847309e+01 7.846203e+00 6.998512e+00 0 -1 1 4.638648e-01 -4.116132e-01 -2.709919e-01 -7.361844e-01
54 1 4 -1.864459e+01 8.213914e+00 7.270788e+00 0 -1 1 6.873835e-01 -3.686660e-01 -2.050150e-01 -5.912344e-01
55 1 4 -1.884336e+01 8.472730e+00 7.673073e+00 0 -1 1 8.351805e-01 -4.204361e-01 -6.317266e-02 -3.488784e-01
56 1 4 -1.892992e+01 8.693335e+00 8.120597e+00 0 -1 1 9.575334e-01 -2.028119e-01 3.483838e-02 -2.019490e-01
57 1 1 -1.888131e+01 8.693072e+00 8.654065e+00 0 -1 1 9.541916e-01 -2.236700e-01 1.651498e-01 1.105244e-01
58 1 1 -1.855773e+01 8.748328e+00 9.048105e+00 0 -1 1 8.185351e-01 -1.189543e-01 2.214206e-01 5.165492e-01
59 1 3 -1.832234e+01 9.292763e+00 9.832286e+00 0 -1 1 -7.990992e-01 5.055996e-02 1.710286e-01 -5.741371e-01
60 1 4 -1.869224e+01 9.523271e+00 1.022472e+01 0 -1 1 4.506970e-01 7.194016e-01 -3.845106e-01 3.626089e-01
61 1 2 -1.922972e+01 9.872569e+00 1.047308e+01 0 -1 1 -4.508896e-01 -4.978154e-01 -6.207115e-01 -4.044695e-01
62 1 3 -1.959510e+01 9.126000e+00 1.162300e+01 0 -1 1 7.905755e-01 -5.170933e-01 -3.067217e-01 -1.163044e-01
63 1 2 -1.968840e+01 9.333157e+00 1.199568e+01 0 -1 1 -8.454028e-01 3.849692e-01 1.618486e-01 -3.330132e-01
64 1 4 -1.955804e+01 9.386486e+00 1.251715e+01 0 -1 1 6.982697e-01 -3.036428e-01 2.232452e-02 6.478596e-01
65 1 2 1.919744e+01 8.862234e+00 1.246443e+01 -1 -1 1 -3.032394e-01 -5.013824e-01 1.868923e-01 7.885004e-01
66 1 1 1.864002e+01 8.779722e+00 1.247112e+01 -1 -1 1 -2.537621e-01 -6.459544e-01 2.351261e-01 6.804876e-01
67 1 2 1.820671e+01 8.723344e+00 1.217982e+01 -1 -1 1 4.631830e-01 5.777558e-01 -5.431878e-01 -3.957358e-01
68 1 1 1.781280e+01 8.463865e+00 1.194494e+01 -1 -1 1 -5.690237e-01 -4.929926e-01 6.470397e-01 1.204570e-01
69 1 1 1.752067e+01 9.099668e+00 1.076261e+01 -1 -1 1 2.430418e-01 8.326192e-01 -1.601684e-01 -4.711922e-01
70 1 2 1.646232e+01 8.208315e+00 1.124541e+01 -1 -1 1 6.862548e-01 2.409903e-01 2.053345e-01 -6.548402e-01
71 1 3 1.634131e+01 7.857099e+00 1.166314e+01 -1 -1 1 8.529944e-01 2.455911e-01 3.270457e-01 -3.242325e-01
72 1 4 1.638777e+01 7.356327e+00 1.197189e+01 -1 -1 1 -8.697146e-01 -3.451715e-01 -3.518785e-01 2.519099e-02
73 1 1 1.588067e+01 7.990436e+00 1.277660e+01 -1 -1 1 -3.939982e-01 -5.726542e-01 -6.360186e-01 -3.351313e-01
74 1 1 1.636497e+01 7.063142e+00 1.312971e+01 -1 -1 1 -7.059555e-01 -4.949265e-01 -3.971523e-01 3.145546e-01
75 1 3 1.628799e+01 6.507825e+00 1.321708e+01 -1 -1 1 8.361927e-01 5.193248e-01 1.635662e-01 -6.580006e-02
76 1 1 1.644947e+01 6.128847e+00 1.319484e+01 -1 -1 1 7.576105e-01 5.221885e-01 -1.357183e-01 3.673228e-01
77 1 4 1.685142e+01 5.733278e+00 1.325494e+01 -1 -1 1 5.320743e-01 4.995063e-01 -3.293825e-01 5.990806e-01
78 1 1 1.736699e+01 5.309119e+00 1.262485e+01 -1 -1 1 9.636835e-01 1.011953e-01 1.681444e-01 -1.811108e-01
79 1 4 1.745720e+01 4.986675e+00 1.286937e+01 -1 -1 1 9.368735e-01 1.805900e-01 3.491172e-02 2.973828e-01
80 1 2 1.675704e+01 4.559549e+00 1.318747e+01 -1 -1 1 3.412246e-01 -6.523205e-01 -6.484176e-01 1.939030e-01
81 1 4 1.643844e+01 3.664691e+00 1.364977e+01 -1 -1 1 6.868037e-01 -6.365089e-02 -7.094431e-01 1.447059e-01
82 1 4 1.610342e+01 3.327310e+00 1.383574e+01 -1 -1 1 5.784513e-01 -2.680919e-01 -6.800914e-01 3.619344e-01
83 1 4 1.583996e+01 2.446407e+00 1.290059e+01 -1 -1 1 -9.587487e-01 -2.356293e-01 -1.518916e-01 4.699683e-02
84 1 4 1.607801e+01 1.959414e+00 1.299645e+01 -1 -1 1 9.026892e-01 3.742512e-01 5.205946e-02 2.058593e-01
85 1 1 1.637225e+01 1.591833e+00 1.329871e+01 -1 -1 1 8.078444e-01 3.687973e-01 1.176109e-01 4.444589e-01
86 1 1 1.679977e+01 1.426325e+00 1.338543e+01 -1 -1 1 -5.058023e-01 -4.882665e-01 2.592807e-02 -7.106952e-01
87 1 3 1.689292e+01 1.096165e+00 1.281259e+01 -1 -1 1 1.244351e-01 1.059456e-01 2.903867e-01 9.428505e-01
88 1 2 1.687695e+01 -3.814040e-01 1.279442e+01 -1 -1 1 4.617011e-01 8.949594e-02 8.781337e-01 -8.777143e-02
89 1 2 1.636153e+01 -8.497398e-01 1.314974e+01 -1 -1 1 3.401759e-01 1.396303e-01 7.739184e-01 -5.155910e-01
90 1 3 1.659175e+01 -1.185980e+00 1.211551e+01 -1 -1 1 7.056787e-01 6.576789e-01 2.411636e-01 -1.063776e-01
91 1 3 1.550760e+01 -1.133606e+00 1.232424e+01 -1 -1 1 2.552305e-01 6.352991e-01 2.992540e-01 -6.646048e-01
92 1 2 1.592692e+01 -2.319775e+00 1.215987e+01 -1 -1 1 9.522937e-01 2.737401e-01 -1.309389e-01 -3.252718e-02
93 1 1 1.594370e+01 -2.212516e+00 1.113884e+01 -1 -1 1 -3.790702e-01 -7.327979e-01 4.167753e-01 3.815905e-01
94 1 2 1.519409e+01 -1.461359e+00 1.099660e+01 -1 -1 1 -2.243745e-01 -9.553247e-01 -1.558471e-01 1.127943e-01
95 1 3 1.512672e+01 -1.437954e+00 1.050843e+01 -1 -1 1 3.496590e-01 9.003297e-01 -2.584935e-01 1.805764e-02
96 1 2 1.537564e+01 -1.511718e+00 1.018430e+01 -1 -1 1 -1.945268e-01 -6.654565e-01 7.151506e-01 -8.880651e-02
97 1 2 1.535555e+01 -1.444087e+00 9.214783e+00 -1 -1 1 -2.069865e-01 -5.135886e-01 7.906833e-01 2.611577e-01
98 1 4 1.568998e+01 -5.715460e-01 8.627422e+00 -1 -1 1 4.961689e-01 7.970492e-01 -1.911426e-01 -2.863449e-01
99 1 2 1.448643e+01 -2.149558e-01 8.943862e+00 -1 -1 1 -2.406000e-01 3.383569e-01 2.343677e-04 9.097396e-01
100 1 1 1.449753e+01 1.535756e-02 9.330618e+00 -1 -1 1 -6.583833e-01 3.360022e-01 -2.185728e-01 6.370714e-01
101 2 4 -1.112877e+01 1.118585e+01 1.735677e+01 0 -1 1 4.594616e-01 -2.917108e-02 3.800030e-01 -8.022729e-01
102 2 3 -1.049847e+01 1.175609e+01 1.681483e+01 0 -1 1 -6.867129e-01 7.209900e-01 -6.555264e-02 -6.558776e-02
103 2 1 -1.090063e+01 1.097572e+01 1.545104e+01 0 -1 1 3.546896e-01 3.928355e-01 -6.127453e-01 -5.868720e-01
104 2 3 -1.161376e+01 1.177916e+01 1.589030e+01 0 -1 1 3.405947e-02 -7.141699e-01 -1.750055e-01 -6.768858e-01
105 2 3 -1.229584e+01 1.197994e+01 1.546981e+01 0 -1 1 1.903563e-01 -4.168877e-01 -2.705239e-01 8.466321e-01
106 2 2 -1.260502e+01 1.196419e+01 1.579430e+01 0 -1 1 -1.891814e-01 -5.318040e-01 -1.967576e-01 8.016741e-01
107 2 3 -1.309753e+01 1.192460e+01 1.579643e+01 0 -1 1 -4.517923e-01 -6.356078e-01 6.140311e-02 6.229897e-01
108 2 4 -1.313233e+01 1.104502e+01 1.629758e+01 0 -1 1 5.147735e-01 5.977463e-01 -5.898939e-01 -1.724323e-01
109 2 3 -1.342382e+01 1.075669e+01 1.592605e+01 0 -1 1 5.945023e-01 3.603271e-01 -7.179119e-01 3.652324e-02
110 2 2 -1.406360e+01 1.107230e+01 1.504736e+01 0 -1 1 8.420818e-01 4.816066e-01 2.344577e-01 6.311086e-02
111 2 2 -1.380985e+01 1.061441e+01 1.490886e+01 0 -1 1 -7.209701e-01 -5.705140e-01 -3.462790e-02 -3.918124e-01
112 2 3 -1.471802e+01 1.023652e+01 1.476318e+01 0 -1 1 5.069836e-01 -5.101854e-01 -6.940421e-01 3.136932e-02
113 2 3 -1.448116e+01 9.506927e+00 1.344875e+01 0 -1 1 -1.689971e-01 -7.727531e-01 5.117933e-01 3.352019e-01
114 2 2 -1.558910e+01 9.213055e+00 1.297274e+01 0 -1 1 3.147926e-01 1.908900e-01 8.842298e-01 2.874097e-01
115 2 4 -1.533649e+01 9.392705e+00 1.251854e+01 0 -1 1 -1.064501e-01 -3.986374e-01 -8.394954e-01 -3.535591e-01
116 2 4 -1.442548e+01 9.649269e+00 1.184142e+01 0 -1 1 5.407347e-01 8.222215e-01 -1.649249e-01 6.601196e-02
117 2 1 -1.466005e+01 9.549013e+00 1.182235e+01 0 -1 1 3.761811e-01 -8.430056e-01 -1.237643e-01 -3.640216e-01
118 2 1 -1.420002e+01 8.239892e+00 1.126179e+01 0 -1 1 -1.835236e-01 5.167957e-01 -8.351806e-01 4.140802e-02
119 2 1 -1.388673e+01 8.057662e+00 1.087624e+01 0 -1 1 -2.896728e-01 2.082820e-01 -9.340850e-01 1.390760e-02
120 2 1 -1.369436e+01 7.877875e+00 1.063113e+01 0 -1 1 -3.735134e-01 -1.938627e-01 -8.952637e-01 -1.463144e-01
121 2 3 -1.360388e+01 7.868061e+00 1.009225e+01 0 -1 1 2.164760e-01 5.466474e-01 7.512470e-01 2.999047e-01
122 2 1 -1.351567e+01 8.044218e+00 9.563696e+00 0 -1 1 -4.263686e-02 6.852961e-01 5.991747e-01 4.117537e-01
123 2 4 -1.338500e+01 8.490130e+00 9.259736e+00 0 -1 1 1.575660e-01 -7.447226e-01 -4.032020e-01 -5.079265e-01
124 2 1 -1.368429e+01 8.275762e+00 7.939251e+00 0 -1 1 -1.925631e-01 -3.167551e-01 -7.763529e-01 -5.097665e-01
125 2 4 -1.358615e+01 8.459985e+00 7.560344e+00 0 -1 1 -6.995451e-02 6.395173e-01 6.170637e-01 4.531626e-01
126 2 2 -1.267570e+01 8.930756e+00 6.823916e+00 0 -1 1 -4.742353e-01 -8.428857e-01 -1.518671e-01 2.039142e-01
127 2 4 -1.279541e+01 8.793315e+00 6.352326e+00 0 -1 1 4.481231e-01 8.768726e-01 -1.740006e-01 -1.983303e-03
128 2 4 -1.287173e+01 9.063540e+00 5.961123e+00 0 -1 1 -6.078547e-01 6.743429e-01 5.015880e-02 -4.162432e-01
129 2 1 -1.340884e+01 7.635644e+00 5.630899e+00 0 -1 1 -2.256822e-01 1.060078e-01 -9.681413e-01 -2.307042e-02
130 2 2 -1.256328e+01 7.589103e+00 5.828468e+00 0 -1 1 6.003986e-01 -1.766228e-02 -7.992635e-01 -1.968456e-02
131 2 3 -1.327955e+01 7.325723e+00 4.731708e+00 0 -1 1 -2.095612e-01 -1.722682e-01 7.789948e-01 5.653096e-01
132 2 4 -1.400120e+01 7.549325e+00 4.952313e+00 0 -1 1 4.830810e-01 -5.112240e-01 -2.188421e-01 -6.763068e-01
133 2 4 -1.479590e+01 7.136543e+00 4.807056e+00 0 -1 1 3.528629e-01 -2.526969e-01 -8.607337e-01 -2.660254e-01
134 2 3 -1.414359e+01 8.243552e+00 4.529856e+00 0 -1 1 -4.396270e-01 -3.716615e-01 3.267634e-01 -7.495475e-01
135 2 4 -1.483904e+01 8.339324e+00 4.705571e+00 0 -1 1 3.735465e-01 -7.415000e-02 -7.127200e-01 -5.890629e-01
136 2 3 -1.525474e+01 8.627346e+00 4.589995e+00 0 -1 1 5.969930e-01 -3.692440e-01 -6.359778e-01 -3.206095e-01
137 2 1 -1.612539e+01 9.408899e+00 4.089537e+00 0 -1 1 -2.440155e-01 -1.985199e-01 -3.289384e-02 9.486645e-01
138 2 3 -1.648676e+01 9.418923e+00 4.480549e+00 0 -1 1 -4.908568e-01 -3.113434e-01 3.140890e-02 8.131042e-01
139 2 2 -1.633277e+01 1.008661e+01 5.722228e+00 0 -1 1 4.999281e-01 -2.837969e-01 -4.240106e-01 6.998187e-01
140 2 3 -1.734229e+01 1.022997e+01 5.558354e+00 0 -1 1 1.064022e-01 -1.139398e-01 -4.589571e-01 -8.746740e-01
141 2 1 -1.786690e+01 1.003693e+01 6.108221e+00 0 -1 1 -5.527530e-01 -9.838731e-02 -5.284991e-01 6.367674e-01
142 2 2 -1.788381e+01 9.708480e+00 6.406121e+00 0 -1 1 7.109120e-01 3.606325e-01 4.712531e-01 -3.774506e-01
143 2 4 -1.738384e+01 1.019151e+01 7.685491e+00 0 -1 1 8.590962e-02 7.334002e-01 -6.950530e-02 6.707553e-01
144 2 4 -1.775474e+01 8.939509e+00 8.281888e+00 0 -1 1 -5.880429e-02 -1.549435e-01 9.251013e-01 -3.416463e-01
145 2 1 -1.778809e+01 8.429769e+00 8.090987e+00 0 -1 1 8.240314e-02 -8.251806e-04 -8.415830e-01 5.338043e-01
146 2 1 -1.792063e+01 7.866393e+00 8.105749e+00 0 -1 1 3.359587e-02 3.267318e-01 8.107407e-01 -4.845794e-01
147 2 1 -1.826141e+01 7.478725e+00 8.115109e+00 0 -1 1 -9.715457e-02 -5.751504e-01 -6.580018e-01 4.762317e-01
148 2 2 -1.868195e+01 7.272223e+00 8.027721e+00 0 -1 1 4.800900e-02 7.285717e-01 3.643761e-01 -5.780212e-01
149 2 4 -1.918825e+01 7.222693e+00 7.773686e+00 0 -1 1 -1.286665e-01 -8.857551e-01 -1.703172e-01 4.121587e-01
150 2 1 -1.948901e+01 7.381918e+00 7.473558e+00 0 -1 1 -2.804299e-01 -8.553597e-01 1.953959e-01 3.892804e-01
151 2 1 -1.972570e+01 7.445525e+00 7.059551e+00 0 -1 1 -3.346118e-01 -7.897778e-01 4.250507e-01 2.891676e-01
152 2 1 -1.992085e+01 7.379392e+00 6.514308e+00 0 -1 1 -3.978155e-01 -6.870898e-01 5.926924e-01 1.355222e-01
153 2 4 1.997939e+01 7.083389e+00 6.018032e+00 -1 -1 1 -4.484566e-01 -5.662114e-01 6.902807e-01 -4.247171e-02
154 2 1 1.996374e+01 6.625678e+00 5.723201e+00 -1 -1 1 -3.910596e-01 -3.627532e-01 8.214934e-01 -2.015716e-01
155 2 2 1.982680e+01 6.117518e+00 5.455776e+00 -1 -1 1 -3.772916e-01 -1.443055e-01 8.588132e-01 -3.150663e-01
156 2 4 1.974689e+01 5.584540e+00 5.478684e+00 -1 -1 1 -2.420871e-01 1.440803e-01 8.707572e-01 -4.030095e-01
157 2 3 1.937469e+01 5.197433e+00 5.532566e+00 -1 -1 1 -2.277767e-01 3.154165e-01 7.337090e-01 -5.570470e-01
158 2 2 1.896022e+01 4.982714e+00 5.625435e+00 -1 -1 1 -8.546800e-02 5.659342e-01 5.299279e-01 -6.257717e-01
159 2 1 1.850287e+01 4.789448e+00 5.670466e+00 -1 -1 1 -3.100722e-03 7.160632e-01 4.169487e-01 -5.598194e-01
160 2 3 1.798173e+01 4.809934e+00 5.395245e+00 -1 -1 1 -2.374515e-01 -8.702488e-01 -1.371562e-01 4.092334e-01
161 2 1 1.759737e+01 4.722898e+00 5.006974e+00 -1 -1 1 -3.459510e-01 -8.971528e-01 1.026834e-01 2.547368e-01
162 2 1 1.741056e+01 4.559848e+00 4.547239e+00 -1 -1 1 -3.781059e-01 -8.687014e-01 3.049979e-01 9.679869e-02
163 2 4 1.738831e+01 4.344011e+00 4.081798e+00 -1 -1 1 -3.891948e-01 -8.161138e-01 4.224389e-01 -6.349142e-02
164 2 4 1.758923e+01 3.993224e+00 3.700729e+00 -1 -1 1 -3.542487e-01 -6.046312e-01 6.452330e-01 -3.043080e-01
165 2 3 1.776676e+01 3.574147e+00 3.446656e+00 -1 -1 1 -2.954385e-01 -4.616161e-01 7.142297e-01 -4.353190e-01
166 2 3 1.789113e+01 3.036151e+00 3.386219e+00 -1 -1 1 -2.275377e-01 -2.005739e-01 7.872058e-01 -5.369392e-01
167 2 4 1.784307e+01 2.502756e+00 3.586078e+00 -1 -1 1 -9.352044e-02 1.004821e-01 7.630226e-01 -6.316279e-01
168 2 2 1.759074e+01 2.119589e+00 3.806910e+00 -1 -1 1 1.281258e-01 3.324981e-01 6.560960e-01 -6.652570e-01
169 2 2 1.717775e+01 1.849971e+00 3.937391e+00 -1 -1 1 3.357471e-01 5.518696e-01 4.356598e-01 -6.268288e-01
170 2 1 1.670093e+01 1.513250e+00 3.952596e+00 -1 -1 1 3.320372e-01 6.964284e-01 2.655789e-01 -5.781061e-01
171 2 1 1.628860e+01 1.362993e+00 3.807029e+00 -1 -1 1 -3.352563e-01 -8.287618e-01 5.144730e-02 4.450958e-01
172 2 4 1.590418e+01 1.283317e+00 3.365906e+00 -1 -1 1 -4.301853e-01 -8.356461e-01 2.255705e-01 2.564258e-01
173 2 4 1.575786e+01 1.168745e+00 2.977886e+00 -1 -1 1 -4.034183e-01 -7.620592e-01 5.026308e-01 6.230411e-02
174 2 1 1.561476e+01 8.084382e-01 2.608618e+00 -1 -1 1 -4.575461e-01 -6.214674e-01 6.191433e-01 -1.452288e-01
175 2 1 1.571675e+01 4.437010e-01 2.359976e+00 -1 -1 1 -3.512273e-01 -4.468929e-01 7.559508e-01 -3.247529e-01
176 2 2 1.576007e+01 -1.703811e-01 2.154570e+00 -1 -1 1 -4.043644e-01 -1.844859e-01 8.158750e-01 -3.698679e-01
177 2 2 1.566849e+01 -6.158601e-01 2.198141e+00 -1 -1 1 -2.269166e-01 1.014360e-01 8.034992e-01 -5.409330e-01
178 2 1 1.535199e+01 -1.070963e+00 2.203326e+00 -1 -1 1 -1.889431e-01 2.638489e-01 7.487070e-01 -5.780329e-01
179 2 4 1.494142e+01 -1.374587e+00 2.342373e+00 -1 -1 1 -8.504787e-02 4.844032e-01 5.641358e-01 -6.632279e-01
180 2 1 1.447282e+01 -1.462730e+00 2.396946e+00 -1 -1 1 1.030048e-01 6.476133e-01 3.609715e-01 -6.630887e-01
181 2 4 1.400127e+01 -1.646692e+00 2.437593e+00 -1 -1 1 -6.694031e-02 -7.392873e-01 -1.462779e-01 6.538930e-01
182 2 2 1.345444e+01 -1.553542e+00 2.239901e+00 -1 -1 1 -3.418642e-01 -7.978450e-01 7.568758e-02 4.907582e-01
183 2 3 1.304993e+01 -1.611699e+00 1.871675e+00 -1 -1 1 -4.515384e-01 -7.789038e-01 3.066518e-01 3.088474e-01
184 2 4 1.270425e+01 -1.863469e+00 1.488335e+00 -1 -1 1 -6.238515e-01 -6.144743e-01 4.377180e-01 2.040429e-01
185 2 3 1.253423e+01 -2.315287e+00 1.169959e+00 -1 -1 1 6.261614e-01 5.393960e-01 -5.599083e-01 5.896313e-02
186 2 1 1.239689e+01 -2.823683e+00 1.075331e+00 -1 -1 1 6.342423e-01 3.732262e-01 -6.194447e-01 2.733627e-01
187 2 1 1.239116e+01 -3.380286e+00 1.144300e+00 -1 -1 1 -5.679247e-01 -2.145245e-01 6.611937e-01 -4.407535e-01
188 2 2 1.234480e+01 -3.807942e+00 1.372760e+00 -1 -1 1 3.938316e-01 -1.632525e-02 -6.039642e-01 6.927174e-01
189 2 4 1.212566e+01 -4.268670e+00 1.660780e+00 -1 -1 1 3.607156e-01 -1.421204e-01 -5.375808e-01 7.487943e-01
190 2 4 1.196002e+01 -4.545347e+00 2.008931e+00 -1 -1 1 -5.311656e-02 3.462685e-01 4.836063e-01 -8.021232e-01
191 2 1 1.152319e+01 -4.702524e+00 2.233900e+00 -1 -1 1 2.654919e-01 5.399858e-01 3.170189e-01 -7.330951e-01
192 2 4 1.101934e+01 -4.687456e+00 2.283294e+00 -1 -1 1 -1.969719e-01 -6.252218e-01 3.332527e-02 7.544463e-01
193 2 4 1.049354e+01 -4.606848e+00 2.377348e+00 -1 -1 1 2.761039e-01 6.858093e-01 -2.330204e-01 -6.317703e-01
194 2 1 1.011509e+01 -4.569994e+00 1.966330e+00 -1 -1 1 -4.762746e-01 -5.684896e-01 4.588605e-01 4.893150e-01
195 2 3 9.655217e+00 -4.682555e+00 1.762753e+00 -1 -1 1 5.588913e-01 5.569640e-01 -5.557535e-01 -2.618579e-01
196 2 4 8.347653e+00 -4.348505e+00 1.662891e+00 -1 -1 1 -2.271129e-01 -9.533252e-02 7.390620e-01 6.269919e-01
197 2 2 7.977200e+00 -4.061415e+00 1.417238e+00 -1 -1 1 4.192385e-01 -4.945493e-02 -7.620191e-01 -4.910399e-01
198 2 4 8.109459e+00 -2.801629e+00 1.764150e+00 -1 -1 1 4.934814e-01 -7.210662e-02 -2.458670e-01 8.311595e-01
199 2 3 7.999163e+00 -2.546110e+00 2.232196e+00 -1 -1 1 -5.356309e-02 1.794620e-01 1.294093e-01 -9.737441e-01
200 2 4 7.989928e+00 -3.445404e+00 3.205711e+00 -1 -1 1 4.222635e-01 3.388172e-01 -8.287528e-01 1.416518e-01
