ITEM: TIMESTEP
266000000
ITEM: NUMBER OF ATOMS
200
ITEM: BOX BOUNDS pp pp pp
-2.0000000000000000e+01 2.0000000000000000e+01
-2.0000000000000000e+01 2.0000000000000000e+01
-2.0000000000000000e+01 2.0000000000000000e+01
ITEM: ATOMS id mol type x y z ix iy iz c_quat[1] c_quat[2] c_quat[3] c_quat[4]
1 1 1 -4.793119e+00 -1.667932e+01 -1.449389e+01 -1 0 2 -4.969299e-02 -7.256017e-01 -3.891644e-01 -5.653175e-01
2 1 2 -4.530734e+00 -1.622883e+01 -1.456677e+01 -1 0 2 -2.398180e-01 8.036395e-01 -2.270312e-03 5.446519e-01
3 1 1 -4.092938e+00 -1.594476e+01 -1.453894e+01 -1 0 2 3.524324e-01 -7.079363e-01 1.965648e-01 -5.796377e-01
4 1 3 -3.603135e+00 -1.577955e+01 -1.443188e+01 -1 0 2 -4.833963e-01 5.525316e-01 -3.854654e-01 5.589752e-01
5 1 1 -3.215887e+00 -1.573121e+01 -1.405707e+01 -1 0 2 -6.129059e-01 3.832047e-01 -5.241250e-01 4.503261e-01
6 1 2 -2.792507e+00 -1.592721e+01 -1.380757e+01 -1 0 2 -6.818113e-01 1.697139e-01 -6.540063e-01 2.803680e-01
7 1 4 -2.426616e+00 -1.618747e+01 -1.366641e+01 -1 0 2 -7.513716e-01 -6.412855e-02 -6.471178e-01 1.121014e-01
8 1 1 -1.996371e+00 -1.654156e+01 -1.366822e+01 -1 0 2 6.818475e-01 2.757837e-01 6.624971e-01 1.418621e-01
9 1 1 -1.562711e+00 -1.682102e+01 -1.386028e+01 -1 0 2 -5.958047e-01 -4.683924e-01 -6.136940e-01 -2.213707e-01
10 1 4 -1.195184e+00 -1.697020e+01 -1.428221e+01 -1 0 2 4.404850e-01 6.142808e-01 5.094733e-01 4.111800e-01
11 1 1 -9.531996e-01 -1.680965e+01 -1.472099e+01 -1 0 2 1.954491e-01 8.161504e-01 2.915377e-01 4.590250e-01
12 1 1 -6.873954e-01 -1.652021e+01 -1.502615e+01 -1 0 2 -8.364832e-02 -8.814735e-01 8.507465e-02 -4.569132e-01
13 1 3 -2.207741e-01 -1.651669e+01 -1.528292e+01 -1 0 2 -3.777309e-02 8.102533e-01 -4.288486e-02 5.832869e-01
14 1 4 7.683421e-02 -1.611302e+01 -1.528353e+01 -1 0 2 3.351195e-01 -7.747580e-01 1.924471e-01 -5.004089e-01
15 1 4 6.848781e-01 -1.591535e+01 -1.531200e+01 -1 0 2 3.741927e-01 -6.727320e-01 2.865434e-01 -5.703546e-01
16 1 2 9.961689e-01 -1.572337e+01 -1.504201e+01 -1 0 2 -5.943853e-01 5.652032e-01 -4.986944e-01 2.802774e-01
17 1 1 1.599083e+00 -1.564419e+01 -1.502948e+01 -1 0 2 -5.526578e-01 4.005601e-01 -6.941669e-01 2.285898e-01
18 1 2 2.082375e+00 -1.573960e+01 -1.501469e+01 -1 0 2 6.187698e-01 -1.859437e-01 7.141221e-01 -2.694040e-01
19 1 3 2.484295e+00 -1.612599e+01 -1.504209e+01 -1 0 2 5.939147e-01 1.011591e-01 7.967318e-01 4.744100e-02
20 1 1 2.827998e+00 -1.627968e+01 -1.544592e+01 -1 0 2 4.501150e-01 2.609051e-01 8.318982e-01 1.930556e-01
21 1 4 3.062033e+00 -1.637459e+01 -1.590856e+01 -1 0 2 -3.313175e-01 -5.728895e-01 -6.580356e-01 -3.591872e-01
22 1 1 3.167379e+00 -1.618323e+01 -1.644356e+01 -1 0 2 -1.825266e-01 -7.256801e-01 -5.077054e-01 -4.269751e-01
23 1 4 3.302996e+00 -1.592823e+01 -1.685170e+01 -1 0 2 -5.470366e-02 -8.487104e-01 -3.171354e-01 -4.196705e-01
24 1 3 3.595757e+00 -1.571687e+01 -1.715618e+01 -1 0 2 6.995169e-02 -8.495144e-01 5.297345e-03 -5.228805e-01
25 1 3 3.974287e+00 -1.542026e+01 -1.726987e+01 -1 0 2 2.355418e-01 -7.827881e-01 3.120969e-01 -4.841057e-01
26 1 4 4.520047e+00 -1.532629e+01 -1.729379e+01 -1 0 2 2.803858e-01 -6.248048e-01 6.202253e-01 -3.825223e-01
27 1 4 5.051821e+00 -1.552381e+01 -1.727649e+01 -1 0 2 3.360384e-01 -4.143960e-01 7.572638e-01 -3.767037e-01
28 1 1 5.524101e+00 -1.582667e+01 -1.739185e+01 -1 0 2 3.056237e-01 -2.075034e-01 8.640793e-01 -3.419115e-01
29 1 1 5.749607e+00 -1.634214e+01 -1.746614e+01 -1 0 2 3.653305e-01 8.644058e-02 8.873900e-01 -2.675830e-01
30 1 4 5.828796e+00 -1.685839e+01 -1.771539e+01 -1 0 2 -3.896504e-01 -3.342475e-01 -8.498639e-01 1.190907e-01
31 1 4 5.944382e+00 -1.722151e+01 -1.802877e+01 -1 0 2 -3.571622e-01 -5.803238e-01 -7.298663e-01 -5.435709e-02
32 1 3 6.037668e+00 -1.727752e+01 -1.857554e+01 -1 0 2 -2.404877e-01 -7.964085e-01 -5.309922e-01 -1.610791e-01
33 1 3 6.177310e+00 -1.725561e+01 -1.914522e+01 -1 0 2 -2.136080e-01 -8.753570e-01 -2.678047e-01 -3.411779e-01
34 1 1 6.386614e+00 -1.702964e+01 -1.957070e+01 -1 0 2 -1.407103e-01 -9.091237e-01 1.898872e-02 -3.915790e-01
35 1 2 6.773670e+00 -1.674088e+01 -1.978435e+01 -1 0 2 6.014457e-02 -8.497975e-01 3.049172e-01 -4.257373e-01
36 1 2 7.285879e+00 -1.683567e+01 -2.004195e+01 -1 0 2 4.190359e-02 -7.951957e-01 2.566022e-01 -5.477802e-01
37 1 1 7.809812e+00 -1.679441e+01 -1.999430e+01 -1 0 2 1.406238e-01 -6.021514e-01 6.628400e-01 -4.222344e-01
38 1 1 8.286521e+00 -1.707812e+01 -2.014599e+01 -1 0 2 1.670082e-01 -3.983095e-01 8.021856e-01 -4.122573e-01
39 1 4 8.603146e+00 -1.749403e+01 1.975671e+01 -1 0 1 -1.998899e-01 9.856163e-02 -9.052974e-01 3.616161e-01
40 1 4 8.703218e+00 -1.801035e+01 1.967222e+01 -1 0 1 -2.814800e-01 -2.201200e-01 -8.641942e-01 3.542381e-01
41 1 2 8.662428e+00 -1.850744e+01 1.947330e+01 -1 0 1 -3.015739e-01 -4.606199e-01 -8.019414e-01 2.318888e-01
42 1 4 8.529332e+00 -1.884999e+01 1.912754e+01 -1 0 1 3.406457e-01 7.182686e-01 6.021782e-01 -7.370336e-02
43 1 3 8.397553e+00 -1.891854e+01 1.860804e+01 -1 0 1 -3.528259e-01 -9.054579e-01 -2.217041e-01 -8.066729e-02
44 1 2 8.585943e+00 -1.908026e+01 1.812965e+01 -1 0 1 -3.274077e-01 -9.076925e-01 -9.810635e-02 -2.434619e-01
45 1 1 8.830527e+00 -1.901900e+01 1.769022e+01 -1 0 1 -2.259973e-01 -9.139349e-01 1.468346e-01 -3.034597e-01
46 1 3 9.220703e+00 -1.892274e+01 1.737839e+01 -1 0 1 -1.058928e-01 -8.190260e-01 4.163498e-01 -3.803104e-01
47 1 4 9.731441e+00 -1.904036e+01 1.718967e+01 -1 0 1 1.474439e-02 -6.753560e-01 5.639754e-01 -4.749828e-01
48 1 1 1.015428e+01 -1.905474e+01 1.725655e+01 -1 0 1 -3.741330e-01 4.582466e-01 -6.282038e-01 5.053657e-01
49 1 4 1.066314e+01 -1.934001e+01 1.733283e+01 -1 0 1 -3.677497e-01 2.584525e-01 -7.872575e-01 4.221232e-01
50 1 4 1.091109e+01 -1.978053e+01 1.738171e+01 -1 0 1 -5.350318e-01 -7.210085e-02 -7.383056e-01 4.042862e-01
51 1 4 1.131980e+01 1.972110e+01 1.734760e+01 -1 -1 1 -4.623221e-01 -1.974669e-01 -8.451661e-01 1.815471e-01
52 1 1 1.153798e+01 1.932307e+01 1.705677e+01 -1 -1 1 -4.038248e-01 -4.669397e-01 -7.852946e-01 4.696106e-02
53 1 3 1.171422e+01 1.911861e+01 1.660961e+01 -1 -1 1 2.458625e-01 6.956003e-01 6.750094e-01 7.354243e-03
54 1 4 1.170570e+01 1.900436e+01 1.603732e+01 -1 -1 1 2.900394e-01 8.202312e-01 4.576332e-01 1.834934e-01
55 1 4 1.172921e+01 1.914865e+01 1.550229e+01 -1 -1 1 1.581041e-01 9.524313e-01 1.017084e-01 2.398606e-01
56 1 4 1.201597e+01 1.927877e+01 1.506375e+01 -1 -1 1 -7.202229e-02 -9.273085e-01 1.577969e-01 -3.316803e-01
57 1 1 1.244849e+01 1.945191e+01 1.487125e+01 -1 -1 1 1.110369e-02 -7.935417e-01 5.308598e-01 -2.972475e-01
58 1 1 1.290310e+01 1.934876e+01 1.460463e+01 -1 -1 1 -1.080970e-01 5.814694e-01 -6.998301e-01 4.005574e-01
59 1 3 1.392947e+01 -1.983832e+01 1.452765e+01 -1 0 1 -1.065959e-02 9.748534e-01 -1.888074e-01 1.178937e-01
60 1 4 1.427421e+01 -1.978790e+01 1.414292e+01 -1 0 1 1.220377e-01 -8.401657e-01 4.586329e-01 -2.624580e-01
61 1 2 1.463716e+01 -1.968455e+01 1.386214e+01 -1 0 1 2.408470e-01 -7.602113e-01 4.497065e-01 -4.022880e-01
62 1 3 1.500106e+01 -1.968640e+01 1.343996e+01 -1 0 1 -1.562326e-01 7.077601e-01 -4.871253e-01 4.872124e-01
63 1 2 1.505621e+01 -1.884147e+01 1.232656e+01 -1 0 1 -1.813408e-01 9.449149e-01 2.565228e-01 -9.191001e-02
64 1 4 1.573201e+01 -1.863060e+01 1.256430e+01 -1 0 1 -1.046011e-01 9.559923e-01 -2.649839e-01 -7.014877e-02
65 1 2 1.565075e+01 -1.914886e+01 1.222426e+01 -1 0 1 3.031574e-02 -6.760598e-01 1.649039e-01 7.175171e-01
66 1 1 1.531167e+01 1.969884e+01 1.300080e+01 -1 -1 1 -1.131497e-02 1.823309e-01 -9.670278e-01 -1.774389e-01
67 1 2 1.519742e+01 1.947979e+01 1.251481e+01 -1 -1 1 8.203725e-02 -3.374525e-01 -9.230166e-01 -1.656383e-01
68 1 1 1.608204e+01 1.880985e+01 1.228481e+01 -1 -1 1 -1.506893e-01 -1.207097e-01 9.200463e-01 3.409350e-01
69 1 1 1.582885e+01 1.886706e+01 1.189825e+01 -1 -1 1 3.340950e-01 -2.347097e-01 -8.739066e-01 -2.637787e-01
70 1 2 1.717365e+01 1.855570e+01 1.171074e+01 -1 -1 1 7.494934e-01 -5.398225e-01 2.247239e-01 3.104039e-01
71 1 3 1.739652e+01 1.885205e+01 1.192178e+01 -1 -1 1 -6.231704e-01 2.735271e-01 -4.211639e-01 -5.995520e-01
72 1 4 1.785025e+01 1.787467e+01 1.230002e+01 -1 -1 1 -8.117367e-01 4.265295e-01 -2.589096e-01 3.035159e-01
73 1 1 1.778313e+01 1.819066e+01 1.326680e+01 -1 -1 1 5.403123e-01 -3.400744e-01 -7.656833e-01 7.836488e-02
74 1 1 1.804250e+01 1.771721e+01 1.321207e+01 -1 -1 1 -2.491303e-01 -1.926875e-01 -7.121268e-01 6.274401e-01
75 1 3 1.784254e+01 1.725219e+01 1.319192e+01 -1 -1 1 4.743598e-01 4.518542e-01 6.389543e-01 -4.031724e-01
76 1 1 1.775632e+01 1.682669e+01 1.300237e+01 -1 -1 1 -5.480817e-01 -7.001230e-01 -4.413220e-01 1.211162e-01
77 1 4 1.735813e+01 1.639440e+01 1.388064e+01 -1 -1 1 -1.079396e-01 7.593773e-01 -1.661544e-01 6.197483e-01
78 1 1 1.686912e+01 1.619115e+01 1.386588e+01 -1 -1 1 -8.157698e-01 5.644687e-01 -9.006313e-02 -8.822376e-02
79 1 4 1.533069e+01 1.604862e+01 1.333332e+01 -1 -1 1 -2.631330e-01 -2.192954e-01 -4.554047e-01 8.217525e-01
80 1 2 1.508450e+01 1.570363e+01 1.367796e+01 -1 -1 1 4.767766e-01 3.992998e-01 4.270341e-01 -6.564188e-01
81 1 4 1.475628e+01 1.529446e+01 1.362804e+01 -1 -1 1 -7.424011e-01 -5.721111e-01 -1.589233e-01 3.102786e-01
82 1 4 1.458305e+01 1.459167e+01 1.502217e+01 -1 -1 1 5.010886e-01 1.996147e-01 -8.418027e-01 2.079183e-02
83 1 4 1.422125e+01 1.420082e+01 1.475394e+01 -1 -1 1 -6.274048e-01 2.377251e-02 7.715612e-01 -1.024277e-01
84 1 4 1.364810e+01 1.436209e+01 1.508165e+01 -1 -1 1 -7.201227e-01 -8.255671e-02 6.608070e-01 -1.947865e-01
85 1 1 1.326884e+01 1.409576e+01 1.529454e+01 -1 -1 1 7.418474e-01 -1.581956e-01 -5.042771e-01 4.127240e-01
86 1 1 1.347299e+01 1.337604e+01 1.541290e+01 -1 -1 1 -5.548399e-01 -4.792490e-01 5.048473e-01 -4.556340e-01
87 1 3 1.372959e+01 1.300529e+01 1.564882e+01 -1 -1 1 -2.189834e-01 -2.191099e-01 6.928413e-01 -6.511590e-01
88 1 2 1.373567e+01 1.251269e+01 1.588288e+01 -1 -1 1 4.449186e-02 -2.358206e-02 -6.787887e-01 7.326051e-01
89 1 2 1.360297e+01 1.212623e+01 1.618174e+01 -1 -1 1 2.442161e-01 3.416381e-01 6.447212e-01 -6.387303e-01
90 1 3 1.320015e+01 1.190815e+01 1.630374e+01 -1 -1 1 -5.340043e-01 -5.644318e-01 -2.993762e-01 5.537419e-01
91 1 3 1.301009e+01 1.139908e+01 1.583548e+01 -1 -1 1 -4.128873e-02 -3.484501e-01 8.689150e-01 3.490910e-01
92 1 2 1.293671e+01 1.137551e+01 1.532335e+01 -1 -1 1 -1.866405e-01 -7.398330e-02 9.652443e-01 1.673176e-01
93 1 1 1.269079e+01 1.130122e+01 1.486417e+01 -1 -1 1 3.250703e-01 -2.118370e-01 -9.196954e-01 -6.012293e-02
94 1 2 1.382190e+01 1.086902e+01 1.388695e+01 -1 -1 1 -7.942442e-01 -6.009112e-01 7.931447e-02 -4.232171e-02
95 1 3 1.392417e+01 1.043418e+01 1.370114e+01 -1 -1 1 7.438910e-01 4.928426e-01 -3.212609e-01 3.170549e-01
96 1 2 1.387675e+01 1.000672e+01 1.331660e+01 -1 -1 1 1.120103e-01 -1.051930e-02 9.916198e-01 6.350758e-02
97 1 2 1.413487e+01 9.883030e+00 1.415010e+01 -1 -1 1 -2.656307e-01 3.675858e-01 8.371756e-01 -3.057089e-01
98 1 4 1.371468e+01 9.593511e+00 1.405977e+01 -1 -1 1 -2.067322e-01 6.424424e-01 6.208034e-01 -3.989145e-01
99 1 2 1.325414e+01 9.668203e+00 1.397639e+01 -1 -1 1 8.285589e-02 -8.297877e-01 -2.379112e-01 4.979814e-01
100 1 1 1.248198e+01 9.587464e+00 1.399483e+01 -1 -1 1 6.315687e-01 3.037512e-01 5.436140e-01 -4.618874e-01
101 2 4 1.510001e+01 1.809454e+01 3.716495e+00 -1 -1 1 -2.438064e-01 -4.759947e-02 5.707259e-01 7.826651e-01
102 2 3 1.479185e+01 1.853743e+01 3.907630e+00 -1 -1 1 -3.978796e-01 -5.171087e-02 6.288916e-01 6.659679e-01
103 2 1 1.442019e+01 1.879611e+01 3.794239e+00 -1 -1 1 -5.984843e-01 2.182572e-01 5.924850e-01 4.930941e-01
104 2 3 1.396072e+01 1.895382e+01 3.970540e+00 -1 -1 1 7.669502e-01 -4.394379e-01 -4.294217e-01 -1.851449e-01
105 2 3 1.380377e+01 1.817738e+01 3.650475e+00 -1 -1 1 3.491369e-01 -6.747540e-01 6.423375e-01 -1.010596e-01
106 2 2 1.284607e+01 1.761635e+01 3.422260e+00 -1 -1 1 9.390853e-01 -7.942056e-02 2.493432e-01 -2.227985e-01
107 2 3 1.216314e+01 1.858023e+01 4.017677e+00 -1 -1 1 -1.536104e-01 -7.474604e-01 -5.693262e-01 -3.058994e-01
108 2 4 1.123310e+01 1.834008e+01 4.207386e+00 -1 -1 1 4.239367e-01 -3.431079e-01 -2.607125e-01 -7.966076e-01
109 2 3 1.121047e+01 1.899159e+01 4.152373e+00 -1 -1 1 5.388878e-01 -6.004885e-01 -5.907642e-01 3.331679e-03
110 2 2 1.083830e+01 1.931406e+01 4.112497e+00 -1 -1 1 -5.573752e-01 7.479288e-01 3.468200e-01 -9.824106e-02
111 2 2 1.028345e+01 1.991921e+01 4.540013e+00 -1 -1 1 1.530205e-01 -8.571550e-01 -4.189120e-01 -2.576484e-01
112 2 3 9.764378e+00 1.918598e+01 4.645091e+00 -1 -1 1 5.584680e-01 3.075752e-01 -7.047662e-01 3.111522e-01
113 2 3 9.620389e+00 1.866201e+01 4.757285e+00 -1 -1 1 5.388552e-01 1.184569e-01 -6.516672e-01 5.205121e-01
114 2 2 9.483449e+00 1.822345e+01 4.962848e+00 -1 -1 1 -3.657018e-01 9.788674e-02 6.277344e-01 -6.801690e-01
115 2 4 9.790265e+00 1.736181e+01 3.982331e+00 -1 -1 1 2.571467e-01 -3.950094e-01 4.354093e-01 7.669823e-01
116 2 4 9.956016e+00 1.602599e+01 4.929478e+00 -1 -1 1 2.270538e-02 5.457973e-01 -8.248906e-01 1.454138e-01
117 2 1 1.018537e+01 1.566667e+01 4.578448e+00 -1 -1 1 -5.529241e-02 -2.621218e-02 9.941260e-01 -8.926978e-02
118 2 1 1.109123e+01 1.702134e+01 4.815259e+00 -1 -1 1 6.845005e-01 2.758609e-01 1.059491e-01 6.664343e-01
119 2 1 1.147493e+01 1.693276e+01 5.200153e+00 -1 -1 1 3.856010e-01 2.075739e-01 5.683399e-02 8.972150e-01
120 2 1 1.157134e+01 1.681741e+01 6.330393e+00 -1 -1 1 -5.803982e-01 8.127121e-01 4.784861e-02 1.864077e-02
121 2 3 1.175141e+01 1.717666e+01 6.532449e+00 -1 -1 1 -5.883384e-01 6.540010e-01 -2.860364e-01 -3.798996e-01
122 2 1 1.194722e+01 1.765955e+01 6.642315e+00 -1 -1 1 -4.899952e-01 5.105318e-01 -5.113239e-01 -4.876575e-01
123 2 4 1.211369e+01 1.805785e+01 7.848210e+00 -1 -1 1 -3.938643e-01 -6.058877e-01 5.441333e-01 -4.262511e-01
124 2 1 1.136261e+01 1.825980e+01 7.492035e+00 -1 -1 1 9.347678e-01 2.520056e-01 4.093396e-02 -2.470359e-01
125 2 4 1.118456e+01 1.963432e+01 8.272884e+00 -1 -1 1 -1.287079e-01 9.471220e-01 2.284513e-01 -1.849439e-01
126 2 2 1.103698e+01 1.980864e+01 8.031012e+00 -1 -1 1 -4.285746e-01 -6.715966e-01 3.199303e-01 -5.127635e-01
127 2 4 9.906238e+00 1.911767e+01 8.435109e+00 -1 -1 1 -2.619918e-01 -1.405757e-01 9.524726e-01 -6.629215e-02
128 2 4 9.581832e+00 1.988235e+01 9.236871e+00 -1 -1 1 7.976167e-02 -1.961215e-01 -8.484072e-01 4.851595e-01
129 2 1 9.362164e+00 1.946912e+01 9.295817e+00 -1 -1 1 3.990046e-02 4.231270e-01 6.636594e-01 -6.155710e-01
130 2 2 1.036553e+01 1.914762e+01 9.445452e+00 -1 -1 1 -5.745045e-01 -2.615581e-01 -1.564755e-01 -7.596363e-01
131 2 3 1.084382e+01 1.922447e+01 9.476123e+00 -1 -1 1 1.721119e-01 4.408932e-01 1.111239e-02 8.808332e-01
132 2 4 1.110223e+01 1.945685e+01 9.779907e+00 -1 -1 1 3.311056e-01 -4.486810e-01 2.644328e-01 -7.868480e-01
133 2 4 1.131782e+01 1.944094e+01 1.021483e+01 -1 -1 1 -5.821715e-01 2.118129e-01 -2.725682e-01 7.361509e-01
134 2 3 1.121194e+01 1.938334e+01 1.068456e+01 -1 -1 1 8.353307e-01 -2.671839e-01 2.601344e-01 -4.039375e-01
135 2 4 1.035481e+01 1.983608e+01 1.062249e+01 -1 -1 1 5.125446e-01 4.794315e-01 7.020335e-01 1.207998e-01
136 2 3 1.107976e+01 -1.980804e+01 1.165803e+01 -1 0 1 3.476450e-02 9.354582e-01 2.610270e-01 -2.357422e-01
137 2 1 1.077728e+01 1.939226e+01 1.175788e+01 -1 -1 1 3.444646e-02 -2.929668e-01 2.023842e-01 9.338225e-01
138 2 3 1.150980e+01 1.847000e+01 1.224931e+01 -1 -1 1 -4.276091e-01 3.677899e-01 -5.339413e-01 6.299109e-01
139 2 2 1.191999e+01 1.830068e+01 1.255363e+01 -1 -1 1 -6.060981e-01 2.004782e-01 -6.065091e-01 4.739201e-01
140 2 3 1.213896e+01 1.797513e+01 1.282189e+01 -1 -1 1 -7.704907e-01 -8.922006e-02 -6.085167e-01 1.676045e-01
141 2 1 1.193681e+01 1.876490e+01 1.352592e+01 -1 -1 1 -2.132829e-01 -6.522411e-01 -2.116480e-01 6.959145e-01
142 2 2 1.275315e+01 1.806217e+01 1.467857e+01 -1 -1 1 8.720251e-01 -3.068539e-01 -1.391419e-01 3.550386e-01
143 2 4 1.277608e+01 1.814870e+01 1.512187e+01 -1 -1 1 7.065525e-01 -2.175696e-01 3.753966e-02 6.723376e-01
144 2 4 1.290999e+01 1.850557e+01 1.557027e+01 -1 -1 1 4.679079e-01 -2.350695e-01 2.155612e-01 8.242196e-01
145 2 1 1.289515e+01 1.900620e+01 1.584990e+01 -1 -1 1 2.121850e-01 -3.089704e-01 2.225489e-01 8.999927e-01
146 2 1 1.281907e+01 1.951763e+01 1.595895e+01 -1 -1 1 -1.017733e-01 -2.198139e-01 3.861623e-01 8.900577e-01
147 2 1 1.244584e+01 1.993087e+01 1.614277e+01 -1 -1 1 3.087645e-01 2.388032e-01 -4.752532e-01 -7.885251e-01
148 2 2 1.189051e+01 -1.982882e+01 1.614715e+01 -1 0 1 6.457132e-01 9.568229e-02 -4.458274e-01 -6.124845e-01
149 2 4 1.136483e+01 -1.987244e+01 1.613285e+01 -1 0 1 -7.502839e-01 -3.425608e-03 5.351187e-01 3.882142e-01
150 2 1 1.079354e+01 1.996572e+01 1.631669e+01 -1 -1 1 -8.291709e-01 7.717202e-02 5.178938e-01 1.957196e-01
151 2 1 1.032209e+01 1.986978e+01 1.646075e+01 -1 -1 1 -8.773916e-01 1.552131e-01 4.532275e-01 -2.603077e-02
152 2 1 1.003174e+01 1.972170e+01 1.682939e+01 -1 -1 1 -7.938538e-01 3.398053e-01 3.850504e-01 -3.256759e-01
153 2 4 9.756661e+00 1.985242e+01 1.726909e+01 -1 -1 1 -7.713898e-01 3.273500e-01 1.722424e-01 -5.178150e-01
154 2 1 9.611032e+00 1.994247e+01 1.779885e+01 -1 -1 1 -7.003104e-01 3.435332e-01 2.306666e-02 -6.253145e-01
155 2 2 9.638710e+00 -1.971826e+01 1.822530e+01 -1 0 1 -4.559702e-01 3.176643e-01 -1.522524e-01 -8.173125e-01
156 2 4 9.739851e+00 -1.920025e+01 1.842342e+01 -1 0 1 -1.839363e-01 2.670142e-01 -3.120062e-01 -8.930414e-01
157 2 3 9.668998e+00 -1.867936e+01 1.856799e+01 -1 0 1 6.417099e-02 2.312117e-01 -4.776639e-01 -8.451393e-01
158 2 2 9.376780e+00 -1.818996e+01 1.846876e+01 -1 0 1 3.270820e-01 1.253103e-01 -5.328696e-01 -7.703017e-01
159 2 1 8.909186e+00 -1.785039e+01 1.845572e+01 -1 0 1 5.943324e-01 8.534388e-02 -5.690200e-01 -5.618734e-01
160 2 3 8.341039e+00 -1.773337e+01 1.860997e+01 -1 0 1 -7.782207e-01 -3.197195e-02 4.780447e-01 4.059848e-01
161 2 1 7.819652e+00 -1.773709e+01 1.889343e+01 -1 0 1 -9.212452e-01 9.962918e-02 3.303117e-01 1.796537e-01
162 2 1 7.510116e+00 -1.780149e+01 1.930595e+01 -1 0 1 -9.710245e-01 1.078087e-01 2.076560e-01 -4.865898e-02
163 2 4 7.532530e+00 -1.798323e+01 1.977487e+01 -1 0 1 -8.908350e-01 1.648142e-01 1.444098e-01 -3.979888e-01
164 2 4 7.567772e+00 -1.789913e+01 -1.965674e+01 -1 0 2 -6.650529e-01 3.657723e-01 4.442276e-02 -6.495706e-01
165 2 3 7.456450e+00 -1.775961e+01 -1.911499e+01 -1 0 2 -5.266101e-01 3.947490e-01 -1.433358e-02 -7.527613e-01
166 2 3 7.412281e+00 -1.735456e+01 -1.884258e+01 -1 0 2 -2.562847e-01 3.422266e-01 -2.442200e-01 -8.703768e-01
167 2 4 7.182145e+00 -1.688516e+01 -1.865292e+01 -1 0 2 -2.242052e-02 4.064866e-01 -2.666105e-01 -8.736045e-01
168 2 2 6.837331e+00 -1.641769e+01 -1.862037e+01 -1 0 2 2.595250e-01 3.637433e-01 -2.821508e-01 -8.489573e-01
169 2 2 6.399005e+00 -1.616267e+01 -1.856775e+01 -1 0 2 5.353454e-01 2.981004e-01 -3.768680e-01 -6.946308e-01
170 2 1 5.878640e+00 -1.611455e+01 -1.854994e+01 -1 0 2 6.998023e-01 1.902907e-01 -4.580898e-01 -5.140233e-01
171 2 1 5.350795e+00 -1.620000e+01 -1.859629e+01 -1 0 2 -8.061780e-01 -1.114956e-01 5.011457e-01 2.941068e-01
172 2 4 4.908356e+00 -1.636682e+01 -1.833257e+01 -1 0 2 -9.138527e-01 1.428573e-01 3.789596e-01 2.923394e-02
173 2 4 4.654707e+00 -1.654661e+01 -1.788193e+01 -1 0 2 -8.517272e-01 2.950774e-01 3.230242e-01 -2.883497e-01
174 2 1 4.430495e+00 -1.653682e+01 -1.746139e+01 -1 0 2 -8.499501e-01 2.777341e-01 1.990971e-01 -4.010100e-01
175 2 1 4.501663e+00 -1.651454e+01 -1.701323e+01 -1 0 2 -5.897566e-01 3.335103e-01 1.560256e-01 -7.187587e-01
176 2 2 4.364881e+00 -1.619776e+01 -1.646671e+01 -1 0 2 -4.079725e-01 4.674212e-01 1.103918e-01 -7.764596e-01
177 2 2 4.193400e+00 -1.584372e+01 -1.609587e+01 -1 0 2 -1.446011e-01 4.447132e-01 -4.647718e-02 -8.827008e-01
178 2 1 3.888819e+00 -1.542201e+01 -1.582481e+01 -1 0 2 5.236466e-02 4.977873e-01 -2.310791e-01 -8.343070e-01
179 2 4 3.369566e+00 -1.519540e+01 -1.578696e+01 -1 0 2 3.388214e-01 5.633733e-01 -2.853075e-01 -6.974312e-01
180 2 1 2.847229e+00 -1.519424e+01 -1.586458e+01 -1 0 2 5.817557e-01 5.194719e-01 -3.645235e-01 -5.087552e-01
181 2 4 2.379984e+00 -1.552211e+01 -1.607873e+01 -1 0 2 -7.438760e-01 -4.597296e-01 3.421942e-01 3.438027e-01
182 2 2 2.139177e+00 -1.594268e+01 -1.623087e+01 -1 0 2 -7.810424e-01 -1.412519e-01 6.082828e-01 -3.576408e-03
183 2 3 1.868780e+00 -1.636392e+01 -1.606510e+01 -1 0 2 -7.349024e-01 1.951103e-02 5.828756e-01 -3.461123e-01
184 2 4 1.528132e+00 -1.662221e+01 -1.578476e+01 -1 0 2 -7.309085e-01 1.426527e-01 4.927427e-01 -4.501417e-01
185 2 3 1.321892e+00 -1.673786e+01 -1.535492e+01 -1 0 2 4.990519e-01 -3.113984e-01 -3.449912e-01 7.314091e-01
186 2 1 9.412060e-01 -1.698794e+01 -1.485878e+01 -1 0 2 5.080732e-01 -3.524736e-01 -3.287372e-01 7.138318e-01
187 2 1 6.426430e-01 -1.676512e+01 -1.447874e+01 -1 0 2 -1.671138e-01 4.767693e-01 1.316961e-01 -8.528893e-01
188 2 2 2.844024e-01 -1.657710e+01 -1.419676e+01 -1 0 2 4.603164e-02 -5.158896e-01 5.382278e-02 8.537225e-01
189 2 4 -8.342369e-02 -1.627728e+01 -1.397553e+01 -1 0 2 -1.106757e-01 -5.560493e-01 2.098719e-01 7.965638e-01
190 2 4 -5.630076e-01 -1.593136e+01 -1.406651e+01 -1 0 2 2.925784e-01 5.437035e-01 -3.355487e-01 -7.114714e-01
191 2 1 -1.051677e+00 -1.581439e+01 -1.431812e+01 -1 0 2 4.556464e-01 4.792051e-01 -5.438275e-01 -5.167208e-01
192 2 4 -1.477220e+00 -1.586275e+01 -1.453801e+01 -1 0 2 -6.282502e-01 -2.617351e-01 6.454823e-01 3.466250e-01
193 2 4 -1.871435e+00 -1.607006e+01 -1.472403e+01 -1 0 2 6.646006e-01 6.864331e-02 -7.406500e-01 -7.093479e-02
194 2 1 -2.255440e+00 -1.633395e+01 -1.485184e+01 -1 0 2 -6.621390e-01 -2.224066e-02 7.243361e-01 -1.908261e-01
195 2 3 -2.721453e+00 -1.667952e+01 -1.475475e+01 -1 0 2 6.597134e-01 -1.298676e-01 -6.765319e-01 3.003619e-01
196 2 4 -3.134165e+00 -1.686858e+01 -1.438981e+01 -1 0 2 5.938188e-01 -3.447177e-01 -5.572781e-01 4.668941e-01
197 2 2 -3.507116e+00 -1.693742e+01 -1.411497e+01 -1 0 2 -5.493971e-01 4.325617e-01 3.334164e-01 -6.323660e-01
198 2 4 -3.726778e+00 -1.671860e+01 -1.372179e+01 -1 0 2 2.077616e-01 -5.388927e-01 -1.891732e-01 7.941305e-01
199 2 3 -4.135345e+00 -1.642378e+01 -1.343411e+01 -1 0 2 -1.018292e-01 -5.766716e-01 -4.857648e-02 8.091483e-01
200 2 4 -4.236699e+00 -1.603372e+01 -1.314642e+01 -1 0 2 5.341196e-01 5.447460e-01 -5.331933e-02 6.443020e-01
