ITEM: TIMESTEP
210000000
ITEM: NUMBER OF ATOMS
200
ITEM: BOX BOUNDS pp pp pp
-2.0000000000000000e+01 2.0000000000000000e+01
-2.0000000000000000e+01 2.0000000000000000e+01
-2.0000000000000000e+01 2.0000000000000000e+01
ITEM: ATOMS id mol type x y z ix iy iz c_quat[1] c_quat[2] c_quat[3] c_quat[4]
1 1 1 1.862468e+01 -6.826375e+00 1.279554e+01 -1 -1 1 8.699136e-02 -5.259683e-01 -5.860500e-01 6.101927e-01
2 1 2 1.987053e+01 -7.141842e+00 1.291619e+01 -1 -1 1 -8.633719e-01 -2.915278e-01 4.112870e-01 -2.105893e-02
3 1 1 -1.953553e+01 -6.622998e+00 1.367718e+01 0 -1 1 -7.276875e-01 6.309442e-01 1.815618e-01 -1.985337e-01
4 1 3 -1.951605e+01 -6.169458e+00 1.388336e+01 0 -1 1 -5.398097e-01 6.398070e-01 -1.345755e-01 -5.302283e-01
5 1 1 -1.945372e+01 -5.685667e+00 1.391946e+01 0 -1 1 2.160505e-01 -5.560843e-01 3.676789e-01 7.133755e-01
6 1 2 -1.953233e+01 -5.182961e+00 1.380794e+01 0 -1 1 1.572848e-01 -4.757200e-01 6.016460e-01 6.220724e-01
7 1 4 -1.951562e+01 -4.801309e+00 1.345081e+01 0 -1 1 3.970696e-02 2.888004e-01 -7.446417e-01 -6.004385e-01
8 1 1 -1.973051e+01 -4.453699e+00 1.303741e+01 0 -1 1 -2.668409e-01 -1.524698e-01 7.990328e-01 5.168128e-01
9 1 1 1.998998e+01 -4.305755e+00 1.264924e+01 -1 -1 1 4.084214e-01 -7.867660e-02 -8.256158e-01 -3.812618e-01
10 1 4 1.957939e+01 -4.213952e+00 1.239222e+01 -1 -1 1 -4.896267e-01 1.515624e-01 8.395364e-01 1.802030e-01
11 1 1 1.910904e+01 -4.270805e+00 1.227192e+01 -1 -1 1 -5.037063e-01 4.002908e-01 7.652502e-01 -2.096069e-02
12 1 1 1.859998e+01 -4.227139e+00 1.227514e+01 -1 -1 1 4.563815e-01 -6.533931e-01 -5.709810e-01 1.969111e-01
13 1 3 1.811658e+01 -3.981862e+00 1.232875e+01 -1 -1 1 -4.897880e-01 7.451677e-01 3.422311e-01 -2.961598e-01
14 1 4 1.780134e+01 -3.599417e+00 1.240740e+01 -1 -1 1 4.806806e-01 -7.939416e-01 -6.551421e-02 3.664842e-01
15 1 4 1.758770e+01 -3.120943e+00 1.234613e+01 -1 -1 1 2.296389e-01 -8.261618e-01 2.228389e-01 4.637516e-01
16 1 2 1.746225e+01 -2.649422e+00 1.211901e+01 -1 -1 1 -1.225346e-01 7.712875e-01 -4.189310e-01 -4.632469e-01
17 1 1 1.758723e+01 -2.266866e+00 1.167666e+01 -1 -1 1 -4.324344e-02 5.502986e-01 -6.955029e-01 -4.599751e-01
18 1 2 1.765141e+01 -2.045860e+00 1.116073e+01 -1 -1 1 -9.698944e-02 -3.264172e-01 8.587052e-01 3.829755e-01
19 1 3 1.753081e+01 -1.939806e+00 1.064477e+01 -1 -1 1 -1.824914e-01 -1.851582e-01 9.243390e-01 2.793039e-01
20 1 1 1.738518e+01 -2.098651e+00 1.018718e+01 -1 -1 1 -2.112389e-01 2.279164e-01 8.904421e-01 3.324833e-01
21 1 4 1.704871e+01 -1.969661e+00 9.818458e+00 -1 -1 1 2.869443e-01 -5.689734e-01 -7.210073e-01 -2.721779e-01
22 1 1 1.681262e+01 -1.681020e+00 9.427133e+00 -1 -1 1 3.609607e-01 -7.333743e-01 -5.109637e-01 -2.660557e-01
23 1 4 1.655248e+01 -1.223445e+00 9.351792e+00 -1 -1 1 5.436368e-01 -7.853202e-01 -2.820177e-01 -9.053894e-02
24 1 3 1.639312e+01 -7.861274e-01 9.493804e+00 -1 -1 1 5.582183e-01 -8.246497e-01 1.394656e-03 9.134174e-02
25 1 3 1.653628e+01 -1.839254e-01 9.448814e+00 -1 -1 1 5.377742e-01 -8.019219e-01 2.561987e-01 4.563291e-02
26 1 4 1.690746e+01 2.511557e-01 9.433215e+00 -1 -1 1 5.264608e-01 -6.492979e-01 5.345690e-01 1.244479e-01
27 1 4 1.734443e+01 6.336795e-01 9.295532e+00 -1 -1 1 4.265131e-01 -5.197466e-01 7.051714e-01 2.251297e-01
28 1 1 1.769741e+01 7.725854e-01 8.992933e+00 -1 -1 1 3.142810e-01 -1.836023e-01 8.531235e-01 3.737618e-01
29 1 1 1.799479e+01 8.688962e-01 8.467198e+00 -1 -1 1 1.185659e-01 1.299285e-03 9.040286e-01 4.106978e-01
30 1 4 1.806226e+01 9.753909e-01 7.897957e+00 -1 -1 1 -3.571125e-02 -2.346389e-01 -8.744963e-01 -4.229959e-01
31 1 4 1.795958e+01 1.101884e+00 7.380881e+00 -1 -1 1 1.192975e-01 -5.295470e-01 -7.329882e-01 -4.099712e-01
32 1 3 1.781512e+01 1.520942e+00 7.045036e+00 -1 -1 1 3.266024e-01 -6.623131e-01 -5.690434e-01 -3.617484e-01
33 1 3 1.763165e+01 2.039702e+00 6.947792e+00 -1 -1 1 4.568174e-01 -7.714010e-01 -3.335336e-01 -2.915712e-01
34 1 1 1.757992e+01 2.540590e+00 6.967458e+00 -1 -1 1 5.347827e-01 -8.230557e-01 -5.773925e-02 -1.823541e-01
35 1 2 1.758805e+01 3.074003e+00 7.055591e+00 -1 -1 1 6.561854e-01 -7.357969e-01 1.571769e-01 -5.761138e-02
36 1 2 1.785844e+01 3.463187e+00 7.359856e+00 -1 -1 1 7.386431e-01 -5.545482e-01 3.784508e-01 6.047825e-02
37 1 1 1.831848e+01 3.725061e+00 7.532850e+00 -1 -1 1 6.120616e-01 -4.386554e-01 5.969958e-01 2.766913e-01
38 1 1 1.878386e+01 3.934760e+00 7.474649e+00 -1 -1 1 4.859272e-01 -2.423987e-01 7.349024e-01 4.062463e-01
39 1 4 1.914152e+01 4.228005e+00 7.265906e+00 -1 -1 1 -3.356060e-01 7.928375e-02 -8.041846e-01 -4.841176e-01
40 1 4 1.945080e+01 4.453034e+00 6.915320e+00 -1 -1 1 -1.351270e-01 -1.745808e-01 -7.393779e-01 -6.360681e-01
41 1 2 1.945668e+01 4.829309e+00 6.512997e+00 -1 -1 1 6.911523e-02 -3.828137e-01 -7.459318e-01 -5.406131e-01
42 1 4 1.937718e+01 5.341306e+00 6.241393e+00 -1 -1 1 -2.745012e-01 4.669460e-01 6.146545e-01 5.734198e-01
43 1 3 1.922720e+01 5.782964e+00 6.101271e+00 -1 -1 1 4.567695e-01 -6.141027e-01 -4.153600e-01 -4.916458e-01
44 1 2 1.902634e+01 6.267606e+00 6.090324e+00 -1 -1 1 6.068295e-01 -6.726690e-01 -2.773744e-01 -3.199027e-01
45 1 1 1.896151e+01 6.676179e+00 6.261504e+00 -1 -1 1 7.014674e-01 -6.874325e-01 -9.374760e-02 -1.630689e-01
46 1 3 1.908263e+01 7.155166e+00 6.509837e+00 -1 -1 1 7.581831e-01 -6.336189e-01 1.482417e-01 -4.135105e-02
47 1 4 1.936973e+01 7.475608e+00 6.777945e+00 -1 -1 1 7.577666e-01 -4.319941e-01 4.416440e-01 2.100510e-01
48 1 1 1.966324e+01 7.819208e+00 6.964509e+00 -1 -1 1 -7.949220e-01 2.073298e-01 -5.493919e-01 -1.525843e-01
49 1 4 -1.977695e+01 7.952264e+00 7.058325e+00 0 -1 1 -7.111649e-01 8.316432e-02 -6.975792e-01 -2.667136e-02
50 1 4 -1.932519e+01 7.661370e+00 6.918739e+00 0 -1 1 -6.195398e-01 -1.981896e-01 -7.301622e-01 -2.091760e-01
51 1 4 -1.904222e+01 7.464028e+00 6.533607e+00 0 -1 1 -4.646966e-01 -5.259220e-01 -6.001511e-01 -3.837731e-01
52 1 1 -1.847343e+01 7.576172e+00 6.398849e+00 0 -1 1 -3.852027e-01 -4.480743e-01 -5.538494e-01 -5.865997e-01
53 1 3 -1.815819e+01 7.816077e+00 6.153029e+00 0 -1 1 -1.493942e-01 -6.216804e-01 -4.119088e-01 -6.492503e-01
54 1 4 -1.779429e+01 8.172976e+00 6.020683e+00 0 -1 1 1.793229e-02 -6.800778e-01 -1.815847e-01 -7.100701e-01
55 1 4 -1.747706e+01 8.638553e+00 6.067301e+00 0 -1 1 3.113073e-01 -6.658190e-01 6.226966e-02 -6.752002e-01
56 1 4 -1.697829e+01 8.806567e+00 6.309362e+00 0 -1 1 3.652336e-01 -5.513426e-01 2.774137e-01 -6.968984e-01
57 1 1 -1.648890e+01 8.796760e+00 6.736321e+00 0 -1 1 4.564532e-01 -3.289489e-01 5.098085e-01 -6.507982e-01
58 1 1 -1.632121e+01 8.638626e+00 7.154823e+00 0 -1 1 7.205906e-01 -2.347158e-01 5.797484e-01 -2.992480e-01
59 1 3 -1.577812e+01 8.452086e+00 7.356201e+00 0 -1 1 6.328078e-01 -1.147007e-01 6.742419e-01 -3.630372e-01
60 1 4 -1.553225e+01 8.030015e+00 7.514894e+00 0 -1 1 7.461118e-01 1.366605e-01 6.513324e-01 -2.018041e-02
61 1 2 -1.525327e+01 7.695241e+00 7.478217e+00 0 -1 1 -7.146040e-01 -4.501554e-01 -5.199089e-01 -1.280464e-01
62 1 3 -1.520969e+01 7.387032e+00 8.437446e+00 0 -1 1 7.400439e-01 -3.346375e-01 -1.992905e-01 5.483029e-01
63 1 2 -1.530453e+01 7.476935e+00 8.852589e+00 0 -1 1 -4.774612e-01 3.953558e-01 1.255161e-01 -7.745775e-01
64 1 4 -1.535990e+01 7.707853e+00 9.248758e+00 0 -1 1 -3.951035e-02 3.757589e-01 -3.416726e-02 -9.252442e-01
65 1 2 -1.546595e+01 7.912087e+00 1.022439e+01 0 -1 1 -1.568095e-01 8.165821e-02 -4.662967e-01 8.667815e-01
66 1 1 -1.476726e+01 7.162611e+00 1.026424e+01 0 -1 1 -3.517629e-01 1.606833e-01 -6.828348e-01 6.198229e-01
67 1 2 -1.461951e+01 6.634313e+00 1.076040e+01 0 -1 1 -1.769846e-01 6.642376e-02 -7.889204e-01 5.846955e-01
68 1 1 -1.468899e+01 6.134507e+00 1.086886e+01 0 -1 1 3.042207e-01 2.268264e-01 7.177929e-01 -5.837576e-01
69 1 1 -1.447946e+01 5.387945e+00 1.138621e+01 0 -1 1 -8.735532e-01 3.358380e-01 -2.668399e-01 2.300308e-01
70 1 2 -1.506782e+01 5.897882e+00 1.203158e+01 0 -1 1 -3.018584e-01 -5.171114e-01 1.069155e-01 -7.937546e-01
71 1 3 -1.570572e+01 4.738219e+00 1.106578e+01 0 -1 1 8.474599e-01 1.946662e-01 2.700928e-01 -4.134812e-01
72 1 4 -1.572785e+01 4.233780e+00 1.126161e+01 0 -1 1 -8.931693e-01 -3.442824e-01 -2.487646e-01 1.477646e-01
73 1 1 -1.596060e+01 4.457930e+00 1.200627e+01 0 -1 1 3.395003e-01 9.264658e-01 1.278962e-02 -1.619787e-01
74 1 1 -1.710574e+01 4.506856e+00 1.157795e+01 0 -1 1 2.495235e-01 3.592843e-01 8.914646e-01 -1.180836e-01
75 1 3 -1.670778e+01 4.201347e+00 1.155095e+01 0 -1 1 -8.267759e-01 1.472202e-01 1.844069e-01 -5.106486e-01
76 1 1 -1.714318e+01 3.908823e+00 1.020307e+01 0 -1 1 3.720982e-01 8.595413e-01 8.181596e-02 -3.406431e-01
77 1 4 -1.777706e+01 3.866686e+00 1.026349e+01 0 -1 1 -3.783509e-01 -9.069601e-01 -8.544486e-02 1.642349e-01
78 1 1 -1.844392e+01 4.175914e+00 1.078179e+01 0 -1 1 2.827432e-01 -3.801793e-01 2.467305e-01 8.453662e-01
79 1 4 -1.824069e+01 3.167375e+00 1.191927e+01 0 -1 1 8.259869e-01 -5.212950e-01 -1.953840e-01 8.844363e-02
80 1 2 -1.833772e+01 3.415980e+00 1.230444e+01 0 -1 1 -6.452013e-01 5.438436e-01 -2.248606e-02 -5.361378e-01
81 1 4 -1.933524e+01 2.889647e+00 1.238835e+01 0 -1 1 6.302839e-02 -2.273282e-01 3.738559e-01 8.969844e-01
82 1 4 -1.934903e+01 3.552671e+00 1.309563e+01 0 -1 1 5.539913e-01 -6.581417e-01 -1.735990e-03 5.098432e-01
83 1 4 -1.970567e+01 4.274643e+00 1.353456e+01 0 -1 1 -1.969902e-01 5.513932e-01 3.132465e-01 -7.476878e-01
84 1 4 -1.997884e+01 4.268587e+00 1.393079e+01 0 -1 1 7.437403e-02 5.715591e-01 9.300528e-02 -8.118736e-01
85 1 1 1.956709e+01 4.399671e+00 1.403186e+01 -1 -1 1 4.012202e-01 5.894831e-01 -1.159089e-01 -6.914457e-01
86 1 1 1.905508e+01 4.368242e+00 1.391522e+01 -1 -1 1 -4.998865e-01 -5.973653e-01 4.113111e-01 4.733828e-01
87 1 3 1.814181e+01 5.612611e+00 1.438663e+01 -1 -1 1 -1.401935e-02 -4.837367e-01 -1.681053e-01 -8.588031e-01
88 1 2 1.841056e+01 5.977565e+00 1.455516e+01 -1 -1 1 3.494916e-01 -5.269668e-01 1.356142e-01 -7.627388e-01
89 1 2 1.764452e+01 6.366155e+00 1.470621e+01 -1 -1 1 1.802689e-01 -1.478739e-02 3.406941e-01 -9.226115e-01
90 1 3 1.740001e+01 6.380659e+00 1.517198e+01 -1 -1 1 -6.232691e-01 -1.336596e-01 -1.855240e-01 7.478312e-01
91 1 3 1.746932e+01 7.713404e+00 1.489732e+01 -1 -1 1 1.409648e-01 -8.200070e-01 -3.025806e-01 4.649328e-01
92 1 2 1.707025e+01 7.963910e+00 1.465257e+01 -1 -1 1 4.736375e-02 -9.224062e-01 -6.244162e-02 3.781857e-01
93 1 1 1.683126e+01 8.539881e+00 1.453847e+01 -1 -1 1 4.298347e-01 6.974307e-01 5.342129e-01 -2.084443e-01
94 1 2 1.765078e+01 8.750324e+00 1.548441e+01 -1 -1 1 -6.961030e-01 6.286537e-01 1.675135e-01 3.036023e-01
95 1 3 1.808656e+01 8.505173e+00 1.488337e+01 -1 -1 1 -7.674333e-01 -1.388268e-02 -2.715756e-01 5.806033e-01
96 1 2 1.817306e+01 9.741869e+00 1.499878e+01 -1 -1 1 1.267888e-03 5.106159e-01 8.042282e-01 3.041164e-01
97 1 2 1.806198e+01 9.968629e+00 1.461331e+01 -1 -1 1 -1.551445e-01 7.594724e-01 5.446362e-01 3.201613e-01
98 1 4 1.926509e+01 1.009629e+01 1.427152e+01 -1 -1 1 7.440082e-01 -1.722798e-01 -1.262139e-01 6.331205e-01
99 1 2 1.865839e+01 1.029683e+01 1.304105e+01 -1 -1 1 3.741661e-01 5.836902e-01 6.156640e-01 3.745174e-01
100 1 1 1.885423e+01 1.053662e+01 1.264779e+01 -1 -1 1 6.999176e-02 8.457708e-01 2.666438e-01 4.568086e-01
101 2 4 -5.968396e+00 1.900841e+01 9.926263e+00 0 -1 1 1.346949e-01 3.359009e-01 6.096797e-01 -7.052081e-01
102 2 3 -4.740897e+00 1.815323e+01 1.031227e+01 0 -1 1 1.981793e-01 -8.273064e-01 3.786227e-01 -3.646011e-01
103 2 1 -5.159864e+00 1.781015e+01 9.764949e+00 0 -1 1 1.000397e-01 3.716608e-01 4.832231e-01 -7.863560e-01
104 2 3 -5.713330e+00 1.746618e+01 9.795587e+00 0 -1 1 -3.471071e-01 -6.239951e-01 -3.696810e-01 5.945442e-01
105 2 3 -5.656958e+00 1.699556e+01 1.099192e+01 0 -1 1 -5.383228e-01 5.718590e-01 -5.211953e-01 3.339781e-01
106 2 2 -5.046322e+00 1.703433e+01 1.097697e+01 0 -1 1 -4.373556e-01 4.626574e-01 -7.044547e-01 3.137065e-01
107 2 3 -4.608613e+00 1.675934e+01 1.082311e+01 0 -1 1 4.414671e-01 -1.349574e-01 8.407525e-01 -2.828931e-01
108 2 4 -4.417447e+00 1.631338e+01 1.061264e+01 0 -1 1 5.042960e-01 2.952485e-01 8.068787e-01 8.637550e-02
109 2 3 -4.236680e+00 1.614411e+01 1.014650e+01 0 -1 1 4.209908e-01 6.122951e-01 5.917290e-01 3.125991e-01
110 2 2 -4.027417e+00 1.615568e+01 9.686262e+00 0 -1 1 2.511848e-01 8.043532e-01 2.414017e-01 4.812976e-01
111 2 2 -5.093038e+00 1.553785e+01 8.870909e+00 0 -1 1 3.117278e-01 1.447014e-01 -2.480887e-01 -9.057258e-01
112 2 3 -5.585053e+00 1.567183e+01 8.993786e+00 0 -1 1 7.019941e-01 5.484977e-02 -3.553912e-01 -6.147300e-01
113 2 3 -5.950623e+00 1.586189e+01 9.389289e+00 0 -1 1 8.703466e-01 3.390572e-02 -1.817817e-01 -4.564018e-01
114 2 2 -6.209637e+00 1.567718e+01 9.708270e+00 0 -1 1 9.732319e-01 -9.877128e-03 -2.294299e-01 -9.167958e-03
115 2 4 -6.478805e+00 1.551701e+01 1.014555e+01 0 -1 1 9.335746e-01 -1.518390e-01 -1.115629e-01 3.048558e-01
116 2 4 -5.800930e+00 1.561085e+01 1.051247e+01 0 -1 1 6.632111e-01 3.808498e-01 -3.151702e-01 5.619362e-01
117 2 1 -5.498200e+00 1.522240e+01 1.077677e+01 0 -1 1 3.929889e-01 1.998415e-01 -4.927968e-01 7.501829e-01
118 2 1 -6.107637e+00 1.483941e+01 1.026453e+01 0 -1 1 8.813030e-02 7.759906e-01 2.373706e-01 -5.776909e-01
119 2 1 -6.547993e+00 1.428394e+01 1.021916e+01 0 -1 1 3.774543e-02 8.500658e-01 -2.157215e-01 -4.789861e-01
120 2 1 -7.404827e+00 1.377995e+01 1.141130e+01 0 -1 1 1.398173e-01 -2.249545e-01 -9.630788e-01 -4.822576e-02
121 2 3 -7.720922e+00 1.365769e+01 1.098132e+01 0 -1 1 1.064102e-01 -5.726075e-01 -8.095798e-01 -7.333543e-02
122 2 1 -8.082515e+00 1.369512e+01 1.077883e+01 0 -1 1 1.044040e-02 8.353237e-01 5.483864e-01 -3.738666e-02
123 2 4 -8.314524e+00 1.391964e+01 1.039823e+01 0 -1 1 -5.588394e-02 -9.962564e-01 -4.438384e-02 4.878744e-02
124 2 1 -8.779879e+00 1.302235e+01 1.056008e+01 0 -1 1 -8.385360e-01 5.083183e-01 -8.904020e-03 -1.959349e-01
125 2 4 -8.709377e+00 1.259322e+01 1.018929e+01 0 -1 1 4.008418e-01 7.470433e-01 -1.987552e-01 4.916792e-01
126 2 2 -9.997901e+00 1.246527e+01 1.000371e+01 0 -1 1 -1.856691e-01 7.163719e-01 5.458522e-01 -3.929168e-01
127 2 4 -9.995112e+00 1.108351e+01 9.537802e+00 0 -1 1 6.719218e-01 -4.964483e-01 5.484815e-01 -3.504704e-02
128 2 4 -1.112299e+01 1.073268e+01 9.604250e+00 0 -1 1 2.212001e-01 -3.075081e-01 5.957655e-01 -7.082180e-01
129 2 1 -1.099162e+01 1.048172e+01 8.490422e+00 0 -1 1 1.731845e-01 1.432811e-02 -9.814232e-01 -8.130338e-02
130 2 2 -1.112347e+01 1.026315e+01 8.093538e+00 0 -1 1 1.819654e-01 -3.095391e-01 -9.199577e-01 1.573277e-01
131 2 3 -1.139289e+01 9.939169e+00 7.821970e+00 0 -1 1 -6.018163e-02 5.546516e-01 8.069600e-01 -1.937919e-01
132 2 4 -1.165086e+01 9.056592e+00 8.484947e+00 0 -1 1 1.199798e-01 -1.667688e-03 9.521456e-01 -2.811064e-01
133 2 4 -1.178407e+01 8.606968e+00 8.273734e+00 0 -1 1 2.656487e-01 4.809011e-01 8.196049e-01 -1.625197e-01
134 2 3 -1.196561e+01 8.354378e+00 7.932181e+00 0 -1 1 2.654244e-01 7.927756e-01 5.407308e-01 -9.309702e-02
135 2 4 -1.198558e+01 8.273272e+00 7.336023e+00 0 -1 1 -1.252087e-01 -9.669447e-01 -2.127508e-01 -6.385715e-02
136 2 3 -1.196725e+01 8.474762e+00 6.911758e+00 0 -1 1 4.162414e-02 9.583721e-01 -2.610938e-01 1.077977e-01
137 2 1 -1.296632e+01 8.191678e+00 7.064377e+00 0 -1 1 2.939530e-01 3.803506e-01 -6.334293e-01 -6.063765e-01
138 2 3 -1.365812e+01 8.466652e+00 7.017858e+00 0 -1 1 6.196237e-01 1.159828e-01 -5.334554e-01 -5.639502e-01
139 2 2 -1.413737e+01 8.356095e+00 7.106663e+00 0 -1 1 -8.186898e-01 2.450310e-01 5.100867e-01 9.756228e-02
140 2 3 -1.492423e+01 8.370139e+00 6.627996e+00 0 -1 1 5.515721e-01 2.614198e-01 -7.350793e-01 -2.951040e-01
141 2 1 -1.533431e+01 8.140991e+00 6.371509e+00 0 -1 1 6.316235e-01 -6.272889e-03 -7.713945e-01 -7.722041e-02
142 2 2 -1.580418e+01 7.942226e+00 6.321861e+00 0 -1 1 -6.990126e-01 1.271565e-01 6.989736e-01 -8.153804e-02
143 2 4 -1.624689e+01 7.744356e+00 6.419856e+00 0 -1 1 -6.284151e-01 2.858824e-01 6.451360e-01 -3.273610e-01
144 2 4 -1.673340e+01 7.660455e+00 6.676144e+00 0 -1 1 -5.132185e-01 5.312577e-01 4.893033e-01 -4.636318e-01
145 2 1 -1.709470e+01 7.753781e+00 6.965256e+00 0 -1 1 3.954625e-01 -6.011921e-01 -2.899483e-01 6.309576e-01
146 2 1 -1.752162e+01 7.986494e+00 7.168958e+00 0 -1 1 -2.616697e-01 7.210829e-01 1.098869e-01 -6.320549e-01
147 2 1 -1.787300e+01 8.380541e+00 7.167095e+00 0 -1 1 4.799253e-02 -7.195311e-01 1.393173e-01 6.786475e-01
148 2 2 -1.832702e+01 8.689610e+00 6.940484e+00 0 -1 1 3.455516e-01 6.655402e-01 -3.134983e-01 -5.825539e-01
149 2 4 -1.880008e+01 8.618333e+00 6.718861e+00 0 -1 1 -2.582138e-01 -7.899421e-01 3.446998e-01 4.364622e-01
150 2 1 -1.914321e+01 8.655032e+00 6.288459e+00 0 -1 1 -5.002008e-01 -5.631575e-01 5.616909e-01 3.422809e-01
151 2 1 -1.954642e+01 8.557520e+00 6.029003e+00 0 -1 1 -6.090437e-01 -4.557728e-01 6.412806e-01 1.004795e-01
152 2 1 -1.970538e+01 8.114085e+00 5.840926e+00 0 -1 1 -5.917299e-01 -2.693129e-01 7.361832e-01 -1.880440e-01
153 2 4 -1.995075e+01 7.698106e+00 5.701626e+00 0 -1 1 -5.940500e-01 -2.925268e-01 6.552829e-01 -3.635067e-01
154 2 1 -1.986666e+01 7.254026e+00 5.865273e+00 0 -1 1 -3.805288e-01 -2.026570e-01 6.384188e-01 -6.376122e-01
155 2 2 -1.982570e+01 6.775686e+00 6.234336e+00 0 -1 1 -2.441700e-01 1.034984e-02 6.114491e-01 -7.525981e-01
156 2 4 -1.988099e+01 6.432214e+00 6.565778e+00 0 -1 1 -5.274874e-02 1.589890e-01 4.812566e-01 -8.604256e-01
157 2 3 1.981755e+01 6.184494e+00 7.044561e+00 -1 -1 1 1.246725e-01 3.477744e-01 5.089900e-01 -7.774567e-01
158 2 2 1.942365e+01 5.863725e+00 7.251989e+00 -1 -1 1 3.381111e-01 5.402698e-01 3.627695e-01 -6.798439e-01
159 2 1 1.897544e+01 5.644487e+00 7.255372e+00 -1 -1 1 4.600761e-01 6.729381e-01 1.682971e-01 -5.542206e-01
160 2 3 1.856617e+01 5.344055e+00 7.149371e+00 -1 -1 1 -5.715848e-01 -7.290495e-01 -4.307465e-02 3.740619e-01
161 2 1 1.830132e+01 4.910601e+00 6.834639e+00 -1 -1 1 -6.808186e-01 -7.137617e-01 1.300639e-01 1.005666e-01
162 2 1 1.823750e+01 4.457839e+00 6.502447e+00 -1 -1 1 -6.842873e-01 -6.412037e-01 3.168420e-01 -1.421964e-01
163 2 4 1.838786e+01 4.022809e+00 6.371687e+00 -1 -1 1 -6.116948e-01 -5.156474e-01 4.848857e-01 -3.533031e-01
164 2 4 1.848907e+01 3.488030e+00 6.328739e+00 -1 -1 1 -5.156556e-01 -3.333287e-01 5.452604e-01 -5.706859e-01
165 2 3 1.869499e+01 3.084546e+00 6.653229e+00 -1 -1 1 -3.391981e-01 -1.400252e-01 5.778943e-01 -7.289552e-01
166 2 3 1.875675e+01 2.683752e+00 6.971186e+00 -1 -1 1 -2.084418e-01 3.207043e-02 4.649625e-01 -8.598450e-01
167 2 4 1.867060e+01 2.506673e+00 7.475301e+00 -1 -1 1 1.078880e-01 1.992628e-01 4.606966e-01 -8.581452e-01
168 2 2 1.844519e+01 2.219376e+00 7.830349e+00 -1 -1 1 1.856452e-01 3.209150e-01 3.411165e-01 -8.638223e-01
169 2 2 1.795918e+01 2.174908e+00 8.043110e+00 -1 -1 1 4.587840e-01 4.168500e-01 1.705718e-01 -7.659364e-01
170 2 1 1.743652e+01 1.936284e+00 8.189351e+00 -1 -1 1 6.409157e-01 5.082877e-01 9.723342e-02 -5.669360e-01
171 2 1 1.701767e+01 1.516338e+00 8.112046e+00 -1 -1 1 -8.603757e-01 -4.414006e-01 2.013598e-02 2.539955e-01
172 2 4 1.686794e+01 9.972395e-01 8.102311e+00 -1 -1 1 -8.551717e-01 -5.012122e-01 1.318814e-01 8.660452e-03
173 2 4 1.682966e+01 4.994361e-01 8.193472e+00 -1 -1 1 -8.098508e-01 -4.365939e-01 2.577334e-01 -2.951287e-01
174 2 1 1.707098e+01 -2.709889e-02 8.322618e+00 -1 -1 1 -6.390614e-01 -3.933685e-01 2.774918e-01 -5.998833e-01
175 2 1 1.738506e+01 -3.967527e-01 8.573271e+00 -1 -1 1 -4.674585e-01 -2.602649e-01 3.426606e-01 -7.722231e-01
176 2 2 1.757219e+01 -5.962889e-01 8.934386e+00 -1 -1 1 -2.569153e-01 -1.212422e-01 4.004252e-01 -8.711800e-01
177 2 2 1.761409e+01 -6.274270e-01 9.461691e+00 -1 -1 1 9.688684e-02 7.104001e-03 3.816865e-01 -9.191724e-01
178 2 1 1.748899e+01 -8.469610e-01 9.968726e+00 -1 -1 1 2.433577e-01 1.901587e-01 3.743505e-01 -8.743446e-01
179 2 4 1.708116e+01 -9.121635e-01 1.034369e+01 -1 -1 1 5.452315e-01 3.086635e-01 2.463151e-01 -7.394446e-01
180 2 1 1.671251e+01 -1.249541e+00 1.069829e+01 -1 -1 1 6.658377e-01 4.304037e-01 2.353916e-01 -5.621419e-01
181 2 4 1.640825e+01 -1.849182e+00 1.081557e+01 -1 -1 1 -8.875409e-01 -3.260371e-01 -2.422044e-01 2.175043e-01
182 2 2 1.646895e+01 -2.391221e+00 1.094959e+01 -1 -1 1 -8.521977e-01 -4.789471e-01 -1.925644e-01 -8.536814e-02
183 2 3 1.678404e+01 -2.844163e+00 1.098256e+01 -1 -1 1 -7.505561e-01 -5.261789e-01 -1.111112e-01 -3.839995e-01
184 2 4 1.724877e+01 -3.103117e+00 1.090063e+01 -1 -1 1 -6.046719e-01 -5.079225e-01 8.380944e-02 -6.077521e-01
185 2 3 1.768811e+01 -3.296227e+00 1.103677e+01 -1 -1 1 3.518674e-01 4.904984e-01 -1.329879e-01 7.860757e-01
186 2 1 1.825766e+01 -3.174280e+00 1.135611e+01 -1 -1 1 1.542485e-01 4.100294e-01 -2.396526e-01 8.664006e-01
187 2 1 1.862235e+01 -3.027621e+00 1.179435e+01 -1 -1 1 1.236577e-01 -3.660511e-01 2.830499e-01 -8.778372e-01
188 2 2 1.892234e+01 -3.030818e+00 1.224158e+01 -1 -1 1 -3.360069e-01 1.753372e-01 -3.806624e-01 8.434764e-01
189 2 4 1.896889e+01 -3.196071e+00 1.275847e+01 -1 -1 1 -5.380711e-01 1.104640e-02 -4.496989e-01 7.128312e-01
190 2 4 1.886986e+01 -3.543241e+00 1.315108e+01 -1 -1 1 7.736272e-01 1.004905e-01 4.013824e-01 -4.798904e-01
191 2 1 1.893346e+01 -4.047160e+00 1.344259e+01 -1 -1 1 8.222142e-01 2.351278e-01 4.144111e-01 -3.113555e-01
192 2 4 1.907766e+01 -4.595705e+00 1.345456e+01 -1 -1 1 -8.186639e-01 -4.511518e-01 -3.517829e-01 5.000226e-02
193 2 4 1.930958e+01 -5.085468e+00 1.340740e+01 -1 -1 1 7.335573e-01 5.926308e-01 3.251451e-01 7.044999e-02
194 2 1 1.951905e+01 -5.386181e+00 1.309002e+01 -1 -1 1 -6.081565e-01 -7.199209e-01 -5.216584e-02 -3.303609e-01
195 2 3 1.990940e+01 -5.705425e+00 1.287298e+01 -1 -1 1 -5.026885e-01 -6.971199e-01 3.346194e-02 -5.101062e-01
196 2 4 -1.958397e+01 -5.817668e+00 1.276451e+01 0 -1 1 2.856084e-01 6.261130e-01 -2.214117e-01 6.909321e-01
197 2 2 -1.905303e+01 -5.830892e+00 1.285656e+01 0 -1 1 -6.824537e-02 -5.264584e-01 3.645917e-01 -7.650209e-01
198 2 4 -1.865566e+01 -5.912614e+00 1.318898e+01 0 -1 1 2.964439e-01 -2.983816e-01 5.782000e-01 -6.991239e-01
199 2 3 -1.758590e+01 -5.286311e+00 1.316446e+01 0 -1 1 -7.411085e-01 6.541208e-01 8.712756e-02 1.236650e-01
200 2 4 -1.751562e+01 -4.966658e+00 1.350483e+01 0 -1 1 8.623939e-01 -4.950727e-01 7.074142e-02 -7.858335e-02
