ITEM: TIMESTEP
262000000
ITEM: NUMBER OF ATOMS
200
ITEM: BOX BOUNDS pp pp pp
-2.0000000000000000e+01 2.0000000000000000e+01
-2.0000000000000000e+01 2.0000000000000000e+01
-2.0000000000000000e+01 2.0000000000000000e+01
ITEM: ATOMS id mol type x y z ix iy iz c_quat[1] c_quat[2] c_quat[3] c_quat[4]
1 1 1 4.852224e+00 -1.221196e+01 -1.116711e+01 -1 0 2 -8.711862e-01 -2.513566e-01 -4.216462e-01 8.304227e-03
2 1 2 5.023156e+00 -1.260036e+01 -9.965768e+00 -1 0 2 -7.851248e-02 7.209220e-01 -6.861302e-01 5.772871e-02
3 1 1 5.361141e+00 -1.268681e+01 -1.041239e+01 -1 0 2 1.202517e-02 -4.174620e-01 9.044312e-01 -8.709299e-02
4 1 3 5.543736e+00 -1.295121e+01 -1.089007e+01 -1 0 2 1.187852e-01 2.166539e-01 -9.598292e-01 1.329630e-01
5 1 1 5.480633e+00 -1.331539e+01 -1.120175e+01 -1 0 2 1.393352e-01 -1.880373e-01 -9.566125e-01 1.735515e-01
6 1 2 5.118673e+00 -1.364744e+01 -1.146694e+01 -1 0 2 1.052736e-01 -4.639265e-01 -8.237978e-01 3.082968e-01
7 1 4 4.783554e+00 -1.384055e+01 -1.193010e+01 -1 0 2 2.427107e-01 -5.836747e-01 -7.564614e-01 1.678733e-01
8 1 1 4.279183e+00 -1.368295e+01 -1.202875e+01 -1 0 2 -1.702101e-01 8.376286e-01 4.143776e-01 -3.125668e-01
9 1 1 3.886737e+00 -1.349022e+01 -1.247688e+01 -1 0 2 -2.350073e-02 -9.841487e-01 -1.431415e-01 1.020277e-01
10 1 4 3.780543e+00 -1.321355e+01 -1.286148e+01 -1 0 2 -7.459411e-02 9.874688e-01 -1.087858e-01 -8.664160e-02
11 1 1 3.863927e+00 -1.291936e+01 -1.329934e+01 -1 0 2 1.172384e-01 8.992059e-01 -4.177148e-01 -5.655296e-02
12 1 1 4.060041e+00 -1.281019e+01 -1.376362e+01 -1 0 2 -1.245853e-01 -7.130964e-01 6.893701e-01 2.721875e-02
13 1 3 4.259073e+00 -1.303371e+01 -1.431733e+01 -1 0 2 1.301459e-01 5.157076e-01 -8.255538e-01 1.885967e-01
14 1 4 4.467973e+00 -1.336815e+01 -1.462788e+01 -1 0 2 -6.292799e-02 -1.948868e-01 9.442431e-01 -2.578064e-01
15 1 4 4.573710e+00 -1.379389e+01 -1.490299e+01 -1 0 2 -5.964873e-03 2.026839e-02 9.447989e-01 -3.269689e-01
16 1 2 4.577223e+00 -1.425704e+01 -1.517873e+01 -1 0 2 3.259570e-02 -2.097702e-01 -9.034387e-01 3.724680e-01
17 1 1 4.345448e+00 -1.474727e+01 -1.529704e+01 -1 0 2 -7.336917e-02 -4.176163e-01 -7.882380e-01 4.459759e-01
18 1 2 3.979060e+00 -1.507041e+01 -1.550790e+01 -1 0 2 1.502341e-01 6.976994e-01 6.210106e-01 -3.240233e-01
19 1 3 3.564094e+00 -1.527026e+01 -1.587118e+01 -1 0 2 3.168398e-01 8.512141e-01 3.914093e-01 -1.478036e-01
20 1 1 3.456087e+00 -1.540240e+01 -1.637357e+01 -1 0 2 2.255844e-01 9.615844e-01 1.563313e-01 5.250488e-03
21 1 4 3.531791e+00 -1.539696e+01 -1.700755e+01 -1 0 2 -2.367618e-01 -9.526324e-01 8.258887e-02 -1.720885e-01
22 1 1 3.848290e+00 -1.519604e+01 -1.736341e+01 -1 0 2 -2.937172e-03 -8.761328e-01 4.221228e-01 -2.327983e-01
23 1 4 4.338684e+00 -1.526388e+01 -1.770574e+01 -1 0 2 1.582087e-02 -7.059686e-01 6.179615e-01 -3.456610e-01
24 1 3 4.840582e+00 -1.550010e+01 -1.777240e+01 -1 0 2 1.740126e-01 -4.476312e-01 7.875517e-01 -3.861453e-01
25 1 3 5.204451e+00 -1.578827e+01 -1.790318e+01 -1 0 2 2.069799e-01 -1.922724e-01 8.843538e-01 -3.716301e-01
26 1 4 5.368457e+00 -1.628234e+01 -1.797880e+01 -1 0 2 2.972940e-01 1.243407e-01 8.606419e-01 -3.942730e-01
27 1 4 5.356426e+00 -1.682646e+01 -1.811969e+01 -1 0 2 3.911208e-01 4.379575e-01 7.830444e-01 -2.050835e-01
28 1 1 5.444589e+00 -1.727331e+01 -1.848667e+01 -1 0 2 3.203823e-01 5.633293e-01 7.555479e-01 -9.572209e-02
29 1 1 5.322811e+00 -1.751385e+01 -1.890414e+01 -1 0 2 3.367988e-01 7.956785e-01 4.967492e-01 8.186966e-02
30 1 4 5.316703e+00 -1.758291e+01 -1.937047e+01 -1 0 2 -3.311893e-01 -8.958074e-01 -2.447283e-01 -1.671851e-01
31 1 4 5.583562e+00 -1.745469e+01 2.018535e+01 -1 0 1 -2.323808e-01 -9.422320e-01 4.240757e-02 -2.374859e-01
32 1 3 5.950539e+00 -1.754279e+01 1.978167e+01 -1 0 1 -1.588356e-01 -8.827151e-01 2.225658e-01 -3.821645e-01
33 1 3 6.259061e+00 -1.744292e+01 1.953419e+01 -1 0 1 -1.368458e-02 -8.302550e-01 3.816497e-01 -4.059962e-01
34 1 1 6.756428e+00 -1.743656e+01 1.940514e+01 -1 0 1 1.391513e-01 -6.928619e-01 5.603328e-01 -4.319797e-01
35 1 2 7.451422e+00 -1.775433e+01 1.941722e+01 -1 0 1 1.721979e-01 -5.333610e-01 7.462278e-01 -3.591909e-01
36 1 2 7.780677e+00 -1.815793e+01 1.939447e+01 -1 0 1 2.825719e-01 -1.166609e-01 8.889666e-01 -3.410011e-01
37 1 1 7.915272e+00 -1.862717e+01 1.928371e+01 -1 0 1 3.245218e-01 8.841192e-02 9.045410e-01 -2.620583e-01
38 1 1 7.917781e+00 -1.914452e+01 1.910092e+01 -1 0 1 3.630369e-01 3.244407e-01 8.405808e-01 -2.374161e-01
39 1 4 7.909141e+00 -1.956104e+01 1.878813e+01 -1 0 1 -3.838016e-01 -5.818954e-01 -7.143858e-01 6.121267e-02
40 1 4 7.869409e+00 -1.974875e+01 1.837658e+01 -1 0 1 -4.127133e-01 -7.798489e-01 -4.680681e-01 -4.914981e-02
41 1 2 7.988259e+00 -2.003778e+01 1.790388e+01 -1 0 1 -3.497803e-01 -8.511483e-01 -3.628227e-01 -1.468331e-01
42 1 4 8.002708e+00 -2.001726e+01 1.742359e+01 -1 0 1 2.983304e-01 9.252697e-01 -6.547654e-03 2.341626e-01
43 1 3 8.296641e+00 -1.994311e+01 1.695512e+01 -1 0 1 -1.775211e-01 -9.022054e-01 2.025534e-01 -3.368736e-01
44 1 2 8.703559e+00 -2.002486e+01 1.653285e+01 -1 0 1 -1.341778e-01 -8.048799e-01 4.035974e-01 -4.138524e-01
45 1 1 9.241999e+00 1.988072e+01 1.634811e+01 -1 -1 1 -2.421811e-02 -6.166079e-01 6.594307e-01 -4.293709e-01
46 1 3 9.696310e+00 1.959283e+01 1.627337e+01 -1 -1 1 1.226295e-01 -3.214000e-01 8.497758e-01 -3.994310e-01
47 1 4 9.954188e+00 1.917925e+01 1.615451e+01 -1 -1 1 1.790672e-01 -4.594631e-02 8.740829e-01 -4.492249e-01
48 1 1 1.009720e+01 1.864822e+01 1.602199e+01 -1 -1 1 -1.399980e-01 -1.522342e-01 -8.774962e-01 4.326960e-01
49 1 4 1.000920e+01 1.817324e+01 1.598185e+01 -1 -1 1 -3.395423e-01 -4.240266e-01 -7.951643e-01 2.694925e-01
50 1 4 9.894665e+00 1.777624e+01 1.562361e+01 -1 -1 1 -3.250797e-01 -6.644502e-01 -6.561196e-01 1.494529e-01
51 1 4 9.721732e+00 1.754077e+01 1.520335e+01 -1 -1 1 -2.889526e-01 -8.128445e-01 -4.908981e-01 1.216933e-01
52 1 1 9.539135e+00 1.751614e+01 1.475674e+01 -1 -1 1 -2.614462e-01 -9.507719e-01 -1.512004e-01 6.940594e-02
53 1 3 9.554557e+00 1.751902e+01 1.416747e+01 -1 -1 1 3.179678e-01 9.427963e-01 -5.146337e-02 8.592562e-02
54 1 4 9.701003e+00 1.744233e+01 1.368858e+01 -1 -1 1 3.163693e-01 8.497166e-01 -3.687031e-01 2.048173e-01
55 1 4 1.005388e+01 1.733223e+01 1.340432e+01 -1 -1 1 1.211715e-01 7.229286e-01 -5.935381e-01 3.322712e-01
56 1 4 1.051146e+01 1.701501e+01 1.314596e+01 -1 -1 1 -6.936930e-02 -4.647993e-01 7.850319e-01 -4.035771e-01
57 1 1 1.065916e+01 1.651047e+01 1.293522e+01 -1 -1 1 -6.786706e-02 -1.595013e-01 9.150352e-01 -3.642306e-01
58 1 1 1.064765e+01 1.597305e+01 1.294055e+01 -1 -1 1 -8.964200e-02 -1.118709e-01 -8.620595e-01 4.861098e-01
59 1 3 1.036897e+01 1.555151e+01 1.286309e+01 -1 -1 1 1.991409e-01 4.181511e-01 7.284947e-01 -5.047653e-01
60 1 4 1.004997e+01 1.517778e+01 1.276006e+01 -1 -1 1 -2.050148e-01 -5.996924e-01 -6.464065e-01 4.248490e-01
61 1 2 9.645197e+00 1.486288e+01 1.250396e+01 -1 -1 1 2.630890e-01 8.189402e-01 3.996170e-01 -3.169029e-01
62 1 3 9.330832e+00 1.472780e+01 1.204411e+01 -1 -1 1 -3.385392e-01 -9.336741e-01 -6.718651e-02 9.555030e-02
63 1 2 9.643370e+00 1.360368e+01 1.246122e+01 -1 -1 1 2.780538e-01 6.950149e-01 -5.804617e-01 -3.204757e-01
64 1 4 9.794479e+00 1.355211e+01 1.268313e+01 -1 -1 1 4.010862e-01 -6.853868e-01 8.684677e-02 6.015251e-01
65 1 2 9.142219e+00 1.224441e+01 1.237366e+01 -1 -1 1 7.977129e-01 -3.459907e-02 4.218238e-01 -4.295599e-01
66 1 1 9.034982e+00 1.177366e+01 1.262490e+01 -1 -1 1 -9.808286e-01 -7.808808e-02 -1.748725e-01 -3.601449e-02
67 1 2 9.284235e+00 1.114489e+01 1.289182e+01 -1 -1 1 -9.460221e-01 -2.810664e-01 -1.002030e-01 -1.265035e-01
68 1 1 9.601832e+00 1.077376e+01 1.298132e+01 -1 -1 1 7.965889e-01 4.632213e-01 1.075807e-01 3.732271e-01
69 1 1 1.009741e+01 1.062556e+01 1.306359e+01 -1 -1 1 5.921637e-01 3.550750e-01 -1.977522e-01 6.958146e-01
70 1 2 1.045803e+01 1.054931e+01 1.335523e+01 -1 -1 1 -1.959917e-01 -2.806270e-01 3.203506e-01 -8.832957e-01
71 1 3 1.054454e+01 1.034043e+01 1.388513e+01 -1 -1 1 1.924140e-01 -5.133174e-02 4.628070e-01 -8.638006e-01
72 1 4 1.066592e+01 1.007987e+01 1.442074e+01 -1 -1 1 3.121292e-01 3.646047e-02 4.383747e-01 -8.420651e-01
73 1 1 1.042556e+01 9.838866e+00 1.484051e+01 -1 -1 1 -7.150387e-01 -7.718114e-02 -4.935986e-01 4.890022e-01
74 1 1 1.051791e+01 9.313512e+00 1.499394e+01 -1 -1 1 7.512790e-01 3.875751e-01 4.549885e-01 -2.799124e-01
75 1 3 1.066954e+01 9.982255e+00 1.568183e+01 -1 -1 1 1.939874e-01 -8.505636e-01 4.842686e-01 -6.628995e-02
76 1 1 1.018120e+01 1.047486e+01 1.545928e+01 -1 -1 1 -4.815033e-02 1.814841e-01 -9.563694e-01 -2.238362e-01
77 1 4 1.072996e+01 1.120863e+01 1.549649e+01 -1 -1 1 -8.155081e-01 3.610486e-01 -4.345151e-01 1.256462e-01
78 1 1 9.809523e+00 1.220413e+01 1.504405e+01 -1 -1 1 -1.539240e-01 -6.527126e-01 -4.455070e-01 -5.931250e-01
79 1 4 1.017886e+01 1.255947e+01 1.487149e+01 -1 -1 1 -5.902303e-02 6.785412e-01 3.032708e-01 6.664270e-01
80 1 2 1.036590e+01 1.298887e+01 1.484960e+01 -1 -1 1 4.150290e-01 -7.481657e-01 -3.334948e-02 -5.166109e-01
81 1 4 1.064765e+01 1.332356e+01 1.502049e+01 -1 -1 1 6.072966e-01 -6.750042e-01 3.138127e-01 -2.776361e-01
82 1 4 1.124338e+01 1.338367e+01 1.515619e+01 -1 -1 1 6.128560e-01 -5.443877e-01 5.715946e-01 -3.645601e-02
83 1 4 1.119171e+01 1.409318e+01 1.633617e+01 -1 -1 1 1.439249e-01 2.995716e-01 -6.162290e-01 7.140059e-01
84 1 4 1.189490e+01 1.471557e+01 1.628516e+01 -1 -1 1 -6.667073e-01 1.867549e-01 -2.275055e-01 -6.847374e-01
85 1 1 1.200164e+01 1.462983e+01 1.647356e+01 -1 -1 1 5.556339e-01 -6.055749e-01 -3.335779e-01 -4.618179e-01
86 1 1 1.264982e+01 1.401218e+01 1.672812e+01 -1 -1 1 8.214733e-01 -4.706660e-01 1.480408e-01 2.859002e-01
87 1 3 1.212603e+01 1.330394e+01 1.584508e+01 -1 -1 1 -9.474229e-01 -1.087007e-01 -3.006239e-01 -1.411629e-02
88 1 2 1.243512e+01 1.299055e+01 1.608898e+01 -1 -1 1 -8.211940e-01 -2.412560e-01 -2.350514e-01 -4.606375e-01
89 1 2 1.307340e+01 1.238671e+01 1.644109e+01 -1 -1 1 1.869693e-01 -6.217191e-01 7.452910e-01 -1.518194e-01
90 1 3 1.354208e+01 1.186847e+01 1.589019e+01 -1 -1 1 -6.060185e-01 2.078088e-01 -6.922059e-01 -3.322772e-01
91 1 3 1.387863e+01 1.277609e+01 1.645332e+01 -1 -1 1 2.181942e-01 9.148453e-01 1.870504e-01 -2.836573e-01
92 1 2 1.337509e+01 1.202128e+01 1.692803e+01 -1 -1 1 -9.510795e-01 -2.137770e-01 2.134625e-01 -6.466088e-02
93 1 1 1.354514e+01 1.219979e+01 1.798786e+01 -1 -1 1 -4.185058e-01 8.586744e-01 -2.530581e-01 1.532738e-01
94 1 2 1.384557e+01 1.254305e+01 1.801331e+01 -1 -1 1 4.683112e-01 -6.583171e-01 5.773260e-01 1.183127e-01
95 1 3 1.422438e+01 1.276858e+01 1.802124e+01 -1 -1 1 -5.333835e-01 2.859501e-01 -7.369283e-01 -3.011167e-01
96 1 2 1.493834e+01 1.310171e+01 1.812652e+01 -1 -1 1 4.560575e-01 -3.932566e-01 4.505686e-01 6.590514e-01
97 1 2 1.570934e+01 1.361618e+01 1.871914e+01 -1 -1 1 3.198072e-01 7.399583e-01 1.191075e-01 5.796538e-01
98 1 4 1.636556e+01 1.309855e+01 1.955932e+01 -1 -1 1 -7.835770e-01 -2.106412e-01 3.748916e-01 -4.484347e-01
99 1 2 1.647938e+01 1.274487e+01 1.977815e+01 -1 -1 1 -3.976561e-01 8.209673e-03 5.812624e-01 -7.098847e-01
100 1 1 1.674686e+01 1.173579e+01 1.963549e+01 -1 -1 1 5.554572e-01 -2.409401e-01 -7.724843e-01 -1.915286e-01
101 2 4 3.927977e+00 1.353761e+01 1.329469e+01 -1 -1 1 -4.753706e-01 5.288867e-01 -6.052161e-01 3.577920e-01
102 2 3 3.554531e+00 1.440001e+01 1.233858e+01 -1 -1 1 -1.246766e-01 6.046226e-01 -5.838434e-01 -5.272705e-01
103 2 1 3.214011e+00 1.380674e+01 1.272695e+01 -1 -1 1 -4.255633e-01 3.695618e-01 8.259104e-01 -1.385105e-02
104 2 3 2.696994e+00 1.394919e+01 1.259688e+01 -1 -1 1 -4.505091e-01 6.553148e-01 6.029496e-01 -6.368490e-02
105 2 3 2.337601e+00 1.417368e+01 1.246823e+01 -1 -1 1 -3.898857e-01 8.370881e-01 3.280994e-01 -1.990564e-01
106 2 2 2.060791e+00 1.455261e+01 1.232714e+01 -1 -1 1 -3.212674e-01 9.127982e-01 1.861107e-02 -2.514762e-01
107 2 3 9.618464e-01 1.480197e+01 1.194754e+01 -1 -1 1 -3.343259e-01 6.058805e-01 7.201607e-01 5.003557e-02
108 2 4 5.621555e-01 1.480408e+01 1.127561e+01 -1 -1 1 -7.446365e-01 -5.099187e-01 -2.907741e-01 3.177259e-01
109 2 3 5.392009e-01 1.431935e+01 1.118386e+01 -1 -1 1 -8.395009e-01 -5.196918e-01 6.257362e-02 -1.457506e-01
110 2 2 8.467672e-01 1.431709e+01 1.066361e+01 -1 -1 1 -3.915448e-01 8.162778e-01 -3.802807e-01 -1.891292e-01
111 2 2 1.096826e+00 1.469026e+01 1.026764e+01 -1 -1 1 -1.600828e-01 6.570812e-01 -6.899873e-01 -2.579445e-01
112 2 3 1.790048e+00 1.523729e+01 1.070852e+01 -1 -1 1 -5.410841e-01 -2.763093e-01 2.780034e-01 -7.440398e-01
113 2 3 2.334058e+00 1.486664e+01 9.742640e+00 -1 -1 1 1.866046e-01 9.716815e-01 -1.386500e-01 4.230901e-02
114 2 2 1.967520e+00 1.378165e+01 9.837970e+00 -1 -1 1 -3.405814e-02 -1.468041e-01 8.667823e-01 -4.753704e-01
115 2 4 1.871065e+00 1.354627e+01 9.197312e+00 -1 -1 1 -2.014104e-01 1.952694e-01 8.704637e-01 -4.044709e-01
116 2 4 2.579581e+00 1.369099e+01 9.250649e+00 -1 -1 1 -2.452900e-01 6.757968e-01 -9.416310e-02 -6.886688e-01
117 2 1 2.433973e+00 1.264182e+01 9.386846e+00 -1 -1 1 -6.058743e-01 -2.981252e-01 -7.184150e-01 -1.670854e-01
118 2 1 3.284420e+00 1.273128e+01 1.038447e+01 -1 -1 1 1.231835e-01 8.261616e-01 -1.467804e-02 5.496066e-01
119 2 1 3.824901e+00 1.292554e+01 1.039885e+01 -1 -1 1 -6.257836e-03 -7.214891e-01 4.094970e-01 -5.583247e-01
120 2 1 4.326216e+00 1.273870e+01 1.044233e+01 -1 -1 1 1.014565e-01 -5.733939e-01 4.453518e-01 -6.801380e-01
121 2 3 4.611260e+00 1.239372e+01 9.940272e+00 -1 -1 1 -5.509230e-01 -5.818591e-01 -5.847404e-01 1.265013e-01
122 2 1 4.800811e+00 1.204341e+01 9.604351e+00 -1 -1 1 -5.653446e-01 -6.722708e-01 -4.404253e-01 -1.856418e-01
123 2 4 5.135675e+00 1.190609e+01 9.206947e+00 -1 -1 1 2.945113e-01 8.166998e-01 1.576039e-01 4.705588e-01
124 2 1 5.566608e+00 1.214761e+01 9.010835e+00 -1 -1 1 -5.026326e-02 8.164052e-01 -1.942986e-01 5.414833e-01
125 2 4 6.049410e+00 1.230412e+01 8.928780e+00 -1 -1 1 1.291348e-01 -6.824826e-01 5.392986e-01 -4.761289e-01
126 2 2 6.604853e+00 1.220228e+01 8.934268e+00 -1 -1 1 -2.773267e-01 4.375004e-01 -7.908110e-01 3.260389e-01
127 2 4 7.701787e+00 1.255052e+01 8.481163e+00 -1 -1 1 5.276302e-01 7.819751e-01 -2.410935e-02 3.309684e-01
128 2 4 7.931534e+00 1.263022e+01 8.144484e+00 -1 -1 1 -6.034031e-01 -6.569761e-01 4.380219e-01 1.114623e-01
129 2 1 8.125400e+00 1.316381e+01 7.789963e+00 -1 -1 1 -8.257470e-02 -3.555090e-01 2.428219e-01 8.987949e-01
130 2 2 8.435303e+00 1.380425e+01 7.582626e+00 -1 -1 1 -9.915790e-02 5.539601e-01 -4.604692e-01 -6.864867e-01
131 2 3 8.622942e+00 1.397028e+01 8.397166e+00 -1 -1 1 -5.405217e-01 2.729583e-01 -6.980498e-01 3.821736e-01
132 2 4 9.093935e+00 1.371185e+01 8.327268e+00 -1 -1 1 4.402922e-01 -1.892640e-01 7.407071e-01 -4.708237e-01
133 2 4 9.740349e+00 1.450896e+01 8.128459e+00 -1 -1 1 -4.992871e-01 -6.876503e-01 4.289084e-01 3.064100e-01
134 2 3 9.147399e+00 1.524013e+01 9.226883e+00 -1 -1 1 1.031122e-01 -1.220165e-01 -8.120368e-01 5.613164e-01
135 2 4 9.534720e+00 1.531588e+01 9.874691e+00 -1 -1 1 1.858594e-01 3.480531e-02 -9.392209e-01 2.865465e-01
136 2 3 9.673632e+00 1.647869e+01 1.027962e+01 -1 -1 1 3.068216e-01 -5.245633e-01 -2.153602e-01 7.644043e-01
137 2 1 9.539764e+00 1.669865e+01 1.065770e+01 -1 -1 1 -4.969462e-02 -4.562326e-01 -4.730023e-02 8.872119e-01
138 2 3 1.033296e+01 1.592371e+01 1.024758e+01 -1 -1 1 -8.820448e-01 -4.871686e-02 -1.510648e-02 4.683966e-01
139 2 2 1.067783e+01 1.578222e+01 1.088299e+01 -1 -1 1 -4.139089e-01 8.352933e-01 7.421034e-02 3.541996e-01
140 2 3 1.008888e+01 1.555331e+01 1.148654e+01 -1 -1 1 -5.011379e-01 3.268614e-01 2.925361e-01 7.459525e-01
141 2 1 9.899081e+00 1.594559e+01 1.180867e+01 -1 -1 1 -7.022391e-01 2.164972e-01 3.126069e-01 6.018855e-01
142 2 2 9.636765e+00 1.611041e+01 1.218775e+01 -1 -1 1 8.894533e-01 -2.739510e-01 -1.438036e-01 -3.363691e-01
143 2 4 9.500495e+00 1.611140e+01 1.272114e+01 -1 -1 1 9.721694e-01 -2.328345e-01 -2.485318e-02 7.551318e-03
144 2 4 9.516030e+00 1.614265e+01 1.325467e+01 -1 -1 1 9.445023e-01 -1.856045e-01 9.216734e-02 2.548953e-01
145 2 1 9.870804e+00 1.613842e+01 1.372386e+01 -1 -1 1 8.470259e-01 -1.324856e-01 2.239847e-01 4.634928e-01
146 2 1 1.016259e+01 1.643933e+01 1.416298e+01 -1 -1 1 6.647041e-01 -1.800862e-01 3.271198e-01 6.470935e-01
147 2 1 1.046709e+01 1.687979e+01 1.434967e+01 -1 -1 1 -4.168107e-01 1.664495e-01 -4.144875e-01 -7.916840e-01
148 2 2 1.066989e+01 1.733813e+01 1.455206e+01 -1 -1 1 -2.045313e-01 2.138829e-01 -4.964283e-01 -8.160760e-01
149 2 4 1.066724e+01 1.789025e+01 1.448671e+01 -1 -1 1 -1.519294e-01 6.888958e-04 4.868710e-01 8.601590e-01
150 2 1 1.035173e+01 1.834627e+01 1.459491e+01 -1 -1 1 -5.042912e-01 4.562439e-02 4.480564e-01 7.367864e-01
151 2 1 9.955950e+00 1.868908e+01 1.477948e+01 -1 -1 1 -6.579226e-01 2.085695e-02 4.808024e-01 5.792511e-01
152 2 1 9.414248e+00 1.878127e+01 1.509873e+01 -1 -1 1 -8.282054e-01 1.162574e-01 3.967236e-01 3.783788e-01
153 2 4 9.035387e+00 1.874480e+01 1.542828e+01 -1 -1 1 -9.305148e-01 1.920780e-01 3.041171e-01 6.900079e-02
154 2 1 8.820059e+00 1.882341e+01 1.587831e+01 -1 -1 1 -9.567061e-01 2.163788e-01 1.603320e-01 -1.103957e-01
155 2 2 8.834888e+00 1.881976e+01 1.645068e+01 -1 -1 1 -8.143152e-01 4.214136e-01 4.821697e-02 -3.962024e-01
156 2 4 8.918945e+00 1.894359e+01 1.705167e+01 -1 -1 1 -6.870274e-01 4.280338e-01 -5.413862e-02 -5.846789e-01
157 2 3 9.068315e+00 1.928155e+01 1.741514e+01 -1 -1 1 -4.627543e-01 3.532689e-01 -1.893046e-01 -7.907107e-01
158 2 2 9.170188e+00 1.971151e+01 1.770793e+01 -1 -1 1 -2.687628e-01 2.663573e-01 -2.366921e-01 -8.948727e-01
159 2 1 9.072289e+00 -1.976426e+01 1.794320e+01 -1 0 1 7.709133e-02 2.310907e-01 -3.205405e-01 -9.153730e-01
160 2 3 8.862610e+00 -1.922969e+01 1.796313e+01 -1 0 1 -2.565489e-01 -2.116238e-01 4.064581e-01 8.509935e-01
161 2 1 8.483035e+00 -1.880527e+01 1.796840e+01 -1 0 1 -4.994278e-01 -6.881219e-02 4.604754e-01 7.306156e-01
162 2 1 7.976563e+00 -1.861471e+01 1.802404e+01 -1 0 1 -6.965748e-01 7.046083e-03 4.919741e-01 5.222024e-01
163 2 4 7.394892e+00 -1.855697e+01 1.817997e+01 -1 0 1 -8.206190e-01 1.204287e-01 3.959685e-01 3.940688e-01
164 2 4 6.979502e+00 -1.856238e+01 1.850837e+01 -1 0 1 -9.336314e-01 1.983112e-01 2.777567e-01 1.088870e-01
165 2 3 6.766062e+00 -1.864582e+01 1.896404e+01 -1 0 1 -9.363387e-01 2.068085e-01 1.938592e-01 -2.071684e-01
166 2 3 6.717282e+00 -1.867978e+01 1.950952e+01 -1 0 1 -8.291628e-01 2.420193e-01 5.601127e-02 -5.007778e-01
167 2 4 6.873390e+00 -1.853592e+01 1.994384e+01 -1 0 1 -5.821205e-01 2.541069e-01 -3.522150e-02 -7.715730e-01
168 2 2 6.622313e+00 -1.819956e+01 -1.956360e+01 -1 0 2 -5.119019e-01 4.756277e-01 -1.904769e-01 -6.895312e-01
169 2 2 6.701441e+00 -1.779676e+01 -1.927772e+01 -1 0 2 -2.269799e-01 3.913862e-01 -2.492593e-01 -8.562516e-01
170 2 1 6.639100e+00 -1.729985e+01 -1.933349e+01 -1 0 2 1.384457e-02 2.022240e-01 -4.492532e-01 -8.701065e-01
171 2 1 6.302986e+00 -1.686107e+01 -1.926438e+01 -1 0 2 -2.963403e-01 -1.953045e-01 4.985220e-01 7.908947e-01
172 2 4 5.859056e+00 -1.647465e+01 -1.911077e+01 -1 0 2 -5.002929e-01 -2.170732e-01 4.332478e-01 7.175532e-01
173 2 4 5.380533e+00 -1.631880e+01 -1.923971e+01 -1 0 2 -7.071131e-01 -6.020850e-02 4.655899e-01 5.287646e-01
174 2 1 4.885960e+00 -1.631477e+01 -1.906553e+01 -1 0 2 -8.459667e-01 6.455641e-02 4.467562e-01 2.838691e-01
175 2 1 4.415150e+00 -1.627611e+01 -1.874412e+01 -1 0 2 -9.359706e-01 1.105606e-01 3.311277e-01 4.571522e-02
176 2 2 4.172469e+00 -1.629985e+01 -1.824722e+01 -1 0 2 -9.350711e-01 1.449426e-01 1.750052e-01 -2.720422e-01
177 2 2 4.159721e+00 -1.641351e+01 -1.768298e+01 -1 0 2 -8.219681e-01 2.725823e-01 4.997856e-02 -4.975636e-01
178 2 1 4.242535e+00 -1.633940e+01 -1.721302e+01 -1 0 2 -6.980577e-01 2.242577e-01 -1.056984e-01 -6.717527e-01
179 2 4 4.461649e+00 -1.608525e+01 -1.682170e+01 -1 0 2 -4.720192e-01 1.556385e-01 -2.825688e-01 -8.204447e-01
180 2 1 4.613753e+00 -1.569212e+01 -1.653251e+01 -1 0 2 -2.340699e-01 1.458141e-01 -3.382304e-01 -8.997498e-01
181 2 4 4.555395e+00 -1.514309e+01 -1.653620e+01 -1 0 2 -5.035774e-02 3.939681e-02 4.714469e-01 8.795736e-01
182 2 2 4.349773e+00 -1.461654e+01 -1.650616e+01 -1 0 2 -3.894261e-01 1.390810e-01 3.622862e-01 8.353158e-01
183 2 3 3.939520e+00 -1.426259e+01 -1.630528e+01 -1 0 2 -7.190300e-01 2.564685e-01 3.610342e-01 5.356063e-01
184 2 4 3.691522e+00 -1.401179e+01 -1.589687e+01 -1 0 2 -8.365314e-01 1.939965e-01 2.156108e-01 4.648575e-01
185 2 3 3.481769e+00 -1.386535e+01 -1.537108e+01 -1 0 2 9.662628e-01 -1.647555e-01 -8.414252e-02 -1.791980e-01
186 2 1 3.402833e+00 -1.401258e+01 -1.487486e+01 -1 0 2 9.745968e-01 -1.871315e-01 -2.930444e-02 1.195160e-01
187 2 1 3.403481e+00 -1.396312e+01 -1.433217e+01 -1 0 2 -9.485906e-01 1.356448e-01 -9.994679e-02 -2.679311e-01
188 2 2 3.755811e+00 -1.404069e+01 -1.390242e+01 -1 0 2 7.928133e-01 2.607858e-02 1.873513e-01 5.793673e-01
189 2 4 4.138658e+00 -1.400957e+01 -1.362248e+01 -1 0 2 6.152146e-01 1.048560e-01 1.207077e-01 7.719753e-01
190 2 4 4.544426e+00 -1.390253e+01 -1.329377e+01 -1 0 2 -4.436470e-01 -1.459507e-01 -3.055902e-01 -8.297532e-01
191 2 1 4.877256e+00 -1.351644e+01 -1.322014e+01 -1 0 2 -1.036039e-01 -2.284265e-01 -1.811701e-01 -9.509285e-01
192 2 4 4.960871e+00 -1.318881e+01 -1.285263e+01 -1 0 2 -1.864852e-01 1.770682e-01 1.409847e-01 9.560301e-01
193 2 4 4.871332e+00 -1.283056e+01 -1.250281e+01 -1 0 2 5.155620e-01 -1.935765e-01 -9.933294e-02 -8.287683e-01
194 2 1 4.578885e+00 -1.271891e+01 -1.207588e+01 -1 0 2 -7.920107e-01 1.050909e-01 1.171970e-01 5.898642e-01
195 2 3 4.419618e+00 -1.271116e+01 -1.151969e+01 -1 0 2 9.057278e-01 -5.562323e-02 3.249683e-03 -4.201816e-01
196 2 4 4.390832e+00 -1.299786e+01 -1.103096e+01 -1 0 2 9.921827e-01 -3.735812e-02 1.023827e-01 -6.079177e-02
197 2 2 4.474755e+00 -1.328087e+01 -1.061221e+01 -1 0 2 -9.807825e-01 -9.241492e-02 -1.071416e-01 -1.343345e-01
198 2 4 4.597745e+00 -1.358185e+01 -1.026470e+01 -1 0 2 8.813094e-01 9.246636e-02 1.745100e-01 4.292901e-01
199 2 3 4.949140e+00 -1.377329e+01 -9.999339e+00 -1 0 2 6.864187e-01 4.850351e-02 4.108987e-03 7.255756e-01
200 2 4 5.296630e+00 -1.366916e+01 -9.604378e+00 -1 0 2 4.163075e-01 4.530529e-02 5.114946e-02 9.066528e-01
