ITEM: TIMESTEP
202000000
ITEM: NUMBER OF ATOMS
200
ITEM: BOX BOUNDS pp pp pp
-2.0000000000000000e+01 2.0000000000000000e+01
-2.0000000000000000e+01 2.0000000000000000e+01
-2.0000000000000000e+01 2.0000000000000000e+01
ITEM: ATOMS id mol type x y z ix iy iz c_quat[1] c_quat[2] c_quat[3] c_quat[4]
1 1 1 8.144749e+00 -9.779253e+00 -6.445151e-01 -1 -1 1 -6.429943e-01 5.516739e-01 -5.237531e-01 8.886438e-02
2 1 2 7.745754e+00 -9.499946e+00 -1.347315e+00 -1 -1 1 6.416735e-01 -4.020487e-01 6.529101e-01 -1.789905e-02
3 1 1 7.606185e+00 -8.655195e+00 -2.370372e+00 -1 -1 1 5.429237e-01 -1.728485e-01 6.329272e-01 5.241760e-01
4 1 3 7.908250e+00 -8.311193e+00 -2.505423e+00 -1 -1 1 -2.785554e-01 -2.532330e-02 -7.640020e-01 -5.814349e-01
5 1 1 8.118462e+00 -7.993504e+00 -2.856580e+00 -1 -1 1 -1.322733e-02 -2.859709e-01 -6.773689e-01 -6.776555e-01
6 1 2 8.207971e+00 -7.510706e+00 -3.111860e+00 -1 -1 1 -1.802742e-01 4.157167e-01 5.719939e-01 6.837425e-01
7 1 4 8.005404e+00 -7.038484e+00 -3.194786e+00 -1 -1 1 4.051957e-01 -5.638083e-01 -4.383401e-01 -5.707841e-01
8 1 1 7.970546e+00 -6.482852e+00 -3.122568e+00 -1 -1 1 -5.926702e-01 5.502235e-01 3.094603e-01 5.002304e-01
9 1 1 7.897639e+00 -6.005073e+00 -2.915729e+00 -1 -1 1 7.516850e-01 -5.175289e-01 -1.016480e-01 -3.959813e-01
10 1 4 8.016196e+00 -5.687371e+00 -2.414583e+00 -1 -1 1 -8.178466e-01 5.023405e-01 -2.198780e-01 1.744552e-01
11 1 1 8.231352e+00 -5.467203e+00 -1.960178e+00 -1 -1 1 -7.905289e-01 4.172353e-01 -4.292344e-01 -1.293699e-01
12 1 1 8.750456e+00 -5.275321e+00 -1.843538e+00 -1 -1 1 6.627099e-01 -2.494032e-01 6.370687e-01 3.045605e-01
13 1 3 9.336131e+00 -5.125951e+00 -1.824777e+00 -1 -1 1 -5.564339e-01 1.869786e-01 -6.659503e-01 -4.603591e-01
14 1 4 9.775143e+00 -4.927923e+00 -1.939802e+00 -1 -1 1 4.195812e-01 1.890117e-02 6.722295e-01 6.096736e-01
15 1 4 1.010284e+01 -4.515301e+00 -1.920315e+00 -1 -1 1 3.038289e-01 4.711570e-02 7.297088e-01 6.107316e-01
16 1 2 1.031951e+01 -4.102624e+00 -2.215823e+00 -1 -1 1 -2.752048e-02 -2.721239e-01 -6.459700e-01 -7.126808e-01
17 1 1 1.022023e+01 -3.613147e+00 -2.432373e+00 -1 -1 1 2.576357e-01 -4.857124e-01 -4.701273e-01 -6.904257e-01
18 1 2 1.026391e+01 -3.097072e+00 -2.390534e+00 -1 -1 1 -4.824704e-01 4.729600e-01 3.709590e-01 6.371189e-01
19 1 3 1.022472e+01 -2.584244e+00 -2.121641e+00 -1 -1 1 -7.042950e-01 5.107140e-01 1.221026e-01 4.777349e-01
20 1 1 1.030506e+01 -2.221789e+00 -1.648685e+00 -1 -1 1 -8.033689e-01 4.772538e-01 -1.151724e-01 3.369903e-01
21 1 4 1.045720e+01 -1.920922e+00 -1.202977e+00 -1 -1 1 8.098850e-01 -4.876559e-01 3.091550e-01 -1.034464e-01
22 1 1 1.076591e+01 -1.790176e+00 -8.678338e-01 -1 -1 1 8.231747e-01 -2.782586e-01 4.850474e-01 9.841062e-02
23 1 4 1.125232e+01 -1.800132e+00 -6.178177e-01 -1 -1 1 7.784407e-01 -1.025043e-01 5.503807e-01 2.839086e-01
24 1 3 1.169877e+01 -1.839426e+00 -5.881332e-01 -1 -1 1 6.767201e-01 1.565650e-01 5.474406e-01 4.667399e-01
25 1 3 1.221283e+01 -1.620734e+00 -6.759670e-01 -1 -1 1 4.258864e-01 2.321208e-01 5.338683e-01 6.926221e-01
26 1 4 1.265366e+01 -1.300712e+00 -8.436145e-01 -1 -1 1 1.872138e-01 3.928223e-01 4.766668e-01 7.638261e-01
27 1 4 1.300513e+01 -9.032584e-01 -8.567895e-01 -1 -1 1 -6.866009e-02 3.912653e-01 3.910396e-01 8.302320e-01
28 1 1 1.329963e+01 -3.794775e-01 -6.420235e-01 -1 -1 1 -2.757630e-01 2.830165e-01 2.059433e-01 8.952339e-01
29 1 1 1.327178e+01 4.629869e-02 -2.780667e-01 -1 -1 1 -6.168571e-01 3.955755e-01 5.559585e-02 6.781714e-01
30 1 4 1.329640e+01 3.801100e-01 2.424491e-01 -1 -1 1 7.032219e-01 -2.425323e-01 -1.039909e-02 -6.682431e-01
31 1 4 1.325509e+01 4.283218e-01 7.557607e-01 -1 -1 1 8.392079e-01 -3.389203e-01 2.100565e-01 -3.697830e-01
32 1 3 1.338785e+01 2.955762e-01 1.206580e+00 -1 -1 1 9.583716e-01 -1.477682e-01 2.376960e-01 -5.647206e-02
33 1 3 1.365389e+01 1.576983e-01 1.679808e+00 -1 -1 1 9.279669e-01 -6.570541e-02 3.210555e-01 1.774360e-01
34 1 1 1.405481e+01 1.124542e-01 2.027870e+00 -1 -1 1 8.418778e-01 1.540160e-01 4.380530e-01 2.750098e-01
35 1 2 1.459189e+01 4.982023e-02 2.070505e+00 -1 -1 1 6.844850e-01 1.622302e-01 3.891565e-01 5.947428e-01
36 1 2 1.507587e+01 1.212812e-01 2.007353e+00 -1 -1 1 4.850839e-01 2.900123e-01 2.324393e-01 7.915545e-01
37 1 1 1.549920e+01 4.453029e-01 2.147689e+00 -1 -1 1 3.331698e-01 3.042841e-01 4.167690e-01 7.891214e-01
38 1 1 1.585599e+01 7.478782e-01 2.154318e+00 -1 -1 1 2.863790e-02 3.836767e-01 3.447172e-01 8.562372e-01
39 1 4 1.591016e+01 1.208470e+00 2.279029e+00 -1 -1 1 2.777600e-01 -4.419903e-01 -2.241419e-01 -8.229547e-01
40 1 4 1.587638e+01 1.615509e+00 2.558873e+00 -1 -1 1 5.608411e-01 -4.813711e-01 -9.516960e-02 -6.668447e-01
41 1 2 1.585864e+01 1.931346e+00 2.963289e+00 -1 -1 1 7.563017e-01 -3.842509e-01 2.238255e-02 -5.290161e-01
42 1 4 1.589495e+01 2.111103e+00 3.417732e+00 -1 -1 1 -8.969588e-01 3.006522e-01 -1.052792e-01 3.065770e-01
43 1 3 1.611687e+01 2.121079e+00 3.942058e+00 -1 -1 1 9.357945e-01 -1.871912e-01 2.877543e-01 -8.028389e-02
44 1 2 1.647557e+01 2.021647e+00 4.296312e+00 -1 -1 1 8.906430e-01 -6.724309e-02 4.349300e-01 1.143215e-01
45 1 1 1.701480e+01 1.872777e+00 4.469967e+00 -1 -1 1 7.522934e-01 7.850233e-02 5.217970e-01 3.944869e-01
46 1 3 1.754587e+01 1.940034e+00 4.385344e+00 -1 -1 1 5.198432e-01 2.400717e-01 5.257498e-01 6.290595e-01
47 1 4 1.808187e+01 2.171195e+00 4.355633e+00 -1 -1 1 2.698691e-01 2.769109e-01 4.606410e-01 7.989374e-01
48 1 1 1.838077e+01 2.604457e+00 4.415346e+00 -1 -1 1 1.286178e-02 -3.459181e-01 -3.703954e-01 -8.619643e-01
49 1 4 1.851185e+01 3.053140e+00 4.595475e+00 -1 -1 1 2.036614e-01 -3.233150e-01 -3.401453e-01 -8.592384e-01
50 1 4 1.848500e+01 3.544381e+00 4.811230e+00 -1 -1 1 4.940802e-01 -4.006186e-01 -1.540536e-01 -7.560800e-01
51 1 4 1.853343e+01 3.934109e+00 5.197576e+00 -1 -1 1 6.784964e-01 -4.137957e-01 5.691233e-02 -6.042986e-01
52 1 1 1.857521e+01 4.102675e+00 5.711299e+00 -1 -1 1 8.362167e-01 -3.546497e-01 1.518626e-01 -3.897473e-01
53 1 3 1.871234e+01 4.105722e+00 6.254883e+00 -1 -1 1 9.202881e-01 -1.858460e-01 3.085803e-01 -1.526734e-01
54 1 4 1.897652e+01 3.866858e+00 6.600509e+00 -1 -1 1 9.234910e-01 -9.069811e-02 3.369514e-01 1.593799e-01
55 1 4 1.952657e+01 3.752724e+00 6.714701e+00 -1 -1 1 7.891603e-01 1.658193e-01 3.996175e-01 4.359309e-01
56 1 4 -1.992396e+01 3.719111e+00 6.809504e+00 0 -1 1 -6.472503e-01 -1.826464e-01 -3.464331e-01 -6.539812e-01
57 1 1 -1.939060e+01 3.784950e+00 6.963891e+00 0 -1 1 3.898524e-01 1.945197e-01 1.404556e-01 8.890722e-01
58 1 1 -1.879674e+01 4.035625e+00 7.071859e+00 0 -1 1 5.989440e-03 -8.911428e-01 3.650086e-01 2.694391e-01
59 1 3 -1.874098e+01 4.306425e+00 6.611122e+00 0 -1 1 -1.074430e-01 -6.379900e-01 6.905175e-01 3.234351e-01
60 1 4 -1.843935e+01 5.340223e+00 7.305728e+00 0 -1 1 1.283105e-01 3.734465e-01 -2.690777e-01 8.784482e-01
61 1 2 -1.771466e+01 5.182096e+00 7.168587e+00 0 -1 1 8.686068e-02 -8.947818e-01 -4.294003e-01 8.623341e-02
62 1 3 -1.662643e+01 4.466813e+00 6.585745e+00 0 -1 1 6.579453e-01 -2.188149e-01 4.421332e-01 5.689871e-01
63 1 2 -1.669159e+01 3.897668e+00 7.158969e+00 0 -1 1 2.229149e-01 7.655081e-01 -2.776056e-01 -5.359491e-01
64 1 4 -1.720818e+01 3.621692e+00 8.682598e+00 0 -1 1 3.785442e-01 2.106290e-01 -7.514523e-01 4.976536e-01
65 1 2 -1.721328e+01 3.096710e+00 8.893476e+00 0 -1 1 2.088751e-01 -6.872758e-02 -7.560673e-01 6.164495e-01
66 1 1 -1.734849e+01 2.061818e+00 8.381621e+00 0 -1 1 -8.668712e-01 -2.933654e-01 2.869431e-01 2.830806e-01
67 1 2 -1.761945e+01 1.743499e+00 8.563654e+00 0 -1 1 9.218617e-01 6.337136e-02 -3.634516e-01 1.185663e-01
68 1 1 -1.769528e+01 1.453218e+00 8.850104e+00 0 -1 1 -6.760774e-01 1.154360e-01 5.359481e-01 -4.922942e-01
69 1 1 -1.796654e+01 1.313301e+00 9.245027e+00 0 -1 1 -4.922180e-01 2.892560e-01 3.392182e-01 -7.476520e-01
70 1 2 -1.848018e+01 1.367409e+00 9.620381e+00 0 -1 1 -2.565883e-01 5.232370e-01 2.424848e-01 -7.756201e-01
71 1 3 -1.939133e+01 1.617936e+00 9.489825e+00 0 -1 1 -1.258984e-02 -3.282960e-01 -8.537785e-01 -4.038880e-01
72 1 4 -1.968070e+01 1.756976e+00 9.149521e+00 0 -1 1 -5.538812e-02 7.351128e-01 6.464481e-01 1.965862e-01
73 1 1 1.991065e+01 1.019079e+00 9.361450e+00 -1 -1 1 7.421063e-02 -4.229084e-01 -9.157135e-02 -8.984742e-01
74 1 1 -2.007754e+01 -5.146829e-01 9.094763e+00 0 -1 1 -2.064284e-01 -3.294220e-01 8.968232e-01 2.111316e-01
75 1 3 1.966764e+01 -3.865534e-01 8.671468e+00 -1 -1 1 -4.457394e-01 -5.202771e-01 -5.863137e-01 -4.322782e-01
76 1 1 1.955381e+01 -6.499580e-01 1.008679e+01 -1 -1 1 -8.035560e-01 1.996581e-01 4.899333e-01 -2.727632e-01
77 1 4 1.930791e+01 -7.618912e-01 1.047412e+01 -1 -1 1 -4.841993e-01 4.790626e-01 3.953687e-01 -6.162254e-01
78 1 1 1.902350e+01 -5.513566e-01 1.077921e+01 -1 -1 1 2.590771e-01 -5.366513e-01 -4.039147e-02 8.020305e-01
79 1 4 1.865453e+01 -2.067882e-01 1.096319e+01 -1 -1 1 2.230790e-01 4.868102e-01 -1.208839e-01 -8.358461e-01
80 1 2 1.819872e+01 -1.015278e-01 1.093658e+01 -1 -1 1 4.947790e-01 4.663269e-01 -2.784668e-01 -6.783725e-01
81 1 4 1.768781e+01 -1.883739e-01 1.086491e+01 -1 -1 1 7.909361e-01 3.091666e-01 -3.688640e-01 -3.778564e-01
82 1 4 1.730623e+01 -4.245248e-01 1.083366e+01 -1 -1 1 8.483777e-01 9.351181e-02 -5.209662e-01 -1.024506e-02
83 1 4 1.657410e+01 -2.191865e-01 1.060843e+01 -1 -1 1 -3.028185e-01 7.835739e-01 3.512401e-01 -4.134529e-01
84 1 4 1.613680e+01 1.453391e-01 1.046375e+01 -1 -1 1 3.901417e-01 -8.217726e-01 -1.238687e-01 3.964036e-01
85 1 1 1.517106e+01 -1.179217e+00 1.074308e+01 -1 -1 1 -7.812196e-01 1.778611e-01 1.915119e-02 5.980757e-01
86 1 1 1.559556e+01 -9.247207e-01 1.168064e+01 -1 -1 1 4.979774e-01 -7.693129e-01 1.346883e-01 -3.768756e-01
87 1 3 1.539315e+01 -8.219194e-01 1.197045e+01 -1 -1 1 -9.519485e-01 2.680884e-01 6.714535e-02 -1.319628e-01
88 1 2 1.557220e+01 -8.211929e-01 1.250286e+01 -1 -1 1 -8.726149e-01 3.061033e-01 -5.303233e-02 -3.768707e-01
89 1 2 1.574255e+01 -5.687666e-01 1.287961e+01 -1 -1 1 6.584738e-01 -2.496732e-01 1.941203e-01 6.829296e-01
90 1 3 1.597291e+01 -2.277275e-01 1.313283e+01 -1 -1 1 -2.807305e-01 8.843168e-02 -2.341953e-01 -9.265650e-01
91 1 3 1.606376e+01 1.764544e-01 1.345903e+01 -1 -1 1 -1.186725e-01 8.911153e-04 3.392488e-01 9.331807e-01
92 1 2 1.650867e+01 7.038169e-01 1.348603e+01 -1 -1 1 -1.846316e-03 5.822235e-01 -5.460813e-01 -6.023351e-01
93 1 1 1.637799e+01 9.396473e-01 1.312370e+01 -1 -1 1 3.066771e-01 1.460552e-01 -6.838483e-01 -6.457310e-01
94 1 2 1.600111e+01 1.133384e+00 1.299782e+01 -1 -1 1 5.384310e-01 -1.026019e-01 -7.119487e-01 -4.389691e-01
95 1 3 1.549490e+01 1.161022e+00 1.285795e+01 -1 -1 1 -6.135746e-01 2.692473e-01 7.365371e-01 9.244092e-02
96 1 2 1.502851e+01 1.146427e+00 1.290111e+01 -1 -1 1 -5.707678e-01 5.074971e-01 6.148840e-01 -1.964395e-01
97 1 2 1.452744e+01 1.136311e+00 1.300803e+01 -1 -1 1 4.242731e-01 -7.360790e-01 -3.679020e-01 3.779262e-01
98 1 4 1.428532e+01 1.474332e+00 1.308227e+01 -1 -1 1 -2.255944e-01 7.540633e-01 -8.134285e-02 -6.114565e-01
99 1 2 1.389900e+01 1.901857e+00 1.287003e+01 -1 -1 1 4.895565e-02 -8.441470e-01 2.731887e-01 4.586798e-01
100 1 1 1.374938e+01 2.275319e+00 1.250895e+01 -1 -1 1 -7.953953e-02 -7.004830e-01 5.825225e-01 4.045548e-01
101 2 4 -1.407493e+01 1.678940e+01 1.900401e+01 0 -1 1 -8.438681e-01 -3.988358e-01 4.961006e-02 3.554651e-01
102 2 3 -1.409053e+01 1.649115e+01 1.938316e+01 0 -1 1 -7.412820e-01 3.156577e-01 5.916698e-01 -2.807154e-02
103 2 1 -1.453380e+01 1.647631e+01 1.969089e+01 0 -1 1 7.192490e-01 -4.516153e-01 -4.466585e-01 2.814618e-01
104 2 3 -1.479111e+01 1.594848e+01 1.939953e+01 0 -1 1 -1.918456e-01 -8.950086e-01 1.084350e-01 -3.878102e-01
105 2 3 -1.561809e+01 1.552274e+01 1.925495e+01 0 -1 1 1.162151e-01 -6.889224e-01 1.340031e-01 -7.027967e-01
106 2 2 -1.519983e+01 1.479148e+01 1.869826e+01 0 -1 1 1.534268e-01 3.213826e-02 9.543064e-01 -2.544141e-01
107 2 3 -1.517573e+01 1.439480e+01 1.846093e+01 0 -1 1 -3.126437e-01 -4.228708e-01 -8.496430e-01 3.925509e-02
108 2 4 -1.512844e+01 1.414810e+01 1.800696e+01 0 -1 1 3.044906e-01 6.903538e-01 6.421930e-01 1.352232e-01
109 2 3 -1.557384e+01 1.330941e+01 1.756614e+01 0 -1 1 4.326939e-01 5.439152e-01 8.494052e-02 -7.139449e-01
110 2 2 -1.610824e+01 1.302803e+01 1.763246e+01 0 -1 1 7.120758e-01 5.214755e-01 -2.099411e-03 -4.701137e-01
111 2 2 -1.675491e+01 1.398015e+01 1.744689e+01 0 -1 1 2.906548e-01 6.382605e-01 3.427698e-01 -6.250217e-01
112 2 3 -1.674134e+01 1.402959e+01 1.753399e+01 0 -1 1 8.476683e-01 4.519619e-01 -8.887144e-02 2.632313e-01
113 2 3 -1.748659e+01 1.372374e+01 1.727134e+01 0 -1 1 -3.155410e-02 2.732458e-01 -8.073945e-01 5.219725e-01
114 2 2 -1.830747e+01 1.358802e+01 1.611295e+01 0 -1 1 6.655823e-02 3.069566e-02 8.404967e-01 5.368361e-01
115 2 4 -1.739501e+01 1.306998e+01 1.599595e+01 0 -1 1 4.606604e-01 -7.881924e-01 4.080779e-01 4.147776e-03
116 2 4 -1.791055e+01 1.257599e+01 1.538425e+01 0 -1 1 -2.952400e-01 2.454908e-01 -8.343695e-01 3.954683e-01
117 2 1 -1.775932e+01 1.393687e+01 1.453208e+01 0 -1 1 5.287592e-01 1.769086e-01 1.301379e-01 8.198666e-01
118 2 1 -1.795758e+01 1.285380e+01 1.367450e+01 0 -1 1 -8.305929e-01 -5.312004e-01 -1.212255e-01 1.150913e-01
119 2 1 -1.788810e+01 1.365102e+01 1.356136e+01 0 -1 1 2.481846e-01 9.442991e-01 -1.895847e-01 1.037366e-01
120 2 1 -1.916425e+01 1.389194e+01 1.413128e+01 0 -1 1 1.422509e-01 -5.025318e-01 5.107195e-02 -8.512450e-01
121 2 3 2.020067e+01 1.360351e+01 1.312818e+01 -1 -1 1 -1.929573e-01 -3.857729e-01 6.885060e-01 5.830148e-01
122 2 1 1.992853e+01 1.382122e+01 1.270384e+01 -1 -1 1 4.652398e-01 9.406788e-02 -7.446131e-01 -4.693127e-01
123 2 4 1.951889e+01 1.375498e+01 1.255313e+01 -1 -1 1 -5.132328e-01 3.777150e-01 7.274996e-01 2.542987e-01
124 2 1 1.999681e+01 1.392466e+01 1.147036e+01 -1 -1 1 -1.984169e-01 -3.029014e-01 -5.457984e-01 -7.556359e-01
125 2 4 -1.978657e+01 1.428763e+01 1.131430e+01 0 -1 1 -1.768665e-01 4.909569e-01 3.401317e-01 7.822979e-01
126 2 2 -1.849357e+01 1.323469e+01 1.093596e+01 0 -1 1 7.266225e-01 6.040154e-01 -3.230050e-01 5.341307e-02
127 2 4 -1.853649e+01 1.269630e+01 1.080360e+01 0 -1 1 -6.373114e-01 -4.696005e-01 5.004119e-01 -3.505672e-01
128 2 4 -1.846700e+01 1.267765e+01 1.008502e+01 0 -1 1 -3.499786e-01 -7.779858e-01 -6.306564e-02 -5.179535e-01
129 2 1 -1.869573e+01 1.203135e+01 9.810603e+00 0 -1 1 1.905461e-01 -6.199191e-01 -7.503541e-01 -1.279112e-01
130 2 2 -1.811706e+01 1.060938e+01 1.009858e+01 0 -1 1 2.010063e-01 4.954322e-01 -8.339614e-01 1.365718e-01
131 2 3 -1.795247e+01 1.021781e+01 9.869907e+00 0 -1 1 7.456370e-02 1.575937e-01 -9.645211e-01 1.982511e-01
132 2 4 -1.799770e+01 9.719841e+00 9.719537e+00 0 -1 1 9.847695e-02 3.265880e-01 9.295011e-01 -1.402510e-01
133 2 4 -1.825515e+01 9.456199e+00 9.389194e+00 0 -1 1 -1.433917e-01 -6.815584e-01 -6.977390e-01 1.675628e-01
134 2 3 -1.859057e+01 9.339682e+00 9.138314e+00 0 -1 1 1.842704e-01 8.585115e-01 4.433177e-01 -1.801994e-01
135 2 4 -1.885759e+01 7.863091e+00 9.496968e+00 0 -1 1 2.092162e-01 3.718474e-01 -7.986754e-01 -4.243533e-01
136 2 3 -1.906463e+01 7.862641e+00 9.050901e+00 0 -1 1 -3.381168e-01 1.161883e-01 9.050091e-01 2.305121e-01
137 2 1 -1.937826e+01 7.742465e+00 8.739942e+00 0 -1 1 -2.664970e-01 4.641439e-01 8.362957e-01 1.189929e-01
138 2 3 -1.912524e+01 7.742987e+00 8.255175e+00 0 -1 1 6.858543e-01 -4.924281e-01 -3.873331e-01 3.702587e-01
139 2 2 2.005619e+01 8.054967e+00 7.918449e+00 -1 -1 1 2.252949e-01 6.502538e-01 8.030633e-02 -7.210846e-01
140 2 3 1.955427e+01 8.096901e+00 8.005856e+00 -1 -1 1 -4.489636e-01 -6.870241e-01 7.957034e-02 5.657721e-01
141 2 1 1.920493e+01 7.451290e+00 8.070177e+00 -1 -1 1 -1.094470e-01 2.583425e-01 -8.344644e-01 4.742885e-01
142 2 2 1.945645e+01 7.540606e+00 7.736487e+00 -1 -1 1 -5.011349e-01 6.972138e-01 4.342650e-01 2.723427e-01
143 2 4 1.990040e+01 6.519984e+00 6.912461e+00 -1 -1 1 8.128841e-01 5.654084e-01 1.381883e-01 -2.090116e-02
144 2 4 1.997052e+01 6.052180e+00 6.841407e+00 -1 -1 1 -8.019842e-01 -5.207435e-01 4.195038e-02 -2.896338e-01
145 2 1 1.990089e+01 4.895607e+00 6.595943e+00 -1 -1 1 2.725347e-01 7.197492e-01 -6.308741e-01 -9.840640e-02
146 2 1 1.984711e+01 4.683408e+00 6.054515e+00 -1 -1 1 -3.658450e-01 -5.019838e-01 7.834509e-01 -1.935073e-02
147 2 1 1.978260e+01 4.286919e+00 5.775864e+00 -1 -1 1 3.263126e-01 2.557652e-01 -8.708552e-01 2.640367e-01
148 2 2 1.962479e+01 3.689114e+00 5.622001e+00 -1 -1 1 -3.351756e-01 6.090613e-02 8.676864e-01 -3.620332e-01
149 2 4 1.934112e+01 3.199471e+00 5.697678e+00 -1 -1 1 2.235647e-01 -2.826529e-01 -7.863276e-01 5.018118e-01
150 2 1 1.882465e+01 2.900885e+00 5.707188e+00 -1 -1 1 1.340093e-01 -5.996720e-01 -6.159187e-01 4.930305e-01
151 2 1 1.827158e+01 2.748086e+00 5.643145e+00 -1 -1 1 9.479215e-02 -7.407788e-01 -4.282181e-01 5.088129e-01
152 2 1 1.775834e+01 2.838147e+00 5.499410e+00 -1 -1 1 -6.419179e-02 -8.825876e-01 -2.116324e-01 4.148858e-01
153 2 4 1.745410e+01 2.885869e+00 5.106079e+00 -1 -1 1 -1.612323e-01 -9.385368e-01 9.294368e-02 2.907134e-01
154 2 1 1.726307e+01 3.042278e+00 4.645150e+00 -1 -1 1 -3.154917e-01 -8.578985e-01 3.285608e-01 2.377455e-01
155 2 2 1.714334e+01 2.997106e+00 4.099581e+00 -1 -1 1 -3.786665e-01 -7.104963e-01 5.802684e-01 1.228629e-01
156 2 4 1.710043e+01 2.747389e+00 3.638100e+00 -1 -1 1 -4.353611e-01 -5.309314e-01 7.252213e-01 -5.125110e-02
157 2 3 1.716521e+01 2.341983e+00 3.411693e+00 -1 -1 1 -3.332353e-01 -2.884698e-01 8.577565e-01 -2.645621e-01
158 2 2 1.709527e+01 1.844620e+00 3.305482e+00 -1 -1 1 -3.086290e-01 -5.446549e-02 8.560464e-01 -4.110551e-01
159 2 1 1.682612e+01 1.388146e+00 3.312380e+00 -1 -1 1 -2.459187e-01 2.726296e-01 8.025091e-01 -4.702938e-01
160 2 3 1.642339e+01 1.083990e+00 3.540796e+00 -1 -1 1 8.733629e-03 -5.202778e-01 -5.988431e-01 6.087871e-01
161 2 1 1.598275e+01 8.409841e-01 3.487188e+00 -1 -1 1 6.004647e-02 -6.434736e-01 -4.569929e-01 6.111412e-01
162 2 1 1.547164e+01 8.498947e-01 3.443029e+00 -1 -1 1 -1.325794e-01 -7.839881e-01 -2.755136e-01 5.402570e-01
163 2 4 1.507752e+01 8.258664e-01 3.060109e+00 -1 -1 1 -7.259859e-02 -8.870113e-01 -1.078685e-01 4.430629e-01
164 2 4 1.476368e+01 9.952629e-01 2.714579e+00 -1 -1 1 -1.188661e-01 -9.131614e-01 1.902191e-01 3.403291e-01
165 2 3 1.467939e+01 1.208450e+00 2.251824e+00 -1 -1 1 -1.625280e-01 -7.801908e-01 5.603727e-01 2.255426e-01
166 2 3 1.455899e+01 1.195892e+00 1.732018e+00 -1 -1 1 -3.035094e-01 -6.665936e-01 6.682607e-01 1.302404e-01
167 2 4 1.462892e+01 8.746238e-01 1.316745e+00 -1 -1 1 -3.140176e-01 -4.052500e-01 8.572985e-01 -4.695309e-02
168 2 2 1.452613e+01 4.353047e-01 9.309213e-01 -1 -1 1 -3.099211e-01 -1.925507e-01 9.197451e-01 -1.447134e-01
169 2 2 1.438922e+01 7.672613e-02 6.130460e-01 -1 -1 1 -3.073447e-01 -5.429078e-02 8.957268e-01 -3.166469e-01
170 2 1 1.410474e+01 -3.366364e-01 5.330306e-01 -1 -1 1 -2.860378e-01 2.078392e-01 8.392488e-01 -4.130940e-01
171 2 1 1.368372e+01 -6.153016e-01 6.179361e-01 -1 -1 1 1.038382e-01 -4.973049e-01 -6.511142e-01 5.638757e-01
172 2 4 1.319092e+01 -8.735934e-01 4.946175e-01 -1 -1 1 8.372809e-02 -7.167380e-01 -5.071927e-01 4.712026e-01
173 2 4 1.265320e+01 -8.285496e-01 2.004174e-01 -1 -1 1 -6.993770e-02 -8.667853e-01 -2.915377e-01 3.984943e-01
174 2 1 1.222146e+01 -6.241930e-01 5.425119e-02 -1 -1 1 -2.066330e-01 -8.884407e-01 6.836006e-02 4.041075e-01
175 2 1 1.193926e+01 -5.076896e-01 -3.779676e-01 -1 -1 1 -2.645364e-01 -8.593413e-01 2.876337e-01 3.298785e-01
176 2 2 1.164049e+01 -6.233473e-01 -7.901794e-01 -1 -1 1 -3.675564e-01 -7.887743e-01 4.464554e-01 2.083626e-01
177 2 2 1.155110e+01 -9.033210e-01 -1.246175e+00 -1 -1 1 -4.475205e-01 -6.187213e-01 6.454053e-01 1.901172e-02
178 2 1 1.143768e+01 -1.265777e+00 -1.691291e+00 -1 -1 1 -5.425409e-01 -3.948278e-01 7.325577e-01 -1.145409e-01
179 2 4 1.143072e+01 -1.754254e+00 -1.925088e+00 -1 -1 1 -4.468397e-01 -2.630137e-01 7.665282e-01 -3.789361e-01
180 2 1 1.137568e+01 -2.323613e+00 -1.764349e+00 -1 -1 1 -2.896299e-01 9.203112e-03 7.469134e-01 -5.984565e-01
181 2 4 1.127243e+01 -2.884383e+00 -1.606538e+00 -1 -1 1 1.895353e-01 -1.964678e-01 -7.207542e-01 6.371735e-01
182 2 2 1.080541e+01 -3.322232e+00 -1.349386e+00 -1 -1 1 -8.901299e-03 -4.979021e-01 -6.391789e-01 5.860585e-01
183 2 3 1.023120e+01 -3.449542e+00 -1.278206e+00 -1 -1 1 -1.204368e-01 -7.031245e-01 -3.904029e-01 5.819764e-01
184 2 4 9.714138e+00 -3.426699e+00 -1.387735e+00 -1 -1 1 -4.236028e-01 -7.794392e-01 -6.001584e-02 4.576388e-01
185 2 3 9.304859e+00 -3.625561e+00 -1.768674e+00 -1 -1 1 5.337564e-01 7.939479e-01 -9.239551e-02 -2.760687e-01
186 2 1 9.109431e+00 -3.963169e+00 -2.122759e+00 -1 -1 1 5.289835e-01 8.224207e-01 -1.906316e-01 -8.637271e-02
187 2 1 9.023114e+00 -4.256562e+00 -2.581713e+00 -1 -1 1 -5.480868e-01 -7.242427e-01 4.161514e-01 -4.349096e-02
188 2 2 9.071390e+00 -4.877108e+00 -2.906787e+00 -1 -1 1 6.220227e-01 4.647472e-01 -5.802064e-01 2.458828e-01
189 2 4 9.016027e+00 -5.407196e+00 -2.952619e+00 -1 -1 1 5.728381e-01 3.301869e-01 -5.943599e-01 4.577876e-01
190 2 4 9.113723e+00 -5.802086e+00 -2.796298e+00 -1 -1 1 -3.677037e-01 -7.869545e-02 7.465939e-01 -5.488156e-01
191 2 1 9.031082e+00 -6.270783e+00 -2.653650e+00 -1 -1 1 -2.915694e-01 1.283318e-01 7.000660e-01 -6.390820e-01
192 2 4 8.742562e+00 -6.618497e+00 -2.400131e+00 -1 -1 1 7.650685e-02 -3.475432e-01 -5.948510e-01 7.207723e-01
193 2 4 8.499921e+00 -6.883322e+00 -2.086831e+00 -1 -1 1 7.385182e-02 5.067019e-01 4.603655e-01 -7.251639e-01
194 2 1 8.018845e+00 -6.966992e+00 -1.937106e+00 -1 -1 1 -2.908022e-01 -6.224330e-01 -2.614027e-01 6.779969e-01
195 2 3 7.497618e+00 -7.208392e+00 -2.137901e+00 -1 -1 1 4.510751e-01 7.432484e-01 1.021994e-01 -4.833925e-01
196 2 4 7.094649e+00 -7.469516e+00 -2.385891e+00 -1 -1 1 4.975595e-01 7.895056e-01 -2.509140e-02 -3.584493e-01
197 2 2 6.911024e+00 -7.810580e+00 -2.839673e+00 -1 -1 1 -5.667395e-01 -7.859075e-01 2.449829e-01 3.374942e-02
198 2 4 6.274229e+00 -8.529371e+00 -2.816901e+00 -1 -1 1 -5.688633e-01 -2.884195e-01 -7.532754e-01 1.605769e-01
199 2 3 6.081205e+00 -8.664287e+00 -2.006459e+00 -1 -1 1 -2.979210e-01 7.968550e-01 4.339157e-01 2.966182e-01
200 2 4 6.246853e+00 -1.022217e+01 -2.505049e+00 -1 -1 1 9.266547e-01 8.128388e-02 3.415244e-02 -3.654279e-01
