ITEM: TIMESTEP
21000000
ITEM: NUMBER OF ATOMS
200
ITEM: BOX BOUNDS pp pp pp
-2.0000000000000000e+01 2.0000000000000000e+01
-2.0000000000000000e+01 2.0000000000000000e+01
-2.0000000000000000e+01 2.0000000000000000e+01
ITEM: ATOMS id mol type x y z ix iy iz c_quat[1] c_quat[2] c_quat[3] c_quat[4]
1 1 1 9.493043e+00 1.067769e+01 1.261223e+01 -1 -1 0 -1.952352e-01 -7.074701e-01 -5.837344e-01 3.473088e-01
2 1 2 9.589086e+00 1.069846e+01 1.342992e+01 -1 -1 0 6.731468e-01 -8.141249e-02 -4.901037e-01 -5.477624e-01
3 1 1 1.101894e+01 1.133451e+01 1.358328e+01 -1 -1 0 -2.143480e-01 -7.811017e-01 5.509209e-01 -2.010502e-01
4 1 3 1.024289e+01 1.161158e+01 1.342905e+01 -1 -1 0 -8.225202e-01 -8.016599e-02 -5.292351e-01 -1.922085e-01
5 1 1 9.907557e+00 1.158437e+01 1.464726e+01 -1 -1 0 2.886855e-01 -9.389836e-01 -1.209697e-01 -1.426074e-01
6 1 2 8.934274e+00 1.178887e+01 1.511934e+01 -1 -1 0 1.877014e-01 -4.686531e-01 -6.520926e-01 5.656039e-01
7 1 4 9.802047e+00 1.190771e+01 1.572404e+01 -1 -1 0 8.173270e-02 7.190793e-01 3.757957e-02 6.890809e-01
8 1 1 1.020959e+01 1.216938e+01 1.585357e+01 -1 -1 0 -3.196360e-01 6.573891e-01 -7.234958e-02 6.785557e-01
9 1 1 1.066639e+01 1.250380e+01 1.609233e+01 -1 -1 0 5.912810e-01 -5.025426e-01 2.778579e-01 -5.662444e-01
10 1 4 1.113298e+01 1.251983e+01 1.617863e+01 -1 -1 0 5.369956e-01 -3.857447e-01 2.172454e-01 -7.180816e-01
11 1 1 1.134732e+01 1.254336e+01 1.667594e+01 -1 -1 0 6.897793e-01 -3.284506e-01 4.338227e-01 -4.776217e-01
12 1 1 1.157732e+01 1.236079e+01 1.703392e+01 -1 -1 0 8.256168e-01 -7.052362e-02 4.999206e-01 -2.519179e-01
13 1 3 1.186486e+01 1.202174e+01 1.730730e+01 -1 -1 0 8.703245e-01 7.625473e-02 4.863414e-01 1.387167e-02
14 1 4 1.217759e+01 1.160774e+01 1.736919e+01 -1 -1 0 8.190366e-01 3.019126e-01 4.279779e-01 2.342278e-01
15 1 4 1.268417e+01 1.135673e+01 1.741012e+01 -1 -1 0 -6.571504e-01 -4.050501e-01 -3.947889e-01 -4.982264e-01
16 1 2 1.322620e+01 1.125688e+01 1.730055e+01 -1 -1 0 -5.409614e-01 -4.728321e-01 -3.711585e-01 -5.882447e-01
17 1 1 1.370904e+01 1.145986e+01 1.713792e+01 -1 -1 0 2.795880e-01 5.446438e-01 1.932988e-01 7.667003e-01
18 1 2 1.406168e+01 1.176509e+01 1.699998e+01 -1 -1 0 4.507632e-02 6.595731e-01 2.910553e-03 7.502820e-01
19 1 3 1.449631e+01 1.196413e+01 1.717804e+01 -1 -1 0 -9.247253e-02 5.971192e-01 -1.888822e-01 7.740937e-01
20 1 1 1.493421e+01 1.211810e+01 1.742527e+01 -1 -1 0 -3.228104e-01 4.461348e-01 -3.337346e-01 7.651003e-01
21 1 4 1.518552e+01 1.224916e+01 1.792546e+01 -1 -1 0 5.236846e-01 -3.780387e-01 3.446285e-01 -6.812286e-01
22 1 1 1.550827e+01 1.223001e+01 1.828570e+01 -1 -1 0 7.070970e-01 -2.165194e-01 4.964657e-01 -4.545932e-01
23 1 4 1.581040e+01 1.200095e+01 1.858505e+01 -1 -1 0 8.105807e-01 -3.133964e-03 5.351305e-01 -2.378748e-01
24 1 3 1.597022e+01 1.144974e+01 1.880752e+01 -1 -1 0 8.451743e-01 1.910604e-01 4.947787e-01 -6.610874e-02
25 1 3 1.625788e+01 1.094746e+01 1.885521e+01 -1 -1 0 7.953648e-01 3.385819e-01 4.959703e-01 8.228338e-02
26 1 4 1.664113e+01 1.066307e+01 1.884424e+01 -1 -1 0 6.658942e-01 5.198307e-01 5.057201e-01 1.749515e-01
27 1 4 1.694645e+01 1.040343e+01 1.858925e+01 -1 -1 0 5.180281e-01 6.807479e-01 3.641402e-01 3.682812e-01
28 1 1 1.736468e+01 1.030099e+01 1.831133e+01 -1 -1 0 3.330064e-01 7.320485e-01 2.102391e-01 5.558878e-01
29 1 1 1.776292e+01 1.047505e+01 1.815185e+01 -1 -1 0 1.248700e-01 7.789755e-01 -5.501646e-02 6.120277e-01
30 1 4 1.831225e+01 1.054205e+01 1.817013e+01 -1 -1 0 2.188208e-02 -7.004092e-01 1.648960e-01 -6.940875e-01
31 1 4 1.866860e+01 1.062035e+01 1.843331e+01 -1 -1 0 3.640606e-01 -5.475331e-01 3.807599e-01 -6.501456e-01
32 1 3 1.906729e+01 1.072161e+01 1.870539e+01 -1 -1 0 4.932132e-01 -3.744084e-01 4.900141e-01 -6.135514e-01
33 1 3 1.941186e+01 1.057488e+01 1.907216e+01 -1 -1 0 6.392993e-01 -1.625506e-01 5.931288e-01 -4.615971e-01
34 1 1 1.972200e+01 1.015184e+01 1.943505e+01 -1 -1 0 7.014525e-01 -7.413907e-03 6.799363e-01 -2.135320e-01
35 1 2 -1.994945e+01 9.695904e+00 1.945476e+01 0 -1 0 7.064461e-01 2.230555e-01 6.716986e-01 -1.022542e-03
36 1 2 -1.957985e+01 9.357226e+00 1.920921e+01 0 -1 0 5.921450e-01 4.283695e-01 6.591470e-01 1.771696e-01
37 1 1 -1.926879e+01 9.153496e+00 1.892616e+01 0 -1 0 3.989563e-01 6.693276e-01 5.804439e-01 2.364726e-01
38 1 1 -1.901351e+01 9.169404e+00 1.848828e+01 0 -1 0 3.209611e-01 7.686961e-01 3.022779e-01 4.633771e-01
39 1 4 -1.862338e+01 9.295395e+00 1.819435e+01 0 -1 0 -9.206176e-02 -7.962854e-01 -6.179336e-02 -5.946729e-01
40 1 4 -1.822703e+01 9.643602e+00 1.804806e+01 0 -1 0 6.320356e-02 -7.802706e-01 1.697936e-01 -5.986261e-01
41 1 2 -1.773743e+01 9.800613e+00 1.804553e+01 0 -1 0 2.856585e-01 -6.618671e-01 2.358633e-01 -6.516898e-01
42 1 4 -1.723618e+01 9.847042e+00 1.827107e+01 0 -1 0 3.555500e-01 -5.243374e-01 3.585947e-01 -6.856123e-01
43 1 3 -1.683133e+01 9.788424e+00 1.860701e+01 0 -1 0 6.156225e-01 -3.374155e-01 5.515642e-01 -4.504848e-01
44 1 2 -1.641587e+01 9.617008e+00 1.894121e+01 0 -1 0 6.957016e-01 -1.284762e-01 6.493315e-01 -2.790370e-01
45 1 1 -1.590127e+01 9.345997e+00 1.906279e+01 0 -1 0 6.521669e-01 -1.943116e-02 7.460892e-01 -1.328598e-01
46 1 3 -1.539050e+01 8.929974e+00 1.889915e+01 0 -1 0 5.702329e-01 1.262058e-01 8.062658e-01 9.403183e-02
47 1 4 -1.515012e+01 8.679970e+00 1.846524e+01 0 -1 0 4.873101e-01 5.064227e-01 6.297022e-01 3.309684e-01
48 1 1 -1.483556e+01 8.652167e+00 1.799912e+01 0 -1 0 -3.050846e-01 -6.858063e-01 -4.575074e-01 -4.767391e-01
49 1 4 -1.449092e+01 8.786198e+00 1.768260e+01 0 -1 0 -1.401853e-01 -7.588916e-01 -3.488956e-01 -5.316987e-01
50 1 4 -1.407174e+01 9.147723e+00 1.732247e+01 0 -1 0 6.649357e-03 -7.723581e-01 -2.170073e-01 -5.969310e-01
51 1 4 -1.379437e+01 9.484486e+00 1.728365e+01 0 -1 0 3.700346e-01 -7.632473e-01 8.370307e-02 -5.229931e-01
52 1 1 -1.339277e+01 9.838312e+00 1.729516e+01 0 -1 0 4.863924e-01 -7.092674e-01 6.252560e-02 -5.064116e-01
53 1 3 -1.299513e+01 1.027022e+01 1.742988e+01 0 -1 0 5.019139e-01 -6.386363e-01 2.747021e-01 -5.145531e-01
54 1 4 -1.247718e+01 1.047069e+01 1.768975e+01 0 -1 0 5.589671e-01 -4.680334e-01 5.158268e-01 -4.499146e-01
55 1 4 -1.216518e+01 1.033084e+01 1.802974e+01 0 -1 0 7.313544e-01 -1.631858e-01 6.348870e-01 -1.881745e-01
56 1 4 -1.162635e+01 1.011007e+01 1.811292e+01 0 -1 0 6.717722e-01 2.144681e-02 7.386976e-01 -5.087237e-02
57 1 1 -1.129021e+01 9.797737e+00 1.807040e+01 0 -1 0 6.137350e-01 3.385316e-01 7.063815e-01 -9.874680e-02
58 1 1 -1.103376e+01 9.537165e+00 1.769768e+01 0 -1 0 4.839598e-01 5.644736e-01 6.292970e-01 2.261366e-01
59 1 3 -1.063064e+01 9.453683e+00 1.727876e+01 0 -1 0 -4.279138e-01 -6.200814e-01 -4.377056e-01 -4.907165e-01
60 1 4 -1.027670e+01 9.695260e+00 1.681728e+01 0 -1 0 -2.097668e-01 -7.462868e-01 -2.632582e-01 -5.742378e-01
61 1 2 -9.840758e+00 1.000390e+01 1.673360e+01 0 -1 0 6.633062e-02 -7.302755e-01 5.382886e-02 -6.777908e-01
62 1 3 -9.358275e+00 1.033676e+01 1.684263e+01 0 -1 0 2.352943e-01 -6.433488e-01 2.370631e-01 -6.888687e-01
63 1 2 -9.043566e+00 1.054373e+01 1.717342e+01 0 -1 0 4.781258e-01 -5.501991e-01 2.892465e-01 -6.204942e-01
64 1 4 -8.650886e+00 1.059671e+01 1.750481e+01 0 -1 0 6.296702e-01 -3.608638e-01 4.655685e-01 -5.064966e-01
65 1 2 -8.225347e+00 1.053267e+01 1.781258e+01 0 -1 0 6.786753e-01 -2.320779e-01 5.545986e-01 -4.218532e-01
66 1 1 -7.987082e+00 1.021939e+01 1.811727e+01 0 -1 0 8.196627e-01 9.296487e-03 5.652623e-01 -9.244004e-02
67 1 2 -7.616444e+00 9.944712e+00 1.823730e+01 0 -1 0 7.641162e-01 1.090829e-01 5.834066e-01 2.527134e-01
68 1 1 -7.104087e+00 9.827639e+00 1.811721e+01 0 -1 0 6.489822e-01 2.721232e-01 4.859695e-01 5.182709e-01
69 1 1 -6.585469e+00 9.808295e+00 1.800161e+01 0 -1 0 4.655813e-01 4.483162e-01 5.149441e-01 5.630979e-01
70 1 2 -6.149490e+00 1.000301e+01 1.783211e+01 0 -1 0 -2.522489e-01 -5.407367e-01 -4.467407e-01 -6.666312e-01
71 1 3 -5.671022e+00 1.036350e+01 1.763235e+01 0 -1 0 -1.033113e-01 -4.864075e-01 -4.091541e-01 -7.650670e-01
72 1 4 -5.489033e+00 1.083730e+01 1.757499e+01 0 -1 0 2.082700e-01 -6.268667e-01 -1.977294e-01 -7.242684e-01
73 1 1 -5.259342e+00 1.126496e+01 1.773563e+01 0 -1 0 3.621280e-01 -6.396450e-01 1.419439e-01 -6.630004e-01
74 1 1 -4.997015e+00 1.147727e+01 1.814216e+01 0 -1 0 6.461814e-01 -5.106301e-01 2.018034e-01 -5.300773e-01
75 1 3 -4.682284e+00 1.153551e+01 1.861993e+01 0 -1 0 7.290818e-01 -3.820806e-01 4.402883e-01 -3.586088e-01
76 1 1 -4.303032e+00 1.144282e+01 1.894594e+01 0 -1 0 7.751542e-01 -2.081423e-01 5.731673e-01 -1.652029e-01
77 1 4 -3.785426e+00 1.127773e+01 1.904026e+01 0 -1 0 7.401099e-01 -5.152158e-02 6.676077e-01 6.231309e-02
78 1 1 -3.255675e+00 1.112141e+01 1.902332e+01 0 -1 0 6.095126e-01 1.557061e-01 6.950255e-01 3.481230e-01
79 1 4 -2.784817e+00 1.113002e+01 1.881819e+01 0 -1 0 4.738372e-01 2.890908e-01 6.847101e-01 4.723101e-01
80 1 2 -2.313259e+00 1.134493e+01 1.854642e+01 0 -1 0 -2.821703e-01 -3.510486e-01 -6.828579e-01 -5.751955e-01
81 1 4 -2.263442e+00 1.160402e+01 1.809184e+01 0 -1 0 -1.560850e-02 -6.104086e-01 -5.824762e-01 -5.365437e-01
82 1 4 -2.176211e+00 1.200879e+01 1.783279e+01 0 -1 0 2.332697e-01 -7.364983e-01 -4.250267e-01 -4.717073e-01
83 1 4 -2.104297e+00 1.257193e+01 1.762648e+01 0 -1 0 4.039188e-01 -7.619250e-01 -1.322742e-01 -4.886957e-01
84 1 4 -2.020512e+00 1.304103e+01 1.776895e+01 0 -1 0 7.015922e-01 -6.208136e-01 1.122378e-02 -3.496183e-01
85 1 1 -1.891648e+00 1.343964e+01 1.802536e+01 0 -1 0 8.287033e-01 -4.975792e-01 1.463878e-01 -2.103246e-01
86 1 1 -1.644052e+00 1.357339e+01 1.847849e+01 0 -1 0 8.205054e-01 -4.282286e-01 3.724845e-01 6.816511e-02
87 1 3 -1.182354e+00 1.387224e+01 1.874810e+01 0 -1 0 7.481540e-01 -3.186438e-01 5.542726e-01 1.775208e-01
88 1 2 -6.707670e-01 1.395961e+01 1.876508e+01 0 -1 0 5.808107e-01 -6.339191e-02 6.435561e-01 4.944451e-01
89 1 2 -2.598536e-01 1.436778e+01 1.873269e+01 0 -1 0 -4.789004e-01 8.885320e-02 -7.840630e-01 -3.847137e-01
90 1 3 1.421287e-01 1.445958e+01 1.845555e+01 0 -1 0 -2.869463e-01 -2.119566e-01 -7.608223e-01 -5.421121e-01
91 1 3 3.676793e-01 1.476155e+01 1.808378e+01 0 -1 0 -5.017293e-02 -3.885312e-01 -7.256286e-01 -5.656760e-01
92 1 2 2.993990e-01 1.515042e+01 1.772517e+01 0 -1 0 2.097518e-01 -6.388019e-01 -5.115917e-01 -5.349861e-01
93 1 1 2.938167e-01 1.556600e+01 1.747489e+01 0 -1 0 3.996650e-01 -7.024511e-01 -3.261017e-01 -4.903957e-01
94 1 2 4.062951e-01 1.548166e+01 1.629315e+01 0 -1 0 -8.494775e-01 -9.125872e-02 -4.338201e-01 2.861116e-01
95 1 3 4.546329e-01 1.550255e+01 1.551371e+01 0 -1 0 -6.626723e-01 -6.673557e-01 2.389550e-01 2.416657e-01
96 1 2 3.135070e-02 1.606147e+01 1.574290e+01 0 -1 0 6.198706e-01 -6.567421e-01 4.242845e-01 6.657903e-02
97 1 2 -1.051225e+00 1.608999e+01 1.572856e+01 0 -1 0 -8.452381e-01 -3.985057e-01 -2.449233e-01 2.584148e-01
98 1 4 -1.387394e+00 1.615553e+01 1.534317e+01 0 -1 0 -4.604723e-01 5.448986e-01 -5.703806e-01 -4.070833e-01
99 1 2 -1.037263e+00 1.586784e+01 1.461410e+01 0 -1 0 8.845893e-01 4.656786e-01 -2.502140e-02 -4.377263e-03
100 1 1 -1.007288e+00 1.680092e+01 1.490284e+01 0 -1 0 3.929913e-02 -4.915558e-01 8.168465e-02 -8.661155e-01
101 2 4 3.402914e+00 1.790450e+01 -2.030999e+01 0 -1 1 6.710393e-01 -7.244429e-01 2.008287e-02 -1.564784e-01
102 2 3 2.254464e+00 1.840054e+01 1.930347e+01 0 -1 0 -7.634918e-02 6.811715e-01 3.066588e-01 6.604063e-01
103 2 1 2.822335e+00 1.767063e+01 1.824194e+01 0 -1 0 -2.322903e-01 -8.586187e-01 4.059471e-01 2.098144e-01
104 2 3 2.013806e+00 1.756073e+01 1.911436e+01 0 -1 0 8.737052e-01 1.174881e-01 -4.693919e-01 5.006942e-02
105 2 3 1.720230e+00 1.726261e+01 1.941144e+01 0 -1 0 -8.112655e-01 1.447740e-01 4.422826e-01 -3.539419e-01
106 2 2 1.336236e+00 1.693697e+01 1.914820e+01 0 -1 0 3.583723e-01 4.054976e-01 5.627303e-01 6.248805e-01
107 2 3 1.338475e+00 1.634226e+01 1.945670e+01 0 -1 0 -5.130856e-01 1.071344e-01 2.749190e-01 -8.060303e-01
108 2 4 5.843405e-01 1.576714e+01 1.862514e+01 0 -1 0 -1.482269e-01 -5.271851e-01 -3.396924e-01 7.646658e-01
109 2 3 8.011402e-02 1.568917e+01 1.878414e+01 0 -1 0 4.199075e-01 6.504249e-01 1.180884e-01 -6.218362e-01
110 2 2 -3.716902e-01 1.544626e+01 1.868649e+01 0 -1 0 5.194113e-01 7.316087e-01 -5.560475e-02 -4.380283e-01
111 2 2 -7.605019e-01 1.520584e+01 1.837094e+01 0 -1 0 6.450886e-01 6.989056e-01 -2.229715e-01 -2.137181e-01
112 2 3 -9.558120e-01 1.487970e+01 1.801801e+01 0 -1 0 5.788099e-01 6.855947e-01 -4.414448e-01 8.093355e-03
113 2 3 -1.031624e+00 1.446765e+01 1.773770e+01 0 -1 0 5.331191e-01 5.782152e-01 -5.612852e-01 2.577014e-01
114 2 2 -8.589895e-01 1.387516e+01 1.758587e+01 0 -1 0 4.986480e-01 3.619936e-01 -6.683483e-01 4.166789e-01
115 2 4 -7.201622e-01 1.337596e+01 1.772456e+01 0 -1 0 2.823028e-01 8.291769e-02 -7.726424e-01 5.625419e-01
116 2 4 -7.804072e-01 1.291533e+01 1.789214e+01 0 -1 0 1.540021e-01 -1.207203e-01 -6.647863e-01 7.209501e-01
117 2 1 -1.052284e+00 1.252837e+01 1.825943e+01 0 -1 0 1.158463e-01 -2.737138e-01 -4.501050e-01 8.420605e-01
118 2 1 -1.387701e+00 1.238096e+01 1.861729e+01 0 -1 0 -1.461937e-01 -4.962524e-01 -2.656571e-01 8.135031e-01
119 2 1 -1.882193e+00 1.247149e+01 1.887703e+01 0 -1 0 -2.398636e-01 -5.727685e-01 -2.441756e-02 7.834574e-01
120 2 1 -2.494379e+00 1.249926e+01 1.885573e+01 0 -1 0 -4.469396e-01 -6.371780e-01 2.168466e-01 5.892595e-01
121 2 3 -3.071436e+00 1.231130e+01 1.880727e+01 0 -1 0 5.631866e-01 6.922644e-01 -1.435956e-01 -4.277513e-01
122 2 1 -3.335371e+00 1.207959e+01 1.848895e+01 0 -1 0 6.250971e-01 6.173215e-01 -4.500601e-01 -1.600426e-01
123 2 4 -3.410822e+00 1.185505e+01 1.807807e+01 0 -1 0 5.884045e-01 4.096002e-01 -6.968410e-01 2.050692e-02
124 2 1 -3.545519e+00 1.139858e+01 1.787539e+01 0 -1 0 5.360117e-01 2.282015e-01 -7.855860e-01 2.084949e-01
125 2 4 -3.931974e+00 1.100208e+01 1.793368e+01 0 -1 0 6.156694e-01 5.554473e-02 -7.329684e-01 2.839423e-01
126 2 2 -4.173246e+00 1.057544e+01 1.812222e+01 0 -1 0 4.422101e-01 -2.461436e-01 -6.919681e-01 5.148239e-01
127 2 4 -4.634568e+00 1.029858e+01 1.829735e+01 0 -1 0 4.541836e-01 -4.401752e-01 -5.503020e-01 5.450970e-01
128 2 4 -5.011356e+00 1.045981e+01 1.859619e+01 0 -1 0 2.148064e-01 -5.836400e-01 -2.515138e-01 7.415952e-01
129 2 1 -5.579886e+00 1.064392e+01 1.876610e+01 0 -1 0 3.131541e-02 -7.175353e-01 -1.571126e-01 6.778481e-01
130 2 2 -6.093905e+00 1.083433e+01 1.867211e+01 0 -1 0 -2.296532e-01 -7.420177e-01 2.427193e-02 6.293489e-01
131 2 3 -6.422419e+00 1.104628e+01 1.827544e+01 0 -1 0 -3.436326e-01 -6.743824e-01 4.358845e-01 4.869597e-01
132 2 4 -6.827867e+00 1.105005e+01 1.800874e+01 0 -1 0 4.057585e-01 6.632624e-01 -5.502680e-01 -3.043817e-01
133 2 4 -7.039849e+00 1.086269e+01 1.757559e+01 0 -1 0 4.590671e-01 4.772016e-01 -7.429835e-01 -9.752748e-02
134 2 3 -7.338238e+00 1.054137e+01 1.718951e+01 0 -1 0 4.949767e-01 3.009057e-01 -8.109778e-01 8.227270e-02
135 2 4 -7.683413e+00 1.008433e+01 1.699317e+01 0 -1 0 -6.239233e-01 -1.622023e-01 7.261967e-01 -2.388483e-01
136 2 3 -8.055211e+00 9.635951e+00 1.706441e+01 0 -1 0 -5.925545e-01 1.718277e-01 7.033104e-01 -3.531413e-01
137 2 1 -8.581914e+00 9.443519e+00 1.728381e+01 0 -1 0 6.050484e-01 -3.320575e-01 -5.068757e-01 5.164603e-01
138 2 3 -8.971021e+00 9.406366e+00 1.757921e+01 0 -1 0 3.965569e-01 -5.295014e-01 -3.592269e-01 6.582757e-01
139 2 2 -9.413440e+00 9.530694e+00 1.779068e+01 0 -1 0 3.035761e-01 -6.569886e-01 -1.876147e-01 6.640845e-01
140 2 3 -9.796459e+00 9.896605e+00 1.789828e+01 0 -1 0 1.674533e-01 -6.841644e-01 1.435316e-01 6.951814e-01
141 2 1 -1.006596e+01 1.036865e+01 1.781968e+01 0 -1 0 -5.582846e-02 -6.328293e-01 3.580391e-01 6.842647e-01
142 2 2 -1.048537e+01 1.063435e+01 1.751012e+01 0 -1 0 -3.334605e-01 -5.511383e-01 4.831024e-01 5.930115e-01
143 2 4 -1.096808e+01 1.062769e+01 1.728846e+01 0 -1 0 5.989646e-01 3.904828e-01 -5.663286e-01 -4.099226e-01
144 2 4 -1.133274e+01 1.040052e+01 1.702475e+01 0 -1 0 -6.414878e-01 -3.030608e-01 6.870114e-01 1.570439e-01
145 2 1 -1.169665e+01 1.010278e+01 1.689743e+01 0 -1 0 -6.951626e-01 -1.221216e-01 6.983440e-01 -1.189582e-01
146 2 1 -1.200586e+01 9.721646e+00 1.698659e+01 0 -1 0 -6.807066e-01 1.920988e-02 6.423397e-01 -3.516662e-01
147 2 1 -1.221430e+01 9.378646e+00 1.739600e+01 0 -1 0 -5.554933e-01 2.320068e-01 5.506966e-01 -5.782156e-01
148 2 2 -1.252524e+01 9.268105e+00 1.779726e+01 0 -1 0 -2.704493e-01 4.638136e-01 4.592367e-01 -7.076976e-01
149 2 4 -1.298241e+01 8.965002e+00 1.802221e+01 0 -1 0 3.458349e-01 -5.019889e-01 -3.182498e-01 7.260320e-01
150 2 1 -1.340516e+01 9.068490e+00 1.837086e+01 0 -1 0 1.249401e-01 -6.266658e-01 -1.633395e-01 7.516649e-01
151 2 1 -1.382141e+01 9.319346e+00 1.851697e+01 0 -1 0 2.764285e-02 -6.294773e-01 8.030093e-02 7.723639e-01
152 2 1 -1.426746e+01 9.633898e+00 1.850626e+01 0 -1 0 -1.909591e-01 -5.913404e-01 3.450581e-01 7.034103e-01
153 2 4 -1.482984e+01 9.813763e+00 1.838137e+01 0 -1 0 -4.318247e-01 -5.824910e-01 3.509047e-01 5.925349e-01
154 2 1 -1.527889e+01 9.827609e+00 1.818572e+01 0 -1 0 -6.061655e-01 -4.598716e-01 5.245211e-01 3.820458e-01
155 2 2 -1.570689e+01 9.507652e+00 1.792916e+01 0 -1 0 -7.232308e-01 -3.135412e-01 5.997806e-01 1.374491e-01
156 2 4 -1.607547e+01 9.117292e+00 1.786277e+01 0 -1 0 -7.503940e-01 -3.023984e-02 6.543780e-01 -8.822585e-02
157 2 3 -1.647221e+01 8.781712e+00 1.801889e+01 0 -1 0 -6.820881e-01 2.609863e-01 6.105084e-01 -3.064662e-01
158 2 2 -1.681493e+01 8.656885e+00 1.838071e+01 0 -1 0 -4.941618e-01 4.873284e-01 4.820701e-01 -5.347182e-01
159 2 1 -1.739336e+01 8.742635e+00 1.857354e+01 0 -1 0 -6.195342e-01 4.370745e-01 3.322931e-01 -5.610031e-01
160 2 3 -1.759043e+01 9.012322e+00 1.896432e+01 0 -1 0 4.187255e-01 -5.061046e-01 -7.691888e-02 7.500737e-01
161 2 1 -1.797047e+01 9.370578e+00 1.913546e+01 0 -1 0 2.561211e-01 -5.710995e-01 1.518625e-01 7.649740e-01
162 2 1 -1.832520e+01 9.838880e+00 1.925859e+01 0 -1 0 -3.031639e-02 -6.566028e-01 2.693717e-01 7.038413e-01
163 2 4 -1.861788e+01 1.015759e+01 1.897546e+01 0 -1 0 -2.769756e-01 -5.581223e-01 4.702861e-01 6.249920e-01
164 2 4 -1.896200e+01 1.028608e+01 1.868632e+01 0 -1 0 -5.128864e-01 -2.750740e-01 6.297134e-01 5.145317e-01
165 2 3 -1.946240e+01 1.029175e+01 1.847255e+01 0 -1 0 -6.250702e-01 -2.729245e-01 6.470325e-01 3.408055e-01
166 2 3 2.013603e+01 1.005156e+01 1.833091e+01 -1 -1 0 -6.694482e-01 -6.219638e-02 7.353708e-01 8.485509e-02
167 2 4 1.968876e+01 9.726625e+00 1.833053e+01 -1 -1 0 -6.812634e-01 1.401416e-01 7.054241e-01 -1.364458e-01
168 2 2 1.928047e+01 9.517021e+00 1.854384e+01 -1 -1 0 -6.451202e-01 3.481453e-01 5.815860e-01 -3.526649e-01
169 2 2 1.894400e+01 9.547228e+00 1.879703e+01 -1 -1 0 -4.946273e-01 4.868373e-01 3.613144e-01 -6.227240e-01
170 2 1 1.847745e+01 9.636883e+00 1.905188e+01 -1 -1 0 -5.321960e-01 5.486825e-01 2.556935e-01 -5.918917e-01
171 2 1 1.820272e+01 1.010586e+01 1.927350e+01 -1 -1 0 3.328434e-01 -6.804098e-01 4.168578e-02 6.515521e-01
172 2 4 1.808932e+01 1.069848e+01 1.925645e+01 -1 -1 0 1.273335e-01 -6.131819e-01 3.029156e-01 7.183566e-01
173 2 4 1.769449e+01 1.117883e+01 1.920747e+01 -1 -1 0 -6.665420e-02 -6.326593e-01 4.573962e-01 6.213599e-01
174 2 1 1.743138e+01 1.145609e+01 1.877694e+01 -1 -1 0 -2.089151e-01 -5.377119e-01 6.601563e-01 4.810551e-01
175 2 1 1.719410e+01 1.157712e+01 1.835064e+01 -1 -1 0 -3.761258e-01 -2.856663e-01 7.713027e-01 4.266336e-01
176 2 2 1.679156e+01 1.161192e+01 1.804822e+01 -1 -1 0 -5.300882e-01 -1.841990e-01 7.884468e-01 2.518510e-01
177 2 2 1.651070e+01 1.138255e+01 1.774835e+01 -1 -1 0 -5.261670e-01 1.171804e-01 8.419353e-01 2.370666e-02
178 2 1 1.601334e+01 1.133132e+01 1.764827e+01 -1 -1 0 -5.876297e-01 2.436828e-01 7.578969e-01 -1.445764e-01
179 2 4 1.563799e+01 1.111922e+01 1.777967e+01 -1 -1 0 -5.378303e-01 3.824283e-01 6.254193e-01 -4.163386e-01
180 2 1 1.511314e+01 1.107800e+01 1.804118e+01 -1 -1 0 -4.168981e-01 5.556934e-01 5.019056e-01 -5.152588e-01
181 2 4 1.463090e+01 1.129873e+01 1.817506e+01 -1 -1 0 3.159996e-01 -7.316312e-01 -2.437782e-01 5.526593e-01
182 2 2 1.423564e+01 1.159445e+01 1.824655e+01 -1 -1 0 2.187560e-01 -7.563499e-01 -2.612446e-02 6.159531e-01
183 2 3 1.399390e+01 1.205574e+01 1.817884e+01 -1 -1 0 1.880448e-02 -7.168790e-01 1.887269e-01 6.709047e-01
184 2 4 1.345275e+01 1.220630e+01 1.805193e+01 -1 -1 0 -7.844014e-02 -7.766688e-01 3.060473e-01 5.449475e-01
185 2 3 1.321179e+01 1.245906e+01 1.759878e+01 -1 -1 0 -2.430616e-01 -6.717939e-01 5.556783e-01 4.252477e-01
186 2 1 1.289731e+01 1.253669e+01 1.713361e+01 -1 -1 0 -3.764700e-01 -5.739236e-01 6.676197e-01 2.883852e-01
187 2 1 1.287021e+01 1.225525e+01 1.664649e+01 -1 -1 0 -3.688797e-01 -2.442120e-01 8.915842e-01 9.677685e-02
188 2 2 1.249220e+01 1.200037e+01 1.630925e+01 -1 -1 0 -4.265461e-01 9.668996e-03 9.000512e-01 -8.872802e-02
189 2 4 1.206636e+01 1.168482e+01 1.615502e+01 -1 -1 0 -5.051638e-01 2.008692e-01 7.984475e-01 -2.587327e-01
190 2 4 1.151030e+01 1.150857e+01 1.604418e+01 -1 -1 0 -6.453323e-01 2.039313e-01 6.655647e-01 -3.146137e-01
191 2 1 1.111059e+01 1.135394e+01 1.642725e+01 -1 -1 0 4.754220e-01 -4.866962e-01 -4.407795e-01 5.855033e-01
192 2 4 1.066141e+01 1.137896e+01 1.678839e+01 -1 -1 0 -3.557071e-01 5.581297e-01 3.176568e-01 -6.790124e-01
193 2 4 1.018297e+01 1.156504e+01 1.697402e+01 -1 -1 0 -2.422966e-01 6.674468e-01 3.875667e-02 -7.030683e-01
194 2 1 9.868612e+00 1.207003e+01 1.696934e+01 -1 -1 0 -2.902276e-03 7.018359e-01 -1.033654e-01 -7.047933e-01
195 2 3 9.298458e+00 1.132896e+01 1.787572e+01 -1 -1 0 -5.850007e-01 -2.611172e-02 6.584445e-01 -4.728036e-01
196 2 4 9.224810e+00 1.094662e+01 1.818463e+01 -1 -1 0 -3.493448e-01 2.062569e-01 5.885437e-01 -6.993086e-01
197 2 2 9.298057e+00 1.102240e+01 1.897255e+01 -1 -1 0 1.147130e-01 6.402947e-01 -4.168709e-01 6.348876e-01
198 2 4 9.752001e+00 1.075635e+01 1.918388e+01 -1 -1 0 -2.586671e-01 3.141153e-01 -6.992104e-01 5.878161e-01
199 2 3 1.002896e+01 1.043173e+01 1.941931e+01 -1 -1 0 4.834646e-01 -1.494552e-02 7.849845e-01 -3.870891e-01
200 2 4 1.033028e+01 1.005999e+01 1.939712e+01 -1 -1 0 -5.559558e-01 -2.498321e-01 -7.917797e-01 3.977521e-02
