ITEM: TIMESTEP
216000000
ITEM: NUMBER OF ATOMS
200
ITEM: BOX BOUNDS pp pp pp
-2.0000000000000000e+01 2.0000000000000000e+01
-2.0000000000000000e+01 2.0000000000000000e+01
-2.0000000000000000e+01 2.0000000000000000e+01
ITEM: ATOMS id mol type x y z ix iy iz c_quat[1] c_quat[2] c_quat[3] c_quat[4]
1 1 1 1.201959e+01 -8.130636e+00 1.234248e+01 -1 -1 1 -7.909397e-01 5.557372e-01 -1.046514e-01 2.337062e-01
2 1 2 1.219308e+01 -7.829728e+00 1.274025e+01 -1 -1 1 8.334032e-01 -4.616815e-01 2.993240e-01 -5.190805e-02
3 1 1 1.256727e+01 -7.788675e+00 1.311619e+01 -1 -1 1 8.289816e-01 -2.790540e-01 4.320450e-01 2.196713e-01
4 1 3 1.302927e+01 -7.715210e+00 1.336248e+01 -1 -1 1 6.244795e-01 -2.261282e-01 4.788939e-01 5.740663e-01
5 1 1 1.355449e+01 -7.473273e+00 1.328740e+01 -1 -1 1 5.483166e-01 6.219689e-02 6.306717e-01 5.456498e-01
6 1 2 1.398787e+01 -7.202569e+00 1.315986e+01 -1 -1 1 3.195773e-01 1.894748e-01 6.443257e-01 6.684415e-01
7 1 4 1.433059e+01 -6.872102e+00 1.286240e+01 -1 -1 1 -9.130586e-02 -4.018697e-01 -6.083331e-01 -6.783030e-01
8 1 1 1.457083e+01 -6.356209e+00 1.269167e+01 -1 -1 1 -1.534303e-01 4.062171e-01 5.632702e-01 7.029747e-01
9 1 1 1.445512e+01 -5.817945e+00 1.257467e+01 -1 -1 1 4.120304e-01 -5.439554e-01 -3.585608e-01 -6.370068e-01
10 1 4 1.431756e+01 -5.335450e+00 1.278742e+01 -1 -1 1 -6.314740e-01 6.513785e-01 1.226642e-01 4.023681e-01
11 1 1 1.425409e+01 -4.962890e+00 1.306056e+01 -1 -1 1 -7.828827e-01 6.045534e-01 -9.190124e-02 1.147347e-01
12 1 1 1.457078e+01 -4.556532e+00 1.337103e+01 -1 -1 1 7.225372e-01 -5.749682e-01 3.821972e-01 -3.573253e-02
13 1 3 1.504863e+01 -4.291709e+00 1.357244e+01 -1 -1 1 -6.390507e-01 4.682760e-01 -6.034243e-01 -9.061424e-02
14 1 4 1.559129e+01 -4.113606e+00 1.353962e+01 -1 -1 1 5.475985e-01 -3.217507e-01 7.217703e-01 2.750638e-01
15 1 4 1.609068e+01 -3.974300e+00 1.325538e+01 -1 -1 1 4.331141e-01 -5.926636e-02 8.190215e-01 3.716227e-01
16 1 2 1.634929e+01 -3.860339e+00 1.289307e+01 -1 -1 1 -2.978665e-01 -2.000171e-01 -8.524788e-01 -3.801956e-01
17 1 1 1.650112e+01 -3.689617e+00 1.240441e+01 -1 -1 1 -1.296990e-01 -3.797744e-01 -8.375529e-01 -3.707488e-01
18 1 2 1.656194e+01 -3.512182e+00 1.188883e+01 -1 -1 1 9.397467e-03 5.719171e-01 7.098390e-01 4.110366e-01
19 1 3 1.659153e+01 -3.189707e+00 1.149285e+01 -1 -1 1 -2.366692e-01 6.453343e-01 6.440521e-01 3.357502e-01
20 1 1 1.635762e+01 -2.804448e+00 1.127859e+01 -1 -1 1 -4.474699e-01 7.603528e-01 4.396488e-01 1.683546e-01
21 1 4 1.618747e+01 -2.345082e+00 1.112470e+01 -1 -1 1 5.776950e-01 -7.600285e-01 -2.836557e-01 -9.035806e-02
22 1 1 1.600782e+01 -1.893941e+00 1.132248e+01 -1 -1 1 6.369689e-01 -7.618105e-01 1.213895e-02 1.173373e-01
23 1 4 1.608914e+01 -1.368281e+00 1.142916e+01 -1 -1 1 4.689336e-01 -7.462212e-01 3.651386e-01 2.998816e-01
24 1 3 1.643728e+01 -8.665798e-01 1.139749e+01 -1 -1 1 3.402295e-01 -6.582366e-01 5.220626e-01 4.223969e-01
25 1 3 1.668681e+01 -4.604280e-01 1.110740e+01 -1 -1 1 2.327803e-01 -4.952345e-01 7.268571e-01 4.150118e-01
26 1 4 1.697848e+01 -2.517520e-01 1.060843e+01 -1 -1 1 9.588326e-02 -1.858683e-01 8.588257e-01 4.676300e-01
27 1 4 1.706762e+01 -5.425578e-02 1.018819e+01 -1 -1 1 -7.653236e-03 4.198415e-02 9.349709e-01 3.521478e-01
28 1 1 1.695241e+01 1.437934e-01 9.674017e+00 -1 -1 1 -2.563718e-01 2.880315e-01 8.552331e-01 3.462480e-01
29 1 1 1.655811e+01 2.611165e-01 9.329746e+00 -1 -1 1 -3.056598e-01 6.117407e-01 6.687082e-01 2.918470e-01
30 1 4 1.623479e+01 7.244524e-01 9.064613e+00 -1 -1 1 3.874044e-01 -7.548495e-01 -4.386155e-01 -2.962036e-01
31 1 4 1.606016e+01 1.181930e+00 8.956276e+00 -1 -1 1 5.006723e-01 -7.914650e-01 -2.776905e-01 -2.140058e-01
32 1 3 1.611251e+01 1.782193e+00 8.963643e+00 -1 -1 1 5.894200e-01 -7.888416e-01 8.985354e-02 -1.491285e-01
33 1 3 1.639614e+01 2.256872e+00 8.968493e+00 -1 -1 1 6.117465e-01 -6.974502e-01 3.723562e-01 -2.608151e-02
34 1 1 1.677458e+01 2.552691e+00 9.033476e+00 -1 -1 1 5.589123e-01 -5.378539e-01 6.150590e-01 1.415365e-01
35 1 2 1.713901e+01 2.925421e+00 8.881699e+00 -1 -1 1 5.271749e-01 -4.378261e-01 7.182211e-01 1.206371e-01
36 1 2 1.766046e+01 2.959810e+00 8.713666e+00 -1 -1 1 4.951559e-01 -1.962526e-01 8.319100e-01 1.556638e-01
37 1 1 1.811675e+01 3.000140e+00 8.432890e+00 -1 -1 1 3.463825e-01 -6.915823e-02 9.102882e-01 2.158972e-01
38 1 1 1.838811e+01 3.016579e+00 7.996334e+00 -1 -1 1 2.004676e-01 1.640852e-01 9.108081e-01 3.214303e-01
39 1 4 1.845651e+01 3.068212e+00 7.500129e+00 -1 -1 1 -3.403108e-02 -5.034746e-01 -7.590162e-01 -4.113997e-01
40 1 4 1.841554e+01 3.381267e+00 7.065565e+00 -1 -1 1 1.748599e-01 -6.768139e-01 -6.014844e-01 -3.867344e-01
41 1 2 1.833247e+01 3.887573e+00 6.941158e+00 -1 -1 1 3.153318e-01 -8.346631e-01 -3.104938e-01 -3.278673e-01
42 1 4 1.847254e+01 4.329764e+00 6.690829e+00 -1 -1 1 -4.268276e-01 8.033767e-01 2.767421e-01 3.095446e-01
43 1 3 1.867774e+01 4.854002e+00 6.524380e+00 -1 -1 1 5.157046e-01 -7.939999e-01 -6.165274e-02 -3.159302e-01
44 1 2 1.889275e+01 5.337928e+00 6.665316e+00 -1 -1 1 6.669326e-01 -6.802598e-01 1.902393e-01 -2.371846e-01
45 1 1 1.919054e+01 5.706279e+00 6.949203e+00 -1 -1 1 6.167778e-01 -6.459683e-01 4.494528e-01 1.738915e-02
46 1 3 1.967914e+01 5.926754e+00 7.116896e+00 -1 -1 1 5.285323e-01 -4.596378e-01 6.249461e-01 3.447160e-01
47 1 4 -1.978437e+01 6.220559e+00 7.032796e+00 0 -1 1 4.817078e-01 -3.690871e-01 7.273254e-01 3.205153e-01
48 1 1 -1.937315e+01 6.344927e+00 6.757396e+00 0 -1 1 -3.765492e-01 9.106752e-02 -8.072957e-01 -4.451866e-01
49 1 4 -1.910406e+01 6.503920e+00 6.286562e+00 0 -1 1 -1.830023e-01 -1.667376e-01 -7.537753e-01 -6.087130e-01
50 1 4 -1.900188e+01 6.773255e+00 5.854344e+00 0 -1 1 5.573203e-03 -3.902302e-01 -7.213830e-01 -5.720977e-01
51 1 4 -1.907046e+01 7.237538e+00 5.527063e+00 0 -1 1 2.139724e-01 -5.952746e-01 -5.554141e-01 -5.397954e-01
52 1 1 -1.911090e+01 7.747513e+00 5.405856e+00 0 -1 1 4.446110e-01 -6.995854e-01 -3.333906e-01 -4.491680e-01
53 1 3 -1.913163e+01 8.329016e+00 5.587004e+00 0 -1 1 5.821283e-01 -7.316362e-01 -9.041700e-02 -3.430160e-01
54 1 4 -1.911148e+01 8.741096e+00 5.900639e+00 0 -1 1 7.810924e-01 -6.010740e-01 1.354401e-01 -1.012951e-01
55 1 4 -1.877229e+01 9.098907e+00 6.213594e+00 0 -1 1 7.370419e-01 -5.507628e-01 3.725472e-01 1.209881e-01
56 1 4 -1.834667e+01 9.424344e+00 6.414847e+00 0 -1 1 6.652424e-01 -4.289358e-01 5.671488e-01 2.276157e-01
57 1 1 -1.902755e+01 9.369042e+00 7.652583e+00 0 -1 1 6.053142e-01 -5.403631e-01 -4.828681e-01 -3.293034e-01
58 1 1 -1.862045e+01 8.319256e+00 7.558738e+00 0 -1 1 9.311239e-01 -1.469956e-01 -1.280034e-01 -3.082460e-01
59 1 3 -1.882656e+01 8.232737e+00 8.091669e+00 0 -1 1 -9.955059e-01 9.349044e-02 5.004144e-03 1.423268e-02
60 1 4 -1.983960e+01 9.279476e+00 8.667204e+00 0 -1 1 -9.338521e-02 1.314811e-01 1.252875e-01 9.789254e-01
61 1 2 -1.984464e+01 9.634630e+00 9.037469e+00 0 -1 1 4.636003e-01 -1.395116e-01 -8.496280e-02 -8.708574e-01
62 1 3 -2.006627e+01 9.912127e+00 9.505473e+00 0 -1 1 -7.054765e-01 5.454002e-02 7.333577e-02 7.028159e-01
63 1 2 1.975659e+01 9.786670e+00 9.943105e+00 -1 -1 1 8.553135e-01 7.484916e-02 -1.457187e-01 -4.915307e-01
64 1 4 1.935625e+01 1.087187e+01 1.065248e+01 -1 -1 1 -2.888000e-01 -5.627881e-01 2.311679e-01 -7.392060e-01
65 1 2 1.910042e+01 1.033495e+01 1.084034e+01 -1 -1 1 2.832986e-01 -5.684660e-02 9.536892e-01 8.358969e-02
66 1 1 -1.982670e+01 1.122467e+01 1.086784e+01 0 -1 1 8.734746e-01 4.685097e-01 3.134357e-02 1.286794e-01
67 1 2 -1.944897e+01 1.157293e+01 1.107310e+01 0 -1 1 9.284674e-02 7.428372e-01 -4.309907e-01 -5.038050e-01
68 1 1 -1.949768e+01 1.078111e+01 1.193719e+01 0 -1 1 7.750435e-01 -3.269498e-02 -2.437880e-01 -5.820704e-01
69 1 1 -1.981193e+01 1.066931e+01 1.231003e+01 0 -1 1 -9.075472e-01 1.853570e-01 2.755875e-01 2.570067e-01
70 1 2 1.999556e+01 1.068908e+01 1.275481e+01 -1 -1 1 -9.753884e-01 1.510542e-01 1.599772e-01 -1.440208e-02
71 1 3 1.952328e+01 1.111017e+01 1.345195e+01 -1 -1 1 6.058483e-01 -3.900361e-01 3.921516e-01 -5.718714e-01
72 1 4 1.982500e+01 1.106516e+01 1.387485e+01 -1 -1 1 -7.128092e-01 2.144575e-01 -5.483265e-01 3.811155e-01
73 1 1 -1.979268e+01 1.075633e+01 1.403951e+01 0 -1 1 -8.180684e-01 -1.076693e-01 -5.649399e-01 3.790766e-03
74 1 1 -1.945017e+01 1.037851e+01 1.411671e+01 0 -1 1 3.753737e-01 7.935689e-01 -1.995192e-01 -4.353563e-01
75 1 3 -1.987104e+01 1.016267e+01 1.375448e+01 0 -1 1 2.901033e-01 8.796348e-01 -2.144413e-01 -3.099961e-01
76 1 1 1.901666e+01 1.058717e+01 1.349044e+01 -1 -1 1 -4.680678e-02 4.485307e-01 5.620157e-02 -8.907698e-01
77 1 4 1.868125e+01 1.082392e+01 1.372980e+01 -1 -1 1 1.858065e-01 5.162513e-01 -2.282078e-01 -8.042896e-01
78 1 1 1.893803e+01 9.969778e+00 1.399546e+01 -1 -1 1 -8.956786e-02 -8.478601e-01 5.197078e-01 -5.490532e-02
79 1 4 1.834200e+01 1.033720e+01 1.488176e+01 -1 -1 1 -9.024506e-02 8.978666e-01 1.087470e-01 4.169718e-01
80 1 2 1.719910e+01 9.604759e+00 1.461737e+01 -1 -1 1 -6.681826e-01 2.393498e-01 4.766327e-01 5.187147e-01
81 1 4 1.684821e+01 9.868591e+00 1.497788e+01 -1 -1 1 8.555477e-01 -1.930085e-01 -3.439944e-01 -3.353413e-01
82 1 4 1.649463e+01 9.816114e+00 1.536676e+01 -1 -1 1 -9.122498e-01 2.789953e-01 2.714877e-01 -1.275000e-01
83 1 4 1.616101e+01 9.896140e+00 1.584291e+01 -1 -1 1 9.338344e-01 -2.811977e-01 -1.213688e-01 1.847993e-01
84 1 4 1.639069e+01 1.059885e+01 1.637455e+01 -1 -1 1 -6.431500e-01 -4.359378e-01 4.350075e-01 -4.550657e-01
85 1 1 1.632535e+01 1.032185e+01 1.677741e+01 -1 -1 1 5.316176e-01 -2.733409e-01 -5.206006e-01 6.096249e-01
86 1 1 1.577693e+01 1.019878e+01 1.697465e+01 -1 -1 1 5.205999e-01 -3.804601e-01 -2.653374e-01 7.168137e-01
87 1 3 1.553247e+01 1.050116e+01 1.732106e+01 -1 -1 1 1.915131e-01 -4.022336e-01 1.666613e-02 8.951274e-01
88 1 2 1.622213e+01 9.221442e+00 1.806136e+01 -1 -1 1 9.163950e-01 -2.704688e-01 2.540255e-01 -1.501263e-01
89 1 2 1.556494e+01 1.038352e+01 1.848900e+01 -1 -1 1 7.757477e-02 -9.616346e-01 -6.920699e-02 -2.538730e-01
90 1 3 1.612379e+01 1.084158e+01 1.876485e+01 -1 -1 1 6.248671e-01 -5.972427e-01 -3.359239e-03 5.028230e-01
91 1 3 1.583409e+01 1.173957e+01 1.895372e+01 -1 -1 1 -3.539950e-01 4.080249e-01 -2.307378e-02 -8.412317e-01
92 1 2 1.556714e+01 1.209077e+01 1.920991e+01 -1 -1 1 6.897789e-02 -4.443546e-01 2.251977e-01 8.643362e-01
93 1 1 1.529373e+01 1.250834e+01 1.930610e+01 -1 -1 1 -4.944020e-01 -1.962480e-01 2.687549e-01 8.030094e-01
94 1 2 1.602955e+01 1.280150e+01 -1.970575e+01 -1 -1 2 -1.493016e-01 8.577281e-01 -4.848682e-01 -8.315296e-02
95 1 3 1.631063e+01 1.301058e+01 1.995147e+01 -1 -1 1 -1.971148e-01 6.523340e-01 -7.299436e-01 -5.280547e-02
96 1 2 1.665223e+01 1.318965e+01 1.972854e+01 -1 -1 1 -2.499539e-01 3.790354e-01 -8.763813e-01 -1.606578e-01
97 1 2 1.684892e+01 1.294938e+01 1.928414e+01 -1 -1 1 2.786200e-01 1.216570e-01 9.287476e-01 2.121284e-01
98 1 4 1.759440e+01 1.332442e+01 1.932835e+01 -1 -1 1 -9.242301e-01 3.020199e-01 2.210418e-01 -7.565166e-02
99 1 2 1.795445e+01 1.328217e+01 1.975496e+01 -1 -1 1 4.128302e-02 -4.565238e-01 5.016277e-01 -7.336561e-01
100 1 1 1.891794e+01 1.301930e+01 1.880616e+01 -1 -1 1 -4.902400e-01 -7.838429e-01 1.120467e-01 3.642810e-01
101 2 4 -1.398293e+01 1.956405e+01 1.150869e+01 0 -1 1 5.738666e-01 -3.230010e-01 4.865225e-01 5.741457e-01
102 2 3 -1.497151e+01 1.995365e+01 1.181755e+01 0 -1 1 -2.423653e-01 6.603340e-01 1.539644e-01 -6.939114e-01
103 2 1 -1.542722e+01 -1.979825e+01 1.185244e+01 0 0 1 3.292071e-02 -7.467004e-01 1.817816e-01 6.389915e-01
104 2 3 -1.556564e+01 -1.965100e+01 1.171607e+01 0 0 1 -3.387295e-01 -2.769155e-01 6.758927e-01 5.930845e-01
105 2 3 -1.592629e+01 -1.954882e+01 1.140186e+01 0 0 1 -5.539391e-01 4.931574e-02 6.813440e-01 4.759095e-01
106 2 2 -1.624209e+01 -1.955285e+01 1.111784e+01 0 0 1 4.598069e-01 -5.182266e-01 -6.737044e-01 -2.571791e-01
107 2 3 -1.657885e+01 -1.935180e+01 1.114592e+01 0 0 1 5.508849e-01 -7.068885e-01 -4.261384e-01 1.234529e-01
108 2 4 -1.712299e+01 1.941854e+01 1.057116e+01 0 -1 1 -4.105520e-01 -1.809744e-01 -8.932668e-01 2.774311e-02
109 2 3 -1.731024e+01 -1.980702e+01 1.026492e+01 0 0 1 -2.009009e-01 -8.927274e-01 -5.962827e-02 3.989000e-01
110 2 2 -1.755875e+01 -1.956147e+01 1.030591e+01 0 0 1 -4.974480e-01 1.313178e-01 5.561278e-01 -6.527043e-01
111 2 2 -1.730692e+01 -1.946321e+01 8.822901e+00 0 0 1 8.258338e-01 2.457599e-01 3.416323e-01 3.753506e-01
112 2 3 -1.678950e+01 -1.955306e+01 8.756265e+00 0 0 1 -6.264089e-01 -3.019662e-01 -1.973954e-01 -6.909872e-01
113 2 3 -1.640030e+01 -1.955120e+01 9.100771e+00 0 0 1 -2.384188e-01 -7.426445e-02 -4.752869e-02 -9.671516e-01
114 2 2 -1.567756e+01 1.994021e+01 8.584687e+00 0 -1 1 4.960585e-01 4.328224e-01 5.530334e-01 5.106317e-01
115 2 4 -1.539879e+01 1.977499e+01 8.512480e+00 0 -1 1 6.478563e-02 -9.460649e-01 -2.563101e-01 -1.872675e-01
116 2 4 -1.481117e+01 1.905725e+01 8.503301e+00 0 -1 1 7.034746e-04 3.629357e-01 -6.815772e-01 6.353973e-01
117 2 1 -1.412768e+01 1.959694e+01 7.304545e+00 0 -1 1 5.646607e-01 6.660700e-02 4.948168e-01 6.571744e-01
118 2 1 -1.457827e+01 -1.995068e+01 7.208551e+00 0 0 1 1.136710e-01 4.350171e-01 4.946536e-01 -7.437452e-01
119 2 1 -1.478193e+01 1.943736e+01 6.731204e+00 0 -1 1 -4.906061e-02 2.725639e-01 6.542241e-01 7.037704e-01
120 2 1 -1.430479e+01 1.903817e+01 6.108923e+00 0 -1 1 -2.969939e-01 -3.177610e-01 -9.002506e-01 1.927302e-02
121 2 3 -1.360259e+01 1.855385e+01 6.177171e+00 0 -1 1 6.722228e-01 1.295563e-01 4.957860e-01 5.343480e-01
122 2 1 -1.388442e+01 1.798947e+01 6.447526e+00 0 -1 1 3.666687e-01 9.198323e-01 -1.148241e-01 -7.923428e-02
123 2 4 -1.436060e+01 1.734761e+01 6.138165e+00 0 -1 1 -1.199462e-01 -4.605028e-01 -8.774245e-01 6.063364e-02
124 2 1 -1.455879e+01 1.730438e+01 5.653120e+00 0 -1 1 1.129659e-01 7.659695e-01 6.210231e-01 1.219007e-01
125 2 4 -1.471531e+01 1.679461e+01 4.940328e+00 0 -1 1 -7.190202e-01 -2.901536e-01 -4.324758e-01 -4.602016e-01
126 2 2 -1.445030e+01 1.659191e+01 4.409397e+00 0 -1 1 6.690856e-01 4.925685e-01 -3.308588e-01 -4.474742e-01
127 2 4 -1.488347e+01 1.629657e+01 4.457727e+00 0 -1 1 7.552922e-01 5.332283e-01 -3.475820e-01 -1.561665e-01
128 2 4 -1.514262e+01 1.596154e+01 4.341575e+00 0 -1 1 7.458298e-01 4.289605e-01 -4.863903e-01 1.521687e-01
129 2 1 -1.513333e+01 1.547349e+01 4.550300e+00 0 -1 1 5.445286e-01 3.513611e-02 -7.289857e-01 4.133206e-01
130 2 2 -1.539754e+01 1.512089e+01 4.751019e+00 0 -1 1 -3.703486e-01 1.885004e-01 6.551370e-01 -6.309556e-01
131 2 3 -1.584351e+01 1.457272e+01 4.875031e+00 0 -1 1 -4.611965e-01 -5.639293e-02 5.452993e-01 6.976864e-01
132 2 4 -1.635375e+01 1.478304e+01 4.862849e+00 0 -1 1 -7.149779e-01 1.569414e-01 5.492843e-01 4.030667e-01
133 2 4 -1.677269e+01 1.477778e+01 5.131260e+00 0 -1 1 8.067105e-01 -3.977628e-01 -4.223787e-01 1.122461e-01
134 2 3 -1.782889e+01 1.522973e+01 4.778434e+00 0 -1 1 1.283729e-01 7.885939e-01 5.966574e-01 -7.510002e-02
135 2 4 -1.788156e+01 1.513024e+01 4.279613e+00 0 -1 1 4.512943e-04 -8.574972e-01 -4.995907e-01 1.229129e-01
136 2 3 -1.855326e+01 1.413549e+01 3.846497e+00 0 -1 1 -1.539948e-01 -3.059038e-01 -8.849418e-01 3.155732e-01
137 2 1 -1.775867e+01 1.306311e+01 4.504754e+00 0 -1 1 -4.940607e-01 -3.543829e-01 7.788840e-01 -1.538067e-01
138 2 3 -1.810744e+01 1.301721e+01 4.925666e+00 0 -1 1 6.922545e-01 -4.040919e-01 -4.168893e-01 4.285985e-01
139 2 2 -1.868897e+01 1.264373e+01 5.278599e+00 0 -1 1 -2.657091e-02 -5.468084e-01 -5.600171e-01 6.218323e-01
140 2 3 -1.822625e+01 1.178691e+01 4.603448e+00 0 -1 1 5.295021e-01 1.172208e-01 6.837086e-01 -4.882923e-01
141 2 1 -1.822597e+01 1.125884e+01 4.597258e+00 0 -1 1 7.179327e-01 4.026025e-01 5.564581e-01 -1.133057e-01
142 2 2 -1.810566e+01 1.106061e+01 5.086270e+00 0 -1 1 -6.299564e-01 -6.656655e-01 -9.676902e-02 -3.881754e-01
143 2 4 -1.764524e+01 1.074816e+01 5.013735e+00 0 -1 1 4.691258e-01 7.250420e-01 -6.735215e-02 4.996987e-01
144 2 4 -1.782917e+01 9.667835e+00 5.509753e+00 0 -1 1 -6.040049e-01 -6.307774e-01 4.837582e-01 5.723646e-02
145 2 1 -1.792444e+01 9.214361e+00 5.296627e+00 0 -1 1 5.333694e-01 2.855858e-01 -7.211382e-01 3.375168e-01
146 2 1 -1.789589e+01 8.713071e+00 5.472299e+00 0 -1 1 -3.263077e-01 9.415123e-03 7.053785e-01 -6.291866e-01
147 2 1 -1.797774e+01 8.326849e+00 5.895829e+00 0 -1 1 8.576957e-02 -1.469558e-01 -5.210396e-01 8.364002e-01
148 2 2 -1.832891e+01 8.075711e+00 6.375586e+00 0 -1 1 1.134956e-01 3.781076e-01 5.063766e-01 -7.666395e-01
149 2 4 -1.875575e+01 7.828487e+00 6.589268e+00 0 -1 1 -1.402062e-01 -5.437099e-01 -2.179449e-01 7.982617e-01
150 2 1 -1.934204e+01 7.688251e+00 6.593554e+00 0 -1 1 -4.771389e-01 -6.521774e-01 -1.071034e-01 5.792512e-01
151 2 1 -1.975001e+01 7.478156e+00 6.400879e+00 0 -1 1 -5.926590e-01 -6.706253e-01 1.272892e-01 4.275680e-01
152 2 1 1.988488e+01 7.151568e+00 6.192906e+00 -1 -1 1 -6.746220e-01 -6.791806e-01 2.456236e-01 1.525385e-01
153 2 4 1.979432e+01 6.603236e+00 5.945621e+00 -1 -1 1 -7.263673e-01 -5.664603e-01 3.704984e-01 -1.193488e-01
154 2 1 1.992289e+01 6.007986e+00 5.873813e+00 -1 -1 1 -6.765480e-01 -3.722172e-01 5.111779e-01 -3.774048e-01
155 2 2 1.985473e+01 5.526103e+00 6.051290e+00 -1 -1 1 -5.873147e-01 -2.513780e-01 4.982592e-01 -5.861811e-01
156 2 4 1.992070e+01 5.025968e+00 6.307212e+00 -1 -1 1 -4.246418e-01 -6.929456e-02 5.507023e-01 -7.152654e-01
157 2 3 1.994002e+01 4.743514e+00 6.780613e+00 -1 -1 1 -2.092339e-01 9.074376e-02 5.497611e-01 -8.035854e-01
158 2 2 1.961919e+01 4.542465e+00 7.220193e+00 -1 -1 1 -2.966417e-04 3.253736e-01 4.646811e-01 -8.235311e-01
159 2 1 1.927500e+01 4.415673e+00 7.566039e+00 -1 -1 1 1.296561e-01 4.252592e-01 2.358059e-01 -8.641409e-01
160 2 3 1.885800e+01 4.367735e+00 7.916578e+00 -1 -1 1 -2.718177e-01 -4.926082e-01 -8.880927e-02 8.219277e-01
161 2 1 1.829496e+01 4.192050e+00 8.006749e+00 -1 -1 1 -4.006678e-01 -6.409406e-01 6.627732e-02 6.513584e-01
162 2 1 1.778563e+01 4.036458e+00 7.778442e+00 -1 -1 1 -7.354175e-01 -4.994466e-01 1.761021e-01 4.227320e-01
163 2 4 1.744040e+01 3.639853e+00 7.698097e+00 -1 -1 1 -7.850184e-01 -4.846503e-01 2.750162e-01 2.706037e-01
164 2 4 1.724444e+01 3.198544e+00 7.581381e+00 -1 -1 1 -8.013762e-01 -4.162363e-01 4.291936e-01 -1.834059e-02
165 2 3 1.709803e+01 2.755690e+00 7.694011e+00 -1 -1 1 -8.217629e-01 -2.980971e-01 4.190891e-01 -2.453735e-01
166 2 3 1.714152e+01 2.281163e+00 7.849968e+00 -1 -1 1 -6.396980e-01 -1.166845e-01 5.439037e-01 -5.304149e-01
167 2 4 1.713041e+01 1.855342e+00 8.114328e+00 -1 -1 1 -5.443944e-01 -2.073089e-01 3.894369e-01 -7.134401e-01
168 2 2 1.732937e+01 1.643745e+00 8.535506e+00 -1 -1 1 -2.360870e-01 -7.684588e-02 3.952740e-01 -8.843733e-01
169 2 2 1.721536e+01 1.390004e+00 9.065675e+00 -1 -1 1 -1.927423e-01 1.083877e-01 3.448593e-01 -9.122360e-01
170 2 1 1.702655e+01 1.452068e+00 9.568311e+00 -1 -1 1 1.684439e-01 1.801526e-01 2.716044e-01 -9.302702e-01
171 2 1 1.669384e+01 1.272345e+00 9.988513e+00 -1 -1 1 -4.594323e-01 -3.039538e-01 -2.686636e-01 7.901607e-01
172 2 4 1.638367e+01 1.023120e+00 1.030398e+01 -1 -1 1 -6.185677e-01 -4.539846e-01 -2.368459e-01 5.959664e-01
173 2 4 1.602456e+01 5.480444e-01 1.031823e+01 -1 -1 1 -8.173081e-01 -4.654379e-01 -1.417485e-01 3.086786e-01
174 2 1 1.593309e+01 2.878454e-03 1.031842e+01 -1 -1 1 -8.740395e-01 -4.819316e-01 -6.120030e-02 7.165979e-03
175 2 1 1.587809e+01 -4.929921e-01 1.022384e+01 -1 -1 1 -8.548604e-01 -4.747365e-01 8.063133e-02 -1.932292e-01
176 2 2 1.616392e+01 -1.014729e+00 1.021456e+01 -1 -1 1 -7.121514e-01 -5.164036e-01 1.846250e-01 -4.382708e-01
177 2 2 1.653599e+01 -1.401866e+00 1.030433e+01 -1 -1 1 -5.714984e-01 -3.952909e-01 3.472281e-01 -6.297359e-01
178 2 1 1.686647e+01 -1.648414e+00 1.061770e+01 -1 -1 1 -2.562350e-01 -2.888611e-01 3.994346e-01 -8.314776e-01
179 2 4 1.716556e+01 -1.750552e+00 1.106170e+01 -1 -1 1 3.909873e-02 -1.289801e-01 4.645172e-01 -8.752481e-01
180 2 1 1.721809e+01 -1.953542e+00 1.157276e+01 -1 -1 1 2.285071e-01 9.338786e-02 4.401007e-01 -8.633508e-01
181 2 4 1.697689e+01 -2.152648e+00 1.202849e+01 -1 -1 1 -4.642069e-01 -2.603445e-01 -3.311412e-01 7.791523e-01
182 2 2 1.659975e+01 -2.352518e+00 1.234429e+01 -1 -1 1 -4.732110e-01 -4.229131e-01 -9.122030e-02 7.673948e-01
183 2 3 1.608309e+01 -2.511912e+00 1.244497e+01 -1 -1 1 -7.007201e-01 -4.579757e-01 2.941666e-02 5.462456e-01
184 2 4 1.570024e+01 -2.837194e+00 1.252173e+01 -1 -1 1 -8.040662e-01 -4.686722e-01 1.562094e-01 3.307908e-01
185 2 3 1.541949e+01 -3.287155e+00 1.244611e+01 -1 -1 1 8.161843e-01 5.023174e-01 -2.640932e-01 -1.085137e-01
186 2 1 1.529363e+01 -3.767031e+00 1.231629e+01 -1 -1 1 7.246514e-01 5.284059e-01 -3.938323e-01 2.014042e-01
187 2 1 1.532106e+01 -4.304466e+00 1.233485e+01 -1 -1 1 -5.825643e-01 -4.287264e-01 4.824985e-01 -4.939714e-01
188 2 2 1.539095e+01 -4.846781e+00 1.262327e+01 -1 -1 1 6.066721e-01 2.240601e-01 -4.536231e-01 6.131656e-01
189 2 4 1.550325e+01 -5.135055e+00 1.293377e+01 -1 -1 1 3.275205e-01 -2.057140e-03 -5.766739e-01 7.484472e-01
190 2 4 1.531939e+01 -5.385613e+00 1.338762e+01 -1 -1 1 -5.902678e-02 2.821663e-01 5.350771e-01 -7.940973e-01
191 2 1 1.494660e+01 -5.702284e+00 1.372101e+01 -1 -1 1 9.132516e-02 5.143153e-01 4.552961e-01 -7.210027e-01
192 2 4 1.439279e+01 -5.863751e+00 1.379284e+01 -1 -1 1 -2.566674e-01 -6.478794e-01 -2.799763e-01 6.602934e-01
193 2 4 1.392322e+01 -6.081713e+00 1.370002e+01 -1 -1 1 3.910358e-01 7.512671e-01 1.178713e-01 -5.184545e-01
194 2 1 1.352368e+01 -6.141721e+00 1.340547e+01 -1 -1 1 -4.494269e-01 -7.952766e-01 1.058570e-01 3.928676e-01
195 2 3 1.319816e+01 -6.324866e+00 1.298480e+01 -1 -1 1 -4.911410e-01 -7.580801e-01 4.020698e-01 1.497828e-01
196 2 4 1.299654e+01 -6.789266e+00 1.254792e+01 -1 -1 1 5.678616e-01 7.226671e-01 -3.932978e-01 2.454015e-02
197 2 2 1.306695e+01 -7.201791e+00 1.230419e+01 -1 -1 1 4.762725e-01 5.908991e-01 -5.781700e-01 2.995367e-01
198 2 4 1.322508e+01 -7.604187e+00 1.212132e+01 -1 -1 1 -3.259315e-01 -3.227138e-01 7.634471e-01 -4.547229e-01
199 2 3 1.323928e+01 -8.132290e+00 1.217305e+01 -1 -1 1 -2.197559e-01 -5.902930e-02 8.236221e-01 -5.194896e-01
200 2 4 1.315489e+01 -8.618745e+00 1.237426e+01 -1 -1 1 7.098755e-02 -1.721352e-01 -7.229481e-01 6.653392e-01
