ITEM: TIMESTEP
257000000
ITEM: NUMBER OF ATOMS
200
ITEM: BOX BOUNDS pp pp pp
-2.0000000000000000e+01 2.0000000000000000e+01
-2.0000000000000000e+01 2.0000000000000000e+01
-2.0000000000000000e+01 2.0000000000000000e+01
ITEM: ATOMS id mol type x y z ix iy iz c_quat[1] c_quat[2] c_quat[3] c_quat[4]
1 1 1 1.853264e+00 -1.895420e+01 -1.361885e+01 -1 0 2 1.635746e-01 8.511623e-01 4.703767e-01 1.658672e-01
2 1 2 1.818961e+00 -1.879565e+01 -1.411018e+01 -1 0 2 8.243093e-02 9.460368e-01 2.369511e-01 2.051185e-01
3 1 1 2.118851e+00 -1.859332e+01 -1.463621e+01 -1 0 2 5.641233e-03 -9.388864e-01 -6.617184e-02 -3.377601e-01
4 1 3 2.437628e+00 -1.832374e+01 -1.493145e+01 -1 0 2 -8.651950e-02 8.577890e-01 -3.816285e-01 3.332746e-01
5 1 1 2.899709e+00 -1.831075e+01 -1.512634e+01 -1 0 2 -1.584591e-01 6.992018e-01 -6.092521e-01 3.388502e-01
6 1 2 3.420058e+00 -1.845545e+01 -1.528665e+01 -1 0 2 -1.917971e-01 5.006467e-01 -7.560087e-01 3.755231e-01
7 1 4 3.912651e+00 -1.867656e+01 -1.537101e+01 -1 0 2 -2.874028e-01 2.852752e-01 -8.401205e-01 3.608535e-01
8 1 1 4.267703e+00 -1.903913e+01 -1.546967e+01 -1 0 2 3.769264e-01 1.720459e-02 8.698763e-01 -3.177195e-01
9 1 1 4.259955e+00 -1.962773e+01 -1.559702e+01 -1 0 2 -4.672284e-01 -3.121742e-01 -8.031528e-01 1.979659e-01
10 1 4 4.260114e+00 1.997109e+01 -1.599158e+01 -1 -1 2 4.509605e-01 5.705330e-01 6.757758e-01 -1.202241e-01
11 1 1 4.254684e+00 1.964303e+01 -1.638993e+01 -1 -1 2 4.469024e-01 7.001988e-01 5.567083e-01 8.701756e-03
12 1 1 4.313205e+00 1.948379e+01 -1.685933e+01 -1 -1 2 -3.079852e-01 -8.745236e-01 -3.545886e-01 -1.209150e-01
13 1 3 4.453533e+00 1.956047e+01 -1.736096e+01 -1 -1 2 2.428381e-01 9.429241e-01 1.966621e-02 2.270176e-01
14 1 4 4.736159e+00 1.964445e+01 -1.788462e+01 -1 -1 2 -1.071250e-01 -9.262896e-01 8.497315e-02 -3.511287e-01
15 1 4 5.215330e+00 1.968154e+01 -1.815167e+01 -1 -1 2 3.412864e-03 -7.907429e-01 3.884223e-01 -4.731196e-01
16 1 2 5.778866e+00 1.972288e+01 -1.815606e+01 -1 -1 2 -1.789296e-01 5.921496e-01 -6.568386e-01 4.311683e-01
17 1 1 6.227243e+00 1.945964e+01 -1.821274e+01 -1 -1 2 -2.611268e-01 2.564422e-01 -8.574940e-01 3.615995e-01
18 1 2 6.468201e+00 1.907795e+01 -1.840451e+01 -1 -1 2 2.739888e-01 -7.392700e-03 8.745771e-01 -3.999879e-01
19 1 3 6.556791e+00 1.857843e+01 -1.862061e+01 -1 -1 2 2.721303e-01 2.075806e-01 8.689136e-01 -3.575534e-01
20 1 1 6.461569e+00 1.810962e+01 -1.888725e+01 -1 -1 2 2.700069e-01 4.472448e-01 8.150999e-01 -2.503608e-01
21 1 4 6.336581e+00 1.778508e+01 -1.923617e+01 -1 -1 2 -2.506130e-01 -7.226935e-01 -6.179948e-01 1.816304e-01
22 1 1 6.084316e+00 1.765927e+01 -1.968828e+01 -1 -1 2 -2.132891e-01 -8.677611e-01 -4.377884e-01 9.919518e-02
23 1 4 5.860124e+00 1.768872e+01 1.983182e+01 -1 -1 1 -1.065543e-01 -9.653700e-01 -2.286871e-01 6.640108e-02
24 1 3 5.772365e+00 1.791156e+01 1.934070e+01 -1 -1 1 -1.535191e-01 -9.850102e-01 7.041194e-02 3.505755e-02
25 1 3 5.916240e+00 1.798016e+01 1.884563e+01 -1 -1 1 -1.337786e-01 -9.057301e-01 3.982059e-01 -5.646572e-02
26 1 4 6.157847e+00 1.798406e+01 1.833147e+01 -1 -1 1 -7.427074e-02 -8.388769e-01 5.043417e-01 -1.908110e-01
27 1 4 6.518810e+00 1.791741e+01 1.797365e+01 -1 -1 1 2.738921e-02 -6.187077e-01 7.604295e-01 -1.954421e-01
28 1 1 6.857745e+00 1.776519e+01 1.771463e+01 -1 -1 1 1.279010e-01 -3.749279e-01 8.874637e-01 -2.355389e-01
29 1 1 7.097149e+00 1.738639e+01 1.736888e+01 -1 -1 1 1.136096e-01 -5.508586e-02 9.644290e-01 -2.322392e-01
30 1 4 7.079906e+00 1.693910e+01 1.706246e+01 -1 -1 1 -7.259219e-02 -1.951760e-01 -9.423779e-01 2.618408e-01
31 1 4 6.926644e+00 1.660825e+01 1.682100e+01 -1 -1 1 -1.232166e-01 -5.040617e-01 -8.140427e-01 2.609098e-01
32 1 3 6.700714e+00 1.637465e+01 1.644863e+01 -1 -1 1 -1.047845e-01 -7.251892e-01 -6.560048e-01 1.810485e-01
33 1 3 6.421264e+00 1.633423e+01 1.598309e+01 -1 -1 1 -5.658385e-02 -8.933419e-01 -4.416246e-01 6.087913e-02
34 1 1 6.269441e+00 1.650236e+01 1.548597e+01 -1 -1 1 -4.384615e-02 -9.829764e-01 -1.783587e-01 4.794855e-03
35 1 2 6.318375e+00 1.683285e+01 1.504752e+01 -1 -1 1 -4.890393e-02 -9.728170e-01 2.250019e-01 -2.468971e-02
36 1 2 6.430997e+00 1.682339e+01 1.447653e+01 -1 -1 1 -6.249275e-02 -9.382223e-01 2.780177e-01 -1.963153e-01
37 1 1 6.824057e+00 1.690858e+01 1.416376e+01 -1 -1 1 2.215115e-02 -7.507049e-01 6.144282e-01 -2.417220e-01
38 1 1 7.230567e+00 1.679968e+01 1.384522e+01 -1 -1 1 4.510307e-02 -4.956177e-01 8.409513e-01 -2.124375e-01
39 1 4 7.488486e+00 1.641009e+01 1.349645e+01 -1 -1 1 -1.429301e-02 2.949522e-01 -9.000359e-01 3.205219e-01
40 1 4 7.703033e+00 1.596689e+01 1.339385e+01 -1 -1 1 -1.131677e-01 -7.863374e-02 -9.495942e-01 2.815684e-01
41 1 2 7.665812e+00 1.544253e+01 1.322350e+01 -1 -1 1 -1.062098e-01 -3.405430e-01 -8.728485e-01 3.329948e-01
42 1 4 7.486009e+00 1.501803e+01 1.296870e+01 -1 -1 1 1.051063e-01 5.298862e-01 7.885168e-01 -2.939635e-01
43 1 3 7.110260e+00 1.475795e+01 1.270585e+01 -1 -1 1 -1.878209e-01 -7.922870e-01 -5.394397e-01 2.144982e-01
44 1 2 6.704621e+00 1.471959e+01 1.233392e+01 -1 -1 1 -1.425540e-01 -9.122217e-01 -3.272191e-01 2.011406e-01
45 1 1 6.558965e+00 1.483700e+01 1.184662e+01 -1 -1 1 -1.713387e-01 -9.790208e-01 8.044489e-02 7.543166e-02
46 1 3 6.512518e+00 1.480540e+01 1.127855e+01 -1 -1 1 -1.283677e-01 -9.783143e-01 1.613070e-01 -2.007196e-02
47 1 4 6.666027e+00 1.485370e+01 1.074049e+01 -1 -1 1 -2.907096e-02 -9.002571e-01 3.888686e-01 -1.935798e-01
48 1 1 7.035108e+00 1.488939e+01 1.038977e+01 -1 -1 1 -1.480728e-01 7.970330e-01 -5.091103e-01 2.891706e-01
49 1 4 7.570885e+00 1.486521e+01 1.024622e+01 -1 -1 1 -2.396261e-01 5.604760e-01 -7.581331e-01 2.316898e-01
50 1 4 7.971849e+00 1.448013e+01 9.948933e+00 -1 -1 1 -1.568811e-01 3.000267e-01 -9.289920e-01 1.494860e-01
51 1 4 8.162673e+00 1.412496e+01 9.638711e+00 -1 -1 1 -1.806695e-01 7.491159e-03 -9.752278e-01 1.274098e-01
52 1 1 8.201107e+00 1.383565e+01 9.267206e+00 -1 -1 1 -1.250856e-01 -2.933860e-01 -9.262005e-01 2.010742e-01
53 1 3 7.953269e+00 1.350076e+01 8.949138e+00 -1 -1 1 8.503708e-03 5.861658e-01 7.583778e-01 -2.849569e-01
54 1 4 7.660125e+00 1.329559e+01 8.520903e+00 -1 -1 1 -4.688409e-02 7.382806e-01 6.421512e-01 -2.009611e-01
55 1 4 7.356188e+00 1.337645e+01 8.124553e+00 -1 -1 1 5.576213e-02 9.286491e-01 3.495586e-01 -1.109510e-01
56 1 4 7.283942e+00 1.355451e+01 7.546920e+00 -1 -1 1 -1.488272e-01 -9.863478e-01 -5.126246e-02 4.837970e-02
57 1 1 7.254207e+00 1.370525e+01 7.023446e+00 -1 -1 1 -2.318615e-01 -9.535134e-01 1.924880e-01 -8.716873e-04
58 1 1 7.411625e+00 1.371172e+01 6.540601e+00 -1 -1 1 1.312261e-01 8.608704e-01 -4.734501e-01 1.323889e-01
59 1 3 7.783713e+00 1.365809e+01 6.140837e+00 -1 -1 1 -8.394370e-03 -7.430385e-01 6.462687e-01 -1.736666e-01
60 1 4 8.108188e+00 1.339886e+01 5.766740e+00 -1 -1 1 8.138950e-03 4.723533e-01 -8.561344e-01 2.094040e-01
61 1 2 8.337813e+00 1.300900e+01 5.491717e+00 -1 -1 1 6.225628e-02 -6.717364e-02 9.786627e-01 -1.839324e-01
62 1 3 9.405808e+00 1.412534e+01 5.397848e+00 -1 -1 1 2.836761e-01 8.787983e-01 2.466023e-01 2.939876e-01
63 1 2 9.849488e+00 1.359289e+01 5.822346e+00 -1 -1 1 4.444597e-01 -6.122523e-01 -9.622718e-02 -6.467945e-01
64 1 4 1.057684e+01 1.423922e+01 4.538609e+00 -1 -1 1 5.896125e-01 5.088655e-01 1.832502e-01 5.998603e-01
65 1 2 1.104994e+01 1.413987e+01 4.904071e+00 -1 -1 1 3.859822e-01 4.270646e-01 1.236808e-01 8.082924e-01
66 1 1 1.147308e+01 1.436511e+01 5.138724e+00 -1 -1 1 -8.019682e-02 -4.347866e-01 4.638212e-02 -8.957554e-01
67 1 2 1.176624e+01 1.450222e+01 5.430929e+00 -1 -1 1 3.401096e-01 -3.554848e-01 3.416293e-01 -8.007780e-01
68 1 1 1.219395e+01 1.384113e+01 5.586916e+00 -1 -1 1 1.294181e-01 -2.305821e-01 5.639947e-01 -7.822997e-01
69 1 1 1.269647e+01 1.352287e+01 5.338858e+00 -1 -1 1 -7.122626e-01 -3.430563e-01 -3.977579e-02 -6.110747e-01
70 1 2 1.312265e+01 1.344912e+01 5.657485e+00 -1 -1 1 -5.820370e-01 -2.882942e-01 -1.298217e-01 -7.491766e-01
71 1 3 1.278942e+01 1.233733e+01 5.853309e+00 -1 -1 1 5.614860e-01 -5.431747e-01 -5.182378e-01 -3.480292e-01
72 1 4 1.273426e+01 1.143272e+01 5.795317e+00 -1 -1 1 8.481830e-02 -2.719956e-01 -9.572973e-01 -4.905311e-02
73 1 1 1.238148e+01 1.118728e+01 5.478819e+00 -1 -1 1 5.157628e-02 -6.736027e-01 -7.359183e-01 4.498355e-02
74 1 1 1.202436e+01 1.129626e+01 5.145915e+00 -1 -1 1 -7.074962e-03 9.480650e-01 3.151369e-01 -4.256196e-02
75 1 3 1.174001e+01 1.045548e+01 6.249653e+00 -1 -1 1 -2.015121e-01 3.494135e-01 -6.512983e-01 6.427392e-01
76 1 1 1.198242e+01 1.062781e+01 6.947043e+00 -1 -1 1 5.548634e-01 -8.013304e-01 8.082668e-02 -2.084785e-01
77 1 4 1.120474e+01 1.158358e+01 7.139230e+00 -1 -1 1 2.407011e-01 -8.345476e-02 -5.207720e-01 8.147974e-01
78 1 1 1.114830e+01 1.128290e+01 7.492737e+00 -1 -1 1 -4.847961e-03 -2.557928e-01 -4.938650e-01 8.310499e-01
79 1 4 1.137952e+01 1.097753e+01 7.981082e+00 -1 -1 1 7.966771e-01 -5.410349e-01 8.326841e-02 2.562287e-01
80 1 2 1.113478e+01 1.037329e+01 7.946802e+00 -1 -1 1 4.179581e-01 -2.127756e-01 7.763588e-01 4.210756e-01
81 1 4 1.088796e+01 1.080945e+01 8.690183e+00 -1 -1 1 -5.354363e-01 -6.178267e-01 5.371785e-01 -2.074548e-01
82 1 4 1.074447e+01 1.030050e+01 8.535412e+00 -1 -1 1 -5.995041e-01 -5.445830e-01 4.433825e-01 -3.839742e-01
83 1 4 1.041389e+01 1.006716e+01 8.315088e+00 -1 -1 1 1.119692e-01 1.263462e-01 5.222064e-02 -9.842624e-01
84 1 4 1.176113e+01 9.287208e+00 8.477541e+00 -1 -1 1 8.524003e-01 3.297347e-01 -1.140940e-01 3.894501e-01
85 1 1 1.116062e+01 8.796615e+00 9.067538e+00 -1 -1 1 8.015039e-01 -3.965655e-01 4.384777e-01 8.980272e-02
86 1 1 1.160328e+01 8.787032e+00 9.222019e+00 -1 -1 1 -6.887730e-01 1.603517e-01 -4.299065e-01 -5.613016e-01
87 1 3 1.156946e+01 8.190212e+00 1.056353e+01 -1 -1 1 1.999862e-01 -4.492266e-01 5.067809e-01 -7.080777e-01
88 1 2 1.190391e+01 8.083479e+00 1.091056e+01 -1 -1 1 -5.511483e-01 2.407647e-01 -6.019824e-01 5.252476e-01
89 1 2 1.181608e+01 9.068261e+00 1.106033e+01 -1 -1 1 2.244110e-01 -5.152506e-02 -9.651576e-01 1.243210e-01
90 1 3 1.211692e+01 9.752952e+00 1.100073e+01 -1 -1 1 8.296793e-01 2.565247e-01 3.322708e-01 3.679993e-01
91 1 3 1.083877e+01 9.128571e+00 1.172715e+01 -1 -1 1 2.387733e-01 8.563396e-02 9.003831e-01 -3.535030e-01
92 1 2 1.100287e+01 1.013395e+01 1.238174e+01 -1 -1 1 1.676520e-01 -6.110031e-01 -6.189824e-01 -4.641432e-01
93 1 1 1.168134e+01 1.008658e+01 1.258104e+01 -1 -1 1 -7.567525e-01 4.241537e-01 -4.689358e-01 -1.658871e-01
94 1 2 1.065209e+01 1.095053e+01 1.252750e+01 -1 -1 1 4.854906e-01 3.015538e-01 7.157199e-01 4.013841e-01
95 1 3 1.027042e+01 1.150466e+01 1.284387e+01 -1 -1 1 5.545156e-01 5.119368e-01 5.161978e-01 4.049358e-01
96 1 2 1.065907e+01 1.204168e+01 1.280879e+01 -1 -1 1 -3.206171e-01 -8.351984e-01 -2.740910e-02 4.459788e-01
97 1 2 1.056142e+01 1.210687e+01 1.357592e+01 -1 -1 1 -3.421100e-01 -4.290228e-01 8.293959e-01 -1.048932e-01
98 1 4 9.663170e+00 1.291038e+01 1.384843e+01 -1 -1 1 -4.746367e-01 1.230780e-01 7.267280e-01 -4.810803e-01
99 1 2 9.329595e+00 1.267172e+01 1.411307e+01 -1 -1 1 -3.022462e-01 3.896909e-01 4.946105e-01 -7.156456e-01
100 1 1 8.905266e+00 1.270431e+01 1.446379e+01 -1 -1 1 1.011502e-01 -4.863297e-01 -2.556661e-01 8.293895e-01
101 2 4 -3.849765e+00 1.952793e+01 6.184701e+00 -1 -1 1 -5.601303e-01 4.777412e-01 -4.192024e-01 5.313067e-01
102 2 3 -3.164176e+00 1.974003e+01 5.300416e+00 -1 -1 1 5.032058e-01 1.374043e-01 6.335210e-01 5.714500e-01
103 2 1 -2.585446e+00 1.961200e+01 5.257027e+00 -1 -1 1 -3.668897e-01 -4.771741e-01 3.758862e-01 7.045612e-01
104 2 3 -2.438508e+00 1.929986e+01 4.751638e+00 -1 -1 1 8.189691e-01 1.840376e-01 1.566951e-01 -5.204483e-01
105 2 3 -1.829483e+00 2.000225e+01 5.444223e+00 -1 -1 1 8.909601e-01 2.860084e-02 -4.458557e-01 -8.114637e-02
106 2 2 -9.991852e-01 -1.959219e+01 4.658133e+00 -1 0 1 4.798688e-01 -5.918163e-01 5.571686e-01 3.302158e-01
107 2 3 -6.167064e-01 -1.934783e+01 4.412443e+00 -1 0 1 -3.773309e-01 2.877616e-01 -7.956242e-01 -3.765592e-01
108 2 4 -3.597722e-01 -1.914572e+01 3.999704e+00 -1 0 1 1.655823e-01 -7.662633e-03 9.041349e-01 3.937815e-01
109 2 3 2.435187e-01 -1.971583e+01 3.574816e+00 -1 0 1 7.013009e-01 3.278994e-01 -4.079570e-01 -4.839732e-01
110 2 2 4.855003e-01 -1.974042e+01 3.466308e+00 -1 0 1 -5.605225e-01 -6.482167e-01 -4.927972e-01 1.509322e-01
111 2 2 6.279676e-01 -1.968269e+01 4.657196e+00 -1 0 1 -6.917332e-02 -8.857748e-01 -2.140487e-01 -4.059572e-01
112 2 3 8.082497e-01 -1.958585e+01 5.454680e+00 -1 0 1 -4.858444e-01 2.565095e-01 7.401783e-01 -3.876779e-01
113 2 3 5.099733e-01 -1.989911e+01 5.607694e+00 -1 0 1 3.508434e-01 -4.495201e-01 -5.428339e-01 6.165808e-01
114 2 2 8.989585e-02 -1.986173e+01 5.835718e+00 -1 0 1 -3.739385e-03 6.594915e-01 2.956919e-01 -6.911030e-01
115 2 4 1.090576e+00 1.954208e+01 6.541215e+00 -1 -1 1 7.865812e-01 -4.017872e-01 4.493869e-01 -1.338223e-01
116 2 4 1.495929e+00 1.944590e+01 6.764843e+00 -1 -1 1 -8.203583e-01 8.165138e-02 -5.298290e-01 -1.990643e-01
117 2 1 1.953520e+00 1.936228e+01 6.691366e+00 -1 -1 1 6.553955e-01 2.005735e-01 3.747584e-01 6.243262e-01
118 2 1 2.227123e+00 1.984945e+01 7.660323e+00 -1 -1 1 -2.663748e-01 8.118664e-01 4.927611e-01 -1.646328e-01
119 2 1 2.143539e+00 1.816957e+01 7.832133e+00 -1 -1 1 -7.706624e-01 1.149382e-01 -4.077174e-01 4.760622e-01
120 2 1 3.227196e+00 1.921049e+01 8.196202e+00 -1 -1 1 -5.711241e-02 9.044121e-01 1.566963e-02 4.225299e-01
121 2 3 3.551003e+00 1.939401e+01 7.980378e+00 -1 -1 1 1.308448e-01 -8.111914e-01 4.350156e-01 -3.682520e-01
122 2 1 4.028970e+00 1.947579e+01 7.974007e+00 -1 -1 1 2.864523e-01 -6.325472e-01 6.249825e-01 -3.566875e-01
123 2 4 4.507310e+00 1.932856e+01 7.946041e+00 -1 -1 1 -3.929587e-01 3.494347e-01 -8.277363e-01 1.957841e-01
124 2 1 4.878703e+00 1.907373e+01 7.707121e+00 -1 -1 1 -4.115059e-01 -8.478050e-02 -8.746725e-01 -2.417089e-01
125 2 4 5.168714e+00 1.898316e+01 7.407925e+00 -1 -1 1 -2.535862e-01 -3.923101e-01 -8.496970e-01 -2.445442e-01
126 2 2 5.810453e+00 1.950645e+01 7.414421e+00 -1 -1 1 -6.509941e-01 6.290613e-01 3.011044e-01 -2.997078e-01
127 2 4 5.901023e+00 1.831007e+01 6.422109e+00 -1 -1 1 -3.378506e-01 5.965196e-01 -6.306675e-01 -3.637030e-01
128 2 4 4.890385e+00 1.801592e+01 6.378221e+00 -1 -1 1 4.402516e-01 1.318195e-01 -8.743320e-01 -1.560309e-01
129 2 1 4.442058e+00 1.775032e+01 6.131761e+00 -1 -1 1 -4.926533e-01 2.224960e-01 8.395175e-01 -5.475999e-02
130 2 2 4.992494e+00 1.719772e+01 5.470817e+00 -1 -1 1 2.546348e-01 -7.905086e-01 5.296517e-01 -1.724130e-01
131 2 3 4.812500e+00 1.663461e+01 5.109656e+00 -1 -1 1 -1.553799e-01 4.969650e-01 -6.316823e-01 5.743347e-01
132 2 4 5.269799e+00 1.637099e+01 5.149651e+00 -1 -1 1 -2.209291e-01 3.288082e-01 -6.983431e-01 5.961480e-01
133 2 4 5.126598e+00 1.653328e+01 3.616425e+00 -1 -1 1 -4.379914e-01 -2.883204e-01 -7.609516e-01 -3.820832e-01
134 2 3 5.647603e+00 1.537882e+01 4.266458e+00 -1 -1 1 9.506735e-01 5.111516e-02 2.483678e-01 -1.786631e-01
135 2 4 5.807882e+00 1.493359e+01 4.427345e+00 -1 -1 1 -9.732754e-01 -9.458566e-02 8.517825e-02 -1.911367e-01
136 2 3 6.011187e+00 1.463711e+01 4.728120e+00 -1 -1 1 7.460685e-01 6.670201e-02 -1.683350e-01 6.407777e-01
137 2 1 6.234543e+00 1.454431e+01 5.108774e+00 -1 -1 1 -4.932705e-01 -9.195309e-02 6.869902e-02 -8.622698e-01
138 2 3 5.905609e+00 1.385018e+01 4.575407e+00 -1 -1 1 3.782638e-02 6.187923e-01 2.808769e-01 -7.326482e-01
139 2 2 6.232344e+00 1.321841e+01 5.416670e+00 -1 -1 1 -2.555551e-01 2.531289e-01 -2.163244e-02 9.328180e-01
140 2 3 6.681342e+00 1.191531e+01 5.685486e+00 -1 -1 1 -8.819111e-01 3.405833e-01 -1.040125e-01 3.088968e-01
141 2 1 7.455754e+00 1.243366e+01 6.051238e+00 -1 -1 1 -9.143835e-01 6.965331e-02 -5.654666e-02 -3.947832e-01
142 2 2 7.748784e+00 1.258172e+01 6.544333e+00 -1 -1 1 7.383685e-01 -1.620249e-01 1.622250e-01 6.342262e-01
143 2 4 8.095228e+00 1.279802e+01 6.879082e+00 -1 -1 1 4.830984e-01 -1.019337e-01 1.779255e-01 8.512156e-01
144 2 4 8.372907e+00 1.320249e+01 7.180048e+00 -1 -1 1 2.287920e-01 -3.766269e-03 2.814656e-01 9.318890e-01
145 2 1 8.426849e+00 1.370513e+01 7.466958e+00 -1 -1 1 -5.388566e-02 3.338552e-03 3.124321e-01 9.484047e-01
146 2 1 8.205292e+00 1.416515e+01 7.774495e+00 -1 -1 1 -3.997649e-01 8.390069e-02 1.599026e-01 8.986545e-01
147 2 1 7.965327e+00 1.448632e+01 8.160215e+00 -1 -1 1 5.960037e-01 -3.650335e-02 -1.855695e-01 -7.803916e-01
148 2 2 7.545895e+00 1.454557e+01 8.540929e+00 -1 -1 1 8.024319e-01 2.847377e-02 -2.147724e-01 -5.560262e-01
149 2 4 7.203579e+00 1.443582e+01 8.868950e+00 -1 -1 1 -9.530094e-01 -3.411671e-02 1.763672e-01 2.439340e-01
150 2 1 7.067695e+00 1.409456e+01 9.303114e+00 -1 -1 1 -9.849033e-01 -4.425958e-02 1.219003e-01 -1.146601e-01
151 2 1 7.043928e+00 1.373655e+01 9.751313e+00 -1 -1 1 -9.356665e-01 -4.683461e-02 5.749586e-02 -3.450057e-01
152 2 1 7.108094e+00 1.365857e+01 1.026229e+01 -1 -1 1 -8.251185e-01 1.503531e-01 3.314419e-03 -5.445755e-01
153 2 4 7.253221e+00 1.379364e+01 1.078797e+01 -1 -1 1 -6.802047e-01 1.285397e-01 -1.439371e-01 -7.071642e-01
154 2 1 7.509702e+00 1.397784e+01 1.122665e+01 -1 -1 1 -4.830411e-01 1.269296e-01 -1.802990e-01 -8.473798e-01
155 2 2 7.665534e+00 1.438100e+01 1.146954e+01 -1 -1 1 -1.989218e-01 3.707931e-02 -2.995999e-01 -9.323600e-01
156 2 4 7.736135e+00 1.484702e+01 1.170926e+01 -1 -1 1 1.134753e-02 1.345834e-02 -3.157181e-01 -9.486897e-01
157 2 3 7.621318e+00 1.530202e+01 1.176601e+01 -1 -1 1 2.842927e-01 -1.543169e-01 -4.157075e-01 -8.500301e-01
158 2 2 7.467443e+00 1.574260e+01 1.201807e+01 -1 -1 1 5.317584e-01 -1.523928e-01 -3.389448e-01 -7.610032e-01
159 2 1 7.096241e+00 1.595766e+01 1.238944e+01 -1 -1 1 8.129317e-01 -1.805565e-01 -1.491223e-01 -5.332016e-01
160 2 3 6.750591e+00 1.609755e+01 1.275016e+01 -1 -1 1 -9.200228e-01 1.883867e-01 1.425403e-01 3.126512e-01
161 2 1 6.491839e+00 1.596771e+01 1.318318e+01 -1 -1 1 -9.823381e-01 7.142985e-02 1.354157e-01 1.075740e-01
162 2 1 6.404997e+00 1.582412e+01 1.363051e+01 -1 -1 1 -9.722768e-01 1.319649e-01 1.291998e-02 -1.926037e-01
163 2 4 6.671322e+00 1.579345e+01 1.407658e+01 -1 -1 1 -8.235358e-01 1.129946e-01 -7.487026e-02 -5.508316e-01
164 2 4 6.934756e+00 1.578989e+01 1.452960e+01 -1 -1 1 -6.516629e-01 4.302983e-02 -1.580576e-01 -7.406090e-01
165 2 3 7.231736e+00 1.607953e+01 1.489903e+01 -1 -1 1 -4.561182e-01 5.248981e-02 -2.211809e-01 -8.603952e-01
166 2 3 7.423561e+00 1.647823e+01 1.514111e+01 -1 -1 1 -1.161141e-01 -1.285584e-02 -2.648532e-01 -9.571860e-01
167 2 4 7.400658e+00 1.689540e+01 1.538649e+01 -1 -1 1 1.776036e-01 7.037891e-03 -3.283416e-01 -9.276849e-01
168 2 2 7.171773e+00 1.728966e+01 1.572179e+01 -1 -1 1 4.398769e-01 6.953341e-02 -2.860804e-01 -8.484288e-01
169 2 2 6.703564e+00 1.753697e+01 1.601539e+01 -1 -1 1 7.357084e-01 4.760567e-03 -2.021146e-01 -6.464211e-01
170 2 1 6.350356e+00 1.746796e+01 1.635054e+01 -1 -1 1 9.132856e-01 -2.728709e-02 -1.904382e-01 -3.590238e-01
171 2 1 6.044501e+00 1.729742e+01 1.671101e+01 -1 -1 1 -9.797556e-01 4.090644e-02 1.483717e-01 1.280294e-01
172 2 4 5.934944e+00 1.712478e+01 1.720383e+01 -1 -1 1 -9.943784e-01 4.981246e-02 4.533687e-02 -8.170046e-02
173 2 4 6.050667e+00 1.684619e+01 1.772507e+01 -1 -1 1 -9.139217e-01 1.136350e-01 -6.017815e-03 -3.896125e-01
174 2 1 6.324031e+00 1.679225e+01 1.815483e+01 -1 -1 1 -7.343593e-01 8.307508e-02 -2.263112e-02 -6.732776e-01
175 2 1 6.518498e+00 1.692753e+01 1.879021e+01 -1 -1 1 -6.820361e-01 1.603779e-01 -8.992339e-02 -7.078273e-01
176 2 2 6.763278e+00 1.717958e+01 1.915473e+01 -1 -1 1 -4.125844e-01 8.090063e-02 -2.311411e-01 -8.773842e-01
177 2 2 6.964808e+00 1.760939e+01 1.941377e+01 -1 -1 1 -1.419023e-01 -2.514006e-02 -2.149236e-01 -9.659397e-01
178 2 1 6.990178e+00 1.806192e+01 1.961730e+01 -1 -1 1 1.870969e-01 -6.262960e-02 -2.750439e-01 -9.409692e-01
179 2 4 6.837440e+00 1.849631e+01 1.991919e+01 -1 -1 1 4.414760e-01 -3.805060e-02 -3.528962e-01 -8.240845e-01
180 2 1 6.558530e+00 1.877743e+01 -1.980171e+01 -1 -1 2 5.947706e-01 4.394066e-02 -3.979020e-01 -6.971307e-01
181 2 4 6.031674e+00 1.882727e+01 -1.969752e+01 -1 -1 2 -8.155388e-01 9.034323e-02 4.122720e-01 3.959372e-01
182 2 2 5.659367e+00 1.879711e+01 -1.934951e+01 -1 -1 2 -9.278408e-01 1.724745e-01 2.994715e-01 1.402886e-01
183 2 3 5.463660e+00 1.872985e+01 -1.888069e+01 -1 -1 2 -9.620024e-01 1.544683e-01 2.014320e-01 -1.005786e-01
184 2 4 5.380633e+00 1.862476e+01 -1.836820e+01 -1 -1 2 -8.795183e-01 2.482160e-01 1.153580e-01 -3.892671e-01
185 2 3 5.384827e+00 1.863746e+01 -1.777303e+01 -1 -1 2 7.887470e-01 -2.603499e-01 3.027956e-03 5.568545e-01
186 2 1 5.528593e+00 1.890000e+01 -1.735786e+01 -1 -1 2 4.768858e-01 -3.489217e-01 6.869765e-02 8.038123e-01
187 2 1 5.588010e+00 1.931645e+01 -1.710105e+01 -1 -1 2 -2.443052e-01 2.518955e-01 -2.309186e-01 -9.074912e-01
188 2 2 5.496719e+00 1.987304e+01 -1.692495e+01 -1 -1 2 -1.153436e-01 -2.216851e-01 2.899759e-01 9.238320e-01
189 2 4 5.194223e+00 -1.971215e+01 -1.677020e+01 -1 0 2 -2.514906e-01 -2.804510e-01 4.876350e-01 7.875987e-01
190 2 4 4.779659e+00 -1.939578e+01 -1.686879e+01 -1 0 2 4.782112e-01 1.300812e-01 -5.299158e-01 -6.881730e-01
191 2 1 4.272387e+00 -1.923103e+01 -1.683665e+01 -1 0 2 6.898597e-01 1.497877e-02 -5.334720e-01 -4.891593e-01
192 2 4 3.751220e+00 -1.920906e+01 -1.654635e+01 -1 0 2 -8.723763e-01 6.952746e-02 4.057066e-01 2.636811e-01
193 2 4 3.307607e+00 -1.925909e+01 -1.626566e+01 -1 0 2 9.356967e-01 -1.384847e-01 -3.221123e-01 -3.921029e-02
194 2 1 3.047627e+00 -1.939967e+01 -1.582721e+01 -1 0 2 -8.926195e-01 2.591590e-01 2.778500e-01 -2.426241e-01
195 2 3 2.838258e+00 -1.945962e+01 -1.531926e+01 -1 0 2 8.697649e-01 -2.028097e-01 -1.528360e-01 4.231056e-01
196 2 4 2.886149e+00 -1.944092e+01 -1.477982e+01 -1 0 2 6.877480e-01 -2.761398e-01 -5.807160e-02 6.688626e-01
197 2 2 3.005129e+00 -1.913568e+01 -1.427856e+01 -1 0 2 -4.125433e-01 3.311035e-01 -2.571639e-02 -8.482436e-01
198 2 4 3.058467e+00 -1.863388e+01 -1.398371e+01 -1 0 2 9.895566e-02 -2.403224e-01 1.901347e-01 9.467321e-01
199 2 3 2.804153e+00 -1.813386e+01 -1.380558e+01 -1 0 2 -2.457572e-01 -1.694452e-01 2.857126e-01 9.106372e-01
200 2 4 2.460699e+00 -1.787417e+01 -1.345941e+01 -1 0 2 -4.881572e-01 -2.246959e-01 2.244430e-01 8.129205e-01
