ITEM: TIMESTEP
242000000
ITEM: NUMBER OF ATOMS
200
ITEM: BOX BOUNDS pp pp pp
-2.0000000000000000e+01 2.0000000000000000e+01
-2.0000000000000000e+01 2.0000000000000000e+01
-2.0000000000000000e+01 2.0000000000000000e+01
ITEM: ATOMS id mol type x y z ix iy iz c_quat[1] c_quat[2] c_quat[3] c_quat[4]
1 1 1 -5.140868e+00 1.644616e+01 6.265957e+00 -1 -1 1 -5.900656e-01 4.493641e-01 -5.692913e-02 6.683214e-01
2 1 2 -4.892316e+00 1.667013e+01 6.684187e+00 -1 -1 1 7.265705e-01 -3.212077e-01 1.107055e-01 -5.972145e-01
3 1 1 -4.712554e+00 1.667628e+01 7.239608e+00 -1 -1 1 -8.606444e-01 1.811475e-01 -3.345886e-01 3.384188e-01
4 1 3 -4.329441e+00 1.667197e+01 7.673072e+00 -1 -1 1 8.384599e-01 -9.813447e-02 4.805141e-01 -2.376148e-01
5 1 1 -3.969210e+00 1.634630e+01 7.961120e+00 -1 -1 1 8.532641e-01 1.018254e-02 5.169166e-01 6.807293e-02
6 1 2 -3.524085e+00 1.608414e+01 7.940053e+00 -1 -1 1 7.776887e-01 2.317220e-01 4.340219e-01 3.913186e-01
7 1 4 -3.079131e+00 1.598499e+01 7.889304e+00 -1 -1 1 -6.152171e-01 -4.253660e-01 -4.713719e-01 -4.673117e-01
8 1 1 -2.505983e+00 1.599956e+01 7.718069e+00 -1 -1 1 4.686925e-01 4.751255e-01 2.307429e-01 7.080543e-01
9 1 1 -1.949934e+00 1.617169e+01 7.569553e+00 -1 -1 1 -2.732194e-01 -5.364711e-01 -2.196585e-01 -7.676588e-01
10 1 4 -1.502317e+00 1.642420e+01 7.600294e+00 -1 -1 1 4.151826e-02 5.536759e-01 5.880229e-03 8.316758e-01
11 1 1 -1.165545e+00 1.674093e+01 7.788514e+00 -1 -1 1 -2.059177e-01 5.371964e-01 -2.425017e-01 7.811600e-01
12 1 1 -7.850687e-01 1.693791e+01 8.145018e+00 -1 -1 1 4.000794e-01 -4.571147e-01 2.790317e-01 -7.437230e-01
13 1 3 -6.096281e-01 1.688117e+01 8.623796e+00 -1 -1 1 -6.430377e-01 3.286113e-01 -3.672226e-01 5.862292e-01
14 1 4 -3.224991e-01 1.676975e+01 9.118925e+00 -1 -1 1 7.869805e-01 -9.636494e-02 5.084894e-01 -3.358780e-01
15 1 4 6.721087e-03 1.648067e+01 9.352889e+00 -1 -1 1 7.929258e-01 7.362025e-02 5.232463e-01 -3.034174e-01
16 1 2 3.605146e-01 1.607004e+01 9.560280e+00 -1 -1 1 -7.496616e-01 -2.822285e-01 -5.821211e-01 1.396051e-01
17 1 1 6.114587e-01 1.557012e+01 9.391451e+00 -1 -1 1 -6.892729e-01 -4.979099e-01 -4.851754e-01 -2.039448e-01
18 1 2 9.506004e-01 1.523035e+01 9.073246e+00 -1 -1 1 5.894649e-01 6.321262e-01 3.060042e-01 3.991352e-01
19 1 3 1.432626e+00 1.507087e+01 8.999609e+00 -1 -1 1 3.820263e-01 6.391368e-01 2.408447e-01 6.225383e-01
20 1 1 1.896415e+00 1.517586e+01 8.829690e+00 -1 -1 1 2.566319e-01 6.702142e-01 -1.911025e-02 6.961234e-01
21 1 4 2.381592e+00 1.509897e+01 8.852843e+00 -1 -1 1 -2.219056e-01 -6.049205e-01 -1.033786e-01 -7.577216e-01
22 1 1 2.792251e+00 1.535246e+01 8.963143e+00 -1 -1 1 1.109480e-01 -6.139168e-01 2.080140e-01 -7.533438e-01
23 1 4 3.197228e+00 1.553370e+01 9.254164e+00 -1 -1 1 4.214547e-01 -5.116006e-01 3.107489e-01 -6.812311e-01
24 1 3 3.592117e+00 1.553929e+01 9.622666e+00 -1 -1 1 5.820609e-01 -3.327398e-01 4.155660e-01 -6.146497e-01
25 1 3 3.855936e+00 1.528234e+01 9.975731e+00 -1 -1 1 7.210790e-01 -1.128604e-01 5.128605e-01 -4.519753e-01
26 1 4 4.228716e+00 1.489593e+01 1.018222e+01 -1 -1 1 7.363207e-01 1.234224e-01 6.422064e-01 -1.736943e-01
27 1 4 4.749569e+00 1.458984e+01 1.015371e+01 -1 -1 1 6.554004e-01 2.123454e-01 7.242192e-01 -2.943262e-02
28 1 1 5.056296e+00 1.426114e+01 9.826340e+00 -1 -1 1 6.099970e-01 4.925951e-01 5.178318e-01 3.422044e-01
29 1 1 5.349720e+00 1.409212e+01 9.381567e+00 -1 -1 1 4.288726e-01 6.655553e-01 4.648976e-01 3.962003e-01
30 1 4 5.742700e+00 1.422577e+01 8.999906e+00 -1 -1 1 -3.078513e-01 -7.078964e-01 -2.097712e-01 -6.000886e-01
31 1 4 6.258635e+00 1.439645e+01 8.851242e+00 -1 -1 1 -2.962582e-02 -6.980579e-01 -1.269465e-01 -7.040753e-01
32 1 3 6.700070e+00 1.472613e+01 8.963285e+00 -1 -1 1 1.793835e-01 -6.407711e-01 1.309061e-01 -7.349133e-01
33 1 3 7.039770e+00 1.500579e+01 9.178450e+00 -1 -1 1 4.317936e-01 -5.528552e-01 2.470725e-01 -6.684763e-01
34 1 1 7.347383e+00 1.517307e+01 9.536604e+00 -1 -1 1 6.403442e-01 -4.217613e-01 3.842389e-01 -5.142346e-01
35 1 2 7.725657e+00 1.509053e+01 9.898682e+00 -1 -1 1 7.381248e-01 -2.716410e-01 5.815544e-01 -2.077915e-01
36 1 2 8.234687e+00 1.496613e+01 1.008873e+01 -1 -1 1 6.700338e-01 -1.141631e-01 7.318148e-01 4.968385e-02
37 1 1 8.739382e+00 1.478424e+01 1.008262e+01 -1 -1 1 6.252590e-01 1.424808e-01 7.655200e-01 5.224544e-02
38 1 1 9.000237e+00 1.447907e+01 9.862280e+00 -1 -1 1 6.105760e-01 4.224231e-01 6.404047e-01 1.965641e-01
39 1 4 9.610750e+00 1.445282e+01 9.673532e+00 -1 -1 1 -4.970891e-01 -4.083553e-01 -7.030393e-01 -3.031240e-01
40 1 4 9.910818e+00 1.437158e+01 9.243720e+00 -1 -1 1 -3.209152e-01 -6.454005e-01 -5.154320e-01 -4.634668e-01
41 1 2 1.028016e+01 1.459714e+01 8.872423e+00 -1 -1 1 -9.322404e-02 -7.315242e-01 -3.904179e-01 -5.511402e-01
42 1 4 1.049106e+01 1.501523e+01 8.612968e+00 -1 -1 1 -8.143968e-02 8.256828e-01 7.799130e-02 5.527502e-01
43 1 3 1.094162e+01 1.531832e+01 8.529037e+00 -1 -1 1 1.820438e-01 -7.541534e-01 -3.521637e-02 -6.299782e-01
44 1 2 1.127366e+01 1.575826e+01 8.672744e+00 -1 -1 1 3.673048e-01 -7.082590e-01 3.046002e-01 -5.202645e-01
45 1 1 1.172701e+01 1.587205e+01 8.915763e+00 -1 -1 1 5.018529e-01 -5.504233e-01 5.458220e-01 -3.837397e-01
46 1 3 1.216180e+01 1.577783e+01 9.117982e+00 -1 -1 1 6.606029e-01 -2.883393e-01 6.522411e-01 -2.346186e-01
47 1 4 1.262408e+01 1.558106e+01 9.296701e+00 -1 -1 1 6.924181e-01 -5.957275e-02 6.937351e-01 -1.890501e-01
48 1 1 1.309885e+01 1.521671e+01 9.174836e+00 -1 -1 1 -5.847596e-01 -2.297276e-01 -7.766487e-01 -4.580660e-02
49 1 4 1.347389e+01 1.495337e+01 8.841420e+00 -1 -1 1 -4.875945e-01 -4.179297e-01 -7.238226e-01 -2.523236e-01
50 1 4 1.381095e+01 1.494281e+01 8.451426e+00 -1 -1 1 -3.531021e-01 -5.963139e-01 -5.339591e-01 -4.843721e-01
51 1 4 1.415734e+01 1.516867e+01 8.030999e+00 -1 -1 1 -2.113390e-01 -6.721152e-01 -3.602375e-01 -6.114131e-01
52 1 1 1.440106e+01 1.554255e+01 7.704191e+00 -1 -1 1 1.093326e-02 -7.710048e-01 -2.076355e-01 -6.019299e-01
53 1 3 1.465816e+01 1.595410e+01 7.713471e+00 -1 -1 1 -2.770820e-01 7.972754e-01 2.699686e-02 5.355826e-01
54 1 4 1.505568e+01 1.633337e+01 7.704898e+00 -1 -1 1 -3.721083e-01 7.477184e-01 -1.889319e-01 5.164856e-01
55 1 4 1.548562e+01 1.655391e+01 7.902580e+00 -1 -1 1 -4.893881e-01 6.024413e-01 -4.241001e-01 4.665865e-01
56 1 4 1.602496e+01 1.742676e+01 7.212727e+00 -1 -1 1 3.197139e-01 7.376872e-01 -3.684929e-01 4.667050e-01
57 1 1 1.667126e+01 1.773036e+01 6.455558e+00 -1 -1 1 -7.190728e-01 4.400668e-01 -1.602443e-01 -5.134172e-01
58 1 1 1.659661e+01 1.716358e+01 7.066421e+00 -1 -1 1 5.244047e-01 -6.717910e-01 -4.913629e-01 1.796080e-01
59 1 3 1.716842e+01 1.675260e+01 6.865544e+00 -1 -1 1 5.670612e-01 -6.316176e-01 -7.047857e-02 -5.239595e-01
60 1 4 1.782033e+01 1.653644e+01 7.422418e+00 -1 -1 1 4.516225e-01 5.258167e-01 -4.108788e-01 5.922267e-01
61 1 2 1.738858e+01 1.553945e+01 7.597268e+00 -1 -1 1 1.040151e-01 7.715179e-02 -9.731797e-01 -1.901309e-01
62 1 3 1.852091e+01 1.532798e+01 7.384503e+00 -1 -1 1 9.099526e-01 1.717403e-01 3.715838e-01 -6.646116e-02
63 1 2 1.891615e+01 1.588357e+01 8.039495e+00 -1 -1 1 4.511134e-01 6.805844e-01 3.366690e-01 4.689942e-01
64 1 4 1.883125e+01 1.592648e+01 9.166955e+00 -1 -1 1 5.938102e-01 3.650459e-02 -7.726955e-01 2.213560e-01
65 1 2 1.843006e+01 1.618160e+01 9.642162e+00 -1 -1 1 -6.987948e-02 5.693771e-01 3.968200e-01 7.165615e-01
66 1 1 1.850286e+01 1.543190e+01 1.026678e+01 -1 -1 1 -6.205010e-01 -3.577769e-01 4.888076e-01 -4.980375e-01
67 1 2 1.776873e+01 1.435803e+01 9.545068e+00 -1 -1 1 -6.751196e-01 -1.869793e-01 4.364675e-01 5.645781e-01
68 1 1 1.871767e+01 1.413098e+01 1.026363e+01 -1 -1 1 -4.752679e-01 4.558838e-01 -5.399178e-01 5.241938e-01
69 1 1 1.916856e+01 1.393152e+01 1.034056e+01 -1 -1 1 4.200508e-01 -3.788775e-01 4.655794e-01 -6.806210e-01
70 1 2 -1.993009e+01 1.335628e+01 1.016436e+01 0 -1 1 -7.732174e-01 -4.353637e-01 4.062380e-01 2.180916e-01
71 1 3 -1.973584e+01 1.346134e+01 1.131765e+01 0 -1 1 6.631563e-01 -6.810356e-01 -3.083739e-01 3.632951e-02
72 1 4 -1.984394e+01 1.389868e+01 1.149927e+01 0 -1 1 6.574415e-01 -7.140637e-01 5.891119e-02 2.332664e-01
73 1 1 1.895348e+01 1.328666e+01 1.173752e+01 -1 -1 1 -1.407346e-01 1.984055e-01 -4.139014e-01 8.772199e-01
74 1 1 1.927935e+01 1.305889e+01 1.244102e+01 -1 -1 1 8.487780e-01 -2.078083e-01 -3.991936e-01 2.775539e-01
75 1 3 1.847071e+01 1.298521e+01 1.245008e+01 -1 -1 1 6.718380e-01 3.706246e-01 -6.026045e-01 -2.194057e-01
76 1 1 1.876463e+01 1.343712e+01 1.290620e+01 -1 -1 1 -2.218352e-01 6.799440e-01 -1.163040e-01 -6.891579e-01
77 1 4 1.883355e+01 1.348889e+01 1.420484e+01 -1 -1 1 4.049332e-01 -8.346571e-01 -9.141465e-02 -3.619668e-01
78 1 1 1.896931e+01 1.327009e+01 1.470943e+01 -1 -1 1 -5.294574e-01 5.595646e-01 4.187187e-01 -4.808711e-01
79 1 4 1.771678e+01 1.302697e+01 1.428841e+01 -1 -1 1 2.363365e-01 5.723946e-01 5.896364e-01 -5.184964e-01
80 1 2 1.733720e+01 1.278791e+01 1.412758e+01 -1 -1 1 4.142982e-01 7.711393e-01 2.314513e-01 -4.244190e-01
81 1 4 1.706207e+01 1.254363e+01 1.376770e+01 -1 -1 1 6.306053e-01 7.338887e-01 -2.008132e-01 -1.530307e-01
82 1 4 1.693548e+01 1.213754e+01 1.359933e+01 -1 -1 1 -6.953664e-01 -5.171176e-01 4.576458e-01 -1.990357e-01
83 1 4 1.690462e+01 1.161184e+01 1.364807e+01 -1 -1 1 6.221127e-01 2.471462e-01 -5.345324e-01 5.159163e-01
84 1 4 1.688542e+01 1.117153e+01 1.398801e+01 -1 -1 1 3.304177e-01 -1.532679e-01 -6.302581e-01 6.856441e-01
85 1 1 1.657137e+01 1.091096e+01 1.430136e+01 -1 -1 1 4.042820e-02 -4.435210e-01 -5.370087e-01 7.164331e-01
86 1 1 1.741621e+01 1.003724e+01 1.403625e+01 -1 -1 1 8.956869e-02 -6.176833e-02 9.862160e-01 1.246603e-01
87 1 3 1.806099e+01 1.063198e+01 1.537658e+01 -1 -1 1 -4.941848e-01 6.986381e-01 4.861629e-03 5.173612e-01
88 1 2 1.821808e+01 1.109522e+01 1.570388e+01 -1 -1 1 5.822561e-01 -7.472874e-01 2.540345e-01 -1.949511e-01
89 1 2 1.865415e+01 1.131575e+01 1.595262e+01 -1 -1 1 -6.142218e-01 5.904169e-01 -5.046562e-01 -1.395046e-01
90 1 3 1.883923e+01 1.148585e+01 1.669018e+01 -1 -1 1 -2.546916e-01 -7.637809e-01 5.930029e-01 -1.088585e-02
91 1 3 1.743522e+01 1.233314e+01 1.682096e+01 -1 -1 1 -3.001475e-01 5.326247e-01 4.922933e-01 -6.195722e-01
92 1 2 1.702360e+01 1.246063e+01 1.693078e+01 -1 -1 1 1.115213e-01 6.496846e-01 5.338230e-02 -7.500822e-01
93 1 1 1.659037e+01 1.264226e+01 1.686370e+01 -1 -1 1 2.715183e-01 6.204654e-01 -2.512539e-01 -6.914998e-01
94 1 2 1.618818e+01 1.207477e+01 1.836792e+01 -1 -1 1 -7.693097e-01 4.173774e-01 4.367053e-01 2.079596e-01
95 1 3 1.547266e+01 1.213603e+01 1.716617e+01 -1 -1 1 -3.532286e-01 -6.768037e-01 -6.304472e-01 1.403663e-01
96 1 2 1.533641e+01 1.194877e+01 1.677258e+01 -1 -1 1 -3.754845e-01 -8.979369e-01 -2.278746e-01 2.817712e-02
97 1 2 1.538886e+01 1.171437e+01 1.626146e+01 -1 -1 1 -2.808885e-01 -9.321079e-01 -1.056494e-02 -2.283963e-01
98 1 4 1.559729e+01 1.173845e+01 1.586468e+01 -1 -1 1 -2.865212e-02 8.790297e-01 -4.075343e-01 2.457676e-01
99 1 2 1.605267e+01 1.170730e+01 1.558014e+01 -1 -1 1 1.071717e-02 -5.905084e-01 7.890416e-01 -1.691104e-01
100 1 1 1.540099e+01 1.323857e+01 1.538252e+01 -1 -1 1 -1.940676e-01 7.586957e-01 6.148256e-01 9.331711e-02
101 2 4 1.962641e+00 1.853122e+01 1.992842e+00 -1 -1 1 -4.953104e-01 -1.988997e-01 3.502151e-01 -7.697116e-01
102 2 3 2.442472e+00 1.817845e+01 2.303794e+00 -1 -1 1 -6.547189e-01 -4.703296e-01 4.903155e-02 -5.896856e-01
103 2 1 2.907409e+00 1.806313e+01 2.558131e+00 -1 -1 1 -3.061035e-01 -3.680007e-01 1.960420e-01 -8.558292e-01
104 2 3 3.352716e+00 1.846840e+01 1.807517e+00 -1 -1 1 4.489922e-03 -6.360815e-01 -1.235903e-02 7.715098e-01
105 2 3 4.195095e+00 1.764502e+01 2.239048e+00 -1 -1 1 -4.213459e-01 -4.953299e-01 7.009575e-01 2.928729e-01
106 2 2 5.080792e+00 1.855109e+01 2.436283e+00 -1 -1 1 2.132783e-01 -9.128055e-01 2.793064e-01 -2.080539e-01
107 2 3 4.180224e+00 1.887417e+01 2.871173e+00 -1 -1 1 -2.350220e-01 -5.495202e-01 5.280891e-01 -6.032530e-01
108 2 4 4.293750e+00 1.835215e+01 3.119070e+00 -1 -1 1 8.946513e-01 -3.335881e-01 1.862468e-01 2.315819e-01
109 2 3 4.591447e+00 1.833550e+01 3.523555e+00 -1 -1 1 7.097037e-01 -1.987284e-01 2.494383e-01 6.281785e-01
110 2 2 4.974465e+00 1.862079e+01 3.685683e+00 -1 -1 1 3.724730e-01 3.059548e-02 3.049207e-01 8.759858e-01
111 2 2 4.202617e+00 1.861824e+01 4.815460e+00 -1 -1 1 4.266200e-01 -4.352195e-01 -3.792977e-01 -6.962131e-01
112 2 3 4.298658e+00 1.908069e+01 5.131127e+00 -1 -1 1 4.906190e-01 -3.345459e-01 -3.057470e-01 -7.442384e-01
113 2 3 4.598911e+00 1.854824e+01 5.767843e+00 -1 -1 1 -3.383049e-01 5.434118e-01 -7.030191e-02 7.650562e-01
114 2 2 4.943431e+00 1.867916e+01 6.135077e+00 -1 -1 1 -4.997965e-01 4.593702e-01 -3.882751e-01 6.232375e-01
115 2 4 6.288528e+00 1.932937e+01 5.908637e+00 -1 -1 1 -7.434122e-02 -9.432312e-01 1.816197e-01 -2.679600e-01
116 2 4 6.289470e+00 1.961256e+01 5.749641e+00 -1 -1 1 7.937143e-02 6.904408e-01 6.138166e-01 3.744608e-01
117 2 1 6.607426e+00 1.851933e+01 5.478507e+00 -1 -1 1 -6.500949e-01 1.068306e-01 7.114545e-01 2.445327e-01
118 2 1 7.400662e+00 1.858850e+01 5.012283e+00 -1 -1 1 2.851943e-01 -9.583331e-01 3.855283e-03 1.571875e-02
119 2 1 6.411968e+00 1.780572e+01 4.214936e+00 -1 -1 1 4.032181e-01 -2.174941e-01 -4.309210e-01 -7.774436e-01
120 2 1 6.992553e+00 1.679020e+01 4.478953e+00 -1 -1 1 6.891371e-01 2.641569e-01 -6.076419e-01 -2.933982e-01
121 2 3 7.014959e+00 1.615168e+01 4.551903e+00 -1 -1 1 1.399858e-01 7.087964e-01 -6.900735e-01 4.254748e-02
122 2 1 7.186968e+00 1.597016e+01 4.148591e+00 -1 -1 1 -1.383807e-01 -4.473959e-01 8.745932e-01 -1.255961e-01
123 2 4 7.243223e+00 1.564133e+01 3.789008e+00 -1 -1 1 2.976255e-02 5.255684e-02 -9.973187e-01 4.132053e-02
124 2 1 7.744145e+00 1.589702e+01 2.775200e+00 -1 -1 1 8.197016e-01 3.508269e-01 1.673423e-01 4.207212e-01
125 2 4 8.094144e+00 1.559680e+01 2.864092e+00 -1 -1 1 -6.100017e-01 -4.287328e-01 -1.358461e-01 -6.524048e-01
126 2 2 8.635989e+00 1.561415e+01 2.933424e+00 -1 -1 1 3.099768e-01 3.535731e-01 -1.860457e-01 8.627210e-01
127 2 4 8.779491e+00 1.534687e+01 2.667126e+00 -1 -1 1 -1.125565e-01 1.459287e-01 9.733845e-01 -1.362296e-01
128 2 4 1.001687e+01 1.503498e+01 2.547728e+00 -1 -1 1 9.146077e-01 1.572812e-01 -2.577260e-01 -2.689473e-01
129 2 1 1.068877e+01 1.600417e+01 2.927705e+00 -1 -1 1 4.238810e-01 -8.330019e-01 -2.083295e-01 -2.881518e-01
130 2 2 1.091410e+01 1.601151e+01 3.052265e+00 -1 -1 1 2.176786e-01 2.685597e-01 2.794450e-01 8.957691e-01
131 2 3 1.118247e+01 1.636193e+01 3.549686e+00 -1 -1 1 3.070669e-01 3.988221e-02 3.271378e-01 8.928047e-01
132 2 4 1.134293e+01 1.679276e+01 3.683537e+00 -1 -1 1 -7.405570e-02 1.911532e-01 1.666019e-01 9.644792e-01
133 2 4 1.236278e+01 1.745158e+01 3.964406e+00 -1 -1 1 -3.244907e-01 8.867913e-01 2.097878e-02 -3.284311e-01
134 2 3 1.271374e+01 1.696918e+01 4.295961e+00 -1 -1 1 -1.509149e-01 -5.164030e-01 3.991161e-01 -7.424682e-01
135 2 4 1.276726e+01 1.656594e+01 3.348841e+00 -1 -1 1 5.689562e-02 5.092817e-02 9.604100e-01 -2.679212e-01
136 2 3 1.293284e+01 1.631006e+01 3.304345e+00 -1 -1 1 -2.644296e-01 7.393214e-01 1.842210e-01 5.912221e-01
137 2 1 1.414501e+01 1.584900e+01 2.857678e+00 -1 -1 1 -3.629921e-01 8.474068e-01 -1.781986e-01 -3.440693e-01
138 2 3 1.415134e+01 1.571734e+01 3.968445e+00 -1 -1 1 6.623249e-01 -4.965893e-01 -3.996845e-01 3.936713e-01
139 2 2 1.395094e+01 1.597250e+01 4.325323e+00 -1 -1 1 -4.178685e-01 5.479800e-01 1.718201e-01 -7.039756e-01
140 2 3 1.420343e+01 1.575437e+01 5.291351e+00 -1 -1 1 3.185966e-01 4.720159e-02 -3.534877e-01 8.782452e-01
141 2 1 1.432501e+01 1.579275e+01 5.764130e+00 -1 -1 1 4.311376e-02 3.057702e-02 2.978869e-01 -9.531367e-01
142 2 2 1.540780e+01 1.632721e+01 6.345141e+00 -1 -1 1 1.577163e-01 8.215871e-01 -2.083046e-01 5.066848e-01
143 2 4 1.572980e+01 1.538854e+01 6.193917e+00 -1 -1 1 8.078451e-01 4.029970e-02 4.883410e-01 -3.275443e-01
144 2 4 1.585397e+01 1.498028e+01 6.287667e+00 -1 -1 1 -9.022868e-01 -2.325051e-01 -3.629869e-01 -7.777776e-03
145 2 1 1.601447e+01 1.557999e+01 7.692553e+00 -1 -1 1 7.725478e-01 -1.474099e-01 -5.450590e-01 2.904322e-01
146 2 1 1.575880e+01 1.542173e+01 8.081595e+00 -1 -1 1 5.251922e-01 -4.161248e-01 -3.995271e-01 6.256129e-01
147 2 1 1.551905e+01 1.551219e+01 8.488025e+00 -1 -1 1 -1.989600e-01 5.117290e-01 2.330908e-01 -8.026314e-01
148 2 2 1.516290e+01 1.571351e+01 8.759379e+00 -1 -1 1 -6.946810e-02 5.471493e-01 -7.022772e-02 -8.311859e-01
149 2 4 1.461279e+01 1.582510e+01 8.836247e+00 -1 -1 1 -8.098807e-02 -6.351040e-01 1.200493e-01 7.587306e-01
150 2 1 1.417998e+01 1.606111e+01 8.785579e+00 -1 -1 1 -3.460713e-01 -5.946038e-01 2.905061e-01 6.650468e-01
151 2 1 1.373799e+01 1.615229e+01 8.525402e+00 -1 -1 1 -4.982656e-01 -5.109779e-01 5.265766e-01 4.618985e-01
152 2 1 1.321413e+01 1.603888e+01 8.283856e+00 -1 -1 1 -6.361196e-01 -4.091192e-01 5.790280e-01 3.044666e-01
153 2 4 1.282767e+01 1.564598e+01 8.120498e+00 -1 -1 1 -7.624382e-01 -2.182621e-01 6.075724e-01 4.365029e-02
154 2 1 1.257058e+01 1.518019e+01 8.178331e+00 -1 -1 1 -6.890086e-01 1.247628e-03 6.879880e-01 -2.278992e-01
155 2 2 1.229116e+01 1.485508e+01 8.413485e+00 -1 -1 1 -5.811727e-01 2.597806e-01 5.976742e-01 -4.873786e-01
156 2 4 1.192702e+01 1.470204e+01 8.815073e+00 -1 -1 1 -5.100458e-01 3.775272e-01 4.923636e-01 -5.957386e-01
157 2 3 1.159848e+01 1.466480e+01 9.239135e+00 -1 -1 1 -4.770725e-01 4.162634e-01 2.521736e-01 -7.318027e-01
158 2 2 1.128518e+01 1.491455e+01 9.571401e+00 -1 -1 1 -2.166693e-01 5.199436e-01 1.220472e-01 -8.172010e-01
159 2 1 1.090891e+01 1.517991e+01 9.765470e+00 -1 -1 1 8.358460e-02 5.630849e-01 1.800393e-03 -8.221592e-01
160 2 3 1.036097e+01 1.533326e+01 9.769212e+00 -1 -1 1 -1.460483e-01 -6.497124e-01 1.669970e-01 7.270871e-01
161 2 1 9.954692e+00 1.560237e+01 9.500601e+00 -1 -1 1 -3.986464e-01 -5.229939e-01 4.556417e-01 5.999576e-01
162 2 1 9.532118e+00 1.563539e+01 9.186958e+00 -1 -1 1 -5.760050e-01 -3.793226e-01 6.450725e-01 3.289590e-01
163 2 4 8.991663e+00 1.545094e+01 9.102591e+00 -1 -1 1 -6.456388e-01 -3.740143e-01 6.545204e-01 1.219301e-01
164 2 4 8.526177e+00 1.508478e+01 8.912948e+00 -1 -1 1 -7.301535e-01 -2.095292e-01 6.499060e-01 2.440728e-02
165 2 3 8.235171e+00 1.468654e+01 8.914058e+00 -1 -1 1 -6.830781e-01 -8.125186e-02 6.891218e-01 -2.278456e-01
166 2 3 8.032546e+00 1.428344e+01 9.093436e+00 -1 -1 1 -5.666991e-01 1.259895e-01 6.957327e-01 -4.230067e-01
167 2 4 7.554293e+00 1.400036e+01 9.465015e+00 -1 -1 1 -5.333929e-01 3.988162e-01 5.698222e-01 -4.813940e-01
168 2 2 7.060872e+00 1.399436e+01 9.793877e+00 -1 -1 1 -3.782360e-01 5.857660e-01 3.332630e-01 -6.346270e-01
169 2 2 6.604172e+00 1.415207e+01 1.001878e+01 -1 -1 1 -1.595504e-01 7.083319e-01 1.428313e-01 -6.726134e-01
170 2 1 6.202261e+00 1.452053e+01 1.009257e+01 -1 -1 1 -1.800493e-01 7.039852e-01 -1.971887e-01 -6.581061e-01
171 2 1 6.001205e+00 1.501995e+01 9.867909e+00 -1 -1 1 -2.069330e-01 -5.926464e-01 3.151039e-01 7.117995e-01
172 2 4 5.615875e+00 1.525654e+01 9.572940e+00 -1 -1 1 -4.817368e-01 -4.577664e-01 4.534523e-01 5.939365e-01
173 2 4 5.201275e+00 1.528652e+01 9.276010e+00 -1 -1 1 -6.000458e-01 -3.259654e-01 6.620742e-01 3.087870e-01
174 2 1 4.780995e+00 1.510276e+01 9.123529e+00 -1 -1 1 -6.431516e-01 -2.066148e-01 7.321541e-01 8.727388e-02
175 2 1 4.422933e+00 1.477621e+01 9.028805e+00 -1 -1 1 -6.218193e-01 -1.949506e-02 7.573203e-01 -1.985617e-01
176 2 2 3.921587e+00 1.438814e+01 9.212181e+00 -1 -1 1 -6.160206e-01 3.046456e-01 6.575772e-01 -3.087100e-01
177 2 2 3.444826e+00 1.432477e+01 9.564953e+00 -1 -1 1 -5.003378e-01 5.410894e-01 4.909115e-01 -4.646398e-01
178 2 1 2.977338e+00 1.445512e+01 9.788503e+00 -1 -1 1 -4.317038e-01 6.749950e-01 3.033854e-01 -5.157237e-01
179 2 4 2.514321e+00 1.479288e+01 9.971046e+00 -1 -1 1 -4.032869e-01 7.118213e-01 9.505982e-02 -5.671276e-01
180 2 1 2.347018e+00 1.530026e+01 9.992861e+00 -1 -1 1 -1.588381e-01 6.958251e-01 -2.099370e-01 -6.682247e-01
181 2 4 1.945137e+00 1.567768e+01 9.907833e+00 -1 -1 1 2.116555e-02 -6.681276e-01 3.730613e-01 6.434149e-01
182 2 2 1.711306e+00 1.608030e+01 9.560448e+00 -1 -1 1 -1.644652e-01 -5.797195e-01 5.621595e-01 5.664390e-01
183 2 3 1.479788e+00 1.630830e+01 9.182649e+00 -1 -1 1 -3.196640e-01 -4.096237e-01 6.970694e-01 4.940827e-01
184 2 4 1.196295e+00 1.639571e+01 8.765386e+00 -1 -1 1 -4.694812e-01 -1.648149e-01 7.915749e-01 3.547289e-01
185 2 3 7.777066e-01 1.632579e+01 8.448639e+00 -1 -1 1 5.728773e-01 1.506753e-01 -8.036433e-01 -5.714894e-02
186 2 1 3.611341e-01 1.605391e+01 8.335013e+00 -1 -1 1 5.744803e-01 -1.447723e-01 -7.967064e-01 1.194668e-01
187 2 1 -1.330742e-01 1.585515e+01 8.321429e+00 -1 -1 1 -5.961284e-01 3.281272e-01 6.796019e-01 -2.740523e-01
188 2 2 -5.993986e-01 1.570565e+01 8.568918e+00 -1 -1 1 4.867675e-01 -5.358280e-01 -5.119122e-01 4.624842e-01
189 2 4 -1.098441e+00 1.588568e+01 8.730064e+00 -1 -1 1 3.870530e-01 -6.889737e-01 -3.126834e-01 5.270050e-01
190 2 4 -1.571470e+00 1.618828e+01 8.765907e+00 -1 -1 1 -2.638590e-01 7.683087e-01 8.977336e-02 -5.762126e-01
191 2 1 -1.953350e+00 1.655922e+01 8.735316e+00 -1 -1 1 -7.385560e-02 7.996301e-01 -1.789861e-01 -5.684198e-01
192 2 4 -2.261188e+00 1.687699e+01 8.496317e+00 -1 -1 1 -7.081929e-02 -7.661147e-01 3.867712e-01 5.083905e-01
193 2 4 -2.503285e+00 1.709561e+01 8.112596e+00 -1 -1 1 2.757036e-01 6.135652e-01 -5.993154e-01 -4.339889e-01
194 2 1 -2.927630e+00 1.716264e+01 7.724308e+00 -1 -1 1 -3.753203e-01 -6.051628e-01 6.503058e-01 2.646036e-01
195 2 3 -3.048488e+00 1.695874e+01 7.278863e+00 -1 -1 1 -4.109409e-01 -2.999296e-01 8.516172e-01 1.261661e-01
196 2 4 -3.414411e+00 1.661282e+01 6.886498e+00 -1 -1 1 4.969853e-01 1.290794e-01 -8.579890e-01 -1.410455e-02
197 2 2 -3.671312e+00 1.621694e+01 6.744764e+00 -1 -1 1 4.100659e-01 -7.335622e-02 -8.838535e-01 2.127625e-01
198 2 4 -4.076893e+00 1.592703e+01 6.664333e+00 -1 -1 1 -4.220836e-01 2.304407e-01 8.005669e-01 -3.575405e-01
199 2 3 -4.411070e+00 1.553832e+01 6.783084e+00 -1 -1 1 -3.207539e-01 4.265801e-01 6.783645e-01 -5.049436e-01
200 2 4 -4.880712e+00 1.543140e+01 6.961833e+00 -1 -1 1 1.917703e-01 -5.709746e-01 -4.417016e-01 6.649149e-01
