ITEM: TIMESTEP
25000000
ITEM: NUMBER OF ATOMS
200
ITEM: BOX BOUNDS pp pp pp
-2.0000000000000000e+01 2.0000000000000000e+01
-2.0000000000000000e+01 2.0000000000000000e+01
-2.0000000000000000e+01 2.0000000000000000e+01
ITEM: ATOMS id mol type x y z ix iy iz c_quat[1] c_quat[2] c_quat[3] c_quat[4]
1 1 1 1.205500e+01 1.469381e+01 1.335008e+01 -1 -1 0 -9.729759e-01 -1.241270e-01 -4.651589e-02 -1.890678e-01
2 1 2 1.225836e+01 1.431547e+01 1.362785e+01 -1 -1 0 -8.167683e-01 -1.498828e-01 3.758466e-02 -5.558886e-01
3 1 1 1.242273e+01 1.362868e+01 1.363695e+01 -1 -1 0 -4.191739e-01 3.079938e-01 -6.641508e-01 -5.369700e-01
4 1 3 1.328733e+01 1.438706e+01 1.408325e+01 -1 -1 0 4.636632e-01 8.350869e-01 -2.887623e-02 2.946396e-01
5 1 1 1.371735e+01 1.430520e+01 1.374753e+01 -1 -1 0 -2.694170e-01 -7.578788e-01 3.687691e-01 -4.658793e-01
6 1 2 1.325227e+01 1.398736e+01 1.269087e+01 -1 -1 0 -7.589667e-01 -3.974418e-01 -2.762265e-01 -4.355553e-01
7 1 4 1.277275e+01 1.258611e+01 1.348811e+01 -1 -1 0 5.276310e-01 -3.184894e-03 -8.189497e-01 -2.256476e-01
8 1 1 1.328090e+01 1.214912e+01 1.306340e+01 -1 -1 0 7.877152e-01 5.638680e-01 -1.863182e-01 1.638388e-01
9 1 1 1.348793e+01 1.202527e+01 1.364045e+01 -1 -1 0 -7.695926e-01 -6.169509e-01 7.793815e-02 -1.449983e-01
10 1 4 1.291938e+01 1.103430e+01 1.306587e+01 -1 -1 0 7.803695e-01 1.017230e-01 4.603886e-01 -4.107532e-01
11 1 1 1.295018e+01 1.058076e+01 1.326087e+01 -1 -1 0 8.774418e-01 2.759927e-01 3.644576e-01 -1.452398e-01
12 1 1 1.309730e+01 1.006916e+01 1.332800e+01 -1 -1 0 8.138091e-01 5.137918e-01 2.662317e-01 5.341735e-02
13 1 3 1.335813e+01 9.560405e+00 1.316275e+01 -1 -1 0 7.306130e-01 5.566025e-01 1.853888e-01 3.493268e-01
14 1 4 1.381458e+01 9.347886e+00 1.312422e+01 -1 -1 0 5.761802e-01 5.567682e-01 1.100902e-01 5.881374e-01
15 1 4 1.440112e+01 9.101435e+00 1.314476e+01 -1 -1 0 -4.567686e-01 -4.799501e-01 -2.558704e-02 -7.485691e-01
16 1 2 1.489536e+01 9.233166e+00 1.335821e+01 -1 -1 0 -1.511204e-01 -4.383893e-01 2.061324e-01 -8.616768e-01
17 1 1 1.523349e+01 9.316356e+00 1.372181e+01 -1 -1 0 -9.842019e-02 4.108528e-01 -2.346226e-01 8.754802e-01
18 1 2 1.541887e+01 9.361339e+00 1.427019e+01 -1 -1 0 -3.839045e-01 2.493910e-01 -3.661539e-01 8.101560e-01
19 1 3 1.557357e+01 9.199179e+00 1.474780e+01 -1 -1 0 -6.319071e-01 5.113713e-02 -4.710128e-01 6.133721e-01
20 1 1 1.551267e+01 8.868617e+00 1.510882e+01 -1 -1 0 -8.609178e-01 -8.100589e-02 -3.742111e-01 3.349995e-01
21 1 4 1.568670e+01 8.466531e+00 1.547461e+01 -1 -1 0 8.337089e-01 2.234128e-01 4.106311e-01 -2.939359e-01
22 1 1 1.580298e+01 7.967331e+00 1.557346e+01 -1 -1 0 8.408018e-01 4.100009e-01 3.440676e-01 -8.104978e-02
23 1 4 1.596313e+01 7.439201e+00 1.560508e+01 -1 -1 0 8.344528e-01 4.429939e-01 2.715808e-01 1.835453e-01
24 1 3 1.634872e+01 7.028925e+00 1.558301e+01 -1 -1 0 7.044123e-01 5.389114e-01 2.260171e-01 4.028574e-01
25 1 3 1.682280e+01 6.841844e+00 1.561485e+01 -1 -1 0 5.031701e-01 5.825632e-01 1.639745e-01 6.168892e-01
26 1 4 1.741339e+01 6.750025e+00 1.565472e+01 -1 -1 0 3.485558e-01 5.210938e-01 5.088918e-03 7.790662e-01
27 1 4 1.789666e+01 6.942250e+00 1.579355e+01 -1 -1 0 8.058306e-02 4.864362e-01 -5.985899e-02 8.679304e-01
28 1 1 1.815015e+01 7.277727e+00 1.609080e+01 -1 -1 0 -3.424048e-01 4.815197e-01 -4.544686e-02 8.055013e-01
29 1 1 1.831814e+01 7.552780e+00 1.654011e+01 -1 -1 0 -5.441844e-01 3.735748e-01 -1.432739e-01 7.374130e-01
30 1 4 1.847567e+01 7.727016e+00 1.707822e+01 -1 -1 0 7.464244e-01 -2.503905e-01 2.107113e-01 -5.794445e-01
31 1 4 1.860129e+01 7.723750e+00 1.756896e+01 -1 -1 0 8.487579e-01 -1.206676e-01 2.257689e-01 -4.626854e-01
32 1 3 1.872040e+01 7.504751e+00 1.796749e+01 -1 -1 0 9.427749e-01 -3.624961e-02 3.219530e-01 -7.878959e-02
33 1 3 1.903745e+01 7.330703e+00 1.830965e+01 -1 -1 0 8.864160e-01 3.602627e-02 3.793383e-01 2.628140e-01
34 1 1 1.960137e+01 7.233308e+00 1.851977e+01 -1 -1 0 7.812403e-01 6.578287e-02 4.130565e-01 4.633795e-01
35 1 2 -1.980462e+01 7.363925e+00 1.854857e+01 0 -1 0 5.177112e-01 3.037130e-01 4.638857e-01 6.515701e-01
36 1 2 -1.930621e+01 7.713516e+00 1.853194e+01 0 -1 0 3.125976e-01 3.344577e-01 5.129342e-01 7.261676e-01
37 1 1 -1.900526e+01 8.103353e+00 1.845941e+01 0 -1 0 2.956394e-02 4.452085e-01 4.717401e-01 7.605108e-01
38 1 1 -1.870290e+01 8.603611e+00 1.852712e+01 0 -1 0 -1.534737e-01 3.437073e-01 4.860782e-01 7.886946e-01
39 1 4 -1.867767e+01 9.129794e+00 1.851913e+01 0 -1 0 4.484763e-01 -5.254666e-01 -1.798057e-01 -7.003026e-01
40 1 4 -1.863771e+01 9.567704e+00 1.878127e+01 0 -1 0 6.427215e-01 -5.146081e-01 1.151169e-02 -5.674108e-01
41 1 2 -1.840534e+01 9.806288e+00 1.924223e+01 0 -1 0 7.490556e-01 -4.685116e-01 2.020650e-01 -4.225900e-01
42 1 4 -1.818201e+01 9.900223e+00 1.965569e+01 0 -1 0 8.261332e-01 -3.848485e-01 3.689333e-01 -1.824385e-01
43 1 3 -1.771347e+01 9.923660e+00 2.002415e+01 0 -1 0 7.803003e-01 -2.662725e-01 5.646234e-01 3.782604e-02
44 1 2 -1.725666e+01 9.894339e+00 -1.983096e+01 0 -1 1 7.225584e-01 -4.905904e-02 6.433276e-01 2.482583e-01
45 1 1 -1.676464e+01 9.852438e+00 -1.991765e+01 0 -1 1 6.058979e-01 9.656213e-02 5.894874e-01 5.254218e-01
46 1 3 -1.624387e+01 1.001165e+01 1.999503e+01 0 -1 0 4.067347e-01 2.066691e-01 6.680957e-01 5.877949e-01
47 1 4 -1.584592e+01 1.026225e+01 1.974706e+01 0 -1 0 1.467653e-01 3.429165e-01 6.586182e-01 6.535215e-01
48 1 1 -1.578214e+01 1.074483e+01 1.942206e+01 0 -1 0 1.150748e-01 -5.528943e-01 -4.709367e-01 -6.777052e-01
49 1 4 -1.562546e+01 1.131200e+01 1.937018e+01 0 -1 0 3.024401e-01 -5.858840e-01 -2.356584e-01 -7.139573e-01
50 1 4 -1.550671e+01 1.184574e+01 1.947118e+01 0 -1 0 4.783622e-01 -5.830994e-01 1.590814e-02 -6.564386e-01
51 1 4 -1.538679e+01 1.217383e+01 1.987235e+01 0 -1 0 6.911749e-01 -4.951541e-01 6.661708e-02 -5.221703e-01
52 1 1 -1.534160e+01 1.240234e+01 -1.969169e+01 0 -1 1 8.482454e-01 -3.810728e-01 1.490126e-01 -3.362416e-01
53 1 3 -1.513178e+01 1.239469e+01 -1.922178e+01 0 -1 1 9.299321e-01 -2.030247e-01 3.018966e-01 -5.353289e-02
54 1 4 -1.472559e+01 1.233332e+01 -1.886866e+01 0 -1 1 8.822099e-01 -8.334442e-02 4.116816e-01 2.127853e-01
55 1 4 -1.422597e+01 1.232115e+01 -1.869230e+01 0 -1 1 7.402924e-01 4.624387e-02 4.962781e-01 4.511505e-01
56 1 4 -1.370801e+01 1.232891e+01 -1.870134e+01 0 -1 1 5.797425e-01 2.094109e-01 4.690021e-01 6.325209e-01
57 1 1 -1.310584e+01 1.255774e+01 -1.870306e+01 0 -1 1 3.893947e-01 2.683244e-01 4.582582e-01 7.525777e-01
58 1 1 -1.271986e+01 1.292708e+01 -1.884009e+01 0 -1 1 7.699254e-02 4.028979e-01 3.645881e-01 8.359551e-01
59 1 3 -1.256445e+01 1.348797e+01 -1.894987e+01 0 -1 1 1.562295e-01 -5.120549e-01 -2.489239e-01 -8.071115e-01
60 1 4 -1.250710e+01 1.401066e+01 -1.880187e+01 0 -1 1 4.847240e-01 -5.526486e-01 -1.787549e-01 -6.539640e-01
61 1 2 -1.236333e+01 1.451315e+01 -1.857173e+01 0 -1 1 6.516669e-01 -4.591541e-01 -7.218597e-02 -5.994139e-01
62 1 3 -1.247224e+01 1.475308e+01 -1.808383e+01 0 -1 1 7.921246e-01 -4.944224e-01 1.457710e-01 -3.268575e-01
63 1 2 -1.228782e+01 1.505326e+01 -1.765144e+01 0 -1 1 8.657601e-01 -3.861707e-01 1.879314e-01 -2.569307e-01
64 1 4 -1.198038e+01 1.506150e+01 -1.717135e+01 0 -1 1 8.714675e-01 -2.782741e-01 4.032704e-01 2.192945e-02
65 1 2 -1.151063e+01 1.506272e+01 -1.684465e+01 0 -1 1 8.246990e-01 -1.427060e-01 4.913725e-01 2.409558e-01
66 1 1 -1.098426e+01 1.505085e+01 -1.673853e+01 0 -1 1 6.656593e-01 2.817870e-02 5.889462e-01 4.574341e-01
67 1 2 -1.043345e+01 1.524260e+01 -1.684021e+01 0 -1 1 4.547365e-01 1.220481e-01 5.926995e-01 6.534725e-01
68 1 1 -1.008172e+01 1.545565e+01 -1.695951e+01 0 -1 1 1.688007e-01 4.049227e-01 6.178924e-01 6.524975e-01
69 1 1 -9.834718e+00 1.583863e+01 -1.729072e+01 0 -1 1 -1.299654e-02 5.129255e-01 5.102761e-01 6.901861e-01
70 1 2 -9.806299e+00 1.635211e+01 -1.745115e+01 0 -1 1 2.093745e-01 -5.972494e-01 -4.027659e-01 -6.612376e-01
71 1 3 -9.722246e+00 1.688027e+01 -1.747449e+01 0 -1 1 4.244208e-01 -6.590673e-01 -1.546443e-01 -6.013173e-01
72 1 4 -9.576918e+00 1.737776e+01 -1.719302e+01 0 -1 1 6.249330e-01 -6.495820e-01 1.403708e-01 -4.096315e-01
73 1 1 -9.329430e+00 1.755947e+01 -1.676529e+01 0 -1 1 7.398214e-01 -5.251626e-01 3.139027e-01 -2.798815e-01
74 1 1 -8.945748e+00 1.768903e+01 -1.639638e+01 0 -1 1 7.529209e-01 -4.074814e-01 5.150480e-01 4.236207e-02
75 1 3 -8.420355e+00 1.774594e+01 -1.624366e+01 0 -1 1 7.076623e-01 -2.690730e-01 6.331100e-01 1.612002e-01
76 1 1 -7.827539e+00 1.793951e+01 -1.621110e+01 0 -1 1 6.308458e-01 -1.481846e-01 7.321231e-01 2.099300e-01
77 1 4 -7.273062e+00 1.790504e+01 -1.639983e+01 0 -1 1 5.263720e-01 7.363619e-02 7.491037e-01 3.954160e-01
78 1 1 -6.862716e+00 1.788122e+01 -1.679113e+01 0 -1 1 3.428198e-01 3.731878e-01 6.427961e-01 5.744724e-01
79 1 4 -6.664943e+00 1.810578e+01 -1.718052e+01 0 -1 1 8.846924e-02 6.015755e-01 5.637178e-01 5.590191e-01
80 1 2 -6.401624e+00 1.853092e+01 -1.746996e+01 0 -1 1 3.385623e-02 -5.867608e-01 -5.175337e-01 -6.218717e-01
81 1 4 -6.363043e+00 1.899933e+01 -1.757751e+01 0 -1 1 2.847639e-01 -7.078993e-01 -3.109323e-01 -5.666650e-01
82 1 4 -6.248402e+00 1.955272e+01 -1.755647e+01 0 -1 1 4.546094e-01 -7.208585e-01 -2.758887e-02 -5.224292e-01
83 1 4 -6.087738e+00 1.995213e+01 -1.730168e+01 0 -1 1 6.436465e-01 -6.697699e-01 1.828712e-01 -3.220024e-01
84 1 4 -5.787681e+00 -1.977103e+01 -1.699124e+01 0 0 1 7.463826e-01 -5.357630e-01 3.645887e-01 -1.514793e-01
85 1 1 -5.326942e+00 -1.955906e+01 -1.674063e+01 0 0 1 6.674903e-01 -4.426846e-01 5.986764e-01 8.583445e-03
86 1 1 -4.753754e+00 -1.935087e+01 -1.675646e+01 0 0 1 6.051761e-01 -2.726300e-01 7.477231e-01 1.857370e-02
87 1 3 -4.218905e+00 -1.943127e+01 -1.689826e+01 0 0 1 4.828801e-01 -3.507608e-02 8.657958e-01 1.264677e-01
88 1 2 -3.959137e+00 -1.967733e+01 -1.720560e+01 0 0 1 4.946037e-01 3.417545e-01 7.596016e-01 2.481461e-01
89 1 2 -3.701867e+00 -1.983448e+01 -1.760762e+01 0 0 1 -3.643688e-01 -5.502070e-01 -7.318470e-01 -1.700222e-01
90 1 3 -3.589539e+00 -1.991496e+01 -1.807166e+01 0 0 1 2.437565e-01 7.490115e-01 5.591936e-01 2.585867e-01
91 1 3 -3.418548e+00 -1.987351e+01 -1.853874e+01 0 0 1 9.209647e-02 8.799757e-01 2.416296e-01 3.984673e-01
92 1 2 -3.158950e+00 -1.949701e+01 -1.863843e+01 0 0 1 1.632264e-01 -9.134031e-01 3.073322e-01 -2.111846e-01
93 1 1 -4.329952e+00 2.018244e+01 -1.916928e+01 0 -1 1 6.368738e-03 -3.304347e-01 9.261407e-01 1.817574e-01
94 1 2 -4.062698e+00 -1.828753e+01 -1.888795e+01 0 0 1 -4.036243e-01 -2.517830e-01 2.646248e-01 -8.388483e-01
95 1 3 -4.651572e+00 -1.864638e+01 -1.988253e+01 0 0 1 4.029552e-01 -2.539769e-01 -3.577494e-01 -8.032049e-01
96 1 2 -4.801062e+00 -1.819950e+01 -1.955023e+01 0 0 1 -5.374993e-01 1.840195e-01 3.534928e-01 7.431515e-01
97 1 2 -5.115767e+00 -1.790296e+01 -1.933598e+01 0 0 1 -7.379205e-01 2.713992e-01 2.841986e-01 5.486774e-01
98 1 4 -5.348223e+00 -1.680062e+01 -1.968274e+01 0 0 1 2.622813e-01 -3.749210e-01 -6.932794e-01 -5.567822e-01
99 1 2 -5.240359e+00 -1.590500e+01 1.950229e+01 0 0 0 1.899574e-01 6.543176e-01 2.213673e-01 -6.976970e-01
100 1 1 -5.977154e+00 -1.650735e+01 1.931001e+01 0 0 0 5.179793e-01 4.855767e-02 -1.185918e-02 -8.539315e-01
101 2 4 -1.812492e+00 1.967758e+01 1.841145e+01 0 -1 0 -6.079912e-01 7.085593e-01 -3.010464e-01 -1.940654e-01
102 2 3 -2.490130e+00 -2.024506e+01 1.917746e+01 0 0 0 -5.526868e-02 3.980879e-01 2.145650e-01 8.901872e-01
103 2 1 -2.795822e+00 1.907854e+01 1.987194e+01 0 -1 0 -3.980267e-01 5.543287e-01 -2.493274e-01 6.871174e-01
104 2 3 -2.469972e+00 1.923954e+01 -1.982277e+01 0 -1 1 6.382378e-01 -4.404591e-01 4.170021e-01 -4.740861e-01
105 2 3 -1.740096e+00 -1.987055e+01 -1.933061e+01 0 0 1 -3.973969e-01 8.318084e-01 -3.660160e-01 1.272901e-01
106 2 2 -1.697299e+00 -1.985503e+01 -1.845453e+01 0 0 1 5.249197e-01 -7.313241e-01 -3.411842e-01 -2.705876e-01
107 2 3 -2.083936e+00 -1.913478e+01 -1.815737e+01 0 0 1 4.112418e-02 8.982065e-03 -3.507754e-01 9.355131e-01
108 2 4 -2.057183e+00 -1.932174e+01 -1.770921e+01 0 0 1 3.316504e-01 8.691500e-02 2.865089e-01 -8.946320e-01
109 2 3 -2.467931e+00 -1.938923e+01 -1.787307e+01 0 0 1 -4.421373e-03 4.532602e-01 -1.607961e-02 -8.912223e-01
110 2 2 -2.909092e+00 -1.906827e+01 -1.783215e+01 0 0 1 2.666027e-01 4.416301e-01 -2.162695e-01 -8.289230e-01
111 2 2 -3.335864e+00 -1.877306e+01 -1.790653e+01 0 0 1 -4.864294e-01 -4.186040e-01 3.872059e-01 6.619884e-01
112 2 3 -3.849252e+00 -1.871423e+01 -1.802576e+01 0 0 1 6.749265e-01 2.685543e-01 -5.042054e-01 -4.670436e-01
113 2 3 -4.321403e+00 -1.886404e+01 -1.801057e+01 0 0 1 7.468187e-01 3.082824e-01 -5.501453e-01 -2.111015e-01
114 2 2 -4.735002e+00 -1.925382e+01 -1.798464e+01 0 0 1 7.834232e-01 2.771608e-01 -5.521120e-01 6.784083e-02
115 2 4 -4.964140e+00 -1.973131e+01 -1.789828e+01 0 0 1 7.659037e-01 2.358870e-01 -5.148410e-01 3.044465e-01
116 2 4 -4.959215e+00 1.980683e+01 -1.770512e+01 0 -1 1 5.897527e-01 3.529691e-02 -5.664832e-01 5.744934e-01
117 2 1 -5.038727e+00 1.939675e+01 -1.733717e+01 0 -1 1 4.874708e-01 -8.455840e-02 -5.280332e-01 6.902196e-01
118 2 1 -5.277583e+00 1.913544e+01 -1.689724e+01 0 -1 1 2.163346e-01 -3.867480e-01 -4.502861e-01 7.751566e-01
119 2 1 -5.710694e+00 1.903082e+01 -1.658414e+01 0 -1 1 2.565938e-02 -5.388524e-01 -3.395881e-01 7.704931e-01
120 2 1 -6.206223e+00 1.917709e+01 -1.641670e+01 0 -1 1 -2.903741e-01 -5.870303e-01 -1.929214e-01 7.306570e-01
121 2 3 -6.718389e+00 1.901283e+01 -1.643567e+01 0 -1 1 4.361528e-01 7.045457e-01 4.209802e-02 -5.582239e-01
122 2 1 -7.164451e+00 1.895845e+01 -1.655660e+01 0 -1 1 5.130636e-01 7.317374e-01 -1.460801e-01 -4.242485e-01
123 2 4 -7.545971e+00 1.888426e+01 -1.688787e+01 0 -1 1 5.208152e-01 7.476526e-01 -3.342977e-01 -2.408572e-01
124 2 1 -7.849360e+00 1.856546e+01 -1.723481e+01 0 -1 1 6.013779e-01 6.357931e-01 -4.837161e-01 -1.142393e-02
125 2 4 -7.917857e+00 1.808899e+01 -1.739972e+01 0 -1 1 5.855334e-01 3.573127e-01 -6.845170e-01 2.468090e-01
126 2 2 -8.275062e+00 1.758985e+01 -1.740945e+01 0 -1 1 5.866055e-01 1.666914e-01 -6.773760e-01 4.114240e-01
127 2 4 -8.358340e+00 1.711819e+01 -1.727425e+01 0 -1 1 5.174419e-01 7.037719e-02 -6.221504e-01 5.832922e-01
128 2 4 -8.533579e+00 1.667953e+01 -1.699501e+01 0 -1 1 3.306268e-01 -2.244638e-01 -6.186968e-01 6.763995e-01
129 2 1 -8.896884e+00 1.654555e+01 -1.667828e+01 0 -1 1 1.709532e-01 -4.376722e-01 -4.264749e-01 7.728759e-01
130 2 2 -9.348754e+00 1.648092e+01 -1.640855e+01 0 -1 1 5.653060e-02 -5.757720e-01 -2.361000e-01 7.807354e-01
131 2 3 -9.938588e+00 1.655581e+01 -1.630372e+01 0 -1 1 -2.459377e-01 -6.735063e-01 -1.165570e-01 6.872542e-01
132 2 4 -1.046774e+01 1.639784e+01 -1.637563e+01 0 -1 1 3.371153e-01 7.963079e-01 -2.077046e-02 -5.018124e-01
133 2 4 -1.086513e+01 1.632280e+01 -1.671261e+01 0 -1 1 5.115608e-01 7.597157e-01 -2.921659e-01 -2.752757e-01
134 2 3 -1.116691e+01 1.618480e+01 -1.705363e+01 0 -1 1 4.103857e-01 8.301095e-01 -3.683576e-01 -8.254965e-02
135 2 4 -1.122432e+01 1.590806e+01 -1.750052e+01 0 -1 1 -4.376237e-01 -6.577354e-01 6.085393e-01 -7.449493e-02
136 2 3 -1.107693e+01 1.548979e+01 -1.778496e+01 0 -1 1 -3.520480e-01 -3.444403e-01 8.327390e-01 -2.529204e-01
137 2 1 -1.118831e+01 1.488419e+01 -1.801453e+01 0 -1 1 3.926994e-01 1.148077e-01 -8.391155e-01 3.584572e-01
138 2 3 -1.134158e+01 1.438737e+01 -1.796464e+01 0 -1 1 3.654590e-01 -7.070328e-02 -7.858285e-01 4.938769e-01
139 2 2 -1.156728e+01 1.397645e+01 -1.775394e+01 0 -1 1 1.081770e-01 -3.124692e-01 -7.165807e-01 6.141440e-01
140 2 3 -1.208288e+01 1.367553e+01 -1.781380e+01 0 -1 1 1.060149e-01 -5.107083e-01 -5.078996e-01 6.855478e-01
141 2 1 -1.256801e+01 1.366318e+01 -1.769839e+01 0 -1 1 -1.872935e-01 -7.139692e-01 -2.302039e-01 6.341729e-01
142 2 2 -1.307124e+01 1.346183e+01 -1.789302e+01 0 -1 1 -1.117691e-01 -8.145406e-01 -2.082221e-01 5.297875e-01
143 2 4 -1.346962e+01 1.354649e+01 -1.816812e+01 0 -1 1 3.445862e-01 8.147168e-01 -1.437922e-01 -4.436448e-01
144 2 4 -1.373620e+01 1.358374e+01 -1.860023e+01 0 -1 1 -4.256389e-01 -7.634097e-01 3.919594e-01 2.870628e-01
145 2 1 -1.391568e+01 1.343722e+01 -1.911114e+01 0 -1 1 -4.195764e-01 -6.415341e-01 6.232731e-01 1.546621e-01
146 2 1 -1.409546e+01 1.315275e+01 -1.949355e+01 0 -1 1 -4.066220e-01 -5.656458e-01 7.155091e-01 -5.244113e-02
147 2 1 -1.409166e+01 1.273291e+01 -1.978702e+01 0 -1 1 -4.042020e-01 -3.028852e-01 8.164347e-01 -2.798494e-01
148 2 2 -1.422265e+01 1.212391e+01 -1.992323e+01 0 -1 1 -3.560325e-01 1.572058e-02 8.505457e-01 -3.867373e-01
149 2 4 -1.437333e+01 1.165574e+01 -1.973671e+01 0 -1 1 2.021360e-01 -2.162910e-01 -7.480669e-01 5.939319e-01
150 2 1 -1.480494e+01 1.129082e+01 -1.961580e+01 0 -1 1 9.947773e-02 -4.904027e-01 -6.081793e-01 6.162202e-01
151 2 1 -1.527749e+01 1.109204e+01 -1.957116e+01 0 -1 1 1.117907e-01 -6.200348e-01 -3.248773e-01 7.053470e-01
152 2 1 -1.582157e+01 1.107170e+01 -1.948365e+01 0 -1 1 -2.898531e-02 -7.644443e-01 -2.207134e-01 6.050375e-01
153 2 4 -1.629531e+01 1.114889e+01 -1.960048e+01 0 -1 1 -2.652607e-01 -8.223253e-01 -4.174678e-02 5.016722e-01
154 2 1 -1.665594e+01 1.108526e+01 2.011285e+01 0 -1 0 -4.414520e-01 -7.802843e-01 2.492943e-01 3.662362e-01
155 2 2 -1.690024e+01 1.095932e+01 1.967062e+01 0 -1 0 -5.208252e-01 -7.015247e-01 4.416344e-01 2.038709e-01
156 2 4 -1.703338e+01 1.072075e+01 1.923710e+01 0 -1 0 -5.619898e-01 -4.944588e-01 6.624143e-01 2.975331e-02
157 2 3 -1.707913e+01 1.016105e+01 1.899881e+01 0 -1 0 -5.425857e-01 -2.778012e-01 7.734011e-01 -1.740059e-01
158 2 2 -1.726214e+01 9.644297e+00 1.896131e+01 0 -1 0 -5.052415e-01 -1.101809e-01 7.748493e-01 -3.635928e-01
159 2 1 -1.739520e+01 9.201321e+00 1.914333e+01 0 -1 0 -3.253028e-01 1.723121e-01 7.955509e-01 -4.812333e-01
160 2 3 -1.775932e+01 8.844024e+00 1.935607e+01 0 -1 0 1.860338e-01 -4.424178e-01 -6.940260e-01 5.366431e-01
161 2 1 -1.827839e+01 8.711296e+00 1.951621e+01 0 -1 0 1.584527e-02 -6.020466e-01 -5.140349e-01 6.107838e-01
162 2 1 -1.875937e+01 8.687654e+00 1.960833e+01 0 -1 0 -1.523342e-01 -7.337200e-01 -2.395321e-01 6.173116e-01
163 2 4 -1.937273e+01 8.585515e+00 1.950150e+01 0 -1 0 -1.075905e-01 -8.280448e-01 -2.207787e-01 5.040067e-01
164 2 4 -1.977085e+01 8.573240e+00 1.913634e+01 0 -1 0 -2.810263e-01 -8.875413e-01 6.017464e-02 3.601024e-01
165 2 3 -2.006851e+01 8.583318e+00 1.870330e+01 0 -1 0 -3.213897e-01 -8.480041e-01 3.602102e-01 2.187380e-01
166 2 3 -2.019960e+01 8.451419e+00 1.820242e+01 0 -1 0 -3.753665e-01 -7.618170e-01 5.263096e-01 4.163061e-02
167 2 4 1.988480e+01 8.132024e+00 1.778775e+01 -1 -1 0 -3.665430e-01 -4.692544e-01 8.032027e-01 -1.766367e-02
168 2 2 1.977123e+01 7.772448e+00 1.743338e+01 -1 -1 0 -4.087783e-01 -3.052673e-01 8.397614e-01 -1.857768e-01
169 2 2 1.963295e+01 7.373069e+00 1.723706e+01 -1 -1 0 -3.697179e-01 -9.719782e-02 8.593100e-01 -3.397758e-01
170 2 1 1.929419e+01 6.852619e+00 1.715591e+01 -1 -1 0 -3.328163e-01 3.131684e-01 8.246012e-01 -3.334543e-01
171 2 1 1.880196e+01 6.590449e+00 1.703346e+01 -1 -1 0 3.204523e-01 -4.861857e-01 -7.024736e-01 4.092245e-01
172 2 4 1.821663e+01 6.472042e+00 1.698772e+01 -1 -1 0 2.738729e-01 -6.621382e-01 -5.361333e-01 4.462374e-01
173 2 4 1.767514e+01 6.569678e+00 1.697517e+01 -1 -1 0 1.590588e-01 -8.274868e-01 -2.865083e-01 4.559374e-01
174 2 1 1.732785e+01 6.971924e+00 1.691214e+01 -1 -1 0 1.171356e-01 -8.209564e-01 6.056674e-02 5.555551e-01
175 2 1 1.710090e+01 7.370381e+00 1.665426e+01 -1 -1 0 1.020997e-01 -8.023196e-01 3.420664e-01 4.783821e-01
176 2 2 1.705948e+01 7.736207e+00 1.630550e+01 -1 -1 0 1.093147e-02 -6.386715e-01 6.163861e-01 4.604861e-01
177 2 2 1.697722e+01 8.023852e+00 1.580385e+01 -1 -1 0 -6.768432e-02 -5.330865e-01 7.820846e-01 3.155649e-01
178 2 1 1.693067e+01 7.999824e+00 1.524117e+01 -1 -1 0 -2.204778e-01 -1.573653e-01 9.125189e-01 3.064882e-01
179 2 4 1.664188e+01 8.058023e+00 1.475969e+01 -1 -1 0 -4.124674e-01 3.735532e-02 8.941964e-01 1.699648e-01
180 2 1 1.621983e+01 8.120929e+00 1.445741e+01 -1 -1 0 -5.392260e-01 1.395206e-01 8.305182e-01 -2.957489e-03
181 2 4 1.571927e+01 8.056848e+00 1.436529e+01 -1 -1 0 5.705597e-01 -4.114967e-01 -6.986448e-01 1.304896e-01
182 2 2 1.516239e+01 8.122603e+00 1.420890e+01 -1 -1 0 5.555964e-01 -5.906166e-01 -5.587390e-01 1.740559e-01
183 2 3 1.471842e+01 8.333702e+00 1.431719e+01 -1 -1 0 5.285075e-01 -7.227338e-01 -2.953955e-01 3.332824e-01
184 2 4 1.444725e+01 8.850878e+00 1.447802e+01 -1 -1 0 4.028689e-01 -8.231951e-01 -3.603851e-02 3.984317e-01
185 2 3 1.421548e+01 9.301651e+00 1.433898e+01 -1 -1 0 3.280312e-01 -8.194804e-01 2.194606e-01 4.155532e-01
186 2 1 1.422541e+01 9.786626e+00 1.414934e+01 -1 -1 0 2.887378e-01 -7.342287e-01 4.869902e-01 3.746723e-01
187 2 1 1.425819e+01 1.018091e+01 1.383827e+01 -1 -1 0 8.467065e-02 -5.163253e-01 7.356678e-01 4.301534e-01
188 2 2 1.420287e+01 1.043234e+01 1.334942e+01 -1 -1 0 -9.634831e-02 -3.649860e-01 8.461392e-01 3.762322e-01
189 2 4 1.411049e+01 1.054243e+01 1.288018e+01 -1 -1 0 -2.494450e-01 -1.521925e-01 9.128913e-01 2.850336e-01
190 2 4 1.385424e+01 1.044576e+01 1.245498e+01 -1 -1 0 -2.932943e-01 1.836797e-01 9.137359e-01 2.129010e-01
191 2 1 1.344634e+01 1.051397e+01 1.208666e+01 -1 -1 0 4.352689e-01 -2.992431e-01 -8.441814e-01 -9.139164e-02
192 2 4 1.298884e+01 1.155765e+01 1.127379e+01 -1 -1 0 3.548201e-03 -3.301886e-01 -6.178118e-01 -7.136326e-01
193 2 4 1.403194e+01 1.143802e+01 1.057198e+01 -1 -1 0 2.081854e-01 -4.881440e-01 3.477844e-01 7.729297e-01
194 2 1 1.321684e+01 1.166447e+01 1.088066e+01 -1 -1 0 -5.064001e-01 3.361167e-01 7.913178e-01 6.633697e-02
195 2 3 1.350301e+01 1.137549e+01 1.014587e+01 -1 -1 0 4.800955e-01 2.369949e-01 -7.990413e-01 2.736324e-01
196 2 4 1.303039e+01 1.146159e+01 9.739866e+00 -1 -1 0 -2.620331e-01 -3.932688e-01 -2.387146e-01 -8.483476e-01
197 2 2 1.255212e+01 1.073906e+01 9.049953e+00 -1 -1 0 -3.432231e-02 -1.639981e-01 -9.743964e-01 1.499276e-01
198 2 4 1.237442e+01 1.041824e+01 8.746474e+00 -1 -1 0 -1.837264e-01 -5.686032e-01 -8.008124e-01 4.042940e-02
199 2 3 1.216380e+01 1.037731e+01 8.277046e+00 -1 -1 0 2.099476e-01 8.626869e-01 4.516991e-01 8.752815e-02
200 2 4 1.241110e+01 1.034167e+01 7.779033e+00 -1 -1 0 1.375046e-01 8.942479e-01 3.104195e-01 2.916383e-01
