ITEM: TIMESTEP
212000000
ITEM: NUMBER OF ATOMS
200
ITEM: BOX BOUNDS pp pp pp
-2.0000000000000000e+01 2.0000000000000000e+01
-2.0000000000000000e+01 2.0000000000000000e+01
-2.0000000000000000e+01 2.0000000000000000e+01
ITEM: ATOMS id mol type x y z ix iy iz c_quat[1] c_quat[2] c_quat[3] c_quat[4]
1 1 1 1.788034e+01 -5.827063e+00 1.445138e+01 -1 -1 1 -5.022843e-01 5.245750e-01 -6.872647e-01 1.410229e-02
2 1 2 1.760541e+01 -4.953649e+00 1.411989e+01 -1 -1 1 -3.966064e-01 9.165255e-01 -4.929323e-02 -1.595359e-02
3 1 1 1.767714e+01 -4.498402e+00 1.392689e+01 -1 -1 1 -4.533267e-01 8.505196e-01 -2.615826e-01 -5.182590e-02
4 1 3 1.784182e+01 -4.041969e+00 1.385039e+01 -1 -1 1 -4.262424e-01 7.421098e-01 -4.927810e-01 -1.573445e-01
5 1 1 1.813356e+01 -3.615854e+00 1.357835e+01 -1 -1 1 2.867638e-01 -6.761607e-01 6.513672e-01 1.905098e-01
6 1 2 1.855290e+01 -3.498141e+00 1.330980e+01 -1 -1 1 2.546600e-01 -3.371662e-01 8.780309e-01 2.247868e-01
7 1 4 1.880486e+01 -3.468756e+00 1.277642e+01 -1 -1 1 -5.813235e-02 4.868398e-02 -9.454508e-01 -3.168176e-01
8 1 1 1.866157e+01 -3.320763e+00 1.219307e+01 -1 -1 1 -1.597006e-01 6.079484e-02 9.269224e-01 3.340877e-01
9 1 1 1.839756e+01 -3.294757e+00 1.175738e+01 -1 -1 1 2.970696e-01 -3.735057e-01 -8.388853e-01 -2.617530e-01
10 1 4 1.805128e+01 -3.063489e+00 1.141308e+01 -1 -1 1 -4.499492e-01 5.380919e-01 7.035868e-01 1.138796e-01
11 1 1 1.769946e+01 -2.620588e+00 1.123325e+01 -1 -1 1 -5.168294e-01 7.177752e-01 4.424853e-01 1.479620e-01
12 1 1 1.736925e+01 -2.246864e+00 1.123535e+01 -1 -1 1 6.093181e-01 -7.544826e-01 -2.433744e-01 1.601157e-02
13 1 3 1.722164e+01 -1.853939e+00 1.143015e+01 -1 -1 1 -5.967134e-01 7.693668e-01 5.832785e-02 -2.204671e-01
14 1 4 1.725176e+01 -1.310281e+00 1.147808e+01 -1 -1 1 5.376204e-01 -7.616005e-01 2.027525e-01 2.997004e-01
15 1 4 1.739570e+01 -8.354681e-01 1.142865e+01 -1 -1 1 3.797730e-01 -6.426560e-01 5.143584e-01 4.221387e-01
16 1 2 1.758849e+01 -2.687375e-01 1.125037e+01 -1 -1 1 -1.732119e-01 5.435531e-01 -6.963677e-01 -4.354533e-01
17 1 1 1.757737e+01 2.142750e-01 1.090554e+01 -1 -1 1 -1.719086e-01 6.145921e-01 -7.195000e-01 -2.739411e-01
18 1 2 1.778689e+01 2.557071e-01 1.043691e+01 -1 -1 1 4.939972e-02 -1.926444e-01 9.145682e-01 3.521546e-01
19 1 3 1.785684e+01 3.006271e-01 9.902313e+00 -1 -1 1 -6.709160e-02 9.101775e-02 9.372680e-01 3.297623e-01
20 1 1 1.768855e+01 4.612953e-01 9.385999e+00 -1 -1 1 -2.185332e-01 2.693812e-01 8.964748e-01 2.756989e-01
21 1 4 1.735996e+01 6.047716e-01 8.958532e+00 -1 -1 1 3.317185e-01 -5.138163e-01 -7.411407e-01 -2.768865e-01
22 1 1 1.701007e+01 9.140593e-01 8.739711e+00 -1 -1 1 4.185290e-01 -7.610394e-01 -4.515870e-01 -2.042589e-01
23 1 4 1.687151e+01 1.410135e+00 8.616814e+00 -1 -1 1 5.679054e-01 -7.569360e-01 -2.792436e-01 -1.629550e-01
24 1 3 1.684681e+01 1.914642e+00 8.778298e+00 -1 -1 1 5.132829e-01 -8.566644e-01 3.946766e-02 3.330276e-02
25 1 3 1.698175e+01 2.435095e+00 8.775685e+00 -1 -1 1 4.949943e-01 -7.506939e-01 3.891376e-01 2.000282e-01
26 1 4 1.722311e+01 2.901487e+00 8.669068e+00 -1 -1 1 4.697434e-01 -6.358977e-01 5.904655e-01 1.622517e-01
27 1 4 1.764936e+01 3.098131e+00 8.475851e+00 -1 -1 1 4.086731e-01 -3.157454e-01 7.955024e-01 3.169654e-01
28 1 1 1.802890e+01 3.174612e+00 8.146477e+00 -1 -1 1 2.766529e-01 -2.705671e-02 8.930405e-01 3.538498e-01
29 1 1 1.816854e+01 3.190099e+00 7.647346e+00 -1 -1 1 1.440860e-01 2.824166e-01 8.247822e-01 4.682035e-01
30 1 4 1.825519e+01 3.443400e+00 7.194111e+00 -1 -1 1 4.702133e-02 -3.925086e-01 -8.187482e-01 -4.163861e-01
31 1 4 1.822701e+01 3.786264e+00 6.679713e+00 -1 -1 1 2.222462e-01 -4.561784e-01 -7.664819e-01 -3.937173e-01
32 1 3 1.794115e+01 4.121388e+00 6.437743e+00 -1 -1 1 3.907620e-01 -7.104620e-01 -5.144932e-01 -2.790081e-01
33 1 3 1.785698e+01 4.702517e+00 6.332664e+00 -1 -1 1 4.706314e-01 -7.476258e-01 -3.167530e-01 -3.452959e-01
34 1 1 1.776146e+01 5.242475e+00 6.351916e+00 -1 -1 1 6.440442e-01 -7.229557e-01 -1.064639e-01 -2.262909e-01
35 1 2 1.787738e+01 5.720845e+00 6.515541e+00 -1 -1 1 7.281344e-01 -6.600953e-01 1.387320e-01 -1.218521e-01
36 1 2 1.812421e+01 6.024611e+00 6.801239e+00 -1 -1 1 7.166238e-01 -5.756530e-01 3.638225e-01 1.506892e-01
37 1 1 1.846874e+01 6.455753e+00 6.908767e+00 -1 -1 1 6.640516e-01 -4.629032e-01 5.485092e-01 2.095083e-01
38 1 1 1.886017e+01 6.628518e+00 6.961258e+00 -1 -1 1 6.046912e-01 -2.438555e-01 6.697516e-01 3.554096e-01
39 1 4 1.933387e+01 6.683412e+00 6.848624e+00 -1 -1 1 -4.769894e-01 -6.021353e-02 -7.645624e-01 -4.293015e-01
40 1 4 1.967132e+01 6.745846e+00 6.577214e+00 -1 -1 1 -3.548758e-01 -1.949023e-01 -7.461011e-01 -5.285919e-01
41 1 2 1.984530e+01 6.917110e+00 6.186913e+00 -1 -1 1 -1.463818e-01 -5.013606e-01 -6.453358e-01 -5.574510e-01
42 1 4 2.005781e+01 7.381551e+00 5.889345e+00 -1 -1 1 -4.061856e-02 5.832977e-01 4.210703e-01 6.934073e-01
43 1 3 -1.974536e+01 7.847763e+00 5.748250e+00 0 -1 1 2.853755e-01 -6.554819e-01 -2.082652e-01 -6.674803e-01
44 1 2 -1.955741e+01 8.350861e+00 5.940439e+00 0 -1 1 4.575664e-01 -6.046783e-01 -8.072070e-03 -6.518681e-01
45 1 1 -1.929741e+01 8.736894e+00 6.285150e+00 0 -1 1 5.880938e-01 -5.504227e-01 1.679229e-01 -5.683154e-01
46 1 3 -1.897646e+01 8.887192e+00 6.641122e+00 0 -1 1 7.158611e-01 -3.969663e-01 3.623914e-01 -4.456828e-01
47 1 4 -1.870373e+01 8.821415e+00 7.051939e+00 0 -1 1 8.548423e-01 -1.893620e-01 3.755104e-01 -3.039386e-01
48 1 1 -1.837010e+01 8.641638e+00 7.421043e+00 0 -1 1 -8.935464e-01 5.381107e-02 -4.424646e-01 5.389143e-02
49 1 4 -1.805653e+01 8.420348e+00 7.715975e+00 0 -1 1 -8.747547e-01 -1.534629e-01 -4.559549e-01 -5.795192e-02
50 1 4 -1.755449e+01 8.105331e+00 7.725900e+00 0 -1 1 -7.537615e-01 -2.751025e-01 -4.595325e-01 -3.807781e-01
51 1 4 -1.701171e+01 8.038997e+00 7.602928e+00 0 -1 1 -5.905313e-01 -3.689965e-01 -4.067895e-01 -5.913007e-01
52 1 1 -1.650019e+01 8.144614e+00 7.560460e+00 0 -1 1 -3.352757e-01 -5.211599e-01 -3.446239e-01 -7.051361e-01
53 1 3 -1.596888e+01 8.329038e+00 7.614735e+00 0 -1 1 -1.331346e-01 -4.800418e-01 -1.692970e-01 -8.503961e-01
54 1 4 -1.568732e+01 8.769879e+00 7.668671e+00 0 -1 1 6.842963e-02 -5.921196e-01 -3.912304e-02 -8.019857e-01
55 1 4 -1.535492e+01 9.054922e+00 7.937942e+00 0 -1 1 3.850787e-01 -5.224920e-01 8.799526e-02 -7.556278e-01
56 1 4 -1.512436e+01 9.246845e+00 8.381235e+00 0 -1 1 6.028351e-01 -3.966623e-01 2.741964e-01 -6.356612e-01
57 1 1 -1.500454e+01 9.279676e+00 8.876137e+00 0 -1 1 7.867796e-01 -1.712898e-01 2.751694e-01 -5.252803e-01
58 1 1 -1.476140e+01 9.151080e+00 9.327328e+00 0 -1 1 8.355989e-01 2.055150e-02 3.570912e-01 -4.169388e-01
59 1 3 -1.452490e+01 8.777312e+00 9.641291e+00 0 -1 1 8.825959e-01 1.544526e-01 4.399293e-01 -6.025890e-02
60 1 4 -1.415396e+01 8.364612e+00 9.725796e+00 0 -1 1 8.495265e-01 2.430977e-01 3.766893e-01 2.780527e-01
61 1 2 -1.425513e+01 7.506672e+00 9.626910e+00 0 -1 1 5.246767e-02 7.851653e-01 -6.017068e-01 -1.367899e-01
62 1 3 -1.488376e+01 7.384464e+00 9.947048e+00 0 -1 1 -8.418657e-01 3.879414e-01 -2.464918e-01 -2.828522e-01
63 1 2 -1.557179e+01 7.571825e+00 1.129217e+01 0 -1 1 -6.599376e-01 4.975224e-01 5.280541e-01 -1.952247e-01
64 1 4 -1.584301e+01 6.969683e+00 1.088138e+01 0 -1 1 5.166203e-02 8.052167e-01 -4.138837e-01 4.214943e-01
65 1 2 -1.678642e+01 6.402847e+00 1.096676e+01 0 -1 1 -6.338261e-01 -2.753560e-01 3.465203e-01 6.343242e-01
66 1 1 -1.722810e+01 6.223914e+00 1.102880e+01 0 -1 1 -8.853899e-01 -9.486584e-02 4.279558e-01 1.547226e-01
67 1 2 -1.750983e+01 6.016656e+00 1.136338e+01 0 -1 1 -8.601904e-01 1.405728e-01 3.948381e-01 -2.905419e-01
68 1 1 -1.754954e+01 5.857459e+00 1.187590e+01 0 -1 1 5.540769e-01 -3.005789e-01 -4.497942e-01 6.327213e-01
69 1 1 -1.736910e+01 6.354473e+00 1.220778e+01 0 -1 1 3.197143e-01 -3.797275e-01 -4.062207e-01 7.671861e-01
70 1 2 -1.769290e+01 6.397750e+00 1.254291e+01 0 -1 1 -5.452175e-02 -4.642711e-01 -1.992772e-01 8.612597e-01
71 1 3 -1.800562e+01 6.566060e+00 1.275485e+01 0 -1 1 -3.115286e-01 -4.412450e-01 1.865245e-01 8.206469e-01
72 1 4 -1.843926e+01 6.719218e+00 1.266347e+01 0 -1 1 5.750493e-01 3.085352e-01 -3.796066e-01 -6.557615e-01
73 1 1 -1.880432e+01 7.294634e+00 1.269579e+01 0 -1 1 -3.307231e-01 -3.000098e-01 7.515637e-01 4.855599e-01
74 1 1 -1.960703e+01 7.742500e+00 1.373621e+01 0 -1 1 -4.758337e-01 2.793176e-01 8.261782e-01 1.139891e-01
75 1 3 -2.005722e+01 7.974444e+00 1.354851e+01 0 -1 1 5.319443e-01 -1.788119e-01 -8.192459e-01 -1.178884e-01
76 1 1 1.947615e+01 7.862531e+00 1.347573e+01 -1 -1 1 -5.332189e-01 4.365526e-01 7.033587e-01 -1.743157e-01
77 1 4 1.894639e+01 8.646293e+00 1.267351e+01 -1 -1 1 7.183556e-02 8.131832e-01 3.343150e-01 -4.709631e-01
78 1 1 1.860282e+01 8.669617e+00 1.238028e+01 -1 -1 1 -3.249624e-01 -8.779830e-01 1.100864e-01 3.338057e-01
79 1 4 1.825520e+01 8.847868e+00 1.222011e+01 -1 -1 1 -1.649981e-01 3.919996e-01 -8.711215e-01 -2.454776e-01
80 1 2 1.831871e+01 8.761494e+00 1.167786e+01 -1 -1 1 3.688203e-02 2.628296e-03 9.729373e-01 2.280915e-01
81 1 4 1.820007e+01 8.766735e+00 1.118695e+01 -1 -1 1 -3.708179e-02 4.350642e-01 8.723970e-01 2.196986e-01
82 1 4 1.807573e+01 8.824157e+00 1.099658e+01 -1 -1 1 6.461786e-01 4.163249e-01 -4.281048e-01 -4.752401e-01
83 1 4 1.768908e+01 8.637439e+00 1.080551e+01 -1 -1 1 -7.713393e-01 -1.370726e-01 6.027873e-01 1.513084e-01
84 1 4 1.720580e+01 8.385914e+00 1.088264e+01 -1 -1 1 -8.618910e-01 -5.281451e-02 4.964250e-01 -8.897605e-02
85 1 1 1.664859e+01 7.960304e+00 1.044153e+01 -1 -1 1 1.878541e-01 -6.691584e-01 7.139863e-01 8.462508e-02
86 1 1 1.653344e+01 7.179154e+00 9.894259e+00 -1 -1 1 -2.092424e-01 3.601088e-01 -9.078009e-01 -4.936334e-02
87 1 3 1.679595e+01 7.058344e+00 9.421816e+00 -1 -1 1 1.098156e-01 -3.479519e-02 9.825908e-01 1.457569e-01
88 1 2 1.676603e+01 6.935052e+00 8.934193e+00 -1 -1 1 -5.119194e-02 -3.974605e-01 -8.825355e-01 -2.460400e-01
89 1 2 1.813504e+01 7.641762e+00 8.631375e+00 -1 -1 1 -1.447102e-01 -9.846580e-01 6.038430e-02 -7.655864e-02
90 1 3 1.751923e+01 7.315077e+00 8.610858e+00 -1 -1 1 7.165301e-01 -6.675098e-01 -1.180715e-01 -1.645429e-01
91 1 3 1.696062e+01 7.487992e+00 8.644401e+00 -1 -1 1 -5.764820e-01 -2.429377e-01 7.750624e-01 8.903962e-02
92 1 2 1.650479e+01 7.585053e+00 8.115319e+00 -1 -1 1 5.892574e-01 -3.042155e-01 1.654568e-01 -7.299676e-01
93 1 1 1.687295e+01 8.704242e+00 7.255324e+00 -1 -1 1 -5.529417e-01 -3.864123e-01 -6.051298e-03 -7.381764e-01
94 1 2 1.594061e+01 7.410835e+00 6.965340e+00 -1 -1 1 4.578599e-01 3.906018e-01 -4.532119e-01 -6.575664e-01
95 1 3 1.554818e+01 7.441752e+00 6.775328e+00 -1 -1 1 -6.091400e-01 -2.036774e-01 6.330282e-01 4.321335e-01
96 1 2 1.506069e+01 7.347570e+00 6.732949e+00 -1 -1 1 7.910214e-01 -9.688402e-02 -5.883659e-01 -1.368364e-01
97 1 2 1.469855e+01 7.269040e+00 7.044799e+00 -1 -1 1 7.545901e-01 -3.477926e-01 -4.539836e-01 3.217654e-01
98 1 4 1.433173e+01 6.215160e+00 6.081051e+00 -1 -1 1 6.924113e-01 -2.051732e-01 6.598264e-01 2.076048e-01
99 1 2 1.386560e+01 6.331829e+00 6.618146e+00 -1 -1 1 -8.405202e-01 -5.280098e-01 8.876335e-02 8.277998e-02
100 1 1 1.265049e+01 6.435557e+00 7.396366e+00 -1 -1 1 3.322995e-01 -6.887134e-01 -1.743222e-01 -6.203730e-01
101 2 4 -5.996831e+00 1.695456e+01 1.599526e+01 0 -1 1 -3.608419e-01 7.716770e-01 4.582325e-01 2.536348e-01
102 2 3 -5.547046e+00 1.648500e+01 1.557192e+01 0 -1 1 -4.874451e-01 3.429224e-01 -3.711712e-02 8.021370e-01
103 2 1 -5.137698e+00 1.586877e+01 1.515187e+01 0 -1 1 -1.365592e-01 -2.985516e-01 -9.397873e-01 9.496481e-02
104 2 3 -4.716553e+00 1.498645e+01 1.548480e+01 0 -1 1 7.260042e-01 4.041912e-01 -5.558003e-01 2.516704e-02
105 2 3 -4.687315e+00 1.455287e+01 1.543429e+01 0 -1 1 4.393279e-01 1.822653e-01 -7.830166e-01 4.008184e-01
106 2 2 -4.951382e+00 1.401335e+01 1.545424e+01 0 -1 1 4.587914e-01 1.477091e-01 -7.135343e-01 5.084892e-01
107 2 3 -5.212690e+00 1.358228e+01 1.552503e+01 0 -1 1 5.167139e-01 3.663139e-02 -5.968824e-01 6.126959e-01
108 2 4 -5.565260e+00 1.328621e+01 1.592967e+01 0 -1 1 3.645164e-01 -3.260159e-01 -5.612668e-01 6.676983e-01
109 2 3 -5.903193e+00 1.311999e+01 1.615584e+01 0 -1 1 7.695185e-02 -4.859308e-01 -4.077388e-01 7.692196e-01
110 2 2 -6.432468e+00 1.293211e+01 1.619915e+01 0 -1 1 -3.957107e-02 6.439113e-01 3.920163e-01 -6.558472e-01
111 2 2 -7.024385e+00 1.262974e+01 1.632361e+01 0 -1 1 -3.708737e-01 -6.055067e-01 -2.447576e-03 7.041366e-01
112 2 3 -7.505164e+00 1.254704e+01 1.612115e+01 0 -1 1 6.048767e-01 4.712877e-01 -3.496360e-01 -5.382999e-01
113 2 3 -8.214509e+00 1.278452e+01 1.740530e+01 0 -1 1 -2.869585e-01 3.594342e-01 -4.408211e-01 7.708039e-01
114 2 2 -8.221133e+00 1.296390e+01 1.743196e+01 0 -1 1 -6.557033e-01 -2.362675e-01 -1.015431e-01 -7.098731e-01
115 2 4 -9.540900e+00 1.282298e+01 1.681927e+01 0 -1 1 -1.380337e-01 -3.283152e-01 -8.498627e-01 -3.884445e-01
116 2 4 -9.608786e+00 1.292249e+01 1.636203e+01 0 -1 1 -1.751746e-02 -6.759067e-01 -6.163517e-01 -4.036755e-01
117 2 1 -9.543081e+00 1.334837e+01 1.603387e+01 0 -1 1 -1.862455e-01 8.685783e-01 2.121481e-01 4.072806e-01
118 2 1 -9.037536e+00 1.296807e+01 1.484731e+01 0 -1 1 -7.134282e-01 -4.485280e-01 -1.066324e-01 -5.277049e-01
119 2 1 -9.200126e+00 1.207920e+01 1.445453e+01 0 -1 1 -4.654150e-01 -6.786204e-01 -4.343839e-02 5.665478e-01
120 2 1 -9.680719e+00 1.206299e+01 1.404864e+01 0 -1 1 -5.918614e-01 -6.920082e-01 -5.365856e-02 4.098117e-01
121 2 3 -9.951332e+00 1.177022e+01 1.374420e+01 0 -1 1 6.212599e-01 7.299298e-01 -2.278109e-01 -1.712914e-01
122 2 1 -1.016574e+01 1.120251e+01 1.355912e+01 0 -1 1 -6.276220e-01 -7.533531e-01 1.924949e-01 3.867052e-02
123 2 4 -1.004249e+01 1.087338e+01 1.323618e+01 0 -1 1 -4.947211e-01 -5.331884e-01 6.680732e-01 -1.569692e-01
124 2 1 -1.012362e+01 1.045958e+01 1.299803e+01 0 -1 1 4.286882e-01 3.472326e-01 -7.584907e-01 3.469118e-01
125 2 4 -9.305884e+00 1.036794e+01 1.227355e+01 0 -1 1 -4.327689e-01 4.433298e-01 -7.686110e-01 -1.593951e-01
126 2 2 -9.216138e+00 1.176777e+01 1.196546e+01 0 -1 1 -1.835999e-01 9.119216e-01 2.659693e-01 -2.528842e-01
127 2 4 -9.622345e+00 1.110464e+01 1.074954e+01 0 -1 1 -1.494761e-01 2.412785e-01 -6.915524e-01 -6.642265e-01
128 2 4 -9.398742e+00 1.056680e+01 1.119363e+01 0 -1 1 7.539583e-01 -3.405702e-01 2.754070e-01 4.896018e-01
129 2 1 -1.043399e+01 9.406035e+00 1.166123e+01 0 -1 1 7.411253e-01 -1.698823e-01 -7.715940e-02 -6.449184e-01
130 2 2 -1.053185e+01 9.500943e+00 1.213215e+01 0 -1 1 9.089672e-01 -8.351806e-02 -2.636083e-02 -4.075642e-01
131 2 3 -1.058871e+01 9.261706e+00 1.250591e+01 0 -1 1 9.869691e-01 -6.208708e-02 -8.496035e-02 1.217332e-01
132 2 4 -1.092775e+01 9.176459e+00 1.167377e+01 0 -1 1 -9.637152e-02 7.653263e-01 -6.331029e-01 -6.456703e-02
133 2 4 -1.163824e+01 8.962776e+00 1.210511e+01 0 -1 1 -9.439760e-01 -3.360553e-02 2.702935e-01 -1.863368e-01
134 2 3 -1.258044e+01 9.242041e+00 1.211505e+01 0 -1 1 5.390424e-01 4.246805e-01 -5.723164e-01 -4.489251e-01
135 2 4 -1.293904e+01 9.074074e+00 1.183909e+01 0 -1 1 5.986617e-01 1.944892e-01 -7.700509e-01 -1.039218e-01
136 2 3 -1.331013e+01 8.788506e+00 1.172235e+01 0 -1 1 -5.914853e-01 1.800691e-01 7.567266e-01 -2.123328e-01
137 2 1 -1.269252e+01 8.438315e+00 1.123280e+01 0 -1 1 4.754844e-01 5.806128e-02 -8.399335e-01 2.550593e-01
138 2 3 -1.268084e+01 9.509509e+00 1.018240e+01 0 -1 1 2.004392e-01 -8.695381e-01 -1.680289e-01 4.189200e-01
139 2 2 -1.290180e+01 9.819426e+00 9.935301e+00 0 -1 1 4.261198e-03 8.584241e-01 -2.272257e-01 -4.598460e-01
140 2 3 -1.339893e+01 9.140509e+00 9.478978e+00 0 -1 1 -3.246191e-01 -5.559496e-01 7.303679e-01 2.282655e-01
141 2 1 -1.343797e+01 9.031429e+00 9.019234e+00 0 -1 1 3.643565e-01 2.023146e-01 -9.054093e-01 -8.091389e-02
142 2 2 -1.381426e+01 8.736338e+00 8.687097e+00 0 -1 1 -4.694830e-01 -2.750655e-02 8.824012e-01 -1.404255e-02
143 2 4 -1.416640e+01 8.479484e+00 8.445327e+00 0 -1 1 -4.872376e-01 1.836161e-01 8.417264e-01 -1.427630e-01
144 2 4 -1.455880e+01 8.217027e+00 8.434489e+00 0 -1 1 -4.157691e-01 4.116594e-01 7.292526e-01 -3.547721e-01
145 2 1 -1.509448e+01 8.094452e+00 8.602722e+00 0 -1 1 3.808573e-01 -5.933808e-01 -5.137646e-01 4.887666e-01
146 2 1 -1.559810e+01 8.205947e+00 8.770652e+00 0 -1 1 -2.810964e-01 7.384996e-01 2.740168e-01 -5.481951e-01
147 2 1 -1.608476e+01 8.589803e+00 8.750321e+00 0 -1 1 9.930563e-02 -8.411965e-01 -7.469063e-02 5.262587e-01
148 2 2 -1.652428e+01 8.803105e+00 8.555066e+00 0 -1 1 -2.004103e-02 8.492761e-01 -1.957548e-01 -4.899067e-01
149 2 4 -1.683384e+01 9.095243e+00 8.150155e+00 0 -1 1 -1.499403e-01 -8.123234e-01 4.124891e-01 3.840591e-01
150 2 1 -1.701565e+01 9.198098e+00 7.630592e+00 0 -1 1 -2.814408e-01 -6.302314e-01 6.550842e-01 3.073501e-01
151 2 1 -1.723109e+01 9.185003e+00 7.181713e+00 0 -1 1 -4.006411e-01 -4.400753e-01 7.896012e-01 1.495003e-01
152 2 1 -1.733930e+01 8.871593e+00 6.829569e+00 0 -1 1 -4.090898e-01 -1.591246e-01 8.982302e-01 2.252559e-02
153 2 4 -1.769445e+01 8.572776e+00 6.420075e+00 0 -1 1 -4.951051e-01 -2.749872e-02 8.656388e-01 -6.916846e-02
154 2 1 -1.808188e+01 8.219486e+00 6.283224e+00 0 -1 1 -5.050354e-01 1.732347e-01 8.249104e-01 -1.856122e-01
155 2 2 -1.847907e+01 7.836311e+00 6.450745e+00 0 -1 1 -3.577681e-01 3.604557e-01 7.299911e-01 -4.573693e-01
156 2 4 -1.889313e+01 7.648005e+00 6.662764e+00 0 -1 1 -2.861322e-01 4.809055e-01 5.950163e-01 -5.769002e-01
157 2 3 -1.927759e+01 7.520748e+00 6.806589e+00 0 -1 1 -2.387386e-01 5.656947e-01 3.808845e-01 -6.913178e-01
158 2 2 -1.971486e+01 7.773563e+00 7.024437e+00 0 -1 1 1.084255e-01 6.598376e-01 1.319861e-01 -7.317362e-01
159 2 1 1.969429e+01 7.844294e+00 6.918788e+00 -1 -1 1 3.443480e-01 7.272094e-01 1.620253e-02 -5.935726e-01
160 2 3 1.920691e+01 7.811355e+00 6.696436e+00 -1 -1 1 -4.980744e-01 -7.419908e-01 1.800691e-01 4.110311e-01
161 2 1 1.886599e+01 7.583604e+00 6.346874e+00 -1 -1 1 -5.880223e-01 -6.941728e-01 3.853244e-01 1.545286e-01
162 2 1 1.875011e+01 7.226063e+00 6.011018e+00 -1 -1 1 -5.645506e-01 -6.356446e-01 5.126920e-01 -1.199394e-01
163 2 4 1.883278e+01 6.734731e+00 5.742234e+00 -1 -1 1 -5.660469e-01 -4.310162e-01 6.259930e-01 -3.192941e-01
164 2 4 1.886425e+01 6.154826e+00 5.773765e+00 -1 -1 1 -5.111007e-01 -2.481295e-01 6.332589e-01 -5.255388e-01
165 2 3 1.898377e+01 5.746461e+00 6.020378e+00 -1 -1 1 -3.223790e-01 -1.000662e-01 6.660744e-01 -6.651342e-01
166 2 3 1.900367e+01 5.326620e+00 6.398007e+00 -1 -1 1 -1.948382e-01 5.553256e-02 5.905308e-01 -7.811706e-01
167 2 4 1.881951e+01 5.209961e+00 6.815517e+00 -1 -1 1 1.777477e-01 1.842081e-01 3.981896e-01 -8.808622e-01
168 2 2 1.863403e+01 4.890272e+00 7.191002e+00 -1 -1 1 2.385784e-01 3.216826e-01 3.424148e-01 -8.499134e-01
169 2 2 1.815698e+01 4.752488e+00 7.458640e+00 -1 -1 1 4.347369e-01 4.428025e-01 2.713016e-01 -7.357480e-01
170 2 1 1.771040e+01 4.526424e+00 7.441390e+00 -1 -1 1 6.517892e-01 4.789594e-01 4.684759e-02 -5.861519e-01
171 2 1 1.732338e+01 4.139477e+00 7.505868e+00 -1 -1 1 -8.304036e-01 -4.529290e-01 5.738010e-02 3.193629e-01
172 2 4 1.712777e+01 3.747034e+00 7.539917e+00 -1 -1 1 -7.723701e-01 -6.022321e-01 1.360117e-01 1.492039e-01
173 2 4 1.703014e+01 3.227209e+00 7.439744e+00 -1 -1 1 -8.225999e-01 -4.691001e-01 2.769058e-01 -1.630878e-01
174 2 1 1.722146e+01 2.675721e+00 7.489827e+00 -1 -1 1 -7.160715e-01 -3.870916e-01 3.215294e-01 -4.837567e-01
175 2 1 1.749921e+01 2.286722e+00 7.697831e+00 -1 -1 1 -5.047807e-01 -3.338450e-01 3.754491e-01 -7.019843e-01
176 2 2 1.784533e+01 2.039899e+00 8.051779e+00 -1 -1 1 -2.874863e-01 -2.211719e-01 3.970346e-01 -8.430885e-01
177 2 2 1.802077e+01 1.826778e+00 8.569834e+00 -1 -1 1 -1.088349e-01 -6.271799e-02 3.117306e-01 -9.418309e-01
178 2 1 1.792198e+01 1.613369e+00 9.147112e+00 -1 -1 1 7.409740e-02 1.629514e-01 3.690149e-01 -9.120222e-01
179 2 4 1.758887e+01 1.588718e+00 9.600747e+00 -1 -1 1 4.368152e-01 2.491639e-01 3.066646e-01 -8.081254e-01
180 2 1 1.726287e+01 1.408180e+00 9.947401e+00 -1 -1 1 6.059773e-01 3.943302e-01 2.500653e-01 -6.440206e-01
181 2 4 1.689143e+01 9.726624e-01 1.003410e+01 -1 -1 1 -7.775176e-01 -4.684080e-01 -1.644334e-01 3.860337e-01
182 2 2 1.665697e+01 5.507102e-01 1.011523e+01 -1 -1 1 -8.474179e-01 -5.192518e-01 1.043640e-02 1.102341e-01
183 2 3 1.665132e+01 3.251597e-03 1.023267e+01 -1 -1 1 -7.902377e-01 -6.064135e-01 3.039185e-02 -8.284561e-02
184 2 4 1.683295e+01 -4.998848e-01 1.025389e+01 -1 -1 1 -7.531994e-01 -5.694462e-01 1.001482e-01 -3.136751e-01
185 2 3 1.713832e+01 -9.286563e-01 1.031953e+01 -1 -1 1 6.121078e-01 5.701114e-01 -9.439548e-02 5.398023e-01
186 2 1 1.764705e+01 -1.208450e+00 1.038521e+01 -1 -1 1 4.719615e-01 4.572324e-01 -2.643908e-01 7.058954e-01
187 2 1 1.804713e+01 -1.418812e+00 1.067369e+01 -1 -1 1 -1.808903e-01 -3.146422e-01 3.446894e-01 -8.657183e-01
188 2 2 1.832715e+01 -1.616216e+00 1.104720e+01 -1 -1 1 -4.353436e-02 1.172344e-01 -3.421627e-01 9.312817e-01
189 2 4 1.848338e+01 -1.805345e+00 1.159439e+01 -1 -1 1 -1.912252e-01 -5.023782e-02 -4.509717e-01 8.703640e-01
190 2 4 1.835216e+01 -2.019623e+00 1.201364e+01 -1 -1 1 4.023543e-01 1.624413e-01 4.366676e-01 -7.880642e-01
191 2 1 1.805916e+01 -2.218786e+00 1.227162e+01 -1 -1 1 7.188520e-01 2.711572e-01 2.014203e-01 -6.075816e-01
192 2 4 1.786485e+01 -2.588195e+00 1.259773e+01 -1 -1 1 -7.074222e-01 -4.688935e-01 -1.834307e-01 4.960301e-01
193 2 4 1.759947e+01 -3.129108e+00 1.264316e+01 -1 -1 1 8.231220e-01 4.923568e-01 1.515889e-01 -2.389051e-01
194 2 1 1.761428e+01 -3.627888e+00 1.249898e+01 -1 -1 1 -8.481477e-01 -5.098832e-01 6.196984e-02 -1.297088e-01
195 2 3 1.783276e+01 -4.062715e+00 1.252600e+01 -1 -1 1 -7.450087e-01 -4.646928e-01 1.881669e-01 -4.400180e-01
196 2 4 1.806793e+01 -4.509241e+00 1.273770e+01 -1 -1 1 6.185349e-01 3.760037e-01 -2.273572e-01 6.514173e-01
197 2 2 1.847299e+01 -4.640936e+00 1.305113e+01 -1 -1 1 -3.764982e-01 -2.320881e-01 3.715845e-01 -8.162777e-01
198 2 4 1.867564e+01 -4.983079e+00 1.349672e+01 -1 -1 1 -2.546070e-01 -8.343390e-02 3.682634e-01 -8.902787e-01
199 2 3 1.889687e+01 -5.164513e+00 1.405531e+01 -1 -1 1 1.190310e-01 3.265675e-03 -4.316484e-01 8.941480e-01
200 2 4 1.995211e+01 -5.779958e+00 1.418662e+01 -1 -1 1 8.185316e-01 -7.566566e-02 -5.690433e-01 2.169086e-02
