ITEM: TIMESTEP
286000000
ITEM: NUMBER OF ATOMS
200
ITEM: BOX BOUNDS pp pp pp
-2.0000000000000000e+01 2.0000000000000000e+01
-2.0000000000000000e+01 2.0000000000000000e+01
-2.0000000000000000e+01 2.0000000000000000e+01
ITEM: ATOMS id mol type x y z ix iy iz c_quat[1] c_quat[2] c_quat[3] c_quat[4]
1 1 1 1.421284e+01 -1.857964e+01 -1.020909e+01 -1 0 2 4.419667e-01 -4.806357e-01 -6.554176e-01 3.795821e-01
2 1 2 1.379444e+01 -1.878012e+01 -9.969859e+00 -1 0 2 -3.808546e-01 5.617638e-01 4.588273e-01 -5.734533e-01
3 1 1 1.332458e+01 -1.860131e+01 -9.800057e+00 -1 0 2 -6.672426e-02 7.479213e-01 2.507984e-01 -6.109516e-01
4 1 3 1.280534e+01 -1.843385e+01 -9.929671e+00 -1 0 2 2.388405e-02 8.140974e-01 7.037128e-03 -5.801943e-01
5 1 1 1.234149e+01 -1.824186e+01 -1.023515e+01 -1 0 2 3.007671e-01 8.082633e-01 -1.896890e-01 -4.693268e-01
6 1 2 1.199351e+01 -1.830895e+01 -1.062586e+01 -1 0 2 3.266049e-01 8.245982e-01 -3.543963e-01 -2.962607e-01
7 1 4 1.179056e+01 -1.842650e+01 -1.111626e+01 -1 0 2 3.444425e-01 7.757363e-01 -5.151272e-01 -1.193168e-01
8 1 1 1.178297e+01 -1.864193e+01 -1.160163e+01 -1 0 2 4.365627e-01 5.567091e-01 -7.066772e-01 9.759762e-03
9 1 1 1.178678e+01 -1.900132e+01 -1.198435e+01 -1 0 2 -3.810602e-01 -2.825252e-01 8.582476e-01 -1.959176e-01
10 1 4 1.148346e+01 -1.938956e+01 -1.215415e+01 -1 0 2 4.091078e-01 1.592247e-01 -8.314948e-01 3.404331e-01
11 1 1 1.134369e+01 -1.982287e+01 -1.213756e+01 -1 0 2 2.150008e-01 -2.417514e-01 -7.865470e-01 5.259988e-01
12 1 1 1.095593e+01 1.975693e+01 -1.224835e+01 -1 -1 2 -2.332249e-01 3.516185e-01 7.122318e-01 -5.609781e-01
13 1 3 1.042770e+01 1.958475e+01 -1.220666e+01 -1 -1 2 7.145996e-02 -6.710859e-01 -5.282924e-01 5.152130e-01
14 1 4 9.938318e+00 1.954093e+01 -1.237831e+01 -1 -1 2 9.663200e-02 8.798063e-01 3.035840e-01 -3.527604e-01
15 1 4 9.597803e+00 1.965951e+01 -1.281517e+01 -1 -1 2 2.088371e-01 9.392314e-01 -6.677902e-04 -2.724537e-01
16 1 2 9.374723e+00 1.965887e+01 -1.331037e+01 -1 -1 2 -2.294358e-01 -9.469330e-01 1.975256e-01 1.079853e-01
17 1 1 9.368681e+00 1.957688e+01 -1.391898e+01 -1 -1 2 -3.687640e-01 -7.995263e-01 4.736334e-01 -2.102834e-02
18 1 2 9.433516e+00 1.932165e+01 -1.433897e+01 -1 -1 2 3.103284e-01 6.765535e-01 -6.402899e-01 1.897381e-01
19 1 3 9.723603e+00 1.897819e+01 -1.466977e+01 -1 -1 2 2.723766e-01 3.955883e-01 -8.341016e-01 2.712847e-01
20 1 1 9.709074e+00 1.840982e+01 -1.495273e+01 -1 -1 2 2.798612e-01 1.584147e-01 -8.521912e-01 4.127380e-01
21 1 4 9.660935e+00 1.780257e+01 -1.499713e+01 -1 -1 2 -1.606581e-01 1.294776e-01 8.522205e-01 -4.807752e-01
22 1 1 9.275591e+00 1.729087e+01 -1.480676e+01 -1 -1 2 -7.999112e-02 4.002330e-01 7.352310e-01 -5.411565e-01
23 1 4 8.832818e+00 1.709624e+01 -1.483863e+01 -1 -1 2 -5.307050e-02 6.305298e-01 5.209743e-01 -5.728887e-01
24 1 3 8.353371e+00 1.696657e+01 -1.482890e+01 -1 -1 2 1.269416e-01 7.538918e-01 3.447225e-01 -5.447012e-01
25 1 3 7.905366e+00 1.684093e+01 -1.508529e+01 -1 -1 2 1.793567e-01 8.753382e-01 1.215872e-01 -4.322392e-01
26 1 4 7.553898e+00 1.684218e+01 -1.545318e+01 -1 -1 2 1.716623e-01 9.187009e-01 -1.034530e-01 -3.403208e-01
27 1 4 7.484921e+00 1.701709e+01 -1.599442e+01 -1 -1 2 2.205158e-01 8.495067e-01 -4.310486e-01 -2.095429e-01
28 1 1 7.433230e+00 1.695399e+01 -1.654954e+01 -1 -1 2 2.787094e-01 7.191983e-01 -6.362576e-01 1.584498e-02
29 1 1 7.468559e+00 1.662809e+01 -1.696569e+01 -1 -1 2 3.686837e-01 4.783455e-01 -7.890215e-01 1.127078e-01
30 1 4 7.534403e+00 1.615425e+01 -1.719500e+01 -1 -1 2 -2.987037e-01 -1.375943e-01 9.067066e-01 -2.640589e-01
31 1 4 7.288762e+00 1.563621e+01 -1.740565e+01 -1 -1 2 -3.628058e-01 7.093411e-02 8.709698e-01 -3.236541e-01
32 1 3 6.886212e+00 1.525826e+01 -1.750756e+01 -1 -1 2 -2.903357e-01 3.461252e-01 7.619487e-01 -4.640438e-01
33 1 3 6.354070e+00 1.504019e+01 -1.749813e+01 -1 -1 2 -2.856471e-01 5.604350e-01 6.197715e-01 -4.692564e-01
34 1 1 5.873336e+00 1.493938e+01 -1.738235e+01 -1 -1 2 -7.335794e-02 7.685333e-01 4.360177e-01 -4.624541e-01
35 1 2 5.372451e+00 1.500951e+01 -1.759619e+01 -1 -1 2 -9.849316e-03 8.808757e-01 2.348929e-01 -4.108361e-01
36 1 2 4.937153e+00 1.524491e+01 -1.775533e+01 -1 -1 2 8.916163e-02 9.058010e-01 -8.443150e-02 -4.055196e-01
37 1 1 4.662813e+00 1.538260e+01 -1.825424e+01 -1 -1 2 1.705622e-01 9.096159e-01 -2.429842e-01 -2.906305e-01
38 1 1 4.485394e+00 1.538044e+01 -1.871147e+01 -1 -1 2 2.477302e-01 8.232231e-01 -4.982837e-01 -1.124581e-01
39 1 4 4.682515e+00 1.531414e+01 -1.924586e+01 -1 -1 2 -1.706986e-01 -7.116372e-01 6.807901e-01 -3.097418e-02
40 1 4 4.867576e+00 1.500078e+01 -1.964527e+01 -1 -1 2 -1.667709e-01 -4.895544e-01 8.370995e-01 -1.782928e-01
41 1 2 4.941832e+00 1.459825e+01 2.011057e+01 -1 -1 1 -1.201747e-01 -5.538885e-02 9.638005e-01 -2.314710e-01
42 1 4 4.755761e+00 1.418277e+01 1.972718e+01 -1 -1 1 2.120454e-01 -1.984435e-01 -9.303780e-01 2.237270e-01
43 1 3 4.343301e+00 1.396082e+01 1.937352e+01 -1 -1 1 -2.575312e-01 4.148375e-01 8.453919e-01 -2.165644e-01
44 1 2 3.823457e+00 1.388650e+01 1.914261e+01 -1 -1 1 -2.630229e-01 6.746887e-01 6.526822e-01 -2.227555e-01
45 1 1 3.345176e+00 1.400716e+01 1.895268e+01 -1 -1 1 -2.694824e-01 8.389600e-01 3.862721e-01 -2.726153e-01
46 1 3 3.046677e+00 1.436865e+01 1.875338e+01 -1 -1 1 -2.645461e-01 9.152336e-01 8.013907e-02 -2.931561e-01
47 1 4 2.967114e+00 1.483197e+01 1.858700e+01 -1 -1 1 -2.106992e-02 8.547566e-01 -3.097411e-01 -4.159419e-01
48 1 1 2.734918e+00 1.508838e+01 1.820324e+01 -1 -1 1 -1.849153e-02 -8.648645e-01 4.157106e-01 2.808064e-01
49 1 4 2.718580e+00 1.531672e+01 1.772816e+01 -1 -1 1 -2.082674e-01 -6.400894e-01 6.582129e-01 3.371440e-01
50 1 4 2.678357e+00 1.531912e+01 1.726946e+01 -1 -1 1 -2.889655e-01 -4.728727e-01 8.143758e-01 1.722860e-01
51 1 4 2.548420e+00 1.516489e+01 1.683807e+01 -1 -1 1 -3.527963e-01 -1.977091e-01 9.134693e-01 4.494162e-02
52 1 1 2.307930e+00 1.485038e+01 1.645268e+01 -1 -1 1 -3.829752e-01 4.975969e-02 9.213602e-01 -4.415245e-02
53 1 3 1.901646e+00 1.455510e+01 1.629712e+01 -1 -1 1 3.701930e-01 -2.175984e-01 -8.738138e-01 2.281612e-01
54 1 4 1.425794e+00 1.432965e+01 1.626982e+01 -1 -1 1 3.698510e-01 -4.064753e-01 -7.358800e-01 3.955611e-01
55 1 4 8.347733e-01 1.422989e+01 1.632057e+01 -1 -1 1 -2.818842e-01 6.238965e-01 5.930623e-01 -4.237587e-01
56 1 4 3.720431e-01 1.432717e+01 1.640461e+01 -1 -1 1 -1.013773e-01 7.706544e-01 3.114703e-01 -5.466266e-01
57 1 1 -1.656329e-01 1.443238e+01 1.627888e+01 -1 -1 1 5.650572e-02 9.019705e-01 4.636764e-02 -4.255659e-01
58 1 1 -7.371823e-01 1.448476e+01 1.580752e+01 -1 -1 1 8.199520e-02 -9.265277e-01 -8.232697e-02 3.578344e-01
59 1 3 -9.158402e-01 1.290722e+01 1.641421e+01 -1 -1 1 4.149524e-01 3.892789e-01 -8.209895e-01 4.746287e-02
60 1 4 -1.516498e+00 1.387944e+01 1.610091e+01 -1 -1 1 -3.713951e-01 -7.414413e-01 4.532554e-02 -5.570244e-01
61 1 2 -2.207111e+00 1.415067e+01 1.696834e+01 -1 -1 1 -3.092603e-01 8.055000e-01 8.945213e-02 4.975201e-01
62 1 3 -1.877042e+00 1.431031e+01 1.689651e+01 -1 -1 1 -2.122231e-01 6.377533e-01 -1.997841e-01 -7.129645e-01
63 1 2 -2.243632e+00 1.464169e+01 1.663337e+01 -1 -1 1 -6.138369e-02 6.186124e-01 -4.171417e-01 -6.629807e-01
64 1 4 -2.473673e+00 1.481633e+01 1.701416e+01 -1 -1 1 -8.187091e-01 -4.468488e-01 3.374901e-01 -1.270511e-01
65 1 2 -3.047200e+00 1.527711e+01 1.678925e+01 -1 -1 1 -6.955416e-01 -5.474141e-01 3.481406e-01 3.088005e-01
66 1 1 -3.233601e+00 1.672619e+01 1.645691e+01 -1 -1 1 -1.197803e-01 6.679074e-01 2.083946e-01 -7.043608e-01
67 1 2 -3.752248e+00 1.669733e+01 1.650548e+01 -1 -1 1 2.165696e-02 -7.526168e-01 -6.283908e-02 6.550955e-01
68 1 1 -4.166992e+00 1.623625e+01 1.696298e+01 -1 -1 1 1.093952e-01 9.136659e-01 8.298476e-02 3.825713e-01
69 1 1 -5.160885e+00 1.659383e+01 1.732764e+01 -1 -1 1 -1.321931e-01 -1.715754e-02 4.157907e-01 -8.996381e-01
70 1 2 -4.453621e+00 1.671934e+01 1.750600e+01 -1 -1 1 -5.124482e-01 2.389346e-01 -3.151088e-01 -7.622425e-01
71 1 3 -4.074710e+00 1.686789e+01 1.795962e+01 -1 -1 1 3.607222e-01 -7.353738e-01 2.884153e-01 -4.959047e-01
72 1 4 -3.618675e+00 1.707862e+01 1.822010e+01 -1 -1 1 6.053772e-01 -5.243973e-01 5.454453e-01 -2.470129e-01
73 1 1 -4.805864e+00 1.807272e+01 1.813345e+01 -1 -1 1 2.495199e-01 4.097382e-01 8.149174e-01 -3.252139e-01
74 1 1 -4.683944e+00 1.818752e+01 1.849399e+01 -1 -1 1 4.853042e-01 -2.104770e-01 3.864405e-01 7.555415e-01
75 1 3 -5.275952e+00 1.814117e+01 1.865878e+01 -1 -1 1 -2.586262e-01 1.250482e-01 -9.385733e-01 -1.911952e-01
76 1 1 -4.280693e+00 1.837359e+01 1.979005e+01 -1 -1 1 7.474214e-01 -5.102843e-01 -4.230723e-01 4.450984e-02
77 1 4 -4.562486e+00 1.861531e+01 -1.984762e+01 -1 -1 2 6.807309e-01 -5.829436e-01 -1.558086e-01 4.153382e-01
78 1 1 -4.771994e+00 1.906428e+01 -1.960337e+01 -1 -1 2 -7.187127e-01 5.631481e-01 -9.811273e-02 -3.958410e-01
79 1 4 -4.526649e+00 1.945452e+01 -1.936678e+01 -1 -1 2 -4.365518e-01 3.980802e-01 -2.911397e-01 -7.524575e-01
80 1 2 -4.398772e+00 1.962942e+01 -1.805559e+01 -1 -1 2 -5.321064e-02 -5.372753e-01 2.853782e-01 -7.918732e-01
81 1 4 -4.066235e+00 1.957709e+01 -1.769051e+01 -1 -1 2 -3.745928e-01 2.609993e-01 -5.466602e-01 7.019417e-01
82 1 4 -3.748350e+00 1.918350e+01 -1.734352e+01 -1 -1 2 5.499250e-01 3.430702e-01 -5.162652e-01 5.597817e-01
83 1 4 -3.600511e+00 1.892056e+01 -1.697366e+01 -1 -1 2 -3.064807e-02 -6.226370e-02 6.452446e-01 -7.608176e-01
84 1 4 -3.273452e+00 1.903914e+01 -1.695882e+01 -1 -1 2 -4.630595e-01 -2.650379e-01 -4.984637e-01 6.832750e-01
85 1 1 -2.151936e+00 1.874859e+01 -1.623367e+01 -1 -1 2 9.819947e-01 8.569378e-02 7.929926e-02 1.485078e-01
86 1 1 -2.816890e+00 1.897688e+01 -1.508954e+01 -1 -1 2 -2.091966e-01 -6.022091e-01 3.276794e-01 -6.972856e-01
87 1 3 -3.066504e+00 1.837883e+01 -1.492443e+01 -1 -1 2 7.034766e-01 1.636313e-01 4.412359e-01 -5.325940e-01
88 1 2 -2.417637e+00 1.868343e+01 -1.399277e+01 -1 -1 2 -2.605359e-01 3.993144e-01 -5.116647e-02 8.775255e-01
89 1 2 -1.871998e+00 1.896773e+01 -1.436581e+01 -1 -1 2 -3.371911e-01 3.759622e-01 5.428353e-01 6.710323e-01
90 1 3 -1.082986e+00 1.889966e+01 -1.369570e+01 -1 -1 2 -1.695542e-01 -3.294969e-02 9.104084e-01 -3.759285e-01
91 1 3 -3.357636e-01 1.925269e+01 -1.398762e+01 -1 -1 2 -7.385283e-02 -3.405004e-01 4.234175e-01 -8.362553e-01
92 1 2 4.320991e-01 1.846622e+01 -1.374752e+01 -1 -1 2 -4.496359e-01 -6.308472e-01 5.995784e-01 -2.009109e-01
93 1 1 4.107396e-01 1.933914e+01 -1.297584e+01 -1 -1 2 2.210773e-01 5.804832e-01 -1.352198e-03 7.836851e-01
94 1 2 6.461858e-01 1.966907e+01 -1.375600e+01 -1 -1 2 6.493430e-01 -3.986618e-01 2.436504e-01 6.000474e-01
95 1 3 7.659599e-01 1.939672e+01 -1.442983e+01 -1 -1 2 -9.754836e-01 -1.758663e-01 -1.238165e-01 4.660822e-02
96 1 2 1.682291e+00 1.968689e+01 -1.432359e+01 -1 -1 2 -9.142046e-01 3.870555e-02 -2.500377e-01 -3.165643e-01
97 1 2 2.116280e+00 1.962483e+01 -1.401903e+01 -1 -1 2 6.732422e-01 9.286678e-02 1.775090e-01 7.117663e-01
98 1 4 1.234720e+00 1.870632e+01 -1.474626e+01 -1 -1 2 2.851631e-01 6.812076e-02 -8.290810e-01 -4.760949e-01
99 1 2 2.252010e+00 1.845336e+01 -1.462995e+01 -1 -1 2 -8.447640e-01 3.121339e-02 4.578830e-01 -2.752140e-01
100 1 1 1.918870e+00 1.783913e+01 -1.481168e+01 -1 -1 2 5.769654e-01 6.375361e-01 -4.533661e-01 2.347717e-01
101 2 4 3.980366e+00 -1.799548e+01 4.065837e+00 -1 0 1 -3.021271e-01 1.502701e-01 -9.207754e-01 -1.957316e-01
102 2 3 4.082334e+00 -1.821896e+01 3.849130e+00 -1 0 1 -5.061784e-01 -7.405676e-01 -2.810254e-01 3.411273e-01
103 2 1 3.938121e+00 -1.864874e+01 3.491257e+00 -1 0 1 -4.713770e-01 -8.672891e-01 -1.342541e-01 8.711576e-02
104 2 3 3.983645e+00 -1.894515e+01 3.060463e+00 -1 0 1 5.068231e-01 8.372451e-01 -9.997978e-02 1.793184e-01
105 2 3 4.070532e+00 -1.944552e+01 2.773298e+00 -1 0 1 -3.447003e-01 -8.384015e-01 2.168586e-01 -3.622663e-01
106 2 2 4.434826e+00 -1.989762e+01 2.613750e+00 -1 0 1 -3.932071e-01 -6.845190e-01 2.545276e-01 -5.586033e-01
107 2 3 5.166847e+00 1.977997e+01 2.231869e+00 -1 -1 1 -9.670805e-01 5.125946e-02 -2.178116e-01 -1.211853e-01
108 2 4 5.626416e+00 1.952608e+01 2.501152e+00 -1 -1 1 8.569375e-01 1.721458e-01 2.010895e-01 4.422522e-01
109 2 3 6.025576e+00 1.955467e+01 2.644656e+00 -1 -1 1 -4.465159e-01 -3.715721e-01 2.604297e-02 -8.135597e-01
110 2 2 6.750988e+00 1.872611e+01 3.190952e+00 -1 -1 1 2.484483e-01 -7.326134e-01 6.336192e-01 -8.819587e-03
111 2 2 7.001598e+00 1.915995e+01 3.636597e+00 -1 -1 1 -4.511342e-01 -6.160309e-01 6.455272e-01 -1.668917e-02
112 2 3 6.553556e+00 1.917396e+01 4.250387e+00 -1 -1 1 -1.995756e-01 -8.344505e-02 2.638725e-01 -9.399882e-01
113 2 3 6.616989e+00 1.925818e+01 4.792691e+00 -1 -1 1 -3.370355e-02 -4.959845e-02 -2.119092e-01 9.754479e-01
114 2 2 6.387284e+00 1.925117e+01 5.275244e+00 -1 -1 1 3.037204e-01 2.199909e-01 1.986862e-01 -9.054732e-01
115 2 4 6.998739e+00 1.840277e+01 5.923164e+00 -1 -1 1 3.673545e-01 -8.434831e-02 8.824162e-01 -2.815628e-01
116 2 4 7.102589e+00 1.798531e+01 5.859493e+00 -1 -1 1 -5.690604e-01 -3.558490e-01 -7.374689e-01 7.537510e-02
117 2 1 7.468442e+00 1.778547e+01 6.061290e+00 -1 -1 1 3.138934e-01 -1.480337e-01 3.923080e-02 9.370261e-01
118 2 1 6.850831e+00 1.739247e+01 5.850666e+00 -1 -1 1 7.083507e-01 4.484362e-02 6.567453e-01 2.547823e-01
119 2 1 6.470370e+00 1.676068e+01 6.275879e+00 -1 -1 1 -3.360194e-01 6.808419e-01 -6.467553e-01 7.247632e-02
120 2 1 5.352468e+00 1.719040e+01 7.159975e+00 -1 -1 1 1.792510e-02 5.406873e-02 6.397435e-01 -7.664748e-01
121 2 3 4.830021e+00 1.669836e+01 7.012559e+00 -1 -1 1 4.506391e-01 -3.477280e-01 5.231940e-01 -6.342536e-01
122 2 1 5.125280e+00 1.639292e+01 7.281692e+00 -1 -1 1 -6.455047e-01 6.377342e-02 -7.298169e-01 2.159257e-01
123 2 4 4.870180e+00 1.583890e+01 7.475920e+00 -1 -1 1 -3.103886e-03 4.362958e-01 -8.859221e-01 -1.574114e-01
124 2 1 3.950017e+00 1.580368e+01 8.285114e+00 -1 -1 1 -4.589446e-01 4.386014e-02 -4.301971e-01 7.761292e-01
125 2 4 3.847002e+00 1.547820e+01 8.694960e+00 -1 -1 1 7.320122e-01 1.293107e-01 4.437613e-01 -5.005125e-01
126 2 2 3.973977e+00 1.496909e+01 8.803773e+00 -1 -1 1 -8.003159e-01 -3.050691e-01 -5.022412e-01 1.190847e-01
127 2 4 4.244202e+00 1.456188e+01 8.825864e+00 -1 -1 1 7.543099e-01 4.970584e-01 3.936657e-01 1.702258e-01
128 2 4 3.910147e+00 1.420078e+01 9.335589e+00 -1 -1 1 1.881854e-01 -8.648470e-01 -4.413975e-01 1.476283e-01
129 2 1 4.594568e+00 1.350862e+01 1.016088e+01 -1 -1 1 7.578282e-01 -5.797868e-01 -7.712132e-02 2.891297e-01
130 2 2 3.622164e+00 1.347027e+01 1.058653e+01 -1 -1 1 -7.132569e-01 5.578398e-01 4.125602e-01 -9.936590e-02
131 2 3 3.322030e+00 1.303236e+01 1.060945e+01 -1 -1 1 -9.567686e-01 2.054912e-01 2.166238e-02 -2.046899e-01
132 2 4 2.599364e+00 1.364706e+01 1.125028e+01 -1 -1 1 6.369794e-01 -6.501699e-02 -6.709777e-01 3.739239e-01
133 2 4 2.072434e+00 1.480493e+01 1.116292e+01 -1 -1 1 -1.021576e-01 5.175274e-01 4.274303e-01 7.341884e-01
134 2 3 2.229249e+00 1.462799e+01 1.165422e+01 -1 -1 1 -3.195654e-01 9.244241e-02 -9.085806e-01 2.526137e-01
135 2 4 1.790505e+00 1.541498e+01 1.205997e+01 -1 -1 1 -3.484364e-01 -1.190682e-01 2.883393e-01 8.838978e-01
136 2 3 2.182333e+00 1.547310e+01 1.294082e+01 -1 -1 1 2.692878e-01 -2.933614e-01 -5.633889e-01 -7.238896e-01
137 2 1 2.824964e+00 1.523245e+01 1.317367e+01 -1 -1 1 -6.209614e-01 -5.734917e-01 -1.803060e-01 5.029950e-01
138 2 3 2.656407e+00 1.469475e+01 1.319121e+01 -1 -1 1 7.046253e-01 6.359632e-01 1.979221e-01 -2.447058e-01
139 2 2 2.373495e+00 1.425449e+01 1.306778e+01 -1 -1 1 7.887165e-01 6.089200e-01 -8.449293e-02 -1.920906e-03
140 2 3 2.496343e+00 1.358411e+01 1.420637e+01 -1 -1 1 -9.023357e-01 1.777159e-01 3.773643e-01 1.086438e-01
141 2 1 2.240432e+00 1.343841e+01 1.454982e+01 -1 -1 1 -7.886409e-01 4.108009e-01 3.669452e-01 -2.732021e-01
142 2 2 2.062212e+00 1.346254e+01 1.491710e+01 -1 -1 1 -5.942919e-01 3.910592e-01 1.357396e-01 -6.895394e-01
143 2 4 1.271169e+00 1.351017e+01 1.470190e+01 -1 -1 1 -8.273212e-02 -4.809589e-01 6.180093e-01 6.163590e-01
144 2 4 8.746672e-01 1.447293e+01 1.475763e+01 -1 -1 1 -6.230849e-01 -7.013545e-01 -3.431288e-01 -4.614833e-02
145 2 1 5.575649e-01 1.511338e+01 1.552834e+01 -1 -1 1 -3.417647e-01 5.266376e-01 -4.275460e-02 7.771884e-01
146 2 1 8.598657e-01 1.533542e+01 1.591290e+01 -1 -1 1 -4.808102e-01 4.364315e-01 -1.310509e-01 7.491160e-01
147 2 1 1.063565e+00 1.544479e+01 1.644955e+01 -1 -1 1 -7.140253e-01 2.873884e-01 -2.780339e-01 5.746938e-01
148 2 2 1.181381e+00 1.525962e+01 1.693368e+01 -1 -1 1 -9.052258e-01 1.067644e-01 -3.379940e-01 2.343666e-01
149 2 4 1.474148e+00 1.490677e+01 1.724401e+01 -1 -1 1 9.294381e-01 1.062996e-01 3.415284e-01 -9.057348e-02
150 2 1 1.770647e+00 1.461957e+01 1.754869e+01 -1 -1 1 8.792157e-01 1.989837e-01 4.027287e-01 1.587289e-01
151 2 1 2.120170e+00 1.428132e+01 1.765589e+01 -1 -1 1 7.934053e-01 3.234630e-01 3.680269e-01 3.611591e-01
152 2 1 2.622216e+00 1.412542e+01 1.754728e+01 -1 -1 1 5.997657e-01 4.268383e-01 2.300200e-01 6.365383e-01
153 2 4 3.239597e+00 1.414914e+01 1.765235e+01 -1 -1 1 4.279677e-01 3.386665e-01 2.330604e-01 8.048798e-01
154 2 1 3.697009e+00 1.438572e+01 1.771921e+01 -1 -1 1 7.219204e-02 4.130399e-01 4.923760e-02 9.065109e-01
155 2 2 3.983832e+00 1.468507e+01 1.813626e+01 -1 -1 1 -1.245995e-01 2.871956e-01 -2.106748e-02 9.494998e-01
156 2 4 4.050170e+00 1.491484e+01 1.858499e+01 -1 -1 1 -3.920066e-01 1.632066e-01 -2.654140e-02 9.049807e-01
157 2 3 3.959570e+00 1.509745e+01 1.906203e+01 -1 -1 1 -6.893556e-01 1.085103e-01 -5.355742e-02 7.142451e-01
158 2 2 3.753901e+00 1.499338e+01 1.953617e+01 -1 -1 1 -8.735430e-01 6.653955e-02 -4.819879e-02 4.797624e-01
159 2 1 3.721831e+00 1.464110e+01 -1.992825e+01 -1 -1 2 -9.690786e-01 -1.222230e-02 -9.114352e-02 2.289764e-01
160 2 3 3.847885e+00 1.434713e+01 -1.954490e+01 -1 -1 2 9.848120e-01 1.829006e-02 1.521856e-01 8.154948e-02
161 2 1 4.206369e+00 1.412247e+01 -1.913463e+01 -1 -1 2 8.786481e-01 4.309250e-02 2.071343e-01 4.280373e-01
162 2 1 4.640679e+00 1.413546e+01 -1.879509e+01 -1 -1 2 7.322554e-01 7.409687e-02 3.291383e-01 5.915908e-01
163 2 4 5.188229e+00 1.435986e+01 -1.873013e+01 -1 -1 2 4.830251e-01 1.349138e-01 4.338955e-01 7.484782e-01
164 2 4 5.549002e+00 1.463578e+01 -1.868132e+01 -1 -1 2 1.993279e-01 2.414865e-01 3.564048e-01 8.803001e-01
165 2 3 5.769539e+00 1.505414e+01 -1.864969e+01 -1 -1 2 -8.714521e-02 4.067198e-01 2.628612e-01 8.705681e-01
166 2 3 5.942282e+00 1.549458e+01 -1.847667e+01 -1 -1 2 -3.487464e-01 4.281525e-01 1.456543e-01 8.208814e-01
167 2 4 5.932238e+00 1.587066e+01 -1.812595e+01 -1 -1 2 -6.484897e-01 3.822022e-01 7.528679e-02 6.539988e-01
168 2 2 5.950697e+00 1.611299e+01 -1.767054e+01 -1 -1 2 -8.094342e-01 3.718708e-01 -1.414275e-01 4.318874e-01
169 2 2 6.240420e+00 1.619864e+01 -1.723875e+01 -1 -1 2 -8.207778e-01 2.537296e-01 -2.621643e-01 4.395622e-01
170 2 1 6.341906e+00 1.602909e+01 -1.679269e+01 -1 -1 2 -9.444508e-01 1.786407e-01 -2.669171e-01 6.968094e-02
171 2 1 6.678562e+00 1.587946e+01 -1.637059e+01 -1 -1 2 9.129942e-01 -3.830208e-02 3.579348e-01 1.919824e-01
172 2 4 7.230133e+00 1.576437e+01 -1.620158e+01 -1 -1 2 7.584836e-01 5.857531e-02 4.504344e-01 4.673119e-01
173 2 4 7.682349e+00 1.582492e+01 -1.616486e+01 -1 -1 2 5.741434e-01 2.634584e-01 4.921684e-01 5.989318e-01
174 2 1 8.165063e+00 1.606868e+01 -1.617385e+01 -1 -1 2 3.464484e-01 2.601109e-01 3.627670e-01 8.250551e-01
175 2 1 8.558282e+00 1.639003e+01 -1.598949e+01 -1 -1 2 1.017413e-01 2.322058e-01 4.431329e-01 8.598618e-01
176 2 2 8.605969e+00 1.692683e+01 -1.599050e+01 -1 -1 2 -2.103119e-01 3.495146e-01 4.183192e-01 8.115525e-01
177 2 2 8.499600e+00 1.746753e+01 -1.590341e+01 -1 -1 2 -4.770872e-01 4.724724e-01 2.708830e-01 6.897681e-01
178 2 1 8.518324e+00 1.792896e+01 -1.561947e+01 -1 -1 2 -6.504645e-01 4.477569e-01 1.033689e-01 6.047517e-01
179 2 4 8.500541e+00 1.825456e+01 -1.521483e+01 -1 -1 2 -7.970698e-01 3.181690e-01 -4.623178e-02 5.111856e-01
180 2 1 8.575426e+00 1.821000e+01 -1.475853e+01 -1 -1 2 -9.371000e-01 2.973121e-01 -1.593903e-01 8.968771e-02
181 2 4 8.832285e+00 1.824669e+01 -1.422730e+01 -1 -1 2 9.281446e-01 -1.926620e-01 3.024329e-01 9.981601e-02
182 2 2 9.247641e+00 1.823599e+01 -1.386962e+01 -1 -1 2 8.226312e-01 -9.801090e-02 3.538414e-01 4.341290e-01
183 2 3 9.652754e+00 1.847693e+01 -1.355530e+01 -1 -1 2 6.465847e-01 -4.935147e-02 4.964486e-01 5.770887e-01
184 2 4 1.014795e+01 1.876803e+01 -1.357926e+01 -1 -1 2 3.819107e-01 9.866238e-02 5.135441e-01 7.620252e-01
185 2 3 1.048516e+01 1.915363e+01 -1.363905e+01 -1 -1 2 -1.672787e-01 -2.158749e-01 -4.135521e-01 -8.685566e-01
186 2 1 1.061193e+01 1.971490e+01 -1.355698e+01 -1 -1 2 2.091028e-01 -2.949322e-01 -2.308907e-01 -9.033164e-01
187 2 1 1.054856e+01 -1.979700e+01 -1.316064e+01 -1 0 2 -4.177248e-01 3.201205e-01 1.611138e-01 8.349079e-01
188 2 2 1.056390e+01 -1.939932e+01 -1.279656e+01 -1 0 2 5.754508e-01 -2.742425e-01 -4.675987e-02 -7.690650e-01
189 2 4 1.035317e+01 -1.925103e+01 -1.231167e+01 -1 0 2 8.233289e-01 -1.319977e-01 3.723118e-02 -5.507450e-01
190 2 4 1.034595e+01 -1.923258e+01 -1.175554e+01 -1 0 2 -9.291618e-01 2.095290e-01 -2.765328e-01 1.276145e-01
191 2 1 1.071292e+01 -1.934193e+01 -1.126997e+01 -1 0 2 -9.049985e-01 1.197619e-01 -4.081451e-01 7.231144e-03
192 2 4 1.106755e+01 -1.955127e+01 -1.108008e+01 -1 0 2 8.368214e-01 7.575798e-02 3.614094e-01 4.041954e-01
193 2 4 1.158399e+01 -1.955775e+01 -1.082655e+01 -1 0 2 -7.025478e-01 -1.650036e-01 -4.687961e-01 -5.093433e-01
194 2 1 1.216123e+01 -1.945204e+01 -1.073340e+01 -1 0 2 5.983437e-01 2.011986e-01 5.428092e-01 5.539514e-01
195 2 3 1.262787e+01 -1.925631e+01 -1.093148e+01 -1 0 2 -3.844379e-01 -3.368058e-01 -4.262586e-01 -7.463732e-01
196 2 4 1.301729e+01 -1.885848e+01 -1.098978e+01 -1 0 2 -7.189208e-02 -4.386731e-01 -3.839045e-01 -8.093298e-01
197 2 2 1.324191e+01 -1.842263e+01 -1.106924e+01 -1 0 2 -1.339691e-01 5.460484e-01 1.379103e-01 8.153920e-01
198 2 4 1.338360e+01 -1.798446e+01 -1.084460e+01 -1 0 2 3.337353e-01 -6.096103e-01 6.085393e-02 -7.164446e-01
199 2 3 1.355852e+01 -1.769759e+01 -1.041054e+01 -1 0 2 -5.681704e-01 5.566903e-01 -1.437664e-01 5.887355e-01
200 2 4 1.372590e+01 -1.749139e+01 -9.980811e+00 -1 0 2 7.873606e-01 -3.797460e-01 2.975981e-01 -3.837860e-01
