ITEM: TIMESTEP
214000000
ITEM: NUMBER OF ATOMS
200
ITEM: BOX BOUNDS pp pp pp
-2.0000000000000000e+01 2.0000000000000000e+01
-2.0000000000000000e+01 2.0000000000000000e+01
-2.0000000000000000e+01 2.0000000000000000e+01
ITEM: ATOMS id mol type x y z ix iy iz c_quat[1] c_quat[2] c_quat[3] c_quat[4]
1 1 1 1.796917e+01 -7.892200e+00 1.664513e+01 -1 -1 1 4.987900e-02 -4.067638e-01 6.337195e-01 6.560906e-01
2 1 2 1.787358e+01 -7.582245e+00 1.629267e+01 -1 -1 1 -2.399400e-01 -7.672544e-02 7.998938e-01 5.447127e-01
3 1 1 1.912948e+01 -6.849193e+00 1.688608e+01 -1 -1 1 -2.509869e-01 9.004108e-01 -2.308800e-01 -2.701119e-01
4 1 3 1.911436e+01 -6.454398e+00 1.649562e+01 -1 -1 1 -1.824537e-01 8.602861e-01 -4.230683e-01 -2.182466e-01
5 1 1 1.920644e+01 -6.077820e+00 1.593077e+01 -1 -1 1 1.725119e-02 -7.579283e-01 6.344916e-01 1.505570e-01
6 1 2 1.943119e+01 -6.015298e+00 1.549379e+01 -1 -1 1 2.552097e-02 -4.812129e-01 8.699887e-01 1.044152e-01
7 1 4 1.959252e+01 -6.091033e+00 1.502292e+01 -1 -1 1 -2.953830e-02 2.069253e-01 -9.776074e-01 2.435489e-02
8 1 1 1.958332e+01 -6.278264e+00 1.446346e+01 -1 -1 1 -1.143209e-01 7.095250e-02 9.907478e-01 1.775648e-02
9 1 1 1.939794e+01 -6.348140e+00 1.392862e+01 -1 -1 1 2.266304e-01 -2.244638e-01 -9.440347e-01 -8.398326e-02
10 1 4 1.902127e+01 -6.432780e+00 1.362983e+01 -1 -1 1 -2.741699e-01 6.184076e-01 7.362135e-01 -1.981505e-02
11 1 1 1.862506e+01 -6.219456e+00 1.332676e+01 -1 -1 1 -4.168314e-01 6.479159e-01 6.307638e-01 -9.270224e-02
12 1 1 1.822738e+01 -5.881414e+00 1.311127e+01 -1 -1 1 4.915665e-01 -8.082862e-01 -3.056018e-01 1.079047e-01
13 1 3 1.803089e+01 -5.329851e+00 1.302569e+01 -1 -1 1 -5.340105e-01 8.363325e-01 -5.552352e-03 -1.238947e-01
14 1 4 1.806152e+01 -4.853671e+00 1.301556e+01 -1 -1 1 5.466394e-01 -7.816981e-01 2.382124e-01 1.827246e-01
15 1 4 1.841252e+01 -4.447740e+00 1.305454e+01 -1 -1 1 4.794588e-01 -5.943167e-01 5.213836e-01 3.808754e-01
16 1 2 1.873935e+01 -4.060884e+00 1.276738e+01 -1 -1 1 -2.912981e-01 4.283461e-01 -7.550374e-01 -4.019745e-01
17 1 1 1.893608e+01 -3.672365e+00 1.233889e+01 -1 -1 1 -1.913827e-01 3.217129e-01 -8.756481e-01 -3.051457e-01
18 1 2 1.908458e+01 -3.586487e+00 1.190914e+01 -1 -1 1 1.051736e-01 1.797178e-02 9.403816e-01 3.229519e-01
19 1 3 1.904162e+01 -3.501510e+00 1.138988e+01 -1 -1 1 -6.796737e-02 3.066911e-01 8.703356e-01 3.792584e-01
20 1 1 1.888276e+01 -3.190466e+00 1.093016e+01 -1 -1 1 -2.511007e-01 4.877676e-01 7.649774e-01 3.374032e-01
21 1 4 1.857158e+01 -2.717425e+00 1.064283e+01 -1 -1 1 4.001928e-01 -6.069237e-01 -5.828337e-01 -3.630348e-01
22 1 1 1.833333e+01 -2.123661e+00 1.063661e+01 -1 -1 1 5.409979e-01 -7.659353e-01 -1.892923e-01 -2.912605e-01
23 1 4 1.830962e+01 -1.604544e+00 1.082795e+01 -1 -1 1 5.842636e-01 -7.958256e-01 3.693808e-02 -1.547033e-01
24 1 3 1.840668e+01 -1.052406e+00 1.084873e+01 -1 -1 1 6.515577e-01 -7.288877e-01 1.552591e-01 -1.417390e-01
25 1 3 1.880470e+01 -7.467345e-01 1.106428e+01 -1 -1 1 6.228249e-01 -6.379872e-01 4.360332e-01 1.222151e-01
26 1 4 1.923085e+01 -2.409178e-01 1.103449e+01 -1 -1 1 4.864060e-01 -5.876539e-01 6.233818e-01 1.716603e-01
27 1 4 1.965749e+01 -2.417056e-01 1.084823e+01 -1 -1 1 4.419284e-01 -1.924332e-01 7.886081e-01 3.817931e-01
28 1 1 -1.995489e+01 -1.945164e-01 1.043343e+01 0 -1 1 3.076633e-01 6.494671e-02 8.322034e-01 4.566866e-01
29 1 1 -1.973808e+01 7.312369e-02 1.002545e+01 0 -1 1 9.101767e-02 2.453115e-01 7.854951e-01 5.608347e-01
30 1 4 -1.973433e+01 3.370736e-01 9.653940e+00 0 -1 1 7.700376e-02 -4.846904e-01 -7.145707e-01 -4.985323e-01
31 1 4 -1.979652e+01 7.437466e-01 9.372790e+00 0 -1 1 2.970687e-01 -5.613112e-01 -6.497181e-01 -4.177874e-01
32 1 3 2.005014e+01 1.145961e+00 9.105540e+00 -1 -1 1 4.238616e-01 -7.330948e-01 -4.033418e-01 -3.467402e-01
33 1 3 1.981203e+01 1.630107e+00 9.155641e+00 -1 -1 1 5.030144e-01 -8.378001e-01 -1.135734e-01 -1.793561e-01
34 1 1 1.979993e+01 2.018030e+00 9.437080e+00 -1 -1 1 6.634013e-01 -7.304745e-01 1.168153e-01 1.125165e-01
35 1 2 1.995059e+01 2.604821e+00 9.448631e+00 -1 -1 1 6.485641e-01 -6.977455e-01 2.990797e-01 5.538172e-02
36 1 2 -1.972825e+01 2.950507e+00 9.541699e+00 0 -1 1 5.939049e-01 -6.264261e-01 4.576369e-01 2.131566e-01
37 1 1 -1.932535e+01 3.307002e+00 9.638142e+00 0 -1 1 4.512466e-01 -5.240909e-01 5.952481e-01 4.091269e-01
38 1 1 -1.901798e+01 3.722795e+00 9.443818e+00 0 -1 1 4.046284e-01 -3.333327e-01 7.818520e-01 3.374502e-01
39 1 4 -1.868671e+01 3.900983e+00 9.120267e+00 0 -1 1 -3.035357e-01 8.285110e-02 -9.067069e-01 -2.808638e-01
40 1 4 -1.845252e+01 3.957906e+00 8.647162e+00 0 -1 1 -1.553143e-01 -1.717757e-01 -8.985758e-01 -3.727359e-01
41 1 2 -1.848610e+01 4.182320e+00 8.141952e+00 0 -1 1 8.101684e-02 -4.200574e-01 -8.226620e-01 -3.744532e-01
42 1 4 -1.863048e+01 4.571927e+00 7.663064e+00 0 -1 1 -2.140711e-01 5.992059e-01 6.306787e-01 4.442636e-01
43 1 3 -1.876004e+01 5.094922e+00 7.457162e+00 0 -1 1 3.159849e-01 -7.164347e-01 -4.091162e-01 -4.685070e-01
44 1 2 -1.882568e+01 5.615287e+00 7.429121e+00 0 -1 1 5.416178e-01 -7.695973e-01 -1.670402e-01 -2.940541e-01
45 1 1 -1.874081e+01 6.114869e+00 7.632849e+00 0 -1 1 6.460485e-01 -7.303843e-01 6.062782e-02 -2.132708e-01
46 1 3 -1.851254e+01 6.579489e+00 7.854095e+00 0 -1 1 7.451486e-01 -5.912621e-01 2.858133e-01 -1.160753e-01
47 1 4 -1.809876e+01 6.877014e+00 8.109994e+00 0 -1 1 7.277647e-01 -4.261828e-01 5.371394e-01 1.442245e-02
48 1 1 -1.762729e+01 6.732846e+00 8.237109e+00 0 -1 1 -7.418516e-01 4.907293e-02 -6.514655e-01 -1.511315e-01
49 1 4 -1.708797e+01 6.560945e+00 8.177008e+00 0 -1 1 -6.241178e-01 -1.807090e-01 -6.311756e-01 -4.236020e-01
50 1 4 -1.653655e+01 6.733468e+00 8.187091e+00 0 -1 1 -5.058425e-01 -1.682411e-01 -6.809126e-01 -5.021716e-01
51 1 4 -1.612828e+01 6.955056e+00 7.949056e+00 0 -1 1 -2.376469e-01 -3.642834e-01 -6.947107e-01 -5.728861e-01
52 1 1 -1.586224e+01 7.234291e+00 7.687205e+00 0 -1 1 3.487088e-03 -5.667837e-01 -5.949970e-01 -5.698444e-01
53 1 3 -1.564629e+01 7.751399e+00 7.516596e+00 0 -1 1 1.694474e-01 -5.689122e-01 -4.699822e-01 -6.532558e-01
54 1 4 -1.553187e+01 8.216360e+00 7.565647e+00 0 -1 1 4.493219e-01 -6.112859e-01 -1.590899e-01 -6.317672e-01
55 1 4 -1.538378e+01 8.631089e+00 7.875790e+00 0 -1 1 6.779880e-01 -5.658141e-01 1.916540e-01 -4.283170e-01
56 1 4 -1.518023e+01 8.735225e+00 8.325795e+00 0 -1 1 8.099561e-01 -4.316787e-01 3.135124e-01 -2.435871e-01
57 1 1 -1.486093e+01 8.917855e+00 8.691999e+00 0 -1 1 8.199359e-01 -3.293163e-01 4.553263e-01 -1.092421e-01
58 1 1 -1.432872e+01 8.910435e+00 8.880166e+00 0 -1 1 7.461372e-01 -1.553464e-01 6.465090e-01 -3.424877e-02
59 1 3 -1.378387e+01 8.748105e+00 8.904660e+00 0 -1 1 6.618620e-01 3.186988e-02 6.992290e-01 2.683315e-01
60 1 4 -1.327968e+01 8.759795e+00 8.798796e+00 0 -1 1 5.338721e-01 2.926527e-01 6.934235e-01 3.853554e-01
61 1 2 -1.366200e+01 8.147450e+00 1.000989e+01 0 -1 1 6.878591e-01 -6.885219e-01 -1.553705e-01 -1.692555e-01
62 1 3 -1.370241e+01 8.481006e+00 1.027812e+01 0 -1 1 7.286648e-01 -6.663989e-01 8.048626e-02 1.359489e-01
63 1 2 -1.346756e+01 8.859224e+00 1.049040e+01 0 -1 1 4.520861e-01 -5.761540e-01 3.896251e-01 5.584416e-01
64 1 4 -1.336871e+01 9.399928e+00 1.041617e+01 0 -1 1 -9.824088e-02 4.735934e-01 -4.803208e-01 -7.316761e-01
65 1 2 -1.382033e+01 1.010922e+01 1.061016e+01 0 -1 1 -3.179245e-02 -3.089543e-01 3.912014e-01 8.663128e-01
66 1 1 -1.429745e+01 1.004445e+01 1.065734e+01 0 -1 1 -8.175378e-01 -1.226198e-01 -3.119501e-01 4.682771e-01
67 1 2 -1.438099e+01 1.078228e+01 1.142299e+01 0 -1 1 -5.710415e-01 2.237737e-02 -4.270772e-01 7.007252e-01
68 1 1 -1.427202e+01 1.080824e+01 1.209098e+01 0 -1 1 -4.263602e-01 -1.385901e-01 -7.558956e-01 4.771076e-01
69 1 1 -1.430112e+01 1.114777e+01 1.214116e+01 0 -1 1 3.259375e-01 -8.753572e-01 1.757649e-01 3.108395e-01
70 1 2 -1.566506e+01 1.149572e+01 1.281485e+01 0 -1 1 2.456146e-01 -5.743734e-01 -7.723418e-01 1.151385e-01
71 1 3 -1.607245e+01 1.153562e+01 1.253077e+01 0 -1 1 1.224864e-01 -8.608719e-01 -4.787529e-01 1.212118e-01
72 1 4 -1.625352e+01 1.185950e+01 1.218171e+01 0 -1 1 8.493203e-02 -9.817153e-01 3.406871e-02 1.669163e-01
73 1 1 -1.664114e+01 1.163433e+01 1.281128e+01 0 -1 1 -4.981074e-01 5.220923e-01 -9.957839e-02 -6.851224e-01
74 1 1 -1.701498e+01 1.185948e+01 1.289010e+01 0 -1 1 -6.319948e-01 -8.622564e-02 -6.052433e-01 -4.762649e-01
75 1 3 -1.732462e+01 1.162027e+01 1.412584e+01 0 -1 1 5.049976e-02 1.016503e-01 3.541714e-01 -9.282670e-01
76 1 1 -1.747929e+01 1.164841e+01 1.451812e+01 0 -1 1 4.102798e-01 1.750532e-01 1.411268e-01 -8.838043e-01
77 1 4 -1.788396e+01 1.152419e+01 1.483624e+01 0 -1 1 7.235126e-01 2.977178e-01 1.859216e-02 -6.225335e-01
78 1 1 -1.812129e+01 1.121405e+01 1.517173e+01 0 -1 1 -7.727827e-01 -3.895290e-01 -5.107970e-02 4.984626e-01
79 1 4 -1.787544e+01 1.094317e+01 1.651523e+01 0 -1 1 7.359095e-01 -2.025619e-01 -5.682663e-01 -3.073749e-01
80 1 2 -1.740881e+01 1.010733e+01 1.660473e+01 0 -1 1 7.980313e-01 2.441210e-01 -5.139548e-01 -1.984977e-01
81 1 4 -1.776266e+01 9.761620e+00 1.676082e+01 0 -1 1 8.340486e-01 -8.616918e-02 -5.331512e-01 1.126396e-01
82 1 4 -1.796449e+01 9.483933e+00 1.712339e+01 0 -1 1 -6.764855e-01 1.427713e-01 4.967839e-01 -5.245851e-01
83 1 4 -1.833150e+01 9.134048e+00 1.678306e+01 0 -1 1 -3.338251e-01 -8.430054e-01 3.984569e-01 1.383286e-01
84 1 4 -1.917141e+01 8.196265e+00 1.674677e+01 0 -1 1 -5.443458e-02 -1.321137e-02 9.924003e-01 -1.095626e-01
85 1 1 -1.864279e+01 8.215131e+00 1.669580e+01 0 -1 1 4.754008e-02 1.961465e-01 8.850510e-01 4.194655e-01
86 1 1 -1.798335e+01 7.989197e+00 1.690727e+01 0 -1 1 4.104902e-01 7.491206e-01 3.324555e-01 3.997368e-01
87 1 3 -1.847468e+01 7.062904e+00 1.674945e+01 0 -1 1 -9.716077e-01 -2.356481e-01 -1.761035e-02 -1.176413e-02
88 1 2 -1.831416e+01 6.649825e+00 1.687575e+01 0 -1 1 -8.146604e-01 -4.147534e-01 1.622976e-01 -3.714399e-01
89 1 2 -1.794467e+01 6.336635e+00 1.707898e+01 0 -1 1 -7.079328e-01 -2.968280e-01 1.844835e-01 -6.137508e-01
90 1 3 -1.797107e+01 5.234431e+00 1.634647e+01 0 -1 1 -5.848039e-01 1.630107e-01 -7.898968e-01 8.657327e-02
91 1 3 -1.749662e+01 5.031935e+00 1.613696e+01 0 -1 1 -4.959730e-01 -7.914388e-03 -8.668483e-01 -5.022139e-02
92 1 2 -1.717610e+01 4.935854e+00 1.581265e+01 0 -1 1 3.298561e-01 3.380719e-01 8.721210e-01 1.276998e-01
93 1 1 -1.707836e+01 5.208360e+00 1.562508e+01 0 -1 1 -3.308709e-01 5.849630e-01 3.346686e-01 -6.605601e-01
94 1 2 -1.681819e+01 5.281022e+00 1.499011e+01 0 -1 1 -1.735242e-02 -6.932638e-01 -4.209389e-01 -5.847176e-01
95 1 3 -1.662203e+01 5.686400e+00 1.481102e+01 0 -1 1 -1.528509e-01 7.887822e-01 1.373879e-01 5.792959e-01
96 1 2 -1.617375e+01 6.026275e+00 1.473320e+01 0 -1 1 -3.036424e-01 7.219933e-01 -1.191201e-01 6.101946e-01
97 1 2 -1.625457e+01 6.052339e+00 1.309857e+01 0 -1 1 -4.695467e-01 -7.942261e-02 -5.865301e-01 -6.551339e-01
98 1 4 -1.593824e+01 5.986914e+00 1.304856e+01 0 -1 1 3.299783e-01 5.855643e-01 5.591166e-01 -4.854044e-01
99 1 2 -1.470509e+01 5.645872e+00 1.393438e+01 0 -1 1 -7.192226e-01 6.749183e-01 1.646311e-01 -1.004022e-02
100 1 1 -1.478606e+01 5.677925e+00 1.444237e+01 0 -1 1 4.810260e-01 7.396152e-01 -2.941282e-01 3.675214e-01
101 2 4 -1.234800e+01 1.106488e+01 1.498153e+01 0 -1 1 -6.807852e-01 5.969491e-01 1.558798e-01 3.948225e-01
102 2 3 -1.222108e+01 1.141762e+01 1.540098e+01 0 -1 1 -7.132566e-01 6.583711e-01 -2.303280e-01 6.900322e-02
103 2 1 -1.178192e+01 1.162977e+01 1.546561e+01 0 -1 1 -6.468351e-01 4.544363e-01 -5.458023e-01 -2.778342e-01
104 2 3 -1.138639e+01 1.191400e+01 1.532822e+01 0 -1 1 -4.303340e-01 1.519713e-01 -6.818624e-01 -5.716476e-01
105 2 3 -1.113288e+01 1.221055e+01 1.507679e+01 0 -1 1 -1.296235e-01 -1.972491e-01 -7.329479e-01 -6.380265e-01
106 2 2 -1.106153e+01 1.266185e+01 1.493726e+01 0 -1 1 -2.486969e-01 3.840835e-01 5.484620e-01 6.998708e-01
107 2 3 -1.087572e+01 1.241084e+01 1.389238e+01 0 -1 1 -1.383283e-02 7.489747e-01 -2.545655e-01 -6.115897e-01
108 2 4 -1.103870e+01 1.268351e+01 1.357691e+01 0 -1 1 -1.880893e-01 -4.915182e-01 5.461715e-01 6.517123e-01
109 2 3 -1.134107e+01 1.289795e+01 1.318937e+01 0 -1 1 -3.679797e-01 -2.699938e-01 7.291543e-01 5.099297e-01
110 2 2 -1.094972e+01 1.424152e+01 1.271889e+01 0 -1 1 4.835427e-01 4.850999e-01 4.036419e-01 6.065788e-01
111 2 2 -1.137071e+01 1.485847e+01 1.254830e+01 0 -1 1 4.362671e-01 7.917284e-01 4.236668e-01 -5.782468e-02
112 2 3 -1.148489e+01 1.472380e+01 1.209536e+01 0 -1 1 4.626217e-01 8.836578e-01 -2.568494e-02 6.686043e-02
113 2 3 -1.160304e+01 1.447418e+01 1.139165e+01 0 -1 1 -4.150192e-01 -5.242988e-01 -4.971517e-01 -5.529104e-01
114 2 2 -1.164762e+01 1.411845e+01 1.043876e+01 0 -1 1 1.662388e-01 7.802921e-01 -3.222555e-02 -6.020551e-01
115 2 4 -1.195109e+01 1.434450e+01 1.021608e+01 0 -1 1 4.716097e-01 5.741463e-01 -4.158960e-01 -5.243766e-01
116 2 4 -1.195955e+01 1.425655e+01 9.661520e+00 0 -1 1 -3.270144e-01 -2.677651e-01 7.625218e-01 4.898202e-01
117 2 1 -1.183306e+01 1.500426e+01 9.507306e+00 0 -1 1 -4.642199e-01 -4.602250e-01 3.414281e-01 -6.753664e-01
118 2 1 -1.224494e+01 1.577402e+01 9.228040e+00 0 -1 1 -4.419709e-01 -7.702996e-01 -9.331910e-02 -4.501020e-01
119 2 1 -1.190553e+01 1.568777e+01 8.963977e+00 0 -1 1 2.837999e-01 6.981442e-01 -2.666272e-01 6.008013e-01
120 2 1 -1.194756e+01 1.558172e+01 8.518676e+00 0 -1 1 4.324327e-01 -4.243419e-02 -8.543931e-01 -2.849804e-01
121 2 3 -1.117659e+01 1.607861e+01 7.429664e+00 0 -1 1 4.156341e-02 -7.887082e-01 5.026585e-01 3.514915e-01
122 2 1 -1.077146e+01 1.583128e+01 6.790848e+00 0 -1 1 3.222101e-01 -7.012931e-01 5.946316e-01 2.253486e-01
123 2 4 -1.083155e+01 1.537193e+01 6.657042e+00 0 -1 1 -7.117320e-02 -1.898128e-01 9.523012e-01 -2.280964e-01
124 2 1 -1.084004e+01 1.500216e+01 6.321366e+00 0 -1 1 1.350423e-01 2.840533e-02 -9.520791e-01 2.729508e-01
125 2 4 -1.107268e+01 1.457767e+01 6.152547e+00 0 -1 1 -1.455875e-02 3.768403e-01 8.634995e-01 -3.348852e-01
126 2 2 -1.096751e+01 1.397574e+01 5.717659e+00 0 -1 1 -3.557387e-01 -8.165449e-01 -1.043959e-02 4.545276e-01
127 2 4 -1.125231e+01 1.378575e+01 5.320045e+00 0 -1 1 4.176636e-01 8.281955e-01 -2.920576e-01 -2.331346e-01
128 2 4 -1.137009e+01 1.367260e+01 4.875088e+00 0 -1 1 -4.321448e-01 -6.501733e-01 6.241042e-01 3.192794e-02
129 2 1 -1.136924e+01 1.330817e+01 4.597270e+00 0 -1 1 3.603863e-01 3.614441e-01 -8.449640e-01 1.597365e-01
130 2 2 -1.155737e+01 1.332217e+01 3.674855e+00 0 -1 1 -3.798307e-02 6.840214e-01 -2.507094e-01 -6.839714e-01
131 2 3 -1.155790e+01 1.210309e+01 4.558986e+00 0 -1 1 9.084171e-01 7.747599e-02 -4.043688e-01 -7.253806e-02
132 2 4 -1.176601e+01 1.176248e+01 4.837860e+00 0 -1 1 7.795215e-01 -1.339039e-01 -4.710864e-01 3.905042e-01
133 2 4 -1.198390e+01 1.152798e+01 5.299221e+00 0 -1 1 -5.468703e-01 3.500525e-01 3.358681e-01 -6.823406e-01
134 2 3 -1.220433e+01 1.160335e+01 5.777555e+00 0 -1 1 3.242367e-01 -3.641473e-01 -1.779430e-01 8.547535e-01
135 2 4 -1.263665e+01 1.148540e+01 5.328748e+00 0 -1 1 -6.508104e-01 -1.658419e-01 -4.813949e-01 -5.632062e-01
136 2 3 -1.235126e+01 1.195542e+01 6.187788e+00 0 -1 1 -7.466983e-01 -4.879684e-01 -1.810576e-02 -4.516644e-01
137 2 1 -1.315434e+01 1.120089e+01 7.146740e+00 0 -1 1 2.340417e-01 -3.587797e-01 -8.671824e-01 2.539613e-01
138 2 3 -1.354676e+01 1.096369e+01 6.994781e+00 0 -1 1 -1.276755e-02 6.874072e-01 6.385259e-01 -3.458223e-01
139 2 2 -1.261306e+01 1.071874e+01 7.286675e+00 0 -1 1 7.243267e-01 6.381559e-01 2.542324e-01 5.893803e-02
140 2 3 -1.318816e+01 1.107993e+01 8.622307e+00 0 -1 1 -3.606469e-01 -3.650509e-01 1.829683e-01 -8.385668e-01
141 2 1 -1.347741e+01 9.653609e+00 8.002093e+00 0 -1 1 -5.474872e-01 -4.644057e-01 6.759768e-01 1.662543e-01
142 2 2 -1.392189e+01 9.260704e+00 7.830392e+00 0 -1 1 -6.747055e-01 -3.640387e-01 6.403720e-01 -4.660568e-02
143 2 4 -1.408320e+01 8.801967e+00 7.693317e+00 0 -1 1 -5.980457e-01 -2.109519e-01 7.001696e-01 -3.280293e-01
144 2 4 -1.418072e+01 8.322264e+00 7.872045e+00 0 -1 1 -4.226446e-01 3.331607e-02 6.733408e-01 -6.057010e-01
145 2 1 -1.436731e+01 7.968506e+00 8.145870e+00 0 -1 1 2.715341e-01 -2.787226e-01 -6.414001e-01 6.612026e-01
146 2 1 -1.485306e+01 7.688038e+00 8.490565e+00 0 -1 1 -2.120018e-01 4.441954e-01 5.660243e-01 -6.613336e-01
147 2 1 -1.537703e+01 7.756733e+00 8.679382e+00 0 -1 1 4.934377e-02 -6.563769e-01 -2.811837e-01 6.983340e-01
148 2 2 -1.594762e+01 7.922200e+00 8.719715e+00 0 -1 1 1.695634e-01 7.187568e-01 1.029561e-01 -6.663610e-01
149 2 4 -1.642033e+01 7.963270e+00 8.485627e+00 0 -1 1 -2.794843e-01 -8.151920e-01 1.389776e-01 4.878891e-01
150 2 1 -1.678421e+01 7.914609e+00 8.170626e+00 0 -1 1 -4.140010e-01 -7.823486e-01 3.217244e-01 3.361951e-01
151 2 1 -1.715177e+01 7.631431e+00 7.797689e+00 0 -1 1 -4.516513e-01 -8.228110e-01 3.121611e-01 1.467947e-01
152 2 1 -1.712288e+01 7.324649e+00 7.330425e+00 0 -1 1 -5.011535e-01 -4.992023e-01 7.053642e-01 -4.586521e-02
153 2 4 -1.735807e+01 6.901589e+00 7.115741e+00 0 -1 1 -5.665960e-01 -2.440054e-01 7.426644e-01 -2.605377e-01
154 2 1 -1.747860e+01 6.411047e+00 7.227531e+00 0 -1 1 -4.177253e-01 -5.808375e-02 7.272296e-01 -5.415431e-01
155 2 2 -1.764074e+01 5.921124e+00 7.404905e+00 0 -1 1 -4.031722e-01 -5.877229e-03 5.907233e-01 -6.989017e-01
156 2 4 -1.768439e+01 5.607464e+00 7.846435e+00 0 -1 1 -2.973098e-01 1.323088e-01 5.135540e-01 -7.939544e-01
157 2 3 -1.798235e+01 5.439362e+00 8.206745e+00 0 -1 1 4.564674e-02 3.681036e-01 4.075291e-01 -8.344676e-01
158 2 2 -1.839693e+01 5.378319e+00 8.549329e+00 0 -1 1 2.861757e-01 4.937278e-01 2.690235e-01 -7.758625e-01
159 2 1 -1.887271e+01 5.206375e+00 8.667955e+00 0 -1 1 5.493065e-01 5.907784e-01 1.364375e-01 -5.750026e-01
160 2 3 -1.936603e+01 4.979500e+00 8.590439e+00 0 -1 1 -7.589161e-01 -5.449006e-01 6.251240e-02 3.510298e-01
161 2 1 -1.952040e+01 4.499978e+00 8.481275e+00 0 -1 1 -7.606009e-01 -5.999033e-01 1.608052e-01 1.890608e-01
162 2 1 -1.959226e+01 3.989937e+00 8.393656e+00 0 -1 1 -7.702760e-01 -5.494477e-01 3.129592e-01 -8.269567e-02
163 2 4 -1.954927e+01 3.496676e+00 8.372682e+00 0 -1 1 -6.688218e-01 -4.505293e-01 4.084885e-01 -4.275955e-01
164 2 4 -1.929982e+01 2.991570e+00 8.465293e+00 0 -1 1 -5.694827e-01 -3.646491e-01 4.802722e-01 -5.586225e-01
165 2 3 -1.913664e+01 2.615545e+00 8.603281e+00 0 -1 1 -4.197062e-01 -3.234251e-01 4.742304e-01 -7.030991e-01
166 2 3 -1.910259e+01 2.151914e+00 8.837994e+00 0 -1 1 -3.188691e-01 -1.197535e-01 4.023712e-01 -8.497523e-01
167 2 4 -1.898395e+01 1.879438e+00 9.282390e+00 0 -1 1 -8.068864e-02 7.845147e-02 4.676988e-01 -8.766941e-01
168 2 2 -1.908303e+01 1.738258e+00 9.675887e+00 0 -1 1 1.453068e-01 2.245980e-01 2.359657e-01 -9.342172e-01
169 2 2 -1.942428e+01 1.564850e+00 1.015994e+01 0 -1 1 3.488116e-01 4.155143e-01 2.399835e-01 -8.050380e-01
170 2 1 2.005166e+01 1.352656e+00 1.038026e+01 -1 -1 1 4.280831e-01 5.275474e-01 1.555232e-01 -7.171131e-01
171 2 1 1.960177e+01 1.106662e+00 1.036060e+01 -1 -1 1 -6.015310e-01 -6.372593e-01 1.153657e-02 4.815891e-01
172 2 4 1.920900e+01 7.321563e-01 1.013069e+01 -1 -1 1 -6.939689e-01 -6.554077e-01 1.630281e-01 2.495390e-01
173 2 4 1.905188e+01 3.104515e-01 9.871430e+00 -1 -1 1 -7.539311e-01 -5.715413e-01 3.238924e-01 -4.696990e-03
174 2 1 1.912844e+01 -3.057475e-01 9.818281e+00 -1 -1 1 -7.359623e-01 -4.576885e-01 4.003449e-01 -2.976654e-01
175 2 1 1.932014e+01 -7.989946e-01 9.972891e+00 -1 -1 1 -6.291150e-01 -2.797410e-01 5.032601e-01 -5.221959e-01
176 2 2 1.946416e+01 -1.245783e+00 1.020568e+01 -1 -1 1 -4.525329e-01 -1.384480e-01 5.548214e-01 -6.842656e-01
177 2 2 1.947054e+01 -1.617552e+00 1.074597e+01 -1 -1 1 -2.511257e-01 8.739017e-02 5.384714e-01 -7.995920e-01
178 2 1 1.937158e+01 -1.878476e+00 1.112997e+01 -1 -1 1 -2.175543e-02 2.133568e-01 5.209227e-01 -8.262234e-01
179 2 4 1.916597e+01 -2.077987e+00 1.154042e+01 -1 -1 1 2.340961e-01 3.865340e-01 3.541859e-01 -8.187447e-01
180 2 1 1.871620e+01 -2.239052e+00 1.173521e+01 -1 -1 1 4.826376e-01 5.005991e-01 2.176668e-01 -6.848961e-01
181 2 4 1.825229e+01 -2.523436e+00 1.172108e+01 -1 -1 1 -7.354994e-01 -5.266725e-01 -9.162453e-02 4.162471e-01
182 2 2 1.796457e+01 -3.028652e+00 1.168996e+01 -1 -1 1 -8.103297e-01 -5.514316e-01 1.530972e-02 1.976224e-01
183 2 3 1.793075e+01 -3.526108e+00 1.171800e+01 -1 -1 1 -8.498770e-01 -5.083763e-01 1.008972e-01 -9.530175e-02
184 2 4 1.799181e+01 -4.071943e+00 1.179546e+01 -1 -1 1 -7.947117e-01 -4.992346e-01 1.422144e-01 -3.146000e-01
185 2 3 1.828138e+01 -4.531568e+00 1.181737e+01 -1 -1 1 6.388844e-01 5.335162e-01 -2.012013e-01 5.164351e-01
186 2 1 1.867245e+01 -4.895628e+00 1.196053e+01 -1 -1 1 4.939327e-01 3.656553e-01 -3.176976e-01 7.220768e-01
187 2 1 1.900451e+01 -5.133036e+00 1.233216e+01 -1 -1 1 -2.436242e-01 -1.954822e-01 3.986038e-01 -8.622929e-01
188 2 2 1.921848e+01 -5.221247e+00 1.275771e+01 -1 -1 1 -3.433789e-02 1.133049e-01 -2.832831e-01 9.517004e-01
189 2 4 1.922678e+01 -5.162906e+00 1.320359e+01 -1 -1 1 -3.475161e-01 3.085496e-02 -2.266003e-01 9.093585e-01
190 2 4 1.904617e+01 -5.188063e+00 1.367895e+01 -1 -1 1 6.403250e-01 1.079713e-01 1.437979e-01 -7.467585e-01
191 2 1 1.877921e+01 -5.389499e+00 1.413487e+01 -1 -1 1 7.969195e-01 1.749994e-01 1.699997e-01 -5.526252e-01
192 2 4 1.849778e+01 -5.771061e+00 1.445559e+01 -1 -1 1 -9.033648e-01 -2.244907e-01 -1.498815e-01 3.332739e-01
193 2 4 1.839043e+01 -6.238206e+00 1.475154e+01 -1 -1 1 9.719206e-01 2.014885e-01 1.190173e-01 -2.465009e-02
194 2 1 1.849499e+01 -6.659588e+00 1.497924e+01 -1 -1 1 -9.062565e-01 -3.253948e-01 -5.520105e-02 -2.641404e-01
195 2 3 1.884793e+01 -7.028467e+00 1.524694e+01 -1 -1 1 -7.802376e-01 -3.472440e-01 -6.717505e-02 -5.158860e-01
196 2 4 1.928469e+01 -7.138002e+00 1.548763e+01 -1 -1 1 5.401548e-01 3.762410e-01 2.124750e-02 7.524786e-01
197 2 2 1.967850e+01 -7.216237e+00 1.587076e+01 -1 -1 1 -3.596321e-01 -3.167900e-01 3.866197e-02 -8.768205e-01
198 2 4 2.015236e+01 -7.144874e+00 1.626080e+01 -1 -1 1 -1.317345e-01 -2.032648e-01 1.721241e-01 -9.548312e-01
199 2 3 2.022215e+01 -7.086966e+00 1.675493e+01 -1 -1 1 -2.946767e-01 1.366104e-02 -3.056097e-01 9.053075e-01
200 2 4 -1.931631e+01 -6.274213e+00 1.608940e+01 0 -1 1 -7.087174e-01 -1.479507e-02 -1.354420e-01 -6.922111e-01
