ITEM: TIMESTEP
279000000
ITEM: NUMBER OF ATOMS
200
ITEM: BOX BOUNDS pp pp pp
-2.0000000000000000e+01 2.0000000000000000e+01
-2.0000000000000000e+01 2.0000000000000000e+01
-2.0000000000000000e+01 2.0000000000000000e+01
ITEM: ATOMS id mol type x y z ix iy iz c_quat[1] c_quat[2] c_quat[3] c_quat[4]
1 1 1 5.409414e+00 -1.795026e+01 -1.233199e+01 -1 0 2 -7.666346e-01 3.764788e-01 3.854108e-01 -3.492758e-01
2 1 2 5.728123e+00 -1.788718e+01 -1.272229e+01 -1 0 2 -2.388861e-01 3.249903e-01 4.223793e-01 -8.117330e-01
3 1 1 6.556035e+00 -1.835198e+01 -1.320810e+01 -1 0 2 -5.689134e-02 -4.517808e-01 8.896270e-01 3.494521e-02
4 1 3 6.731404e+00 -1.669340e+01 -1.354284e+01 -1 0 2 -1.456579e-01 -9.665188e-01 -1.968002e-01 7.677867e-02
5 1 1 6.682481e+00 -1.655846e+01 -1.405776e+01 -1 0 2 -4.345213e-03 -9.985149e-01 5.030916e-02 2.044906e-02
6 1 2 6.795247e+00 -1.635642e+01 -1.450942e+01 -1 0 2 4.048164e-02 9.296701e-01 -3.556190e-01 8.723507e-02
7 1 4 7.105595e+00 -1.620116e+01 -1.489336e+01 -1 0 2 -9.269131e-02 7.926088e-01 -5.805479e-01 1.616903e-01
8 1 1 7.591894e+00 -1.626776e+01 -1.512776e+01 -1 0 2 -1.515647e-01 5.293778e-01 -8.235913e-01 1.359580e-01
9 1 1 7.922677e+00 -1.656923e+01 -1.545461e+01 -1 0 2 1.334418e-01 -2.082384e-01 9.563426e-01 -1.556882e-01
10 1 4 7.995966e+00 -1.695999e+01 -1.588861e+01 -1 0 2 -3.969189e-02 -9.686186e-02 -9.830407e-01 1.505765e-01
11 1 1 7.788270e+00 -1.729888e+01 -1.633098e+01 -1 0 2 -3.958353e-02 -4.544345e-01 -8.897155e-01 -1.813272e-02
12 1 1 7.625030e+00 -1.736979e+01 -1.679724e+01 -1 0 2 -5.674008e-02 6.316129e-01 7.725545e-01 -3.170579e-02
13 1 3 7.304656e+00 -1.733969e+01 -1.719628e+01 -1 0 2 1.763725e-01 -7.499976e-01 -6.347700e-01 5.885035e-02
14 1 4 7.010771e+00 -1.711999e+01 -1.763306e+01 -1 0 2 -9.681263e-02 9.369380e-01 3.332658e-01 -4.133192e-02
15 1 4 6.906873e+00 -1.678386e+01 -1.800983e+01 -1 0 2 -2.906421e-02 9.981369e-01 -4.734144e-03 -5.343810e-02
16 1 2 6.977017e+00 -1.641896e+01 -1.842829e+01 -1 0 2 4.191860e-02 -9.687125e-01 2.403658e-01 4.542260e-02
17 1 1 7.226605e+00 -1.620778e+01 -1.891658e+01 -1 0 2 5.895603e-03 -8.095693e-01 5.851350e-01 -4.668844e-02
18 1 2 7.495298e+00 -1.624388e+01 -1.933288e+01 -1 0 2 -5.536225e-03 5.885849e-01 -8.032979e-01 9.082743e-02
19 1 3 7.717517e+00 -1.643058e+01 -1.979491e+01 -1 0 2 5.051456e-02 4.124948e-01 -8.973756e-01 1.483687e-01
20 1 1 7.824079e+00 -1.680208e+01 1.988311e+01 -1 0 1 5.741899e-02 1.386328e-01 -9.781795e-01 1.436975e-01
21 1 4 7.705542e+00 -1.721203e+01 1.954455e+01 -1 0 1 -9.839992e-02 7.908333e-02 9.487034e-01 -2.898708e-01
22 1 1 7.486929e+00 -1.768457e+01 1.947119e+01 -1 0 1 1.161063e-01 4.307569e-01 8.347657e-01 -3.226980e-01
23 1 4 7.228403e+00 -1.793347e+01 1.909983e+01 -1 0 1 1.667616e-02 5.792280e-01 7.726137e-01 -2.593933e-01
24 1 3 6.877102e+00 -1.805817e+01 1.874655e+01 -1 0 1 1.360017e-01 8.547418e-01 4.923443e-01 -9.228782e-02
25 1 3 6.545325e+00 -1.795217e+01 1.838075e+01 -1 0 1 1.712373e-01 9.699040e-01 1.459077e-01 -9.313933e-02
26 1 4 6.555851e+00 -1.799728e+01 1.769296e+01 -1 0 1 3.022109e-01 9.424396e-01 2.971038e-02 1.399765e-01
27 1 4 6.659260e+00 -1.796717e+01 1.720024e+01 -1 0 1 8.947539e-02 9.421887e-01 -2.297158e-01 2.269477e-01
28 1 1 7.028880e+00 -1.783503e+01 1.686597e+01 -1 0 1 6.588342e-02 7.744614e-01 -5.850905e-01 2.313826e-01
29 1 1 7.415955e+00 -1.799496e+01 1.650373e+01 -1 0 1 5.264263e-02 5.539390e-01 -7.692535e-01 3.140531e-01
30 1 4 7.817783e+00 -1.831874e+01 1.640586e+01 -1 0 1 1.621121e-01 -3.637330e-01 8.308171e-01 -3.887942e-01
31 1 4 7.997679e+00 -1.869916e+01 1.596668e+01 -1 0 1 -3.032617e-02 -2.270639e-01 8.752955e-01 -4.258875e-01
32 1 3 8.109548e+00 -1.926507e+01 1.590588e+01 -1 0 1 6.532919e-02 9.420907e-02 8.494331e-01 -5.150923e-01
33 1 3 7.966371e+00 -1.976048e+01 1.600298e+01 -1 0 1 2.599299e-01 4.059748e-01 7.391020e-01 -4.704776e-01
34 1 1 7.635624e+00 1.984360e+01 1.588690e+01 -1 -1 1 3.616081e-01 6.276145e-01 5.636662e-01 -3.970139e-01
35 1 2 7.346549e+00 1.948178e+01 1.555983e+01 -1 -1 1 4.218272e-01 7.907911e-01 3.764628e-01 -2.344931e-01
36 1 2 7.211950e+00 1.923978e+01 1.512452e+01 -1 -1 1 4.603480e-01 8.650516e-01 1.908002e-01 -5.797147e-02
37 1 1 7.247998e+00 1.907816e+01 1.460887e+01 -1 -1 1 4.091466e-01 8.906007e-01 -6.525498e-02 1.875399e-01
38 1 1 7.473472e+00 1.893309e+01 1.412158e+01 -1 -1 1 3.470091e-01 8.417368e-01 -2.973684e-01 2.874647e-01
39 1 4 7.769705e+00 1.868236e+01 1.384302e+01 -1 -1 1 -2.149996e-01 -7.347445e-01 4.370832e-01 -4.721058e-01
40 1 4 8.302729e+00 1.860846e+01 1.383738e+01 -1 -1 1 3.526748e-02 -5.884700e-01 6.240531e-01 -5.128519e-01
41 1 2 8.770921e+00 1.825589e+01 1.387789e+01 -1 -1 1 1.099851e-01 -3.212547e-01 7.996455e-01 -4.952431e-01
42 1 4 8.983579e+00 1.783345e+01 1.389519e+01 -1 -1 1 -2.192749e-01 4.508377e-02 -8.049137e-01 5.495451e-01
43 1 3 9.102530e+00 1.727912e+01 1.404989e+01 -1 -1 1 3.676093e-01 1.702990e-01 7.828902e-01 -4.721701e-01
44 1 2 9.095620e+00 1.672034e+01 1.396084e+01 -1 -1 1 4.792608e-01 4.075489e-01 7.373187e-01 -2.461182e-01
45 1 1 9.153251e+00 1.630946e+01 1.368424e+01 -1 -1 1 3.668089e-01 6.380064e-01 6.267730e-01 -2.560364e-01
46 1 3 8.851968e+00 1.606440e+01 1.336675e+01 -1 -1 1 4.303066e-01 8.183414e-01 3.222926e-01 -2.031775e-01
47 1 4 8.611885e+00 1.597207e+01 1.298596e+01 -1 -1 1 4.614894e-01 8.798248e-01 -5.101293e-02 -1.016542e-01
48 1 1 8.630820e+00 1.562585e+01 1.249277e+01 -1 -1 1 -4.371726e-01 -8.761128e-01 1.296163e-01 -1.565440e-01
49 1 4 8.995582e+00 1.547555e+01 1.207137e+01 -1 -1 1 -3.643886e-01 -7.377677e-01 4.793681e-01 -3.051656e-01
50 1 4 9.180233e+00 1.505910e+01 1.188179e+01 -1 -1 1 -3.006391e-01 -5.863345e-01 5.008467e-01 -5.612313e-01
51 1 4 9.535530e+00 1.464117e+01 1.191267e+01 -1 -1 1 -1.425518e-01 -2.835381e-01 7.774901e-01 -5.429496e-01
52 1 1 9.537807e+00 1.409380e+01 1.197598e+01 -1 -1 1 -8.630465e-02 1.889847e-02 7.930752e-01 -6.026824e-01
53 1 3 9.457632e+00 1.352889e+01 1.203575e+01 -1 -1 1 1.347003e-01 -1.738833e-01 -6.890396e-01 6.905396e-01
54 1 4 9.152613e+00 1.321083e+01 1.227299e+01 -1 -1 1 -1.501230e-01 -4.329996e-01 -6.287193e-01 6.282408e-01
55 1 4 8.799284e+00 1.284561e+01 1.230283e+01 -1 -1 1 2.545154e-01 6.287569e-01 4.637048e-01 -5.699689e-01
56 1 4 8.319398e+00 1.259813e+01 1.210425e+01 -1 -1 1 3.984744e-01 7.454476e-01 3.320106e-01 -4.186825e-01
57 1 1 7.949473e+00 1.232765e+01 1.166460e+01 -1 -1 1 4.378320e-01 8.597427e-01 4.626989e-02 -2.588528e-01
58 1 1 7.651294e+00 1.267393e+01 1.283088e+01 -1 -1 1 7.408676e-01 -7.298053e-02 -6.241244e-01 2.371872e-01
59 1 3 7.275108e+00 1.243032e+01 1.316474e+01 -1 -1 1 5.165529e-01 -3.797555e-01 -5.782560e-01 5.045581e-01
60 1 4 7.326906e+00 1.195364e+01 1.312867e+01 -1 -1 1 -7.375635e-01 -5.608913e-01 6.855153e-02 3.697320e-01
61 1 2 6.627124e+00 1.271287e+01 1.396763e+01 -1 -1 1 -3.545916e-01 -6.825096e-01 -4.743023e-01 4.283488e-01
62 1 3 5.898728e+00 1.226051e+01 1.397341e+01 -1 -1 1 -6.073928e-01 -2.283962e-01 2.920726e-01 7.025687e-01
63 1 2 5.443550e+00 1.243138e+01 1.404380e+01 -1 -1 1 -7.546831e-01 -1.674786e-01 3.092363e-01 5.538748e-01
64 1 4 5.056044e+00 1.222949e+01 1.439447e+01 -1 -1 1 9.562723e-01 1.138849e-01 -2.172532e-01 -1.592938e-01
65 1 2 4.932447e+00 1.187994e+01 1.466537e+01 -1 -1 1 9.099456e-01 -4.625491e-02 -2.918451e-01 2.910084e-01
66 1 1 4.864117e+00 1.176510e+01 1.512310e+01 -1 -1 1 -7.944603e-01 1.674631e-01 1.851000e-01 -5.536488e-01
67 1 2 3.624186e+00 1.187069e+01 1.538035e+01 -1 -1 1 2.252092e-01 5.219390e-01 8.202835e-01 6.320975e-02
68 1 1 4.753028e+00 1.191181e+01 1.618363e+01 -1 -1 1 4.130959e-01 8.521173e-01 -3.213218e-01 4.558888e-04
69 1 1 4.327229e+00 1.274112e+01 1.663704e+01 -1 -1 1 1.691307e-01 8.416386e-01 3.329489e-01 -3.901080e-01
70 1 2 4.376256e+00 1.244576e+01 1.797005e+01 -1 -1 1 -2.318214e-01 -5.704082e-01 2.517230e-01 -7.466785e-01
71 1 3 3.548497e+00 1.314675e+01 1.756402e+01 -1 -1 1 2.018666e-01 3.971905e-01 3.839362e-01 8.087537e-01
72 1 4 3.834091e+00 1.317679e+01 1.877572e+01 -1 -1 1 6.436717e-01 -1.525927e-01 -3.490147e-01 6.637702e-01
73 1 1 3.740194e+00 1.314665e+01 1.928146e+01 -1 -1 1 3.796320e-01 -2.775638e-01 -2.020854e-01 8.590689e-01
74 1 1 3.223638e+00 1.242394e+01 1.917559e+01 -1 -1 1 4.465763e-01 -7.701451e-01 -4.241742e-01 -1.658987e-01
75 1 3 3.096712e+00 1.307783e+01 1.878972e+01 -1 -1 1 6.674277e-01 -3.575047e-01 -3.708876e-01 5.377482e-01
76 1 1 2.870742e+00 1.322109e+01 1.920729e+01 -1 -1 1 -3.723071e-01 5.245968e-01 1.732926e-01 -7.457582e-01
77 1 4 3.020371e+00 1.290325e+01 -2.002152e+01 -1 -1 2 1.424833e-01 1.808590e-01 -8.862268e-01 4.019833e-01
78 1 1 2.874790e+00 1.325121e+01 1.965670e+01 -1 -1 1 9.322748e-01 5.296549e-02 -2.038397e-01 2.941220e-01
79 1 4 1.988696e+00 1.295650e+01 1.864522e+01 -1 -1 1 -5.120220e-01 -6.793689e-01 3.996787e-01 3.413917e-01
80 1 2 1.737676e+00 1.283839e+01 1.827039e+01 -1 -1 1 -5.415115e-01 -3.879630e-01 7.362718e-01 1.189695e-01
81 1 4 6.696591e-01 1.385463e+01 1.783136e+01 -1 -1 1 -1.393102e-01 -5.313514e-01 -8.353112e-01 2.266142e-02
82 1 4 5.062819e-01 1.378092e+01 1.732536e+01 -1 -1 1 1.478880e-01 7.448505e-01 6.506334e-01 1.736702e-03
83 1 4 6.352804e-01 1.304310e+01 1.831260e+01 -1 -1 1 3.885889e-01 -7.632286e-01 4.412568e-01 -2.679053e-01
84 1 4 -4.639790e-01 1.391657e+01 1.815553e+01 -1 -1 1 3.830823e-01 -4.437770e-01 -3.025405e-02 -8.095645e-01
85 1 1 -4.198839e-01 1.421547e+01 1.851817e+01 -1 -1 1 -6.759672e-01 3.939894e-01 -8.274480e-02 6.172471e-01
86 1 1 -4.727041e-01 1.418349e+01 1.898864e+01 -1 -1 1 -9.083583e-01 6.758658e-02 -5.917537e-02 4.084306e-01
87 1 3 -4.466991e-01 1.534919e+01 1.925038e+01 -1 -1 1 8.747836e-01 -2.511812e-01 -4.798447e-02 4.115326e-01
88 1 2 -1.304022e+00 1.591132e+01 1.906985e+01 -1 -1 1 3.160595e-01 3.540505e-04 4.265556e-01 -8.474412e-01
89 1 2 -1.479092e+00 1.563605e+01 1.947437e+01 -1 -1 1 5.602621e-01 1.596246e-01 4.915509e-01 -6.473053e-01
90 1 3 -8.659458e-01 1.674250e+01 -1.969385e+01 -1 -1 2 3.283976e-01 -8.642789e-01 -3.776362e-01 5.067510e-02
91 1 3 -2.720111e-01 1.617459e+01 -1.998258e+01 -1 -1 2 7.912221e-01 -1.583156e-01 4.207544e-01 -4.145714e-01
92 1 2 3.099831e-01 1.736725e+01 1.946441e+01 -1 -1 1 -6.194254e-02 7.934477e-01 2.249725e-01 -5.621310e-01
93 1 1 6.237740e-01 1.757962e+01 1.899750e+01 -1 -1 1 -7.966371e-01 -1.287220e-01 -4.354319e-01 -3.989976e-01
94 1 2 2.692739e-01 1.798254e+01 1.867278e+01 -1 -1 1 -7.980453e-01 -3.062919e-01 -2.689957e-01 4.437908e-01
95 1 3 2.268596e-01 1.842798e+01 -1.982046e+01 -1 -1 2 5.798750e-01 -5.725642e-01 -1.417776e-01 -5.619736e-01
96 1 2 3.287530e-01 1.886300e+01 -1.946326e+01 -1 -1 2 -6.735656e-01 5.825636e-01 -1.580327e-01 4.265615e-01
97 1 2 5.946163e-01 1.901697e+01 -1.910092e+01 -1 -1 2 7.954558e-01 -4.999069e-01 3.425060e-01 -5.726846e-03
98 1 4 1.075082e+00 1.935141e+01 -1.903661e+01 -1 -1 2 5.542299e-01 -5.003075e-01 6.628619e-01 5.599781e-02
99 1 2 1.603158e+00 1.945300e+01 -1.916474e+01 -1 -1 2 -3.998787e-01 2.322644e-01 -8.802581e-01 -1.062826e-01
100 1 1 2.020152e+00 1.930681e+01 -1.940558e+01 -1 -1 2 4.120562e-01 7.628530e-02 8.946594e-01 1.548380e-01
101 2 4 2.704383e+00 9.246679e+00 2.754068e+00 -1 -1 1 3.545222e-01 8.790927e-01 -2.247560e-01 2.258201e-01
102 2 3 1.727209e+00 9.975883e+00 2.476230e+00 -1 -1 1 -2.778926e-01 7.220847e-01 2.518983e-02 -6.330363e-01
103 2 1 1.630952e+00 1.011797e+01 2.464420e+00 -1 -1 1 -6.060701e-01 -6.292757e-01 1.049499e-01 4.750543e-01
104 2 3 2.422048e+00 1.086101e+01 2.730138e+00 -1 -1 1 5.470611e-01 -2.615895e-02 -1.710695e-01 8.190086e-01
105 2 3 2.552033e+00 1.115410e+01 2.861857e+00 -1 -1 1 1.372267e-01 -2.135572e-01 -2.475968e-01 9.350176e-01
106 2 2 3.785372e+00 1.125920e+01 2.698625e+00 -1 -1 1 -9.538109e-01 -3.831689e-03 -4.613242e-02 -2.968195e-01
107 2 3 4.055418e+00 1.205409e+01 3.351617e+00 -1 -1 1 6.809356e-01 -6.422150e-01 -3.438860e-01 7.502707e-02
108 2 4 5.012262e+00 1.221732e+01 2.546284e+00 -1 -1 1 1.847326e-01 9.183877e-01 -3.070350e-01 -1.678317e-01
109 2 3 5.761242e+00 1.189762e+01 2.755382e+00 -1 -1 1 6.785499e-01 -6.832243e-01 1.817316e-01 1.993693e-01
110 2 2 6.077604e+00 1.221327e+01 2.943252e+00 -1 -1 1 4.856656e-01 -4.555044e-01 4.325041e-01 6.079349e-01
111 2 2 6.420223e+00 1.144116e+01 3.485926e+00 -1 -1 1 -2.914578e-02 -4.392176e-01 8.479727e-01 2.952637e-01
112 2 3 6.860351e+00 1.219970e+01 4.027571e+00 -1 -1 1 3.329425e-01 -5.988223e-01 2.199658e-01 -6.943891e-01
113 2 3 6.832048e+00 1.274348e+01 3.534020e+00 -1 -1 1 3.525202e-01 -7.145509e-01 2.403542e-01 -5.544154e-01
114 2 2 6.132796e+00 1.307645e+01 3.685145e+00 -1 -1 1 -5.768093e-01 1.684004e-01 4.429919e-01 6.653499e-01
115 2 4 6.942246e+00 1.391653e+01 3.503583e+00 -1 -1 1 -1.345222e-01 7.275442e-01 -7.862692e-02 6.681325e-01
116 2 4 7.415215e+00 1.418463e+01 3.667628e+00 -1 -1 1 2.690544e-01 -6.194834e-01 4.834003e-01 -5.569329e-01
117 2 1 7.306364e+00 1.554467e+01 3.204194e+00 -1 -1 1 -1.968272e-01 8.263615e-01 2.278844e-01 -4.758723e-01
118 2 1 6.676577e+00 1.515487e+01 3.883027e+00 -1 -1 1 -4.126452e-01 -1.320591e-01 -7.860148e-01 4.409820e-01
119 2 1 6.788893e+00 1.554171e+01 3.246441e+00 -1 -1 1 -7.240789e-01 2.415173e-01 -6.174063e-01 -1.902328e-01
120 2 1 6.244502e+00 1.605792e+01 3.732481e+00 -1 -1 1 -7.975928e-01 -1.648259e-01 5.537552e-01 1.733012e-01
121 2 3 5.850817e+00 1.590220e+01 3.842779e+00 -1 -1 1 -7.972785e-01 2.050103e-01 5.546380e-01 -1.212205e-01
122 2 1 5.467206e+00 1.576810e+01 4.167634e+00 -1 -1 1 -7.866794e-01 2.556313e-01 4.421533e-01 -3.468265e-01
123 2 4 4.837389e+00 1.454928e+01 3.460932e+00 -1 -1 1 3.671609e-01 4.611448e-02 -9.165206e-01 -1.518429e-01
124 2 1 5.005317e+00 1.485979e+01 3.911906e+00 -1 -1 1 2.550326e-01 -9.431069e-01 -1.321766e-01 1.674427e-01
125 2 4 4.995789e+00 1.366515e+01 4.519070e+00 -1 -1 1 8.495007e-01 -4.197870e-01 -3.000948e-01 -1.098655e-01
126 2 2 5.009659e+00 1.398131e+01 5.198215e+00 -1 -1 1 2.971514e-01 2.317979e-01 -5.757654e-01 7.255791e-01
127 2 4 5.236300e+00 1.381784e+01 5.554427e+00 -1 -1 1 -1.826923e-01 7.049095e-02 -5.265729e-01 8.272699e-01
128 2 4 5.350207e+00 1.356308e+01 5.933306e+00 -1 -1 1 -3.454352e-01 -1.395484e-01 -4.017927e-01 8.365186e-01
129 2 1 5.135628e+00 1.336400e+01 6.252738e+00 -1 -1 1 -6.250119e-01 -2.285437e-01 -3.786076e-01 6.432606e-01
130 2 2 5.027577e+00 1.295766e+01 6.493556e+00 -1 -1 1 8.700673e-01 3.420212e-01 2.348595e-01 -2.661681e-01
131 2 3 4.934461e+00 1.255189e+01 6.707261e+00 -1 -1 1 9.333259e-01 3.287430e-01 1.253725e-01 7.150254e-02
132 2 4 4.940589e+00 1.274858e+01 7.724112e+00 -1 -1 1 2.808614e-01 -8.035382e-01 -5.142158e-01 -1.050018e-01
133 2 4 5.965372e+00 1.204798e+01 8.196040e+00 -1 -1 1 3.555407e-01 5.683384e-01 -5.896933e-01 4.503822e-01
134 2 3 6.147401e+00 1.169190e+01 8.139030e+00 -1 -1 1 -4.500217e-02 -1.953904e-01 7.989532e-01 -5.669842e-01
135 2 4 6.997223e+00 1.078362e+01 8.023031e+00 -1 -1 1 8.888012e-01 -1.701154e-01 2.612864e-01 -3.358908e-01
136 2 3 7.077674e+00 1.049604e+01 8.424663e+00 -1 -1 1 -9.516872e-01 1.968756e-01 -1.835320e-01 -1.478091e-01
137 2 1 7.377499e+00 1.068617e+01 8.824109e+00 -1 -1 1 7.665704e-01 -1.973917e-01 3.278280e-01 5.156891e-01
138 2 3 7.813182e+00 1.091688e+01 9.059313e+00 -1 -1 1 5.784335e-01 -1.820543e-02 4.708748e-01 6.658530e-01
139 2 2 8.177296e+00 1.124816e+01 9.051753e+00 -1 -1 1 2.258472e-01 1.812300e-01 4.252017e-01 8.575268e-01
140 2 3 8.606207e+00 1.168742e+01 9.220084e+00 -1 -1 1 1.414323e-01 -2.698381e-02 5.198742e-01 8.420211e-01
141 2 1 8.676412e+00 1.224860e+01 9.299400e+00 -1 -1 1 -4.832450e-02 1.775038e-02 5.740376e-01 8.172090e-01
142 2 2 9.705521e+00 1.226405e+01 1.041394e+01 -1 -1 1 -9.346536e-01 -1.131236e-01 1.915080e-01 -2.773993e-01
143 2 4 9.930392e+00 1.241256e+01 1.040560e+01 -1 -1 1 5.116176e-01 5.924962e-01 3.491380e-01 5.150712e-01
144 2 4 9.070703e+00 1.226344e+01 1.118079e+01 -1 -1 1 9.678610e-02 -1.313525e-01 -5.734962e-01 -8.027958e-01
145 2 1 8.944948e+00 1.272755e+01 1.109959e+01 -1 -1 1 -2.977268e-01 3.269120e-01 5.158919e-01 7.337185e-01
146 2 1 8.670403e+00 1.321775e+01 1.121906e+01 -1 -1 1 -5.862379e-01 4.407596e-01 3.649332e-01 5.734804e-01
147 2 1 8.402457e+00 1.355145e+01 1.142041e+01 -1 -1 1 -7.731704e-01 5.093452e-01 2.047299e-01 3.175856e-01
148 2 2 8.322670e+00 1.403568e+01 1.174938e+01 -1 -1 1 -8.800778e-01 4.176633e-01 2.804764e-02 2.241287e-01
149 2 4 8.376191e+00 1.412438e+01 1.232713e+01 -1 -1 1 8.818310e-01 -4.488389e-01 1.137979e-01 8.926216e-02
150 2 1 8.678654e+00 1.435253e+01 1.269164e+01 -1 -1 1 8.283181e-01 -3.493420e-01 3.265111e-01 2.919585e-01
151 2 1 9.016250e+00 1.465172e+01 1.297467e+01 -1 -1 1 6.555291e-01 -3.158507e-01 4.427377e-01 5.239306e-01
152 2 1 9.416659e+00 1.495074e+01 1.307941e+01 -1 -1 1 4.909091e-01 -2.586734e-01 5.191865e-01 6.500321e-01
153 2 4 9.689360e+00 1.543618e+01 1.305206e+01 -1 -1 1 2.164320e-01 -1.187977e-01 6.634121e-01 7.063488e-01
154 2 1 9.745874e+00 1.598616e+01 1.279450e+01 -1 -1 1 -6.917672e-02 2.002831e-02 6.541401e-01 7.529371e-01
155 2 2 9.597840e+00 1.643858e+01 1.257234e+01 -1 -1 1 -3.883185e-01 2.251065e-01 5.094040e-01 7.341958e-01
156 2 4 9.318514e+00 1.690287e+01 1.264935e+01 -1 -1 1 -6.245931e-01 2.591252e-01 5.193465e-01 5.225102e-01
157 2 3 8.786620e+00 1.706685e+01 1.285617e+01 -1 -1 1 -7.447660e-01 3.202618e-01 4.761472e-01 3.406461e-01
158 2 2 8.334818e+00 1.715675e+01 1.310788e+01 -1 -1 1 -8.665477e-01 3.324857e-01 3.455825e-01 1.382785e-01
159 2 1 7.975196e+00 1.736172e+01 1.358371e+01 -1 -1 1 -8.764810e-01 4.108878e-01 2.273884e-01 -1.060505e-01
160 2 3 7.890524e+00 1.746923e+01 1.407017e+01 -1 -1 1 8.415009e-01 -3.760467e-01 -8.699007e-02 3.780183e-01
161 2 1 7.879686e+00 1.769939e+01 1.451647e+01 -1 -1 1 7.014561e-01 -4.027139e-01 1.461097e-01 5.695900e-01
162 2 1 8.042475e+00 1.808087e+01 1.487033e+01 -1 -1 1 4.873721e-01 -4.095608e-01 3.170575e-01 7.029957e-01
163 2 4 8.219373e+00 1.852536e+01 1.494501e+01 -1 -1 1 2.998266e-01 -1.954016e-01 5.333636e-01 7.664499e-01
164 2 4 8.377538e+00 1.903080e+01 1.500576e+01 -1 -1 1 8.316620e-02 -1.000241e-01 5.958630e-01 7.924808e-01
165 2 3 8.322227e+00 1.950006e+01 1.485056e+01 -1 -1 1 -2.134571e-01 5.477406e-02 5.737080e-01 7.888567e-01
166 2 3 8.014935e+00 -2.004493e+01 1.472229e+01 -1 0 1 -4.437084e-01 2.087516e-01 5.165478e-01 7.019430e-01
167 2 4 7.694244e+00 -1.961955e+01 1.484706e+01 -1 0 1 -6.404037e-01 2.744920e-01 4.208190e-01 5.809033e-01
168 2 2 7.262322e+00 -1.935553e+01 1.518209e+01 -1 0 1 -7.835366e-01 4.080672e-01 2.918225e-01 3.665940e-01
169 2 2 6.976888e+00 -1.917316e+01 1.561973e+01 -1 0 1 -9.115447e-01 3.855923e-01 1.201271e-01 7.729353e-02
170 2 1 6.976545e+00 -1.912544e+01 1.616149e+01 -1 0 1 -9.393752e-01 3.166513e-01 5.131022e-02 -1.211341e-01
171 2 1 6.927025e+00 -1.910745e+01 1.664410e+01 -1 0 1 8.723135e-01 -2.811268e-01 5.865472e-02 3.957228e-01
172 2 4 7.037316e+00 -1.897938e+01 1.712424e+01 -1 0 1 8.089557e-01 -1.977520e-01 1.841016e-01 5.221029e-01
173 2 4 7.436896e+00 -1.885454e+01 1.742802e+01 -1 0 1 5.936672e-01 -1.195196e-01 1.900710e-01 7.727531e-01
174 2 1 7.632413e+00 -1.841369e+01 1.768766e+01 -1 0 1 2.665242e-01 -1.326322e-01 2.381565e-01 9.244756e-01
175 2 1 7.692291e+00 -1.800569e+01 1.803286e+01 -1 0 1 1.246349e-01 -1.226796e-01 3.226394e-01 9.302256e-01
176 2 2 7.568451e+00 -1.750094e+01 1.808370e+01 -1 0 1 -3.011360e-01 4.731699e-02 3.249497e-01 8.952575e-01
177 2 2 7.392257e+00 -1.711631e+01 1.830176e+01 -1 0 1 -5.263119e-01 5.924800e-02 3.024432e-01 7.924731e-01
178 2 1 6.999595e+00 -1.693187e+01 1.856394e+01 -1 0 1 -7.432552e-01 1.978208e-01 1.881800e-01 6.107592e-01
179 2 4 6.738442e+00 -1.676182e+01 1.911773e+01 -1 0 1 -8.995650e-01 1.619176e-01 -3.118942e-02 4.044660e-01
180 2 1 6.613966e+00 -1.685102e+01 1.961102e+01 -1 0 1 -9.876820e-01 4.893885e-02 -6.349342e-03 1.484887e-01
181 2 4 6.647514e+00 -1.708398e+01 -1.999290e+01 -1 0 2 9.847123e-01 4.925143e-02 2.719311e-02 1.648530e-01
182 2 2 6.830266e+00 -1.721168e+01 -1.954016e+01 -1 0 2 9.292579e-01 1.163776e-01 1.192582e-01 3.297172e-01
183 2 3 7.194584e+00 -1.736401e+01 -1.923388e+01 -1 0 2 7.729585e-01 2.219128e-01 1.992743e-01 5.599818e-01
184 2 4 7.667713e+00 -1.728580e+01 -1.890089e+01 -1 0 2 6.043796e-01 6.793323e-02 9.223737e-02 7.884178e-01
185 2 3 7.996731e+00 -1.707679e+01 -1.852827e+01 -1 0 2 -3.355482e-01 -5.203123e-02 -5.756122e-02 -9.388221e-01
186 2 1 8.123865e+00 -1.674364e+01 -1.811613e+01 -1 0 2 3.217237e-03 -2.705791e-02 -6.192427e-02 -9.977088e-01
187 2 1 8.015431e+00 -1.649264e+01 -1.764825e+01 -1 0 2 -2.528417e-01 -2.991146e-02 5.681148e-02 9.653750e-01
188 2 2 7.750525e+00 -1.627167e+01 -1.719511e+01 -1 0 2 5.954901e-01 5.475010e-02 -8.866215e-02 -7.965758e-01
189 2 4 7.408799e+00 -1.619876e+01 -1.680910e+01 -1 0 2 7.841617e-01 7.396328e-02 -9.341200e-02 -6.090107e-01
190 2 4 7.022739e+00 -1.641973e+01 -1.644571e+01 -1 0 2 -9.144098e-01 -9.665655e-02 8.622109e-02 3.835077e-01
191 2 1 6.858062e+00 -1.674008e+01 -1.601444e+01 -1 0 2 -9.855410e-01 -1.566426e-01 1.860905e-02 6.185168e-02
192 2 4 6.887177e+00 -1.713675e+01 -1.570761e+01 -1 0 2 9.349994e-01 1.062625e-01 -1.111214e-01 3.195878e-01
193 2 4 7.077562e+00 -1.734406e+01 -1.523392e+01 -1 0 2 -8.519631e-01 -5.992991e-02 -2.137293e-03 -5.201565e-01
194 2 1 7.442347e+00 -1.738086e+01 -1.483285e+01 -1 0 2 5.927415e-01 5.577017e-02 8.581167e-02 7.988639e-01
195 2 3 7.702699e+00 -1.714643e+01 -1.437509e+01 -1 0 2 -3.966115e-01 -1.006822e-02 -1.553740e-01 -9.046860e-01
196 2 4 7.835711e+00 -1.677991e+01 -1.403405e+01 -1 0 2 1.040911e-01 -5.450606e-02 2.180148e-01 9.688466e-01
197 2 2 7.846655e+00 -1.635267e+01 -1.391510e+01 -1 0 2 2.299133e-01 -1.217412e-01 -3.093082e-01 -9.146843e-01
198 2 4 8.737565e+00 -1.620487e+01 -1.461235e+01 -1 0 2 4.122692e-01 5.217044e-01 -4.801985e-01 -5.720734e-01
199 2 3 9.358862e+00 -1.521639e+01 -1.491447e+01 -1 0 2 6.397059e-01 4.616458e-01 4.688030e-01 3.973453e-01
200 2 4 1.013910e+01 -1.617428e+01 -1.464818e+01 -1 0 2 8.710700e-01 3.382752e-01 -3.101177e-01 -1.750257e-01
