ITEM: TIMESTEP
284000000
ITEM: NUMBER OF ATOMS
200
ITEM: BOX BOUNDS pp pp pp
-2.0000000000000000e+01 2.0000000000000000e+01
-2.0000000000000000e+01 2.0000000000000000e+01
-2.0000000000000000e+01 2.0000000000000000e+01
ITEM: ATOMS id mol type x y z ix iy iz c_quat[1] c_quat[2] c_quat[3] c_quat[4]
1 1 1 1.051353e+01 -1.962164e+01 -1.093504e+01 -1 0 2 2.038571e-01 -8.148167e-01 -4.724232e-01 2.670811e-01
2 1 2 1.020013e+01 -1.940587e+01 -1.125820e+01 -1 0 2 -1.613844e-01 9.607997e-01 8.871731e-02 -2.072393e-01
3 1 1 1.001719e+01 -1.897595e+01 -1.150628e+01 -1 0 2 -1.168776e-01 9.345072e-01 -2.486215e-01 -2.263257e-01
4 1 3 1.015320e+01 -1.865839e+01 -1.197893e+01 -1 0 2 2.355738e-03 7.411489e-01 -6.499096e-01 -1.682567e-01
5 1 1 1.005196e+01 -1.866436e+01 -1.264103e+01 -1 0 2 2.749566e-01 6.924701e-01 -6.629443e-01 -7.340956e-02
6 1 2 1.025948e+01 -1.870722e+01 -1.306336e+01 -1 0 2 6.656999e-02 4.265853e-01 -8.989064e-01 7.457042e-02
7 1 4 1.037169e+01 -1.899733e+01 -1.352173e+01 -1 0 2 1.069711e-01 2.401341e-01 -9.450542e-01 1.943331e-01
8 1 1 1.031365e+01 -1.932619e+01 -1.402044e+01 -1 0 2 1.813293e-01 4.264776e-02 -9.644743e-01 1.873238e-01
9 1 1 1.013632e+01 -1.975962e+01 -1.416292e+01 -1 0 2 -3.600122e-02 3.073671e-01 9.095773e-01 -2.773057e-01
10 1 4 9.807845e+00 1.986297e+01 -1.449913e+01 -1 -1 2 3.806232e-02 -5.452521e-01 -8.022516e-01 2.400912e-01
11 1 1 9.386065e+00 1.966098e+01 -1.464869e+01 -1 -1 2 -1.320064e-01 -7.795466e-01 -5.826391e-01 1.881837e-01
12 1 1 9.235480e+00 1.962132e+01 -1.520532e+01 -1 -1 2 4.097384e-02 8.974337e-01 4.340037e-01 -6.763673e-02
13 1 3 9.034789e+00 1.981865e+01 -1.565088e+01 -1 -1 2 -3.984778e-03 -9.859793e-01 -1.545187e-01 6.287142e-02
14 1 4 9.044131e+00 -1.992978e+01 -1.612261e+01 -1 0 2 -1.886837e-02 9.898750e-01 -1.396153e-01 1.729335e-02
15 1 4 9.242162e+00 -1.956609e+01 -1.637257e+01 -1 0 2 -1.767887e-01 8.957272e-01 -4.048970e-01 -4.976923e-02
16 1 2 9.580906e+00 -1.934197e+01 -1.676331e+01 -1 0 2 1.885134e-01 -7.455164e-01 6.386178e-01 -2.890207e-02
17 1 1 9.949252e+00 -1.938915e+01 -1.711276e+01 -1 0 2 1.525366e-01 -4.022512e-01 8.995639e-01 7.557342e-02
18 1 2 1.001866e+01 -1.933376e+01 -1.774367e+01 -1 0 2 5.410780e-02 4.248854e-01 -9.034263e-01 1.912065e-02
19 1 3 1.007912e+01 -1.962723e+01 -1.813207e+01 -1 0 2 2.791310e-02 1.417648e-01 -9.760023e-01 1.629208e-01
20 1 1 1.005417e+01 1.992493e+01 -1.837848e+01 -1 -1 2 1.060545e-02 -1.923620e-01 -9.593897e-01 2.060480e-01
21 1 4 9.837936e+00 1.957028e+01 -1.854088e+01 -1 -1 2 1.013748e-01 4.837729e-01 8.124671e-01 -3.091668e-01
22 1 1 9.484482e+00 1.927043e+01 -1.873040e+01 -1 -1 2 1.560083e-01 6.987775e-01 6.255452e-01 -3.099430e-01
23 1 4 9.213816e+00 1.908486e+01 -1.913033e+01 -1 -1 2 8.500163e-02 8.431910e-01 4.577755e-01 -2.687846e-01
24 1 3 8.878490e+00 1.922437e+01 -1.952336e+01 -1 -1 2 8.025231e-02 9.557714e-01 1.845933e-01 -2.144432e-01
25 1 3 8.701398e+00 1.942995e+01 2.004848e+01 -1 -1 1 1.702508e-01 9.591124e-01 -1.551029e-01 -1.645029e-01
26 1 4 8.806448e+00 1.954845e+01 1.948881e+01 -1 -1 1 1.722070e-01 8.477914e-01 -4.998244e-01 -4.207131e-02
27 1 4 8.894178e+00 1.946219e+01 1.892066e+01 -1 -1 1 2.549675e-01 7.350866e-01 -6.262558e-01 4.942517e-02
28 1 1 8.936379e+00 1.911868e+01 1.843429e+01 -1 -1 1 3.711326e-01 4.503626e-01 -7.859766e-01 2.041443e-01
29 1 1 8.767603e+00 1.862145e+01 1.804778e+01 -1 -1 1 4.649716e-01 2.057337e-01 -8.400010e-01 1.894027e-01
30 1 4 8.563154e+00 1.818075e+01 1.801902e+01 -1 -1 1 -4.008443e-01 2.410938e-02 8.017368e-01 -4.426746e-01
31 1 4 8.423529e+00 1.776855e+01 1.816020e+01 -1 -1 1 -2.423666e-01 2.061446e-01 7.081339e-01 -6.303247e-01
32 1 3 8.063918e+00 1.736827e+01 1.833182e+01 -1 -1 1 -1.398896e-01 4.308928e-01 5.633126e-01 -6.909712e-01
33 1 3 7.566821e+00 1.707967e+01 1.841951e+01 -1 -1 1 -1.133094e-01 6.224643e-01 4.214979e-01 -6.496450e-01
34 1 1 6.996579e+00 1.714253e+01 1.846262e+01 -1 -1 1 7.548147e-02 7.891051e-01 1.820526e-01 -5.817839e-01
35 1 2 6.548610e+00 1.732424e+01 1.836342e+01 -1 -1 1 2.759991e-01 7.721418e-01 -2.137529e-02 -5.719830e-01
36 1 2 6.126000e+00 1.731582e+01 1.801807e+01 -1 -1 1 4.875872e-01 7.252164e-01 -2.345444e-01 -4.258037e-01
37 1 1 5.739296e+00 1.718874e+01 1.761546e+01 -1 -1 1 4.904171e-01 7.349468e-01 -4.034073e-01 -2.379216e-01
38 1 1 5.622139e+00 1.697015e+01 1.713599e+01 -1 -1 1 4.997100e-01 5.650349e-01 -6.560261e-01 2.559686e-02
39 1 4 5.547082e+00 1.649108e+01 1.689099e+01 -1 -1 1 -5.535663e-01 -2.725367e-01 7.611684e-01 -1.997767e-01
40 1 4 5.363201e+00 1.600371e+01 1.680562e+01 -1 -1 1 -4.643846e-01 -1.573672e-01 7.566664e-01 -4.324795e-01
41 1 2 5.221842e+00 1.553080e+01 1.702231e+01 -1 -1 1 -2.537134e-01 1.637482e-01 8.136952e-01 -4.967053e-01
42 1 4 4.896298e+00 1.514715e+01 1.722636e+01 -1 -1 1 1.118801e-01 -3.835255e-01 -6.630657e-01 6.330362e-01
43 1 3 4.512758e+00 1.485998e+01 1.737485e+01 -1 -1 1 -8.448052e-02 5.183029e-01 5.371288e-01 -6.600892e-01
44 1 2 4.054973e+00 1.471185e+01 1.746537e+01 -1 -1 1 2.756867e-02 6.868229e-01 3.991615e-01 -6.067819e-01
45 1 1 3.541199e+00 1.482820e+01 1.751647e+01 -1 -1 1 2.355279e-01 7.383545e-01 1.446077e-01 -6.151812e-01
46 1 3 3.090823e+00 1.490135e+01 1.734846e+01 -1 -1 1 4.310215e-01 7.405209e-01 -1.469676e-01 -4.942164e-01
47 1 4 2.674415e+00 1.478874e+01 1.703817e+01 -1 -1 1 5.540597e-01 7.171087e-01 -2.920455e-01 -3.057487e-01
48 1 1 2.408837e+00 1.434037e+01 1.671078e+01 -1 -1 1 -6.740932e-01 -5.974304e-01 4.340995e-01 1.525967e-02
49 1 4 2.334017e+00 1.398450e+01 1.650854e+01 -1 -1 1 -5.791517e-01 -5.813393e-01 5.146076e-01 -2.486100e-01
50 1 4 2.568773e+00 1.348302e+01 1.640507e+01 -1 -1 1 -4.182082e-01 -3.966304e-01 6.468904e-01 -4.993186e-01
51 1 4 2.576772e+00 1.301850e+01 1.651034e+01 -1 -1 1 -3.817400e-01 -1.697303e-01 6.317259e-01 -6.529843e-01
52 1 1 2.648036e+00 1.257171e+01 1.683732e+01 -1 -1 1 -7.762599e-02 1.160883e-01 7.321148e-01 -6.667126e-01
53 1 3 2.420880e+00 1.215502e+01 1.696378e+01 -1 -1 1 7.558413e-02 -2.351925e-01 -5.890950e-01 7.693755e-01
54 1 4 2.032178e+00 1.198473e+01 1.723580e+01 -1 -1 1 -8.098680e-02 -4.438884e-01 -3.941337e-01 8.006640e-01
55 1 4 1.523368e+00 1.185182e+01 1.740409e+01 -1 -1 1 4.057369e-01 6.083866e-01 2.814742e-01 -6.213015e-01
56 1 4 1.096899e+00 1.153423e+01 1.730545e+01 -1 -1 1 6.213435e-01 6.720912e-01 8.731580e-02 -3.931942e-01
57 1 1 8.399704e-01 1.107246e+01 1.723421e+01 -1 -1 1 6.730536e-01 7.279470e-01 -6.394946e-02 -1.140279e-01
58 1 1 1.213461e-02 1.101387e+01 1.768350e+01 -1 -1 1 -8.779752e-01 -4.300453e-01 1.218984e-01 1.713516e-01
59 1 3 1.588707e-01 1.049399e+01 1.786072e+01 -1 -1 1 -8.721343e-01 -2.129542e-01 3.356776e-01 -2.852241e-01
60 1 4 9.638303e-02 9.972458e+00 1.834714e+01 -1 -1 1 -5.323697e-01 2.386696e-01 7.630861e-01 -2.780630e-01
61 1 2 -3.310106e-01 9.843266e+00 1.847622e+01 -1 -1 1 -3.407070e-01 5.316308e-01 6.631311e-01 -4.019261e-01
62 1 3 2.151002e-01 9.587222e+00 1.722311e+01 -1 -1 1 -4.277468e-01 -3.780107e-01 -5.883206e-01 -5.727298e-01
63 1 2 7.676915e-01 8.810117e+00 1.813426e+01 -1 -1 1 6.139963e-01 -4.865837e-01 -4.709576e-01 -4.055167e-01
64 1 4 1.949069e+00 9.559387e+00 1.787529e+01 -1 -1 1 -6.903674e-01 5.957849e-01 6.876754e-02 -4.046038e-01
65 1 2 1.921518e+00 9.996430e+00 1.834301e+01 -1 -1 1 -5.454541e-01 5.634771e-01 -1.902497e-01 -5.905746e-01
66 1 1 1.932544e+00 1.052310e+01 1.856274e+01 -1 -1 1 4.251172e-01 -4.915588e-01 3.645760e-01 6.668806e-01
67 1 2 1.153177e+00 1.019222e+01 1.936938e+01 -1 -1 1 -7.210043e-01 -3.438435e-01 5.948313e-01 9.000126e-02
68 1 1 1.279238e+00 1.065075e+01 -1.998637e+01 -1 -1 2 -3.635215e-01 -4.707204e-01 8.012459e-01 -6.541745e-02
69 1 1 1.016308e+00 1.107542e+01 -1.893965e+01 -1 -1 2 6.532437e-01 -6.946788e-01 -1.791415e-01 -2.420791e-01
70 1 2 1.031735e+00 1.156348e+01 -1.876592e+01 -1 -1 2 7.234638e-01 -6.738912e-01 6.551766e-02 -1.348266e-01
71 1 3 1.172981e+00 1.207847e+01 -1.859433e+01 -1 -1 2 7.085105e-01 -6.313741e-01 3.095702e-01 5.954872e-02
72 1 4 7.857848e-01 1.298881e+01 -1.920289e+01 -1 -1 2 -5.529734e-01 5.828423e-01 -1.366821e-01 -5.795112e-01
73 1 1 -1.687677e-01 1.357912e+01 -1.972511e+01 -1 -1 2 2.008438e-01 -2.821294e-02 3.571799e-01 9.117501e-01
74 1 1 -8.638328e-01 1.280839e+01 2.009408e+01 -1 -1 1 -2.719948e-01 -2.773463e-01 3.039677e-01 8.698859e-01
75 1 3 -1.276620e+00 1.298157e+01 2.022759e+01 -1 -1 1 -6.678226e-01 -8.228652e-02 3.425887e-01 6.556484e-01
76 1 1 -2.077108e+00 1.360009e+01 -1.954902e+01 -1 -1 2 -4.799434e-01 2.242906e-01 2.322343e-02 8.478259e-01
77 1 4 -2.229153e+00 1.378117e+01 -1.922069e+01 -1 -1 2 -8.193616e-01 1.746020e-01 8.082533e-02 5.400259e-01
78 1 1 -2.262617e+00 1.501641e+01 -1.865351e+01 -1 -1 2 6.761071e-01 -6.608360e-01 -3.148489e-01 8.393565e-02
79 1 4 -2.372068e+00 1.543549e+01 -1.841411e+01 -1 -1 2 -4.388608e-01 7.850234e-01 -1.380286e-02 -4.369770e-01
80 1 2 -2.456254e+00 1.594214e+01 -1.838843e+01 -1 -1 2 2.490403e-01 -6.572258e-01 3.903447e-01 5.946967e-01
81 1 4 -2.431956e+00 1.634654e+01 -1.856265e+01 -1 -1 2 3.651512e-02 4.063880e-01 -5.616760e-01 -7.197468e-01
82 1 4 -2.650598e+00 1.668027e+01 -1.885812e+01 -1 -1 2 1.735738e-01 3.677648e-01 -7.342283e-01 -5.436267e-01
83 1 4 -1.794074e+00 1.707030e+01 -1.858192e+01 -1 -1 2 3.201073e-01 4.346387e-01 -2.337711e-01 8.086851e-01
84 1 4 -2.261375e+00 1.764506e+01 -1.874789e+01 -1 -1 2 -5.920183e-02 -3.341578e-01 -6.393261e-01 -6.899970e-01
85 1 1 -7.704654e-01 1.679641e+01 -1.822708e+01 -1 -1 2 1.390632e-01 7.756637e-01 -6.093079e-01 8.804088e-02
86 1 1 -4.575750e-01 1.666838e+01 -1.861803e+01 -1 -1 2 -6.367796e-02 -3.666880e-01 9.201791e-01 -1.214718e-01
87 1 3 -1.996993e-01 1.625439e+01 -1.889534e+01 -1 -1 2 1.319562e-01 6.957719e-03 9.908290e-01 -2.823341e-02
88 1 2 -1.469807e-01 1.595600e+01 -1.938338e+01 -1 -1 2 4.097442e-03 2.352529e-01 9.653903e-01 -1.125207e-01
89 1 2 8.583126e-01 1.586793e+01 -2.008040e+01 -1 -1 2 -9.141787e-01 -6.267730e-02 1.250778e-01 -3.804003e-01
90 1 3 7.859229e-01 1.555230e+01 -1.959479e+01 -1 -1 2 8.123302e-01 2.364236e-01 -3.437113e-02 5.320171e-01
91 1 3 1.137898e+00 1.494002e+01 -1.977933e+01 -1 -1 2 7.103720e-01 3.427564e-02 4.569940e-01 5.341847e-01
92 1 2 1.492808e+00 1.525315e+01 -1.899294e+01 -1 -1 2 2.505229e-01 -7.709020e-01 4.025172e-01 4.253566e-01
93 1 1 1.353369e+00 1.532425e+01 -1.764567e+01 -1 -1 2 -7.350363e-01 5.541640e-01 3.125851e-01 -2.343385e-01
94 1 2 1.005590e+00 1.569354e+01 -1.742494e+01 -1 -1 2 -7.788316e-01 5.741428e-01 3.773351e-02 -2.497152e-01
95 1 3 -1.778256e-01 1.558583e+01 -1.685236e+01 -1 -1 2 5.339212e-01 -2.710724e-02 -8.143566e-01 2.258686e-01
96 1 2 -5.092582e-01 1.521236e+01 -1.671484e+01 -1 -1 2 -3.056324e-01 3.639489e-01 7.726976e-01 -4.207949e-01
97 1 2 -9.841352e-01 1.505815e+01 -1.656118e+01 -1 -1 2 -1.610261e-01 6.193734e-01 5.191356e-01 -5.665205e-01
98 1 4 -1.568926e+00 1.505296e+01 -1.665754e+01 -1 -1 2 2.353548e-02 8.003361e-01 3.480968e-01 -4.875826e-01
99 1 2 -2.038509e+00 1.512416e+01 -1.696641e+01 -1 -1 2 1.435180e-01 8.860090e-01 7.250157e-02 -4.348956e-01
100 1 1 -2.320762e+00 1.531420e+01 -1.724548e+01 -1 -1 2 -6.281444e-02 -8.422845e-01 3.580170e-01 3.980389e-01
101 2 4 4.538497e+00 -1.898278e+01 5.312484e+00 -1 0 1 -6.286308e-01 -5.152065e-01 -5.775037e-01 -7.664959e-02
102 2 3 4.580071e+00 -1.999430e+01 5.292972e+00 -1 0 1 -5.600790e-01 -1.805904e-01 -8.056207e-01 6.836615e-02
103 2 1 3.969140e+00 -2.015162e+01 5.801879e+00 -1 0 1 4.051992e-01 4.758908e-01 1.082406e-01 -7.730624e-01
104 2 3 3.545394e+00 -2.020213e+01 5.861894e+00 -1 0 1 -6.688425e-01 -4.244005e-01 1.835312e-01 5.821085e-01
105 2 3 3.188994e+00 1.950472e+01 5.835175e+00 -1 -1 1 -8.300630e-01 -2.784645e-01 4.532911e-01 1.672726e-01
106 2 2 3.025333e+00 1.924157e+01 5.933835e+00 -1 -1 1 -6.811291e-01 -7.546694e-02 6.371391e-01 -3.527346e-01
107 2 3 2.734322e+00 1.885065e+01 6.248200e+00 -1 -1 1 -5.781281e-01 1.063725e-02 4.952475e-01 -6.483708e-01
108 2 4 2.490349e+00 1.867560e+01 6.582042e+00 -1 -1 1 -6.654191e-01 -4.757126e-02 2.685140e-01 -6.948774e-01
109 2 3 1.489641e+00 1.805187e+01 5.918643e+00 -1 -1 1 2.792858e-01 6.690996e-01 6.872695e-01 -4.433732e-02
110 2 2 1.553792e+00 1.794780e+01 7.210214e+00 -1 -1 1 -5.589725e-01 7.892602e-01 2.515787e-01 3.641713e-02
111 2 2 1.487407e+00 1.847402e+01 7.327307e+00 -1 -1 1 -5.638920e-01 7.963296e-01 -1.378791e-01 -1.699244e-01
112 2 3 8.837752e-01 1.760324e+01 6.990567e+00 -1 -1 1 -2.660359e-01 -7.467460e-01 5.880759e-01 -1.605054e-01
113 2 3 -1.537773e-01 1.776090e+01 6.561659e+00 -1 -1 1 -3.908385e-02 -7.939249e-01 -5.685296e-01 -2.119664e-01
114 2 2 1.982372e-01 1.646126e+01 6.061924e+00 -1 -1 1 -8.665863e-01 -3.465234e-01 -3.587116e-01 1.660616e-02
115 2 4 5.914896e-01 1.607432e+01 6.071306e+00 -1 -1 1 -7.578876e-01 -4.529687e-01 -3.884706e-01 -2.636593e-01
116 2 4 1.106745e+00 1.591157e+01 6.099916e+00 -1 -1 1 5.827750e-01 4.969803e-01 3.644900e-01 5.296517e-01
117 2 1 2.084375e+00 1.501150e+01 6.503615e+00 -1 -1 1 -9.569225e-01 -3.911548e-02 1.999548e-01 -2.068511e-01
118 2 1 1.842216e+00 1.594337e+01 6.954740e+00 -1 -1 1 1.445823e-01 -3.473836e-01 1.239900e-01 -9.181760e-01
119 2 1 1.942902e+00 1.602642e+01 7.443155e+00 -1 -1 1 -5.222210e-01 2.310432e-01 -3.244357e-01 7.540861e-01
120 2 1 1.846690e+00 1.589880e+01 8.001190e+00 -1 -1 1 -7.586304e-01 1.792827e-01 -3.514803e-01 5.184585e-01
121 2 3 2.076732e+00 1.573301e+01 8.480186e+00 -1 -1 1 -8.845913e-01 2.119328e-02 -3.767253e-01 2.740933e-01
122 2 1 2.389963e+00 1.537539e+01 8.734730e+00 -1 -1 1 9.062596e-01 1.835484e-01 3.704869e-01 8.799444e-02
123 2 4 2.832225e+00 1.507286e+01 8.709296e+00 -1 -1 1 -7.659921e-01 -4.585143e-01 -2.132044e-01 -3.969441e-01
124 2 1 2.300694e+00 1.403132e+01 9.457713e+00 -1 -1 1 -9.826919e-01 -7.714603e-02 9.770231e-02 1.371841e-01
125 2 4 2.267793e+00 1.371027e+01 9.723971e+00 -1 -1 1 -9.158107e-01 -1.080381e-01 1.987858e-01 -3.318172e-01
126 2 2 2.403294e+00 1.347380e+01 1.013275e+01 -1 -1 1 6.844172e-01 3.741224e-02 -2.269663e-01 6.918524e-01
127 2 4 2.555680e+00 1.337413e+01 1.067121e+01 -1 -1 1 3.473981e-01 -1.273180e-01 -2.929470e-01 8.816387e-01
128 2 4 3.425978e+00 1.238572e+01 1.092169e+01 -1 -1 1 8.719697e-01 -1.845844e-01 -3.828095e-01 2.430110e-01
129 2 1 2.929055e+00 1.145139e+01 1.041250e+01 -1 -1 1 -3.997708e-01 2.457676e-02 -9.160427e-01 -2.109636e-02
130 2 2 3.434787e+00 1.191211e+01 1.001567e+01 -1 -1 1 -3.823950e-02 -9.376067e-02 3.451111e-01 9.330836e-01
131 2 3 4.210889e+00 1.091874e+01 1.111415e+01 -1 -1 1 1.603327e-01 4.301800e-01 -8.510148e-01 2.549753e-01
132 2 4 4.350423e+00 1.055165e+01 1.092833e+01 -1 -1 1 5.673343e-03 1.619280e-02 -9.790137e-01 2.030708e-01
133 2 4 4.169575e+00 1.013191e+01 1.075556e+01 -1 -1 1 -1.593515e-01 -3.725594e-01 -8.841396e-01 2.326022e-01
134 2 3 5.118422e+00 1.069724e+01 1.173676e+01 -1 -1 1 -6.875073e-01 -3.006701e-02 2.310780e-01 -6.877737e-01
135 2 4 5.284287e+00 1.067763e+01 1.211170e+01 -1 -1 1 1.966611e-01 1.013482e-01 -2.889435e-01 9.314315e-01
136 2 3 5.174728e+00 1.064808e+01 1.262036e+01 -1 -1 1 -1.126511e-01 -1.108319e-01 -2.949755e-01 9.423457e-01
137 2 1 4.920579e+00 1.061012e+01 1.298349e+01 -1 -1 1 6.570683e-01 7.179457e-02 2.674516e-01 -7.011251e-01
138 2 3 4.757197e+00 1.035741e+01 1.327298e+01 -1 -1 1 9.210157e-01 1.053528e-01 1.477587e-01 -3.446711e-01
139 2 2 4.766927e+00 1.077733e+01 1.458125e+01 -1 -1 1 -6.248183e-01 4.836960e-01 5.318309e-01 -3.046247e-01
140 2 3 4.211919e+00 1.091988e+01 1.474579e+01 -1 -1 1 -3.585313e-01 7.444143e-01 2.417379e-01 -5.087882e-01
141 2 1 3.888980e+00 1.131319e+01 1.471578e+01 -1 -1 1 1.773344e-01 -7.874347e-01 1.330682e-01 5.751451e-01
142 2 2 2.835142e+00 1.057917e+01 1.546830e+01 -1 -1 1 -7.287472e-01 4.583385e-01 -9.888592e-02 4.990741e-01
143 2 4 2.194106e+00 1.027989e+01 1.534611e+01 -1 -1 1 -6.555362e-02 3.951148e-01 -9.147712e-01 5.273273e-02
144 2 4 2.620312e+00 1.057940e+01 1.562887e+01 -1 -1 1 -5.346302e-01 -3.486258e-01 6.865899e-01 3.481736e-01
145 2 1 1.825429e+00 1.117187e+01 1.645570e+01 -1 -1 1 1.854814e-01 -3.613962e-01 -6.502490e-01 -6.420013e-01
146 2 1 1.702424e+00 1.171014e+01 1.622883e+01 -1 -1 1 -3.544140e-01 5.218230e-01 4.558553e-01 6.279231e-01
147 2 1 1.436009e+00 1.217131e+01 1.625636e+01 -1 -1 1 -5.328517e-01 6.899065e-01 2.344532e-01 4.302671e-01
148 2 2 1.490623e+00 1.269598e+01 1.643685e+01 -1 -1 1 -7.029167e-01 5.373018e-01 1.245993e-01 4.490991e-01
149 2 4 1.510178e+00 1.305706e+01 1.684533e+01 -1 -1 1 8.486040e-01 -4.584635e-01 1.297965e-01 -2.298593e-01
150 2 1 1.744390e+00 1.323897e+01 1.730707e+01 -1 -1 1 8.036415e-01 -4.259792e-01 3.897532e-01 1.442030e-01
151 2 1 2.249354e+00 1.335322e+01 1.755079e+01 -1 -1 1 7.358576e-01 -2.920113e-01 5.296056e-01 3.045668e-01
152 2 1 2.731821e+00 1.353609e+01 1.753897e+01 -1 -1 1 5.743055e-01 -5.544140e-02 7.138104e-01 3.969561e-01
153 2 4 3.137952e+00 1.372336e+01 1.741975e+01 -1 -1 1 4.197142e-01 9.465774e-02 7.875826e-01 4.411276e-01
154 2 1 3.428225e+00 1.386171e+01 1.693680e+01 -1 -1 1 2.233949e-01 3.906044e-01 6.968880e-01 5.584532e-01
155 2 2 3.706363e+00 1.417734e+01 1.659682e+01 -1 -1 1 -1.631892e-02 5.040904e-01 6.179692e-01 6.031091e-01
156 2 4 3.843820e+00 1.464234e+01 1.631750e+01 -1 -1 1 -1.764081e-01 5.888962e-01 3.974405e-01 6.812653e-01
157 2 3 4.058345e+00 1.515491e+01 1.631220e+01 -1 -1 1 -3.826690e-01 5.668358e-01 2.317502e-01 6.917756e-01
158 2 2 3.880086e+00 1.549090e+01 1.664067e+01 -1 -1 1 -6.729704e-01 5.944047e-01 1.118237e-01 4.257810e-01
159 2 1 4.113303e+00 1.599141e+01 1.691824e+01 -1 -1 1 -7.123719e-01 5.219283e-01 -9.052607e-02 4.603500e-01
160 2 3 4.344482e+00 1.615246e+01 1.740466e+01 -1 -1 1 8.353804e-01 -4.123816e-01 3.196179e-01 -1.729898e-01
161 2 1 4.766244e+00 1.621935e+01 1.780755e+01 -1 -1 1 8.291724e-01 -2.418106e-01 5.024898e-01 3.879001e-02
162 2 1 5.314432e+00 1.622840e+01 1.797965e+01 -1 -1 1 7.745457e-01 -8.975198e-02 6.089981e-01 1.454124e-01
163 2 4 5.828316e+00 1.615455e+01 1.799332e+01 -1 -1 1 6.407468e-01 8.740479e-02 6.701432e-01 3.642966e-01
164 2 4 6.314837e+00 1.613841e+01 1.773373e+01 -1 -1 1 4.182785e-01 3.227077e-01 6.326783e-01 5.662340e-01
165 2 3 6.691115e+00 1.641991e+01 1.751144e+01 -1 -1 1 1.769488e-01 4.715382e-01 5.773015e-01 6.427004e-01
166 2 3 6.945866e+00 1.683529e+01 1.732227e+01 -1 -1 1 -3.619904e-02 5.912809e-01 4.389226e-01 6.755912e-01
167 2 4 7.222227e+00 1.731032e+01 1.731007e+01 -1 -1 1 -2.502383e-01 5.829538e-01 2.567109e-01 7.291400e-01
168 2 2 7.351293e+00 1.782146e+01 1.747633e+01 -1 -1 1 -4.199163e-01 6.028655e-01 1.339076e-01 6.650506e-01
169 2 2 7.439930e+00 1.820541e+01 1.780451e+01 -1 -1 1 -6.413566e-01 5.607869e-01 -9.171927e-02 5.155263e-01
170 2 1 7.487718e+00 1.846245e+01 1.821213e+01 -1 -1 1 -7.929877e-01 5.189968e-01 -2.441337e-01 2.054545e-01
171 2 1 7.726177e+00 1.874981e+01 1.863713e+01 -1 -1 1 8.543410e-01 -3.469758e-01 3.381504e-01 -1.880518e-01
172 2 4 8.102851e+00 1.858839e+01 1.902960e+01 -1 -1 1 9.031846e-01 -1.060313e-01 4.019422e-01 1.070393e-01
173 2 4 8.572738e+00 1.843900e+01 1.933189e+01 -1 -1 1 8.302465e-01 -2.452065e-02 4.511761e-01 3.263887e-01
174 2 1 9.041190e+00 1.842136e+01 1.941920e+01 -1 -1 1 6.833262e-01 7.023866e-02 4.003444e-01 6.065115e-01
175 2 1 9.545681e+00 1.858742e+01 1.956102e+01 -1 -1 1 4.229450e-01 1.294823e-01 3.477080e-01 8.267109e-01
176 2 2 9.808217e+00 1.903287e+01 1.973078e+01 -1 -1 1 9.613454e-02 1.495043e-01 2.402102e-01 9.543090e-01
177 2 2 9.853970e+00 1.952995e+01 -2.009851e+01 -1 -1 2 -1.676588e-01 2.231935e-01 3.651527e-01 8.881096e-01
178 2 1 9.901302e+00 1.989090e+01 -1.969597e+01 -1 -1 2 -3.045476e-01 9.659073e-02 2.849260e-01 9.037357e-01
179 2 4 9.512990e+00 -1.979574e+01 -1.952003e+01 -1 0 2 -6.348414e-01 2.548277e-01 2.003239e-01 7.013627e-01
180 2 1 9.220171e+00 -1.954431e+01 -1.902767e+01 -1 0 2 -8.358200e-01 1.896716e-01 1.098468e-01 5.033521e-01
181 2 4 9.003066e+00 -1.952743e+01 -1.853427e+01 -1 0 2 9.351091e-01 -3.958936e-02 -3.568295e-02 -3.503288e-01
182 2 2 8.895088e+00 -1.983619e+01 -1.809906e+01 -1 0 2 9.959523e-01 2.421178e-02 -1.593334e-02 8.508190e-02
183 2 3 8.970970e+00 2.000935e+01 -1.759813e+01 -1 -1 2 9.649254e-01 1.328761e-01 7.353474e-02 2.141393e-01
184 2 4 9.194990e+00 1.968484e+01 -1.721333e+01 -1 -1 2 8.720041e-01 2.358300e-01 1.488585e-01 4.022862e-01
185 2 3 9.703183e+00 1.953840e+01 -1.700923e+01 -1 -1 2 -6.481781e-01 -2.185040e-01 -3.195244e-02 -7.287662e-01
186 2 1 1.003114e+01 1.956321e+01 -1.662265e+01 -1 -1 2 -4.213641e-01 -1.138385e-01 -3.513886e-02 -8.990319e-01
187 2 1 1.020522e+01 1.973778e+01 -1.611616e+01 -1 -1 2 1.219302e-01 -6.598497e-03 3.407997e-02 9.919315e-01
188 2 2 1.026371e+01 -1.996846e+01 -1.567751e+01 -1 0 2 3.585939e-02 3.097747e-02 -1.540731e-01 -9.869225e-01
189 2 4 1.005440e+01 -1.952364e+01 -1.543627e+01 -1 0 2 3.646153e-01 -7.329615e-02 -2.325112e-01 -8.986779e-01
190 2 4 9.734950e+00 -1.923113e+01 -1.509121e+01 -1 0 2 -5.858918e-01 2.372820e-02 2.658702e-01 7.651672e-01
191 2 1 9.361825e+00 -1.909909e+01 -1.478941e+01 -1 0 2 -8.419990e-01 1.497202e-01 7.864498e-02 5.122856e-01
192 2 4 9.168175e+00 -1.909725e+01 -1.425272e+01 -1 0 2 9.511285e-01 -3.726240e-02 -4.583182e-02 -3.030933e-01
193 2 4 9.161800e+00 -1.929485e+01 -1.367421e+01 -1 0 2 -9.930071e-01 3.667420e-02 -8.966040e-02 6.747561e-02
194 2 1 9.363889e+00 -1.954245e+01 -1.322009e+01 -1 0 2 9.564524e-01 2.701768e-02 1.240835e-01 2.628158e-01
195 2 3 9.578729e+00 -1.973102e+01 -1.275384e+01 -1 0 2 -8.175707e-01 -1.316840e-01 -2.492710e-01 -5.020971e-01
196 2 4 1.007416e+01 -1.978872e+01 -1.238394e+01 -1 0 2 -7.329139e-01 -1.430911e-01 -4.005029e-01 -5.309987e-01
197 2 2 1.050669e+01 -1.966936e+01 -1.230581e+01 -1 0 2 5.153933e-01 2.821684e-01 3.404277e-01 7.340706e-01
198 2 4 1.090354e+01 -1.950479e+01 -1.218141e+01 -1 0 2 -2.131701e-01 -3.228546e-01 -5.187065e-02 -9.206698e-01
199 2 3 1.125254e+01 -1.931649e+01 -1.177269e+01 -1 0 2 -1.570458e-02 2.433529e-01 -1.623004e-02 9.696749e-01
200 2 4 1.128589e+01 -1.902423e+01 -1.132694e+01 -1 0 2 -4.201910e-01 1.830110e-01 1.160770e-02 8.887136e-01
