ITEM: TIMESTEP
246000000
ITEM: NUMBER OF ATOMS
200
ITEM: BOX BOUNDS pp pp pp
-2.0000000000000000e+01 2.0000000000000000e+01
-2.0000000000000000e+01 2.0000000000000000e+01
-2.0000000000000000e+01 2.0000000000000000e+01
ITEM: ATOMS id mol type x y z ix iy iz c_quat[1] c_quat[2] c_quat[3] c_quat[4]
1 1 1 -3.415394e+00 1.761864e+01 1.800061e+01 -1 -1 1 3.176246e-01 1.550377e-01 6.922987e-01 -6.291268e-01
2 1 2 -3.743244e+00 1.782582e+01 1.785539e+01 -1 -1 1 -2.274243e-01 -2.244201e-01 -4.168864e-01 -8.509521e-01
3 1 1 -3.917646e+00 1.639853e+01 1.851246e+01 -1 -1 1 5.045688e-01 -1.740180e-01 -7.033877e-01 -4.694399e-01
4 1 3 -4.310140e+00 1.671318e+01 1.855398e+01 -1 -1 1 7.287668e-01 -4.322397e-01 -4.540225e-01 -2.755564e-01
5 1 1 -3.947654e+00 1.576053e+01 1.766491e+01 -1 -1 1 6.626037e-01 -1.608479e-01 7.258209e-01 -9.093043e-02
6 1 2 -3.500263e+00 1.551608e+01 1.757809e+01 -1 -1 1 6.367857e-01 1.092082e-01 7.621721e-01 -4.088032e-02
7 1 4 -3.070494e+00 1.527710e+01 1.739000e+01 -1 -1 1 -5.253755e-01 -2.222153e-01 -8.213058e-01 7.601436e-03
8 1 1 -2.828814e+00 1.498576e+01 1.707648e+01 -1 -1 1 4.814339e-01 4.810308e-01 7.145335e-01 1.620884e-01
9 1 1 -2.566907e+00 1.476090e+01 1.660792e+01 -1 -1 1 -3.577434e-01 -6.271651e-01 -6.280966e-01 -2.901349e-01
10 1 4 -2.476324e+00 1.479544e+01 1.608071e+01 -1 -1 1 2.227856e-01 8.294364e-01 3.199232e-01 4.000638e-01
11 1 1 -2.302665e+00 1.502206e+01 1.563550e+01 -1 -1 1 3.956976e-02 8.886255e-01 2.107832e-01 4.054002e-01
12 1 1 -2.023294e+00 1.533522e+01 1.533132e+01 -1 -1 1 1.334583e-01 -8.901301e-01 9.202181e-02 -4.258981e-01
13 1 3 -1.577135e+00 1.564289e+01 1.518711e+01 -1 -1 1 -2.813306e-01 7.819470e-01 -3.344302e-01 4.444867e-01
14 1 4 -1.132426e+00 1.581327e+01 1.516742e+01 -1 -1 1 4.415889e-01 -6.293011e-01 4.888389e-01 -4.123298e-01
15 1 4 -6.116603e-01 1.582297e+01 1.533726e+01 -1 -1 1 5.140266e-01 -4.243432e-01 6.944806e-01 -2.709358e-01
16 1 2 -9.898431e-02 1.574630e+01 1.520566e+01 -1 -1 1 -4.106982e-01 2.505716e-01 -8.535342e-01 2.000507e-01
17 1 1 2.892426e-01 1.540349e+01 1.507283e+01 -1 -1 1 -4.161715e-01 -5.097612e-02 -8.923923e-01 1.668491e-01
18 1 2 5.247901e-01 1.497736e+01 1.477558e+01 -1 -1 1 3.701763e-01 3.399549e-01 8.608454e-01 -7.965707e-02
19 1 3 6.807890e-01 1.470079e+01 1.439094e+01 -1 -1 1 3.450901e-01 5.685588e-01 7.319885e-01 1.478058e-01
20 1 1 6.278084e-01 1.465900e+01 1.387684e+01 -1 -1 1 2.007637e-01 7.884209e-01 5.331566e-01 2.320139e-01
21 1 4 7.145427e-01 1.488724e+01 1.341400e+01 -1 -1 1 -3.529797e-02 -9.196411e-01 -2.940660e-01 -2.579525e-01
22 1 1 8.309732e-01 1.532105e+01 1.303059e+01 -1 -1 1 7.665894e-02 -9.758157e-01 2.819495e-02 -2.027614e-01
23 1 4 1.183909e+00 1.557094e+01 1.263724e+01 -1 -1 1 6.165369e-02 -9.283014e-01 2.334347e-01 -2.827783e-01
24 1 3 1.677605e+00 1.566628e+01 1.238710e+01 -1 -1 1 1.537116e-01 -7.743980e-01 5.273671e-01 -3.139497e-01
25 1 3 2.208461e+00 1.563367e+01 1.223079e+01 -1 -1 1 2.132187e-01 -5.077442e-01 8.132045e-01 -1.882340e-01
26 1 4 2.637693e+00 1.537243e+01 1.199297e+01 -1 -1 1 2.277858e-01 -3.295865e-01 8.971526e-01 -1.860204e-01
27 1 4 2.983426e+00 1.509851e+01 1.175407e+01 -1 -1 1 2.615005e-01 -9.047081e-02 9.480253e-01 -1.571007e-01
28 1 1 3.149998e+00 1.462436e+01 1.156046e+01 -1 -1 1 3.601969e-01 2.806442e-01 8.895970e-01 1.069134e-02
29 1 1 3.200273e+00 1.439944e+01 1.111704e+01 -1 -1 1 2.938933e-01 5.795850e-01 7.549499e-01 8.808298e-02
30 1 4 3.166255e+00 1.421388e+01 1.058001e+01 -1 -1 1 -1.504130e-01 -7.219987e-01 -6.608195e-01 -1.393249e-01
31 1 4 3.121518e+00 1.438568e+01 1.008260e+01 -1 -1 1 -3.385877e-02 -8.862198e-01 -3.716054e-01 -2.745496e-01
32 1 3 3.205619e+00 1.470245e+01 9.671634e+00 -1 -1 1 6.921564e-02 -9.506030e-01 -2.310479e-02 -3.017107e-01
33 1 3 3.545625e+00 1.498630e+01 9.354375e+00 -1 -1 1 1.153295e-01 -9.126223e-01 1.754401e-01 -3.507712e-01
34 1 1 3.887663e+00 1.519018e+01 9.170997e+00 -1 -1 1 2.099346e-01 -8.066497e-01 4.805234e-01 -2.726554e-01
35 1 2 4.313908e+00 1.521827e+01 8.885934e+00 -1 -1 1 2.862299e-01 -6.154905e-01 6.696750e-01 -3.012958e-01
36 1 2 4.830866e+00 1.506566e+01 8.790552e+00 -1 -1 1 3.390738e-01 -4.295521e-01 7.921328e-01 -2.702583e-01
37 1 1 5.229995e+00 1.473347e+01 8.650741e+00 -1 -1 1 3.491754e-01 -2.318477e-01 8.146468e-01 -4.008414e-01
38 1 1 5.599909e+00 1.432960e+01 8.554540e+00 -1 -1 1 4.231967e-01 4.318764e-02 8.785954e-01 -2.170472e-01
39 1 4 5.610049e+00 1.384599e+01 8.270553e+00 -1 -1 1 -4.262536e-01 -3.879710e-01 -8.170551e-01 1.439963e-02
40 1 4 5.778208e+00 1.353341e+01 7.937741e+00 -1 -1 1 -3.195871e-01 -6.081559e-01 -7.265895e-01 8.844549e-03
41 1 2 5.844590e+00 1.343248e+01 7.375518e+00 -1 -1 1 -2.308379e-01 -7.632170e-01 -5.793106e-01 -1.691537e-01
42 1 4 5.939964e+00 1.348671e+01 6.832884e+00 -1 -1 1 9.834406e-02 8.649873e-01 4.245358e-01 2.487866e-01
43 1 3 6.124989e+00 1.380572e+01 6.411345e+00 -1 -1 1 -4.020166e-02 -9.411260e-01 -1.014169e-02 -3.355037e-01
44 1 2 6.532861e+00 1.386099e+01 6.143722e+00 -1 -1 1 1.591394e-01 -8.930123e-01 1.464122e-01 -3.946734e-01
45 1 1 7.024129e+00 1.410726e+01 6.015551e+00 -1 -1 1 3.287735e-01 -7.652651e-01 3.672208e-01 -4.140364e-01
46 1 3 7.539417e+00 1.423193e+01 5.962717e+00 -1 -1 1 4.044522e-01 -6.257386e-01 4.974722e-01 -4.442871e-01
47 1 4 8.132308e+00 1.421360e+01 6.036013e+00 -1 -1 1 4.050715e-01 -4.579259e-01 6.824098e-01 -4.006718e-01
48 1 1 8.531191e+00 1.397844e+01 6.301290e+00 -1 -1 1 -5.635513e-01 2.353834e-01 -7.484777e-01 2.584294e-01
49 1 4 8.931274e+00 1.366053e+01 6.342166e+00 -1 -1 1 -6.230197e-01 -6.319554e-02 -7.773561e-01 5.975195e-02
50 1 4 9.302794e+00 1.330883e+01 6.091899e+00 -1 -1 1 -5.330223e-01 -2.996503e-01 -7.820915e-01 -1.201242e-01
51 1 4 9.510346e+00 1.296707e+01 5.612788e+00 -1 -1 1 -4.745113e-01 -4.890996e-01 -7.113801e-01 -1.719271e-01
52 1 1 9.866418e+00 1.291971e+01 5.116367e+00 -1 -1 1 -3.090206e-01 -6.244825e-01 -5.908513e-01 -4.067218e-01
53 1 3 1.000116e+01 1.313695e+01 4.669373e+00 -1 -1 1 8.338118e-02 7.985403e-01 4.059107e-01 4.365977e-01
54 1 4 1.019318e+01 1.353167e+01 4.301010e+00 -1 -1 1 -1.298085e-01 8.642455e-01 1.418475e-01 4.648750e-01
55 1 4 1.057595e+01 1.389503e+01 4.226421e+00 -1 -1 1 -2.431456e-01 8.576205e-01 -1.526553e-01 4.266891e-01
56 1 4 1.098088e+01 1.414014e+01 4.211627e+00 -1 -1 1 4.252326e-01 -6.926832e-01 3.632193e-01 -4.554547e-01
57 1 1 1.159180e+01 1.427069e+01 4.307588e+00 -1 -1 1 4.572988e-01 -5.172554e-01 5.716007e-01 -4.433929e-01
58 1 1 1.210355e+01 1.420828e+01 4.457525e+00 -1 -1 1 -5.583051e-01 2.856914e-01 -6.744748e-01 3.895632e-01
59 1 3 1.260620e+01 1.403876e+01 4.508173e+00 -1 -1 1 5.442875e-01 -1.084221e-01 7.423200e-01 -3.754423e-01
60 1 4 1.273109e+01 1.351774e+01 4.584876e+00 -1 -1 1 -7.086453e-01 -1.736248e-01 -6.579642e-01 1.864389e-01
61 1 2 1.307944e+01 1.306384e+01 4.456612e+00 -1 -1 1 -6.647434e-01 -3.721037e-01 -6.344108e-01 -1.310647e-01
62 1 3 1.388568e+01 1.342117e+01 5.044429e+00 -1 -1 1 -3.909349e-01 7.351925e-01 4.401254e-01 -3.360826e-01
63 1 2 1.417943e+01 1.291223e+01 5.010892e+00 -1 -1 1 -6.383199e-02 3.728349e-01 -6.474496e-01 -6.616106e-01
64 1 4 1.392213e+01 1.198031e+01 5.075332e+00 -1 -1 1 -6.203514e-01 4.430487e-02 -5.728393e-01 5.339067e-01
65 1 2 1.413907e+01 1.162754e+01 5.390250e+00 -1 -1 1 7.422184e-01 6.893566e-02 5.963119e-01 -2.979460e-01
66 1 1 1.460654e+01 1.132999e+01 5.515850e+00 -1 -1 1 7.736692e-01 1.875237e-01 5.954286e-01 1.083305e-01
67 1 2 1.500768e+01 1.075093e+01 6.709201e+00 -1 -1 1 -2.636635e-01 -4.461295e-01 8.528286e-01 -6.429175e-02
68 1 1 1.494405e+01 1.029206e+01 6.335308e+00 -1 -1 1 -3.287005e-01 -1.542443e-01 8.999920e-01 -2.412033e-01
69 1 1 1.473914e+01 9.843698e+00 6.354211e+00 -1 -1 1 2.349772e-01 -2.572667e-01 -8.558107e-01 3.823449e-01
70 1 2 1.599890e+01 1.000065e+01 6.673765e+00 -1 -1 1 -6.960453e-01 -4.965461e-01 3.959659e-01 -3.349238e-01
71 1 3 1.497554e+01 9.772116e+00 7.294885e+00 -1 -1 1 -4.300447e-01 9.937422e-03 -6.255179e-01 6.509149e-01
72 1 4 1.491617e+01 9.292702e+00 7.486881e+00 -1 -1 1 -5.857085e-01 -2.456447e-01 -5.983728e-01 4.884201e-01
73 1 1 1.501062e+01 8.586244e+00 7.964596e+00 -1 -1 1 1.955378e-02 2.226651e-03 9.480540e-01 3.175002e-01
74 1 1 1.576652e+01 8.049735e+00 8.603725e+00 -1 -1 1 9.295771e-01 1.943626e-01 7.835099e-02 -3.032666e-01
75 1 3 1.574376e+01 7.612854e+00 8.935484e+00 -1 -1 1 9.520402e-01 2.425661e-01 1.694450e-01 7.790701e-02
76 1 1 1.493795e+01 7.550100e+00 1.019281e+01 -1 -1 1 5.452771e-01 -2.832101e-01 -1.818879e-01 -7.677120e-01
77 1 4 1.475022e+01 7.835097e+00 1.050600e+01 -1 -1 1 8.412962e-01 -3.902941e-01 7.007071e-03 -3.739546e-01
78 1 1 1.489716e+01 7.922069e+00 1.100637e+01 -1 -1 1 9.414603e-01 -2.576132e-01 1.835848e-01 -1.165526e-01
79 1 4 1.452932e+01 8.519279e+00 1.186234e+01 -1 -1 1 -5.969678e-01 6.622040e-01 2.190723e-01 -3.963870e-01
80 1 2 1.436600e+01 8.962782e+00 1.209304e+01 -1 -1 1 -2.963127e-01 6.603607e-01 -5.100057e-02 -6.881290e-01
81 1 4 1.401069e+01 9.334225e+00 1.210281e+01 -1 -1 1 2.778529e-01 -6.372869e-01 2.103762e-01 6.873173e-01
82 1 4 1.366437e+01 9.889885e+00 1.194058e+01 -1 -1 1 7.012128e-01 4.139011e-01 3.153517e-01 4.873806e-01
83 1 4 1.231667e+01 9.523259e+00 1.183347e+01 -1 -1 1 -9.079223e-02 -1.346565e-02 8.914937e-01 4.436378e-01
84 1 4 1.189801e+01 9.456595e+00 1.130757e+01 -1 -1 1 2.723021e-01 3.689615e-01 7.257748e-01 -5.128059e-01
85 1 1 1.198477e+01 8.415109e+00 1.079695e+01 -1 -1 1 -6.146557e-01 -4.249817e-01 4.557483e-01 4.836139e-01
86 1 1 1.097285e+01 9.034419e+00 1.104917e+01 -1 -1 1 -3.695709e-02 1.985041e-01 8.771376e-01 -4.357292e-01
87 1 3 1.099249e+01 8.447769e+00 1.054636e+01 -1 -1 1 -2.855942e-01 -5.375331e-01 -8.846308e-02 7.884595e-01
88 1 2 1.043780e+01 8.393981e+00 1.054373e+01 -1 -1 1 5.731522e-01 5.902407e-01 -1.431538e-01 -5.501086e-01
89 1 2 1.004075e+01 7.969797e+00 1.066972e+01 -1 -1 1 -4.888508e-01 -6.715949e-01 -1.183850e-01 5.440313e-01
90 1 3 1.112015e+01 7.235838e+00 1.155074e+01 -1 -1 1 -9.436144e-01 1.571494e-01 2.905637e-01 -2.164634e-02
91 1 3 1.094594e+01 6.852479e+00 1.047795e+01 -1 -1 1 -7.735360e-01 5.269219e-02 -4.777128e-01 -4.131054e-01
92 1 2 1.135991e+01 6.140807e+00 1.145616e+01 -1 -1 1 -6.087252e-01 -5.354329e-01 5.247773e-01 -2.595652e-01
93 1 1 1.142985e+01 5.725510e+00 1.141977e+01 -1 -1 1 3.876544e-01 3.872678e-01 -6.247147e-01 5.563086e-01
94 1 2 1.163352e+01 5.326818e+00 1.158398e+01 -1 -1 1 -8.535235e-02 -1.004494e-01 7.456676e-01 -6.531498e-01
95 1 3 1.195103e+01 4.646253e+00 1.143939e+01 -1 -1 1 7.556126e-01 2.304945e-01 5.858441e-01 -1.808550e-01
96 1 2 1.235359e+01 4.199931e+00 1.192722e+01 -1 -1 1 6.234104e-01 6.047014e-01 -2.606833e-01 -4.215921e-01
97 1 2 1.252150e+01 4.360923e+00 1.197761e+01 -1 -1 1 -1.298755e-01 -1.728573e-01 -1.718401e-01 9.611055e-01
98 1 4 1.322009e+01 4.222179e+00 1.170132e+01 -1 -1 1 2.597190e-03 -4.360744e-01 8.222396e-01 -3.657245e-01
99 1 2 1.324581e+01 4.560294e+00 1.067205e+01 -1 -1 1 3.475018e-01 5.374912e-03 -7.486036e-02 -9.346708e-01
100 1 1 1.387445e+01 3.625920e+00 1.089504e+01 -1 -1 1 6.645893e-01 -3.612599e-01 6.276822e-01 1.839225e-01
101 2 4 1.564172e+01 -1.751281e+01 4.935898e+00 -1 0 1 4.719324e-01 6.171392e-01 -6.227659e-01 -9.263658e-02
102 2 3 1.560054e+01 -1.793998e+01 4.572938e+00 -1 0 1 -3.686386e-01 -2.097982e-01 9.034564e-01 -6.210334e-02
103 2 1 1.552357e+01 -1.800929e+01 3.472167e+00 -1 0 1 -5.262098e-01 -1.077611e-01 3.942662e-01 7.456842e-01
104 2 3 1.493799e+01 -1.831769e+01 3.460587e+00 -1 0 1 -3.640112e-01 -1.783904e-01 -2.027639e-01 8.913807e-01
105 2 3 1.469407e+01 -1.791030e+01 3.015700e+00 -1 0 1 -4.815912e-02 4.799936e-02 -8.184504e-03 -9.976521e-01
106 2 2 1.465862e+01 -1.827092e+01 2.709403e+00 -1 0 1 -5.283184e-01 3.384630e-01 3.384884e-01 -7.012475e-01
107 2 3 1.540576e+01 -1.881513e+01 1.707071e+00 -1 0 1 6.520832e-01 7.494220e-01 1.026034e-01 5.125168e-02
108 2 4 1.553485e+01 -1.970517e+01 1.751871e+00 -1 0 1 1.319759e-01 8.953780e-01 -4.105869e-01 -1.109008e-01
109 2 3 1.563606e+01 -1.987467e+01 1.237026e+00 -1 0 1 3.263909e-01 6.470770e-01 -6.889171e-01 1.239306e-02
110 2 2 1.496144e+01 1.956675e+01 1.221804e+00 -1 -1 1 -7.478948e-01 3.048147e-01 2.602974e-01 5.291376e-01
111 2 2 1.586337e+01 1.887633e+01 9.902327e-01 -1 -1 1 6.634724e-01 5.714528e-01 -4.825798e-01 -1.904721e-02
112 2 3 1.558687e+01 1.838335e+01 1.078497e+00 -1 -1 1 6.752685e-01 6.882840e-01 -2.636451e-01 -2.772920e-02
113 2 3 1.507254e+01 1.779790e+01 1.652137e+00 -1 -1 1 7.852271e-01 4.305101e-01 -8.990984e-02 -4.358850e-01
114 2 2 1.521484e+01 1.712634e+01 2.764585e+00 -1 -1 1 -8.185914e-02 -1.662055e-01 9.209934e-01 -3.427038e-01
115 2 4 1.602493e+01 1.782740e+01 2.331080e+00 -1 -1 1 2.325139e-01 7.445917e-02 3.184433e-01 9.159623e-01
116 2 4 1.634056e+01 1.754113e+01 2.320564e+00 -1 -1 1 2.149767e-01 6.025524e-02 -8.271510e-01 5.157282e-01
117 2 1 1.735618e+01 1.742226e+01 2.092696e+00 -1 -1 1 1.175398e-01 -4.431170e-01 8.665222e-01 -1.974106e-01
118 2 1 1.769616e+01 1.717234e+01 1.873550e+00 -1 -1 1 1.833262e-01 -1.436867e-01 9.215861e-01 -3.105232e-01
119 2 1 1.785721e+01 1.670507e+01 1.811509e+00 -1 -1 1 3.051671e-01 1.453983e-01 9.245420e-01 -1.759388e-01
120 2 1 1.783506e+01 1.639020e+01 1.394317e+00 -1 -1 1 3.378120e-01 6.718738e-01 6.559889e-01 6.439977e-02
121 2 3 1.831943e+01 1.535606e+01 1.448694e+00 -1 -1 1 2.429018e-01 5.962243e-02 -8.317778e-01 -4.955699e-01
122 2 1 1.812112e+01 1.535339e+01 1.083206e+00 -1 -1 1 2.994702e-01 -3.188964e-01 -8.525279e-01 -2.860400e-01
123 2 4 1.864524e+01 1.502088e+01 6.929745e-01 -1 -1 1 -8.600595e-01 -1.811641e-01 2.153452e-01 -4.255627e-01
124 2 1 1.770325e+01 1.450915e+01 1.055973e+00 -1 -1 1 -3.153252e-01 4.392952e-01 7.503888e-01 -3.801401e-01
125 2 4 1.723800e+01 1.434307e+01 9.653316e-01 -1 -1 1 1.850327e-01 -6.830794e-01 -5.860055e-01 3.946682e-01
126 2 2 1.674348e+01 1.437537e+01 8.036630e-01 -1 -1 1 9.311546e-02 -8.668717e-01 -2.861699e-01 3.974540e-01
127 2 4 1.724269e+01 1.293611e+01 3.738025e-01 -1 -1 1 -5.294975e-01 5.531556e-01 -5.350138e-01 -3.569474e-01
128 2 4 1.585808e+01 1.242725e+01 2.704010e-01 -1 -1 1 4.130689e-01 1.899956e-01 -7.892537e-01 -4.127401e-01
129 2 1 1.540619e+01 1.231858e+01 8.344168e-02 -1 -1 1 -5.649643e-01 2.694823e-01 7.572235e-01 1.865670e-01
130 2 2 1.492664e+01 1.242607e+01 2.187628e-01 -1 -1 1 -5.945186e-01 5.968096e-01 4.926138e-01 -2.183979e-01
131 2 3 1.417729e+01 1.208157e+01 1.693519e-01 -1 -1 1 -4.820828e-01 6.164408e-01 -3.668207e-01 5.030303e-01
132 2 4 1.436360e+01 1.339391e+01 -3.757338e-01 -1 -1 1 3.535331e-01 -7.053552e-01 1.736210e-01 5.893591e-01
133 2 4 1.469994e+01 1.357402e+01 3.807884e-01 -1 -1 1 -6.168185e-01 -1.437468e-01 6.771425e-01 -3.746330e-01
134 2 3 1.491184e+01 1.445895e+01 1.969812e-01 -1 -1 1 -6.611255e-02 -8.220687e-01 3.809301e-01 -4.180005e-01
135 2 4 1.472440e+01 1.454152e+01 5.061358e-01 -1 -1 1 -4.490007e-01 -7.919830e-01 -7.691023e-02 -4.065048e-01
136 2 3 1.387497e+01 1.461926e+01 7.292322e-01 -1 -1 1 4.831294e-01 3.448527e-01 8.000487e-01 -8.709038e-02
137 2 1 1.396267e+01 1.397861e+01 1.020660e+00 -1 -1 1 2.062237e-01 -5.676746e-01 6.745146e-01 4.245555e-01
138 2 3 1.396254e+01 1.412326e+01 2.478731e+00 -1 -1 1 7.133648e-01 -4.829404e-01 -3.781543e-01 3.389373e-01
139 2 2 1.340766e+01 1.390116e+01 2.807967e+00 -1 -1 1 6.936806e-01 2.777908e-02 -6.696204e-01 -2.639016e-01
140 2 3 1.323684e+01 1.368602e+01 3.476979e+00 -1 -1 1 6.170221e-01 1.545058e-01 -7.320604e-01 -2.439248e-01
141 2 1 1.274343e+01 1.360797e+01 3.388122e+00 -1 -1 1 -7.309329e-01 5.215545e-03 6.715175e-01 1.215490e-01
142 2 2 1.230030e+01 1.338436e+01 3.553337e+00 -1 -1 1 7.417124e-01 -2.034648e-01 -6.001329e-01 2.197847e-01
143 2 4 1.188826e+01 1.322284e+01 3.846374e+00 -1 -1 1 7.353632e-01 -1.993947e-01 -4.742286e-01 4.411236e-01
144 2 4 1.157376e+01 1.308766e+01 4.199654e+00 -1 -1 1 6.860940e-01 -2.220892e-01 -3.539126e-01 5.955647e-01
145 2 1 1.142207e+01 1.313732e+01 4.637208e+00 -1 -1 1 3.513956e-01 -3.425591e-01 -2.532817e-01 8.336803e-01
146 2 1 1.108302e+01 1.328255e+01 5.025857e+00 -1 -1 1 2.455702e-01 -4.885908e-01 -7.828704e-02 8.335739e-01
147 2 1 1.085014e+01 1.359079e+01 5.279307e+00 -1 -1 1 1.078781e-01 4.490388e-01 -6.285411e-02 -8.847462e-01
148 2 2 1.037496e+01 1.390404e+01 5.452587e+00 -1 -1 1 2.840654e-01 5.199087e-01 -1.761722e-01 -7.861076e-01
149 2 4 9.935843e+00 1.413758e+01 5.385058e+00 -1 -1 1 -4.802839e-01 -4.801391e-01 4.153376e-01 6.052178e-01
150 2 1 9.471390e+00 1.407267e+01 5.159067e+00 -1 -1 1 -6.462303e-01 -3.028660e-01 5.599112e-01 4.209016e-01
151 2 1 9.022078e+00 1.390653e+01 5.133988e+00 -1 -1 1 -7.611267e-01 -2.265888e-01 5.805954e-01 1.795903e-01
152 2 1 8.677933e+00 1.358568e+01 5.182042e+00 -1 -1 1 -7.839114e-01 -7.487330e-02 6.135078e-01 -5.903394e-02
153 2 4 8.246091e+00 1.323351e+01 5.331649e+00 -1 -1 1 -7.447720e-01 1.595833e-01 6.141018e-01 -2.067045e-01
154 2 1 7.837567e+00 1.312843e+01 5.599015e+00 -1 -1 1 -7.818592e-01 2.434752e-01 4.326389e-01 -3.771467e-01
155 2 2 7.756804e+00 1.304807e+01 6.120655e+00 -1 -1 1 -5.089576e-01 3.527792e-01 3.243976e-01 -7.150351e-01
156 2 4 7.494082e+00 1.322984e+01 6.601527e+00 -1 -1 1 -2.183342e-01 4.557093e-01 1.364871e-01 -8.520742e-01
157 2 3 7.194460e+00 1.340548e+01 7.006980e+00 -1 -1 1 -2.143823e-01 4.872783e-01 -4.102159e-02 -8.455278e-01
158 2 2 6.951820e+00 1.383516e+01 7.280741e+00 -1 -1 1 -7.554510e-02 4.613144e-01 -2.337658e-01 -8.525465e-01
159 2 1 6.663711e+00 1.429933e+01 7.328034e+00 -1 -1 1 3.178677e-01 3.569950e-01 -2.941994e-01 -8.276239e-01
160 2 3 6.250063e+00 1.457342e+01 7.395565e+00 -1 -1 1 -4.275968e-01 -3.755900e-01 4.443433e-01 6.918469e-01
161 2 1 5.741220e+00 1.460517e+01 7.338705e+00 -1 -1 1 -7.024900e-01 -2.500296e-01 5.266705e-01 4.081804e-01
162 2 1 5.241621e+00 1.437176e+01 7.313428e+00 -1 -1 1 -7.999591e-01 -5.567384e-02 5.621331e-01 2.024161e-01
163 2 4 4.840274e+00 1.415416e+01 7.626742e+00 -1 -1 1 -9.027187e-01 1.033821e-02 4.255951e-01 -6.213621e-02
164 2 4 4.570075e+00 1.393538e+01 8.044686e+00 -1 -1 1 -8.376412e-01 2.218941e-01 3.653291e-01 -3.400808e-01
165 2 3 4.427824e+00 1.392213e+01 8.560619e+00 -1 -1 1 -7.823449e-01 2.456919e-01 2.507355e-01 -5.144935e-01
166 2 3 4.342337e+00 1.397718e+01 9.022353e+00 -1 -1 1 -6.467448e-01 1.929501e-01 1.032638e-01 -7.306354e-01
167 2 4 4.521772e+00 1.418411e+01 9.449386e+00 -1 -1 1 -3.175671e-01 1.607111e-01 1.233232e-02 -9.344362e-01
168 2 2 4.333685e+00 1.443525e+01 1.000897e+01 -1 -1 1 -3.324020e-01 3.034956e-01 -5.361388e-05 -8.929722e-01
169 2 2 4.203998e+00 1.480829e+01 1.033363e+01 -1 -1 1 4.399679e-02 3.253794e-01 -1.336535e-01 -9.350557e-01
170 2 1 3.859288e+00 1.519122e+01 1.055466e+01 -1 -1 1 2.523892e-01 3.344549e-01 -2.416417e-01 -8.752422e-01
171 2 1 3.389948e+00 1.541001e+01 1.064490e+01 -1 -1 1 -5.782592e-01 -2.977070e-01 3.002244e-01 6.977479e-01
172 2 4 2.830685e+00 1.542748e+01 1.067028e+01 -1 -1 1 -8.080691e-01 -1.866815e-01 3.109515e-01 4.642020e-01
173 2 4 2.390461e+00 1.514096e+01 1.079219e+01 -1 -1 1 -8.899670e-01 -6.011988e-02 3.739430e-01 2.539901e-01
174 2 1 2.003361e+00 1.489796e+01 1.105635e+01 -1 -1 1 -9.311825e-01 -4.424892e-02 3.596095e-01 -4.027616e-02
175 2 1 1.879605e+00 1.461064e+01 1.149499e+01 -1 -1 1 -8.964947e-01 5.638591e-02 2.665904e-01 -3.493527e-01
176 2 2 1.836521e+00 1.448623e+01 1.216231e+01 -1 -1 1 -8.353856e-01 1.381624e-01 1.285028e-01 -5.162646e-01
177 2 2 1.931015e+00 1.458758e+01 1.270964e+01 -1 -1 1 -6.255799e-01 1.402696e-01 -1.184145e-02 -7.673552e-01
178 2 1 1.980336e+00 1.493070e+01 1.327895e+01 -1 -1 1 -3.136759e-01 2.997970e-01 8.409588e-02 -8.970268e-01
179 2 4 1.870762e+00 1.523547e+01 1.366023e+01 -1 -1 1 3.561980e-02 3.129095e-01 -1.030875e-02 -9.490588e-01
180 2 1 1.529422e+00 1.556437e+01 1.390981e+01 -1 -1 1 2.060462e-01 3.504080e-01 -2.726619e-01 -8.720176e-01
181 2 4 1.002017e+00 1.583751e+01 1.388040e+01 -1 -1 1 -5.086512e-01 -2.819129e-01 3.874578e-01 7.153150e-01
182 2 2 4.795872e-01 1.581076e+01 1.394067e+01 -1 -1 1 -7.545204e-01 -2.130152e-01 4.307694e-01 4.469465e-01
183 2 3 -7.815870e-02 1.562347e+01 1.397238e+01 -1 -1 1 -8.557003e-01 -1.605393e-01 4.418908e-01 2.161865e-01
184 2 4 -4.482622e-01 1.536442e+01 1.410385e+01 -1 -1 1 -8.968127e-01 -8.426939e-02 4.320954e-01 -4.380830e-02
185 2 3 -5.915992e-01 1.494469e+01 1.442493e+01 -1 -1 1 7.748867e-01 -1.277146e-01 -4.537800e-01 4.210978e-01
186 2 1 -8.895228e-01 1.477589e+01 1.479051e+01 -1 -1 1 8.148998e-01 -7.644636e-02 -2.975381e-01 4.914930e-01
187 2 1 -8.313976e-01 1.465002e+01 1.532953e+01 -1 -1 1 -5.352758e-01 2.550904e-01 2.384827e-01 -7.691129e-01
188 2 2 -1.054885e+00 1.475985e+01 1.584701e+01 -1 -1 1 4.381433e-01 -3.380386e-01 -7.221160e-02 8.297866e-01
189 2 4 -1.239114e+00 1.508094e+01 1.625270e+01 -1 -1 1 9.517214e-02 -3.835210e-01 -2.718782e-02 9.182128e-01
190 2 4 -1.614502e+00 1.536803e+01 1.652998e+01 -1 -1 1 1.125330e-02 4.826165e-01 -1.402838e-01 -8.644508e-01
191 2 1 -1.952830e+00 1.570919e+01 1.660494e+01 -1 -1 1 3.466347e-01 4.002531e-01 -3.424939e-01 -7.761055e-01
192 2 4 -2.398849e+00 1.595107e+01 1.659601e+01 -1 -1 1 -4.828799e-01 -4.164967e-01 4.646770e-01 6.143556e-01
193 2 4 -2.877278e+00 1.602286e+01 1.641971e+01 -1 -1 1 6.927931e-01 2.346723e-01 -5.389266e-01 -4.177616e-01
194 2 1 -3.417096e+00 1.590758e+01 1.644188e+01 -1 -1 1 -7.753170e-01 -1.975889e-01 5.557220e-01 2.258655e-01
195 2 3 -3.814917e+00 1.556697e+01 1.641419e+01 -1 -1 1 -7.917492e-01 2.388949e-02 6.103789e-01 -3.574292e-04
196 2 4 -4.211953e+00 1.530008e+01 1.657758e+01 -1 -1 1 7.856339e-01 -8.222311e-02 -5.694599e-01 2.274515e-01
197 2 2 -4.935464e+00 1.461921e+01 1.604971e+01 -1 -1 1 -8.945855e-01 2.795267e-01 -1.738645e-01 3.022460e-01
198 2 4 -5.924675e+00 1.464045e+01 1.630351e+01 -1 -1 1 4.442841e-01 1.763704e-01 2.054133e-01 -8.539968e-01
199 2 3 -6.238816e+00 1.440775e+01 1.653566e+01 -1 -1 1 -7.883601e-01 -2.544256e-01 -8.458405e-02 5.537161e-01
200 2 4 -7.018220e+00 1.460494e+01 1.652694e+01 -1 -1 1 1.789124e-01 -4.251641e-01 -3.640193e-01 -8.091451e-01
