ITEM: TIMESTEP
315000000
ITEM: NUMBER OF ATOMS
200
ITEM: BOX BOUNDS pp pp pp
-2.0000000000000000e+01 2.0000000000000000e+01
-2.0000000000000000e+01 2.0000000000000000e+01
-2.0000000000000000e+01 2.0000000000000000e+01
ITEM: ATOMS id mol type x y z ix iy iz c_quat[1] c_quat[2] c_quat[3] c_quat[4]
1 1 1 1.386305e+01 1.556147e+01 1.991464e+01 -1 -1 1 -7.982343e-01 -2.350371e-01 3.771431e-01 4.066235e-01
2 1 2 1.347480e+01 1.535328e+01 -2.000373e+01 -1 -1 2 8.546504e-01 1.835371e-01 -4.783530e-01 -8.405488e-02
3 1 1 1.297482e+01 1.654373e+01 1.978274e+01 -1 -1 1 -6.032191e-01 7.220221e-01 2.195579e-01 -2.580799e-01
4 1 3 1.269406e+01 1.708274e+01 -1.996821e+01 -1 -1 2 -4.371013e-01 8.198146e-01 -3.066337e-03 -3.699149e-01
5 1 1 1.266075e+01 1.749365e+01 -1.995525e+01 -1 -1 2 2.988479e-01 -7.298898e-01 2.726065e-01 5.510322e-01
6 1 2 1.258528e+01 1.802358e+01 1.992480e+01 -1 -1 1 1.699547e-01 -6.987233e-01 4.634396e-01 5.178078e-01
7 1 4 1.256064e+01 1.848791e+01 1.968987e+01 -1 -1 1 1.880347e-02 -5.543261e-01 6.482090e-01 5.217223e-01
8 1 1 1.253752e+01 1.870828e+01 1.921145e+01 -1 -1 1 -1.349059e-01 -3.145541e-01 8.144625e-01 4.685156e-01
9 1 1 1.222373e+01 1.873071e+01 1.871557e+01 -1 -1 1 3.631499e-01 4.962480e-02 -8.667474e-01 -3.382432e-01
10 1 4 1.175945e+01 1.873866e+01 1.836120e+01 -1 -1 1 -5.531965e-01 1.068347e-01 8.049323e-01 1.861290e-01
11 1 1 1.113003e+01 1.877599e+01 1.822564e+01 -1 -1 1 -6.394436e-01 3.245024e-01 6.883837e-01 1.092607e-01
12 1 1 1.066606e+01 1.878786e+01 1.835741e+01 -1 -1 1 6.076975e-01 -5.383602e-01 -5.692267e-01 1.298190e-01
13 1 3 1.023182e+01 1.900775e+01 1.848476e+01 -1 -1 1 -5.918604e-01 6.744325e-01 3.651106e-01 -2.480649e-01
14 1 4 9.844423e+00 1.940492e+01 1.851987e+01 -1 -1 1 3.880050e-01 -8.431993e-01 -1.407057e-01 3.444836e-01
15 1 4 9.626340e+00 1.992022e+01 1.851984e+01 -1 -1 1 2.354873e-01 -8.745461e-01 1.600329e-01 3.925613e-01
16 1 2 9.552247e+00 -1.964810e+01 1.823541e+01 -1 0 1 -2.578879e-01 8.148634e-01 -3.970257e-01 -3.344579e-01
17 1 1 9.644866e+00 -1.924359e+01 1.785875e+01 -1 0 1 6.081211e-02 6.165046e-01 -6.684484e-01 -4.115832e-01
18 1 2 9.595770e+00 -1.903325e+01 1.735838e+01 -1 0 1 -1.479366e-01 -4.831056e-01 8.290134e-01 2.397093e-01
19 1 3 9.380338e+00 -1.915346e+01 1.675156e+01 -1 0 1 -3.129907e-01 -1.251894e-01 9.319617e-01 1.334610e-01
20 1 1 9.064417e+00 -1.917395e+01 1.635550e+01 -1 0 1 -4.564182e-01 2.524385e-02 8.779911e-01 1.420453e-01
21 1 4 8.639750e+00 -1.938806e+01 1.618742e+01 -1 0 1 4.139119e-01 -4.405699e-01 -7.953455e-01 4.472857e-02
22 1 1 7.997513e+00 -1.934617e+01 1.597375e+01 -1 0 1 5.262063e-01 -5.485739e-01 -6.415008e-01 1.032008e-01
23 1 4 7.557199e+00 -1.919565e+01 1.619126e+01 -1 0 1 4.875462e-01 -7.044308e-01 -4.053141e-01 3.190556e-01
24 1 3 7.142124e+00 -1.887888e+01 1.627134e+01 -1 0 1 3.577786e-01 -8.295874e-01 -1.456325e-01 4.032002e-01
25 1 3 6.955557e+00 -1.840132e+01 1.634145e+01 -1 0 1 1.610661e-01 -8.015332e-01 1.433599e-01 5.577188e-01
26 1 4 6.781460e+00 -1.795133e+01 1.603725e+01 -1 0 1 7.611877e-02 -8.080832e-01 3.276022e-01 4.836157e-01
27 1 4 6.692166e+00 -1.757064e+01 1.558963e+01 -1 0 1 -6.769078e-02 -6.831871e-01 5.932509e-01 4.203887e-01
28 1 1 6.596025e+00 -1.735330e+01 1.512124e+01 -1 0 1 -1.519043e-01 -5.171749e-01 7.935693e-01 2.823172e-01
29 1 1 6.504305e+00 -1.734892e+01 1.465588e+01 -1 0 1 -2.371629e-01 -2.875953e-01 9.138592e-01 1.609472e-01
30 1 4 6.323864e+00 -1.758961e+01 1.423993e+01 -1 0 1 2.856956e-01 -3.057105e-02 -9.544605e-01 -8.030346e-02
31 1 4 5.935036e+00 -1.778530e+01 1.388058e+01 -1 0 1 3.896896e-01 -2.558353e-01 -8.845748e-01 1.475680e-02
32 1 3 5.445581e+00 -1.794411e+01 1.368021e+01 -1 0 1 4.387038e-01 -4.388539e-01 -7.642244e-01 1.758048e-01
33 1 3 4.981552e+00 -1.808995e+01 1.375888e+01 -1 0 1 4.729832e-01 -5.585553e-01 -5.758262e-01 3.643173e-01
34 1 1 4.431668e+00 -1.793169e+01 1.390131e+01 -1 0 1 3.375242e-01 -7.389420e-01 -3.463669e-01 4.691184e-01
35 1 2 4.120494e+00 -1.743957e+01 1.400127e+01 -1 0 1 1.358521e-01 -7.819494e-01 -8.186322e-02 6.028248e-01
36 1 2 3.582362e+00 -1.723180e+01 1.389213e+01 -1 0 1 -1.098867e-01 -8.436402e-01 1.124247e-01 5.133779e-01
37 1 1 3.321305e+00 -1.691783e+01 1.356027e+01 -1 0 1 -2.284315e-01 -7.558995e-01 3.786679e-01 4.827480e-01
38 1 1 2.988247e+00 -1.690304e+01 1.318210e+01 -1 0 1 -3.177601e-01 -7.111800e-01 5.568494e-01 2.883926e-01
39 1 4 2.749518e+00 -1.710128e+01 1.268539e+01 -1 0 1 4.235943e-01 6.047455e-01 -6.688710e-01 -8.638477e-02
40 1 4 2.673880e+00 -1.751021e+01 1.236476e+01 -1 0 1 4.527745e-01 3.186575e-01 -8.146157e-01 1.727830e-01
41 1 2 2.576111e+00 -1.809284e+01 1.228610e+01 -1 0 1 3.597526e-01 9.444434e-02 -8.693248e-01 3.254732e-01
42 1 4 2.396797e+00 -1.854673e+01 1.213793e+01 -1 0 1 -3.168131e-01 1.061561e-01 8.168549e-01 -4.702216e-01
43 1 3 2.217653e+00 -1.889348e+01 1.234491e+01 -1 0 1 1.520609e-01 -3.044346e-01 -6.821198e-01 6.472323e-01
44 1 2 1.699465e+00 -1.916634e+01 1.261950e+01 -1 0 1 1.191532e-01 -5.019422e-01 -5.986538e-01 6.127562e-01
45 1 1 1.125709e+00 -1.920002e+01 1.260906e+01 -1 0 1 -1.128638e-01 -7.277302e-01 -3.599523e-01 5.728043e-01
46 1 3 6.454585e-01 -1.902808e+01 1.245796e+01 -1 0 1 -2.876663e-01 -7.701845e-01 -1.049138e-01 5.595150e-01
47 1 4 2.269891e-01 -1.891044e+01 1.213404e+01 -1 0 1 -4.254963e-01 -7.536639e-01 1.731970e-01 4.700494e-01
48 1 1 -1.286053e-01 -1.899402e+01 1.166369e+01 -1 0 1 4.615446e-01 7.372119e-01 -3.366317e-01 -3.607967e-01
49 1 4 -4.236005e-01 -1.915713e+01 1.128782e+01 -1 0 1 6.577705e-01 5.233502e-01 -5.111813e-01 -1.792659e-01
50 1 4 -6.330114e-01 -1.959081e+01 1.102616e+01 -1 0 1 6.652051e-01 3.607556e-01 -6.536829e-01 -7.500624e-03
51 1 4 -8.873684e-01 1.993911e+01 1.090565e+01 -1 -1 1 5.927034e-01 2.388533e-01 -7.163889e-01 2.800692e-01
52 1 1 -9.626248e-01 1.941219e+01 1.107330e+01 -1 -1 1 4.526261e-01 -5.646175e-02 -6.882179e-01 5.641789e-01
53 1 3 -1.308910e+00 1.903976e+01 1.127924e+01 -1 -1 1 -4.692624e-01 1.937320e-01 5.536554e-01 -6.600958e-01
54 1 4 -1.541959e+00 1.889144e+01 1.171995e+01 -1 -1 1 -2.664178e-01 3.338940e-01 3.153838e-01 -8.473898e-01
55 1 4 -1.973410e+00 1.891111e+01 1.211217e+01 -1 -1 1 1.027402e-01 -4.911802e-01 -2.013960e-01 8.412051e-01
56 1 4 -2.438745e+00 1.910801e+01 1.234334e+01 -1 -1 1 -2.401114e-01 -5.520192e-01 -8.301542e-02 7.941850e-01
57 1 1 -2.932858e+00 1.912270e+01 1.250661e+01 -1 -1 1 4.380112e-01 5.856815e-01 -1.341609e-02 -6.818676e-01
58 1 1 -3.412155e+00 1.901100e+01 1.242357e+01 -1 -1 1 -6.475055e-01 -5.650623e-01 2.010497e-01 4.701278e-01
59 1 3 -3.789160e+00 1.869548e+01 1.237606e+01 -1 -1 1 7.217201e-01 5.955769e-01 -2.140014e-01 -2.803776e-01
60 1 4 -4.066055e+00 1.833023e+01 1.223044e+01 -1 -1 1 7.648767e-01 4.843268e-01 -4.213881e-01 5.313425e-02
61 1 2 -4.187513e+00 1.778418e+01 1.210531e+01 -1 -1 1 -7.255605e-01 -4.060047e-01 4.750317e-01 -2.882136e-01
62 1 3 -4.028244e+00 1.734798e+01 1.216836e+01 -1 -1 1 5.352155e-01 2.905518e-01 -5.395365e-01 5.813986e-01
63 1 2 -4.052144e+00 1.686208e+01 1.254754e+01 -1 -1 1 -4.209121e-01 -1.756501e-02 5.989323e-01 -6.810320e-01
64 1 4 -4.217108e+00 1.646033e+01 1.297317e+01 -1 -1 1 -2.993523e-01 1.314650e-01 5.467521e-01 -7.708225e-01
65 1 2 -4.346477e+00 1.644689e+01 1.350284e+01 -1 -1 1 9.590136e-03 1.912346e-01 4.102054e-01 -8.916664e-01
66 1 1 -4.140976e+00 1.505663e+01 1.384455e+01 -1 -1 1 -9.095018e-01 2.637089e-01 -3.973932e-02 3.188806e-01
67 1 2 -4.033836e+00 1.515470e+01 1.435988e+01 -1 -1 1 -9.372115e-01 2.400012e-01 -2.234431e-01 1.187737e-01
68 1 1 -3.650710e+00 1.501658e+01 1.466695e+01 -1 -1 1 8.946776e-01 -4.908593e-02 1.950739e-01 3.988592e-01
69 1 1 -4.545730e+00 1.397923e+01 1.499907e+01 -1 -1 1 -3.565875e-01 -6.441168e-02 7.545719e-01 5.470995e-01
70 1 2 -3.537883e+00 1.420562e+01 1.494498e+01 -1 -1 1 -4.717823e-01 -7.214125e-01 -3.573559e-01 -3.595583e-01
71 1 3 -3.832919e+00 1.286161e+01 1.514027e+01 -1 -1 1 -6.431373e-01 -2.136442e-01 7.268457e-01 -1.114717e-01
72 1 4 -4.040292e+00 1.243789e+01 1.517327e+01 -1 -1 1 4.685930e-01 -1.122197e-01 -7.307196e-01 4.836075e-01
73 1 1 -4.403973e+00 1.211698e+01 1.539130e+01 -1 -1 1 3.271203e-01 -3.994463e-01 -6.455688e-01 5.627396e-01
74 1 1 -4.790492e+00 1.187228e+01 1.546921e+01 -1 -1 1 -1.597102e-01 6.466857e-01 3.916687e-01 -6.347330e-01
75 1 3 -4.007809e+00 1.109035e+01 1.638286e+01 -1 -1 1 -8.350071e-01 4.086085e-01 2.477053e-01 -2.728448e-01
76 1 1 -3.694740e+00 1.053163e+01 1.621549e+01 -1 -1 1 1.792297e-01 -4.495948e-01 7.595312e-01 4.345730e-01
77 1 4 -3.623837e+00 1.072621e+01 1.566558e+01 -1 -1 1 -1.108777e-01 -9.837959e-02 8.914927e-01 4.280985e-01
78 1 1 -3.918524e+00 1.084984e+01 1.523596e+01 -1 -1 1 2.690030e-01 -1.627040e-01 -9.028300e-01 -2.933645e-01
79 1 4 -3.406450e+00 1.147248e+01 1.497944e+01 -1 -1 1 5.598166e-02 1.488994e-01 7.056679e-01 -6.904548e-01
80 1 2 -2.693714e+00 1.165645e+01 1.492744e+01 -1 -1 1 4.048376e-01 -1.708132e-01 1.193437e-01 -8.903294e-01
81 1 4 -1.874135e+00 1.190112e+01 1.519716e+01 -1 -1 1 -4.982636e-01 6.062005e-01 -6.125651e-01 -9.496513e-02
82 1 4 -2.248958e+00 1.202677e+01 1.592904e+01 -1 -1 1 4.940854e-01 5.220417e-01 -6.937383e-01 -4.559941e-02
83 1 4 -3.145347e+00 1.236788e+01 1.680761e+01 -1 -1 1 1.497105e-01 -4.926706e-01 2.100188e-01 -8.311165e-01
84 1 4 -2.946932e+00 1.252017e+01 1.723928e+01 -1 -1 1 4.928569e-01 -4.613661e-01 3.940398e-01 -6.236714e-01
85 1 1 -2.652194e+00 1.242268e+01 1.766033e+01 -1 -1 1 -7.353191e-01 2.673060e-01 -4.942818e-01 3.788651e-01
86 1 1 -3.478467e+00 1.332768e+01 1.840481e+01 -1 -1 1 -5.136397e-03 -3.384368e-02 5.014148e-01 -8.645296e-01
87 1 3 -4.297564e+00 1.300184e+01 1.804371e+01 -1 -1 1 -5.121584e-01 -1.587918e-01 -6.501123e-01 5.383614e-01
88 1 2 -4.543427e+00 1.426347e+01 1.822700e+01 -1 -1 1 1.441447e-01 -7.989182e-01 -4.764432e-01 3.375706e-01
89 1 2 -4.945240e+00 1.443866e+01 1.799830e+01 -1 -1 1 7.164536e-02 -9.415451e-01 -8.019073e-02 3.192635e-01
90 1 3 -5.142750e+00 1.465307e+01 1.751953e+01 -1 -1 1 1.572614e-02 9.459420e-01 -2.492335e-01 -2.069519e-01
91 1 3 -6.174477e+00 1.490340e+01 1.778214e+01 -1 -1 1 6.339462e-01 2.826844e-01 4.865728e-01 -5.305174e-01
92 1 2 -6.215418e+00 1.554903e+01 1.895428e+01 -1 -1 1 -4.584146e-01 7.462446e-01 4.568567e-01 -1.557468e-01
93 1 1 -6.266461e+00 1.543427e+01 1.776599e+01 -1 -1 1 5.484311e-01 -5.189666e-01 5.783822e-01 3.088222e-01
94 1 2 -6.948928e+00 1.542348e+01 1.790190e+01 -1 -1 1 3.570558e-01 4.669187e-01 -7.029609e-01 4.004299e-01
95 1 3 -6.267406e+00 1.540081e+01 1.688501e+01 -1 -1 1 -9.828238e-01 -1.444819e-01 2.846852e-02 -1.112287e-01
96 1 2 -5.775808e+00 1.619303e+01 1.656110e+01 -1 -1 1 3.821626e-01 8.433192e-01 -2.844087e-01 2.487490e-01
97 1 2 -5.406273e+00 1.596832e+01 1.633586e+01 -1 -1 1 -2.993631e-01 -7.249540e-01 4.737165e-01 -4.005198e-01
98 1 4 -4.992532e+00 1.576292e+01 1.620361e+01 -1 -1 1 1.231003e-01 5.146269e-01 -7.034804e-01 4.744690e-01
99 1 2 -5.134306e+00 1.580001e+01 1.592238e+01 -1 -1 1 1.860789e-01 -5.754617e-01 -3.812403e-01 6.991954e-01
100 1 1 -5.130128e+00 1.447900e+01 1.526679e+01 -1 -1 1 4.073202e-01 -5.255994e-01 7.278632e-01 1.674832e-01
101 2 4 2.561485e+00 1.006949e+01 1.008725e+01 -1 -1 1 -1.305027e-01 8.935007e-01 -2.575510e-01 3.439374e-01
102 2 3 2.311313e+00 1.036014e+01 9.526458e+00 -1 -1 1 8.807368e-01 -4.633595e-01 7.044600e-02 6.810241e-02
103 2 1 2.134840e+00 1.087580e+01 8.184911e+00 -1 -1 1 7.414895e-01 -9.168495e-02 4.278989e-01 5.086155e-01
104 2 3 2.511096e+00 1.062952e+01 8.454983e+00 -1 -1 1 3.138554e-01 -4.072762e-01 8.039769e-01 -2.987339e-01
105 2 3 2.106604e+00 1.184777e+01 9.061011e+00 -1 -1 1 -2.963598e-01 2.284306e-01 6.192163e-01 -6.903344e-01
106 2 2 1.691973e+00 1.248555e+01 8.934916e+00 -1 -1 1 3.250419e-01 -2.827277e-01 -8.227870e-02 -8.986896e-01
107 2 3 1.653955e+00 1.269410e+01 9.402780e+00 -1 -1 1 -6.845442e-01 2.542232e-01 1.658304e-02 6.830043e-01
108 2 4 1.487563e+00 1.272518e+01 9.881242e+00 -1 -1 1 8.882948e-01 -2.800437e-01 4.294963e-02 -3.614736e-01
109 2 3 2.846825e-01 1.305315e+01 1.007293e+01 -1 -1 1 5.313094e-01 -3.641277e-01 -7.027893e-01 -3.020075e-01
110 2 2 3.355612e-01 1.331445e+01 8.824146e+00 -1 -1 1 7.277919e-01 1.668369e-01 6.651864e-01 -3.388898e-03
111 2 2 -6.638873e-01 1.384499e+01 9.552995e+00 -1 -1 1 1.955843e-01 -7.444758e-01 -6.220218e-01 -1.434968e-01
112 2 3 -1.379668e+00 1.346176e+01 9.640963e+00 -1 -1 1 -2.319347e-01 5.567815e-01 1.322541e-01 7.865809e-01
113 2 3 -1.275169e+00 1.307390e+01 8.648295e+00 -1 -1 1 -6.526532e-02 8.587650e-02 -2.772600e-01 -9.547212e-01
114 2 2 -1.717977e+00 1.267561e+01 9.211609e+00 -1 -1 1 8.033499e-02 5.180666e-01 4.794070e-02 8.502088e-01
115 2 4 -2.141767e+00 1.205339e+01 8.886681e+00 -1 -1 1 -2.087243e-01 5.693232e-01 -2.920685e-01 7.395953e-01
116 2 4 -2.298112e+00 1.205874e+01 9.045341e+00 -1 -1 1 7.418248e-01 2.812441e-01 -5.688725e-01 2.167528e-01
117 2 1 -2.542644e+00 1.282427e+01 9.171631e+00 -1 -1 1 8.112352e-02 7.710326e-01 -5.532330e-01 3.047309e-01
118 2 1 -3.219311e+00 1.338268e+01 9.923083e+00 -1 -1 1 -6.524792e-03 5.601745e-01 -2.626863e-01 7.855940e-01
119 2 1 -2.716333e+00 1.321012e+01 1.020936e+01 -1 -1 1 1.104773e-01 -3.314640e-01 4.739582e-01 -8.082636e-01
120 2 1 -2.389431e+00 1.284375e+01 1.055957e+01 -1 -1 1 -2.433864e-01 6.906835e-03 -7.134789e-01 6.570108e-01
121 2 3 -2.064286e+00 1.284943e+01 1.125936e+01 -1 -1 1 -6.572784e-01 1.809458e-01 -2.524762e-01 6.866582e-01
122 2 1 -2.162612e+00 1.415313e+01 1.095687e+01 -1 -1 1 -2.979694e-01 8.394499e-01 4.543150e-01 1.166143e-02
123 2 4 -2.345467e+00 1.455397e+01 1.091861e+01 -1 -1 1 3.899295e-01 -8.866363e-01 -8.069931e-02 2.351992e-01
124 2 1 -3.317600e+00 1.417593e+01 1.170428e+01 -1 -1 1 4.898364e-01 -2.632298e-01 -7.713397e-01 3.095246e-01
125 2 4 -3.702496e+00 1.391830e+01 1.178981e+01 -1 -1 1 -2.282299e-01 5.667487e-01 6.127079e-01 -5.012943e-01
126 2 2 -4.201937e+00 1.388660e+01 1.180886e+01 -1 -1 1 8.958415e-02 -7.481527e-01 -3.301820e-01 5.685262e-01
127 2 4 -4.702048e+00 1.391800e+01 1.156581e+01 -1 -1 1 8.941550e-02 -8.800495e-01 -1.470325e-01 4.426050e-01
128 2 4 -5.024879e+00 1.420619e+01 1.138549e+01 -1 -1 1 -5.913704e-02 -8.807168e-01 1.969764e-01 4.266627e-01
129 2 1 -5.842014e+00 1.366320e+01 1.094452e+01 -1 -1 1 -2.200736e-01 -6.141515e-01 6.665495e-01 3.606900e-01
130 2 2 -6.206239e+00 1.369314e+01 1.053379e+01 -1 -1 1 -3.727814e-01 -6.556403e-01 6.367369e-01 1.604243e-01
131 2 3 -6.975466e+00 1.521880e+01 1.106143e+01 -1 -1 1 -2.677967e-01 2.654958e-01 3.296191e-01 -8.655335e-01
132 2 4 -7.402602e+00 1.538921e+01 1.131144e+01 -1 -1 1 2.006375e-01 -1.674823e-01 -5.473680e-01 -7.950362e-01
133 2 4 -6.848648e+00 1.618166e+01 1.144639e+01 -1 -1 1 -9.993570e-02 -7.102633e-01 -6.871725e-01 1.154677e-01
134 2 3 -6.239593e+00 1.592051e+01 1.198350e+01 -1 -1 1 -1.342299e-01 8.740057e-02 9.866636e-01 -2.895464e-02
135 2 4 -4.833115e+00 1.620847e+01 1.205313e+01 -1 -1 1 4.735493e-01 5.453021e-01 -6.827903e-01 1.104267e-01
136 2 3 -5.424714e+00 1.676091e+01 1.292512e+01 -1 -1 1 -5.762503e-01 7.420512e-01 2.545110e-02 3.415374e-01
137 2 1 -5.140274e+00 1.722372e+01 1.311422e+01 -1 -1 1 5.783267e-01 -7.358977e-01 3.256587e-01 -1.339371e-01
138 2 3 -4.781877e+00 1.761694e+01 1.314062e+01 -1 -1 1 -6.370140e-01 5.686001e-01 -5.097361e-01 1.052437e-01
139 2 2 -4.294964e+00 1.767748e+01 1.330355e+01 -1 -1 1 -6.694679e-01 3.300619e-01 -6.438965e-01 -1.681341e-01
140 2 3 -3.773707e+00 1.786873e+01 1.326336e+01 -1 -1 1 -5.523182e-01 2.309516e-01 -7.740199e-01 -2.061532e-01
141 2 1 -3.342964e+00 1.784631e+01 1.300185e+01 -1 -1 1 4.360865e-01 1.067914e-01 8.227289e-01 3.486278e-01
142 2 2 -2.973487e+00 1.784931e+01 1.254987e+01 -1 -1 1 2.631872e-01 3.216884e-01 8.284699e-01 3.753489e-01
143 2 4 -2.898695e+00 1.801050e+01 1.198815e+01 -1 -1 1 7.595227e-02 5.314644e-01 7.164085e-01 4.455735e-01
144 2 4 -2.837285e+00 1.832366e+01 1.158705e+01 -1 -1 1 -9.452048e-02 6.446690e-01 5.853919e-01 4.824771e-01
145 2 1 -2.898720e+00 1.877318e+01 1.132858e+01 -1 -1 1 3.415047e-01 -8.019494e-01 -3.088620e-01 -3.805995e-01
146 2 1 -2.551314e+00 1.932811e+01 1.124932e+01 -1 -1 1 3.667236e-01 -7.775842e-01 -9.717794e-02 -5.014310e-01
147 2 1 -2.327242e+00 1.977206e+01 1.133868e+01 -1 -1 1 5.229597e-01 -7.231170e-01 2.057603e-01 -4.015939e-01
148 2 2 -1.901762e+00 2.004733e+01 1.158973e+01 -1 -1 1 6.746559e-01 -5.363834e-01 3.649930e-01 -3.520119e-01
149 2 4 -1.544038e+00 -2.001368e+01 1.193124e+01 -1 0 1 -7.611225e-01 3.421817e-01 -5.486353e-01 5.102582e-02
150 2 1 -1.023042e+00 -2.002464e+01 1.209073e+01 -1 0 1 -7.454053e-01 1.575059e-01 -6.466947e-01 -3.672591e-02
151 2 1 -4.660707e-01 1.997563e+01 1.209649e+01 -1 -1 1 -6.284489e-01 -1.098344e-02 -7.391240e-01 -2.421302e-01
152 2 1 -1.800123e-02 1.983859e+01 1.190566e+01 -1 -1 1 -5.424617e-01 -2.564323e-01 -6.504132e-01 -4.657687e-01
153 2 4 5.253155e-01 1.999336e+01 1.170157e+01 -1 -1 1 -3.604389e-01 -2.777066e-01 -6.413615e-01 -6.177526e-01
154 2 1 8.705335e-01 -1.982721e+01 1.144784e+01 -1 0 1 -1.802427e-01 -5.019311e-01 -4.888256e-01 -6.903820e-01
155 2 2 1.010131e+00 -1.935036e+01 1.137219e+01 -1 0 1 1.455438e-01 -6.009657e-01 -3.719896e-01 -6.923012e-01
156 2 4 1.195066e+00 -1.882119e+01 1.149985e+01 -1 0 1 3.760879e-01 -5.869154e-01 -2.085071e-01 -6.860124e-01
157 2 3 1.109463e+00 -1.842793e+01 1.186851e+01 -1 0 1 6.633146e-01 -5.953222e-01 -6.245862e-02 -4.491148e-01
158 2 2 1.240197e+00 -1.814638e+01 1.228090e+01 -1 0 1 7.796029e-01 -5.486770e-01 1.980907e-01 -2.278882e-01
159 2 1 1.511205e+00 -1.791824e+01 1.271324e+01 -1 0 1 8.146184e-01 -4.216116e-01 3.701370e-01 -1.471021e-01
160 2 3 1.838968e+00 -1.790912e+01 1.313861e+01 -1 0 1 -8.603844e-01 2.147592e-01 -4.620856e-01 -9.698981e-03
161 2 1 2.213877e+00 -1.805832e+01 1.334933e+01 -1 0 1 -8.114703e-01 -3.536604e-02 -4.796346e-01 -3.319878e-01
162 2 1 2.729541e+00 -1.812785e+01 1.330450e+01 -1 0 1 -6.500346e-01 -2.475886e-01 -4.874465e-01 -5.277792e-01
163 2 4 3.158066e+00 -1.806577e+01 1.311166e+01 -1 0 1 -4.819429e-01 -4.420257e-01 -4.589412e-01 -6.014293e-01
164 2 4 3.627992e+00 -1.790899e+01 1.296297e+01 -1 0 1 -3.213955e-01 -5.292333e-01 -3.611940e-01 -6.972489e-01
165 2 3 4.020785e+00 -1.769072e+01 1.289246e+01 -1 0 1 -3.204512e-02 -5.903934e-01 -2.185295e-01 -7.763076e-01
166 2 3 4.409333e+00 -1.729463e+01 1.295727e+01 -1 0 1 1.837074e-01 -5.916842e-01 7.595353e-03 -7.849227e-01
167 2 4 4.846752e+00 -1.694315e+01 1.329628e+01 -1 0 1 4.020272e-01 -4.488396e-01 1.727235e-01 -7.791558e-01
168 2 2 5.024050e+00 -1.689825e+01 1.381058e+01 -1 0 1 6.721067e-01 -2.245679e-01 2.672576e-01 -6.530048e-01
169 2 2 5.106636e+00 -1.698449e+01 1.430035e+01 -1 0 1 8.020565e-01 -3.694732e-02 3.357768e-01 -4.925386e-01
170 2 1 5.135603e+00 -1.730875e+01 1.468372e+01 -1 0 1 9.309493e-01 3.430811e-02 3.214002e-01 -1.698772e-01
171 2 1 5.384288e+00 -1.762395e+01 1.497871e+01 -1 0 1 -9.042834e-01 -2.464707e-01 -3.382330e-01 8.439256e-02
172 2 4 5.608392e+00 -1.809078e+01 1.504445e+01 -1 0 1 -8.629937e-01 -3.731260e-01 -2.738458e-01 -2.025521e-01
173 2 4 6.105640e+00 -1.843962e+01 1.492967e+01 -1 0 1 -7.419331e-01 -4.299906e-01 -1.457476e-01 -4.933569e-01
174 2 1 6.595043e+00 -1.861670e+01 1.503593e+01 -1 0 1 -5.343073e-01 -4.896630e-01 -1.885097e-01 -6.627292e-01
175 2 1 7.058744e+00 -1.852260e+01 1.506568e+01 -1 0 1 -2.655080e-01 -5.376386e-01 -5.673777e-02 -7.982676e-01
176 2 2 7.562132e+00 -1.845568e+01 1.528128e+01 -1 0 1 -6.227273e-02 -4.763277e-01 -3.221370e-02 -8.764681e-01
177 2 2 7.881310e+00 -1.822044e+01 1.558879e+01 -1 0 1 2.708897e-01 -3.689514e-01 1.591136e-01 -8.747437e-01
178 2 1 8.000207e+00 -1.809727e+01 1.611434e+01 -1 0 1 5.768216e-01 -2.768703e-01 3.187943e-01 -6.992781e-01
179 2 4 8.207889e+00 -1.826089e+01 1.655697e+01 -1 0 1 6.846452e-01 -2.759112e-02 3.889993e-01 -6.157753e-01
180 2 1 8.193874e+00 -1.862536e+01 1.695510e+01 -1 0 1 8.581502e-01 1.410912e-01 3.361678e-01 -3.614731e-01
181 2 4 8.298671e+00 -1.910657e+01 1.729020e+01 -1 0 1 -8.324423e-01 -2.799527e-01 -4.248582e-01 2.194582e-01
182 2 2 8.551242e+00 -1.959450e+01 1.746002e+01 -1 0 1 -8.495518e-01 -3.116483e-01 -4.187005e-01 -7.633403e-02
183 2 3 8.894399e+00 1.998534e+01 1.734536e+01 -1 -1 1 -7.475668e-01 -4.782784e-01 -2.313586e-01 -3.985810e-01
184 2 4 9.415348e+00 1.971600e+01 1.727560e+01 -1 -1 1 -5.869243e-01 -5.311671e-01 -1.508636e-01 -5.921331e-01
185 2 3 9.965068e+00 1.973333e+01 1.733682e+01 -1 -1 1 3.425039e-01 4.776781e-01 -1.194188e-02 8.089327e-01
186 2 1 1.043708e+01 1.982072e+01 1.764181e+01 -1 -1 1 1.252169e-01 3.547165e-01 -1.082936e-01 9.202008e-01
187 2 1 1.073237e+01 1.998139e+01 1.796069e+01 -1 -1 1 2.079301e-01 -3.245676e-01 2.295147e-01 -8.937247e-01
188 2 2 1.099167e+01 1.991585e+01 1.853454e+01 -1 -1 1 -3.194317e-01 2.003260e-01 -3.641106e-01 8.516198e-01
189 2 4 1.103468e+01 1.969301e+01 1.900253e+01 -1 -1 1 -6.004696e-01 -1.041712e-02 -4.429890e-01 6.656490e-01
190 2 4 1.110960e+01 1.925392e+01 1.927933e+01 -1 -1 1 -7.756243e-01 -1.820976e-01 -4.588030e-01 3.933793e-01
191 2 1 1.122514e+01 1.872246e+01 1.939785e+01 -1 -1 1 7.949988e-01 3.304783e-01 4.823546e-01 -1.615397e-01
192 2 4 1.135301e+01 1.824958e+01 1.934028e+01 -1 -1 1 -7.582493e-01 -5.521642e-01 -3.327088e-01 -9.735253e-02
193 2 4 1.163195e+01 1.790304e+01 1.911849e+01 -1 -1 1 6.362318e-01 6.937957e-01 1.913691e-01 2.779108e-01
194 2 1 1.206939e+01 1.759444e+01 1.899850e+01 -1 -1 1 -5.568540e-01 -6.257434e-01 -7.454030e-02 -5.411123e-01
195 2 3 1.253449e+01 1.752910e+01 1.885173e+01 -1 -1 1 2.858883e-01 6.514728e-01 -4.921785e-02 7.010197e-01
196 2 4 1.307883e+01 1.751787e+01 1.895419e+01 -1 -1 1 -1.683337e-01 -5.104024e-01 2.106631e-01 -8.165624e-01
197 2 2 1.352906e+01 1.739858e+01 1.924075e+01 -1 -1 1 8.389798e-03 -3.831782e-01 2.621091e-01 -8.856652e-01
198 2 4 1.376882e+01 1.737831e+01 1.966062e+01 -1 -1 1 -3.642779e-01 2.892150e-01 -3.977873e-01 7.908360e-01
199 2 3 1.451800e+01 1.812244e+01 1.839860e+01 -1 -1 1 -5.887081e-01 -3.829910e-01 -2.360452e-01 -6.715827e-01
200 2 4 1.495711e+01 1.833325e+01 1.827253e+01 -1 -1 1 2.292900e-01 5.700852e-01 -1.108831e-02 7.888638e-01
