ITEM: TIMESTEP
31000000
ITEM: NUMBER OF ATOMS
200
ITEM: BOX BOUNDS pp pp pp
-2.0000000000000000e+01 2.0000000000000000e+01
-2.0000000000000000e+01 2.0000000000000000e+01
-2.0000000000000000e+01 2.0000000000000000e+01
ITEM: ATOMS id mol type x y z ix iy iz c_quat[1] c_quat[2] c_quat[3] c_quat[4]
1 1 1 1.199180e+01 9.591462e+00 1.084973e+01 -1 -1 0 2.377560e-01 1.725624e-02 -1.327726e-01 -9.620529e-01
2 1 2 1.191440e+01 9.864068e+00 1.113340e+01 -1 -1 0 -6.507544e-01 1.762908e-01 -2.550581e-02 7.380988e-01
3 1 1 1.175464e+01 9.715359e+00 1.161773e+01 -1 -1 0 -9.575373e-01 1.818867e-01 -8.393640e-02 2.073506e-01
4 1 3 1.187955e+01 9.546550e+00 1.204145e+01 -1 -1 0 8.971686e-01 -1.166099e-01 2.752474e-02 4.251270e-01
5 1 1 1.208532e+01 9.440738e+00 1.235367e+01 -1 -1 0 6.161414e-01 1.424994e-02 1.076970e-01 7.801077e-01
6 1 2 1.122821e+01 8.721612e+00 1.259963e+01 -1 -1 0 3.659189e-02 -3.907048e-01 -2.102924e-01 8.954261e-01
7 1 4 1.085926e+01 8.792910e+00 1.287625e+01 -1 -1 0 1.900552e-01 5.416113e-01 -2.545513e-02 -8.184670e-01
8 1 1 1.168915e+01 9.305208e+00 1.330035e+01 -1 -1 0 -2.196785e-01 3.799810e-01 5.945647e-02 -8.965605e-01
9 1 1 1.198265e+01 9.209144e+00 1.429411e+01 -1 -1 0 3.573910e-02 3.271664e-01 3.006332e-02 9.438120e-01
10 1 4 1.219961e+01 9.613758e+00 1.469648e+01 -1 -1 0 3.421470e-01 -4.408015e-01 8.571208e-02 -8.253986e-01
11 1 1 1.233193e+01 9.821030e+00 1.518866e+01 -1 -1 0 7.172087e-01 -3.722256e-01 1.516596e-01 -5.692619e-01
12 1 1 1.243262e+01 9.884980e+00 1.567866e+01 -1 -1 0 8.822498e-01 -2.534247e-01 2.888264e-01 -2.720119e-01
13 1 3 1.284645e+01 9.710951e+00 1.610608e+01 -1 -1 0 8.701193e-01 -1.691896e-01 4.627575e-01 1.108461e-02
14 1 4 1.328010e+01 9.538602e+00 1.630714e+01 -1 -1 0 8.092626e-01 -8.654353e-04 5.306450e-01 2.520101e-01
15 1 4 1.388911e+01 9.441400e+00 1.617986e+01 -1 -1 0 -6.849348e-01 -1.269891e-01 -4.988812e-01 -5.156118e-01
16 1 2 1.437062e+01 9.476995e+00 1.618870e+01 -1 -1 0 -5.184137e-01 -3.020543e-01 -4.400991e-01 -6.680743e-01
17 1 1 1.482889e+01 9.743698e+00 1.619275e+01 -1 -1 0 3.610055e-01 2.995916e-01 5.073264e-01 7.228692e-01
18 1 2 1.510284e+01 1.013588e+01 1.605894e+01 -1 -1 0 7.792692e-02 4.517514e-01 3.054223e-01 8.346049e-01
19 1 3 1.540644e+01 1.060978e+01 1.616391e+01 -1 -1 0 -2.758900e-01 4.202072e-01 2.351979e-01 8.318609e-01
20 1 1 1.537963e+01 1.102736e+01 1.636861e+01 -1 -1 0 -5.270135e-01 4.494106e-01 1.704942e-01 7.008699e-01
21 1 4 1.534490e+01 1.140404e+01 1.672929e+01 -1 -1 0 7.049620e-01 -4.445617e-01 -2.438259e-02 -5.520860e-01
22 1 1 1.533831e+01 1.152728e+01 1.725239e+01 -1 -1 0 8.436093e-01 -4.550666e-01 1.572927e-01 -2.376905e-01
23 1 4 1.566080e+01 1.174504e+01 1.762751e+01 -1 -1 0 8.687374e-01 -3.663513e-01 2.719496e-01 -1.926797e-01
24 1 3 1.592599e+01 1.178929e+01 1.808496e+01 -1 -1 0 8.969963e-01 -2.099446e-01 3.632764e-01 -1.391088e-01
25 1 3 1.631025e+01 1.168146e+01 1.840392e+01 -1 -1 0 8.775727e-01 -2.284954e-02 4.561779e-01 1.457591e-01
26 1 4 1.678349e+01 1.155415e+01 1.852133e+01 -1 -1 0 7.993493e-01 6.767994e-02 4.583617e-01 3.825763e-01
27 1 4 1.730143e+01 1.160735e+01 1.860530e+01 -1 -1 0 6.347570e-01 1.835440e-01 4.782221e-01 5.785315e-01
28 1 1 1.778775e+01 1.174769e+01 1.866030e+01 -1 -1 0 4.416984e-01 2.645294e-01 5.381836e-01 6.672969e-01
29 1 1 1.818885e+01 1.206243e+01 1.848331e+01 -1 -1 0 1.419875e-01 4.515180e-01 4.112337e-01 7.790108e-01
30 1 4 1.843706e+01 1.252948e+01 1.840721e+01 -1 -1 0 9.528470e-02 -4.674534e-01 -3.981237e-01 -7.835213e-01
31 1 4 1.856675e+01 1.294634e+01 1.826474e+01 -1 -1 0 3.436477e-01 -6.090436e-01 -3.107390e-01 -6.437495e-01
32 1 3 1.854220e+01 1.344441e+01 1.852621e+01 -1 -1 0 5.436515e-01 -6.245096e-01 -1.755958e-01 -5.325382e-01
33 1 3 1.862248e+01 1.391428e+01 1.877499e+01 -1 -1 0 6.653519e-01 -6.239413e-01 2.461014e-02 -4.091435e-01
34 1 1 1.886660e+01 1.431313e+01 1.911401e+01 -1 -1 0 7.510357e-01 -5.226075e-01 2.636420e-01 -3.054828e-01
35 1 2 1.917659e+01 1.440659e+01 1.956597e+01 -1 -1 0 8.162364e-01 -3.833578e-01 4.264116e-01 -7.048476e-02
36 1 2 1.964327e+01 1.446781e+01 1.977220e+01 -1 -1 0 7.319632e-01 -2.875667e-01 5.393920e-01 3.009844e-01
37 1 1 -1.983042e+01 1.450414e+01 1.977233e+01 0 -1 0 6.513141e-01 -4.960095e-02 6.789164e-01 3.352644e-01
38 1 1 -1.936719e+01 1.447907e+01 1.959498e+01 0 -1 0 4.919894e-01 2.835551e-01 6.649836e-01 4.851183e-01
39 1 4 -1.897317e+01 1.458220e+01 1.925363e+01 0 -1 0 -2.757275e-01 -4.566801e-01 -6.547333e-01 -5.354828e-01
40 1 4 -1.858722e+01 1.482286e+01 1.898290e+01 0 -1 0 -1.400773e-01 -5.293326e-01 -5.927298e-01 -5.906409e-01
41 1 2 -1.839947e+01 1.525804e+01 1.869361e+01 0 -1 0 1.556095e-01 -6.796158e-01 -3.246799e-01 -6.391330e-01
42 1 4 -1.822906e+01 1.576139e+01 1.866992e+01 0 -1 0 3.548134e-01 -7.129737e-01 -9.508281e-02 -5.972731e-01
43 1 3 -1.798193e+01 1.617097e+01 1.873608e+01 0 -1 0 4.959491e-01 -6.602906e-01 7.030970e-02 -5.595600e-01
44 1 2 -1.782633e+01 1.639259e+01 1.917529e+01 0 -1 0 7.401957e-01 -5.526825e-01 1.431976e-01 -3.551715e-01
45 1 1 -1.750271e+01 1.659328e+01 1.961434e+01 0 -1 0 8.577377e-01 -3.696602e-01 2.445502e-01 -2.604469e-01
46 1 3 -1.716586e+01 1.656945e+01 -1.989195e+01 0 -1 1 8.727260e-01 -2.502809e-01 4.190373e-01 -1.079498e-02
47 1 4 -1.671454e+01 1.664513e+01 -1.963931e+01 0 -1 1 7.928198e-01 -1.214260e-01 5.557177e-01 2.187929e-01
48 1 1 -1.618146e+01 1.682378e+01 -1.948089e+01 0 -1 1 -7.550590e-01 -1.274274e-04 -6.350606e-01 -1.630458e-01
49 1 4 -1.565129e+01 1.663838e+01 -1.958006e+01 0 -1 1 -6.228387e-01 -2.380026e-01 -6.227105e-01 -4.094610e-01
50 1 4 -1.527963e+01 1.653006e+01 -1.994813e+01 0 -1 1 -4.327509e-01 -5.052792e-01 -5.273691e-01 -5.284897e-01
51 1 4 -1.473375e+01 1.670674e+01 1.987485e+01 0 -1 0 -2.373524e-01 -5.112815e-01 -5.240923e-01 -6.384218e-01
52 1 1 -1.446956e+01 1.712793e+01 1.968556e+01 0 -1 0 2.292318e-02 -6.552001e-01 -3.087549e-01 -6.890992e-01
53 1 3 -1.423050e+01 1.760911e+01 1.962774e+01 0 -1 0 2.623272e-01 -6.632188e-01 -8.206720e-02 -6.961252e-01
54 1 4 -1.392330e+01 1.797871e+01 1.980316e+01 0 -1 0 4.774825e-01 -6.003987e-01 1.108423e-01 -6.318590e-01
55 1 4 -1.356508e+01 1.826439e+01 -1.988490e+01 0 -1 1 5.958946e-01 -4.803116e-01 2.538116e-01 -5.914306e-01
56 1 4 -1.332157e+01 1.828500e+01 -1.944058e+01 0 -1 1 7.794205e-01 -3.003749e-01 4.056692e-01 -3.710945e-01
57 1 1 -1.300560e+01 1.815722e+01 -1.906316e+01 0 -1 1 8.441541e-01 -1.513158e-01 5.100781e-01 -6.578567e-02
58 1 1 -1.257600e+01 1.800245e+01 -1.888969e+01 0 -1 1 8.185793e-01 8.080184e-02 5.684392e-01 1.660936e-02
59 1 3 -1.224439e+01 1.769588e+01 -1.871620e+01 0 -1 1 -7.513574e-01 -3.241016e-01 -5.645991e-01 -1.079262e-01
60 1 4 -1.190026e+01 1.735447e+01 -1.890510e+01 0 -1 1 -6.744787e-01 -4.959011e-01 -3.964384e-01 -3.768251e-01
61 1 2 -1.147221e+01 1.722841e+01 -1.916455e+01 0 -1 1 -4.894312e-01 -6.222602e-01 -2.891970e-01 -5.381584e-01
62 1 3 -1.090529e+01 1.724273e+01 -1.929915e+01 0 -1 1 -3.371651e-01 -5.706721e-01 -1.109801e-01 -7.404974e-01
63 1 2 -1.041536e+01 1.743001e+01 -1.918813e+01 0 -1 1 -3.453375e-02 -5.830406e-01 -3.281648e-02 -8.110451e-01
64 1 4 -1.006336e+01 1.780386e+01 -1.902333e+01 0 -1 1 2.288555e-01 -5.457905e-01 1.808095e-01 -7.855226e-01
65 1 2 -9.753723e+00 1.793499e+01 -1.867952e+01 0 -1 1 4.490295e-01 -4.702836e-01 3.969757e-01 -6.477779e-01
66 1 1 -9.494414e+00 1.794657e+01 -1.824301e+01 0 -1 1 5.698370e-01 -3.408337e-01 3.634778e-01 -6.534539e-01
67 1 2 -9.356264e+00 1.780553e+01 -1.776662e+01 0 -1 1 7.788428e-01 -1.875347e-01 4.479931e-01 -3.969090e-01
68 1 1 -9.048108e+00 1.746476e+01 -1.745092e+01 0 -1 1 8.458703e-01 7.287428e-02 5.214244e-01 -8.549502e-02
69 1 1 -8.440832e+00 1.717854e+01 -1.735657e+01 0 -1 1 7.545981e-01 1.268828e-01 6.431204e-01 2.964247e-02
70 1 2 -8.023418e+00 1.696946e+01 -1.747676e+01 0 -1 1 -6.478778e-01 -3.633747e-01 -6.412299e-01 -1.924511e-01
71 1 3 -7.657194e+00 1.677619e+01 -1.780637e+01 0 -1 1 -5.317746e-01 -5.357917e-01 -4.928860e-01 -4.326736e-01
72 1 4 -7.189178e+00 1.676445e+01 -1.804820e+01 0 -1 1 -2.903805e-01 -6.519057e-01 -4.434349e-01 -5.422763e-01
73 1 1 -6.806183e+00 1.709792e+01 -1.827701e+01 0 -1 1 -6.025818e-02 -7.017570e-01 -3.669382e-01 -6.076696e-01
74 1 1 -6.407707e+00 1.753414e+01 -1.849385e+01 0 -1 1 1.337428e-01 -6.994964e-01 -1.828485e-01 -6.777788e-01
75 1 3 -6.087442e+00 1.795765e+01 -1.847337e+01 0 -1 1 4.105264e-01 -7.086344e-01 3.190324e-02 -5.729638e-01
76 1 1 -5.803218e+00 1.831909e+01 -1.824915e+01 0 -1 1 5.485234e-01 -6.815991e-01 2.474232e-01 -4.163250e-01
77 1 4 -5.358663e+00 1.857400e+01 -1.792187e+01 0 -1 1 6.755874e-01 -5.232918e-01 4.184046e-01 -3.077092e-01
78 1 1 -4.781529e+00 1.860580e+01 -1.766004e+01 0 -1 1 6.603431e-01 -3.507315e-01 5.942359e-01 -2.963413e-01
79 1 4 -4.244116e+00 1.831807e+01 -1.749596e+01 0 -1 1 7.001865e-01 -2.737127e-02 6.680893e-01 -2.502926e-01
80 1 2 -3.909870e+00 1.789239e+01 -1.747417e+01 0 -1 1 -6.730438e-01 -2.442929e-01 -6.968967e-01 4.084052e-02
81 1 4 -3.670652e+00 1.749697e+01 -1.765135e+01 0 -1 1 -6.545329e-01 -4.921147e-01 -5.403502e-01 -1.934720e-01
82 1 4 -3.220257e+00 1.724515e+01 -1.786590e+01 0 -1 1 -5.707987e-01 -4.830093e-01 -5.466274e-01 -3.769475e-01
83 1 4 -2.846599e+00 1.718134e+01 -1.822616e+01 0 -1 1 -4.174242e-01 -6.409207e-01 -3.224596e-01 -5.576715e-01
84 1 4 -2.387999e+00 1.736087e+01 -1.845777e+01 0 -1 1 -1.872377e-01 -7.646881e-01 -1.367885e-01 -6.012346e-01
85 1 1 -1.987291e+00 1.754927e+01 -1.860540e+01 0 -1 1 9.252941e-02 -7.697614e-01 -5.657386e-02 -6.290510e-01
86 1 1 -1.400506e+00 1.775326e+01 -1.856045e+01 0 -1 1 1.674809e-01 -6.575895e-01 1.408705e-01 -7.208895e-01
87 1 3 -1.039512e+00 1.806304e+01 -1.830402e+01 0 -1 1 4.580401e-01 -5.381538e-01 3.283040e-01 -6.267426e-01
88 1 2 -6.901077e-01 1.812439e+01 -1.788191e+01 0 -1 1 6.169920e-01 -3.913891e-01 3.520949e-01 -5.849484e-01
89 1 2 -3.268760e-01 1.801499e+01 -1.753439e+01 0 -1 1 -6.992071e-01 2.228053e-01 -5.701595e-01 3.693039e-01
90 1 3 -8.032244e-02 1.764457e+01 -1.725646e+01 0 -1 1 -8.389484e-01 -5.138363e-02 -5.400781e-01 4.290637e-02
91 1 3 3.117579e-01 1.737397e+01 -1.717795e+01 0 -1 1 7.903364e-01 1.344435e-01 5.555052e-01 2.206974e-01
92 1 2 8.911944e-01 1.734434e+01 -1.727121e+01 0 -1 1 6.131021e-01 2.382176e-01 6.737921e-01 3.366934e-01
93 1 1 1.280873e+00 1.720939e+01 -1.751198e+01 0 -1 1 4.555683e-01 4.668183e-01 4.864403e-01 5.813037e-01
94 1 2 1.667776e+00 1.673620e+01 -1.688933e+01 0 -1 1 -7.504372e-01 -5.339282e-01 -3.077403e-01 -2.388735e-01
95 1 3 1.805086e+00 1.641657e+01 -1.619092e+01 0 -1 1 6.145915e-01 6.849665e-01 -1.664983e-01 -3.540853e-01
96 1 2 2.155610e+00 1.601831e+01 -1.623787e+01 0 -1 1 5.932562e-01 3.854560e-01 6.795806e-01 1.940129e-01
97 1 2 2.397768e+00 1.592267e+01 -1.658209e+01 0 -1 1 -5.166852e-01 -6.833880e-01 -2.685715e-01 -4.403256e-01
98 1 4 2.998421e+00 1.544894e+01 -1.656369e+01 0 -1 1 2.805653e-01 -9.525905e-01 3.732277e-03 1.176457e-01
99 1 2 3.038014e+00 1.430280e+01 -1.727145e+01 0 -1 1 4.948432e-01 -4.301505e-01 7.287191e-01 -1.976594e-01
100 1 1 2.275234e+00 1.508589e+01 -1.735014e+01 0 -1 1 -3.796959e-01 5.002773e-01 1.197378e-01 -7.689060e-01
101 2 4 2.542395e+00 -1.897081e+01 -1.544666e+01 0 0 1 5.490763e-01 -6.209050e-01 -5.572130e-01 5.005835e-02
102 2 3 2.148556e+00 -1.871453e+01 -1.528295e+01 0 0 1 -3.666801e-01 8.189034e-01 2.408473e-01 -3.700479e-01
103 2 1 1.536949e+00 -1.877477e+01 -1.603625e+01 0 0 1 -2.352370e-02 8.883607e-01 4.298823e-01 1.595717e-01
104 2 3 1.880681e+00 -2.025594e+01 -1.593641e+01 0 0 1 -2.540662e-01 -1.492859e-01 9.274379e-01 2.302671e-01
105 2 3 1.583613e+00 1.968138e+01 -1.631363e+01 0 -1 1 3.017212e-01 -2.810118e-01 -9.100022e-01 -4.350502e-02
106 2 2 1.055279e+00 -2.029891e+01 -1.653712e+01 0 0 1 -2.516709e-01 6.786759e-01 6.897277e-01 1.834242e-02
107 2 3 7.332009e-01 -1.993751e+01 -1.679721e+01 0 0 1 3.936977e-01 -7.782878e-01 -4.848380e-01 6.482544e-02
108 2 4 7.197769e-01 1.938642e+01 -1.806699e+01 0 -1 1 5.199180e-01 7.767247e-01 3.011028e-01 -1.890003e-01
109 2 3 9.603308e-01 1.821180e+01 -1.787553e+01 0 -1 1 -4.939005e-01 -5.128411e-01 5.220663e-01 4.695775e-01
110 2 2 5.944107e-01 1.798425e+01 -1.818007e+01 0 -1 1 -5.937213e-01 -3.117056e-01 7.331996e-01 1.129293e-01
111 2 2 2.626270e-01 1.762148e+01 -1.841131e+01 0 -1 1 6.457855e-01 -6.507883e-02 -7.605195e-01 1.832906e-02
112 2 3 -1.850509e-01 1.731349e+01 -1.846276e+01 0 -1 1 6.621368e-01 -2.712906e-01 -6.749761e-01 1.799543e-01
113 2 3 -6.319187e-01 1.695490e+01 -1.820192e+01 0 -1 1 5.794657e-01 -3.860527e-01 -5.687549e-01 4.378363e-01
114 2 2 -1.104224e+00 1.695784e+01 -1.787886e+01 0 -1 1 4.224513e-01 -6.098846e-01 -4.232563e-01 5.200287e-01
115 2 4 -1.515133e+00 1.709343e+01 -1.758016e+01 0 -1 1 3.043579e-01 -6.788185e-01 -9.786715e-02 6.610550e-01
116 2 4 -1.794030e+00 1.749321e+01 -1.742483e+01 0 -1 1 3.266489e-02 -6.252978e-01 9.347675e-02 7.740786e-01
117 2 1 -2.254022e+00 1.791378e+01 -1.748825e+01 0 -1 1 -6.490688e-02 -6.911272e-01 1.655363e-01 7.005198e-01
118 2 1 -2.620509e+00 1.823944e+01 -1.774790e+01 0 -1 1 -3.574674e-01 -5.272817e-01 4.359859e-01 6.356944e-01
119 2 1 -2.993307e+00 1.836802e+01 -1.808171e+01 0 -1 1 -4.324411e-01 -4.304471e-01 5.889616e-01 5.299380e-01
120 2 1 -3.310825e+00 1.843964e+01 -1.834904e+01 0 -1 1 -5.509129e-01 -2.655918e-01 7.417464e-01 2.752603e-01
121 2 3 -3.796094e+00 1.817341e+01 -1.860034e+01 0 -1 1 6.591320e-01 8.929393e-02 -7.444462e-01 -5.806501e-02
122 2 1 -4.199134e+00 1.789020e+01 -1.856434e+01 0 -1 1 6.423119e-01 -1.540071e-01 -7.013216e-01 2.680770e-01
123 2 4 -4.674820e+00 1.773509e+01 -1.845845e+01 0 -1 1 7.101724e-01 -7.111967e-02 -6.149425e-01 3.353251e-01
124 2 1 -4.932232e+00 1.748372e+01 -1.812938e+01 0 -1 1 4.980054e-01 -3.195702e-01 -5.930436e-01 5.460447e-01
125 2 4 -5.296421e+00 1.728818e+01 -1.784076e+01 0 -1 1 3.311526e-01 -4.941077e-01 -4.133345e-01 6.894564e-01
126 2 2 -5.821354e+00 1.729115e+01 -1.754501e+01 0 -1 1 2.401106e-01 -6.002002e-01 -2.249884e-01 7.290314e-01
127 2 4 -6.243988e+00 1.756126e+01 -1.732545e+01 0 -1 1 -6.802133e-02 -6.394805e-01 9.313427e-03 7.657356e-01
128 2 4 -6.778733e+00 1.774113e+01 -1.733342e+01 0 -1 1 -2.079670e-01 -6.654315e-01 1.265092e-01 7.056530e-01
129 2 1 -7.178110e+00 1.784849e+01 -1.759844e+01 0 -1 1 -3.096057e-01 -6.414279e-01 4.065213e-01 5.722369e-01
130 2 2 -7.445551e+00 1.796734e+01 -1.793298e+01 0 -1 1 -4.239997e-01 -4.575147e-01 6.555975e-01 4.255543e-01
131 2 3 -7.890384e+00 1.790278e+01 -1.826109e+01 0 -1 1 -5.741180e-01 -3.172029e-01 6.952357e-01 2.939696e-01
132 2 4 -8.302016e+00 1.762472e+01 -1.847646e+01 0 -1 1 6.406149e-01 2.195675e-01 -7.330462e-01 -6.360702e-02
133 2 4 -8.564384e+00 1.717417e+01 -1.848486e+01 0 -1 1 5.287953e-01 -1.333113e-01 -8.236093e-01 1.557929e-01
134 2 3 -9.003291e+00 1.691597e+01 -1.844233e+01 0 -1 1 5.319774e-01 -3.212123e-01 -7.004463e-01 3.509954e-01
135 2 4 -9.591498e+00 1.678490e+01 -1.838966e+01 0 -1 1 -5.958189e-01 4.756723e-01 4.701319e-01 -4.446478e-01
136 2 3 -1.004834e+01 1.689337e+01 -1.815404e+01 0 -1 1 -3.717210e-01 6.928089e-01 2.500756e-01 -5.650677e-01
137 2 1 -1.049479e+01 1.719113e+01 -1.800328e+01 0 -1 1 2.935427e-01 -7.730832e-01 -3.041060e-02 5.614715e-01
138 2 3 -1.080911e+01 1.766197e+01 -1.811143e+01 0 -1 1 1.161115e-01 -8.314303e-01 1.884296e-01 5.096431e-01
139 2 2 -1.098596e+01 1.803013e+01 -1.825763e+01 0 -1 1 1.758594e-02 -7.090046e-01 4.529445e-01 5.402263e-01
140 2 3 -1.120597e+01 1.833473e+01 -1.870347e+01 0 -1 1 -1.821253e-01 -5.890109e-01 6.113628e-01 4.961170e-01
141 2 1 -1.148752e+01 1.847076e+01 -1.913465e+01 0 -1 1 -3.307595e-01 -4.916234e-01 7.032718e-01 3.928274e-01
142 2 2 -1.177613e+01 1.843414e+01 -1.955887e+01 0 -1 1 -4.543876e-01 -3.162844e-01 8.182071e-01 1.550264e-01
143 2 4 -1.201826e+01 1.816674e+01 -1.987461e+01 0 -1 1 4.500124e-01 9.958911e-02 -8.858788e-01 5.281632e-02
144 2 4 -1.238796e+01 1.774983e+01 1.994545e+01 0 -1 0 -5.017332e-01 5.880958e-02 8.126304e-01 -2.905806e-01
145 2 1 -1.281599e+01 1.735041e+01 1.998125e+01 0 -1 0 -4.669092e-01 2.191697e-01 7.150487e-01 -4.718747e-01
146 2 1 -1.327577e+01 1.710555e+01 -1.973809e+01 0 -1 1 -3.987442e-01 4.647815e-01 5.414518e-01 -5.760305e-01
147 2 1 -1.373215e+01 1.711179e+01 -1.942294e+01 0 -1 1 -2.944059e-01 5.893210e-01 2.835098e-01 -6.968846e-01
148 2 2 -1.407887e+01 1.737474e+01 -1.922677e+01 0 -1 1 2.522591e-02 6.436533e-01 3.280250e-02 -7.641976e-01
149 2 4 -1.457504e+01 1.769037e+01 -1.929298e+01 0 -1 1 -3.432284e-01 -6.439128e-01 1.296868e-01 6.713806e-01
150 2 1 -1.514470e+01 1.766310e+01 -1.953159e+01 0 -1 1 -3.423764e-01 -7.360202e-01 2.568410e-01 5.244858e-01
151 2 1 -1.539556e+01 1.768476e+01 -1.996176e+01 0 -1 1 -4.456700e-01 -5.540588e-01 6.203401e-01 3.310217e-01
152 2 1 -1.582109e+01 1.754838e+01 1.967510e+01 0 -1 0 -5.918149e-01 -5.335953e-01 5.885854e-01 1.363759e-01
153 2 4 -1.595616e+01 1.714305e+01 1.941910e+01 0 -1 0 -5.483710e-01 -2.777546e-01 7.825681e-01 -9.863469e-02
154 2 1 -1.627889e+01 1.676697e+01 1.926916e+01 0 -1 0 -5.176150e-01 -2.648791e-01 7.556215e-01 -3.015792e-01
155 2 2 -1.633609e+01 1.631218e+01 1.923607e+01 0 -1 0 -3.391953e-01 -3.209999e-02 8.055470e-01 -4.847785e-01
156 2 4 -1.659469e+01 1.582855e+01 1.929432e+01 0 -1 0 -3.147086e-01 1.797065e-01 7.683865e-01 -5.274905e-01
157 2 3 -1.703265e+01 1.556439e+01 1.936592e+01 0 -1 0 -2.201883e-01 3.562123e-01 6.451669e-01 -6.390537e-01
158 2 2 -1.751164e+01 1.538136e+01 1.944951e+01 0 -1 0 -2.439383e-01 4.892970e-01 4.236680e-01 -7.222105e-01
159 2 1 -1.796159e+01 1.537321e+01 1.974337e+01 0 -1 0 -1.219277e-01 6.237412e-01 2.123319e-01 -7.422908e-01
160 2 3 -1.848645e+01 1.549716e+01 1.981383e+01 0 -1 0 -1.639757e-01 -7.399847e-01 6.111360e-03 6.523015e-01
161 2 1 -1.902301e+01 1.573131e+01 1.961581e+01 0 -1 0 -3.968369e-01 -7.271472e-01 2.065393e-01 5.206908e-01
162 2 1 -1.948629e+01 1.563267e+01 1.933492e+01 0 -1 0 -5.555780e-01 -6.530251e-01 3.997070e-01 3.242308e-01
163 2 4 -1.985124e+01 1.538557e+01 1.904994e+01 0 -1 0 -6.010709e-01 -6.148309e-01 4.963933e-01 1.195426e-01
164 2 4 -2.002668e+01 1.493577e+01 1.873478e+01 0 -1 0 -6.531671e-01 -4.670432e-01 5.759887e-01 -1.532329e-01
165 2 3 1.995450e+01 1.444792e+01 1.862198e+01 -1 -1 0 -5.297124e-01 -2.974193e-01 6.896865e-01 -3.940546e-01
166 2 3 1.990714e+01 1.386321e+01 1.879309e+01 -1 -1 0 -4.573284e-01 2.271190e-02 7.514132e-01 -4.750927e-01
167 2 4 1.970147e+01 1.344431e+01 1.903868e+01 -1 -1 0 -2.566493e-01 2.556103e-01 6.639143e-01 -6.542265e-01
168 2 2 1.938369e+01 1.325464e+01 1.935240e+01 -1 -1 0 -7.321676e-03 4.039620e-01 5.474354e-01 -7.328544e-01
169 2 2 1.894225e+01 1.299103e+01 1.949612e+01 -1 -1 0 9.397077e-02 5.703555e-01 4.996682e-01 -6.451324e-01
170 2 1 1.842810e+01 1.282166e+01 1.951715e+01 -1 -1 0 2.078190e-01 7.340925e-01 2.641857e-01 -5.900215e-01
171 2 1 1.787417e+01 1.279957e+01 1.941747e+01 -1 -1 0 -2.542817e-01 -8.205382e-01 -6.532125e-02 5.077313e-01
172 2 4 1.752727e+01 1.289130e+01 1.903509e+01 -1 -1 0 -3.550206e-01 -7.939861e-01 2.952383e-01 3.954502e-01
173 2 4 1.721279e+01 1.276385e+01 1.860455e+01 -1 -1 0 -3.762266e-01 -8.033218e-01 4.133599e-01 2.055754e-01
174 2 1 1.720196e+01 1.271720e+01 1.806860e+01 -1 -1 0 -4.021986e-01 -5.794932e-01 7.045904e-01 7.730705e-02
175 2 1 1.693046e+01 1.244531e+01 1.772466e+01 -1 -1 0 -4.142521e-01 -6.591490e-01 6.263923e-01 -3.937620e-02
176 2 2 1.692085e+01 1.202284e+01 1.743190e+01 -1 -1 0 -4.064133e-01 -2.871851e-01 8.442737e-01 -1.988842e-01
177 2 2 1.678751e+01 1.145994e+01 1.731480e+01 -1 -1 0 -3.976735e-01 -5.224169e-02 8.532717e-01 -3.332476e-01
178 2 1 1.660637e+01 1.105728e+01 1.728231e+01 -1 -1 0 -2.948423e-01 2.160963e-01 8.354899e-01 -4.102768e-01
179 2 4 1.622856e+01 1.079464e+01 1.739923e+01 -1 -1 0 -1.391626e-01 3.944719e-01 6.932367e-01 -5.868974e-01
180 2 1 1.577321e+01 1.048326e+01 1.739252e+01 -1 -1 0 -1.118581e-01 5.820532e-01 5.087743e-01 -6.243802e-01
181 2 4 1.525540e+01 1.044140e+01 1.741274e+01 -1 -1 0 -1.318511e-01 -7.853881e-01 -3.261623e-01 5.093122e-01
182 2 2 1.485291e+01 1.042654e+01 1.722158e+01 -1 -1 0 -1.293316e-02 -8.441301e-01 -8.472605e-02 5.292434e-01
183 2 3 1.439232e+01 1.053441e+01 1.692129e+01 -1 -1 0 -1.574424e-01 -8.798874e-01 9.406266e-02 4.383633e-01
184 2 4 1.409395e+01 1.070174e+01 1.647834e+01 -1 -1 0 -3.193711e-01 -8.222220e-01 3.759301e-01 2.839536e-01
185 2 3 1.404402e+01 1.067473e+01 1.591727e+01 -1 -1 0 -3.325216e-01 -7.263867e-01 5.665416e-01 2.020452e-01
186 2 1 1.378775e+01 1.044032e+01 1.550458e+01 -1 -1 0 -4.937043e-01 -5.590425e-01 6.645038e-01 4.649906e-02
187 2 1 1.365456e+01 9.991218e+00 1.521099e+01 -1 -1 0 -5.137627e-01 -2.954881e-01 7.967513e-01 -1.179914e-01
188 2 2 1.351223e+01 9.535959e+00 1.509978e+01 -1 -1 0 -4.563776e-01 -8.536765e-02 8.157998e-01 -3.448223e-01
189 2 4 1.324313e+01 9.112120e+00 1.517713e+01 -1 -1 0 -4.228280e-01 1.587904e-01 7.701652e-01 -4.503860e-01
190 2 4 1.280392e+01 8.773400e+00 1.528013e+01 -1 -1 0 -3.790485e-01 3.551246e-01 6.722773e-01 -5.274960e-01
191 2 1 1.225904e+01 8.608894e+00 1.531543e+01 -1 -1 0 1.354265e-01 -6.941782e-01 -5.124374e-01 4.870157e-01
192 2 4 1.196535e+01 7.688236e+00 1.579568e+01 -1 -1 0 5.982399e-01 1.853733e-01 -6.615983e-01 4.123512e-01
193 2 4 1.198959e+01 7.282326e+00 1.591611e+01 -1 -1 0 -3.293094e-01 -8.112579e-03 7.418291e-01 -5.841053e-01
194 2 1 1.232688e+01 6.056636e+00 1.580325e+01 -1 -1 0 8.017949e-01 1.118449e-01 -5.849144e-01 -4.990798e-02
195 2 3 1.195624e+01 5.717980e+00 1.604968e+01 -1 -1 0 7.010605e-01 -2.271901e-01 -5.995105e-01 3.122274e-01
196 2 4 1.103765e+01 5.918811e+00 1.648051e+01 -1 -1 0 4.010315e-01 -6.988822e-01 -5.150831e-01 -2.922787e-01
197 2 2 1.069886e+01 6.204122e+00 1.644882e+01 -1 -1 0 -3.924715e-01 8.816463e-01 2.581948e-01 -4.473638e-02
198 2 4 1.102748e+01 5.088749e+00 1.580734e+01 -1 -1 0 2.517265e-01 8.339799e-01 -4.906793e-01 -1.857939e-02
199 2 3 1.079598e+01 4.966999e+00 1.618047e+01 -1 -1 0 2.822995e-01 9.563396e-01 6.613542e-02 -3.671141e-02
200 2 4 1.062274e+01 3.984219e+00 1.696195e+01 -1 -1 0 8.312630e-01 -3.903081e-01 3.955512e-01 -1.416671e-02
