ITEM: TIMESTEP
399000000
ITEM: NUMBER OF ATOMS
200
ITEM: BOX BOUNDS pp pp pp
-2.0000000000000000e+01 2.0000000000000000e+01
-2.0000000000000000e+01 2.0000000000000000e+01
-2.0000000000000000e+01 2.0000000000000000e+01
ITEM: ATOMS id mol type x y z ix iy iz c_quat[1] c_quat[2] c_quat[3] c_quat[4]
1 1 1 -2.502527e+00 -1.734828e+01 -1.159517e+01 -1 0 2 2.865783e-01 5.098989e-01 7.144370e-01 -3.839996e-01
2 1 2 -2.830602e+00 -1.768773e+01 -1.179161e+01 -1 0 2 -3.595129e-01 -7.743618e-01 -4.351915e-01 2.858718e-01
3 1 1 -2.967915e+00 -1.795412e+01 -1.219289e+01 -1 0 2 -4.196620e-01 -8.921878e-01 -1.314351e-01 1.030025e-01
4 1 3 -2.978077e+00 -1.816696e+01 -1.265893e+01 -1 0 2 -2.894542e-01 -9.561777e-01 -4.146467e-02 -1.487263e-02
5 1 1 -2.763060e+00 -1.829329e+01 -1.319467e+01 -1 0 2 -2.665053e-01 -9.415419e-01 9.395419e-02 -1.834297e-01
6 1 2 -2.444197e+00 -1.830782e+01 -1.352322e+01 -1 0 2 -1.211661e-01 -8.765792e-01 3.807850e-01 -2.681986e-01
7 1 4 -1.983420e+00 -1.841264e+01 -1.383335e+01 -1 0 2 -3.427808e-02 -6.706772e-01 6.518503e-01 -3.522901e-01
8 1 1 -1.485915e+00 -1.862815e+01 -1.399387e+01 -1 0 2 1.014280e-01 -4.990567e-01 7.382484e-01 -4.423168e-01
9 1 1 -1.123052e+00 -1.889183e+01 -1.401439e+01 -1 0 2 -2.973822e-01 1.798722e-01 -8.111273e-01 4.704066e-01
10 1 4 -7.918292e-01 -1.943677e+01 -1.407656e+01 -1 0 2 2.482816e-01 -8.704357e-03 9.025194e-01 -3.517659e-01
11 1 1 -7.671632e-01 -1.992995e+01 -1.422299e+01 -1 0 2 3.196341e-01 2.941422e-01 8.713476e-01 -2.281838e-01
12 1 1 -7.909929e-01 1.967514e+01 -1.450035e+01 -1 -1 2 -3.167304e-01 -5.529657e-01 -7.472155e-01 1.886263e-01
13 1 3 -1.039763e+00 1.936727e+01 -1.483359e+01 -1 -1 2 3.009029e-01 8.075800e-01 4.926561e-01 -1.206729e-01
14 1 4 -1.032507e+00 1.912380e+01 -1.526402e+01 -1 -1 2 -2.395075e-01 -8.702857e-01 -4.269753e-01 5.413897e-02
15 1 4 -1.142439e+00 1.917678e+01 -1.580359e+01 -1 -1 2 -2.230536e-01 -9.658951e-01 -1.184623e-01 -5.709978e-02
16 1 2 -1.007877e+00 1.923172e+01 -1.635781e+01 -1 -1 2 2.536460e-01 9.145673e-01 -2.489303e-01 1.930393e-01
17 1 1 -7.563033e-01 1.912168e+01 -1.681279e+01 -1 -1 2 1.599326e-01 8.551815e-01 -3.476882e-01 3.495697e-01
18 1 2 -2.685183e-01 1.905467e+01 -1.703250e+01 -1 -1 2 -3.903508e-02 -6.875108e-01 6.135008e-01 -3.865514e-01
19 1 3 2.197526e-01 1.883299e+01 -1.709860e+01 -1 -1 2 1.298432e-01 -4.153979e-01 8.446689e-01 -3.116403e-01
20 1 1 4.795108e-01 1.839831e+01 -1.728338e+01 -1 -1 2 1.643935e-01 -1.004885e-01 9.108498e-01 -3.650062e-01
21 1 4 6.012442e-01 1.786449e+01 -1.743969e+01 -1 -1 2 -1.951000e-01 -1.802396e-01 -8.918602e-01 3.661081e-01
22 1 1 4.987131e-01 1.741480e+01 -1.770031e+01 -1 -1 2 -2.475900e-01 -4.184530e-01 -8.177592e-01 3.080035e-01
23 1 4 3.584212e-01 1.696170e+01 -1.800431e+01 -1 -1 2 -2.221986e-01 -6.282345e-01 -6.877700e-01 2.879612e-01
24 1 3 1.206718e-01 1.671442e+01 -1.845321e+01 -1 -1 2 -2.005473e-01 -7.679356e-01 -5.992782e-01 1.045048e-01
25 1 3 -8.300338e-02 1.669651e+01 -1.893335e+01 -1 -1 2 -2.868527e-01 -9.166731e-01 -2.782484e-01 1.963168e-03
26 1 4 3.400246e-03 1.670628e+01 -1.945571e+01 -1 -1 2 -2.273833e-01 -9.561933e-01 -3.587513e-02 -1.808428e-01
27 1 4 1.755347e-01 1.677662e+01 2.010184e+01 -1 -1 1 -1.318227e-01 -9.080772e-01 3.159298e-01 -2.412612e-01
28 1 1 5.397856e-01 1.666653e+01 1.973134e+01 -1 -1 1 -1.501678e-01 -7.707009e-01 5.486003e-01 -2.872411e-01
29 1 1 1.018482e+00 1.659129e+01 1.941368e+01 -1 -1 1 -5.220727e-02 -6.062853e-01 7.321913e-01 -3.059221e-01
30 1 4 1.347264e+00 1.622463e+01 1.934239e+01 -1 -1 1 -1.312974e-01 3.476233e-01 -8.676160e-01 3.303959e-01
31 1 4 1.539579e+00 1.577797e+01 1.908237e+01 -1 -1 1 -9.527844e-02 1.775375e-02 -9.383304e-01 3.318777e-01
32 1 3 1.518093e+00 1.528378e+01 1.893308e+01 -1 -1 1 -1.433757e-01 -2.928697e-01 -8.906927e-01 3.167605e-01
33 1 3 1.290550e+00 1.490027e+01 1.874294e+01 -1 -1 1 -2.943704e-01 -5.814273e-01 -7.209282e-01 2.356923e-01
34 1 1 1.138640e+00 1.468482e+01 1.828447e+01 -1 -1 1 -2.421892e-01 -7.738134e-01 -5.738690e-01 1.150289e-01
35 1 2 1.181288e+00 1.455255e+01 1.772489e+01 -1 -1 1 -1.657418e-01 -8.535124e-01 -4.934855e-01 -2.276661e-02
36 1 2 1.118919e+00 1.469719e+01 1.716136e+01 -1 -1 1 -6.535397e-02 -9.446394e-01 -3.153503e-01 -6.276427e-02
37 1 1 1.109050e+00 1.496731e+01 1.683896e+01 -1 -1 1 -5.168510e-02 -9.857754e-01 1.598175e-01 5.826146e-03
38 1 1 1.223112e+00 1.515639e+01 1.630109e+01 -1 -1 1 7.770501e-02 -9.526349e-01 2.643788e-01 -1.286567e-01
39 1 4 1.525162e+00 1.539363e+01 1.593415e+01 -1 -1 1 -1.239608e-01 8.615062e-01 -4.518247e-01 1.956916e-01
40 1 4 1.977635e+00 1.547016e+01 1.563252e+01 -1 -1 1 -1.515945e-01 6.752859e-01 -6.944786e-01 1.967421e-01
41 1 2 2.422224e+00 1.535459e+01 1.544370e+01 -1 -1 1 -2.095298e-01 4.163518e-01 -8.757312e-01 1.258700e-01
42 1 4 2.777983e+00 1.501795e+01 1.517061e+01 -1 -1 1 2.390619e-01 -1.082610e-01 9.448934e-01 -1.957176e-01
43 1 3 2.997832e+00 1.464138e+01 1.482363e+01 -1 -1 1 -1.939530e-01 -1.667628e-01 -9.553770e-01 1.477402e-01
44 1 2 2.990693e+00 1.437221e+01 1.435369e+01 -1 -1 1 -7.631518e-02 -3.656295e-01 -9.140713e-01 1.580021e-01
45 1 1 2.661100e+00 1.414729e+01 1.403664e+01 -1 -1 1 -6.985295e-02 -6.696802e-01 -7.279697e-01 1.292637e-01
46 1 3 2.436063e+00 1.405100e+01 1.360470e+01 -1 -1 1 -3.686526e-02 -8.247433e-01 -5.523704e-01 1.154400e-01
47 1 4 2.241047e+00 1.415115e+01 1.318634e+01 -1 -1 1 6.781944e-02 -9.573542e-01 -2.637098e-01 9.659509e-02
48 1 1 2.120870e+00 1.442434e+01 1.276292e+01 -1 -1 1 2.897250e-03 9.931664e-01 -1.044852e-01 -5.191283e-02
49 1 4 2.166540e+00 1.455860e+01 1.218864e+01 -1 -1 1 1.505340e-01 9.257985e-01 -3.365974e-01 8.329954e-02
50 1 4 2.437985e+00 1.448046e+01 1.171469e+01 -1 -1 1 1.183830e-01 8.043916e-01 -5.407251e-01 2.157682e-01
51 1 4 2.849612e+00 1.437210e+01 1.141972e+01 -1 -1 1 -5.914470e-03 5.438895e-01 -8.016619e-01 2.479664e-01
52 1 1 3.283766e+00 1.406580e+01 1.127376e+01 -1 -1 1 -1.128897e-01 3.169677e-01 -9.064649e-01 2.551642e-01
53 1 3 3.407121e+00 1.366691e+01 1.113297e+01 -1 -1 1 2.874385e-01 3.271802e-03 9.152597e-01 -2.822553e-01
54 1 4 3.430288e+00 1.318698e+01 1.093118e+01 -1 -1 1 3.136925e-01 3.285108e-01 8.708106e-01 -1.880600e-01
55 1 4 3.469759e+00 1.278649e+01 1.056929e+01 -1 -1 1 -2.279208e-01 -5.067237e-01 -8.106191e-01 1.848782e-01
56 1 4 3.219370e+00 1.255545e+01 1.022114e+01 -1 -1 1 -2.450056e-01 -7.409330e-01 -6.129901e-01 1.234251e-01
57 1 1 3.013047e+00 1.243210e+01 9.825158e+00 -1 -1 1 1.823390e-01 9.304926e-01 2.913435e-01 -1.267084e-01
58 1 1 3.071549e+00 1.236992e+01 9.341837e+00 -1 -1 1 -4.721726e-02 -9.587785e-01 -2.753226e-01 5.207548e-02
59 1 3 2.919027e+00 1.262889e+01 8.896759e+00 -1 -1 1 8.941775e-02 9.922636e-01 -8.610201e-02 -1.939456e-03
60 1 4 3.058763e+00 1.281113e+01 8.336371e+00 -1 -1 1 1.953868e-01 9.160106e-01 -3.486253e-01 3.476936e-02
61 1 2 3.217372e+00 1.276804e+01 7.865647e+00 -1 -1 1 -5.870979e-02 -8.211592e-01 5.389562e-01 -1.782608e-01
62 1 3 3.670395e+00 1.262021e+01 7.617788e+00 -1 -1 1 -5.484860e-03 5.246343e-01 -8.483537e-01 7.088570e-02
63 1 2 3.779977e+00 1.222669e+01 7.188272e+00 -1 -1 1 3.102881e-03 -4.169205e-01 8.884305e-01 -1.919868e-01
64 1 4 3.976751e+00 1.180758e+01 6.906897e+00 -1 -1 1 1.183487e-02 -8.722097e-02 9.720923e-01 -2.174604e-01
65 1 2 3.888723e+00 1.128881e+01 6.645495e+00 -1 -1 1 6.146709e-02 2.147680e-01 9.373047e-01 -2.675003e-01
66 1 1 3.690133e+00 1.091702e+01 6.399794e+00 -1 -1 1 1.234452e-01 5.050651e-01 7.968545e-01 -3.077231e-01
67 1 2 3.263245e+00 1.059976e+01 6.086682e+00 -1 -1 1 -9.086410e-02 -6.966625e-01 -6.492331e-01 2.913786e-01
68 1 1 2.825334e+00 1.053232e+01 5.672401e+00 -1 -1 1 6.937008e-02 9.014133e-01 3.707772e-01 -2.125231e-01
69 1 1 2.606506e+00 1.083725e+01 5.196798e+00 -1 -1 1 1.567457e-01 9.798391e-01 1.275868e-02 -1.232210e-01
70 1 2 1.893818e+00 1.106321e+01 4.840220e+00 -1 -1 1 -1.117747e-01 5.797078e-01 2.759327e-01 7.584895e-01
71 1 3 1.984215e+00 1.152577e+01 4.859671e+00 -1 -1 1 -4.076854e-01 7.003480e-01 1.146547e-01 5.745951e-01
72 1 4 2.137833e+00 1.196455e+01 5.066901e+00 -1 -1 1 5.409168e-01 -7.450954e-01 3.151093e-01 -2.301043e-01
73 1 1 1.892693e+00 1.302095e+01 4.910972e+00 -1 -1 1 1.791736e-01 -9.168953e-01 1.754548e-01 -3.105084e-01
74 1 1 2.120895e+00 1.335638e+01 4.736382e+00 -1 -1 1 3.968837e-01 -7.458679e-01 4.796611e-01 -2.368324e-01
75 1 3 2.233596e+00 1.454471e+01 4.666793e+00 -1 -1 1 6.232719e-02 7.154497e-01 -2.102244e-01 6.633647e-01
76 1 1 2.625831e+00 1.463989e+01 4.785188e+00 -1 -1 1 -2.995673e-01 5.831604e-01 -4.796626e-01 5.831870e-01
77 1 4 2.153566e+00 1.494692e+01 5.319685e+00 -1 -1 1 -5.067496e-01 7.102579e-03 8.391485e-01 -1.974442e-01
78 1 1 1.262245e+00 1.548069e+01 4.240554e+00 -1 -1 1 4.505498e-01 3.820748e-01 6.330519e-03 -8.068356e-01
79 1 4 2.042355e+00 1.626720e+01 5.091632e+00 -1 -1 1 -1.620897e-01 8.493999e-01 1.673431e-01 -4.735431e-01
80 1 2 1.702108e+00 1.655012e+01 4.854255e+00 -1 -1 1 1.601365e-01 8.441013e-01 -2.732820e-01 -4.326272e-01
81 1 4 4.623006e-01 1.638807e+01 5.463037e+00 -1 -1 1 -6.299693e-01 -1.510031e-02 5.363738e-01 5.614390e-01
82 1 4 -2.427229e-02 1.744284e+01 5.102680e+00 -1 -1 1 5.153767e-02 -6.717564e-01 -7.152178e-01 1.858782e-01
83 1 4 3.579092e-01 1.683618e+01 4.100838e+00 -1 -1 1 -1.331650e-02 -2.354988e-02 -6.967692e-01 -7.167850e-01
84 1 4 -1.608948e-01 1.758843e+01 4.093713e+00 -1 -1 1 -5.124533e-03 2.436538e-03 5.311250e-01 8.472745e-01
85 1 1 -2.120911e-01 1.789035e+01 4.274260e+00 -1 -1 1 7.979169e-01 2.184511e-01 3.421530e-01 -4.455772e-01
86 1 1 1.867787e-01 1.813570e+01 5.752401e+00 -1 -1 1 6.404186e-01 -6.839798e-01 1.325843e-01 -3.231981e-01
87 1 3 3.392842e-01 1.843680e+01 6.099964e+00 -1 -1 1 -7.844041e-01 5.179938e-01 -3.354629e-01 -6.210674e-02
88 1 2 7.279787e-01 1.856167e+01 6.353911e+00 -1 -1 1 -7.207664e-01 3.414983e-01 -4.737601e-01 -3.733981e-01
89 1 2 1.117305e+00 1.885984e+01 6.531898e+00 -1 -1 1 -5.473447e-01 2.368150e-01 -6.059812e-01 -5.264211e-01
90 1 3 1.278006e+00 1.816402e+01 6.705636e+00 -1 -1 1 8.153883e-01 -3.000474e-01 -1.163552e-01 -4.812224e-01
91 1 3 2.131458e+00 1.808077e+01 6.206930e+00 -1 -1 1 3.899106e-01 -6.197112e-01 6.210227e-01 -2.797474e-01
92 1 2 2.655431e+00 1.803352e+01 6.117360e+00 -1 -1 1 4.882796e-01 -3.531949e-01 7.875384e-01 -1.289170e-01
93 1 1 3.034627e+00 1.784327e+01 6.028219e+00 -1 -1 1 -5.403745e-01 -1.150745e-01 -8.086172e-01 -2.022164e-01
94 1 2 3.115269e+00 1.739936e+01 6.872053e+00 -1 -1 1 -3.694616e-02 2.509603e-01 8.335694e-01 -4.907301e-01
95 1 3 3.827340e+00 1.710930e+01 6.399138e+00 -1 -1 1 -7.608347e-02 5.688857e-01 -3.981868e-01 7.155611e-01
96 1 2 4.010101e+00 1.648849e+01 5.340000e+00 -1 -1 1 5.440519e-01 4.874335e-01 3.539595e-01 -5.840623e-01
97 1 2 4.310236e+00 1.683678e+01 4.816463e+00 -1 -1 1 7.130686e-02 9.201810e-01 3.153334e-01 -2.207874e-01
98 1 4 4.518539e+00 1.606512e+01 4.979623e+00 -1 -1 1 3.269543e-01 9.086944e-01 2.507469e-01 6.709251e-02
99 1 2 4.638962e+00 1.603476e+01 4.460492e+00 -1 -1 1 -2.320423e-01 -9.378048e-01 -4.352691e-02 -2.545269e-01
100 1 1 3.625216e+00 1.640399e+01 4.093618e+00 -1 -1 1 5.061663e-01 6.031542e-01 5.238937e-01 3.248631e-01
101 2 4 1.162779e+01 7.157128e+00 9.051070e+00 -1 -1 1 3.435548e-01 -2.192339e-01 -2.794103e-01 8.693886e-01
102 2 3 1.095760e+01 6.119925e+00 9.679714e+00 -1 -1 1 1.495975e-01 -9.678051e-03 -8.707198e-01 4.683738e-01
103 2 1 1.127265e+01 5.931912e+00 9.352935e+00 -1 -1 1 -1.899178e-01 7.873105e-01 5.234487e-01 -2.647166e-01
104 2 3 1.139153e+01 5.337063e+00 1.047868e+01 -1 -1 1 4.323540e-01 1.056375e-01 -7.633091e-01 4.682627e-01
105 2 3 1.057786e+01 5.365162e+00 1.061349e+01 -1 -1 1 2.645810e-01 -6.710359e-01 -6.670700e-01 1.863473e-01
106 2 2 1.013628e+01 4.548536e+00 9.656812e+00 -1 -1 1 4.279122e-02 -1.407188e-01 9.527468e-01 2.657832e-01
107 2 3 1.029183e+01 4.517462e+00 1.026267e+01 -1 -1 1 -6.317325e-01 6.493193e-02 3.446285e-01 -6.913242e-01
108 2 4 9.379291e+00 3.996292e+00 9.425491e+00 -1 -1 1 -5.241639e-02 4.569085e-01 8.873611e-01 3.282377e-02
109 2 3 9.017225e+00 3.923346e+00 9.112080e+00 -1 -1 1 8.805690e-02 -8.579752e-01 -4.910120e-01 1.226037e-01
110 2 2 8.901329e+00 4.250915e+00 8.643434e+00 -1 -1 1 1.313942e-01 -9.656293e-01 -2.202238e-01 -4.239206e-02
111 2 2 8.830478e+00 4.548333e+00 8.274135e+00 -1 -1 1 -3.602803e-02 9.853526e-01 -1.655130e-01 -1.968769e-02
112 2 3 8.945519e+00 4.903969e+00 7.901762e+00 -1 -1 1 -5.095814e-02 8.708168e-01 -4.799502e-01 -9.342970e-02
113 2 3 9.029664e+00 4.760115e+00 7.416196e+00 -1 -1 1 -9.426604e-01 3.026091e-01 -6.635074e-02 1.241643e-01
114 2 2 9.375994e+00 6.171382e+00 6.819831e+00 -1 -1 1 -5.598841e-01 -7.181172e-01 -5.231693e-02 -4.100005e-01
115 2 4 9.057173e+00 6.395194e+00 6.533788e+00 -1 -1 1 3.344758e-03 -4.178185e-01 -1.319338e-02 -9.084286e-01
116 2 4 1.021818e+01 6.013603e+00 6.189024e+00 -1 -1 1 5.495523e-01 -4.160232e-01 7.219884e-01 6.041203e-02
117 2 1 9.776916e+00 6.806106e+00 6.014828e+00 -1 -1 1 6.001529e-02 -7.279604e-01 5.509322e-01 4.036652e-01
118 2 1 9.740526e+00 6.980040e+00 5.533903e+00 -1 -1 1 -2.422911e-01 -2.766285e-01 8.223204e-01 4.342360e-01
119 2 1 9.530518e+00 7.015774e+00 5.099407e+00 -1 -1 1 -3.686179e-01 -1.402671e-02 8.873983e-01 2.764930e-01
120 2 1 9.115107e+00 6.962858e+00 4.877593e+00 -1 -1 1 -4.857128e-01 3.326136e-01 8.044280e-01 7.966655e-02
121 2 3 8.660767e+00 6.812514e+00 4.794970e+00 -1 -1 1 4.113612e-01 -6.042374e-01 -6.560149e-01 1.879457e-01
122 2 1 8.250459e+00 7.010082e+00 4.742735e+00 -1 -1 1 4.749526e-01 -7.042023e-01 -2.997587e-01 4.343545e-01
123 2 4 7.865821e+00 7.311972e+00 4.816586e+00 -1 -1 1 -3.409842e-01 8.248587e-01 -1.463527e-02 -4.506925e-01
124 2 1 6.421644e+00 7.333849e+00 4.692086e+00 -1 -1 1 -1.974126e-01 3.302877e-01 5.516772e-01 7.399936e-01
125 2 4 6.336350e+00 7.898788e+00 4.748032e+00 -1 -1 1 5.144223e-01 -4.726061e-01 -2.457062e-01 -6.720428e-01
126 2 2 5.759228e+00 8.686191e+00 4.074730e+00 -1 -1 1 -1.286227e-01 3.715411e-01 1.845513e-01 9.007520e-01
127 2 4 5.761687e+00 9.157975e+00 4.250211e+00 -1 -1 1 5.369135e-01 -5.528477e-01 -5.204742e-02 -6.351176e-01
128 2 4 5.260266e+00 9.951785e+00 3.958785e+00 -1 -1 1 -2.759157e-01 7.423588e-01 2.508624e-01 -5.566346e-01
129 2 1 4.951272e+00 1.028031e+01 4.052456e+00 -1 -1 1 -2.610309e-02 -7.248506e-01 8.441555e-02 6.832161e-01
130 2 2 4.688620e+00 1.043455e+01 4.172718e+00 -1 -1 1 1.627761e-01 8.580121e-01 -1.766937e-01 4.539808e-01
131 2 3 3.679979e+00 1.052019e+01 4.536748e+00 -1 -1 1 -1.939656e-01 -1.645686e-01 -1.438609e-01 -9.563465e-01
132 2 4 3.776702e+00 1.086034e+01 4.945761e+00 -1 -1 1 -4.948925e-02 7.299806e-02 1.748500e-01 9.806373e-01
133 2 4 3.670756e+00 1.125932e+01 5.186609e+00 -1 -1 1 3.388053e-01 -8.190534e-02 -3.091091e-01 -8.848469e-01
134 2 3 3.400241e+00 1.165343e+01 5.467967e+00 -1 -1 1 -6.154290e-01 1.305928e-01 2.106925e-01 7.481987e-01
135 2 4 3.034122e+00 1.178673e+01 5.848927e+00 -1 -1 1 8.617382e-01 -2.006149e-01 -1.186145e-01 -4.506568e-01
136 2 3 2.860106e+00 1.174582e+01 6.390785e+00 -1 -1 1 -9.731001e-01 6.536445e-02 7.480587e-02 2.078645e-01
137 2 1 2.839238e+00 1.157655e+01 6.883662e+00 -1 -1 1 -9.946034e-01 3.321633e-02 3.462445e-03 -9.822831e-02
138 2 3 3.003192e+00 1.131586e+01 7.308214e+00 -1 -1 1 -8.866675e-01 -5.598681e-03 -5.572004e-02 -4.590040e-01
139 2 2 3.153942e+00 1.156415e+01 7.843739e+00 -1 -1 1 -8.448008e-01 1.894629e-02 -1.377948e-01 -5.166867e-01
140 2 3 3.529691e+00 1.168458e+01 8.224381e+00 -1 -1 1 -5.412588e-01 -2.520083e-02 -1.786622e-01 -8.212695e-01
141 2 1 3.891980e+00 1.199356e+01 8.553855e+00 -1 -1 1 3.744774e-01 2.220848e-02 2.333820e-01 8.971100e-01
142 2 2 4.090381e+00 1.246826e+01 8.857453e+00 -1 -1 1 8.320135e-02 1.609225e-02 2.194699e-01 9.719319e-01
143 2 4 4.168209e+00 1.282762e+01 9.268275e+00 -1 -1 1 -7.392137e-02 -8.508672e-02 2.638732e-01 9.579493e-01
144 2 4 3.893484e+00 1.320943e+01 9.471774e+00 -1 -1 1 -4.217158e-01 -2.323223e-02 3.174093e-01 8.490391e-01
145 2 1 3.512059e+00 1.357590e+01 9.714348e+00 -1 -1 1 5.771963e-01 9.604926e-02 -3.228381e-01 -7.439049e-01
146 2 1 3.106284e+00 1.372017e+01 9.863782e+00 -1 -1 1 7.794491e-01 5.619562e-02 -4.092472e-01 -4.709755e-01
147 2 1 2.590855e+00 1.365899e+01 1.024346e+01 -1 -1 1 9.248006e-01 -7.105164e-02 -2.679175e-01 -2.606065e-01
148 2 2 2.349746e+00 1.347898e+01 1.070766e+01 -1 -1 1 9.840674e-01 -1.074358e-01 -1.386934e-01 2.886110e-02
149 2 4 2.369263e+00 1.328707e+01 1.114974e+01 -1 -1 1 -9.070824e-01 6.996408e-02 1.088786e-01 -4.005647e-01
150 2 1 2.441790e+00 1.328651e+01 1.174219e+01 -1 -1 1 -7.976909e-01 1.395213e-01 -4.396259e-02 -5.850559e-01
151 2 1 2.793679e+00 1.349962e+01 1.226505e+01 -1 -1 1 -5.774332e-01 1.360716e-01 -2.014195e-01 -7.794136e-01
152 2 1 3.064534e+00 1.386384e+01 1.249853e+01 -1 -1 1 -3.633922e-01 4.867025e-02 -2.941269e-01 -8.826476e-01
153 2 4 3.292621e+00 1.429834e+01 1.266651e+01 -1 -1 1 -2.448917e-02 -1.726403e-02 -2.437618e-01 -9.693722e-01
154 2 1 3.184763e+00 1.475287e+01 1.286406e+01 -1 -1 1 3.161284e-01 -1.356476e-01 -1.833046e-01 -9.209028e-01
155 2 2 3.005124e+00 1.503828e+01 1.330781e+01 -1 -1 1 4.556544e-01 -1.994763e-02 -1.456419e-01 -8.779348e-01
156 2 4 2.651061e+00 1.529110e+01 1.365903e+01 -1 -1 1 7.449235e-01 -2.508427e-02 -1.843681e-01 -6.406779e-01
157 2 3 2.306212e+00 1.527381e+01 1.411206e+01 -1 -1 1 8.600305e-01 8.545142e-02 -1.512735e-01 -4.797519e-01
158 2 2 1.922614e+00 1.500261e+01 1.439557e+01 -1 -1 1 9.600930e-01 1.163379e-01 -1.836100e-01 -1.759954e-01
159 2 1 1.751510e+00 1.467900e+01 1.470389e+01 -1 -1 1 9.558525e-01 1.198342e-01 -1.914958e-01 1.879233e-01
160 2 3 1.793671e+00 1.434782e+01 1.517510e+01 -1 -1 1 -8.761723e-01 2.867757e-02 1.398918e-01 -4.603586e-01
161 2 1 1.908021e+00 1.423696e+01 1.568342e+01 -1 -1 1 -7.430420e-01 8.749352e-02 5.294281e-02 -6.613853e-01
162 2 1 2.055500e+00 1.427903e+01 1.619132e+01 -1 -1 1 -5.515206e-01 1.429536e-01 -4.685589e-02 -8.204839e-01
163 2 4 2.268735e+00 1.463861e+01 1.648727e+01 -1 -1 1 -2.267651e-01 3.505305e-02 -1.511840e-01 -9.615052e-01
164 2 4 2.327458e+00 1.481570e+01 1.699168e+01 -1 -1 1 -1.620754e-01 1.257404e-01 -1.902788e-01 -9.600599e-01
165 2 3 2.134892e+00 1.529694e+01 1.731339e+01 -1 -1 1 1.739086e-01 1.406486e-01 -1.837598e-01 -9.571865e-01
166 2 3 1.830525e+00 1.556232e+01 1.761385e+01 -1 -1 1 4.257079e-01 1.427498e-01 -2.816848e-01 -8.479676e-01
167 2 4 1.418618e+00 1.577908e+01 1.776486e+01 -1 -1 1 6.523024e-01 1.031283e-01 -4.136003e-01 -6.267384e-01
168 2 2 9.150691e-01 1.580532e+01 1.803823e+01 -1 -1 1 8.405593e-01 -7.177780e-02 -2.904520e-01 -4.516034e-01
169 2 2 6.158740e-01 1.579424e+01 1.848225e+01 -1 -1 1 9.349456e-01 -7.821894e-02 -1.437017e-01 -3.148147e-01
170 2 1 3.887806e-01 1.570155e+01 1.886474e+01 -1 -1 1 9.917344e-01 -8.719309e-02 -7.995721e-02 4.966999e-02
171 2 1 4.907632e-01 1.545677e+01 1.939578e+01 -1 -1 1 -9.283903e-01 1.274212e-01 2.307305e-02 -3.483144e-01
172 2 4 6.056351e-01 1.558656e+01 -2.000064e+01 -1 -1 2 -8.109379e-01 1.307036e-01 -1.737862e-01 -5.432261e-01
173 2 4 8.162622e-01 1.584744e+01 -1.950073e+01 -1 -1 2 -5.912448e-01 2.327037e-01 -2.590257e-01 -7.274505e-01
174 2 1 1.092255e+00 1.625502e+01 -1.932414e+01 -1 -1 2 -2.430969e-01 1.204260e-01 -3.646919e-01 -8.907308e-01
175 2 1 1.134771e+00 1.673373e+01 -1.902303e+01 -1 -1 2 -1.096416e-01 1.870582e-01 -4.804840e-01 -8.497782e-01
176 2 2 9.663419e-01 1.727960e+01 -1.903761e+01 -1 -1 2 2.145580e-01 9.519977e-02 -3.788347e-01 -8.952017e-01
177 2 2 5.610342e-01 1.770945e+01 -1.901154e+01 -1 -1 2 5.445634e-01 -4.195251e-02 -3.741097e-01 -7.494882e-01
178 2 1 2.423202e-01 1.796860e+01 -1.871132e+01 -1 -1 2 7.138551e-01 -3.927415e-02 -3.315403e-01 -6.155887e-01
179 2 4 -1.718809e-01 1.804359e+01 -1.843285e+01 -1 -1 2 8.860648e-01 -1.413545e-01 -3.154664e-01 -3.088511e-01
180 2 1 -5.054579e-01 1.804123e+01 -1.800748e+01 -1 -1 2 9.486026e-01 -2.617569e-01 -1.728753e-01 -4.184035e-02
181 2 4 -5.883934e-01 1.790253e+01 -1.744527e+01 -1 -1 2 -9.352844e-01 2.267379e-01 1.062281e-01 -2.500973e-01
182 2 2 -4.777687e-01 1.785051e+01 -1.696072e+01 -1 -1 2 -8.031982e-01 2.470901e-01 5.001576e-02 -5.397385e-01
183 2 3 -2.841005e-01 1.804792e+01 -1.646151e+01 -1 -1 2 -6.378879e-01 2.240931e-01 -1.047931e-01 -7.293145e-01
184 2 4 -1.722706e-01 1.843352e+01 -1.600209e+01 -1 -1 2 -4.911037e-01 1.829482e-01 -3.347287e-01 -7.831372e-01
185 2 3 -4.164870e-04 1.889247e+01 -1.575783e+01 -1 -1 2 1.998325e-01 -1.935493e-01 3.969340e-01 8.746708e-01
186 2 1 -5.713940e-03 1.945155e+01 -1.563510e+01 -1 -1 2 -9.791933e-02 -1.330385e-01 4.241218e-01 8.904119e-01
187 2 1 -2.178642e-01 1.995795e+01 -1.559949e+01 -1 -1 2 4.040603e-01 3.896331e-02 -3.836847e-01 -8.294596e-01
188 2 2 -6.600319e-01 -1.980257e+01 -1.552341e+01 -1 0 2 6.721942e-01 -8.471665e-02 -4.220323e-01 -6.023843e-01
189 2 4 -1.120703e+00 -1.957731e+01 -1.538693e+01 -1 0 2 -7.609530e-01 1.522241e-01 4.153809e-01 4.745915e-01
190 2 4 -1.545364e+00 -1.958112e+01 -1.505516e+01 -1 0 2 -9.008353e-01 1.904573e-01 3.301610e-01 2.078834e-01
191 2 1 -1.848384e+00 -1.969108e+01 -1.461331e+01 -1 0 2 9.287718e-01 -2.619732e-01 -2.365176e-01 1.131919e-01
192 2 4 -1.957073e+00 -1.967012e+01 -1.411008e+01 -1 0 2 -8.389534e-01 4.004096e-01 1.005689e-01 -3.545635e-01
193 2 4 -2.029491e+00 -1.960044e+01 -1.361266e+01 -1 0 2 8.104301e-01 -2.222688e-01 7.051162e-02 5.374270e-01
194 2 1 -1.933910e+00 -1.941991e+01 -1.316713e+01 -1 0 2 -6.137627e-01 2.228760e-01 -1.773867e-01 -7.363121e-01
195 2 3 -1.763240e+00 -1.905693e+01 -1.284400e+01 -1 0 2 3.943112e-01 -2.031648e-01 2.410542e-01 8.632124e-01
196 2 4 -1.668013e+00 -1.856311e+01 -1.265981e+01 -1 0 2 1.499602e-01 -1.511826e-01 4.010344e-01 8.909698e-01
197 2 2 -1.754152e+00 -1.804656e+01 -1.266710e+01 -1 0 2 6.677118e-02 1.259336e-02 -4.967587e-01 -8.652247e-01
198 2 4 -1.988319e+00 -1.759052e+01 -1.269458e+01 -1 0 2 -2.895333e-01 1.154255e-01 5.172515e-01 7.970560e-01
199 2 3 -2.151741e+00 -1.714981e+01 -1.259686e+01 -1 0 2 -3.644183e-01 8.840939e-02 5.729349e-01 7.287858e-01
200 2 4 -2.529530e+00 -1.674958e+01 -1.255193e+01 -1 0 2 -6.365351e-01 3.314382e-01 4.124676e-01 5.611081e-01
