ITEM: TIMESTEP
333000000
ITEM: NUMBER OF ATOMS
200
ITEM: BOX BOUNDS pp pp pp
-2.0000000000000000e+01 2.0000000000000000e+01
-2.0000000000000000e+01 2.0000000000000000e+01
-2.0000000000000000e+01 2.0000000000000000e+01
ITEM: ATOMS id mol type x y z ix iy iz c_quat[1] c_quat[2] c_quat[3] c_quat[4]
1 1 1 -1.917018e+01 -1.930133e+01 -1.835877e+01 0 0 2 1.451398e-01 -7.220450e-01 -2.079507e-01 6.436939e-01
2 1 2 -1.963345e+01 -1.896842e+01 -1.845267e+01 0 0 2 -1.303186e-01 -8.104728e-01 8.736685e-02 5.643739e-01
3 1 1 -1.993814e+01 -1.875428e+01 -1.880206e+01 0 0 2 -2.165330e-01 -7.273531e-01 4.424851e-01 4.777843e-01
4 1 3 1.993071e+01 -1.861233e+01 -1.925301e+01 -1 0 2 -2.364204e-01 -5.777663e-01 6.877429e-01 3.705417e-01
5 1 1 1.974576e+01 -1.860360e+01 -1.970403e+01 -1 0 2 3.355906e-01 3.862524e-01 -8.405192e-01 -1.780885e-01
6 1 2 1.940616e+01 -1.887864e+01 1.985853e+01 -1 0 1 4.832481e-01 1.537658e-01 -8.618588e-01 -5.168128e-03
7 1 4 1.902667e+01 -1.920286e+01 1.966458e+01 -1 0 1 5.314870e-01 -4.952739e-02 -8.303450e-01 1.599866e-01
8 1 1 1.848073e+01 -1.954645e+01 1.975317e+01 -1 0 1 4.958095e-01 -3.739168e-01 -7.206611e-01 3.082317e-01
9 1 1 1.797433e+01 -1.961626e+01 1.978227e+01 -1 0 1 -4.683649e-01 5.857789e-01 5.658013e-01 -3.425876e-01
10 1 4 1.751152e+01 -1.951729e+01 -2.008905e+01 -1 0 2 3.750078e-01 -7.099035e-01 -3.388199e-01 4.905173e-01
11 1 1 1.711342e+01 -1.913725e+01 -1.989830e+01 -1 0 2 1.745803e-01 -7.637554e-01 -3.674730e-02 6.203620e-01
12 1 1 1.672147e+01 -1.873186e+01 -1.992152e+01 -1 0 2 -5.131254e-02 7.878247e-01 -1.815748e-01 -5.862849e-01
13 1 3 1.626833e+01 -1.836506e+01 1.975104e+01 -1 0 1 -1.690796e-01 -7.752690e-01 3.155015e-01 5.204122e-01
14 1 4 1.605714e+01 -1.823417e+01 1.931122e+01 -1 0 1 2.826922e-01 6.863996e-01 -5.558674e-01 -3.741018e-01
15 1 4 1.578011e+01 -1.835507e+01 1.882071e+01 -1 0 1 4.906824e-01 4.745194e-01 -7.059314e-01 -1.890052e-01
16 1 2 1.560932e+01 -1.868080e+01 1.848112e+01 -1 0 1 -5.043105e-01 -2.368986e-01 8.290448e-01 -4.727294e-02
17 1 1 1.532323e+01 -1.907564e+01 1.823967e+01 -1 0 1 -5.282695e-01 -3.576120e-02 8.305480e-01 -1.727496e-01
18 1 2 1.497535e+01 -1.943602e+01 1.828808e+01 -1 0 1 3.826882e-01 -3.031079e-01 -8.282718e-01 2.750294e-01
19 1 3 1.445347e+01 -1.964280e+01 1.830855e+01 -1 0 1 3.850333e-01 -4.559202e-01 -6.491644e-01 4.716691e-01
20 1 1 1.393250e+01 -1.959885e+01 1.850017e+01 -1 0 1 1.650875e-01 -7.106833e-01 -4.324460e-01 5.297790e-01
21 1 4 1.346970e+01 -1.941860e+01 1.852345e+01 -1 0 1 -1.016426e-01 7.958766e-01 1.712942e-01 -5.717582e-01
22 1 1 1.298775e+01 -1.920955e+01 1.838905e+01 -1 0 1 -4.479198e-02 8.455189e-01 -3.715061e-02 -5.307649e-01
23 1 4 1.276869e+01 -1.897522e+01 1.795003e+01 -1 0 1 1.740598e-01 8.059991e-01 -3.873493e-01 -4.123460e-01
24 1 3 1.250465e+01 -1.891359e+01 1.742076e+01 -1 0 1 2.192288e-01 7.414337e-01 -5.986800e-01 -2.092776e-01
25 1 3 1.238117e+01 -1.911156e+01 1.688107e+01 -1 0 1 3.088100e-01 6.574478e-01 -6.858405e-01 -4.496210e-02
26 1 4 1.232657e+01 -1.943540e+01 1.645875e+01 -1 0 1 3.723103e-01 3.321070e-01 -8.607326e-01 1.011399e-01
27 1 4 1.213344e+01 -1.995234e+01 1.619026e+01 -1 0 1 4.144837e-01 5.370156e-03 -8.740970e-01 2.532368e-01
28 1 1 1.182596e+01 1.962093e+01 1.614467e+01 -1 -1 1 3.496269e-01 -2.472389e-01 -8.326718e-01 3.511290e-01
29 1 1 1.135563e+01 1.936092e+01 1.621461e+01 -1 -1 1 2.946928e-01 -4.584343e-01 -7.315804e-01 4.096146e-01
30 1 4 1.090892e+01 1.923119e+01 1.636060e+01 -1 -1 1 -2.106990e-01 6.111973e-01 5.010849e-01 -5.752892e-01
31 1 4 1.033425e+01 1.931070e+01 1.640401e+01 -1 -1 1 -1.088803e-01 7.463304e-01 2.789002e-01 -5.944331e-01
32 1 3 9.838682e+00 1.959293e+01 1.619445e+01 -1 -1 1 1.824391e-01 8.211853e-01 -6.116767e-02 -5.372422e-01
33 1 3 9.421175e+00 1.971186e+01 1.589711e+01 -1 -1 1 2.840738e-01 8.109356e-01 -3.103142e-01 -4.066825e-01
34 1 1 9.148557e+00 1.973770e+01 1.553151e+01 -1 -1 1 3.361116e-01 7.138826e-01 -5.756324e-01 -2.145880e-01
35 1 2 8.915085e+00 1.952174e+01 1.508165e+01 -1 -1 1 4.165672e-01 5.870555e-01 -6.842170e-01 -1.169818e-01
36 1 2 8.781117e+00 1.917088e+01 1.473639e+01 -1 -1 1 4.079692e-01 4.352650e-01 -7.902321e-01 1.401381e-01
37 1 1 8.587946e+00 1.871427e+01 1.448741e+01 -1 -1 1 4.314961e-01 1.214594e-01 -8.395606e-01 3.069150e-01
38 1 1 8.360015e+00 1.824402e+01 1.447371e+01 -1 -1 1 3.723208e-01 -2.092758e-01 -8.239407e-01 3.724280e-01
39 1 4 7.949304e+00 1.791319e+01 1.439600e+01 -1 -1 1 -3.382822e-01 4.898373e-01 7.079039e-01 -3.801271e-01
40 1 4 7.460273e+00 1.783126e+01 1.446922e+01 -1 -1 1 -2.789511e-01 6.676567e-01 5.250747e-01 -4.480150e-01
41 1 2 6.952442e+00 1.796583e+01 1.438806e+01 -1 -1 1 -1.681342e-01 8.402293e-01 1.935511e-01 -4.777902e-01
42 1 4 6.584916e+00 1.824769e+01 1.413492e+01 -1 -1 1 1.805829e-01 -9.045906e-01 4.705493e-02 3.832642e-01
43 1 3 6.552777e+00 1.864123e+01 1.383306e+01 -1 -1 1 -4.142228e-02 8.271693e-01 -3.762422e-01 -4.153516e-01
44 1 2 6.767613e+00 1.895821e+01 1.342615e+01 -1 -1 1 -3.156547e-02 6.644632e-01 -6.528578e-01 -3.623105e-01
45 1 1 6.774425e+00 1.911948e+01 1.291914e+01 -1 -1 1 1.560437e-01 4.349538e-01 -8.056481e-01 -3.706706e-01
46 1 3 6.566503e+00 1.921708e+01 1.237014e+01 -1 -1 1 3.320711e-01 2.775459e-01 -8.702137e-01 -2.354257e-01
47 1 4 6.338962e+00 1.902848e+01 1.200053e+01 -1 -1 1 3.739983e-01 -1.056448e-01 -9.203792e-01 -4.320435e-02
48 1 1 5.866304e+00 1.876922e+01 1.186472e+01 -1 -1 1 -3.843060e-01 3.723307e-01 8.233829e-01 -1.889957e-01
49 1 4 5.337313e+00 1.866883e+01 1.177136e+01 -1 -1 1 -3.886187e-01 5.791985e-01 6.356369e-01 -3.308630e-01
50 1 4 4.840596e+00 1.882218e+01 1.170598e+01 -1 -1 1 -3.943950e-01 6.676107e-01 4.723024e-01 -4.191408e-01
51 1 4 4.373554e+00 1.901157e+01 1.178760e+01 -1 -1 1 -3.181471e-01 7.587856e-01 2.359098e-01 -5.170817e-01
52 1 1 4.106850e+00 1.941478e+01 1.182935e+01 -1 -1 1 -2.643049e-01 7.598628e-01 -8.648408e-02 -5.875984e-01
53 1 3 3.836777e+00 1.993737e+01 1.160609e+01 -1 -1 1 -9.348839e-02 -7.011217e-01 3.677594e-01 6.036898e-01
54 1 4 3.509564e+00 -1.983408e+01 1.127070e+01 -1 0 1 -2.479615e-01 -6.782496e-01 5.277314e-01 4.472048e-01
55 1 4 3.166981e+00 -1.981677e+01 1.079641e+01 -1 0 1 5.878601e-01 3.859854e-01 -6.036317e-01 -3.755856e-01
56 1 4 2.837474e+00 1.995352e+01 1.038929e+01 -1 -1 1 5.916474e-01 2.606308e-01 -7.502115e-01 -1.385914e-01
57 1 1 2.346162e+00 1.973288e+01 1.017163e+01 -1 -1 1 -6.663383e-01 -3.656177e-02 7.435627e-01 -4.208201e-02
58 1 1 1.904198e+00 1.941513e+01 1.030029e+01 -1 -1 1 6.570161e-01 -2.082594e-01 -6.795918e-01 2.512226e-01
59 1 3 1.449980e+00 1.920950e+01 1.052554e+01 -1 -1 1 -5.877998e-01 4.523541e-01 5.361968e-01 -4.029395e-01
60 1 4 1.054486e+00 1.926925e+01 1.082505e+01 -1 -1 1 -4.637561e-01 5.859219e-01 3.745247e-01 -5.489600e-01
61 1 2 7.970432e-01 1.951940e+01 1.115759e+01 -1 -1 1 4.179255e-01 -5.390379e-01 -9.691144e-02 7.248342e-01
62 1 3 4.237047e-01 1.996240e+01 1.136599e+01 -1 -1 1 -1.757320e-01 6.592530e-01 -1.194229e-01 -7.212780e-01
63 1 2 9.127223e-03 -1.966756e+01 1.135802e+01 -1 0 1 -7.403845e-02 -6.797005e-01 2.191290e-01 6.960661e-01
64 1 4 -3.209960e-01 -1.937096e+01 1.126409e+01 -1 0 1 -2.960230e-01 -5.744889e-01 3.961335e-01 6.522355e-01
65 1 2 -7.791610e-01 -1.921799e+01 1.091872e+01 -1 0 1 5.107746e-01 4.648001e-01 -5.588804e-01 -4.590455e-01
66 1 1 -1.209260e+00 -1.928437e+01 1.068710e+01 -1 0 1 -6.012650e-01 -3.860782e-01 6.557115e-01 2.438574e-01
67 1 2 -1.586558e+00 -1.961473e+01 1.045944e+01 -1 0 1 -6.603829e-01 -1.347918e-01 7.387314e-01 1.206709e-03
68 1 1 -2.079182e+00 2.001212e+01 1.050140e+01 -1 -1 1 7.035326e-01 -9.262978e-02 -6.795632e-01 1.861595e-01
69 1 1 -2.464013e+00 1.970349e+01 1.080053e+01 -1 -1 1 -6.537751e-01 3.039223e-01 5.711375e-01 -3.924428e-01
70 1 2 -2.725957e+00 1.947378e+01 1.126235e+01 -1 -1 1 5.354077e-01 -3.810696e-01 -5.203664e-01 5.452920e-01
71 1 3 -3.111569e+00 1.947535e+01 1.160404e+01 -1 -1 1 3.506941e-01 -5.896766e-01 -3.770107e-01 6.222203e-01
72 1 4 -3.523938e+00 1.897414e+01 1.144480e+01 -1 -1 1 7.953817e-01 5.761903e-01 2.852827e-02 -1.859001e-01
73 1 1 -4.567632e+00 1.868128e+01 1.185366e+01 -1 -1 1 3.918639e-01 -5.223097e-01 -6.804036e-01 -3.326955e-01
74 1 1 -4.834484e+00 1.812188e+01 1.056419e+01 -1 -1 1 2.666992e-01 2.432133e-01 -4.685282e-01 -8.063499e-01
75 1 3 -4.253501e+00 1.708318e+01 1.125270e+01 -1 -1 1 1.521021e-01 6.980830e-01 -6.900433e-01 1.156953e-01
76 1 1 -4.298611e+00 1.678017e+01 1.074656e+01 -1 -1 1 -2.641210e-01 -6.789083e-01 6.357412e-01 -2.552583e-01
77 1 4 -4.325604e+00 1.652324e+01 9.696628e+00 -1 -1 1 6.815010e-01 3.531612e-01 -3.676148e-01 -5.250647e-01
78 1 1 -3.101235e+00 1.660157e+01 9.639935e+00 -1 -1 1 5.761375e-01 -5.506570e-01 5.972422e-01 9.024522e-02
79 1 4 -2.690893e+00 1.678164e+01 9.533323e+00 -1 -1 1 4.630306e-01 -1.695418e-01 7.686914e-01 4.073963e-01
80 1 2 -1.945054e+00 1.621641e+01 1.047516e+01 -1 -1 1 9.779460e-01 -1.670554e-01 -7.314378e-02 -1.018038e-01
81 1 4 -1.887678e+00 1.621821e+01 1.099716e+01 -1 -1 1 -9.617328e-01 2.309936e-01 -1.140098e-01 -9.334777e-02
82 1 4 -1.650646e+00 1.612817e+01 1.141690e+01 -1 -1 1 -8.723077e-01 1.070760e-01 -2.186399e-01 -4.240409e-01
83 1 4 -1.367714e+00 1.622746e+01 1.180429e+01 -1 -1 1 7.196446e-01 9.770957e-02 3.623910e-01 5.841552e-01
84 1 4 -7.685532e-01 1.616723e+01 1.200185e+01 -1 -1 1 -1.197411e-01 5.874819e-01 -7.828830e-01 -1.661968e-01
85 1 1 -6.242322e-01 1.616358e+01 1.150419e+01 -1 -1 1 -9.007281e-02 -5.696445e-02 9.190896e-01 3.793629e-01
86 1 1 4.858845e-01 1.639495e+01 1.232142e+01 -1 -1 1 -1.916794e-01 8.531438e-01 -4.573903e-01 -1.618607e-01
87 1 3 7.531569e-01 1.661059e+01 1.188859e+01 -1 -1 1 1.658364e-03 -6.293632e-01 7.575749e-01 1.731462e-01
88 1 2 7.461609e-01 1.729913e+01 1.104279e+01 -1 -1 1 4.202092e-01 -4.565110e-01 3.713515e-01 6.907388e-01
89 1 2 -1.798323e-02 1.674410e+01 1.078120e+01 -1 -1 1 -5.166664e-01 1.739992e-01 1.379962e-01 8.268840e-01
90 1 3 7.962745e-01 1.619855e+01 1.037373e+01 -1 -1 1 2.360459e-01 3.660568e-02 9.373191e-01 2.537228e-01
91 1 3 8.732648e-01 1.638012e+01 9.723719e+00 -1 -1 1 1.048760e-01 -6.512611e-02 -4.922464e-01 -8.616572e-01
92 1 2 7.529990e-01 1.681991e+01 9.689585e+00 -1 -1 1 3.702907e-01 -1.466977e-01 -4.807074e-01 -7.812074e-01
93 1 1 3.136378e-01 1.713706e+01 9.744558e+00 -1 -1 1 -6.527259e-01 4.342098e-01 3.397733e-01 5.195814e-01
94 1 2 -2.175944e-01 1.804272e+01 9.245538e+00 -1 -1 1 -3.163357e-01 -9.048053e-02 8.525369e-02 -9.404663e-01
95 1 3 -9.860886e-01 1.702485e+01 9.052250e+00 -1 -1 1 -5.356165e-01 2.211132e-01 7.852188e-01 2.183012e-01
96 1 2 -1.485945e+00 1.710050e+01 8.919711e+00 -1 -1 1 5.164471e-01 -5.625599e-01 -6.406569e-01 -7.979630e-02
97 1 2 -1.552756e+00 1.626708e+01 7.729007e+00 -1 -1 1 -8.151616e-01 1.006234e-01 -5.688032e-01 -4.300475e-02
98 1 4 -9.961163e-01 1.623277e+01 7.850972e+00 -1 -1 1 -6.869542e-01 -8.725027e-02 -6.477333e-01 -3.176836e-01
99 1 2 -3.703288e-01 1.693684e+01 8.073432e+00 -1 -1 1 -1.250732e-01 -9.521384e-01 -2.660071e-01 -8.384188e-02
100 1 1 -9.376514e-02 1.608750e+01 7.065887e+00 -1 -1 1 -4.319207e-01 3.193073e-01 -6.730694e-01 -5.083945e-01
101 2 4 -1.439558e-01 -1.329829e+01 1.273174e+01 -1 0 1 -2.734791e-01 -4.421036e-01 8.621820e-03 8.542127e-01
102 2 3 -6.354163e-01 -1.325625e+01 1.280395e+01 -1 0 1 6.371803e-01 4.395199e-01 -2.082403e-01 -5.978792e-01
103 2 1 -1.038610e+00 -1.338349e+01 1.281361e+01 -1 0 1 8.523284e-01 2.460104e-01 -4.018769e-01 -2.269587e-01
104 2 3 -1.346485e+00 -1.366681e+01 1.305107e+01 -1 0 1 -8.901746e-01 3.116173e-02 4.377877e-01 -1.223117e-01
105 2 3 -2.487701e+00 -1.360503e+01 1.261074e+01 -1 0 1 -2.529362e-02 -6.954175e-01 -7.168813e-01 4.284789e-02
106 2 2 -2.572741e+00 -1.340286e+01 1.206436e+01 -1 0 1 1.331190e-01 -8.450556e-01 -5.056034e-01 -1.119177e-01
107 2 3 -3.361395e+00 -1.428161e+01 1.223242e+01 -1 0 1 -2.438474e-02 4.666169e-01 8.836575e-01 -2.869747e-02
108 2 4 -3.819013e+00 -1.425349e+01 1.192414e+01 -1 0 1 3.390750e-02 8.136387e-01 5.802527e-01 -1.221650e-02
109 2 3 -3.930649e+00 -1.429823e+01 1.148172e+01 -1 0 1 -2.678287e-01 -9.557653e-01 -4.167670e-02 -1.142080e-01
110 2 2 -3.734720e+00 -1.452007e+01 1.103739e+01 -1 0 1 1.605261e-01 9.667647e-01 2.078736e-02 1.979021e-01
111 2 2 -3.481102e+00 -1.447018e+01 1.066036e+01 -1 0 1 -1.578388e-01 -8.423630e-01 4.389349e-01 -2.699030e-01
112 2 3 -4.496101e+00 -1.386938e+01 9.654982e+00 -1 0 1 -2.593112e-01 3.424234e-01 -2.757846e-01 -8.599109e-01
113 2 3 -5.150274e+00 -1.516808e+01 9.808141e+00 -1 0 1 -4.076250e-02 -2.692345e-01 9.430975e-01 1.908360e-01
114 2 2 -5.187896e+00 -1.530748e+01 9.345543e+00 -1 0 1 1.105568e-01 -1.265464e-01 -9.739484e-01 -1.522749e-01
115 2 4 -4.619875e+00 -1.533518e+01 9.025818e+00 -1 0 1 7.447821e-01 -3.519866e-01 -2.244760e-01 5.205915e-01
116 2 4 -4.889903e+00 -1.592867e+01 7.869197e+00 -1 0 1 8.809491e-01 -1.471853e-01 3.961479e-01 2.129131e-01
117 2 1 -5.423528e+00 -1.644209e+01 7.448576e+00 -1 0 1 5.953106e-01 4.200448e-01 -6.749354e-01 -1.167469e-01
118 2 1 -5.562560e+00 -1.681014e+01 7.138225e+00 -1 0 1 -4.829995e-01 -2.655487e-02 8.664926e-01 -1.232757e-01
119 2 1 -5.908360e+00 -1.722878e+01 7.137448e+00 -1 0 1 4.233933e-01 -3.203590e-01 -7.593868e-01 3.760849e-01
120 2 1 -6.459918e+00 -1.726252e+01 7.093324e+00 -1 0 1 -4.865394e-01 4.071056e-01 6.139626e-01 -4.696747e-01
121 2 3 -6.232821e+00 -1.786234e+01 6.631901e+00 -1 0 1 -1.037480e-01 -2.364858e-01 2.768760e-01 -9.255541e-01
122 2 1 -6.200985e+00 -1.801030e+01 7.207844e+00 -1 0 1 1.320607e-01 3.204774e-02 2.672382e-01 -9.540003e-01
123 2 4 -6.463223e+00 -1.800031e+01 7.712787e+00 -1 0 1 5.282084e-01 9.167287e-02 2.316457e-01 -8.117464e-01
124 2 1 -5.847794e+00 -1.896002e+01 7.758725e+00 -1 0 1 -4.718566e-01 1.203202e-01 -8.590857e-01 1.576269e-01
125 2 4 -5.093461e+00 -1.906215e+01 8.486051e+00 -1 0 1 -7.084018e-02 6.211650e-01 -3.931554e-01 6.742141e-01
126 2 2 -4.621999e+00 -1.916438e+01 8.707832e+00 -1 0 1 4.021304e-01 -4.017100e-01 6.017351e-01 -5.611017e-01
127 2 4 -4.620037e+00 -1.972479e+01 8.598380e+00 -1 0 1 4.069658e-01 5.842412e-01 -5.078787e-01 -4.848714e-01
128 2 4 -4.499878e+00 -1.893953e+01 9.201095e+00 -1 0 1 1.513483e-01 1.819319e-01 2.422708e-02 -9.712917e-01
129 2 1 -4.324172e+00 -1.908197e+01 9.991523e+00 -1 0 1 2.380345e-01 -2.820711e-01 -7.854400e-01 -4.968495e-01
130 2 2 -3.336211e+00 -1.945593e+01 1.110966e+01 -1 0 1 4.429106e-01 -6.914386e-01 2.502603e-01 -5.129451e-01
131 2 3 -2.922557e+00 -1.927342e+01 1.137273e+01 -1 0 1 -5.561348e-01 5.300550e-01 -4.846626e-01 4.181602e-01
132 2 4 -2.387832e+00 -1.930528e+01 1.151239e+01 -1 0 1 -5.757216e-01 3.836084e-01 -6.582977e-01 2.967041e-01
133 2 4 -1.971998e+00 -1.960221e+01 1.164022e+01 -1 0 1 -6.523640e-01 1.186211e-01 -7.295379e-01 1.677044e-01
134 2 3 -1.593169e+00 -1.990533e+01 1.162186e+01 -1 0 1 6.670165e-01 1.759538e-01 7.224241e-01 4.725142e-02
135 2 4 -1.243187e+00 1.974391e+01 1.137222e+01 -1 -1 1 5.918328e-01 4.362514e-01 6.302855e-01 2.493167e-01
136 2 3 -8.685819e-01 1.959824e+01 1.112049e+01 -1 -1 1 -4.172654e-01 -6.168848e-01 -5.795589e-01 -3.308385e-01
137 2 1 -5.101035e-01 1.959776e+01 1.069272e+01 -1 -1 1 2.747628e-01 7.161513e-01 4.612938e-01 4.459156e-01
138 2 3 -1.633027e-01 1.976547e+01 1.031193e+01 -1 -1 1 -1.722061e-01 -7.642069e-01 -1.949884e-01 -5.901799e-01
139 2 2 2.633553e-01 2.009878e+01 1.019981e+01 -1 -1 1 3.606158e-02 -7.625169e-01 1.413855e-01 -6.302997e-01
140 2 3 7.668674e-01 -1.970228e+01 1.021479e+01 -1 0 1 2.163436e-01 -6.785738e-01 2.236222e-01 -6.653768e-01
141 2 1 1.237866e+00 -1.962398e+01 1.046181e+01 -1 0 1 -4.171795e-01 5.108276e-01 -4.320471e-01 6.151030e-01
142 2 2 1.562685e+00 -1.966341e+01 1.093687e+01 -1 0 1 -6.080032e-01 2.790884e-01 -5.145437e-01 5.363642e-01
143 2 4 1.873955e+00 -1.991146e+01 1.130590e+01 -1 0 1 -7.026962e-01 8.331928e-02 -6.179227e-01 3.427061e-01
144 2 4 2.270201e+00 1.970483e+01 1.149153e+01 -1 -1 1 -7.041362e-01 6.844856e-03 -7.099467e-01 1.100735e-02
145 2 1 2.659064e+00 1.933770e+01 1.146509e+01 -1 -1 1 7.124710e-01 2.070013e-01 6.529818e-01 1.521522e-01
146 2 1 3.093619e+00 1.905451e+01 1.113532e+01 -1 -1 1 6.019714e-01 4.273994e-01 5.468310e-01 3.948874e-01
147 2 1 3.505830e+00 1.905426e+01 1.083159e+01 -1 -1 1 4.821488e-01 5.508754e-01 3.052460e-01 6.090104e-01
148 2 2 3.937304e+00 1.925337e+01 1.066271e+01 -1 -1 1 1.652163e-01 6.258942e-01 1.263966e-01 7.516541e-01
149 2 4 4.377446e+00 1.950604e+01 1.068950e+01 -1 -1 1 6.871527e-03 -5.964420e-01 5.069774e-02 -8.010240e-01
150 2 1 4.811228e+00 1.976642e+01 1.104416e+01 -1 -1 1 2.680307e-01 -4.650026e-01 1.557442e-01 -8.292623e-01
151 2 1 5.099687e+00 1.993014e+01 1.152554e+01 -1 -1 1 5.477668e-01 -2.982773e-01 2.423051e-01 -7.431490e-01
152 2 1 5.327983e+00 1.981056e+01 1.207982e+01 -1 -1 1 6.215185e-01 -1.220105e-01 4.133877e-01 -6.541703e-01
153 2 4 5.298327e+00 1.954017e+01 1.253267e+01 -1 -1 1 8.361424e-01 3.481420e-02 3.660895e-01 -4.069796e-01
154 2 1 5.458411e+00 1.920300e+01 1.287349e+01 -1 -1 1 8.862286e-01 2.537354e-01 3.549950e-01 -1.555498e-01
155 2 2 5.716309e+00 1.863986e+01 1.294728e+01 -1 -1 1 8.483102e-01 3.610792e-01 3.872699e-01 3.706940e-03
156 2 4 6.068852e+00 1.816688e+01 1.280415e+01 -1 -1 1 7.585806e-01 4.885065e-01 2.158235e-01 3.732788e-01
157 2 3 6.574375e+00 1.794657e+01 1.279978e+01 -1 -1 1 5.742330e-01 4.650191e-01 1.092892e-01 6.648831e-01
158 2 2 7.148284e+00 1.804483e+01 1.300442e+01 -1 -1 1 3.007731e-01 3.643447e-01 3.854045e-02 8.805130e-01
159 2 1 7.454818e+00 1.831948e+01 1.333438e+01 -1 -1 1 -1.765299e-02 3.285782e-01 3.863879e-02 9.435210e-01
160 2 3 7.622686e+00 1.868449e+01 1.358361e+01 -1 -1 1 3.552276e-01 -3.780192e-01 1.170534e-02 -8.548554e-01
161 2 1 7.564858e+00 1.897623e+01 1.409712e+01 -1 -1 1 5.314701e-01 -3.556287e-01 1.807511e-01 -7.472595e-01
162 2 1 7.671358e+00 1.905171e+01 1.458642e+01 -1 -1 1 7.309574e-01 -2.129832e-01 2.936753e-01 -5.780089e-01
163 2 4 7.696495e+00 1.897698e+01 1.503440e+01 -1 -1 1 8.612049e-01 -1.252298e-01 3.591269e-01 -3.371519e-01
164 2 4 7.866566e+00 1.868995e+01 1.544682e+01 -1 -1 1 9.162713e-01 -2.727296e-02 3.958221e-01 5.502749e-02
165 2 3 8.377580e+00 1.852324e+01 1.564293e+01 -1 -1 1 7.859350e-01 1.077207e-01 4.953779e-01 3.539820e-01
166 2 3 8.948630e+00 1.853180e+01 1.565134e+01 -1 -1 1 6.088647e-01 2.825269e-01 5.609856e-01 4.845178e-01
167 2 4 9.519540e+00 1.858699e+01 1.546075e+01 -1 -1 1 4.309593e-01 3.985217e-01 4.852321e-01 6.480774e-01
168 2 2 9.998537e+00 1.889908e+01 1.524537e+01 -1 -1 1 1.973648e-01 4.694451e-01 4.152879e-01 7.537934e-01
169 2 2 1.037554e+01 1.931386e+01 1.515997e+01 -1 -1 1 -5.602464e-02 5.011139e-01 2.859903e-01 8.148347e-01
170 2 1 1.065249e+01 1.984979e+01 1.539081e+01 -1 -1 1 -2.588934e-01 4.948592e-01 1.056258e-01 8.227587e-01
171 2 1 1.069832e+01 -1.975989e+01 1.571463e+01 -1 0 1 5.582772e-01 -5.048144e-01 5.849613e-02 -6.557951e-01
172 2 4 1.094263e+01 -1.950446e+01 1.618165e+01 -1 0 1 7.364100e-01 -3.035454e-01 1.899169e-01 -5.740140e-01
173 2 4 1.108781e+01 -1.957857e+01 1.666468e+01 -1 0 1 8.881469e-01 -1.830354e-01 3.221825e-01 -2.718300e-01
174 2 1 1.135390e+01 -1.976203e+01 1.707186e+01 -1 0 1 8.948439e-01 -7.554838e-02 4.375668e-01 -4.563037e-02
175 2 1 1.171864e+01 -2.006402e+01 1.729150e+01 -1 0 1 8.544631e-01 1.545882e-02 4.042994e-01 3.258771e-01
176 2 2 1.229008e+01 1.978158e+01 1.734806e+01 -1 -1 1 7.235696e-01 1.971068e-01 3.681337e-01 5.496122e-01
177 2 2 1.278495e+01 1.994637e+01 1.730071e+01 -1 -1 1 4.896315e-01 3.300418e-01 3.535330e-01 7.254983e-01
178 2 1 1.328941e+01 -1.981670e+01 1.735008e+01 -1 0 1 3.202435e-01 3.657973e-01 3.797997e-01 7.870124e-01
179 2 4 1.354416e+01 -1.925364e+01 1.732463e+01 -1 0 1 -3.213806e-02 5.236608e-01 1.380749e-01 8.400487e-01
180 2 1 1.385599e+01 -1.886817e+01 1.752766e+01 -1 0 1 -3.088644e-01 5.001551e-01 -4.290942e-02 8.078406e-01
181 2 4 1.401568e+01 -1.856285e+01 1.788326e+01 -1 0 1 5.214007e-01 -4.424008e-01 1.270971e-01 -7.185188e-01
182 2 2 1.412478e+01 -1.850138e+01 1.840561e+01 -1 0 1 7.626839e-01 -2.900010e-01 2.902492e-01 -4.999681e-01
183 2 3 1.434608e+01 -1.865885e+01 1.892521e+01 -1 0 1 8.468543e-01 -2.251241e-01 4.103505e-01 -2.525260e-01
184 2 4 1.471784e+01 -1.891090e+01 1.929778e+01 -1 0 1 8.816832e-01 -9.676356e-03 4.639192e-01 -8.555722e-02
185 2 3 1.517416e+01 -1.918615e+01 1.950655e+01 -1 0 1 -8.363023e-01 -1.157619e-01 -5.007429e-01 -1.909299e-01
186 2 1 1.570078e+01 -1.942501e+01 1.943969e+01 -1 0 1 -6.819539e-01 -3.041658e-01 -5.434173e-01 -3.835618e-01
187 2 1 1.620477e+01 -1.951295e+01 1.936585e+01 -1 0 1 5.063861e-01 4.085188e-01 5.508304e-01 5.227536e-01
188 2 2 1.664868e+01 -1.937929e+01 1.911384e+01 -1 0 1 -3.211660e-01 -5.043735e-01 -4.274039e-01 -6.780750e-01
189 2 4 1.701555e+01 -1.903229e+01 1.896221e+01 -1 0 1 -1.002151e-01 -5.842427e-01 -1.187111e-01 -7.965708e-01
190 2 4 1.744304e+01 -1.872203e+01 1.904249e+01 -1 0 1 1.877799e-01 -5.466479e-01 8.625612e-02 -8.114645e-01
191 2 1 1.775593e+01 -1.847766e+01 1.939584e+01 -1 0 1 -4.111457e-01 4.664831e-01 -2.105461e-01 7.543362e-01
192 2 4 1.808811e+01 -1.843777e+01 1.992292e+01 -1 0 1 6.306565e-01 -2.342211e-01 2.804687e-01 -6.846533e-01
193 2 4 1.824402e+01 -1.854598e+01 -1.949481e+01 -1 0 2 -7.446214e-01 2.228239e-01 -4.990700e-01 3.831678e-01
194 2 1 1.855370e+01 -1.889082e+01 -1.927403e+01 -1 0 2 8.098550e-01 1.083522e-01 5.561843e-01 -1.518343e-01
195 2 3 1.881217e+01 -1.928610e+01 -1.915997e+01 -1 0 2 -8.120847e-01 -3.110878e-01 -4.930978e-01 -2.444217e-02
196 2 4 1.920757e+01 -1.958793e+01 -1.922558e+01 -1 0 2 6.696869e-01 5.048226e-01 4.273388e-01 3.377205e-01
197 2 2 1.977043e+01 -1.979881e+01 -1.934861e+01 -1 0 2 -5.759774e-01 -4.738823e-01 -3.885583e-01 -5.410250e-01
198 2 4 -1.965809e+01 -1.971639e+01 -1.941302e+01 0 0 2 3.503519e-01 4.888541e-01 3.343631e-01 7.255870e-01
199 2 3 -1.927592e+01 -1.937493e+01 -1.952287e+01 0 0 2 3.794728e-02 5.924882e-01 2.737228e-01 7.566991e-01
200 2 4 -1.901724e+01 -1.895430e+01 -1.957007e+01 0 0 2 2.538797e-01 -6.430086e-01 -8.857837e-02 -7.171046e-01
