ITEM: TIMESTEP
374000000
ITEM: NUMBER OF ATOMS
200
ITEM: BOX BOUNDS pp pp pp
-2.0000000000000000e+01 2.0000000000000000e+01
-2.0000000000000000e+01 2.0000000000000000e+01
-2.0000000000000000e+01 2.0000000000000000e+01
ITEM: ATOMS id mol type x y z ix iy iz c_quat[1] c_quat[2] c_quat[3] c_quat[4]
1 1 1 -1.980122e+01 -1.886695e+01 1.871633e+01 0 0 1 -6.196785e-01 6.879658e-01 -2.160455e-01 3.098806e-01
2 1 2 1.963079e+01 -1.954198e+01 1.792631e+01 -1 0 1 4.553948e-01 6.206287e-01 -3.685119e-01 -5.211858e-01
3 1 1 1.930790e+01 -1.960007e+01 1.766870e+01 -1 0 1 -6.050608e-01 -4.083348e-01 6.488015e-01 2.149901e-01
4 1 3 1.903080e+01 -1.984218e+01 1.744019e+01 -1 0 1 -5.467434e-01 -2.923830e-01 7.772758e-01 -1.068928e-01
5 1 1 1.871766e+01 1.973352e+01 1.726543e+01 -1 -1 1 -5.558765e-01 -2.555977e-01 7.474609e-01 -2.587922e-01
6 1 2 1.849653e+01 1.922448e+01 1.717307e+01 -1 -1 1 5.124222e-01 -3.870400e-02 -7.759830e-01 3.657537e-01
7 1 4 1.819409e+01 1.876268e+01 1.734380e+01 -1 -1 1 4.502290e-01 -2.257693e-01 -6.972041e-01 5.101259e-01
8 1 1 1.788039e+01 1.852949e+01 1.768360e+01 -1 -1 1 2.626467e-01 -4.322604e-01 -5.665287e-01 6.505481e-01
9 1 1 1.732057e+01 1.845145e+01 1.791600e+01 -1 -1 1 -1.832308e-01 5.794349e-01 3.633827e-01 -7.061407e-01
10 1 4 1.678242e+01 1.843629e+01 1.807917e+01 -1 -1 1 -7.831322e-02 -7.724518e-01 -2.097517e-01 5.942975e-01
11 1 1 1.627384e+01 1.858295e+01 1.794117e+01 -1 -1 1 -4.342028e-02 -8.216987e-01 4.180657e-02 5.667258e-01
12 1 1 1.598858e+01 1.889290e+01 1.769948e+01 -1 -1 1 2.701286e-01 7.174339e-01 -3.228568e-01 -5.550519e-01
13 1 3 1.555065e+01 1.893986e+01 1.744714e+01 -1 -1 1 -4.189474e-01 -6.747820e-01 4.837976e-01 3.675489e-01
14 1 4 1.528448e+01 1.876541e+01 1.699046e+01 -1 -1 1 4.811698e-01 5.084140e-01 -7.024197e-01 -1.288310e-01
15 1 4 1.499538e+01 1.839938e+01 1.669665e+01 -1 -1 1 5.754067e-01 2.628908e-01 -7.713196e-01 6.972492e-02
16 1 2 1.449506e+01 1.796402e+01 1.650530e+01 -1 -1 1 -6.957678e-01 -9.901492e-02 6.985080e-01 -1.348694e-01
17 1 1 1.422154e+01 1.760276e+01 1.665534e+01 -1 -1 1 -5.426939e-01 2.293240e-01 7.247952e-01 -3.571636e-01
18 1 2 1.384480e+01 1.741455e+01 1.693503e+01 -1 -1 1 4.108769e-01 -4.127077e-01 -6.182940e-01 5.277927e-01
19 1 3 1.335844e+01 1.731957e+01 1.717215e+01 -1 -1 1 2.732663e-01 -5.823231e-01 -4.536249e-01 6.168061e-01
20 1 1 1.287186e+01 1.734813e+01 1.743846e+01 -1 -1 1 8.297705e-02 -6.705322e-01 -3.173616e-01 6.654195e-01
21 1 4 1.237061e+01 1.752133e+01 1.743185e+01 -1 -1 1 2.315465e-02 7.335955e-01 9.751208e-02 -6.721554e-01
22 1 1 1.192151e+01 1.777498e+01 1.728783e+01 -1 -1 1 2.113063e-01 7.731388e-01 -1.632417e-01 -5.752896e-01
23 1 4 1.144377e+01 1.783552e+01 1.692749e+01 -1 -1 1 3.751046e-01 7.508509e-01 -3.221797e-01 -4.378580e-01
24 1 3 1.125201e+01 1.782518e+01 1.646587e+01 -1 -1 1 3.721024e-01 6.270203e-01 -6.128527e-01 -3.046258e-01
25 1 3 1.113338e+01 1.763512e+01 1.601686e+01 -1 -1 1 4.222174e-01 4.261813e-01 -7.966723e-01 -7.358838e-02
26 1 4 1.090685e+01 1.716274e+01 1.567370e+01 -1 -1 1 4.724860e-01 2.458284e-01 -8.288151e-01 1.714377e-01
27 1 4 1.076316e+01 1.667745e+01 1.573538e+01 -1 -1 1 3.957033e-01 -5.263877e-02 -8.671803e-01 2.977355e-01
28 1 1 1.046310e+01 1.631340e+01 1.572592e+01 -1 -1 1 3.049111e-01 -2.983675e-01 -8.167528e-01 3.884855e-01
29 1 1 1.015306e+01 1.591034e+01 1.576828e+01 -1 -1 1 1.239923e-01 -5.390323e-01 -6.940298e-01 4.608607e-01
30 1 4 9.645568e+00 1.574379e+01 1.563661e+01 -1 -1 1 -1.152263e-01 6.805817e-01 5.582977e-01 -4.602556e-01
31 1 4 9.070608e+00 1.583622e+01 1.562771e+01 -1 -1 1 5.882907e-02 8.199627e-01 2.544645e-01 -5.093605e-01
32 1 3 8.556143e+00 1.595547e+01 1.539716e+01 -1 -1 1 1.392609e-01 8.964202e-01 -2.847554e-02 -4.197933e-01
33 1 3 8.253982e+00 1.603127e+01 1.498841e+01 -1 -1 1 2.623085e-01 8.717274e-01 -2.735853e-01 -3.105425e-01
34 1 1 8.052186e+00 1.598463e+01 1.447676e+01 -1 -1 1 3.526792e-01 7.905866e-01 -4.761559e-01 -1.544855e-01
35 1 2 8.016524e+00 1.570938e+01 1.395156e+01 -1 -1 1 3.782172e-01 6.130363e-01 -6.911097e-01 5.920892e-02
36 1 2 8.052626e+00 1.525979e+01 1.354656e+01 -1 -1 1 4.652798e-01 3.338208e-01 -8.138306e-01 9.878308e-02
37 1 1 7.949726e+00 1.474698e+01 1.326633e+01 -1 -1 1 4.220655e-01 1.047697e-01 -8.454200e-01 3.100793e-01
38 1 1 7.724643e+00 1.431117e+01 1.329233e+01 -1 -1 1 2.973909e-01 -2.065354e-01 -8.377675e-01 4.087144e-01
39 1 4 7.247418e+00 1.387054e+01 1.329667e+01 -1 -1 1 -2.501916e-01 4.748937e-01 7.387134e-01 -4.076551e-01
40 1 4 6.824636e+00 1.370146e+01 1.330138e+01 -1 -1 1 -1.440005e-01 6.934657e-01 5.447754e-01 -4.489865e-01
41 1 2 6.275015e+00 1.383665e+01 1.328986e+01 -1 -1 1 7.907544e-02 8.226376e-01 3.326955e-01 -4.542336e-01
42 1 4 5.847884e+00 1.393449e+01 1.303367e+01 -1 -1 1 -1.912368e-01 -8.744315e-01 -8.927100e-02 4.368395e-01
43 1 3 5.531661e+00 1.399882e+01 1.257397e+01 -1 -1 1 2.564132e-01 9.177010e-01 -1.268008e-01 -2.756786e-01
44 1 2 5.379802e+00 1.404892e+01 1.210111e+01 -1 -1 1 2.782915e-01 8.300649e-01 -4.560539e-01 -1.598776e-01
45 1 1 5.252195e+00 1.389543e+01 1.158896e+01 -1 -1 1 3.522455e-01 7.187996e-01 -5.962666e-01 -6.096224e-02
46 1 3 5.402945e+00 1.359437e+01 1.116708e+01 -1 -1 1 3.016821e-01 4.915671e-01 -8.110052e-01 9.808254e-02
47 1 4 5.404076e+00 1.319529e+01 1.067995e+01 -1 -1 1 3.478397e-01 3.661550e-01 -8.390567e-01 2.022915e-01
48 1 1 5.322407e+00 1.268509e+01 1.048882e+01 -1 -1 1 -2.767871e-01 -6.024047e-02 8.993065e-01 -3.331783e-01
49 1 4 5.097474e+00 1.215720e+01 1.033733e+01 -1 -1 1 -2.847240e-01 1.631745e-01 8.436929e-01 -4.248395e-01
50 1 4 4.802228e+00 1.174038e+01 1.028540e+01 -1 -1 1 -2.379375e-01 3.586600e-01 7.252694e-01 -5.373389e-01
51 1 4 4.434005e+00 1.151106e+01 1.044412e+01 -1 -1 1 -9.284735e-02 5.337911e-01 5.637830e-01 -6.233740e-01
52 1 1 3.862655e+00 1.139001e+01 1.036264e+01 -1 -1 1 1.075716e-01 7.677914e-01 3.525439e-01 -5.240587e-01
53 1 3 3.345135e+00 1.139208e+01 1.007219e+01 -1 -1 1 -2.134577e-01 -8.906254e-01 -1.690770e-01 3.641912e-01
54 1 4 3.035818e+00 1.142292e+01 9.655208e+00 -1 -1 1 -4.122438e-01 -8.640471e-01 1.113160e-01 2.666203e-01
55 1 4 2.834248e+00 1.134233e+01 9.168407e+00 -1 -1 1 4.502687e-01 8.056592e-01 -3.804565e-01 -5.851653e-02
56 1 4 2.778050e+00 1.096565e+01 8.688901e+00 -1 -1 1 4.827879e-01 7.196974e-01 -4.823245e-01 1.277287e-01
57 1 1 2.956755e+00 1.057706e+01 8.351045e+00 -1 -1 1 -4.666012e-01 -4.919369e-01 6.826283e-01 -2.725803e-01
58 1 1 3.058044e+00 1.004886e+01 8.281780e+00 -1 -1 1 3.654919e-01 2.710087e-01 -7.612988e-01 4.619460e-01
59 1 3 2.958085e+00 9.522182e+00 8.307313e+00 -1 -1 1 -3.263562e-01 -9.116236e-02 7.541293e-01 -5.625567e-01
60 1 4 2.882889e+00 8.939598e+00 8.493313e+00 -1 -1 1 -1.195104e-01 1.750266e-01 7.889920e-01 -5.766928e-01
61 1 2 2.615941e+00 8.585499e+00 8.790602e+00 -1 -1 1 -1.089607e-01 -4.027732e-01 -6.549680e-01 6.300144e-01
62 1 3 2.159086e+00 8.304491e+00 8.914858e+00 -1 -1 1 1.948818e-01 6.321603e-01 4.597499e-01 -5.924732e-01
63 1 2 1.629928e+00 8.379289e+00 8.855435e+00 -1 -1 1 -3.285025e-01 -7.399314e-01 -7.867555e-02 5.817197e-01
64 1 4 1.224259e+00 8.255687e+00 8.627517e+00 -1 -1 1 -4.142761e-01 -7.905187e-01 1.905406e-01 4.088394e-01
65 1 2 8.652217e-01 8.118342e+00 8.262932e+00 -1 -1 1 -4.157573e-01 -8.101037e-01 3.375393e-01 2.386317e-01
66 1 1 7.708278e-01 7.989429e+00 7.736766e+00 -1 -1 1 -4.980221e-01 -6.704989e-01 5.425447e-01 8.972443e-02
67 1 2 7.122922e-01 7.623013e+00 7.404442e+00 -1 -1 1 5.313864e-01 4.071266e-01 -7.351157e-01 1.071513e-01
68 1 1 5.781211e-01 7.136522e+00 7.216201e+00 -1 -1 1 5.519431e-01 3.103812e-01 -7.371533e-01 2.358546e-01
69 1 1 8.137637e-01 6.674901e+00 7.440725e+00 -1 -1 1 -2.478348e-01 -4.384276e-02 8.670304e-01 -4.300162e-01
70 1 2 7.631151e-01 6.203916e+00 7.537692e+00 -1 -1 1 6.514311e-02 -2.244108e-01 -7.693050e-01 5.946142e-01
71 1 3 1.188977e+00 5.998950e+00 6.726359e+00 -1 -1 1 -1.067177e-01 -7.075304e-01 -5.103721e-01 4.770036e-01
72 1 4 2.011811e+00 5.486827e+00 6.529726e+00 -1 -1 1 -1.606316e-01 9.799155e-01 1.121633e-01 3.718182e-02
73 1 1 1.834338e+00 5.004056e+00 6.672637e+00 -1 -1 1 5.180503e-01 -1.148775e-01 6.747133e-01 5.130195e-01
74 1 1 1.097409e+00 4.533900e+00 6.472111e+00 -1 -1 1 2.653452e-01 5.017273e-01 5.615852e-02 -8.214060e-01
75 1 3 1.712207e+00 4.091872e+00 6.863428e+00 -1 -1 1 -4.473370e-01 -7.671718e-01 -3.778244e-01 -2.618890e-01
76 1 1 1.489799e+00 2.738076e+00 6.586128e+00 -1 -1 1 9.142231e-02 -3.075704e-01 7.652640e-01 5.580443e-01
77 1 4 1.995856e+00 2.574459e+00 7.984054e+00 -1 -1 1 8.172104e-01 2.750501e-01 -3.153016e-01 3.963579e-01
78 1 1 2.294443e+00 2.334617e+00 8.023742e+00 -1 -1 1 6.718644e-01 -2.589569e-01 6.870798e-01 -9.726726e-02
79 1 4 2.081860e+00 3.237853e+00 8.488615e+00 -1 -1 1 4.816722e-01 -6.210819e-02 5.730950e-01 -6.600732e-01
80 1 2 1.668989e+00 3.421867e+00 9.291814e+00 -1 -1 1 -2.885589e-01 4.185902e-01 1.822461e-01 8.416070e-01
81 1 4 2.153285e+00 2.977617e+00 8.937229e+00 -1 -1 1 2.430610e-01 7.207728e-01 3.342087e-01 5.565182e-01
82 1 4 2.312139e+00 2.421723e+00 9.506104e+00 -1 -1 1 -1.545576e-01 1.383548e-01 5.006274e-02 9.769665e-01
83 1 4 2.079888e+00 2.729286e+00 9.881081e+00 -1 -1 1 -5.624704e-01 2.021267e-01 -5.927650e-02 7.995362e-01
84 1 4 1.960837e+00 2.754047e+00 1.036348e+01 -1 -1 1 7.970736e-01 -1.667099e-01 1.663461e-01 -5.560670e-01
85 1 1 2.000876e+00 2.644970e+00 1.093500e+01 -1 -1 1 -9.150840e-01 8.222644e-02 -2.652729e-01 2.923873e-01
86 1 1 1.930175e+00 2.888488e+00 1.124043e+01 -1 -1 1 4.870505e-01 7.651600e-01 1.876523e-01 3.769597e-01
87 1 3 6.595736e-01 2.920393e+00 1.105822e+01 -1 -1 1 -3.614336e-01 -3.230736e-01 -7.952742e-01 3.640442e-01
88 1 2 5.838847e-01 2.557064e+00 1.204463e+01 -1 -1 1 -3.075964e-01 4.621862e-01 8.208349e-01 1.341581e-01
89 1 2 1.993662e-01 2.726520e+00 1.181740e+01 -1 -1 1 3.460733e-01 -7.586048e-01 -5.508554e-01 -3.619814e-02
90 1 3 -9.112534e-03 2.829967e+00 1.145885e+01 -1 -1 1 -7.879369e-01 2.241946e-01 1.303362e-01 -5.584842e-01
91 1 3 -5.004127e-01 2.285504e+00 1.168992e+01 -1 -1 1 9.560125e-01 1.439402e-01 -1.112101e-01 2.301167e-01
92 1 2 -1.287749e+00 2.471309e+00 1.180787e+01 -1 -1 1 -5.784892e-01 -6.638172e-01 -2.348271e-01 -4.117685e-01
93 1 1 -1.974091e+00 2.035045e+00 1.140050e+01 -1 -1 1 -1.766156e-01 -1.741579e-01 9.497964e-01 1.906903e-01
94 1 2 -2.155170e+00 1.851671e+00 1.103447e+01 -1 -1 1 -1.430847e-01 3.942679e-01 9.047380e-01 7.435523e-02
95 1 3 -2.066778e+00 7.404630e-01 1.132908e+01 -1 -1 1 -6.032707e-01 5.002902e-01 -4.404067e-01 4.379682e-01
96 1 2 -2.821532e+00 5.242437e-01 1.045552e+01 -1 -1 1 3.328388e-01 4.811685e-01 8.106591e-01 2.295691e-02
97 1 2 -2.606843e+00 2.645241e-01 1.021387e+01 -1 -1 1 1.578211e-01 7.538308e-01 5.959317e-01 -2.273698e-01
98 1 4 -2.722282e+00 -6.983095e-01 1.033358e+01 -1 -1 1 -7.423433e-02 -4.085309e-01 -8.336458e-01 -3.641790e-01
99 1 2 -2.032109e+00 -1.207804e+00 9.903145e+00 -1 -1 1 5.040461e-01 8.286993e-01 1.466851e-01 1.941094e-01
100 1 1 -2.808709e+00 -2.394015e+00 9.816888e+00 -1 -1 1 -5.602208e-01 1.642801e-01 -6.415514e-01 4.975705e-01
101 2 4 -4.387896e+00 1.355215e+01 6.742407e-01 -1 -1 1 -9.077336e-01 1.724278e-01 -3.705344e-01 -9.482931e-02
102 2 3 -3.990165e+00 1.338209e+01 8.850499e-01 -1 -1 1 8.202963e-01 -4.976370e-03 3.536065e-01 4.495016e-01
103 2 1 -3.580333e+00 1.330883e+01 1.037782e+00 -1 -1 1 6.088243e-01 1.450992e-01 2.482393e-01 7.393622e-01
104 2 3 -3.869255e+00 1.196695e+01 6.262587e-01 -1 -1 1 4.921469e-01 1.245880e-01 8.615268e-01 -6.391252e-03
105 2 3 -2.882601e+00 1.131539e+01 9.299348e-01 -1 -1 1 -8.642503e-01 -4.174210e-01 2.539897e-01 1.196671e-01
106 2 2 -2.349578e+00 1.172062e+01 9.301813e-01 -1 -1 1 -1.697457e-01 -8.999161e-01 -6.006438e-02 3.971520e-01
107 2 3 -1.948121e+00 1.259696e+01 1.538497e+00 -1 -1 1 -5.131307e-01 -1.661238e-02 1.999677e-01 -8.345261e-01
108 2 4 -1.377798e+00 1.200861e+01 2.127718e+00 -1 -1 1 -4.170785e-01 -7.587561e-01 4.993678e-01 -3.108904e-02
109 2 3 -1.183514e+00 1.182560e+01 1.767468e+00 -1 -1 1 -2.939984e-01 -4.879553e-01 8.171751e-01 -8.768923e-02
110 2 2 -1.078990e+00 1.148000e+01 1.438369e+00 -1 -1 1 2.152613e-01 2.129860e-01 -9.270778e-01 2.209669e-01
111 2 2 -1.120305e+00 1.101656e+01 1.243369e+00 -1 -1 1 3.823496e-02 -2.825780e-01 -9.483811e-01 1.387844e-01
112 2 3 -2.730815e-01 1.021727e+01 1.560919e+00 -1 -1 1 -8.563023e-01 1.415994e-01 -7.405265e-03 4.966298e-01
113 2 3 -6.434426e-01 1.058734e+01 5.620594e-01 -1 -1 1 3.493787e-01 6.236786e-01 6.810219e-01 1.586464e-01
114 2 2 -6.422414e-01 1.055027e+01 1.020372e-01 -1 -1 1 3.171368e-01 8.590504e-01 3.075044e-01 2.586458e-01
115 2 4 -8.842191e-01 9.384567e+00 7.869956e-01 -1 -1 1 -6.459109e-01 7.363027e-01 6.297070e-02 1.915520e-01
116 2 4 -1.150006e+00 8.458331e+00 -4.286643e-01 -1 -1 1 8.828292e-01 3.822659e-01 1.677709e-01 -2.152634e-01
117 2 1 -9.548387e-01 8.001591e+00 -2.621600e-01 -1 -1 1 8.684037e-01 4.064657e-01 3.002369e-02 2.824169e-01
118 2 1 -1.970899e+00 8.172842e+00 5.931425e-02 -1 -1 1 -6.306978e-01 -2.851354e-01 -5.493159e-01 -4.681561e-01
119 2 1 -1.967493e+00 7.179118e+00 1.443915e+00 -1 -1 1 1.438522e-01 -5.979039e-01 6.965660e-01 -3.696123e-01
120 2 1 -1.578496e+00 6.940391e+00 1.352698e+00 -1 -1 1 -3.753543e-01 2.032214e-01 -8.721150e-01 2.392191e-01
121 2 3 -1.322712e+00 7.657050e+00 2.116588e+00 -1 -1 1 -9.087625e-01 2.572702e-02 3.200941e-01 -2.665119e-01
122 2 1 -1.228445e+00 7.723668e+00 1.653491e+00 -1 -1 1 -2.715648e-01 -1.939728e-01 -6.655515e-01 -6.675840e-01
123 2 4 -1.797822e-01 6.909104e+00 2.545142e+00 -1 -1 1 1.560257e-01 7.299164e-01 -6.654497e-01 -7.404273e-03
124 2 1 -9.337951e-01 7.414075e+00 3.681906e+00 -1 -1 1 6.808278e-01 -4.076030e-01 -3.400435e-01 -5.046818e-01
125 2 4 -1.165406e+00 7.602317e+00 4.030467e+00 -1 -1 1 -8.566606e-01 4.462506e-01 2.572589e-01 2.847533e-02
126 2 2 -1.209746e+00 7.812383e+00 4.488500e+00 -1 -1 1 8.198369e-01 -4.426171e-01 -3.453260e-02 3.616146e-01
127 2 4 -1.201033e+00 8.002683e+00 4.844706e+00 -1 -1 1 -5.467014e-01 4.706292e-01 -8.584829e-02 -6.872088e-01
128 2 4 -9.826303e-01 6.784041e+00 5.823527e+00 -1 -1 1 7.493265e-01 -5.389109e-01 2.940933e-01 -2.481814e-01
129 2 1 -5.339734e-01 6.825041e+00 6.049640e+00 -1 -1 1 -7.074784e-01 3.786843e-01 -5.245863e-01 -2.843970e-01
130 2 2 -4.580713e-01 7.332493e+00 7.263041e+00 -1 -1 1 7.831561e-01 -5.781139e-01 -1.355719e-01 -1.845838e-01
131 2 3 -3.148533e-01 6.702662e+00 7.680384e+00 -1 -1 1 -8.084403e-01 4.858091e-01 -2.004066e-01 2.650489e-01
132 2 4 -1.223513e-01 6.830495e+00 8.106541e+00 -1 -1 1 8.620729e-01 -3.630826e-01 3.528571e-01 -2.220926e-02
133 2 4 2.250880e-01 6.974917e+00 8.408308e+00 -1 -1 1 -8.199968e-01 2.660735e-01 -4.822960e-01 -1.555659e-01
134 2 3 7.310208e-01 6.995422e+00 8.451164e+00 -1 -1 1 6.740246e-01 -8.730628e-02 5.610843e-01 4.724964e-01
135 2 4 1.232952e+00 7.096751e+00 8.393739e+00 -1 -1 1 5.366909e-01 7.869096e-02 6.741938e-01 5.012319e-01
136 2 3 1.718349e+00 7.166389e+00 8.182422e+00 -1 -1 1 -3.323074e-01 -2.090301e-01 -6.368385e-01 -6.635623e-01
137 2 1 1.911153e+00 7.581645e+00 7.954751e+00 -1 -1 1 -4.767389e-02 -4.438910e-01 -6.321901e-01 -6.332643e-01
138 2 3 2.024175e+00 8.129746e+00 7.767541e+00 -1 -1 1 2.216275e-01 -4.987601e-01 -4.570533e-01 -7.022976e-01
139 2 2 2.023910e+00 8.672924e+00 7.778360e+00 -1 -1 1 4.869697e-01 -5.319967e-01 -3.162663e-01 -6.162918e-01
140 2 3 1.865217e+00 9.111237e+00 7.992850e+00 -1 -1 1 7.569924e-01 -4.875183e-01 -1.537516e-01 -4.069998e-01
141 2 1 1.781588e+00 9.467538e+00 8.338009e+00 -1 -1 1 -8.255570e-01 5.123152e-01 -7.305656e-02 2.250590e-01
142 2 2 1.996808e+00 9.863199e+00 8.869171e+00 -1 -1 1 -8.232144e-01 4.868528e-01 -2.798398e-01 8.355885e-02
143 2 4 2.415782e+00 9.924743e+00 9.285631e+00 -1 -1 1 -7.942342e-01 3.519226e-01 -4.497088e-01 -2.076164e-01
144 2 4 2.898997e+00 1.001640e+01 9.388238e+00 -1 -1 1 -6.931360e-01 1.100768e-01 -5.310713e-01 -4.747724e-01
145 2 1 3.358770e+00 1.023605e+01 9.403804e+00 -1 -1 1 5.083003e-01 3.622688e-02 6.087385e-01 6.080756e-01
146 2 1 3.759785e+00 1.060541e+01 9.331456e+00 -1 -1 1 2.654804e-01 9.207268e-02 5.772347e-01 7.667091e-01
147 2 1 4.031402e+00 1.099670e+01 9.162783e+00 -1 -1 1 2.310736e-02 2.968238e-01 4.430335e-01 8.456258e-01
148 2 2 4.234879e+00 1.149775e+01 9.266542e+00 -1 -1 1 -1.852409e-01 2.849579e-01 3.594960e-01 8.690497e-01
149 2 4 4.109989e+00 1.197032e+01 9.393528e+00 -1 -1 1 5.011103e-01 -4.181128e-01 -2.241987e-01 -7.237438e-01
150 2 1 3.926107e+00 1.235255e+01 9.756320e+00 -1 -1 1 6.278190e-01 -5.514815e-01 -3.529373e-03 -5.492713e-01
151 2 1 4.077880e+00 1.274251e+01 1.019283e+01 -1 -1 1 7.543044e-01 -4.082350e-01 1.383699e-01 -4.951998e-01
152 2 1 4.061209e+00 1.280679e+01 1.062028e+01 -1 -1 1 9.369884e-01 -2.292481e-01 1.183972e-01 -2.355423e-01
153 2 4 4.257486e+00 1.269753e+01 1.106048e+01 -1 -1 1 9.500700e-01 -1.283056e-01 2.187651e-01 1.817872e-01
154 2 1 4.679152e+00 1.259780e+01 1.154132e+01 -1 -1 1 8.721822e-01 -2.263033e-01 2.783152e-01 3.326044e-01
155 2 2 5.072550e+00 1.277426e+01 1.192855e+01 -1 -1 1 8.152351e-01 -1.343470e-01 3.887993e-01 4.076489e-01
156 2 4 5.540053e+00 1.286660e+01 1.213222e+01 -1 -1 1 6.131218e-01 5.365224e-03 4.615620e-01 6.411033e-01
157 2 3 6.027379e+00 1.304556e+01 1.218659e+01 -1 -1 1 4.230889e-01 1.974641e-01 4.963018e-01 7.319073e-01
158 2 2 6.431382e+00 1.339340e+01 1.204839e+01 -1 -1 1 1.577166e-01 3.382205e-01 3.516334e-01 8.585373e-01
159 2 1 6.636258e+00 1.385520e+01 1.210838e+01 -1 -1 1 -1.439278e-01 4.060397e-01 3.374605e-01 8.369809e-01
160 2 3 6.735397e+00 1.441738e+01 1.232151e+01 -1 -1 1 3.559270e-01 -4.268235e-01 -9.292595e-02 -8.261370e-01
161 2 1 6.754993e+00 1.476290e+01 1.271663e+01 -1 -1 1 6.500642e-01 -3.222624e-01 -4.405769e-02 -6.867477e-01
162 2 1 6.694792e+00 1.486847e+01 1.323078e+01 -1 -1 1 8.293349e-01 -2.958440e-01 1.257755e-01 -4.570126e-01
163 2 4 6.868193e+00 1.491165e+01 1.376808e+01 -1 -1 1 8.857020e-01 -1.707149e-01 3.092872e-01 -3.012138e-01
164 2 4 7.115291e+00 1.476425e+01 1.419335e+01 -1 -1 1 9.172373e-01 -1.000958e-01 3.855457e-01 3.320957e-03
165 2 3 7.573935e+00 1.472467e+01 1.444551e+01 -1 -1 1 8.305087e-01 7.963127e-02 4.523194e-01 3.151530e-01
166 2 3 8.155662e+00 1.470013e+01 1.456205e+01 -1 -1 1 6.368933e-01 1.302110e-01 4.698547e-01 5.972006e-01
167 2 4 8.610612e+00 1.491855e+01 1.461960e+01 -1 -1 1 4.533211e-01 2.432231e-01 5.403141e-01 6.658853e-01
168 2 2 9.047953e+00 1.529861e+01 1.451486e+01 -1 -1 1 1.603565e-01 3.325163e-01 4.697766e-01 8.018907e-01
169 2 2 9.387560e+00 1.577458e+01 1.448990e+01 -1 -1 1 -7.458998e-02 4.109117e-01 3.093225e-01 8.543462e-01
170 2 1 9.508816e+00 1.625037e+01 1.460630e+01 -1 -1 1 -3.644398e-01 4.212976e-01 2.464489e-01 7.930668e-01
171 2 1 9.697822e+00 1.668492e+01 1.495666e+01 -1 -1 1 5.640001e-01 -3.413974e-01 -1.347435e-01 -7.397269e-01
172 2 4 9.585146e+00 1.689855e+01 1.542201e+01 -1 -1 1 8.101386e-01 -2.585409e-01 -4.995411e-02 -5.237716e-01
173 2 4 9.694290e+00 1.722994e+01 1.592354e+01 -1 -1 1 8.646783e-01 -1.578048e-01 1.309807e-01 -4.585555e-01
174 2 1 9.847864e+00 1.708705e+01 1.646825e+01 -1 -1 1 9.156755e-01 -1.707961e-01 3.596076e-01 -5.522108e-02
175 2 1 1.032202e+01 1.698546e+01 1.667882e+01 -1 -1 1 8.657981e-01 -3.621403e-02 4.817401e-01 1.304175e-01
176 2 2 1.083244e+01 1.673190e+01 1.674560e+01 -1 -1 1 7.563996e-01 1.516323e-01 5.498057e-01 3.202826e-01
177 2 2 1.138183e+01 1.664475e+01 1.663320e+01 -1 -1 1 5.616648e-01 3.879062e-01 5.146568e-01 5.188350e-01
178 2 1 1.191467e+01 1.683556e+01 1.645760e+01 -1 -1 1 3.077300e-01 4.807758e-01 4.829100e-01 6.640442e-01
179 2 4 1.227358e+01 1.720119e+01 1.624594e+01 -1 -1 1 7.746452e-02 5.913935e-01 2.877807e-01 7.492898e-01
180 2 1 1.270296e+01 1.749448e+01 1.634973e+01 -1 -1 1 -1.096123e-01 4.630050e-01 3.365216e-01 8.126283e-01
181 2 4 1.282505e+01 1.800451e+01 1.641142e+01 -1 -1 1 3.332414e-01 -5.928956e-01 -2.237998e-03 -7.330893e-01
182 2 2 1.312199e+01 1.839410e+01 1.673238e+01 -1 -1 1 5.111661e-01 -6.017950e-01 2.735786e-01 -5.492784e-01
183 2 3 1.352981e+01 1.853366e+01 1.705741e+01 -1 -1 1 6.060279e-01 -5.051239e-01 3.927933e-01 -4.725394e-01
184 2 4 1.392167e+01 1.846043e+01 1.739062e+01 -1 -1 1 7.181459e-01 -2.667614e-01 5.524385e-01 -3.285066e-01
185 2 3 1.437798e+01 1.821353e+01 1.769488e+01 -1 -1 1 -7.428161e-01 7.646672e-02 -6.622902e-01 6.122788e-02
186 2 1 1.480543e+01 1.797107e+01 1.774236e+01 -1 -1 1 -7.301368e-01 -9.126621e-02 -6.542879e-01 -1.745797e-01
187 2 1 1.529012e+01 1.776968e+01 1.764038e+01 -1 -1 1 6.347469e-01 2.607437e-01 5.879473e-01 4.282839e-01
188 2 2 1.572579e+01 1.776896e+01 1.735444e+01 -1 -1 1 -3.917877e-01 -5.388647e-01 -4.971028e-01 -5.558921e-01
189 2 4 1.620403e+01 1.787945e+01 1.712829e+01 -1 -1 1 -2.407521e-01 -5.998408e-01 -5.041050e-01 -5.728068e-01
190 2 4 1.670832e+01 1.815578e+01 1.696920e+01 -1 -1 1 -2.698013e-02 -5.176731e-01 -4.313802e-01 -7.383751e-01
191 2 1 1.688165e+01 1.860464e+01 1.690214e+01 -1 -1 1 -2.636977e-01 6.551260e-01 1.943235e-01 6.808171e-01
192 2 4 1.705983e+01 1.914135e+01 1.700875e+01 -1 -1 1 4.909025e-01 -5.917652e-01 -7.228552e-02 -6.352980e-01
193 2 4 1.720490e+01 1.950938e+01 1.743171e+01 -1 -1 1 -6.826019e-01 5.813629e-01 -2.336993e-01 3.761069e-01
194 2 1 1.754212e+01 1.971269e+01 1.778940e+01 -1 -1 1 7.536971e-01 -4.479569e-01 3.424385e-01 -3.376554e-01
195 2 3 1.793044e+01 1.963560e+01 1.818952e+01 -1 -1 1 -8.205467e-01 2.885252e-01 -4.886558e-01 6.835086e-02
196 2 4 1.836357e+01 1.959478e+01 1.842270e+01 -1 -1 1 -7.960036e-01 1.091508e-01 -5.827353e-01 -1.220000e-01
197 2 2 1.883472e+01 1.968627e+01 1.854903e+01 -1 -1 1 -7.190261e-01 -1.044839e-01 -6.758341e-01 -1.238259e-01
198 2 4 1.942199e+01 1.945414e+01 1.832043e+01 -1 -1 1 -6.058088e-01 -2.551337e-01 -5.400778e-01 -5.255648e-01
199 2 3 1.961306e+01 1.858319e+01 1.846724e+01 -1 -1 1 4.827520e-01 2.255698e-01 8.182514e-01 -2.157162e-01
200 2 4 1.957695e+01 1.822548e+01 1.838239e+01 -1 -1 1 -6.193123e-01 -6.083862e-01 -4.946983e-01 3.990230e-02
