ITEM: TIMESTEP
319000000
ITEM: NUMBER OF ATOMS
200
ITEM: BOX BOUNDS pp pp pp
-2.0000000000000000e+01 2.0000000000000000e+01
-2.0000000000000000e+01 2.0000000000000000e+01
-2.0000000000000000e+01 2.0000000000000000e+01
ITEM: ATOMS id mol type x y z ix iy iz c_quat[1] c_quat[2] c_quat[3] c_quat[4]
1 1 1 1.019986e+01 1.358702e+01 -1.656376e+01 -1 -1 2 9.099659e-01 -9.774331e-02 1.661917e-01 3.671357e-01
2 1 2 8.649756e+00 1.399022e+01 -1.600703e+01 -1 -1 2 7.129354e-02 5.741028e-01 7.803840e-01 -2.373266e-01
3 1 1 8.353937e+00 1.382358e+01 -1.634035e+01 -1 -1 2 1.304222e-01 7.997739e-01 5.636066e-01 -1.603099e-01
4 1 3 8.025757e+00 1.377045e+01 -1.668656e+01 -1 -1 2 5.648060e-02 9.264540e-01 2.907113e-01 -2.323358e-01
5 1 1 7.875838e+00 1.395806e+01 -1.711102e+01 -1 -1 2 1.595317e-01 -9.388047e-01 -2.386706e-01 1.903465e-01
6 1 2 7.705901e+00 1.435066e+01 -1.739618e+01 -1 -1 2 1.617346e-01 -9.605875e-01 1.809392e-01 1.355529e-01
7 1 4 7.785614e+00 1.469213e+01 -1.777965e+01 -1 -1 2 1.373687e-01 -8.556861e-01 4.941608e-01 6.882009e-02
8 1 1 8.124217e+00 1.476964e+01 -1.825764e+01 -1 -1 2 6.895523e-02 -6.400819e-01 7.643813e-01 3.551918e-02
9 1 1 8.313787e+00 1.474468e+01 -1.872879e+01 -1 -1 2 4.067064e-02 2.647712e-01 -9.623063e-01 -4.699603e-02
10 1 4 8.250337e+00 1.452551e+01 -1.919501e+01 -1 -1 2 -1.444052e-01 -3.860865e-02 9.887546e-01 -4.570080e-03
11 1 1 8.065448e+00 1.423824e+01 -1.963925e+01 -1 -1 2 -2.314934e-01 2.616249e-01 9.357690e-01 4.795442e-02
12 1 1 7.648604e+00 1.413143e+01 2.002825e+01 -1 -1 1 2.662217e-01 -4.912277e-01 -8.293461e-01 2.518935e-03
13 1 3 7.248740e+00 1.415640e+01 1.966655e+01 -1 -1 1 -3.804153e-01 6.603533e-01 6.415318e-01 -8.749040e-02
14 1 4 6.726346e+00 1.447663e+01 1.962246e+01 -1 -1 1 2.904679e-01 -8.648288e-01 -3.680628e-01 1.795255e-01
15 1 4 6.473570e+00 1.486154e+01 1.944756e+01 -1 -1 1 2.533777e-01 -9.287948e-01 -8.136800e-02 2.579130e-01
16 1 2 6.223826e+00 1.527454e+01 1.914491e+01 -1 -1 1 -2.690985e-01 9.385258e-01 -1.312282e-01 -1.718559e-01
17 1 1 6.282344e+00 1.578287e+01 1.888353e+01 -1 -1 1 -1.497918e-01 8.462033e-01 -4.500522e-01 -2.428072e-01
18 1 2 6.394237e+00 1.606357e+01 1.846369e+01 -1 -1 1 5.149428e-02 -6.799172e-01 6.975446e-01 2.202101e-01
19 1 3 6.540090e+00 1.622035e+01 1.797302e+01 -1 -1 1 -3.152327e-02 -4.174343e-01 8.985230e-01 1.319522e-01
20 1 1 6.613896e+00 1.597343e+01 1.745847e+01 -1 -1 1 -7.165145e-02 -9.714419e-02 9.902893e-01 6.896522e-02
21 1 4 6.522550e+00 1.576697e+01 1.700551e+01 -1 -1 1 1.489100e-01 -1.658141e-01 -9.746609e-01 -1.917344e-02
22 1 1 6.191318e+00 1.572889e+01 1.646659e+01 -1 -1 1 3.494577e-01 -3.409626e-01 -8.719527e-01 3.636465e-02
23 1 4 5.689303e+00 1.570116e+01 1.630208e+01 -1 -1 1 3.039798e-01 -6.382735e-01 -7.032108e-01 7.548318e-02
24 1 3 5.257057e+00 1.595602e+01 1.604305e+01 -1 -1 1 3.663603e-01 -7.078385e-01 -6.033912e-01 2.576656e-02
25 1 3 4.840725e+00 1.632890e+01 1.599576e+01 -1 -1 1 5.156935e-01 -7.598712e-01 -3.494373e-01 1.858755e-01
26 1 4 4.621709e+00 1.675604e+01 1.606725e+01 -1 -1 1 4.476824e-01 -8.144913e-01 -3.827414e-02 3.670415e-01
27 1 4 4.629588e+00 1.731866e+01 1.606979e+01 -1 -1 1 2.224445e-01 -7.529093e-01 2.952142e-01 5.445133e-01
28 1 1 4.304752e+00 1.776663e+01 1.577554e+01 -1 -1 1 3.740763e-02 -8.140780e-01 3.226240e-01 4.814472e-01
29 1 1 4.221698e+00 1.816189e+01 1.541328e+01 -1 -1 1 -3.121496e-02 -6.892254e-01 5.833542e-01 4.285930e-01
30 1 4 4.172000e+00 1.833583e+01 1.490514e+01 -1 -1 1 1.717774e-01 5.318798e-01 -7.546471e-01 -3.436629e-01
31 1 4 4.132362e+00 1.830684e+01 1.436876e+01 -1 -1 1 2.439523e-01 2.702746e-01 -9.060553e-01 -2.156446e-01
32 1 3 3.768925e+00 1.817407e+01 1.391580e+01 -1 -1 1 3.892734e-01 1.501011e-01 -9.082344e-01 -3.234367e-02
33 1 3 3.437683e+00 1.786013e+01 1.368280e+01 -1 -1 1 4.078369e-01 -1.470703e-01 -8.917290e-01 1.298413e-01
34 1 1 3.063083e+00 1.761067e+01 1.346134e+01 -1 -1 1 4.549365e-01 -3.653018e-01 -7.801089e-01 2.258705e-01
35 1 2 2.649248e+00 1.747094e+01 1.358877e+01 -1 -1 1 3.171955e-01 -5.738995e-01 -6.211391e-01 4.292000e-01
36 1 2 2.155491e+00 1.754339e+01 1.357343e+01 -1 -1 1 2.342655e-01 -7.434109e-01 -4.017967e-01 4.806446e-01
37 1 1 1.688695e+00 1.775544e+01 1.358707e+01 -1 -1 1 7.206630e-02 -8.370522e-01 -1.897699e-01 5.080724e-01
38 1 1 1.220262e+00 1.803638e+01 1.329455e+01 -1 -1 1 -2.754056e-02 -8.941596e-01 5.903947e-02 4.429836e-01
39 1 4 9.999083e-01 1.830977e+01 1.284300e+01 -1 -1 1 1.141297e-01 8.786034e-01 -3.167775e-01 -3.386479e-01
40 1 4 9.705364e-01 1.850836e+01 1.238772e+01 -1 -1 1 1.833769e-01 7.178865e-01 -6.074292e-01 -2.864291e-01
41 1 2 9.634958e-01 1.855587e+01 1.185097e+01 -1 -1 1 2.185845e-01 4.905294e-01 -8.309474e-01 -1.453551e-01
42 1 4 8.300487e-01 1.842515e+01 1.138026e+01 -1 -1 1 -3.036271e-01 -4.041332e-01 8.616579e-01 4.508444e-02
43 1 3 6.786561e-01 1.800785e+01 1.103130e+01 -1 -1 1 3.016398e-01 1.104632e-01 -9.352398e-01 1.487877e-01
44 1 2 3.669721e-01 1.762543e+01 1.073945e+01 -1 -1 1 3.338703e-01 -2.490785e-01 -8.949820e-01 1.596800e-01
45 1 1 -9.881447e-02 1.733796e+01 1.061823e+01 -1 -1 1 3.185462e-01 -3.943437e-01 -8.024056e-01 3.149075e-01
46 1 3 -6.346077e-01 1.714313e+01 1.055854e+01 -1 -1 1 3.385188e-01 -5.976546e-01 -6.045336e-01 4.034266e-01
47 1 4 -1.203325e+00 1.715635e+01 1.060891e+01 -1 -1 1 2.142010e-01 -7.806088e-01 -3.696165e-01 4.562362e-01
48 1 1 -1.614894e+00 1.743378e+01 1.054889e+01 -1 -1 1 -1.431593e-01 8.511837e-01 6.944687e-02 -5.001688e-01
49 1 4 -1.913822e+00 1.789544e+01 1.036966e+01 -1 -1 1 -7.550329e-02 8.447434e-01 -1.662903e-01 -5.030461e-01
50 1 4 -2.156746e+00 1.820231e+01 1.005872e+01 -1 -1 1 9.656252e-02 7.851502e-01 -4.412696e-01 -4.236697e-01
51 1 4 -2.321638e+00 1.835658e+01 9.662051e+00 -1 -1 1 2.880928e-01 6.072243e-01 -6.514255e-01 -3.520312e-01
52 1 1 -2.443914e+00 1.828545e+01 9.168226e+00 -1 -1 1 3.101504e-01 3.298242e-01 -8.798142e-01 -1.447406e-01
53 1 3 -2.786262e+00 1.809662e+01 8.825636e+00 -1 -1 1 -3.654469e-01 -2.656006e-01 8.920784e-01 -1.005505e-02
54 1 4 -2.969843e+00 1.772202e+01 8.511308e+00 -1 -1 1 -3.531324e-01 -5.450195e-02 9.149998e-01 -1.873561e-01
55 1 4 -3.297491e+00 1.747905e+01 8.195611e+00 -1 -1 1 4.553976e-01 -9.716194e-02 -8.541274e-01 2.316009e-01
56 1 4 -3.675271e+00 1.713405e+01 8.213075e+00 -1 -1 1 3.590252e-01 -3.681005e-01 -7.523278e-01 4.118323e-01
57 1 1 -4.107021e+00 1.694950e+01 8.210708e+00 -1 -1 1 -2.931766e-01 5.665182e-01 5.871584e-01 -4.983469e-01
58 1 1 -4.555422e+00 1.697889e+01 8.368534e+00 -1 -1 1 1.248878e-01 -7.227982e-01 -2.735586e-01 6.221989e-01
59 1 3 -5.046406e+00 1.727783e+01 8.389094e+00 -1 -1 1 -7.685869e-02 7.841429e-01 9.445095e-02 -6.085159e-01
60 1 4 -5.496268e+00 1.756549e+01 8.185004e+00 -1 -1 1 6.677359e-02 8.130302e-01 -1.607535e-01 -5.555911e-01
61 1 2 -5.900488e+00 1.771258e+01 7.905565e+00 -1 -1 1 -1.709967e-01 -8.145893e-01 3.218692e-01 4.512256e-01
62 1 3 -6.288882e+00 1.768438e+01 7.351660e+00 -1 -1 1 3.414854e-01 7.337984e-01 -5.352181e-01 -2.418041e-01
63 1 2 -6.592712e+00 1.741274e+01 7.002770e+00 -1 -1 1 -4.555579e-01 -6.382805e-01 6.182732e-01 5.294596e-02
64 1 4 -6.779858e+00 1.698605e+01 6.703086e+00 -1 -1 1 -5.446998e-01 -4.101262e-01 7.151837e-01 -1.536586e-01
65 1 2 -6.785156e+00 1.645740e+01 6.699722e+00 -1 -1 1 4.408879e-01 2.039206e-01 -7.420725e-01 4.619120e-01
66 1 1 -6.786701e+00 1.590386e+01 6.897441e+00 -1 -1 1 -2.476136e-01 6.131053e-02 7.535341e-01 -6.059001e-01
67 1 2 -7.003889e+00 1.557212e+01 7.159726e+00 -1 -1 1 -1.417296e-01 1.775087e-01 6.179527e-01 -7.526871e-01
68 1 1 -7.192788e+00 1.537488e+01 7.498294e+00 -1 -1 1 -1.575878e-01 -3.348710e-01 -4.746019e-01 7.986117e-01
69 1 1 -7.604678e+00 1.515792e+01 7.701628e+00 -1 -1 1 -3.523715e-01 -4.749202e-01 -3.261646e-01 7.374970e-01
70 1 2 -7.534868e+00 1.441937e+01 8.885023e+00 -1 -1 1 4.034015e-01 -3.104946e-01 2.872922e-01 -8.113714e-01
71 1 3 -7.394438e+00 1.441946e+01 9.335334e+00 -1 -1 1 6.927052e-01 -2.509917e-01 4.117285e-01 -5.363230e-01
72 1 4 -7.243102e+00 1.423925e+01 9.684707e+00 -1 -1 1 9.176710e-01 4.075079e-02 3.659219e-01 -1.494004e-01
73 1 1 -7.016007e+00 1.369104e+01 1.045756e+01 -1 -1 1 -5.809730e-01 3.810604e-01 -3.129640e-01 6.475468e-01
74 1 1 -6.175818e+00 1.382446e+01 1.064083e+01 -1 -1 1 -8.626542e-01 2.023204e-01 -4.487860e-01 -1.161262e-01
75 1 3 -5.667299e+00 1.373111e+01 1.073149e+01 -1 -1 1 -7.574083e-01 -9.607863e-02 -5.098216e-01 -3.964638e-01
76 1 1 -4.915668e+00 1.368573e+01 1.080824e+01 -1 -1 1 3.520195e-01 9.301069e-01 2.929505e-02 -1.006240e-01
77 1 4 -4.744943e+00 1.422865e+01 1.044763e+01 -1 -1 1 -3.303821e-01 9.584246e-02 -3.167824e-01 -8.839179e-01
78 1 1 -4.212102e+00 1.462562e+01 1.087063e+01 -1 -1 1 2.336111e-01 1.388693e-02 -2.609790e-01 9.365484e-01
79 1 4 -4.105081e+00 1.465208e+01 1.138665e+01 -1 -1 1 1.201743e-01 6.113273e-02 3.662751e-01 -9.206864e-01
80 1 2 -4.296086e+00 1.460736e+01 1.182317e+01 -1 -1 1 5.593661e-01 1.183273e-01 3.498780e-01 -7.420873e-01
81 1 4 -4.363368e+00 1.418878e+01 1.219569e+01 -1 -1 1 7.451771e-01 3.038895e-01 4.051036e-01 -4.338818e-01
82 1 4 -4.444395e+00 1.367347e+01 1.226163e+01 -1 -1 1 8.073146e-01 4.603909e-01 2.588208e-01 -2.632396e-01
83 1 4 -4.361322e+00 1.306940e+01 1.237741e+01 -1 -1 1 -7.345035e-01 -5.396521e-01 -4.113300e-01 9.371918e-03
84 1 4 -4.897366e+00 1.292344e+01 1.353517e+01 -1 -1 1 -7.709876e-02 -6.678709e-01 -1.460940e-02 -7.401289e-01
85 1 1 -5.680472e+00 1.263693e+01 1.379340e+01 -1 -1 1 -1.886591e-01 -4.499280e-01 1.031258e-01 -8.667973e-01
86 1 1 -4.980207e+00 1.201158e+01 1.389949e+01 -1 -1 1 -4.160474e-01 7.992998e-01 4.327924e-01 -2.674225e-02
87 1 3 -4.721543e+00 1.187335e+01 1.377402e+01 -1 -1 1 2.723826e-01 4.939127e-01 2.550956e-02 -8.253528e-01
88 1 2 -3.697725e+00 1.212778e+01 1.497357e+01 -1 -1 1 -4.387548e-01 8.814689e-01 1.144634e-01 -1.319278e-01
89 1 2 -4.024213e+00 1.088295e+01 1.511009e+01 -1 -1 1 8.679300e-01 1.666708e-01 1.007101e-01 -4.569199e-01
90 1 3 -4.405487e+00 1.073352e+01 1.584630e+01 -1 -1 1 9.360005e-01 5.343436e-02 -8.483822e-02 -3.374170e-01
91 1 3 -4.495560e+00 1.050766e+01 1.624984e+01 -1 -1 1 9.876659e-01 -7.690640e-02 -1.420852e-02 1.356452e-01
92 1 2 -5.261841e+00 1.086460e+01 1.621573e+01 -1 -1 1 9.525683e-01 1.635027e-01 -2.380381e-01 9.601205e-02
93 1 1 -5.744121e+00 1.027721e+01 1.551235e+01 -1 -1 1 2.354877e-01 -2.710678e-02 8.296071e-01 5.055323e-01
94 1 2 -6.392865e+00 1.044095e+01 1.649508e+01 -1 -1 1 1.755866e-01 2.348118e-01 3.080783e-01 -9.050528e-01
95 1 3 -6.701620e+00 1.005480e+01 1.676280e+01 -1 -1 1 6.290848e-01 4.583335e-01 1.748737e-01 -6.029941e-01
96 1 2 -6.955340e+00 9.771922e+00 1.693296e+01 -1 -1 1 -8.011126e-01 -5.330879e-01 1.670967e-02 2.715820e-01
97 1 2 -7.354657e+00 9.237968e+00 1.673053e+01 -1 -1 1 -7.108098e-01 -3.359014e-02 4.859954e-01 5.073752e-01
98 1 4 -6.854947e+00 9.004913e+00 1.655082e+01 -1 -1 1 -5.978241e-01 -6.811389e-01 -3.669702e-01 2.097356e-01
99 1 2 -6.877649e+00 8.666464e+00 1.614788e+01 -1 -1 1 7.166641e-01 6.757309e-01 -1.180390e-01 1.258855e-01
100 1 1 -8.208993e+00 9.095798e+00 1.613128e+01 -1 -1 1 2.662125e-02 8.089264e-02 3.361370e-01 -9.379550e-01
101 2 4 -8.683440e+00 1.212225e+01 -1.256289e+00 -1 -1 1 7.368428e-01 1.364813e-01 4.422175e-01 -4.928278e-01
102 2 3 -8.938651e+00 1.243090e+01 -7.847840e-01 -1 -1 1 -8.434422e-03 3.927037e-01 -9.187580e-02 -9.150254e-01
103 2 1 -9.257274e+00 1.276748e+01 -5.265752e-01 -1 -1 1 -8.686799e-02 -4.150610e-01 2.162418e-01 8.794418e-01
104 2 3 -9.661846e+00 1.318370e+01 -3.353662e-01 -1 -1 1 -3.297505e-01 -3.745412e-01 2.969901e-01 8.141132e-01
105 2 3 -9.452482e+00 1.303859e+01 -5.068733e-01 -1 -1 1 3.709328e-01 -8.464880e-01 2.321364e-01 3.032813e-01
106 2 2 -9.318728e+00 1.351511e+01 -8.569466e-01 -1 -1 1 -2.971411e-01 8.201730e-01 -4.449487e-01 -2.025932e-01
107 2 3 -9.159160e+00 1.380843e+01 -1.223443e+00 -1 -1 1 6.785778e-02 -6.105016e-01 7.316721e-01 2.955318e-01
108 2 4 -9.266309e+00 1.382144e+01 -7.746142e-02 -1 -1 1 -8.929583e-01 2.276075e-01 -3.089824e-01 2.352660e-01
109 2 3 -8.908784e+00 1.367815e+01 3.295444e-01 -1 -1 1 8.895193e-01 -9.391369e-03 4.533236e-01 5.625684e-02
110 2 2 -9.873105e+00 1.440761e+01 1.285122e+00 -1 -1 1 1.924348e-01 2.320506e-01 -7.539741e-01 5.836476e-01
111 2 2 -1.009154e+01 1.470943e+01 8.472282e-01 -1 -1 1 -8.211560e-01 -2.203072e-01 -3.391623e-01 -4.026616e-01
112 2 3 -1.025584e+01 1.573325e+01 1.540032e+00 -1 -1 1 -1.182722e-01 7.875290e-01 3.376275e-01 5.018141e-01
113 2 3 -1.073497e+01 1.594797e+01 1.097827e+00 -1 -1 1 1.917482e-01 2.984372e-04 -7.504230e-01 -6.325329e-01
114 2 2 -1.088436e+01 1.620560e+01 4.310931e-01 -1 -1 1 -1.137901e-01 2.144984e-01 9.102263e-01 3.354554e-01
115 2 4 -9.756162e+00 1.726940e+01 1.231285e-01 -1 -1 1 -6.346313e-01 -3.249833e-01 -2.989652e-01 -6.342309e-01
116 2 4 -9.179148e+00 1.741627e+01 1.490313e-01 -1 -1 1 -4.859366e-01 -3.216426e-01 -3.678887e-01 -7.246169e-01
117 2 1 -8.800653e+00 1.773556e+01 9.176607e-02 -1 -1 1 -8.752668e-02 -5.480439e-01 -1.143899e-01 -8.239550e-01
118 2 1 -8.446710e+00 1.805770e+01 2.475948e-01 -1 -1 1 2.415412e-01 -5.121148e-01 -5.073007e-02 -8.226924e-01
119 2 1 -8.127646e+00 1.823751e+01 6.579680e-01 -1 -1 1 2.742241e-01 -3.360227e-01 3.320479e-02 -9.004373e-01
120 2 1 -7.874152e+00 1.811034e+01 7.904945e-01 -1 -1 1 -3.128474e-02 -1.587712e-01 2.384695e-01 9.575726e-01
121 2 3 -7.386612e+00 1.785125e+01 1.526383e+00 -1 -1 1 7.008744e-01 6.422738e-01 -2.583652e-01 -1.717755e-01
122 2 1 -7.206416e+00 1.751858e+01 2.785025e+00 -1 -1 1 -9.137517e-01 8.981871e-02 3.919419e-01 5.806896e-02
123 2 4 -7.562773e+00 1.744864e+01 3.198751e+00 -1 -1 1 9.368370e-01 -7.686422e-02 -3.126768e-01 1.366074e-01
124 2 1 -7.563932e+00 1.745762e+01 3.931507e+00 -1 -1 1 5.701338e-01 -8.103983e-01 -1.117398e-01 -7.560605e-02
125 2 4 -8.547800e+00 1.693107e+01 3.698818e+00 -1 -1 1 -6.433748e-01 5.543132e-01 4.443093e-01 2.852980e-01
126 2 2 -8.378122e+00 1.586694e+01 3.313687e+00 -1 -1 1 -6.032037e-01 1.901741e-02 -6.749338e-01 4.245562e-01
127 2 4 -7.412441e+00 1.642965e+01 3.656611e+00 -1 -1 1 4.678693e-01 -4.305980e-01 2.554529e-01 7.283045e-01
128 2 4 -6.522380e+00 1.615066e+01 3.642726e+00 -1 -1 1 9.108513e-01 2.319189e-01 1.457994e-01 3.087168e-01
129 2 1 -7.393554e+00 1.545902e+01 4.534233e+00 -1 -1 1 3.462532e-01 -1.055678e-01 4.719486e-01 -8.038835e-01
130 2 2 -7.450919e+00 1.514644e+01 4.900778e+00 -1 -1 1 6.527457e-01 1.048958e-01 3.839401e-01 -6.446006e-01
131 2 3 -7.560067e+00 1.475410e+01 5.185989e+00 -1 -1 1 8.119918e-01 3.066943e-01 2.877072e-01 -4.047623e-01
132 2 4 -7.975094e+00 1.489770e+01 6.618192e+00 -1 -1 1 -4.927103e-01 6.203776e-01 4.587691e-01 4.023669e-01
133 2 4 -8.168484e+00 1.547112e+01 6.763369e+00 -1 -1 1 -5.142400e-01 7.856040e-01 1.369950e-01 3.156200e-01
134 2 3 -8.113214e+00 1.602260e+01 6.953768e+00 -1 -1 1 7.488977e-01 -6.238301e-01 3.207197e-02 -2.212683e-01
135 2 4 -7.821526e+00 1.634709e+01 7.403326e+00 -1 -1 1 7.399471e-01 -6.059687e-01 2.891176e-01 -4.112413e-02
136 2 3 -7.417806e+00 1.657430e+01 7.670379e+00 -1 -1 1 -7.865000e-01 3.729888e-01 -4.676417e-01 -1.536502e-01
137 2 1 -6.855745e+00 1.657071e+01 7.826856e+00 -1 -1 1 7.355198e-01 -1.093293e-01 5.883039e-01 3.177361e-01
138 2 3 -6.324323e+00 1.647197e+01 7.675212e+00 -1 -1 1 -6.283400e-01 -1.484609e-01 -5.812346e-01 -4.952923e-01
139 2 2 -5.808969e+00 1.664791e+01 7.481950e+00 -1 -1 1 -4.084835e-01 -2.506855e-01 -6.184969e-01 -6.227035e-01
140 2 3 -5.447952e+00 1.681240e+01 7.185257e+00 -1 -1 1 -2.248476e-01 -5.313697e-01 -3.883715e-01 -7.185105e-01
141 2 1 -5.090348e+00 1.723423e+01 7.135285e+00 -1 -1 1 1.021988e-02 5.620398e-01 2.343277e-01 7.931566e-01
142 2 2 -4.780856e+00 1.763076e+01 7.293231e+00 -1 -1 1 -2.462537e-01 5.886111e-01 -6.433156e-02 7.673054e-01
143 2 4 -4.474680e+00 1.794958e+01 7.555992e+00 -1 -1 1 -4.538438e-01 5.001830e-01 -1.779047e-01 7.156764e-01
144 2 4 -4.483435e+00 1.809137e+01 8.015752e+00 -1 -1 1 -7.307481e-01 3.876231e-01 -1.901952e-01 5.287546e-01
145 2 1 -4.216837e+00 1.815451e+01 8.556340e+00 -1 -1 1 7.964459e-01 -2.983627e-01 2.743627e-01 -4.487524e-01
146 2 1 -4.029472e+00 1.808998e+01 8.991612e+00 -1 -1 1 8.689411e-01 -1.390087e-01 3.903170e-01 -2.706854e-01
147 2 1 -3.744145e+00 1.788246e+01 9.397874e+00 -1 -1 1 8.676881e-01 1.481989e-02 4.521571e-01 -2.060380e-01
148 2 2 -3.423490e+00 1.763904e+01 9.705972e+00 -1 -1 1 8.558065e-01 1.502866e-01 4.920898e-01 5.344897e-02
149 2 4 -2.936993e+00 1.739495e+01 9.708266e+00 -1 -1 1 -7.809844e-01 -3.200768e-01 -4.642531e-01 -2.684834e-01
150 2 1 -2.446529e+00 1.720335e+01 9.675938e+00 -1 -1 1 -6.193978e-01 -3.989187e-01 -4.423645e-01 -5.113940e-01
151 2 1 -1.882802e+00 1.720736e+01 9.545862e+00 -1 -1 1 -4.071596e-01 -4.460039e-01 -3.871239e-01 -6.967329e-01
152 2 1 -1.438393e+00 1.744122e+01 9.366390e+00 -1 -1 1 -1.326472e-01 -5.444341e-01 -1.699603e-01 -8.106230e-01
153 2 4 -1.073805e+00 1.775129e+01 9.553856e+00 -1 -1 1 1.079101e-01 -5.216258e-01 -6.340101e-02 -8.439444e-01
154 2 1 -8.306161e-01 1.813583e+01 9.920182e+00 -1 -1 1 3.703615e-01 -4.559285e-01 1.550875e-01 -7.942981e-01
155 2 2 -7.129635e-01 1.834615e+01 1.038162e+01 -1 -1 1 6.362742e-01 -3.258853e-01 1.812721e-01 -6.753476e-01
156 2 4 -4.164613e-01 1.841948e+01 1.084009e+01 -1 -1 1 6.949488e-01 -2.239948e-01 2.195697e-01 -6.470407e-01
157 2 3 -4.107641e-01 1.824011e+01 1.133314e+01 -1 -1 1 8.814763e-01 -1.069860e-01 3.026087e-01 -3.463834e-01
158 2 2 -2.714507e-01 1.792074e+01 1.174358e+01 -1 -1 1 9.516669e-01 2.007525e-02 3.052622e-01 -2.724220e-02
159 2 1 1.563225e-01 1.756100e+01 1.188944e+01 -1 -1 1 8.949955e-01 1.051222e-01 2.756402e-01 3.345966e-01
160 2 3 6.304317e-01 1.749292e+01 1.211573e+01 -1 -1 1 -7.763531e-01 -1.811046e-01 -3.241053e-01 -5.093454e-01
161 2 1 1.112965e+00 1.735777e+01 1.212516e+01 -1 -1 1 -5.812019e-01 -3.537817e-01 -2.387563e-01 -6.928480e-01
162 2 1 1.630107e+00 1.744848e+01 1.232371e+01 -1 -1 1 -4.071925e-01 -2.986699e-01 -2.932628e-01 -8.117805e-01
163 2 4 2.029718e+00 1.775466e+01 1.246902e+01 -1 -1 1 -9.787232e-02 -3.736883e-01 -1.797588e-01 -9.046905e-01
164 2 4 2.210953e+00 1.820491e+01 1.256365e+01 -1 -1 1 2.787995e-01 -4.529830e-01 -1.368168e-01 -8.356784e-01
165 2 3 2.342035e+00 1.857578e+01 1.296321e+01 -1 -1 1 5.244933e-01 -4.202025e-01 9.443371e-02 -7.344514e-01
166 2 3 2.313879e+00 1.859881e+01 1.349436e+01 -1 -1 1 7.939499e-01 -2.928410e-01 1.919176e-01 -4.970467e-01
167 2 4 2.555185e+00 1.856201e+01 1.401441e+01 -1 -1 1 8.446270e-01 -1.309970e-01 1.983377e-01 -4.796948e-01
168 2 2 2.673628e+00 1.830400e+01 1.443933e+01 -1 -1 1 9.246530e-01 3.829153e-02 3.130655e-01 -2.134022e-01
169 2 2 2.931577e+00 1.795448e+01 1.477847e+01 -1 -1 1 9.114359e-01 1.161601e-01 3.946764e-01 -4.677440e-03
170 2 1 3.271218e+00 1.763650e+01 1.496895e+01 -1 -1 1 8.577874e-01 2.744455e-01 4.171231e-01 1.220193e-01
171 2 1 3.575220e+00 1.734670e+01 1.495279e+01 -1 -1 1 -7.317141e-01 -5.079915e-01 -2.570082e-01 -3.748145e-01
172 2 4 4.058129e+00 1.709383e+01 1.487156e+01 -1 -1 1 -5.328406e-01 -5.338066e-01 -2.485087e-01 -6.077622e-01
173 2 4 4.630953e+00 1.718925e+01 1.477869e+01 -1 -1 1 -2.782870e-01 -5.845642e-01 -5.863999e-03 -7.621067e-01
174 2 1 5.010106e+00 1.734768e+01 1.497230e+01 -1 -1 1 8.693867e-02 -5.340907e-01 6.350754e-02 -8.385437e-01
175 2 1 5.426536e+00 1.749837e+01 1.545254e+01 -1 -1 1 2.614644e-01 -3.482881e-01 2.091147e-01 -8.755586e-01
176 2 2 5.646837e+00 1.718839e+01 1.602570e+01 -1 -1 1 3.879317e-01 -2.058279e-01 4.166500e-01 -7.959565e-01
177 2 2 5.741271e+00 1.692318e+01 1.645217e+01 -1 -1 1 5.585938e-01 2.647197e-02 3.639566e-01 -7.448542e-01
178 2 1 5.598272e+00 1.672402e+01 1.690041e+01 -1 -1 1 7.322069e-01 8.153032e-02 3.283514e-01 -5.911101e-01
179 2 4 5.451245e+00 1.637709e+01 1.720657e+01 -1 -1 1 8.701589e-01 1.612428e-01 3.126359e-01 -3.450840e-01
180 2 1 5.452970e+00 1.598758e+01 1.748908e+01 -1 -1 1 9.336882e-01 2.416498e-01 2.204591e-01 -1.457032e-01
181 2 4 5.551929e+00 1.553212e+01 1.765328e+01 -1 -1 1 -9.204878e-01 -3.028817e-01 -1.170309e-01 -2.174134e-01
182 2 2 5.926885e+00 1.518418e+01 1.773693e+01 -1 -1 1 -7.536990e-01 -3.195933e-01 1.269874e-02 -5.741400e-01
183 2 3 6.373633e+00 1.501450e+01 1.797287e+01 -1 -1 1 -5.952798e-01 -3.036071e-01 1.445467e-02 -7.438116e-01
184 2 4 6.924225e+00 1.503703e+01 1.820377e+01 -1 -1 1 -3.377348e-01 -3.043062e-01 4.085490e-02 -8.897549e-01
185 2 3 7.247880e+00 1.514929e+01 1.857309e+01 -1 -1 1 1.502046e-02 2.634630e-01 -8.935840e-02 9.604044e-01
186 2 1 7.511998e+00 1.524360e+01 1.899889e+01 -1 -1 1 -2.055932e-01 1.809257e-01 -1.860076e-01 9.436093e-01
187 2 1 7.532750e+00 1.540218e+01 1.956200e+01 -1 -1 1 5.026792e-01 -7.118553e-02 1.371603e-01 -8.505488e-01
188 2 2 7.502166e+00 1.527297e+01 -1.995480e+01 -1 -1 2 -6.468323e-01 -7.637395e-02 -1.513051e-01 7.435602e-01
189 2 4 7.303018e+00 1.510200e+01 -1.946132e+01 -1 -1 2 -7.270839e-01 -2.088943e-01 -1.319288e-01 6.405521e-01
190 2 4 7.109241e+00 1.475360e+01 -1.915736e+01 -1 -1 2 -9.207645e-01 -2.582782e-01 -9.535634e-02 2.763915e-01
191 2 1 7.148386e+00 1.430500e+01 -1.885184e+01 -1 -1 2 9.446245e-01 2.630042e-01 1.928029e-01 3.661083e-02
192 2 4 7.449593e+00 1.389716e+01 -1.858258e+01 -1 -1 2 -8.772929e-01 -3.115317e-01 -2.388326e-01 -2.761597e-01
193 2 4 7.870866e+00 1.358486e+01 -1.845959e+01 -1 -1 2 6.931576e-01 2.409722e-01 7.525371e-02 6.751310e-01
194 2 1 8.273008e+00 1.366501e+01 -1.810966e+01 -1 -1 2 -3.991828e-01 -1.667320e-01 -2.527061e-02 -9.012297e-01
195 2 3 8.690526e+00 1.380036e+01 -1.779807e+01 -1 -1 2 1.861660e-01 2.390888e-01 1.300835e-01 9.440641e-01
196 2 4 8.928165e+00 1.400484e+01 -1.734350e+01 -1 -1 2 -1.047253e-01 -6.653590e-02 -1.915012e-01 -9.736184e-01
197 2 2 8.932017e+00 1.442501e+01 -1.706327e+01 -1 -1 2 2.248752e-01 -3.836782e-02 -2.951020e-01 -9.278329e-01
198 2 4 8.668359e+00 1.487219e+01 -1.677177e+01 -1 -1 2 -5.047446e-01 -2.361284e-02 2.305557e-01 8.315765e-01
199 2 3 8.277164e+00 1.500190e+01 -1.652311e+01 -1 -1 2 -7.539481e-01 1.846300e-01 1.928269e-01 6.002432e-01
200 2 4 8.461180e+00 1.566855e+01 -1.634809e+01 -1 -1 2 -7.855572e-01 -4.899919e-01 -1.110855e-01 -3.612032e-01
