ITEM: TIMESTEP
323000000
ITEM: NUMBER OF ATOMS
200
ITEM: BOX BOUNDS pp pp pp
-2.0000000000000000e+01 2.0000000000000000e+01
-2.0000000000000000e+01 2.0000000000000000e+01
-2.0000000000000000e+01 2.0000000000000000e+01
ITEM: ATOMS id mol type x y z ix iy iz c_quat[1] c_quat[2] c_quat[3] c_quat[4]
1 1 1 1.792240e+01 1.223217e+01 -1.301347e+01 -1 -1 2 6.464711e-01 1.234001e-01 -4.620514e-01 -5.944375e-01
2 1 2 1.816814e+01 1.267698e+01 -1.343329e+01 -1 -1 2 3.465002e-02 -6.216220e-01 -7.824559e-01 1.217856e-02
3 1 1 1.782338e+01 1.278885e+01 -1.382374e+01 -1 -1 2 -4.888117e-02 8.454431e-01 5.293262e-01 -5.148281e-02
4 1 3 1.751724e+01 1.294943e+01 -1.412694e+01 -1 -1 2 -1.299246e-01 9.382458e-01 2.869781e-01 -1.430316e-01
5 1 1 1.723852e+01 1.320963e+01 -1.454965e+01 -1 -1 2 2.557770e-01 -9.516970e-01 -1.370166e-01 1.003867e-01
6 1 2 1.720348e+01 1.365610e+01 -1.492392e+01 -1 -1 2 2.304905e-01 -9.517784e-01 1.897552e-01 7.060398e-02
7 1 4 1.734261e+01 1.404127e+01 -1.522966e+01 -1 -1 2 1.554617e-01 -8.417902e-01 5.008796e-01 1.278302e-01
8 1 1 1.758292e+01 1.432746e+01 -1.569540e+01 -1 -1 2 -1.665284e-02 -6.838641e-01 7.096105e-01 1.688357e-01
9 1 1 1.761852e+01 1.431308e+01 -1.622095e+01 -1 -1 2 8.967930e-02 4.783972e-01 -8.704813e-01 -7.318584e-02
10 1 4 1.770439e+01 1.404355e+01 -1.658392e+01 -1 -1 2 -7.024455e-02 -7.553298e-02 9.942104e-01 -3.010353e-02
11 1 1 1.747524e+01 1.383326e+01 -1.709129e+01 -1 -1 2 -2.217883e-01 1.228190e-01 9.665227e-01 -3.948896e-02
12 1 1 1.707936e+01 1.355413e+01 -1.743905e+01 -1 -1 2 2.233310e-01 -4.597700e-01 -8.584244e-01 4.292289e-02
13 1 3 1.670752e+01 1.357457e+01 -1.778623e+01 -1 -1 2 -3.694797e-01 5.361101e-01 7.540748e-01 -8.626648e-02
14 1 4 1.611359e+01 1.353513e+01 -1.792292e+01 -1 -1 2 3.170198e-01 -7.414167e-01 -5.631107e-01 1.808480e-01
15 1 4 1.571185e+01 1.377216e+01 -1.806434e+01 -1 -1 2 3.434520e-01 -8.257231e-01 -3.542026e-01 2.734274e-01
16 1 2 1.533560e+01 1.414548e+01 -1.816130e+01 -1 -1 2 -1.648511e-01 9.364611e-01 4.198639e-02 -3.067602e-01
17 1 1 1.513700e+01 1.460438e+01 -1.839770e+01 -1 -1 2 -6.447067e-02 9.101337e-01 -2.546259e-01 -3.204152e-01
18 1 2 1.510207e+01 1.491413e+01 -1.875121e+01 -1 -1 2 5.705599e-02 -7.963239e-01 5.120929e-01 3.168181e-01
19 1 3 1.517683e+01 1.516505e+01 -1.914906e+01 -1 -1 2 4.203762e-02 -6.357940e-01 7.288455e-01 2.505657e-01
20 1 1 1.532093e+01 1.519864e+01 -1.968438e+01 -1 -1 2 -7.441759e-02 -3.397472e-01 9.172617e-01 1.940746e-01
21 1 4 1.521022e+01 1.517905e+01 1.979386e+01 -1 -1 1 1.824447e-01 1.399274e-01 -9.641730e-01 -1.323050e-01
22 1 1 1.518254e+01 1.490636e+01 1.937308e+01 -1 -1 1 1.727476e-01 -1.311112e-01 -9.755181e-01 3.650346e-02
23 1 4 1.486415e+01 1.472475e+01 1.898046e+01 -1 -1 1 2.674026e-01 -3.008374e-01 -8.839841e-01 2.378335e-01
24 1 3 1.440192e+01 1.451106e+01 1.882107e+01 -1 -1 1 3.163817e-01 -5.197888e-01 -7.081689e-01 3.580768e-01
25 1 3 1.386624e+01 1.450737e+01 1.881780e+01 -1 -1 1 3.697140e-01 -6.474601e-01 -4.949122e-01 4.462834e-01
26 1 4 1.339096e+01 1.480494e+01 1.891202e+01 -1 -1 1 1.144699e-01 -7.874660e-01 -1.828295e-01 5.773797e-01
27 1 4 1.280726e+01 1.499097e+01 1.870572e+01 -1 -1 1 1.525389e-01 -8.778986e-01 -7.966847e-03 4.538308e-01
28 1 1 1.264381e+01 1.544930e+01 1.851219e+01 -1 -1 1 1.242104e-01 -8.128700e-01 3.106196e-01 4.767909e-01
29 1 1 1.256904e+01 1.577964e+01 1.811309e+01 -1 -1 1 -5.162058e-02 -6.806941e-01 6.140850e-01 3.960939e-01
30 1 4 1.239424e+01 1.596770e+01 1.757701e+01 -1 -1 1 3.700098e-01 4.488081e-01 -7.216392e-01 -3.753677e-01
31 1 4 1.216382e+01 1.593826e+01 1.713431e+01 -1 -1 1 4.099293e-01 2.772858e-01 -8.565834e-01 -1.460667e-01
32 1 3 1.186183e+01 1.563792e+01 1.686845e+01 -1 -1 1 4.822747e-01 -7.223059e-02 -8.723440e-01 -3.478149e-02
33 1 3 1.148165e+01 1.523324e+01 1.673636e+01 -1 -1 1 4.599053e-01 -2.672156e-01 -8.100307e-01 2.468464e-01
34 1 1 1.096501e+01 1.506916e+01 1.680313e+01 -1 -1 1 4.593636e-01 -4.509901e-01 -6.734178e-01 3.634577e-01
35 1 2 1.046935e+01 1.511719e+01 1.692059e+01 -1 -1 1 4.593804e-01 -5.152503e-01 -5.382804e-01 4.834676e-01
36 1 2 9.958641e+00 1.522455e+01 1.707870e+01 -1 -1 1 3.292956e-01 -6.536429e-01 -3.402630e-01 5.903697e-01
37 1 1 9.483585e+00 1.543278e+01 1.720706e+01 -1 -1 1 1.653187e-01 -7.766938e-01 -1.351779e-01 5.925735e-01
38 1 1 9.078396e+00 1.564784e+01 1.716501e+01 -1 -1 1 1.525467e-01 -7.972874e-01 1.271999e-01 5.699846e-01
39 1 4 8.836617e+00 1.602135e+01 1.704459e+01 -1 -1 1 1.404303e-01 6.976517e-01 -3.513892e-01 -6.083478e-01
40 1 4 8.524499e+00 1.625579e+01 1.665837e+01 -1 -1 1 2.702978e-01 5.932963e-01 -5.819159e-01 -4.861198e-01
41 1 2 8.276745e+00 1.632275e+01 1.620598e+01 -1 -1 1 3.040287e-01 5.086776e-01 -7.081403e-01 -3.838632e-01
42 1 4 8.000050e+00 1.625179e+01 1.577749e+01 -1 -1 1 -4.179358e-01 -2.933815e-01 8.265190e-01 2.369038e-01
43 1 3 7.620468e+00 1.610206e+01 1.545858e+01 -1 -1 1 5.555030e-01 1.780059e-02 -8.298450e-01 -4.956637e-02
44 1 2 7.157826e+00 1.584520e+01 1.530535e+01 -1 -1 1 6.128222e-01 -1.272860e-01 -7.555387e-01 1.934129e-01
45 1 1 6.794016e+00 1.553192e+01 1.547135e+01 -1 -1 1 5.733956e-01 -1.997220e-01 -6.643534e-01 4.358476e-01
46 1 3 6.334992e+00 1.530070e+01 1.580366e+01 -1 -1 1 4.482099e-01 -4.700655e-01 -5.775613e-01 4.945394e-01
47 1 4 5.900850e+00 1.528716e+01 1.595555e+01 -1 -1 1 3.850314e-01 -5.845014e-01 -3.600140e-01 6.168459e-01
48 1 1 5.435009e+00 1.553184e+01 1.613477e+01 -1 -1 1 -9.668643e-02 7.051660e-01 1.446895e-01 -6.873555e-01
49 1 4 5.049544e+00 1.580930e+01 1.613387e+01 -1 -1 1 1.508379e-02 7.385749e-01 -1.014767e-01 -6.663198e-01
50 1 4 4.606185e+00 1.603681e+01 1.604464e+01 -1 -1 1 1.214968e-01 7.397487e-01 -3.163479e-01 -5.813212e-01
51 1 4 4.237430e+00 1.626107e+01 1.565855e+01 -1 -1 1 2.298839e-01 6.653162e-01 -5.321267e-01 -4.704773e-01
52 1 1 3.888316e+00 1.623397e+01 1.524228e+01 -1 -1 1 4.020509e-01 5.348163e-01 -7.116791e-01 -2.141012e-01
53 1 3 3.672518e+00 1.613928e+01 1.475555e+01 -1 -1 1 -3.656757e-01 -4.659337e-01 8.056939e-01 -6.659345e-03
54 1 4 3.539432e+00 1.576964e+01 1.445853e+01 -1 -1 1 -3.978459e-01 -2.196824e-01 8.812023e-01 -1.301565e-01
55 1 4 3.311911e+00 1.528648e+01 1.434205e+01 -1 -1 1 4.015183e-01 -8.045750e-03 -8.327873e-01 3.810297e-01
56 1 4 2.960422e+00 1.488287e+01 1.440933e+01 -1 -1 1 2.209908e-01 -3.859271e-01 -8.213723e-01 3.571707e-01
57 1 1 2.449215e+00 1.460954e+01 1.438538e+01 -1 -1 1 -2.118677e-01 5.996472e-01 6.458515e-01 -4.223874e-01
58 1 1 1.873737e+00 1.458513e+01 1.436583e+01 -1 -1 1 1.286860e-01 -7.731771e-01 -4.323447e-01 4.457747e-01
59 1 3 1.439973e+00 1.476463e+01 1.427587e+01 -1 -1 1 -1.079300e-02 8.364456e-01 1.282469e-01 -5.327242e-01
60 1 4 1.001585e+00 1.496083e+01 1.399609e+01 -1 -1 1 -6.887076e-02 9.150644e-01 -5.735762e-02 -3.932226e-01
61 1 2 7.426023e-01 1.521221e+01 1.367799e+01 -1 -1 1 -1.011818e-01 -8.432503e-01 3.720702e-01 3.745062e-01
62 1 3 6.264409e-01 1.544730e+01 1.322985e+01 -1 -1 1 1.335176e-01 7.409355e-01 -5.524189e-01 -3.578003e-01
63 1 2 5.577325e-01 1.539357e+01 1.269956e+01 -1 -1 1 -2.568194e-01 -4.190110e-01 8.472573e-01 2.015656e-01
64 1 4 3.143537e-01 1.519178e+01 1.216634e+01 -1 -1 1 -3.924305e-01 -2.613985e-01 8.805522e-01 4.792638e-02
65 1 2 5.523081e-02 1.489185e+01 1.184049e+01 -1 -1 1 4.390627e-01 4.777081e-02 -8.915979e-01 9.997583e-02
66 1 1 -2.690470e-01 1.454826e+01 1.172773e+01 -1 -1 1 -3.685584e-01 2.128240e-01 8.605839e-01 -2.797606e-01
67 1 2 -6.604489e-01 1.423982e+01 1.158973e+01 -1 -1 1 -3.867077e-01 4.229359e-01 7.364613e-01 -3.594539e-01
68 1 1 -1.164598e+00 1.406624e+01 1.149844e+01 -1 -1 1 3.812924e-01 -5.576472e-01 -6.044628e-01 4.222208e-01
69 1 1 -1.715895e+00 1.410897e+01 1.154335e+01 -1 -1 1 2.862395e-01 -7.524422e-01 -3.869229e-01 4.496535e-01
70 1 2 -2.075271e+00 1.431669e+01 1.151506e+01 -1 -1 1 -1.402559e-01 -7.884665e-01 7.940601e-03 5.988203e-01
71 1 3 -2.607859e+00 1.425541e+01 1.119455e+01 -1 -1 1 -2.092346e-01 -8.594319e-01 1.297638e-01 4.480615e-01
72 1 4 -3.177991e+00 1.349229e+01 1.070630e+01 -1 -1 1 7.138665e-01 2.846926e-01 3.865153e-01 -5.098535e-01
73 1 1 -3.325978e+00 1.304149e+01 1.063836e+01 -1 -1 1 -8.350078e-01 -4.953426e-01 -1.622270e-01 1.762954e-01
74 1 1 -3.875723e+00 1.271265e+01 1.046416e+01 -1 -1 1 4.425327e-01 7.793670e-01 -2.063357e-01 -3.926544e-01
75 1 3 -4.393897e+00 1.219672e+01 1.069947e+01 -1 -1 1 -7.253409e-01 -3.861781e-01 5.581808e-01 -1.148100e-01
76 1 1 -5.457522e+00 1.216449e+01 1.115349e+01 -1 -1 1 8.114398e-01 -2.436152e-01 1.341048e-01 -5.140360e-01
77 1 4 -5.457930e+00 1.215979e+01 1.164134e+01 -1 -1 1 -9.601917e-01 1.252964e-01 -1.830144e-01 1.698191e-01
78 1 1 -5.234004e+00 1.218786e+01 1.212542e+01 -1 -1 1 -9.766258e-01 -1.244085e-02 -2.136679e-01 1.983408e-02
79 1 4 -5.138176e+00 1.254911e+01 1.282067e+01 -1 -1 1 -4.478186e-01 4.337200e-01 -2.541778e-01 -7.394181e-01
80 1 2 -5.299878e+00 1.304938e+01 1.292039e+01 -1 -1 1 -4.100949e-01 5.367877e-01 -4.326408e-01 -5.970788e-01
81 1 4 -5.258853e+00 1.359577e+01 1.281188e+01 -1 -1 1 -1.939051e-01 5.001039e-01 -5.299985e-01 -6.568093e-01
82 1 4 -5.164255e+00 1.394654e+01 1.397023e+01 -1 -1 1 -2.130278e-01 -7.053294e-02 -1.105512e-02 -9.744342e-01
83 1 4 -5.378507e+00 1.422372e+01 1.435770e+01 -1 -1 1 -4.369284e-01 1.209951e-01 -1.678473e-01 8.753748e-01
84 1 4 -4.975668e+00 1.476708e+01 1.495144e+01 -1 -1 1 2.989251e-01 5.383982e-01 -6.665243e-01 4.201387e-01
85 1 1 -5.312258e+00 1.442700e+01 1.474109e+01 -1 -1 1 3.421136e-01 5.173527e-01 -3.996773e-01 -6.749537e-01
86 1 1 -5.437192e+00 1.350416e+01 1.514954e+01 -1 -1 1 3.796007e-02 4.745876e-01 -8.550395e-01 -2.055071e-01
87 1 3 -5.256869e+00 1.396396e+01 1.596061e+01 -1 -1 1 2.620912e-01 -7.939532e-02 8.437257e-01 -4.616617e-01
88 1 2 -5.381680e+00 1.471577e+01 1.622622e+01 -1 -1 1 7.210773e-01 -3.253218e-01 -5.335221e-01 -2.992783e-01
89 1 2 -5.737532e+00 1.496479e+01 1.646948e+01 -1 -1 1 8.305985e-01 -5.060747e-01 -2.306431e-01 -2.825363e-02
90 1 3 -5.819102e+00 1.522194e+01 1.689491e+01 -1 -1 1 6.908861e-01 -6.056120e-01 3.659883e-02 3.931551e-01
91 1 3 -5.710528e+00 1.572562e+01 1.708059e+01 -1 -1 1 4.128267e-01 -5.104791e-01 4.149346e-01 6.299321e-01
92 1 2 -5.336999e+00 1.619631e+01 1.768852e+01 -1 -1 1 -1.820423e-01 -8.347508e-01 -3.671328e-01 -3.677842e-01
93 1 1 -5.439093e+00 1.484617e+01 1.843911e+01 -1 -1 1 1.138606e-02 -5.335230e-01 7.251735e-01 -4.351401e-01
94 1 2 -5.151618e+00 1.445873e+01 1.834291e+01 -1 -1 1 -5.566918e-02 1.034849e-01 -9.053690e-01 4.080426e-01
95 1 3 -4.387764e+00 1.456876e+01 1.712186e+01 -1 -1 1 6.830962e-01 -2.656432e-01 4.193124e-01 5.357149e-01
96 1 2 -4.065271e+00 1.500683e+01 1.724659e+01 -1 -1 1 -3.280680e-01 1.540574e-01 -4.915290e-01 -7.918567e-01
97 1 2 -3.247769e+00 1.473195e+01 1.836640e+01 -1 -1 1 -5.204544e-01 8.050629e-01 2.456946e-01 1.436492e-01
98 1 4 -3.448783e+00 1.404137e+01 1.902865e+01 -1 -1 1 -1.510273e-01 2.825086e-01 -6.499488e-01 6.891634e-01
99 1 2 -3.524674e+00 1.375556e+01 1.812097e+01 -1 -1 1 7.765173e-01 6.160405e-01 9.754927e-02 8.943798e-02
100 1 1 -4.162643e+00 1.388756e+01 1.820783e+01 -1 -1 1 3.325364e-01 -7.980792e-01 3.292710e-01 3.795651e-01
101 2 4 -7.935655e+00 1.399186e+01 4.765358e+00 -1 -1 1 2.217895e-01 -8.526723e-01 -4.686397e-01 -6.431363e-02
102 2 3 -7.324742e+00 1.386949e+01 3.484888e+00 -1 -1 1 -5.812580e-01 -8.983873e-02 -4.333801e-01 -6.828248e-01
103 2 1 -8.095501e+00 1.373763e+01 3.895049e+00 -1 -1 1 5.351662e-01 -6.584294e-01 -5.062998e-01 1.540403e-01
104 2 3 -8.489751e+00 1.414650e+01 3.986394e+00 -1 -1 1 -4.574758e-01 8.342051e-01 1.617256e-01 -2.620357e-01
105 2 3 -8.670536e+00 1.462740e+01 4.057938e+00 -1 -1 1 -4.017503e-01 7.691257e-01 -1.760620e-01 -4.648059e-01
106 2 2 -8.687088e+00 1.510719e+01 4.061759e+00 -1 -1 1 -2.175656e-01 6.778008e-01 -4.203728e-01 -5.626171e-01
107 2 3 -8.574478e+00 1.529306e+01 5.179033e+00 -1 -1 1 -7.176322e-01 5.055023e-01 -1.106711e-01 4.660723e-01
108 2 4 -7.907867e+00 1.654738e+01 4.264986e+00 -1 -1 1 -5.892220e-01 9.732500e-02 -1.798247e-01 -7.816702e-01
109 2 3 -7.159123e+00 1.592304e+01 5.124953e+00 -1 -1 1 -6.712517e-01 7.378824e-01 -4.038743e-02 5.761666e-02
110 2 2 -7.502225e+00 1.541937e+01 4.666566e+00 -1 -1 1 -5.598444e-01 5.441537e-01 -3.356128e-01 -5.271006e-01
111 2 2 -7.586970e+00 1.528219e+01 5.353731e+00 -1 -1 1 -3.428620e-01 2.273308e-01 -2.078220e-01 8.874550e-01
112 2 3 -7.682895e+00 1.533869e+01 5.901164e+00 -1 -1 1 -6.902912e-01 2.333440e-01 -3.447253e-01 5.917880e-01
113 2 3 -7.524539e+00 1.507774e+01 6.291683e+00 -1 -1 1 -8.735489e-01 3.556172e-02 -4.042739e-01 2.687198e-01
114 2 2 -7.256610e+00 1.485679e+01 6.704144e+00 -1 -1 1 8.571382e-01 -5.569406e-02 4.749750e-01 1.913401e-01
115 2 4 -6.393478e+00 1.536585e+01 7.329348e+00 -1 -1 1 -4.618070e-01 8.382422e-01 6.419803e-02 -2.827772e-01
116 2 4 -6.397546e+00 1.588132e+01 7.372572e+00 -1 -1 1 -2.121840e-01 8.196140e-01 -2.659602e-01 -4.609513e-01
117 2 1 -6.420384e+00 1.610696e+01 8.319926e+00 -1 -1 1 -1.701441e-01 -9.816959e-01 8.132255e-02 2.666220e-02
118 2 1 -6.538942e+00 1.636874e+01 7.770884e+00 -1 -1 1 5.720686e-01 6.947289e-01 -2.592155e-01 -3.505659e-01
119 2 1 -5.930595e+00 1.651586e+01 8.447968e+00 -1 -1 1 2.463741e-01 3.958101e-01 -8.834577e-01 4.622362e-02
120 2 1 -5.484595e+00 1.773543e+01 8.509578e+00 -1 -1 1 3.571643e-01 7.222785e-01 4.264711e-01 4.109378e-01
121 2 3 -5.027374e+00 1.624939e+01 9.171813e+00 -1 -1 1 -6.492692e-01 5.834435e-01 -3.499659e-01 3.399516e-01
122 2 1 -5.447350e+00 1.626115e+01 9.077577e+00 -1 -1 1 -8.454100e-02 8.309785e-01 3.211882e-01 4.462798e-01
123 2 4 -4.536335e+00 1.562964e+01 9.220955e+00 -1 -1 1 1.310425e-01 -7.626230e-01 2.877624e-01 -5.642932e-01
124 2 1 -4.447850e+00 1.521847e+01 8.453757e+00 -1 -1 1 3.696241e-01 3.817498e-01 7.108384e-01 -4.608186e-01
125 2 4 -3.820704e+00 1.458492e+01 8.734960e+00 -1 -1 1 -7.516914e-01 -2.469967e-01 1.887610e-01 -5.816545e-01
126 2 2 -3.540916e+00 1.437327e+01 9.101935e+00 -1 -1 1 -4.636911e-01 -1.361510e-01 2.416205e-01 -8.414707e-01
127 2 4 -3.362676e+00 1.446739e+01 9.562338e+00 -1 -1 1 3.845166e-02 -2.169164e-02 3.021884e-01 -9.522254e-01
128 2 4 -2.481814e+00 1.383664e+01 1.001793e+01 -1 -1 1 -6.684957e-01 4.642518e-01 5.374688e-01 2.207057e-01
129 2 1 -1.327770e+00 1.422443e+01 9.945418e+00 -1 -1 1 2.310096e-01 -8.565353e-01 2.889011e-01 -3.598862e-01
130 2 2 -1.703367e+00 1.508824e+01 1.024499e+01 -1 -1 1 -3.222619e-01 -5.762269e-01 -1.351121e-02 -7.509509e-01
131 2 3 -1.233551e+00 1.518117e+01 1.043259e+01 -1 -1 1 4.613338e-03 5.117676e-01 -2.158105e-01 8.315639e-01
132 2 4 -1.376427e+00 1.512971e+01 1.098653e+01 -1 -1 1 -4.935833e-01 3.674573e-01 -1.966593e-01 7.633321e-01
133 2 4 -1.312921e+00 1.526869e+01 1.139178e+01 -1 -1 1 -7.279293e-01 3.004497e-01 -1.837218e-01 5.882985e-01
134 2 3 -1.194412e+00 1.522378e+01 1.191119e+01 -1 -1 1 8.450018e-01 -2.163627e-01 3.149523e-01 -3.741179e-01
135 2 4 -1.066051e+00 1.503812e+01 1.234775e+01 -1 -1 1 9.343183e-01 -7.522820e-02 3.385269e-01 -8.239893e-02
136 2 3 -6.781467e-01 1.493397e+01 1.277114e+01 -1 -1 1 -9.105705e-01 -8.138666e-02 -4.023976e-01 4.810061e-02
137 2 1 -3.507855e-01 1.459944e+01 1.296468e+01 -1 -1 1 8.433584e-01 2.362231e-01 4.265492e-01 2.258342e-01
138 2 3 1.285281e-01 1.430752e+01 1.292986e+01 -1 -1 1 -7.157864e-01 -3.411974e-01 -3.170891e-01 -5.202775e-01
139 2 2 7.365483e-01 1.425863e+01 1.285858e+01 -1 -1 1 -5.552347e-01 -3.821576e-01 -2.118136e-01 -7.076758e-01
140 2 3 1.226684e+00 1.431202e+01 1.314543e+01 -1 -1 1 -4.382475e-01 -3.997774e-01 -3.246831e-01 -7.366804e-01
141 2 1 1.630280e+00 1.466035e+01 1.311090e+01 -1 -1 1 1.125854e-01 4.887284e-01 1.975485e-01 8.422848e-01
142 2 2 1.969299e+00 1.510642e+01 1.324826e+01 -1 -1 1 -1.758168e-01 4.613326e-01 1.164727e-01 8.617974e-01
143 2 4 2.101204e+00 1.550988e+01 1.362715e+01 -1 -1 1 -4.901169e-01 4.057641e-01 -2.299161e-03 7.714503e-01
144 2 4 2.161746e+00 1.572662e+01 1.405736e+01 -1 -1 1 -7.240323e-01 3.118087e-01 -5.923003e-02 6.124087e-01
145 2 1 2.292321e+00 1.583383e+01 1.461614e+01 -1 -1 1 8.275829e-01 -3.218179e-01 2.757100e-01 -3.681355e-01
146 2 1 2.528107e+00 1.580716e+01 1.507064e+01 -1 -1 1 9.054886e-01 -4.584945e-02 3.807592e-01 -1.816882e-01
147 2 1 2.803801e+00 1.548270e+01 1.535728e+01 -1 -1 1 9.050916e-01 5.671592e-02 3.999440e-01 1.328054e-01
148 2 2 3.269147e+00 1.529732e+01 1.557578e+01 -1 -1 1 8.134376e-01 1.274708e-01 4.639269e-01 3.268672e-01
149 2 4 3.807349e+00 1.509069e+01 1.562522e+01 -1 -1 1 -6.380388e-01 -3.540755e-01 -4.240969e-01 -5.363570e-01
150 2 1 4.280240e+00 1.513573e+01 1.536074e+01 -1 -1 1 -4.626294e-01 -5.450633e-01 -4.467580e-01 -5.378543e-01
151 2 1 4.777038e+00 1.525899e+01 1.506233e+01 -1 -1 1 -2.503895e-01 -5.852021e-01 -2.764061e-01 -7.200301e-01
152 2 1 5.166426e+00 1.560082e+01 1.491413e+01 -1 -1 1 -2.529256e-02 -6.835894e-01 -1.033642e-01 -7.220676e-01
153 2 4 5.475603e+00 1.600901e+01 1.502955e+01 -1 -1 1 2.713679e-01 -6.458919e-01 9.571514e-02 -7.071222e-01
154 2 1 5.824965e+00 1.628270e+01 1.535045e+01 -1 -1 1 4.954026e-01 -5.673997e-01 2.414102e-01 -6.118455e-01
155 2 2 6.166831e+00 1.648188e+01 1.576854e+01 -1 -1 1 5.931331e-01 -4.512820e-01 3.995409e-01 -5.337647e-01
156 2 4 6.510779e+00 1.647193e+01 1.613378e+01 -1 -1 1 7.374806e-01 -2.571717e-01 5.380709e-01 -3.169620e-01
157 2 3 6.850136e+00 1.627474e+01 1.635661e+01 -1 -1 1 7.981326e-01 -7.491225e-02 5.677284e-01 -1.872352e-01
158 2 2 7.119158e+00 1.594901e+01 1.654831e+01 -1 -1 1 8.339702e-01 1.599283e-01 5.249593e-01 -5.774514e-02
159 2 1 7.498911e+00 1.551598e+01 1.655707e+01 -1 -1 1 7.560420e-01 3.373520e-01 5.222887e-01 2.044716e-01
160 2 3 7.902809e+00 1.518221e+01 1.635303e+01 -1 -1 1 -6.427801e-01 -4.953402e-01 -4.322476e-01 -3.932351e-01
161 2 1 8.364316e+00 1.515346e+01 1.621616e+01 -1 -1 1 -4.848156e-01 -5.779908e-01 -3.431448e-01 -5.595821e-01
162 2 1 8.916149e+00 1.526283e+01 1.604556e+01 -1 -1 1 -2.428858e-01 -6.276465e-01 -2.123765e-01 -7.084932e-01
163 2 4 9.390772e+00 1.551277e+01 1.604986e+01 -1 -1 1 -4.467147e-02 -6.010935e-01 -1.506671e-01 -7.835755e-01
164 2 4 9.773572e+00 1.584631e+01 1.609893e+01 -1 -1 1 1.606348e-01 -5.759990e-01 -5.660926e-02 -7.995105e-01
165 2 3 1.001799e+01 1.623423e+01 1.646794e+01 -1 -1 1 4.492223e-01 -5.615986e-01 2.793104e-01 -6.362327e-01
166 2 3 1.039259e+01 1.631828e+01 1.684073e+01 -1 -1 1 6.278080e-01 -4.260757e-01 3.584843e-01 -5.438801e-01
167 2 4 1.081626e+01 1.624823e+01 1.710420e+01 -1 -1 1 6.440959e-01 -2.887643e-01 3.654848e-01 -6.067755e-01
168 2 2 1.100798e+01 1.605777e+01 1.753989e+01 -1 -1 1 8.179174e-01 -1.825896e-02 4.367203e-01 -3.741031e-01
169 2 2 1.118426e+01 1.562495e+01 1.780425e+01 -1 -1 1 8.596018e-01 2.185788e-01 4.565474e-01 -6.980282e-02
170 2 1 1.157468e+01 1.513890e+01 1.782250e+01 -1 -1 1 8.038873e-01 3.483586e-01 4.515199e-01 1.689419e-01
171 2 1 1.199548e+01 1.487497e+01 1.771469e+01 -1 -1 1 -6.223868e-01 -5.166233e-01 -4.312021e-01 -3.997497e-01
172 2 4 1.250239e+01 1.479583e+01 1.753304e+01 -1 -1 1 -4.524006e-01 -5.509076e-01 -2.858171e-01 -6.404242e-01
173 2 4 1.299939e+01 1.499483e+01 1.744313e+01 -1 -1 1 -1.086876e-01 -5.649012e-01 -1.590986e-02 -8.178145e-01
174 2 1 1.350824e+01 1.515214e+01 1.768068e+01 -1 -1 1 7.923968e-02 -4.555388e-01 6.157490e-02 -8.845417e-01
175 2 1 1.384955e+01 1.537270e+01 1.801462e+01 -1 -1 1 2.570930e-01 -4.040417e-01 6.400251e-02 -8.755325e-01
176 2 2 1.396244e+01 1.564823e+01 1.845741e+01 -1 -1 1 5.758856e-01 -3.595808e-01 1.444781e-01 -7.198497e-01
177 2 2 1.401381e+01 1.568490e+01 1.892977e+01 -1 -1 1 7.968836e-01 -2.608537e-01 2.269028e-01 -4.954261e-01
178 2 1 1.411273e+01 1.555562e+01 1.936716e+01 -1 -1 1 9.164289e-01 4.660354e-02 1.753818e-01 -3.566895e-01
179 2 4 1.405328e+01 1.513924e+01 1.973562e+01 -1 -1 1 9.523621e-01 2.797802e-01 1.109894e-01 -4.910085e-02
180 2 1 1.417138e+01 1.478731e+01 -1.981585e+01 -1 -1 2 9.208991e-01 3.089987e-01 2.164574e-01 9.803504e-02
181 2 4 1.450596e+01 1.433566e+01 -1.965169e+01 -1 -1 2 -8.350815e-01 -3.490667e-01 -1.777140e-01 -3.862758e-01
182 2 2 1.496458e+01 1.407551e+01 -1.957324e+01 -1 -1 2 -6.789817e-01 -3.624620e-01 -8.963300e-02 -6.321163e-01
183 2 3 1.547090e+01 1.400188e+01 -1.941953e+01 -1 -1 2 -4.401996e-01 -3.853680e-01 -7.326606e-02 -8.076806e-01
184 2 4 1.596113e+01 1.410688e+01 -1.917437e+01 -1 -1 2 -1.872339e-01 -3.525620e-01 -9.709496e-03 -9.168147e-01
185 2 3 1.625139e+01 1.439700e+01 -1.890113e+01 -1 -1 2 -1.283557e-01 3.564014e-01 -3.586275e-02 9.247793e-01
186 2 1 1.645119e+01 1.465025e+01 -1.847838e+01 -1 -1 2 -3.166970e-01 3.157378e-01 -1.806732e-01 8.759965e-01
187 2 1 1.650372e+01 1.472150e+01 -1.792882e+01 -1 -1 2 6.101984e-01 -2.126741e-01 2.409322e-01 -7.241404e-01
188 2 2 1.636524e+01 1.466534e+01 -1.742731e+01 -1 -1 2 -8.167175e-01 7.526840e-02 -1.631483e-01 5.483519e-01
189 2 4 1.638569e+01 1.446859e+01 -1.694049e+01 -1 -1 2 -8.904033e-01 -8.084275e-02 -2.309039e-01 3.838356e-01
190 2 4 1.640311e+01 1.406937e+01 -1.656443e+01 -1 -1 2 -9.644016e-01 -1.364849e-01 -1.988084e-01 1.085203e-01
191 2 1 1.662078e+01 1.370158e+01 -1.625779e+01 -1 -1 2 9.279542e-01 2.124472e-01 2.481330e-01 1.794360e-01
192 2 4 1.699298e+01 1.333949e+01 -1.614605e+01 -1 -1 2 -8.075958e-01 -3.261849e-01 -1.481509e-01 -4.684483e-01
193 2 4 1.748455e+01 1.316652e+01 -1.602324e+01 -1 -1 2 6.257973e-01 2.720230e-01 2.214606e-02 7.306783e-01
194 2 1 1.795895e+01 1.314432e+01 -1.571402e+01 -1 -1 2 -3.890826e-01 -2.342536e-01 -5.669491e-02 -8.891151e-01
195 2 3 1.829062e+01 1.324080e+01 -1.521553e+01 -1 -1 2 2.229540e-01 1.283301e-01 1.180725e-02 9.662730e-01
196 2 4 1.839875e+01 1.352570e+01 -1.474494e+01 -1 -1 2 6.503918e-02 -9.669214e-02 2.863788e-02 -9.927741e-01
197 2 2 1.839356e+01 1.374900e+01 -1.426475e+01 -1 -1 2 3.871295e-01 -2.783470e-02 8.028229e-02 -9.181017e-01
198 2 4 1.829104e+01 1.389635e+01 -1.382424e+01 -1 -1 2 -5.819477e-01 -4.378200e-02 -1.238191e-02 8.119524e-01
199 2 3 1.791661e+01 1.380252e+01 -1.340990e+01 -1 -1 2 8.152967e-01 9.024042e-03 -3.842350e-02 -5.776967e-01
200 2 4 1.797979e+01 1.357587e+01 -1.278852e+01 -1 -1 2 9.137683e-01 6.107266e-03 1.687097e-01 -3.694958e-01
