ITEM: TIMESTEP
398000000
ITEM: NUMBER OF ATOMS
200
ITEM: BOX BOUNDS pp pp pp
-2.0000000000000000e+01 2.0000000000000000e+01
-2.0000000000000000e+01 2.0000000000000000e+01
-2.0000000000000000e+01 2.0000000000000000e+01
ITEM: ATOMS id mol type x y z ix iy iz c_quat[1] c_quat[2] c_quat[3] c_quat[4]
1 1 1 -6.675398e+00 -1.976060e+01 -1.170196e+01 -1 0 2 3.306811e-01 5.784995e-01 7.246703e-01 -1.756167e-01
2 1 2 -6.847664e+00 1.997491e+01 -1.208868e+01 -1 -1 2 -3.938308e-01 -8.155183e-01 -4.225833e-01 3.536302e-02
3 1 1 -6.814467e+00 1.978269e+01 -1.263099e+01 -1 -1 2 -3.433862e-01 -9.165870e-01 -1.863833e-01 -8.494408e-02
4 1 3 -6.590028e+00 1.968643e+01 -1.309357e+01 -1 -1 2 -2.132853e-01 -9.519310e-01 -4.188252e-02 -2.158300e-01
5 1 1 -6.309706e+00 1.973031e+01 -1.360268e+01 -1 -1 2 -3.697812e-02 -9.277819e-01 9.847232e-02 -3.579896e-01
6 1 2 -5.887760e+00 1.988797e+01 -1.392363e+01 -1 -1 2 1.474157e-02 -8.433956e-01 3.566338e-01 -4.015955e-01
7 1 4 -5.352463e+00 1.995064e+01 -1.404379e+01 -1 -1 2 1.478765e-01 -6.630689e-01 6.001099e-01 -4.223035e-01
8 1 1 -4.878265e+00 1.991741e+01 -1.404211e+01 -1 -1 2 2.806907e-01 -4.813292e-01 7.535461e-01 -3.488598e-01
9 1 1 -4.515767e+00 1.962983e+01 -1.406685e+01 -1 -1 2 -4.177697e-01 1.113365e-01 -8.731465e-01 2.251395e-01
10 1 4 -4.221890e+00 1.911301e+01 -1.420710e+01 -1 -1 2 4.118451e-01 4.472696e-02 8.977270e-01 -1.498978e-01
11 1 1 -4.090607e+00 1.861541e+01 -1.450022e+01 -1 -1 2 4.602859e-01 2.985251e-01 8.360118e-01 -1.019042e-02
12 1 1 -4.103515e+00 1.829428e+01 -1.492870e+01 -1 -1 2 -4.214734e-01 -5.941175e-01 -6.799821e-01 -8.371894e-02
13 1 3 -4.101307e+00 1.814327e+01 -1.544408e+01 -1 -1 2 3.683693e-01 7.891861e-01 4.480994e-01 2.017334e-01
14 1 4 -3.973375e+00 1.817991e+01 -1.599650e+01 -1 -1 2 -3.219369e-01 -8.640319e-01 -1.621351e-01 -3.514509e-01
15 1 4 -3.633828e+00 1.821190e+01 -1.641813e+01 -1 -1 2 -2.410655e-01 -8.621585e-01 3.361668e-02 -4.443422e-01
16 1 2 -3.167687e+00 1.820752e+01 -1.662250e+01 -1 -1 2 5.196032e-02 7.970887e-01 -2.156686e-01 5.616376e-01
17 1 1 -2.670093e+00 1.814777e+01 -1.678320e+01 -1 -1 2 3.306320e-02 6.217827e-01 -5.376808e-01 5.685001e-01
18 1 2 -2.210922e+00 1.805388e+01 -1.668382e+01 -1 -1 2 1.952819e-01 -4.767397e-01 6.423962e-01 -5.673723e-01
19 1 3 -1.847883e+00 1.768604e+01 -1.651489e+01 -1 -1 2 3.321875e-01 -1.927012e-01 7.642802e-01 -5.180671e-01
20 1 1 -1.566628e+00 1.716444e+01 -1.651728e+01 -1 -1 2 2.986439e-01 -1.473447e-02 8.313328e-01 -4.684874e-01
21 1 4 -1.583677e+00 1.662256e+01 -1.661130e+01 -1 -1 2 -4.144388e-01 -2.894714e-01 -8.161884e-01 2.797916e-01
22 1 1 -1.592848e+00 1.620246e+01 -1.687302e+01 -1 -1 2 -4.752846e-01 -5.081753e-01 -7.116235e-01 9.723415e-02
23 1 4 -1.630956e+00 1.589546e+01 -1.725599e+01 -1 -1 2 -3.903362e-01 -7.588975e-01 -5.212454e-01 -3.929145e-03
24 1 3 -1.427609e+00 1.562461e+01 -1.778800e+01 -1 -1 2 -3.099689e-01 -8.139919e-01 -4.602919e-01 -1.716622e-01
25 1 3 -1.257759e+00 1.577804e+01 -1.827989e+01 -1 -1 2 -2.282308e-01 -9.101942e-01 -1.483319e-01 -3.121777e-01
26 1 4 -1.034874e+00 1.594470e+01 -1.865254e+01 -1 -1 2 -8.215133e-02 -9.147286e-01 1.871804e-01 -3.485487e-01
27 1 4 -5.572231e-01 1.611247e+01 -1.887241e+01 -1 -1 2 5.365076e-02 -8.008028e-01 4.478604e-01 -3.940274e-01
28 1 1 -6.067918e-02 1.608564e+01 -1.904753e+01 -1 -1 2 1.421102e-01 -5.952601e-01 6.455418e-01 -4.568871e-01
29 1 1 4.208342e-01 1.579767e+01 -1.910437e+01 -1 -1 2 2.282381e-01 -3.326945e-01 8.043297e-01 -4.362057e-01
30 1 4 7.122019e-01 1.527373e+01 -1.925784e+01 -1 -1 2 -1.240212e-01 1.215393e-01 -9.258315e-01 3.356828e-01
31 1 4 7.636306e-01 1.483168e+01 -1.945750e+01 -1 -1 2 -1.814951e-01 -2.418057e-01 -8.813209e-01 3.631294e-01
32 1 3 6.233376e-01 1.430537e+01 -1.977474e+01 -1 -1 2 -1.959539e-01 -4.843976e-01 -8.305580e-01 1.927032e-01
33 1 3 3.693563e-01 1.405008e+01 1.975139e+01 -1 -1 1 -1.271739e-01 -7.487988e-01 -6.449546e-01 8.462091e-02
34 1 1 1.061382e-01 1.409320e+01 1.927424e+01 -1 -1 1 -1.395754e-01 -9.496036e-01 -2.772470e-01 4.365539e-02
35 1 2 5.807665e-02 1.419269e+01 1.868310e+01 -1 -1 1 -1.241518e-01 -9.797948e-01 -8.771434e-02 -1.299795e-01
36 1 2 2.586421e-01 1.441437e+01 1.820229e+01 -1 -1 1 -1.180527e-01 -9.442459e-01 2.378459e-01 -1.946602e-01
37 1 1 4.368892e-01 1.444470e+01 1.773416e+01 -1 -1 1 -5.129170e-02 -8.881075e-01 3.632692e-01 -2.768930e-01
38 1 1 8.534760e-01 1.447663e+01 1.749031e+01 -1 -1 1 2.551023e-02 -6.761338e-01 6.858221e-01 -2.680306e-01
39 1 4 1.264215e+00 1.422552e+01 1.726172e+01 -1 -1 1 -7.481211e-02 4.582552e-01 -8.425633e-01 2.729331e-01
40 1 4 1.530672e+00 1.386385e+01 1.700332e+01 -1 -1 1 -1.088837e-01 1.716143e-01 -9.221173e-01 3.292303e-01
41 1 2 1.723167e+00 1.343759e+01 1.678266e+01 -1 -1 1 -1.283226e-01 -9.131665e-02 -9.316953e-01 3.273201e-01
42 1 4 1.673724e+00 1.298781e+01 1.643911e+01 -1 -1 1 5.232654e-02 4.237870e-01 8.764574e-01 -2.224611e-01
43 1 3 1.407875e+00 1.266172e+01 1.614132e+01 -1 -1 1 -6.290610e-02 -6.524805e-01 -7.237560e-01 2.156139e-01
44 1 2 1.081533e+00 1.261319e+01 1.574395e+01 -1 -1 1 -1.371475e-01 -8.790326e-01 -4.407179e-01 1.194153e-01
45 1 1 9.556951e-01 1.262567e+01 1.521638e+01 -1 -1 1 -9.270541e-02 -9.418224e-01 -3.228751e-01 -1.131394e-02
46 1 3 9.030041e-01 1.282784e+01 1.475553e+01 -1 -1 1 -3.766995e-02 -9.980441e-01 -1.992435e-02 -4.573718e-02
47 1 4 1.086589e+00 1.304610e+01 1.434513e+01 -1 -1 1 2.064042e-02 -9.241865e-01 3.728810e-01 -8.008107e-02
48 1 1 1.368732e+00 1.316752e+01 1.391972e+01 -1 -1 1 -7.327711e-02 7.856267e-01 -5.974162e-01 1.432311e-01
49 1 4 1.766039e+00 1.311483e+01 1.351858e+01 -1 -1 1 -7.610925e-02 6.055514e-01 -7.661761e-01 2.012192e-01
50 1 4 2.126300e+00 1.290025e+01 1.316087e+01 -1 -1 1 4.812656e-04 3.772311e-01 -8.985328e-01 2.243551e-01
51 1 4 2.321039e+00 1.237980e+01 1.291627e+01 -1 -1 1 -8.503805e-02 5.234439e-02 -9.501792e-01 2.952762e-01
52 1 1 2.227346e+00 1.182387e+01 1.277673e+01 -1 -1 1 -1.293286e-01 -2.781403e-01 -9.106612e-01 2.767821e-01
53 1 3 2.050434e+00 1.145731e+01 1.249248e+01 -1 -1 1 1.733756e-01 5.308436e-01 7.847444e-01 -2.689278e-01
54 1 4 1.681250e+00 1.116987e+01 1.218545e+01 -1 -1 1 1.936779e-01 7.902080e-01 5.284819e-01 -2.424190e-01
55 1 4 1.421680e+00 1.092194e+01 1.179561e+01 -1 -1 1 -2.606623e-01 -8.709384e-01 -3.862285e-01 1.560415e-01
56 1 4 1.288555e+00 1.076402e+01 1.131112e+01 -1 -1 1 -2.345005e-01 -9.497620e-01 -2.041405e-01 -3.589357e-02
57 1 1 1.281556e+00 1.080966e+01 1.077597e+01 -1 -1 1 8.220857e-02 9.901868e-01 -1.259182e-03 1.130056e-01
58 1 1 1.509177e+00 1.103190e+01 1.033530e+01 -1 -1 1 -1.749293e-01 -9.281599e-01 3.029158e-01 -1.271262e-01
59 1 3 1.893452e+00 1.103806e+01 1.001285e+01 -1 -1 1 -3.292577e-02 7.816045e-01 -5.852487e-01 2.132938e-01
60 1 4 2.218882e+00 1.097531e+01 9.569405e+00 -1 -1 1 1.469601e-02 7.207834e-01 -5.914755e-01 3.611260e-01
61 1 2 2.629681e+00 1.067555e+01 9.409735e+00 -1 -1 1 3.339742e-02 -4.086428e-01 8.562250e-01 -3.142839e-01
62 1 3 2.893407e+00 1.024835e+01 9.214370e+00 -1 -1 1 -8.138497e-02 1.937144e-01 -9.019441e-01 3.772905e-01
63 1 2 3.015605e+00 9.831840e+00 9.227661e+00 -1 -1 1 2.235106e-01 1.007250e-01 8.457146e-01 -4.739877e-01
64 1 4 2.930879e+00 9.357103e+00 9.150188e+00 -1 -1 1 4.288122e-01 4.348481e-01 7.511256e-01 -2.506741e-01
65 1 2 2.760355e+00 8.871859e+00 8.824669e+00 -1 -1 1 4.284914e-01 6.666874e-01 6.048877e-01 -7.767799e-02
66 1 1 2.828223e+00 8.594852e+00 8.323272e+00 -1 -1 1 3.559552e-01 7.973590e-01 4.873501e-01 2.098350e-03
67 1 2 2.846243e+00 8.472132e+00 7.729018e+00 -1 -1 1 -2.563535e-01 -8.956648e-01 -3.439445e-01 -1.173440e-01
68 1 1 2.901067e+00 8.609746e+00 7.210141e+00 -1 -1 1 2.026246e-01 9.582900e-01 5.785279e-03 2.014697e-01
69 1 1 3.248368e+00 8.690813e+00 6.799627e+00 -1 -1 1 1.404955e-01 8.666671e-01 -3.587752e-01 3.169063e-01
70 1 2 2.887405e+00 9.243557e+00 6.072616e+00 -1 -1 1 1.757842e-02 -6.910044e-01 -5.213049e-01 -5.004449e-01
71 1 3 3.023374e+00 9.687817e+00 5.910726e+00 -1 -1 1 -1.490512e-01 8.638948e-01 4.171299e-02 4.793012e-01
72 1 4 3.399138e+00 9.969090e+00 5.856341e+00 -1 -1 1 -3.225343e-01 7.574497e-01 -5.049341e-01 2.593898e-01
73 1 1 3.520156e+00 1.013064e+01 5.440451e+00 -1 -1 1 -2.703043e-01 -5.571795e-01 2.330312e-01 -7.497886e-01
74 1 1 4.010151e+00 1.004241e+01 5.539017e+00 -1 -1 1 -4.212462e-03 -4.178691e-01 2.984590e-01 -8.580734e-01
75 1 3 5.037563e+00 9.904832e+00 5.286312e+00 -1 -1 1 3.137998e-01 -7.159445e-01 4.377256e-01 -4.442404e-01
76 1 1 5.960861e+00 1.026531e+01 5.506449e+00 -1 -1 1 -8.091733e-01 5.274738e-01 1.381025e-01 -2.189469e-01
77 1 4 6.030764e+00 9.333204e+00 5.030755e+00 -1 -1 1 -1.801361e-01 -8.615289e-01 4.616691e-01 -1.103658e-01
78 1 1 4.991429e+00 8.863258e+00 4.917033e+00 -1 -1 1 -1.722270e-01 4.172349e-01 8.186874e-01 -3.549702e-01
79 1 4 4.475019e+00 8.674978e+00 3.837399e+00 -1 -1 1 -6.244892e-01 -4.432513e-01 -5.058487e-01 3.970625e-01
80 1 2 4.208065e+00 9.489976e+00 3.974866e+00 -1 -1 1 2.751926e-01 7.175262e-01 1.925380e-01 6.102084e-01
81 1 4 3.274491e+00 9.110542e+00 4.317299e+00 -1 -1 1 2.843880e-01 8.312920e-02 -9.116137e-01 -2.849096e-01
82 1 4 3.002606e+00 1.045957e+01 4.639658e+00 -1 -1 1 -8.591829e-02 -5.948269e-01 -2.678507e-02 -7.988001e-01
83 1 4 2.914562e+00 1.099780e+01 3.606782e+00 -1 -1 1 2.569262e-01 7.431171e-01 6.160485e-01 4.743557e-02
84 1 4 2.828426e+00 1.091488e+01 3.757082e+00 -1 -1 1 2.479839e-01 -2.939161e-01 8.979526e-01 -2.140058e-01
85 1 1 2.152752e+00 1.224090e+01 3.687645e+00 -1 -1 1 -2.390816e-01 1.062330e-01 3.151941e-02 9.646559e-01
86 1 1 2.045356e+00 1.246033e+01 4.037610e+00 -1 -1 1 -6.529556e-01 1.376141e-01 2.860411e-02 7.442400e-01
87 1 3 1.835132e+00 1.255795e+01 4.446371e+00 -1 -1 1 9.116802e-01 -1.500499e-02 6.685466e-03 -4.105720e-01
88 1 2 1.507146e+00 1.360238e+01 4.824782e+00 -1 -1 1 -7.593084e-01 4.107461e-01 5.006555e-01 -6.389494e-02
89 1 2 1.834669e+00 1.353733e+01 5.355155e+00 -1 -1 1 2.625522e-01 -8.908097e-01 3.129205e-01 -1.990103e-01
90 1 3 7.729830e-01 1.271709e+01 5.113677e+00 -1 -1 1 -3.670387e-02 -1.532594e-01 -8.130983e-01 5.603887e-01
91 1 3 6.526226e-01 1.239195e+01 5.328533e+00 -1 -1 1 2.612874e-01 4.494223e-01 4.948367e-01 -6.963369e-01
92 1 2 2.644215e-01 1.225716e+01 5.446370e+00 -1 -1 1 -6.797631e-01 -4.218130e-01 -2.255082e-01 5.560053e-01
93 1 1 4.606197e-01 1.267005e+01 6.901458e+00 -1 -1 1 4.708241e-01 -6.196565e-01 -5.530309e-01 2.975018e-01
94 1 2 6.515168e-01 1.267536e+01 6.676661e+00 -1 -1 1 -4.779820e-03 6.300118e-02 -9.017548e-01 4.276053e-01
95 1 3 9.939456e-01 1.261581e+01 7.448119e+00 -1 -1 1 4.334615e-01 -3.472585e-01 4.077160e-01 -7.247691e-01
96 1 2 1.036190e+00 1.274117e+01 7.901762e+00 -1 -1 1 3.794332e-01 6.810613e-01 -5.789784e-01 2.386839e-01
97 1 2 2.468981e-01 1.310038e+01 7.997639e+00 -1 -1 1 -3.482810e-01 4.934550e-01 -1.874171e-01 -7.746466e-01
98 1 4 2.969606e-01 1.358509e+01 8.062144e+00 -1 -1 1 -1.108543e-01 2.898631e-01 -4.550062e-01 -8.346617e-01
99 1 2 -1.494254e-01 1.338751e+01 8.842412e+00 -1 -1 1 -1.621067e-01 -7.419119e-01 -6.295943e-01 -1.640096e-01
100 1 1 -9.255527e-01 1.336806e+01 8.816956e+00 -1 -1 1 5.440749e-02 3.788391e-02 3.238152e-01 -9.437946e-01
101 2 4 1.626455e+01 6.774004e+00 1.391135e+01 -1 -1 1 -3.678318e-01 2.634842e-01 7.137133e-01 5.346861e-01
102 2 3 1.602978e+01 7.612943e+00 1.391742e+01 -1 -1 1 -3.625197e-01 8.014088e-02 3.762738e-01 -8.488668e-01
103 2 1 1.539339e+01 6.910739e+00 1.344262e+01 -1 -1 1 3.725438e-02 7.760978e-01 6.104590e-01 -1.537014e-01
104 2 3 1.497236e+01 6.837225e+00 1.320442e+01 -1 -1 1 1.445678e-01 9.372090e-01 1.948483e-01 -2.505467e-01
105 2 3 1.488461e+01 6.618116e+00 1.275786e+01 -1 -1 1 -5.888173e-02 -9.304965e-01 -3.456835e-01 1.058877e-01
106 2 2 1.468693e+01 6.710627e+00 1.227479e+01 -1 -1 1 6.649702e-03 -9.981060e-01 5.532809e-02 2.605878e-02
107 2 3 1.477513e+01 6.971291e+00 1.183894e+01 -1 -1 1 5.784467e-02 9.223208e-01 -3.818608e-01 1.267201e-02
108 2 4 1.423979e+01 7.156004e+00 1.140599e+01 -1 -1 1 -9.690229e-01 -3.374081e-02 3.447595e-02 2.422139e-01
109 2 3 1.456237e+01 8.667339e+00 1.111241e+01 -1 -1 1 2.102716e-01 8.267981e-01 2.531622e-01 4.561794e-01
110 2 2 1.476820e+01 8.937896e+00 1.078147e+01 -1 -1 1 -8.615904e-02 -8.941420e-01 1.388359e-01 -4.169068e-01
111 2 2 1.423625e+01 9.844960e+00 1.039676e+01 -1 -1 1 -5.317196e-02 9.216458e-01 3.535843e-01 1.507314e-01
112 2 3 1.335257e+01 9.357708e+00 1.026926e+01 -1 -1 1 1.046027e-01 -1.241620e-01 5.719134e-01 8.040877e-01
113 2 3 1.309195e+01 8.719364e+00 1.068771e+01 -1 -1 1 -9.297473e-01 9.277287e-02 3.509855e-01 6.141843e-02
114 2 2 1.227515e+01 8.837564e+00 9.391803e+00 -1 -1 1 4.817410e-01 3.478274e-01 -3.454451e-01 -7.263673e-01
115 2 4 1.174741e+01 8.752818e+00 9.566856e+00 -1 -1 1 5.532180e-01 5.209143e-01 -2.386188e-01 -6.046975e-01
116 2 4 1.129606e+01 8.623421e+00 9.393217e+00 -1 -1 1 6.325353e-01 4.975525e-01 -3.910106e-01 -4.465997e-01
117 2 1 1.109586e+01 8.319442e+00 8.978592e+00 -1 -1 1 -5.623720e-01 -4.767657e-01 6.214120e-01 2.651023e-01
118 2 1 1.030334e+01 8.340606e+00 9.210685e+00 -1 -1 1 4.106148e-01 4.152082e-01 -5.603471e-01 -5.873745e-01
119 2 1 9.946905e+00 8.278952e+00 8.918047e+00 -1 -1 1 5.769482e-01 5.113845e-02 -7.620456e-01 -2.894860e-01
120 2 1 9.439343e+00 8.272668e+00 7.976145e+00 -1 -1 1 -3.291532e-01 -3.613252e-01 -8.170582e-01 3.058074e-01
121 2 3 9.268262e+00 7.874724e+00 7.663508e+00 -1 -1 1 7.717485e-01 5.153626e-01 3.261754e-01 -1.800425e-01
122 2 1 8.345588e+00 8.087117e+00 8.955591e+00 -1 -1 1 -3.046881e-01 4.814162e-01 7.984654e-01 -1.945679e-01
123 2 4 7.893321e+00 8.172223e+00 8.822025e+00 -1 -1 1 3.382915e-01 -7.432894e-01 -5.464532e-01 1.856572e-01
124 2 1 7.481055e+00 8.346308e+00 8.695414e+00 -1 -1 1 3.452189e-01 -8.637773e-01 -2.553926e-01 2.636045e-01
125 2 4 6.595379e+00 7.134883e+00 8.756186e+00 -1 -1 1 -2.304724e-01 -2.691840e-01 -9.173437e-01 1.813916e-01
126 2 2 6.445979e+00 6.842778e+00 8.375435e+00 -1 -1 1 3.898028e-01 7.513335e-01 5.302447e-01 4.891145e-02
127 2 4 6.314023e+00 6.820515e+00 7.855654e+00 -1 -1 1 -3.550178e-01 -9.279393e-01 -9.194480e-02 -6.661256e-02
128 2 4 5.191611e+00 7.192667e+00 7.830685e+00 -1 -1 1 -2.659319e-01 -8.266792e-01 -3.466038e-01 3.546090e-01
129 2 1 4.881052e+00 7.050337e+00 7.397606e+00 -1 -1 1 4.334817e-01 8.950156e-01 -1.412008e-02 -1.041214e-01
130 2 2 4.122272e+00 6.205624e+00 7.114371e+00 -1 -1 1 6.391750e-01 2.557928e-01 -6.689858e-01 -2.801488e-01
131 2 3 4.115968e+00 7.931984e+00 7.082080e+00 -1 -1 1 -4.959337e-01 2.439737e-01 -1.228622e-02 -8.332920e-01
132 2 4 3.968992e+00 8.147954e+00 7.570493e+00 -1 -1 1 3.156796e-01 -3.323934e-01 2.122380e-01 8.630273e-01
133 2 4 3.992090e+00 8.649161e+00 7.758738e+00 -1 -1 1 -9.819618e-02 2.284651e-01 -3.814447e-01 -8.903152e-01
134 2 3 3.804887e+00 9.169139e+00 7.866501e+00 -1 -1 1 -2.326708e-01 -1.752011e-01 3.891474e-01 8.739183e-01
135 2 4 3.466597e+00 9.521316e+00 7.940953e+00 -1 -1 1 4.634174e-01 1.151050e-01 -4.545786e-01 -7.518999e-01
136 2 3 2.960764e+00 9.747980e+00 8.036353e+00 -1 -1 1 -6.808668e-01 3.839687e-02 4.745791e-01 5.565256e-01
137 2 1 2.411370e+00 9.860057e+00 8.294454e+00 -1 -1 1 -8.493086e-01 1.414127e-01 3.479820e-01 3.709258e-01
138 2 3 2.016643e+00 9.877669e+00 8.572323e+00 -1 -1 1 -9.318985e-01 2.096481e-01 2.832239e-01 8.600640e-02
139 2 2 1.811637e+00 9.862233e+00 9.036594e+00 -1 -1 1 -9.700555e-01 1.121840e-01 1.172649e-01 -1.807098e-01
140 2 3 1.811364e+00 9.772222e+00 9.587310e+00 -1 -1 1 -9.028350e-01 1.222811e-01 -8.358156e-03 -4.121486e-01
141 2 1 1.970458e+00 9.876695e+00 1.006115e+01 -1 -1 1 8.030881e-01 -9.771868e-02 1.784333e-01 5.600554e-01
142 2 2 2.213551e+00 1.005974e+01 1.047099e+01 -1 -1 1 5.923748e-01 -1.486880e-01 2.698762e-01 7.444131e-01
143 2 4 2.496473e+00 1.039701e+01 1.068564e+01 -1 -1 1 2.773545e-01 -4.349107e-02 2.757728e-01 9.193108e-01
144 2 4 2.492090e+00 1.084707e+01 1.103692e+01 -1 -1 1 3.993853e-02 -1.022009e-01 3.297454e-01 9.376715e-01
145 2 1 2.363317e+00 1.130807e+01 1.119730e+01 -1 -1 1 2.623299e-01 3.613013e-02 -4.021987e-01 -8.764210e-01
146 2 1 2.055960e+00 1.173410e+01 1.132890e+01 -1 -1 1 5.020372e-01 -4.112558e-02 -3.463941e-01 -7.913776e-01
147 2 1 1.702818e+00 1.203477e+01 1.143499e+01 -1 -1 1 7.291823e-01 -2.025779e-01 -2.781633e-01 -5.915070e-01
148 2 2 1.566585e+00 1.241876e+01 1.193308e+01 -1 -1 1 7.918196e-01 -1.302387e-01 -1.546985e-01 -5.763055e-01
149 2 4 1.298549e+00 1.239325e+01 1.237070e+01 -1 -1 1 -9.284515e-01 1.504852e-01 9.992388e-02 3.245724e-01
150 2 1 1.126598e+00 1.217420e+01 1.274847e+01 -1 -1 1 -9.591848e-01 2.604746e-01 7.910667e-02 -7.654874e-02
151 2 1 1.276283e+00 1.200901e+01 1.326582e+01 -1 -1 1 -9.182804e-01 8.111543e-02 6.608349e-03 -3.874761e-01
152 2 1 1.504718e+00 1.192481e+01 1.371358e+01 -1 -1 1 -7.769370e-01 -3.247313e-02 -1.026379e-01 -6.203062e-01
153 2 4 1.745235e+00 1.206206e+01 1.423164e+01 -1 -1 1 -5.967869e-01 9.304388e-02 -1.706661e-01 -7.784994e-01
154 2 1 2.005054e+00 1.235262e+01 1.453764e+01 -1 -1 1 -2.594993e-01 6.853987e-03 -1.924116e-01 -9.463566e-01
155 2 2 2.111890e+00 1.276463e+01 1.488914e+01 -1 -1 1 -3.670019e-02 3.568160e-02 -1.845877e-01 -9.814822e-01
156 2 4 1.942364e+00 1.321537e+01 1.509478e+01 -1 -1 1 2.969844e-01 2.388665e-03 -3.135796e-01 -9.019215e-01
157 2 3 1.673488e+00 1.359298e+01 1.542512e+01 -1 -1 1 4.884835e-01 3.768801e-02 -2.595789e-01 -8.322153e-01
158 2 2 1.241535e+00 1.378375e+01 1.565099e+01 -1 -1 1 7.441861e-01 -6.939367e-02 -1.847525e-01 -6.381521e-01
159 2 1 9.263888e-01 1.383076e+01 1.604143e+01 -1 -1 1 8.898790e-01 -4.415989e-02 -1.609696e-01 -4.245634e-01
160 2 3 6.235344e-01 1.363526e+01 1.646913e+01 -1 -1 1 -9.794008e-01 3.223658e-02 1.494398e-01 1.319191e-01
161 2 1 4.490510e-01 1.343889e+01 1.682776e+01 -1 -1 1 -9.816913e-01 4.489170e-02 1.161887e-01 -1.441076e-01
162 2 1 5.725824e-01 1.324078e+01 1.733586e+01 -1 -1 1 -8.953136e-01 9.653841e-02 7.331205e-02 -4.286248e-01
163 2 4 7.937726e-01 1.329308e+01 1.785314e+01 -1 -1 1 -6.353752e-01 1.838556e-01 -8.558372e-04 -7.499965e-01
164 2 4 1.035791e+00 1.357959e+01 1.832383e+01 -1 -1 1 -5.004905e-01 1.523429e-01 -1.175635e-01 -8.440851e-01
165 2 3 1.173359e+00 1.386285e+01 1.870184e+01 -1 -1 1 -2.906105e-01 1.167219e-01 -3.125373e-01 -8.967954e-01
166 2 3 1.199890e+00 1.436800e+01 1.893480e+01 -1 -1 1 5.960625e-02 7.973694e-02 -4.051412e-01 -9.088178e-01
167 2 4 9.750786e-01 1.485276e+01 1.908261e+01 -1 -1 1 4.143077e-01 3.340424e-02 -2.824173e-01 -8.645657e-01
168 2 2 6.391792e-01 1.515996e+01 1.942032e+01 -1 -1 1 6.163024e-01 1.864665e-02 -2.101077e-01 -7.587347e-01
169 2 2 1.575218e-01 1.517753e+01 1.959786e+01 -1 -1 1 8.237531e-01 -7.664640e-02 -3.128400e-01 -4.665697e-01
170 2 1 -2.295647e-01 1.515125e+01 2.000869e+01 -1 -1 1 9.561111e-01 -1.173151e-01 -2.044688e-01 -1.740149e-01
171 2 1 -4.323436e-01 1.503377e+01 -1.951028e+01 -1 -1 2 -9.726218e-01 1.555215e-01 1.064213e-01 -1.359944e-01
172 2 4 -3.732675e-01 1.485542e+01 -1.904261e+01 -1 -1 2 -8.719043e-01 1.801187e-01 3.677283e-02 -4.538588e-01
173 2 4 -2.193917e-01 1.494093e+01 -1.855101e+01 -1 -1 2 -6.635872e-01 1.904906e-01 -7.734650e-02 -7.192933e-01
174 2 1 -1.677229e-01 1.525195e+01 -1.814116e+01 -1 -1 2 -4.343582e-01 3.258392e-01 -1.266713e-01 -8.301302e-01
175 2 1 -1.776730e-01 1.575429e+01 -1.797333e+01 -1 -1 2 -5.570871e-02 2.043381e-01 -2.599357e-01 -9.421125e-01
176 2 2 -3.907478e-01 1.617300e+01 -1.757519e+01 -1 -1 2 8.347668e-02 4.035364e-01 -2.730381e-01 -8.692757e-01
177 2 2 -6.839672e-01 1.656530e+01 -1.758011e+01 -1 -1 2 2.762316e-01 3.349777e-01 -4.614721e-01 -7.736469e-01
178 2 1 -1.023792e+00 1.687348e+01 -1.771459e+01 -1 -1 2 4.802898e-01 2.088509e-01 -5.995463e-01 -6.051837e-01
179 2 4 -1.505177e+00 1.694247e+01 -1.779379e+01 -1 -1 2 6.753048e-01 -2.140364e-02 -5.778698e-01 -4.577901e-01
180 2 1 -2.057985e+00 1.707772e+01 -1.760296e+01 -1 -1 2 8.286416e-01 -5.696455e-02 -4.691848e-01 -2.999561e-01
181 2 4 -2.492215e+00 1.696628e+01 -1.725775e+01 -1 -1 2 -9.045195e-01 2.150434e-01 3.681791e-01 -6.700446e-03
182 2 2 -2.751765e+00 1.697988e+01 -1.685933e+01 -1 -1 2 -9.038799e-01 2.654441e-01 1.864656e-01 -2.788747e-01
183 2 3 -2.791060e+00 1.702985e+01 -1.632211e+01 -1 -1 2 -7.540764e-01 3.648113e-01 3.250663e-02 -5.451833e-01
184 2 4 -2.741689e+00 1.739979e+01 -1.586501e+01 -1 -1 2 -5.548337e-01 4.285594e-01 -8.258361e-02 -7.082911e-01
185 2 3 -2.795501e+00 1.783530e+01 -1.554115e+01 -1 -1 2 3.330561e-01 -4.434655e-01 2.382968e-01 7.972620e-01
186 2 1 -2.951836e+00 1.840962e+01 -1.545477e+01 -1 -1 2 1.057830e-01 -4.501777e-01 3.135396e-01 8.293630e-01
187 2 1 -3.178107e+00 1.886343e+01 -1.546856e+01 -1 -1 2 8.168131e-02 3.951293e-01 -4.818359e-01 -7.778401e-01
188 2 2 -3.531921e+00 1.920188e+01 -1.559095e+01 -1 -1 2 4.801526e-01 2.474459e-01 -5.348764e-01 -6.497163e-01
189 2 4 -4.058960e+00 1.929856e+01 -1.555817e+01 -1 -1 2 -7.094871e-01 -1.361664e-01 5.056047e-01 4.716468e-01
190 2 4 -4.576899e+00 1.931992e+01 -1.534146e+01 -1 -1 2 -8.497560e-01 -9.047613e-02 4.340052e-01 2.852512e-01
191 2 1 -5.026930e+00 1.913225e+01 -1.503565e+01 -1 -1 2 9.277436e-01 -1.006944e-01 -3.582733e-01 2.815481e-02
192 2 4 -5.297122e+00 1.893202e+01 -1.460674e+01 -1 -1 2 -8.959135e-01 1.734525e-01 2.484460e-01 -3.248504e-01
193 2 4 -5.416608e+00 1.881063e+01 -1.414368e+01 -1 -1 2 8.342695e-01 -2.038976e-01 -1.367516e-01 4.936793e-01
194 2 1 -5.412880e+00 1.881466e+01 -1.366472e+01 -1 -1 2 -6.557502e-01 2.773598e-01 6.498016e-02 -6.991715e-01
195 2 3 -5.325671e+00 1.909285e+01 -1.326332e+01 -1 -1 2 3.582657e-01 -2.058687e-01 8.468887e-02 9.066927e-01
196 2 4 -5.392430e+00 1.944678e+01 -1.288929e+01 -1 -1 2 1.011574e-01 -2.355223e-01 1.965071e-01 9.464044e-01
197 2 2 -5.503191e+00 1.980511e+01 -1.251922e+01 -1 -1 2 -4.789061e-02 2.675944e-01 -3.464843e-01 -8.978020e-01
198 2 4 -5.767806e+00 -1.962942e+01 -1.256206e+01 -1 0 2 -2.970048e-01 -1.513633e-01 3.417648e-01 8.786775e-01
199 2 3 -6.120886e+00 -1.932195e+01 -1.259838e+01 -1 0 2 -5.584205e-01 9.473925e-02 4.749212e-01 6.735287e-01
200 2 4 -6.346295e+00 -1.873145e+01 -1.305036e+01 -1 0 2 3.494615e-02 -1.536797e-01 -7.702099e-01 6.180114e-01
