ITEM: TIMESTEP
305000000
ITEM: NUMBER OF ATOMS
200
ITEM: BOX BOUNDS pp pp pp
-2.0000000000000000e+01 2.0000000000000000e+01
-2.0000000000000000e+01 2.0000000000000000e+01
-2.0000000000000000e+01 2.0000000000000000e+01
ITEM: ATOMS id mol type x y z ix iy iz c_quat[1] c_quat[2] c_quat[3] c_quat[4]
1 1 1 1.146423e+01 -1.269672e+01 1.819161e+01 -1 0 1 -7.865203e-01 -4.408758e-01 -4.155507e-01 -1.197160e-01
2 1 2 1.157980e+01 -1.381085e+01 1.895338e+01 -1 0 1 -1.692806e-01 -6.119399e-01 7.704564e-01 5.718940e-02
3 1 1 1.132136e+01 -1.367897e+01 1.934710e+01 -1 0 1 4.759717e-01 3.437463e-01 2.812327e-01 -7.590768e-01
4 1 3 1.101968e+01 -1.397687e+01 1.950554e+01 -1 0 1 5.157296e-01 5.321363e-01 1.081607e-01 -6.626879e-01
5 1 1 1.052484e+01 -1.425720e+01 1.946913e+01 -1 0 1 -7.793145e-01 -4.750638e-01 3.073427e-02 4.074784e-01
6 1 2 1.030441e+01 -1.472926e+01 1.942812e+01 -1 0 1 -8.997129e-01 -3.723932e-01 2.076772e-01 9.332851e-02
7 1 4 1.020699e+01 -1.528076e+01 1.952995e+01 -1 0 1 -8.788248e-01 -4.235493e-01 1.818804e-01 -1.232581e-01
8 1 1 1.023679e+01 -1.580213e+01 1.955813e+01 -1 0 1 -8.359703e-01 -2.780906e-01 2.769750e-01 -3.835414e-01
9 1 1 1.053355e+01 -1.619118e+01 1.967436e+01 -1 0 1 5.716776e-01 3.359770e-01 -4.089422e-01 6.269533e-01
10 1 4 1.090097e+01 -1.648280e+01 1.992393e+01 -1 0 1 -3.714144e-01 -2.535222e-01 4.336348e-01 -7.808577e-01
11 1 1 1.114739e+01 -1.679897e+01 -1.981516e+01 -1 0 2 -2.184078e-01 -1.331509e-01 4.748294e-01 -8.420843e-01
12 1 1 1.116635e+01 -1.696714e+01 -1.932345e+01 -1 0 2 -9.077050e-02 -5.828596e-02 -4.119542e-01 9.047968e-01
13 1 3 1.097395e+01 -1.718562e+01 -1.875268e+01 -1 0 2 2.096181e-01 2.782107e-01 3.533853e-01 -8.682038e-01
14 1 4 1.066552e+01 -1.731983e+01 -1.841984e+01 -1 0 2 -4.361447e-01 -4.408155e-01 -2.201942e-01 7.529768e-01
15 1 4 1.022961e+01 -1.752046e+01 -1.820535e+01 -1 0 2 -6.834605e-01 -4.607451e-01 -1.324141e-01 5.505108e-01
16 1 2 9.879515e+00 -1.790386e+01 -1.819623e+01 -1 0 2 7.642336e-01 5.564728e-01 -4.021255e-02 -3.235242e-01
17 1 1 9.578915e+00 -1.836019e+01 -1.833269e+01 -1 0 2 7.761729e-01 6.046997e-01 -1.530801e-01 -9.198026e-02
18 1 2 9.418786e+00 -1.887020e+01 -1.851175e+01 -1 0 2 -7.322504e-01 -5.923787e-01 2.960005e-01 -1.589983e-01
19 1 3 9.618168e+00 -1.927811e+01 -1.865167e+01 -1 0 2 -5.987166e-01 -5.529219e-01 4.609549e-01 -3.511929e-01
20 1 1 9.855259e+00 -1.977514e+01 -1.858757e+01 -1 0 2 -4.643950e-01 -5.075479e-01 5.011923e-01 -5.249178e-01
21 1 4 1.013498e+01 1.978458e+01 -1.847059e+01 -1 -1 2 3.089553e-01 2.262737e-01 -6.200801e-01 6.847244e-01
22 1 1 1.022973e+01 1.932035e+01 -1.812335e+01 -1 -1 2 2.160867e-01 1.912196e-02 -6.137057e-01 7.591483e-01
23 1 4 1.008808e+01 1.892203e+01 -1.774592e+01 -1 -1 2 -3.233396e-02 -2.723586e-01 -6.102196e-01 7.432411e-01
24 1 3 9.661762e+00 1.858015e+01 -1.760537e+01 -1 -1 2 -2.294264e-01 -5.400413e-01 -4.558313e-01 6.692808e-01
25 1 3 9.248553e+00 1.823137e+01 -1.762843e+01 -1 -1 2 -2.292237e-01 -7.090042e-01 -3.496705e-01 5.678910e-01
26 1 4 8.742197e+00 1.808735e+01 -1.781134e+01 -1 -1 2 -5.512086e-01 -7.216590e-01 -1.007306e-01 4.064858e-01
27 1 4 8.409899e+00 1.786633e+01 -1.816878e+01 -1 -1 2 -4.615465e-01 -8.563978e-01 1.451612e-01 1.802385e-01
28 1 1 8.261196e+00 1.761663e+01 -1.860581e+01 -1 -1 2 -4.815649e-01 -8.205214e-01 3.075962e-01 -1.498043e-02
29 1 1 8.348249e+00 1.720058e+01 -1.895526e+01 -1 -1 2 -5.036854e-01 -5.962153e-01 5.911876e-01 -2.032868e-01
30 1 4 8.413054e+00 1.672972e+01 -1.915644e+01 -1 -1 2 4.774740e-01 4.276618e-01 -6.861753e-01 3.439294e-01
31 1 4 8.477266e+00 1.618755e+01 -1.917514e+01 -1 -1 2 4.409011e-01 1.305836e-01 -7.432728e-01 4.859009e-01
32 1 3 8.419565e+00 1.574043e+01 -1.894672e+01 -1 -1 2 1.856491e-01 -1.487275e-01 -7.266675e-01 6.444912e-01
33 1 3 8.129494e+00 1.535995e+01 -1.873579e+01 -1 -1 2 1.795205e-01 -3.507764e-01 -6.133334e-01 6.845075e-01
34 1 1 7.874372e+00 1.519095e+01 -1.843683e+01 -1 -1 2 -7.384699e-02 -5.148763e-01 -3.798071e-01 7.649808e-01
35 1 2 7.370051e+00 1.504968e+01 -1.826503e+01 -1 -1 2 -1.483410e-01 -6.330146e-01 -1.859080e-01 7.366991e-01
36 1 2 6.863012e+00 1.502657e+01 -1.829830e+01 -1 -1 2 -3.781524e-01 -6.953869e-01 -6.985912e-03 6.110557e-01
37 1 1 6.359206e+00 1.483549e+01 -1.834951e+01 -1 -1 2 -3.629181e-01 -7.762630e-01 1.193585e-01 5.014577e-01
38 1 1 6.043037e+00 1.481365e+01 -1.877865e+01 -1 -1 2 -5.294714e-01 -6.794900e-01 3.719751e-01 3.458148e-01
39 1 4 5.709874e+00 1.463095e+01 -1.910734e+01 -1 -1 2 6.759124e-01 5.244188e-01 -4.811203e-01 -1.914435e-01
40 1 4 5.396918e+00 1.435231e+01 -1.938864e+01 -1 -1 2 6.175268e-01 5.463578e-01 -5.609384e-01 7.417544e-02
41 1 2 5.455791e+00 1.395504e+01 -1.960421e+01 -1 -1 2 4.964399e-01 3.267006e-01 -7.381045e-01 3.193992e-01
42 1 4 5.238101e+00 1.342976e+01 -1.972310e+01 -1 -1 2 -5.374458e-01 -2.472229e-01 7.036823e-01 -3.935277e-01
43 1 3 5.156424e+00 1.292189e+01 -1.964813e+01 -1 -1 2 3.828001e-01 -1.539397e-05 -7.366421e-01 5.575146e-01
44 1 2 5.004088e+00 1.255513e+01 -1.928973e+01 -1 -1 2 2.231700e-01 -2.193889e-01 -6.547421e-01 6.880236e-01
45 1 1 4.530839e+00 1.216819e+01 -1.899974e+01 -1 -1 2 1.556776e-01 -3.875429e-01 -6.129393e-01 6.707312e-01
46 1 3 4.057608e+00 1.201210e+01 -1.880039e+01 -1 -1 2 -2.442391e-02 -5.790076e-01 -4.221132e-01 6.971185e-01
47 1 4 3.547346e+00 1.218094e+01 -1.879887e+01 -1 -1 2 -1.160318e-01 -6.749854e-01 -8.034563e-02 7.242071e-01
48 1 1 3.067187e+00 1.240067e+01 -1.887619e+01 -1 -1 2 2.844822e-01 6.740760e-01 -1.903715e-01 -6.545610e-01
49 1 4 2.508176e+00 1.238904e+01 -1.914847e+01 -1 -1 2 4.069560e-01 7.228741e-01 -2.886206e-01 -4.780565e-01
50 1 4 2.163831e+00 1.229643e+01 -1.958257e+01 -1 -1 2 5.612924e-01 5.897063e-01 -5.199581e-01 -2.585361e-01
51 1 4 1.809349e+00 1.193358e+01 -1.986939e+01 -1 -1 2 7.041259e-01 4.105976e-01 -5.789801e-01 -1.995869e-02
52 1 1 1.598044e+00 1.152196e+01 1.995045e+01 -1 -1 1 6.817865e-01 1.579910e-01 -6.940038e-01 1.690110e-01
53 1 3 1.284024e+00 1.108087e+01 1.993509e+01 -1 -1 1 -6.393508e-01 -1.724826e-01 6.622194e-01 -3.506363e-01
54 1 4 1.044611e+00 1.064944e+01 -1.984668e+01 -1 -1 2 -4.852124e-01 1.990040e-01 6.010830e-01 -6.030469e-01
55 1 4 8.234223e-01 1.052318e+01 -1.946489e+01 -1 -1 2 4.627064e-01 -2.312876e-01 -3.880645e-01 7.627678e-01
56 1 4 7.114345e-01 1.062030e+01 -1.898270e+01 -1 -1 2 1.401708e-01 -2.897798e-01 -2.542075e-01 9.120079e-01
57 1 1 4.019218e-01 1.074089e+01 -1.854280e+01 -1 -1 2 5.020377e-02 3.689941e-01 1.428510e-01 -9.170150e-01
58 1 1 5.335745e-02 1.088895e+01 -1.818649e+01 -1 -1 2 -2.703432e-01 -4.279948e-01 2.095954e-02 8.621460e-01
59 1 3 -5.084771e-01 1.100704e+01 -1.827088e+01 -1 -1 2 4.315421e-01 4.820059e-01 -2.537016e-01 -7.190808e-01
60 1 4 -9.150136e-01 1.109051e+01 -1.846993e+01 -1 -1 2 5.673393e-01 4.025134e-01 -4.791948e-01 -5.352396e-01
61 1 2 -1.375388e+00 1.102986e+01 -1.860128e+01 -1 -1 2 -6.387362e-01 -3.493767e-01 6.038380e-01 3.245485e-01
62 1 3 -1.868113e+00 1.084159e+01 -1.870973e+01 -1 -1 2 6.977952e-01 3.265946e-01 -6.281781e-01 -1.086743e-01
63 1 2 -2.205903e+00 1.041813e+01 -1.876250e+01 -1 -1 2 -7.399051e-01 7.897627e-03 6.703794e-01 -5.540365e-02
64 1 4 -2.631313e+00 1.015708e+01 -1.852720e+01 -1 -1 2 -6.983693e-01 2.819316e-01 5.986422e-01 -2.728049e-01
65 1 2 -3.041335e+00 1.010314e+01 -1.814275e+01 -1 -1 2 -5.852661e-01 5.362929e-01 4.348104e-01 -4.251982e-01
66 1 1 -3.433016e+00 1.017674e+01 -1.775403e+01 -1 -1 2 -4.091163e-01 6.328969e-01 3.163072e-01 -5.762076e-01
67 1 2 -3.827649e+00 1.051071e+01 -1.744477e+01 -1 -1 2 2.777119e-01 -6.606684e-01 -6.378955e-02 6.944957e-01
68 1 1 -4.217907e+00 1.081867e+01 -1.737799e+01 -1 -1 2 -1.459307e-01 -7.037213e-01 5.766788e-02 6.929321e-01
69 1 1 -4.668741e+00 1.103163e+01 -1.764483e+01 -1 -1 2 -3.585386e-01 -6.905681e-01 3.019819e-01 5.507928e-01
70 1 2 -5.097800e+00 1.094951e+01 -1.795928e+01 -1 -1 2 -4.793626e-01 -6.491281e-01 5.074636e-01 3.022000e-01
71 1 3 -5.710554e+00 1.148950e+01 -1.686471e+01 -1 -1 2 -1.223628e-01 9.244260e-01 3.401519e-02 3.595927e-01
72 1 4 -6.134873e+00 1.192594e+01 -1.787234e+01 -1 -1 2 8.465407e-02 -7.626015e-01 -2.616562e-01 5.854987e-01
73 1 1 -6.609724e+00 1.213075e+01 -1.798744e+01 -1 -1 2 1.709436e-01 7.932102e-01 -6.227317e-02 -5.811350e-01
74 1 1 -7.448412e+00 1.144538e+01 -1.790718e+01 -1 -1 2 -3.395848e-02 3.983824e-01 9.163638e-01 2.038799e-02
75 1 3 -7.750093e+00 1.111641e+01 -1.742670e+01 -1 -1 2 -5.432608e-01 -1.297281e-01 8.265170e-01 7.005705e-02
76 1 1 -8.398440e+00 1.157733e+01 -1.763774e+01 -1 -1 2 -3.324405e-01 -5.193296e-01 3.064803e-01 7.251551e-01
77 1 4 -8.526889e+00 1.202711e+01 -1.629225e+01 -1 -1 2 -4.610121e-02 -8.567503e-02 -4.267958e-01 8.990995e-01
78 1 1 -8.702041e+00 1.186832e+01 -1.576909e+01 -1 -1 2 7.986449e-02 -8.313377e-02 -2.318399e-01 9.658989e-01
79 1 4 -8.371393e+00 1.155270e+01 -1.539694e+01 -1 -1 2 -5.484514e-01 -5.181242e-02 -5.915566e-01 5.887082e-01
80 1 2 -8.306042e+00 1.199471e+01 -1.524858e+01 -1 -1 2 -2.773399e-01 -4.416909e-01 8.494035e-01 8.065589e-02
81 1 4 -8.444510e+00 1.304903e+01 -1.460603e+01 -1 -1 2 -4.896418e-01 3.538304e-02 -6.017924e-02 -8.691245e-01
82 1 4 -8.284637e+00 1.323622e+01 -1.414572e+01 -1 -1 2 -2.652376e-01 2.266228e-02 -2.357686e-01 -9.346382e-01
83 1 4 -8.278328e+00 1.244324e+01 -1.356306e+01 -1 -1 2 -9.229192e-01 -2.538052e-02 1.984760e-01 -3.289122e-01
84 1 4 -8.219513e+00 1.227809e+01 -1.314182e+01 -1 -1 2 7.121861e-01 -5.475787e-02 -6.923320e-02 6.964189e-01
85 1 1 -8.363982e+00 1.197148e+01 -1.211123e+01 -1 -1 2 7.104744e-02 -3.160691e-01 3.446468e-01 -8.810625e-01
86 1 1 -7.878094e+00 1.185850e+01 -1.261397e+01 -1 -1 2 -6.346541e-03 -5.944970e-01 -5.503445e-01 -5.862201e-01
87 1 3 -7.322422e+00 1.093780e+01 -1.301565e+01 -1 -1 2 -7.049430e-01 -5.084235e-01 -4.413516e-01 -2.230913e-01
88 1 2 -7.466631e+00 1.063495e+01 -1.169991e+01 -1 -1 2 -4.073639e-01 8.454980e-01 -3.254436e-01 1.152139e-01
89 1 2 -7.201484e+00 1.103646e+01 -1.160211e+01 -1 -1 2 -4.520677e-01 6.843098e-01 -5.502896e-01 -1.566405e-01
90 1 3 -6.792682e+00 1.129370e+01 -1.190098e+01 -1 -1 2 -2.222301e-01 4.820641e-01 -7.737796e-01 -3.456777e-01
91 1 3 -6.823691e+00 1.160375e+01 -1.081919e+01 -1 -1 2 -5.097303e-01 3.020198e-01 -5.857155e-01 5.530790e-01
92 1 2 -6.242636e+00 1.224883e+01 -1.003541e+01 -1 -1 2 7.768157e-01 -5.647675e-01 -2.565322e-01 1.085643e-01
93 1 1 -7.323623e+00 1.250467e+01 -1.022560e+01 -1 -1 2 -5.398071e-01 7.064588e-01 2.800213e-01 3.620943e-01
94 1 2 -7.327617e+00 1.296268e+01 -9.916203e+00 -1 -1 2 -7.072954e-01 6.939037e-01 -1.296294e-01 3.777696e-02
95 1 3 -8.008535e+00 1.294760e+01 -9.371264e+00 -1 -1 2 5.921686e-01 2.062808e-01 -7.708471e-01 -1.121576e-01
96 1 2 -8.285188e+00 1.435481e+01 -9.750422e+00 -1 -1 2 -4.114094e-02 -4.276300e-01 -6.888394e-01 -5.839010e-01
97 1 2 -8.278965e+00 1.484680e+01 -1.005335e+01 -1 -1 2 1.982083e-01 -4.872754e-01 -5.606947e-01 -6.394510e-01
98 1 4 -8.882989e+00 1.489503e+01 -1.067260e+01 -1 -1 2 -3.675115e-01 4.358423e-02 4.128074e-01 8.322414e-01
99 1 2 -8.850683e+00 1.502653e+01 -1.159754e+01 -1 -1 2 -6.108270e-01 -3.701045e-01 -5.647272e-01 -4.135169e-01
100 1 1 -8.687058e+00 1.483227e+01 -1.240092e+01 -1 -1 2 6.224065e-01 1.823204e-01 7.545883e-01 9.982957e-02
101 2 4 -9.758401e+00 1.099810e+01 1.435619e+01 -1 -1 1 1.491991e-01 1.360319e-01 9.438706e-01 -2.614254e-01
102 2 3 -9.438555e+00 1.180499e+01 1.489619e+01 -1 -1 1 4.882344e-01 -3.711530e-01 -4.868377e-02 -7.883544e-01
103 2 1 -8.703798e+00 1.194459e+01 1.472477e+01 -1 -1 1 4.636514e-01 -1.027122e-01 7.882733e-01 3.912835e-01
104 2 3 -8.303814e+00 1.201896e+01 1.439257e+01 -1 -1 1 -3.494341e-01 -1.779248e-01 -8.780781e-01 -2.742580e-01
105 2 3 -7.622290e+00 1.234706e+01 1.483002e+01 -1 -1 1 3.004854e-01 -2.945583e-01 6.427960e-01 6.401228e-01
106 2 2 -7.695457e+00 1.218755e+01 1.625413e+01 -1 -1 1 -5.664031e-01 2.644456e-01 -5.130403e-01 5.882565e-01
107 2 3 -7.385367e+00 1.195703e+01 1.658548e+01 -1 -1 1 -7.831711e-01 3.448891e-02 -5.196195e-01 3.397779e-01
108 2 4 -6.533008e+00 1.226793e+01 1.727115e+01 -1 -1 1 -1.857620e-01 -5.743806e-01 7.968965e-01 -2.313884e-02
109 2 3 -6.549895e+00 1.186020e+01 1.690356e+01 -1 -1 1 -2.376603e-01 -1.514039e-01 9.548651e-01 -9.395220e-02
110 2 2 -5.400608e+00 1.297978e+01 1.683357e+01 -1 -1 1 1.352520e-01 8.864219e-01 -1.732479e-01 4.073675e-01
111 2 2 -5.018447e+00 1.305685e+01 1.668059e+01 -1 -1 1 1.035318e-01 -6.777277e-01 6.647416e-01 -2.967910e-01
112 2 3 -4.626833e+00 1.365708e+01 1.589270e+01 -1 -1 1 8.755204e-01 1.028028e-01 -1.339198e-01 4.527263e-01
113 2 3 -5.726027e+00 1.292953e+01 1.501016e+01 -1 -1 1 -1.159017e-01 4.663501e-02 9.195983e-01 3.724660e-01
114 2 2 -4.202857e+00 1.299787e+01 1.529194e+01 -1 -1 1 -6.554507e-01 -6.886836e-01 1.143624e-02 -3.097880e-01
115 2 4 -3.943006e+00 1.252880e+01 1.532254e+01 -1 -1 1 6.044265e-01 6.759511e-01 8.728523e-02 4.124803e-01
116 2 4 -4.656916e+00 1.138525e+01 1.586436e+01 -1 -1 1 5.815816e-01 9.546271e-02 7.121320e-01 -3.814679e-01
117 2 1 -4.251517e+00 1.104241e+01 1.581485e+01 -1 -1 1 5.207758e-01 2.200784e-01 7.061022e-01 -4.263540e-01
118 2 1 -4.209064e+00 1.059635e+01 1.580254e+01 -1 -1 1 -6.330400e-01 -5.270439e-01 -5.183643e-01 2.297465e-01
119 2 1 -4.360861e+00 1.122574e+01 1.710990e+01 -1 -1 1 1.572409e-01 -8.123541e-01 -5.392735e-01 -1.566531e-01
120 2 1 -3.358799e+00 1.131356e+01 1.743586e+01 -1 -1 1 5.963868e-01 5.548289e-01 6.736694e-02 5.761505e-01
121 2 3 -3.168928e+00 1.026513e+01 1.705926e+01 -1 -1 1 6.928513e-01 5.826749e-01 3.860617e-01 -1.772100e-01
122 2 1 -3.210292e+00 9.446398e+00 1.702311e+01 -1 -1 1 9.098407e-01 2.339464e-01 3.080787e-01 1.501548e-01
123 2 4 -2.822720e+00 9.101256e+00 1.713895e+01 -1 -1 1 8.107696e-01 3.212047e-01 2.683056e-01 4.092583e-01
124 2 1 -2.272189e+00 9.203927e+00 1.728831e+01 -1 -1 1 5.503540e-01 2.451874e-01 2.301151e-01 7.642255e-01
125 2 4 -2.384110e+00 8.340950e+00 1.842956e+01 -1 -1 1 -7.319625e-01 1.998917e-01 1.123674e-01 6.415979e-01
126 2 2 -2.640644e+00 8.306124e+00 1.880996e+01 -1 -1 1 9.508465e-01 -1.292815e-01 -1.428422e-01 -2.424322e-01
127 2 4 -2.700570e+00 8.169669e+00 1.915105e+01 -1 -1 1 8.799326e-01 -2.531646e-01 -2.416581e-01 3.212907e-01
128 2 4 -3.594610e+00 8.686798e+00 1.941315e+01 -1 -1 1 7.009111e-01 -6.545118e-01 -2.827262e-01 -2.009437e-02
129 2 1 -3.493685e+00 9.292388e+00 1.910187e+01 -1 -1 1 -6.827057e-01 -8.872363e-02 -4.412361e-01 -5.756317e-01
130 2 2 -4.076655e+00 9.656836e+00 -1.993384e+01 -1 -1 2 6.321811e-01 -5.946410e-01 -1.122120e-01 4.838983e-01
131 2 3 -4.592471e+00 9.339226e+00 -1.890107e+01 -1 -1 2 1.668334e-02 8.072145e-02 -4.628997e-01 8.825699e-01
132 2 4 -4.674550e+00 1.018685e+01 -1.932566e+01 -1 -1 2 -1.102690e-01 7.627900e-01 6.340618e-01 -6.291102e-02
133 2 4 -4.144163e+00 1.059975e+01 -1.859895e+01 -1 -1 2 3.041203e-02 -6.779936e-01 -9.586453e-02 -7.281551e-01
134 2 3 -3.748039e+00 1.099670e+01 -1.852665e+01 -1 -1 2 1.979268e-01 -6.524705e-01 4.015757e-02 -7.304072e-01
135 2 4 -3.302667e+00 1.123871e+01 -1.830435e+01 -1 -1 2 3.691089e-01 -5.608233e-01 3.633550e-01 -6.459172e-01
136 2 3 -2.862159e+00 1.125490e+01 -1.801170e+01 -1 -1 2 5.111072e-01 -4.328697e-01 5.353312e-01 -5.146006e-01
137 2 1 -2.464722e+00 1.105876e+01 -1.773845e+01 -1 -1 2 6.219337e-01 -1.915421e-01 6.591137e-01 -3.769340e-01
138 2 3 -2.030525e+00 1.069437e+01 -1.756743e+01 -1 -1 2 -6.380491e-01 -3.149941e-03 -7.486933e-01 1.798383e-01
139 2 2 -1.668015e+00 1.030014e+01 -1.770041e+01 -1 -1 2 -6.120112e-01 -2.584456e-01 -7.413961e-01 -9.476295e-02
140 2 3 -1.313680e+00 9.965524e+00 -1.802453e+01 -1 -1 2 -5.302982e-01 -4.438294e-01 -6.814865e-01 -2.395317e-01
141 2 1 -8.835235e-01 9.859747e+00 -1.835473e+01 -1 -1 2 3.786387e-01 5.470355e-01 6.489692e-01 3.690853e-01
142 2 2 -6.464378e-01 9.946422e+00 -1.875045e+01 -1 -1 2 1.480003e-01 7.185267e-01 5.633265e-01 3.801033e-01
143 2 4 -5.284185e-01 1.026975e+01 -1.914515e+01 -1 -1 2 -9.156897e-02 8.089154e-01 3.897502e-01 4.305413e-01
144 2 4 -4.540193e-01 1.070688e+01 -1.937236e+01 -1 -1 2 -1.863201e-01 9.026416e-01 7.631617e-02 3.803930e-01
145 2 1 -1.832760e-01 1.117308e+01 -1.946890e+01 -1 -1 2 4.093494e-01 -8.303257e-01 2.065594e-01 -3.167419e-01
146 2 1 2.721616e-01 1.152403e+01 -1.955410e+01 -1 -1 2 4.714569e-01 -7.129255e-01 3.896236e-01 -3.430146e-01
147 2 1 6.473045e-01 1.168706e+01 -1.931120e+01 -1 -1 2 6.359354e-01 -4.733985e-01 5.826888e-01 -1.787564e-01
148 2 2 1.059636e+00 1.162667e+01 -1.905591e+01 -1 -1 2 7.395230e-01 -2.222167e-01 5.884168e-01 -2.397731e-01
149 2 4 1.521149e+00 1.137851e+01 -1.887322e+01 -1 -1 2 -7.275138e-01 -3.500927e-02 -6.695567e-01 -1.455744e-01
150 2 1 2.118093e+00 1.126069e+01 -1.892954e+01 -1 -1 2 -5.918074e-01 -1.349731e-01 -7.051391e-01 -3.665039e-01
151 2 1 2.490023e+00 1.120035e+01 -1.929915e+01 -1 -1 2 -4.562892e-01 -3.832863e-01 -6.589199e-01 -4.590385e-01
152 2 1 2.996267e+00 1.137635e+01 -1.945391e+01 -1 -1 2 -3.138675e-01 -4.249450e-01 -6.744879e-01 -5.157276e-01
153 2 4 3.294019e+00 1.166785e+01 -1.980598e+01 -1 -1 2 -4.541450e-02 -5.776877e-01 -4.874047e-01 -6.531853e-01
154 2 1 3.452241e+00 1.206953e+01 -2.001420e+01 -1 -1 2 1.413757e-01 -7.444834e-01 -2.079463e-01 -6.184786e-01
155 2 2 3.726324e+00 1.248404e+01 -1.980827e+01 -1 -1 2 4.029553e-01 -6.889833e-01 -8.105837e-02 -5.969578e-01
156 2 4 3.914129e+00 1.291308e+01 -1.958876e+01 -1 -1 2 6.436229e-01 -5.777288e-01 -1.419664e-02 -5.017743e-01
157 2 3 3.989117e+00 1.318169e+01 -1.926066e+01 -1 -1 2 7.888255e-01 -5.614249e-01 2.201625e-01 -1.186801e-01
158 2 2 4.326496e+00 1.352390e+01 -1.897142e+01 -1 -1 2 8.018844e-01 -4.657387e-01 3.575915e-01 -1.104405e-01
159 2 1 4.716837e+00 1.367405e+01 -1.864218e+01 -1 -1 2 7.806742e-01 -3.499629e-01 5.035754e-01 1.203564e-01
160 2 3 5.144308e+00 1.369804e+01 -1.841234e+01 -1 -1 2 -7.298367e-01 1.304751e-01 -6.195857e-01 -2.577365e-01
161 2 1 5.658526e+00 1.370789e+01 -1.844284e+01 -1 -1 2 -6.382320e-01 -1.692263e-01 -6.981150e-01 -2.768717e-01
162 2 1 6.085625e+00 1.367094e+01 -1.860674e+01 -1 -1 2 -4.744400e-01 -3.667348e-01 -6.906008e-01 -4.043301e-01
163 2 4 6.660805e+00 1.384934e+01 -1.875564e+01 -1 -1 2 -3.234146e-01 -3.603696e-01 -7.283527e-01 -4.848083e-01
164 2 4 7.008510e+00 1.402368e+01 -1.909781e+01 -1 -1 2 -8.733585e-02 -4.812229e-01 -6.692319e-01 -5.593976e-01
165 2 3 7.103041e+00 1.457816e+01 -1.938443e+01 -1 -1 2 1.347642e-01 -6.213209e-01 -4.210013e-01 -6.469596e-01
166 2 3 7.176457e+00 1.509609e+01 -1.946558e+01 -1 -1 2 3.863741e-01 -6.415161e-01 -3.297144e-01 -5.748570e-01
167 2 4 7.116128e+00 1.555951e+01 -1.940633e+01 -1 -1 2 6.523887e-01 -6.574946e-01 -1.045323e-01 -3.621642e-01
168 2 2 7.213594e+00 1.605925e+01 -1.920216e+01 -1 -1 2 7.871266e-01 -5.329586e-01 -3.384769e-02 -3.086118e-01
169 2 2 7.324072e+00 1.630730e+01 -1.871715e+01 -1 -1 2 8.607435e-01 -4.482418e-01 1.381555e-01 -1.977700e-01
170 2 1 7.731926e+00 1.641239e+01 -1.825771e+01 -1 -1 2 7.867996e-01 -4.327950e-01 4.362555e-01 5.758535e-02
171 2 1 8.233625e+00 1.647397e+01 -1.800679e+01 -1 -1 2 -7.086556e-01 2.428427e-01 -5.782640e-01 -3.231802e-01
172 2 4 8.742143e+00 1.666356e+01 -1.802107e+01 -1 -1 2 -5.811890e-01 6.201083e-02 -6.299481e-01 -5.114092e-01
173 2 4 9.149973e+00 1.702588e+01 -1.811390e+01 -1 -1 2 -3.864010e-01 -2.976087e-02 -7.112008e-01 -5.865168e-01
174 2 1 9.485180e+00 1.739104e+01 -1.837380e+01 -1 -1 2 -1.232811e-01 -1.332926e-01 -7.762151e-01 -6.037590e-01
175 2 1 9.521772e+00 1.778449e+01 -1.870124e+01 -1 -1 2 1.651421e-01 -3.402419e-01 -6.317086e-01 -6.766888e-01
176 2 2 9.371249e+00 1.832771e+01 -1.879699e+01 -1 -1 2 4.435031e-01 -5.322874e-01 -4.610392e-01 -5.544529e-01
177 2 2 9.226115e+00 1.887936e+01 -1.863896e+01 -1 -1 2 6.002116e-01 -5.418920e-01 -3.095437e-01 -5.002817e-01
178 2 1 9.062650e+00 1.927510e+01 -1.828512e+01 -1 -1 2 7.401127e-01 -6.254079e-01 -3.804388e-02 -2.442352e-01
179 2 4 9.143785e+00 1.964710e+01 -1.783232e+01 -1 -1 2 7.457571e-01 -6.402236e-01 1.823150e-01 -2.685605e-02
180 2 1 9.289213e+00 1.992403e+01 -1.751575e+01 -1 -1 2 6.348960e-01 -6.234646e-01 3.345451e-01 3.102879e-01
181 2 4 9.749138e+00 -1.966812e+01 -1.739750e+01 -1 0 2 -5.888410e-01 5.077995e-01 -5.332896e-01 -3.331788e-01
182 2 2 1.014555e+01 -1.923336e+01 -1.750669e+01 -1 0 2 -3.889772e-01 3.782511e-01 -6.967010e-01 -4.692872e-01
183 2 3 1.045066e+01 -1.896735e+01 -1.783325e+01 -1 0 2 -2.278098e-01 6.068329e-02 -8.060246e-01 -5.429038e-01
184 2 4 1.068439e+01 -1.874472e+01 -1.828594e+01 -1 0 2 -8.440138e-02 -1.445814e-01 -8.375159e-01 -5.201344e-01
185 2 3 1.077491e+01 -1.850099e+01 -1.865883e+01 -1 0 2 -8.142239e-02 3.253215e-01 7.910662e-01 5.116157e-01
186 2 1 1.055163e+01 -1.830380e+01 -1.904026e+01 -1 0 2 -1.679525e-01 6.088500e-01 6.618610e-01 4.037742e-01
187 2 1 1.041984e+01 -1.792701e+01 -1.940084e+01 -1 0 2 3.112072e-01 -6.843377e-01 -5.458948e-01 -3.699065e-01
188 2 2 1.016645e+01 -1.753605e+01 -1.955172e+01 -1 0 2 -5.020222e-01 7.437560e-01 3.869205e-01 2.123516e-01
189 2 4 1.002649e+01 -1.704810e+01 -1.953647e+01 -1 0 2 -5.773847e-01 8.102808e-01 5.498821e-02 8.395321e-02
190 2 4 1.005013e+01 -1.653793e+01 -1.932722e+01 -1 0 2 -5.614120e-01 7.741057e-01 -2.437888e-01 -1.616907e-01
191 2 1 1.023011e+01 -1.603442e+01 -1.925388e+01 -1 0 2 5.460392e-01 -6.964471e-01 4.397984e-01 1.529051e-01
192 2 4 1.054330e+01 -1.566211e+01 -1.926748e+01 -1 0 2 -4.360391e-01 5.060840e-01 -6.867167e-01 -2.866514e-01
193 2 4 1.097603e+01 -1.536943e+01 -1.952276e+01 -1 0 2 3.499137e-01 -3.402504e-01 8.145561e-01 3.135098e-01
194 2 1 1.123670e+01 -1.521993e+01 2.008020e+01 -1 0 1 -2.907805e-01 1.259508e-01 -9.004147e-01 -2.980546e-01
195 2 3 1.138523e+01 -1.521617e+01 1.958627e+01 -1 0 1 1.380275e-01 2.209331e-01 8.758462e-01 4.062393e-01
196 2 4 1.127070e+01 -1.511271e+01 1.907201e+01 -1 0 1 -3.394936e-02 4.784704e-01 8.052801e-01 3.484788e-01
197 2 2 1.114929e+01 -1.477244e+01 1.863488e+01 -1 0 1 2.015355e-01 -6.873636e-01 -5.999960e-01 -3.562577e-01
198 2 4 1.169366e+01 -1.425848e+01 1.809497e+01 -1 0 1 -6.651172e-01 -6.347393e-02 2.052094e-01 -7.151778e-01
199 2 3 1.149554e+01 -1.411522e+01 1.834375e+01 -1 0 1 2.538257e-01 -2.768074e-01 -2.579897e-01 -8.901637e-01
200 2 4 1.252376e+01 -1.478261e+01 1.797652e+01 -1 0 1 -1.164745e-01 9.614619e-01 -2.460331e-01 3.863189e-02
