ITEM: TIMESTEP
395000000
ITEM: NUMBER OF ATOMS
200
ITEM: BOX BOUNDS pp pp pp
-2.0000000000000000e+01 2.0000000000000000e+01
-2.0000000000000000e+01 2.0000000000000000e+01
-2.0000000000000000e+01 2.0000000000000000e+01
ITEM: ATOMS id mol type x y z ix iy iz c_quat[1] c_quat[2] c_quat[3] c_quat[4]
1 1 1 -6.794489e+00 1.047148e+01 -1.040882e+01 -1 -1 2 1.128946e-01 -1.961072e-02 9.930767e-01 2.586249e-02
2 1 2 -6.717226e+00 1.027899e+01 -1.087966e+01 -1 -1 2 7.291841e-02 3.085293e-01 9.483089e-01 -1.424272e-02
3 1 1 -6.850318e+00 1.009673e+01 -1.134304e+01 -1 -1 2 -9.186228e-02 -6.582927e-01 -7.464236e-01 -3.261606e-02
4 1 3 -7.144275e+00 1.021507e+01 -1.184464e+01 -1 -1 2 -6.277344e-02 -8.973268e-01 -4.266066e-01 -9.418558e-02
5 1 1 -7.070202e+00 1.053168e+01 -1.236655e+01 -1 -1 2 5.048004e-02 -9.703516e-01 -1.754191e-01 -1.584225e-01
6 1 2 -7.046239e+00 1.086427e+01 -1.272146e+01 -1 -1 2 2.456776e-01 -9.586397e-01 -3.828912e-02 -1.385153e-01
7 1 4 -6.916431e+00 1.135733e+01 -1.293241e+01 -1 -1 2 3.096878e-01 -8.982897e-01 3.116484e-01 -6.661924e-03
8 1 1 -6.502284e+00 1.167223e+01 -1.325071e+01 -1 -1 2 3.015835e-01 -7.757056e-01 5.534419e-01 -3.209873e-02
9 1 1 -6.014153e+00 1.184074e+01 -1.348836e+01 -1 -1 2 -3.293786e-01 5.518559e-01 -7.661352e-01 -1.289254e-03
10 1 4 -5.546195e+00 1.182858e+01 -1.378882e+01 -1 -1 2 2.598042e-01 -3.410845e-01 9.008233e-01 6.841469e-02
11 1 1 -5.269094e+00 1.156389e+01 -1.415902e+01 -1 -1 2 2.747073e-01 1.773819e-02 9.606515e-01 3.701260e-02
12 1 1 -5.143574e+00 1.136134e+01 -1.469620e+01 -1 -1 2 -1.113473e-01 -2.427369e-01 -9.613494e-01 -6.699121e-02
13 1 3 -5.301738e+00 1.125920e+01 -1.509115e+01 -1 -1 2 1.926039e-01 6.304967e-01 7.413570e-01 1.255686e-01
14 1 4 -5.224642e+00 1.140677e+01 -1.569741e+01 -1 -1 2 -3.202793e-02 -7.410378e-01 -6.206775e-01 -2.541585e-01
15 1 4 -5.119341e+00 1.166384e+01 -1.615716e+01 -1 -1 2 1.252577e-01 -8.357377e-01 -4.246237e-01 -3.248810e-01
16 1 2 -5.005466e+00 1.213854e+01 -1.644356e+01 -1 -1 2 -2.939003e-01 8.836248e-01 1.342705e-01 3.388235e-01
17 1 1 -4.755492e+00 1.261894e+01 -1.655088e+01 -1 -1 2 -4.014551e-01 8.520450e-01 -5.757609e-02 3.309654e-01
18 1 2 -4.381930e+00 1.301999e+01 -1.635997e+01 -1 -1 2 5.079784e-01 -7.534907e-01 3.492274e-01 -2.285826e-01
19 1 3 -3.920491e+00 1.324607e+01 -1.618924e+01 -1 -1 2 5.535628e-01 -6.204587e-01 5.535533e-01 -4.666969e-02
20 1 1 -3.452670e+00 1.341274e+01 -1.619018e+01 -1 -1 2 5.599965e-01 -3.930616e-01 7.204920e-01 1.131272e-01
21 1 4 -2.966546e+00 1.345661e+01 -1.639425e+01 -1 -1 2 -4.654926e-01 2.194730e-01 -8.445792e-01 -1.477637e-01
22 1 1 -2.471139e+00 1.342618e+01 -1.681306e+01 -1 -1 2 -2.853428e-01 -1.830514e-02 -9.134105e-01 -2.896993e-01
23 1 4 -2.296306e+00 1.335172e+01 -1.727194e+01 -1 -1 2 -1.188120e-01 -4.013649e-01 -8.553477e-01 -3.052381e-01
24 1 3 -2.377010e+00 1.349794e+01 -1.781594e+01 -1 -1 2 1.156953e-02 -6.027627e-01 -7.321114e-01 -3.171060e-01
25 1 3 -2.487926e+00 1.383528e+01 -1.827041e+01 -1 -1 2 1.557124e-01 -6.942560e-01 -6.003652e-01 -3.651355e-01
26 1 4 -2.672945e+00 1.425877e+01 -1.848566e+01 -1 -1 2 3.146143e-01 -8.847805e-01 -2.551538e-01 -2.303863e-01
27 1 4 -2.621460e+00 1.479026e+01 -1.865541e+01 -1 -1 2 4.086588e-01 -9.030210e-01 3.464535e-02 -1.278705e-01
28 1 1 -2.437092e+00 1.528931e+01 -1.879564e+01 -1 -1 2 4.704157e-01 -8.470843e-01 2.058462e-01 -1.370566e-01
29 1 1 -2.085879e+00 1.567603e+01 -1.871424e+01 -1 -1 2 5.242585e-01 -6.771432e-01 5.145184e-01 4.360008e-02
30 1 4 -1.570599e+00 1.592360e+01 -1.895872e+01 -1 -1 2 -4.389492e-01 5.842840e-01 -6.798189e-01 -6.149885e-02
31 1 4 -1.123418e+00 1.611880e+01 -1.922361e+01 -1 -1 2 -2.975378e-01 3.858796e-01 -8.561584e-01 -1.719335e-01
32 1 3 -7.913517e-01 1.626947e+01 -1.964192e+01 -1 -1 2 -2.256470e-01 1.955517e-01 -9.470762e-01 -1.178539e-01
33 1 3 -5.501120e-01 1.606814e+01 1.982677e+01 -1 -1 1 -1.273729e-01 -5.659228e-02 -9.901945e-01 -9.394429e-03
34 1 1 -6.131661e-01 1.580328e+01 1.943435e+01 -1 -1 1 -7.663012e-02 -4.107114e-01 -9.085333e-01 -3.359308e-03
35 1 2 -8.375483e-01 1.563233e+01 1.900883e+01 -1 -1 1 2.467522e-02 -5.960631e-01 -8.009526e-01 5.074278e-02
36 1 2 -1.069334e+00 1.568618e+01 1.853663e+01 -1 -1 1 1.456483e-01 -8.094299e-01 -5.688320e-01 6.313559e-03
37 1 1 -1.253358e+00 1.593734e+01 1.810926e+01 -1 -1 1 4.539004e-02 -9.769619e-01 -2.028012e-01 -4.854713e-02
38 1 1 -1.263113e+00 1.623310e+01 1.763178e+01 -1 -1 1 1.253546e-01 -9.865860e-01 4.312537e-02 -9.526017e-02
39 1 4 -1.150475e+00 1.667108e+01 1.742897e+01 -1 -1 1 -2.017992e-01 9.252490e-01 -3.199221e-01 2.900504e-02
40 1 4 -8.000397e-01 1.696426e+01 1.709983e+01 -1 -1 1 -2.337700e-01 7.387589e-01 -6.318287e-01 1.948072e-02
41 1 2 -3.715972e-01 1.698031e+01 1.680989e+01 -1 -1 1 -2.109604e-01 5.279759e-01 -8.196855e-01 6.966276e-02
42 1 4 -1.493675e-01 1.678488e+01 1.636778e+01 -1 -1 1 1.410371e-01 -2.488027e-01 9.525173e-01 -1.044826e-01
43 1 3 -2.595354e-02 1.648869e+01 1.599777e+01 -1 -1 1 -1.577183e-01 -8.651197e-02 -9.831953e-01 3.110763e-02
44 1 2 -7.117137e-02 1.614353e+01 1.554549e+01 -1 -1 1 -1.438391e-01 -3.724052e-01 -9.166168e-01 -2.093613e-02
45 1 1 -3.443574e-01 1.602035e+01 1.505461e+01 -1 -1 1 -2.664076e-02 -6.022717e-01 -7.971967e-01 -3.219444e-02
46 1 3 -5.317301e-01 1.602696e+01 1.459618e+01 -1 -1 1 6.078478e-02 -8.103318e-01 -5.787030e-01 -6.906804e-02
47 1 4 -7.538152e-01 1.626554e+01 1.423886e+01 -1 -1 1 1.279797e-01 -9.461269e-01 -2.970978e-01 1.407135e-02
48 1 1 -8.753650e-01 1.660133e+01 1.385552e+01 -1 -1 1 -1.572262e-01 9.852301e-01 6.529204e-02 1.839854e-02
49 1 4 -8.369083e-01 1.704933e+01 1.344249e+01 -1 -1 1 -5.573686e-02 9.734120e-01 -2.114724e-01 6.813227e-02
50 1 4 -5.296932e-01 1.738621e+01 1.309920e+01 -1 -1 1 -1.476279e-01 9.026536e-01 -4.036618e-01 2.190012e-02
51 1 4 -1.069459e-01 1.755905e+01 1.276860e+01 -1 -1 1 -1.765376e-01 7.258038e-01 -6.581197e-01 9.445470e-02
52 1 1 1.786211e-01 1.758375e+01 1.235723e+01 -1 -1 1 -1.609382e-01 5.445142e-01 -8.123881e-01 1.327735e-01
53 1 3 6.121704e-01 1.727753e+01 1.211656e+01 -1 -1 1 1.852835e-01 -2.256145e-01 9.563281e-01 -1.430631e-02
54 1 4 8.067153e-01 1.704168e+01 1.165593e+01 -1 -1 1 8.442331e-02 -9.008664e-02 9.869390e-01 -1.034816e-01
55 1 4 8.539529e-01 1.668745e+01 1.129812e+01 -1 -1 1 -1.558148e-01 -2.839474e-01 -9.460448e-01 9.744243e-03
56 1 4 7.204226e-01 1.640785e+01 1.090908e+01 -1 -1 1 -1.538219e-01 -6.043396e-01 -7.804208e-01 4.534231e-02
57 1 1 6.437432e-01 1.630177e+01 1.037900e+01 -1 -1 1 1.194266e-01 7.757765e-01 6.170604e-01 5.607690e-02
58 1 1 3.751410e-01 1.643511e+01 9.992127e+00 -1 -1 1 -1.091249e-01 -9.460097e-01 -3.018999e-01 -4.487531e-02
59 1 3 6.406520e-01 1.662049e+01 9.425045e+00 -1 -1 1 1.775272e-01 9.262101e-01 7.802789e-02 3.233119e-01
60 1 4 8.551763e-01 1.685801e+01 9.061104e+00 -1 -1 1 1.658401e-02 9.234865e-01 -2.244093e-01 3.107058e-01
61 1 2 1.311173e+00 1.702902e+01 8.766176e+00 -1 -1 1 8.023414e-02 -8.222738e-01 4.174698e-01 -3.783480e-01
62 1 3 1.801671e+00 1.715038e+01 8.704949e+00 -1 -1 1 -3.062782e-01 6.125457e-01 -6.361503e-01 3.553789e-01
63 1 2 2.371327e+00 1.697457e+01 8.597492e+00 -1 -1 1 2.644962e-01 -3.618425e-01 8.567172e-01 -2.552399e-01
64 1 4 2.735184e+00 1.665274e+01 8.244564e+00 -1 -1 1 2.040446e-01 -1.263680e-01 9.531233e-01 -1.842633e-01
65 1 2 2.760500e+00 1.617973e+01 8.082597e+00 -1 -1 1 3.024685e-01 2.737255e-01 9.018841e-01 -1.420994e-01
66 1 1 2.848950e+00 1.581221e+01 7.637541e+00 -1 -1 1 2.303194e-01 4.994021e-01 8.333547e-01 -5.541177e-02
67 1 2 2.688122e+00 1.562367e+01 7.213881e+00 -1 -1 1 -2.454908e-01 -7.638088e-01 -5.965322e-01 -2.190071e-02
68 1 1 2.656436e+00 1.557343e+01 6.720673e+00 -1 -1 1 1.011497e-01 8.701778e-01 4.518113e-01 1.685998e-01
69 1 1 2.601257e+00 1.573345e+01 6.268404e+00 -1 -1 1 5.961162e-02 9.738833e-01 1.270135e-01 1.785085e-01
70 1 2 2.824509e+00 1.595165e+01 5.833679e+00 -1 -1 1 5.166189e-02 -9.372449e-01 1.254616e-01 -3.211892e-01
71 1 3 1.622432e+00 1.574226e+01 4.998459e+00 -1 -1 1 8.210044e-02 -9.830412e-02 -9.606979e-01 -2.462833e-01
72 1 4 2.443967e+00 1.516195e+01 4.236350e+00 -1 -1 1 -3.550958e-02 3.260513e-01 -8.626071e-01 -3.851474e-01
73 1 1 2.601293e+00 1.525533e+01 3.822974e+00 -1 -1 1 2.790033e-02 -1.575426e-01 -8.525408e-01 -4.975701e-01
74 1 1 2.438077e+00 1.554506e+01 3.436553e+00 -1 -1 1 1.930413e-01 -5.713201e-01 -6.443968e-01 -4.701927e-01
75 1 3 3.374807e+00 1.530526e+01 3.193237e+00 -1 -1 1 1.078300e-01 -1.486977e-01 9.829411e-01 -9.408428e-03
76 1 1 4.413486e+00 1.614082e+01 3.031217e+00 -1 -1 1 -9.824907e-01 -2.116911e-03 1.649886e-02 -1.855674e-01
77 1 4 4.377702e+00 1.536842e+01 2.771998e+00 -1 -1 1 3.230409e-01 -2.343142e-01 9.165815e-01 -2.489539e-02
78 1 1 5.351083e+00 1.554554e+01 2.173663e+00 -1 -1 1 8.087095e-01 -3.258532e-01 4.352045e-01 2.245121e-01
79 1 4 5.642334e+00 1.624930e+01 2.354735e+00 -1 -1 1 -1.385930e-02 7.831766e-01 -5.379805e-01 3.114792e-01
80 1 2 6.052855e+00 1.618594e+01 2.102440e+00 -1 -1 1 2.120650e-01 -5.604020e-01 7.311492e-01 -3.261885e-01
81 1 4 6.099183e+00 1.730140e+01 2.628905e+00 -1 -1 1 -3.610147e-01 5.006539e-01 3.268974e-01 -7.156481e-01
82 1 4 6.501246e+00 1.736040e+01 2.586695e+00 -1 -1 1 2.586951e-01 -6.769640e-01 5.356553e-01 4.334396e-01
83 1 4 6.569793e+00 1.778439e+01 2.350754e+00 -1 -1 1 -6.719572e-02 4.738916e-01 -7.308903e-01 -4.865293e-01
84 1 4 6.558938e+00 1.795723e+01 1.912424e+00 -1 -1 1 -9.581119e-02 -1.148359e-01 8.548398e-01 4.968721e-01
85 1 1 6.429670e+00 1.829692e+01 1.516404e+00 -1 -1 1 2.507936e-01 1.145845e-01 -8.709698e-01 -4.066750e-01
86 1 1 6.096409e+00 1.826260e+01 1.217208e+00 -1 -1 1 -3.361490e-01 2.645171e-01 8.795239e-01 2.085000e-01
87 1 3 5.675327e+00 1.843606e+01 9.536133e-01 -1 -1 1 4.211206e-01 -5.822154e-01 -6.906108e-01 -8.209326e-02
88 1 2 5.207667e+00 1.871484e+01 8.155437e-01 -1 -1 1 -5.049287e-01 6.504065e-01 5.674352e-01 5.975669e-03
89 1 2 4.304828e+00 1.839412e+01 5.100384e-01 -1 -1 1 -5.344679e-01 4.136531e-01 1.971487e-01 7.101884e-01
90 1 3 4.175963e+00 1.856685e+01 9.918806e-01 -1 -1 1 7.978945e-01 -4.587780e-01 -5.037203e-02 -3.877495e-01
91 1 3 4.221774e+00 1.875372e+01 1.399744e+00 -1 -1 1 -8.851848e-01 4.336328e-01 -1.590926e-01 -5.567822e-02
92 1 2 4.337498e+00 1.889760e+01 1.837836e+00 -1 -1 1 -8.579508e-01 2.715828e-01 -3.215681e-01 -2.945459e-01
93 1 1 3.042371e+00 1.887759e+01 1.305198e+00 -1 -1 1 -7.351038e-01 -4.059907e-01 -2.202694e-01 4.962614e-01
94 1 2 3.315077e+00 -1.972194e+01 2.213302e+00 -1 0 1 3.221443e-02 -9.090300e-01 -9.622566e-02 -4.041871e-01
95 1 3 3.515942e+00 -1.933024e+01 2.109540e+00 -1 0 1 2.003633e-01 -9.135419e-01 2.874953e-01 -2.064999e-01
96 1 2 3.882879e+00 -1.908642e+01 1.932858e+00 -1 0 1 -3.094918e-01 7.232402e-01 -6.014379e-01 1.393230e-01
97 1 2 4.418909e+00 -1.899696e+01 1.911386e+00 -1 0 1 -3.430967e-01 4.221860e-01 -8.384550e-01 -3.219999e-02
98 1 4 4.695262e+00 -1.829216e+01 1.797490e+00 -1 0 1 3.314606e-02 -2.942424e-01 1.851764e-01 -9.370339e-01
99 1 2 4.924418e+00 -1.854149e+01 2.411712e+00 -1 0 1 -1.083357e-01 -2.035757e-01 1.016140e-01 -9.677267e-01
100 1 1 5.469491e+00 -1.910490e+01 2.418123e+00 -1 0 1 -2.675025e-01 -3.604418e-01 4.244823e-01 7.863453e-01
101 2 4 8.117404e+00 1.509991e+01 1.339406e+01 -1 -1 1 -2.391979e-02 8.861748e-01 2.030447e-01 4.158063e-01
102 2 3 8.376218e+00 1.552130e+01 1.331010e+01 -1 -1 1 -2.366565e-01 9.226976e-01 -2.356847e-01 1.925501e-01
103 2 1 7.915276e+00 1.608937e+01 1.260385e+01 -1 -1 1 -3.657269e-01 -4.277158e-01 -3.986463e-02 8.256596e-01
104 2 3 8.755395e+00 1.687886e+01 1.314006e+01 -1 -1 1 -3.621053e-01 -9.316221e-01 -2.907779e-02 -1.069526e-02
105 2 3 8.918846e+00 1.682125e+01 1.263890e+01 -1 -1 1 2.822303e-01 8.715529e-01 -3.718708e-01 1.498459e-01
106 2 2 9.170232e+00 1.715821e+01 1.171734e+01 -1 -1 1 1.489363e-01 -8.591057e-01 3.816165e-01 3.067968e-01
107 2 3 9.225821e+00 1.742452e+01 1.139948e+01 -1 -1 1 6.949321e-03 -6.048932e-01 7.387203e-01 2.972343e-01
108 2 4 9.305659e+00 1.749639e+01 1.086062e+01 -1 -1 1 -2.346251e-01 -2.226806e-01 8.880422e-01 3.267193e-01
109 2 3 9.439062e+00 1.794809e+01 1.056239e+01 -1 -1 1 4.766155e-01 -2.787697e-01 -4.603384e-01 -6.951357e-01
110 2 2 1.054149e+01 1.854761e+01 9.992543e+00 -1 -1 1 7.566536e-01 -2.188404e-01 -1.789288e-01 5.895495e-01
111 2 2 1.007540e+01 1.890466e+01 1.032468e+01 -1 -1 1 -7.575904e-01 6.055098e-02 5.987354e-01 -2.527970e-01
112 2 3 1.026820e+01 -1.989152e+01 9.566705e+00 -1 0 1 -1.490185e-01 -9.793767e-01 -4.676950e-02 -1.281691e-01
113 2 3 9.529554e+00 1.999143e+01 9.220099e+00 -1 -1 1 6.003456e-01 -2.787665e-01 -4.925838e-01 -5.650095e-01
114 2 2 9.161910e+00 2.022787e+01 9.356225e+00 -1 -1 1 -7.826790e-01 3.157417e-01 4.714269e-01 2.558855e-01
115 2 4 8.482648e+00 1.975419e+01 8.923013e+00 -1 -1 1 7.213984e-01 1.722224e-01 -5.415868e-01 -3.957367e-01
116 2 4 7.948147e+00 1.950051e+01 8.988553e+00 -1 -1 1 -8.390832e-01 1.277711e-01 5.248251e-01 6.459518e-02
117 2 1 8.278777e+00 1.898373e+01 7.837116e+00 -1 -1 1 7.940531e-01 3.552997e-01 2.800893e-01 -4.059455e-01
118 2 1 8.227268e+00 1.845320e+01 7.855383e+00 -1 -1 1 8.880746e-01 4.440727e-01 1.120436e-01 3.961232e-02
119 2 1 7.796960e+00 1.888836e+01 7.274023e+00 -1 -1 1 -3.939782e-01 -5.300702e-01 -3.235170e-01 -6.776013e-01
120 2 1 8.211762e+00 1.844127e+01 7.483686e+00 -1 -1 1 2.284450e-01 1.202441e-01 -6.400999e-01 7.236203e-01
121 2 3 7.728878e+00 1.775084e+01 6.340273e+00 -1 -1 1 -7.031934e-01 -5.375699e-01 -4.013785e-01 2.354419e-01
122 2 1 7.665355e+00 1.686710e+01 6.502783e+00 -1 -1 1 9.173251e-01 -1.786140e-01 -2.267234e-01 -2.742412e-01
123 2 4 7.555499e+00 1.675397e+01 6.891521e+00 -1 -1 1 -9.523541e-01 1.481435e-01 1.768258e-01 -1.995190e-01
124 2 1 6.797679e+00 1.674344e+01 7.772307e+00 -1 -1 1 3.974578e-01 -7.080861e-01 3.770809e-01 -4.454788e-01
125 2 4 6.208098e+00 1.635486e+01 7.807533e+00 -1 -1 1 -7.644755e-02 2.249711e-01 7.102886e-01 -6.625963e-01
126 2 2 5.771543e+00 1.645048e+01 6.970103e+00 -1 -1 1 6.465099e-01 4.395696e-01 6.234948e-01 7.597905e-03
127 2 4 6.110726e+00 1.608393e+01 6.793213e+00 -1 -1 1 -5.297765e-01 -6.040375e-01 -4.824602e-01 -3.488664e-01
128 2 4 5.227821e+00 1.601144e+01 6.873293e+00 -1 -1 1 -1.203552e-01 4.970670e-01 3.694729e-01 -7.758407e-01
129 2 1 4.711877e+00 1.605763e+01 7.005579e+00 -1 -1 1 -1.991810e-01 -6.836881e-01 -2.089838e-01 6.702412e-01
130 2 2 4.069955e+00 1.488909e+01 7.094071e+00 -1 -1 1 -3.381045e-01 8.507171e-02 -9.281142e-01 -1.305840e-01
131 2 3 3.874921e+00 1.581559e+01 6.401885e+00 -1 -1 1 -1.938940e-01 2.479145e-01 -1.426737e-01 -9.383964e-01
132 2 4 3.638303e+00 1.617152e+01 6.742274e+00 -1 -1 1 9.159716e-02 2.790845e-01 -2.089827e-01 -9.327637e-01
133 2 4 3.366946e+00 1.656614e+01 6.910581e+00 -1 -1 1 3.583968e-01 2.232610e-01 -3.345928e-01 -8.424690e-01
134 2 3 2.838741e+00 1.683084e+01 6.937487e+00 -1 -1 1 -6.326427e-01 -2.060598e-01 2.904862e-01 6.876921e-01
135 2 4 2.352442e+00 1.679694e+01 7.061653e+00 -1 -1 1 7.949959e-01 1.482845e-01 -3.727053e-01 -4.550649e-01
136 2 3 1.906567e+00 1.654693e+01 7.370440e+00 -1 -1 1 -9.449668e-01 -2.320769e-02 2.891292e-01 1.513393e-01
137 2 1 1.630894e+00 1.630451e+01 7.876788e+00 -1 -1 1 -9.830280e-01 4.936110e-02 1.575225e-01 -8.003753e-02
138 2 3 1.654603e+00 1.607225e+01 8.366166e+00 -1 -1 1 -8.778445e-01 8.151294e-02 1.181861e-01 -4.569209e-01
139 2 2 1.675426e+00 1.599423e+01 8.846138e+00 -1 -1 1 -7.150925e-01 8.598196e-02 5.518799e-02 -6.915230e-01
140 2 3 1.749248e+00 1.610266e+01 9.337077e+00 -1 -1 1 -4.915960e-01 2.304685e-01 -9.874209e-03 -8.397143e-01
141 2 1 1.726842e+00 1.645173e+01 9.743527e+00 -1 -1 1 2.264110e-01 -2.488904e-01 1.667253e-01 9.268195e-01
142 2 2 1.589006e+00 1.689824e+01 1.009575e+01 -1 -1 1 -2.115459e-02 -2.995618e-01 2.154019e-01 9.292025e-01
143 2 4 1.262975e+00 1.724647e+01 1.007841e+01 -1 -1 1 -4.594206e-01 -1.062391e-01 3.538797e-01 8.077222e-01
144 2 4 8.465894e-01 1.745870e+01 1.038108e+01 -1 -1 1 -5.682287e-01 -2.269492e-01 2.692016e-01 7.437343e-01
145 2 1 3.564907e-01 1.753185e+01 1.060528e+01 -1 -1 1 8.026383e-01 1.552159e-01 -2.787818e-01 -5.039450e-01
146 2 1 -9.216332e-03 1.744731e+01 1.099918e+01 -1 -1 1 8.635953e-01 1.911895e-01 -2.149647e-01 -4.140529e-01
147 2 1 -3.044588e-01 1.716313e+01 1.138616e+01 -1 -1 1 9.732490e-01 1.099140e-01 -1.527671e-01 -1.317860e-01
148 2 2 -3.815661e-01 1.679411e+01 1.174527e+01 -1 -1 1 9.768495e-01 6.859800e-02 -1.195262e-01 1.636241e-01
149 2 4 -2.571228e-01 1.651177e+01 1.215727e+01 -1 -1 1 -8.146579e-01 4.535239e-03 1.113310e-01 -5.691373e-01
150 2 1 2.040159e-02 1.638285e+01 1.261416e+01 -1 -1 1 -6.861167e-01 -8.904644e-02 -1.614906e-02 -7.218406e-01
151 2 1 2.517412e-01 1.656613e+01 1.299690e+01 -1 -1 1 -3.260770e-01 -6.824220e-02 5.072538e-02 -9.415114e-01
152 2 1 2.729335e-01 1.654254e+01 1.356371e+01 -1 -1 1 -1.987174e-01 6.046509e-02 -1.100203e-02 -9.781280e-01
153 2 4 3.089313e-01 1.677912e+01 1.397094e+01 -1 -1 1 8.205519e-02 6.454762e-02 3.763079e-02 -9.938232e-01
154 2 1 1.124230e-01 1.701821e+01 1.434065e+01 -1 -1 1 4.137705e-01 6.251134e-02 -2.089617e-02 -9.079921e-01
155 2 2 -1.893408e-01 1.716460e+01 1.471263e+01 -1 -1 1 6.178452e-01 1.170674e-01 -1.362534e-01 -7.655048e-01
156 2 4 -6.081372e-01 1.720602e+01 1.506485e+01 -1 -1 1 7.445272e-01 1.835283e-01 -1.402163e-01 -6.263673e-01
157 2 3 -9.850737e-01 1.701525e+01 1.542613e+01 -1 -1 1 8.952009e-01 1.594049e-01 -3.595244e-02 -4.146237e-01
158 2 2 -1.213339e+00 1.666593e+01 1.569395e+01 -1 -1 1 9.741384e-01 2.036595e-01 -8.391378e-02 -5.035570e-02
159 2 1 -1.191354e+00 1.621005e+01 1.610194e+01 -1 -1 1 9.510486e-01 1.610843e-01 -3.754722e-02 2.610528e-01
160 2 3 -8.508869e-01 1.589624e+01 1.648074e+01 -1 -1 1 -8.087630e-01 -1.331161e-01 3.136702e-02 -5.720128e-01
161 2 1 -4.277166e-01 1.585207e+01 1.686491e+01 -1 -1 1 -5.389195e-01 -6.750567e-02 6.127894e-02 -8.374089e-01
162 2 1 -1.635963e-01 1.594478e+01 1.735710e+01 -1 -1 1 -3.204433e-01 -5.897573e-03 2.985951e-02 -9.467786e-01
163 2 4 -1.249472e-01 1.612728e+01 1.787383e+01 -1 -1 1 -1.212346e-01 1.345715e-01 1.275144e-02 -9.833769e-01
164 2 4 -2.084373e-01 1.643435e+01 1.824642e+01 -1 -1 1 2.315446e-01 8.827847e-02 -9.917655e-02 -9.637209e-01
165 2 3 -4.918371e-01 1.671387e+01 1.860348e+01 -1 -1 1 5.272462e-01 8.489211e-02 -1.684092e-01 -8.285186e-01
166 2 3 -9.076809e-01 1.682615e+01 1.888832e+01 -1 -1 1 6.873017e-01 1.638797e-01 -2.427516e-01 -6.647040e-01
167 2 4 -1.362027e+00 1.669607e+01 1.917953e+01 -1 -1 1 8.923948e-01 1.535707e-01 -2.154822e-01 -3.655339e-01
168 2 2 -1.669559e+00 1.642373e+01 1.959381e+01 -1 -1 1 9.731344e-01 9.834257e-02 -7.453279e-02 -1.943784e-01
169 2 2 -1.756889e+00 1.599290e+01 1.975321e+01 -1 -1 1 9.240399e-01 1.855843e-01 -2.567536e-01 2.139775e-01
170 2 1 -1.778247e+00 1.548879e+01 -2.003383e+01 -1 -1 2 8.141485e-01 2.487423e-01 -2.689307e-01 4.505173e-01
171 2 1 -1.458784e+00 1.509562e+01 -1.976381e+01 -1 -1 2 -6.073776e-01 -1.849382e-01 3.453427e-01 -6.911069e-01
172 2 4 -1.463825e+00 1.483561e+01 -1.920969e+01 -1 -1 2 -5.317386e-01 -4.740535e-02 3.027025e-01 -7.895429e-01
173 2 4 -1.323559e+00 1.480865e+01 -1.872969e+01 -1 -1 2 -1.800251e-01 7.641193e-02 3.876175e-01 -9.008357e-01
174 2 1 -1.566680e+00 1.460269e+01 -1.829885e+01 -1 -1 2 -4.232087e-02 2.115691e-01 2.899407e-01 -9.324065e-01
175 2 1 -1.808969e+00 1.470565e+01 -1.777812e+01 -1 -1 2 2.470416e-01 2.899837e-01 2.043268e-01 -9.017375e-01
176 2 2 -2.261446e+00 1.458532e+01 -1.743105e+01 -1 -1 2 4.165890e-01 4.355381e-01 8.992580e-02 -7.928893e-01
177 2 2 -2.758809e+00 1.447693e+01 -1.728001e+01 -1 -1 2 6.530092e-01 4.622861e-01 -4.459022e-02 -5.982326e-01
178 2 1 -3.158579e+00 1.421101e+01 -1.736151e+01 -1 -1 2 7.832663e-01 4.795995e-01 -2.901630e-01 -2.688561e-01
179 2 4 -3.469154e+00 1.377742e+01 -1.733443e+01 -1 -1 2 8.402561e-01 4.501426e-01 -2.950959e-01 -6.526728e-02
180 2 1 -3.534012e+00 1.321889e+01 -1.738921e+01 -1 -1 2 8.155126e-01 2.553576e-01 -4.541695e-01 2.519162e-01
181 2 4 -3.590479e+00 1.276936e+01 -1.724674e+01 -1 -1 2 -7.246728e-01 -2.116442e-01 4.506172e-01 -4.764454e-01
182 2 2 -3.505180e+00 1.234456e+01 -1.686586e+01 -1 -1 2 -5.886415e-01 -2.767671e-02 4.198345e-01 -6.902711e-01
183 2 3 -3.617655e+00 1.213148e+01 -1.635585e+01 -1 -1 2 -3.798170e-01 2.288811e-01 4.365864e-01 -7.827802e-01
184 2 4 -3.923651e+00 1.211260e+01 -1.587473e+01 -1 -1 2 -2.081523e-01 3.850204e-01 2.515253e-01 -8.632305e-01
185 2 3 -4.225378e+00 1.232311e+01 -1.555856e+01 -1 -1 2 -1.141392e-01 -4.485758e-01 -9.201148e-02 8.816382e-01
186 2 1 -4.641104e+00 1.245620e+01 -1.538835e+01 -1 -1 2 -3.692482e-01 -4.550843e-01 9.371754e-02 8.048423e-01
187 2 1 -5.092395e+00 1.249708e+01 -1.522459e+01 -1 -1 2 5.414872e-01 4.225761e-01 -2.399976e-01 -6.860191e-01
188 2 2 -5.681237e+00 1.236827e+01 -1.519960e+01 -1 -1 2 7.653587e-01 3.415418e-01 -2.020658e-01 -5.066998e-01
189 2 4 -6.089175e+00 1.208419e+01 -1.491033e+01 -1 -1 2 -8.766312e-01 -3.390345e-01 2.015948e-01 2.755592e-01
190 2 4 -6.320563e+00 1.154977e+01 -1.469959e+01 -1 -1 2 -9.650116e-01 -1.443146e-01 2.128563e-01 -5.116818e-02
191 2 1 -6.372244e+00 1.113674e+01 -1.446153e+01 -1 -1 2 8.945871e-01 1.683113e-01 -2.186326e-01 3.515466e-01
192 2 4 -6.075254e+00 1.078485e+01 -1.409930e+01 -1 -1 2 -7.062051e-01 -3.821418e-02 3.409518e-01 -6.193269e-01
193 2 4 -6.026266e+00 1.057530e+01 -1.351824e+01 -1 -1 2 5.905278e-01 2.928552e-02 -1.583419e-01 7.907889e-01
194 2 1 -5.919160e+00 1.061264e+01 -1.302794e+01 -1 -1 2 -2.771111e-01 2.628748e-02 1.027105e-01 -9.549707e-01
195 2 3 -5.838944e+00 1.069831e+01 -1.250775e+01 -1 -1 2 6.845847e-02 -7.167065e-02 -1.213770e-01 9.876459e-01
196 2 4 -6.056302e+00 1.092980e+01 -1.198785e+01 -1 -1 2 -1.814876e-01 -1.822543e-01 4.730885e-03 9.663453e-01
197 2 2 -6.395239e+00 1.118242e+01 -1.167773e+01 -1 -1 2 3.631202e-01 2.087163e-01 -2.163469e-01 -8.819157e-01
198 2 4 -6.860895e+00 1.132488e+01 -1.158719e+01 -1 -1 2 -6.446722e-01 -1.133837e-01 3.190055e-01 6.854031e-01
199 2 3 -7.383863e+00 1.231302e+01 -1.101090e+01 -1 -1 2 -3.284365e-01 3.081021e-01 1.791145e-01 8.747117e-01
200 2 4 -7.045737e+00 1.182564e+01 -1.074006e+01 -1 -1 2 6.619927e-01 -4.488991e-01 5.430901e-01 2.555551e-01
