ITEM: TIMESTEP
345000000
ITEM: NUMBER OF ATOMS
200
ITEM: BOX BOUNDS pp pp pp
-2.0000000000000000e+01 2.0000000000000000e+01
-2.0000000000000000e+01 2.0000000000000000e+01
-2.0000000000000000e+01 2.0000000000000000e+01
ITEM: ATOMS id mol type x y z ix iy iz c_quat[1] c_quat[2] c_quat[3] c_quat[4]
1 1 1 -1.090850e+01 -1.692748e+01 -1.663757e+01 0 0 2 -4.952877e-01 -5.538535e-01 6.504409e-01 1.576802e-01
2 1 2 -1.114321e+01 -1.719988e+01 -1.698624e+01 0 0 2 -5.623941e-01 -2.242017e-01 7.914706e-01 -8.379021e-02
3 1 1 -1.144823e+01 -1.757096e+01 -1.707013e+01 0 0 2 4.850799e-01 -1.202274e-01 -8.011368e-01 3.292760e-01
4 1 3 -1.189730e+01 -1.792376e+01 -1.689658e+01 0 0 2 -3.449253e-01 3.642316e-01 7.346954e-01 -4.567105e-01
5 1 1 -1.233969e+01 -1.808321e+01 -1.667097e+01 0 0 2 1.563917e-01 -5.926647e-01 -5.684843e-01 5.487401e-01
6 1 2 -1.289338e+01 -1.807222e+01 -1.662484e+01 0 0 2 1.497850e-01 -7.017064e-01 -3.750278e-01 5.869641e-01
7 1 4 -1.337811e+01 -1.791413e+01 -1.662179e+01 0 0 2 -1.026732e-01 -8.072519e-01 -7.365990e-02 5.765213e-01
8 1 1 -1.380346e+01 -1.776008e+01 -1.709452e+01 0 0 2 -3.535155e-01 -8.112490e-01 1.821920e-01 4.286116e-01
9 1 1 -1.421212e+01 -1.785579e+01 -1.746448e+01 0 0 2 4.421635e-01 7.844320e-01 -3.539721e-01 -2.527085e-01
10 1 4 -1.442556e+01 -1.800338e+01 -1.792751e+01 0 0 2 -5.061642e-01 -6.564379e-01 5.380561e-01 1.529145e-01
11 1 1 -1.456567e+01 -1.833195e+01 -1.825835e+01 0 0 2 -5.188791e-01 -5.352734e-01 6.525424e-01 -1.357765e-01
12 1 1 -1.460414e+01 -1.887414e+01 -1.853684e+01 0 0 2 5.467821e-01 2.963490e-01 -7.406546e-01 2.542388e-01
13 1 3 -1.478074e+01 -1.937824e+01 -1.854682e+01 0 0 2 -4.611578e-01 -3.670359e-02 7.807092e-01 -4.200946e-01
14 1 4 -1.509912e+01 -1.981046e+01 -1.851049e+01 0 0 2 4.185561e-01 -1.685234e-01 -7.319518e-01 5.105460e-01
15 1 4 -1.547081e+01 -2.016584e+01 -1.834551e+01 0 0 2 3.404107e-01 -4.082272e-01 -6.259598e-01 5.706535e-01
16 1 2 -1.597449e+01 1.983122e+01 -1.809625e+01 0 -1 2 -1.722781e-01 6.210649e-01 4.157267e-01 -6.416931e-01
17 1 1 -1.650336e+01 1.989558e+01 -1.797712e+01 0 -1 2 -1.573358e-01 6.937439e-01 1.812038e-01 -6.790656e-01
18 1 2 -1.695885e+01 -1.973440e+01 -1.796277e+01 0 0 2 -7.258546e-02 -7.766259e-01 1.268095e-01 6.127829e-01
19 1 3 -1.733933e+01 -1.946933e+01 -1.826402e+01 0 0 2 -2.264394e-01 -7.190230e-01 4.031525e-01 5.188441e-01
20 1 1 -1.780558e+01 -1.938390e+01 -1.859574e+01 0 0 2 -3.028806e-01 -6.904523e-01 5.452434e-01 3.663996e-01
21 1 4 -1.804974e+01 -1.945743e+01 -1.900697e+01 0 0 2 4.622295e-01 5.302343e-01 -6.795934e-01 -2.082024e-01
22 1 1 -1.825900e+01 -1.970470e+01 -1.944203e+01 0 0 2 4.492578e-01 3.551151e-01 -8.195894e-01 -1.827389e-02
23 1 4 -1.868616e+01 -2.002018e+01 -1.971311e+01 0 0 2 5.963421e-01 1.280546e-01 -7.900983e-01 6.101427e-02
24 1 3 -1.911572e+01 1.961177e+01 -1.977456e+01 0 -1 2 5.375066e-01 -2.519029e-01 -7.807839e-01 1.949567e-01
25 1 3 -1.960031e+01 1.948106e+01 -1.976719e+01 0 -1 2 4.842331e-01 -4.730410e-01 -6.652707e-01 3.149055e-01
26 1 4 1.988552e+01 1.944735e+01 -1.968623e+01 -1 -1 2 4.201791e-01 -5.859648e-01 -5.277734e-01 4.489432e-01
27 1 4 1.936431e+01 1.964431e+01 -1.956564e+01 -1 -1 2 3.096991e-01 -7.421107e-01 -3.349942e-01 4.910571e-01
28 1 1 1.890060e+01 1.989713e+01 -1.957352e+01 -1 -1 2 1.856781e-01 -8.184037e-01 -3.692872e-02 5.425636e-01
29 1 1 1.863922e+01 -1.964027e+01 -1.962672e+01 -1 0 2 1.077218e-01 -7.764999e-01 2.638556e-01 5.619823e-01
30 1 4 1.841704e+01 -1.919788e+01 -1.991912e+01 -1 0 2 2.208326e-02 7.210220e-01 -5.072542e-01 -4.715218e-01
31 1 4 1.834543e+01 -1.894036e+01 1.966148e+01 -1 0 1 1.401178e-01 5.244884e-01 -7.554964e-01 -3.667480e-01
32 1 3 1.807401e+01 -1.881091e+01 1.924818e+01 -1 0 1 2.285927e-01 5.337537e-01 -7.667593e-01 -2.737381e-01
33 1 3 1.797107e+01 -1.890199e+01 1.881603e+01 -1 0 1 3.290301e-01 2.006895e-01 -9.008346e-01 -1.998999e-01
34 1 1 1.764731e+01 -1.894402e+01 1.842000e+01 -1 0 1 4.284331e-01 9.806058e-02 -8.982263e-01 -4.321079e-03
35 1 2 1.717441e+01 -1.920259e+01 1.816614e+01 -1 0 1 5.699809e-01 -9.162703e-02 -8.003019e-01 1.619976e-01
36 1 2 1.674094e+01 -1.941125e+01 1.822239e+01 -1 0 1 4.102521e-01 -4.176018e-01 -6.794526e-01 4.423190e-01
37 1 1 1.622487e+01 -1.960203e+01 1.831698e+01 -1 0 1 3.730360e-01 -5.135764e-01 -5.477356e-01 5.450406e-01
38 1 1 1.567283e+01 -1.963277e+01 1.842088e+01 -1 0 1 3.257353e-01 -6.363852e-01 -4.304592e-01 5.510130e-01
39 1 4 1.517376e+01 -1.942339e+01 1.851434e+01 -1 0 1 -1.708506e-01 7.688614e-01 2.093908e-01 -5.794978e-01
40 1 4 1.471640e+01 -1.921558e+01 1.842184e+01 -1 0 1 -7.487609e-02 8.275351e-01 -6.281877e-02 -5.528409e-01
41 1 2 1.434936e+01 -1.896392e+01 1.817508e+01 -1 0 1 7.359368e-03 8.524309e-01 -2.636923e-01 -4.514130e-01
42 1 4 1.409269e+01 -1.867970e+01 1.778648e+01 -1 0 1 -1.557718e-01 -7.754856e-01 4.862415e-01 3.713846e-01
43 1 3 1.397734e+01 -1.856415e+01 1.724629e+01 -1 0 1 2.432945e-01 6.060823e-01 -7.286889e-01 -2.061177e-01
44 1 2 1.391175e+01 -1.870662e+01 1.678045e+01 -1 0 1 2.508491e-01 4.487072e-01 -8.576518e-01 1.303886e-02
45 1 1 1.384841e+01 -1.912890e+01 1.643233e+01 -1 0 1 2.826261e-01 1.833293e-01 -9.334129e-01 1.235037e-01
46 1 3 1.359472e+01 -1.945215e+01 1.608138e+01 -1 0 1 3.297249e-01 -1.455655e-01 -9.168772e-01 1.715469e-01
47 1 4 1.327119e+01 -1.979225e+01 1.597759e+01 -1 0 1 2.666011e-01 -3.708140e-01 -8.219095e-01 3.404197e-01
48 1 1 1.274942e+01 1.997959e+01 1.605383e+01 -1 -1 1 -1.257365e-01 6.144942e-01 5.923439e-01 -5.056837e-01
49 1 4 1.225149e+01 1.995012e+01 1.594708e+01 -1 -1 1 -1.111320e-01 7.600136e-01 3.515076e-01 -5.352303e-01
50 1 4 1.169553e+01 -1.993139e+01 1.575395e+01 -1 0 1 -1.745106e-02 8.711727e-01 1.405257e-01 -4.701129e-01
51 1 4 1.122640e+01 -1.985289e+01 1.543551e+01 -1 0 1 -7.105836e-03 9.120849e-01 3.895815e-02 -4.080844e-01
52 1 1 1.100645e+01 -1.950822e+01 1.499434e+01 -1 0 1 1.683696e-01 8.676295e-01 -3.239554e-01 -3.375257e-01
53 1 3 1.083332e+01 -1.940797e+01 1.440525e+01 -1 0 1 -2.384672e-01 -7.962953e-01 5.128432e-01 2.145672e-01
54 1 4 1.082495e+01 -1.954384e+01 1.391562e+01 -1 0 1 -2.685876e-01 -5.926703e-01 7.577945e-01 -4.847791e-02
55 1 4 1.074699e+01 -1.999346e+01 1.345395e+01 -1 0 1 3.427517e-01 4.064333e-01 -8.276440e-01 1.798297e-01
56 1 4 1.078425e+01 1.953650e+01 1.322451e+01 -1 -1 1 2.414311e-01 8.801966e-02 -9.169559e-01 3.052138e-01
57 1 1 1.051730e+01 1.904442e+01 1.304091e+01 -1 -1 1 -3.101209e-01 7.459689e-02 8.756490e-01 -3.626282e-01
58 1 1 1.016356e+01 1.864727e+01 1.307354e+01 -1 -1 1 1.785606e-01 -4.345693e-01 -7.579414e-01 4.525378e-01
59 1 3 9.651490e+00 1.844270e+01 1.308776e+01 -1 -1 1 -5.158261e-03 6.910142e-01 5.373082e-01 -4.835005e-01
60 1 4 9.217716e+00 1.834566e+01 1.289732e+01 -1 -1 1 -3.879348e-02 7.989721e-01 3.218771e-01 -5.064916e-01
61 1 2 8.807969e+00 1.860624e+01 1.272878e+01 -1 -1 1 -8.766526e-02 -8.620030e-01 3.231516e-02 4.982182e-01
62 1 3 8.463189e+00 1.874300e+01 1.238737e+01 -1 -1 1 2.680261e-01 8.539771e-01 -2.502385e-01 -3.691420e-01
63 1 2 8.233404e+00 1.881996e+01 1.195596e+01 -1 -1 1 -3.055766e-01 -7.813576e-01 5.042320e-01 2.045810e-01
64 1 4 8.032318e+00 1.855678e+01 1.146005e+01 -1 -1 1 -4.215480e-01 -6.802485e-01 5.976399e-01 4.884493e-02
65 1 2 8.061525e+00 1.834220e+01 1.109834e+01 -1 -1 1 -3.687472e-01 -4.816347e-01 7.777000e-01 -1.650342e-01
66 1 1 7.862429e+00 1.842219e+01 9.980426e+00 -1 -1 1 3.294221e-01 9.006778e-01 4.212220e-03 -2.832717e-01
67 1 2 7.847373e+00 1.848889e+01 9.516570e+00 -1 -1 1 -4.815732e-01 -7.439864e-01 3.845543e-01 2.582430e-01
68 1 1 7.567394e+00 1.914335e+01 9.681037e+00 -1 -1 1 -7.043741e-02 -5.693010e-01 6.217715e-01 -5.332309e-01
69 1 1 7.531270e+00 -1.996397e+01 9.261064e+00 -1 0 1 5.230409e-02 5.532477e-01 7.081898e-01 4.354866e-01
70 1 2 7.630479e+00 -1.959367e+01 8.949707e+00 -1 0 1 1.815327e-01 -6.709009e-01 -5.755395e-01 -4.309201e-01
71 1 3 7.684451e+00 -1.916073e+01 8.738011e+00 -1 0 1 4.021904e-01 -7.049387e-01 -4.459572e-01 -3.773943e-01
72 1 4 7.113547e+00 -1.944218e+01 8.558138e+00 -1 0 1 -4.467403e-01 -6.173015e-02 8.908544e-01 -5.468952e-02
73 1 1 6.867438e+00 2.016233e+01 8.418806e+00 -1 -1 1 3.166390e-01 -1.890508e-01 -8.724744e-01 3.206057e-01
74 1 1 6.427110e+00 1.986082e+01 8.406069e+00 -1 -1 1 2.766936e-01 -4.929647e-01 -7.248097e-01 3.937986e-01
75 1 3 7.117712e+00 -1.999627e+01 7.235894e+00 -1 0 1 -3.060761e-01 8.224942e-01 -5.934671e-02 -4.757086e-01
76 1 1 6.763656e+00 2.038647e+01 6.491721e+00 -1 -1 1 -1.142498e-01 1.504823e-01 -5.943874e-01 -7.816685e-01
77 1 4 6.788896e+00 -1.929959e+01 6.158610e+00 -1 0 1 1.240906e-01 -3.610608e-01 -6.315222e-01 -6.748454e-01
78 1 1 7.791711e+00 -1.905706e+01 6.486512e+00 -1 0 1 -2.609784e-01 -6.736529e-01 6.613163e-01 -2.018482e-01
79 1 4 7.422207e+00 -1.822025e+01 5.689533e+00 -1 0 1 -4.476579e-01 -8.747419e-01 1.846146e-01 -1.861565e-02
80 1 2 7.511733e+00 -1.838406e+01 5.281929e+00 -1 0 1 2.877189e-01 8.099155e-01 -4.555750e-01 2.317459e-01
81 1 4 7.626620e+00 -1.894654e+01 5.048059e+00 -1 0 1 -2.162389e-01 -4.562515e-01 8.198331e-01 -2.700908e-01
82 1 4 7.655412e+00 -1.940257e+01 4.849716e+00 -1 0 1 1.756380e-01 1.138408e-01 -9.235953e-01 3.211903e-01
83 1 4 7.483231e+00 -1.988511e+01 4.858679e+00 -1 0 1 3.772958e-02 3.139707e-01 8.527868e-01 -4.156364e-01
84 1 4 7.977739e+00 1.900616e+01 4.962286e+00 -1 -1 1 7.692519e-02 4.220699e-01 -8.643662e-01 -2.623178e-01
85 1 1 8.046551e+00 1.834116e+01 5.004597e+00 -1 -1 1 2.568438e-01 -6.853673e-01 6.662493e-01 -1.428805e-01
86 1 1 8.499596e+00 1.833936e+01 4.757001e+00 -1 -1 1 5.227318e-01 -2.154516e-01 8.217257e-01 7.140742e-02
87 1 3 8.862432e+00 1.820632e+01 4.470770e+00 -1 -1 1 4.615934e-01 8.651174e-02 8.614191e-01 1.934022e-01
88 1 2 8.589421e+00 1.750445e+01 4.276993e+00 -1 -1 1 7.005005e-01 1.093447e-01 7.021555e-01 -6.573050e-02
89 1 2 8.911942e+00 1.713358e+01 4.167380e+00 -1 -1 1 6.476488e-01 4.145891e-01 6.186876e-01 1.609114e-01
90 1 3 9.093930e+00 1.733925e+01 5.429917e+00 -1 -1 1 2.803041e-01 -4.885553e-01 -7.904794e-01 2.405944e-01
91 1 3 9.223876e+00 1.625921e+01 5.231522e+00 -1 -1 1 2.614838e-01 1.291334e-01 -8.068576e-01 -5.137428e-01
92 1 2 1.054371e+01 1.617496e+01 5.453483e+00 -1 -1 1 -1.558073e-01 6.644284e-01 -6.674794e-01 2.978763e-01
93 1 1 1.100912e+01 1.573247e+01 5.190545e+00 -1 -1 1 -7.755918e-01 1.296986e-01 -6.003486e-01 1.456614e-01
94 1 2 1.138335e+01 1.542898e+01 5.249241e+00 -1 -1 1 7.561020e-01 1.486511e-01 5.941835e-01 2.305616e-01
95 1 3 1.184704e+01 1.530341e+01 5.211816e+00 -1 -1 1 -5.370287e-01 -3.564279e-01 -3.901189e-01 -6.575459e-01
96 1 2 1.218184e+01 1.553719e+01 5.156997e+00 -1 -1 1 1.293409e-01 6.173399e-01 1.893946e-01 7.525238e-01
97 1 2 1.290253e+01 1.461875e+01 4.105009e+00 -1 -1 1 -2.199925e-01 5.231955e-01 -7.342270e-01 -3.725327e-01
98 1 4 1.317526e+01 1.484304e+01 3.765128e+00 -1 -1 1 1.923930e-01 3.286950e-02 8.834575e-01 4.259194e-01
99 1 2 1.408714e+01 1.558718e+01 4.835716e+00 -1 -1 1 3.937412e-01 4.746228e-01 -2.682737e-02 7.867537e-01
100 1 1 1.455976e+01 1.569483e+01 5.145146e+00 -1 -1 1 1.549905e-02 4.661302e-01 -1.078439e-01 8.779818e-01
101 2 4 -5.063063e+00 1.535326e+01 9.916422e+00 -1 -1 1 4.022765e-01 8.060015e-01 4.016898e-01 1.648653e-01
102 2 3 -5.609907e+00 1.477643e+01 1.051449e+01 -1 -1 1 2.110623e-01 3.804653e-01 4.751377e-01 7.648157e-01
103 2 1 -4.526443e+00 1.410511e+01 9.900697e+00 -1 -1 1 -3.564467e-01 -8.015034e-01 4.484631e-01 1.715193e-01
104 2 3 -4.496947e+00 1.404661e+01 9.507082e+00 -1 -1 1 2.224847e-01 5.455980e-01 -8.074697e-01 2.856570e-02
105 2 3 -4.329848e+00 1.550776e+01 9.651300e+00 -1 -1 1 3.092281e-01 -5.702663e-02 1.176423e-01 9.419587e-01
106 2 2 -4.149509e+00 1.546058e+01 1.018422e+01 -1 -1 1 -3.552141e-01 -9.016958e-01 -2.239454e-01 1.030345e-01
107 2 3 -4.034679e+00 1.637653e+01 1.045662e+01 -1 -1 1 -3.419081e-01 -7.612987e-01 -1.850794e-01 -5.189111e-01
108 2 4 -3.531205e+00 1.653219e+01 1.037474e+01 -1 -1 1 1.189159e-01 7.136458e-01 -1.243086e-01 6.790552e-01
109 2 3 -3.067762e+00 1.658415e+01 1.045050e+01 -1 -1 1 -7.085054e-02 5.760703e-01 -6.000179e-01 5.505467e-01
110 2 2 -3.456136e+00 1.777584e+01 9.798265e+00 -1 -1 1 1.469891e-01 -6.461497e-01 -7.332969e-02 7.453238e-01
111 2 2 -3.526298e+00 1.837165e+01 1.065814e+01 -1 -1 1 2.767824e-01 -1.240464e-01 -2.934561e-01 9.065801e-01
112 2 3 -3.735721e+00 1.847381e+01 1.117043e+01 -1 -1 1 -1.662062e-01 -2.529791e-01 -2.298526e-01 9.249567e-01
113 2 3 -2.514285e+00 1.876098e+01 1.080532e+01 -1 -1 1 -1.689267e-01 -8.832972e-01 3.733283e-01 -2.277624e-01
114 2 2 -2.075390e+00 1.864786e+01 1.053583e+01 -1 -1 1 -4.985359e-02 -5.596571e-01 7.647654e-01 -3.153290e-01
115 2 4 -1.740589e+00 1.825299e+01 1.046159e+01 -1 -1 1 9.699988e-02 -1.512555e-01 9.303592e-01 -3.196006e-01
116 2 4 -1.855682e+00 1.806580e+01 1.097812e+01 -1 -1 1 5.374073e-01 -4.804732e-02 3.770566e-01 -7.528035e-01
117 2 1 -1.277502e+00 1.894040e+01 1.066545e+01 -1 -1 1 -4.174262e-02 -4.272892e-01 -8.956531e-01 1.161335e-01
118 2 1 -2.202293e-01 1.929744e+01 1.000613e+01 -1 -1 1 -3.993478e-01 3.481206e-01 -7.088922e-01 -4.656235e-01
119 2 1 9.199049e-02 1.949216e+01 9.757538e+00 -1 -1 1 -2.644114e-01 -7.977114e-02 -7.558171e-01 -5.936866e-01
120 2 1 3.911985e-01 1.951737e+01 9.085214e+00 -1 -1 1 2.499301e-01 -5.623724e-01 3.543809e-01 7.040500e-01
121 2 3 1.241493e+00 1.929029e+01 9.711415e+00 -1 -1 1 7.337193e-01 4.826338e-03 -4.718179e-01 4.888973e-01
122 2 1 1.039543e+00 1.915615e+01 1.013036e+01 -1 -1 1 3.611164e-01 -3.899455e-01 -4.217059e-01 7.346439e-01
123 2 4 1.404472e+00 1.857524e+01 9.726266e+00 -1 -1 1 7.689207e-02 6.430726e-01 7.310432e-01 2.147581e-01
124 2 1 1.556882e+00 1.820415e+01 8.937764e+00 -1 -1 1 5.850555e-02 1.030190e-01 9.775434e-01 1.742789e-01
125 2 4 2.902215e+00 1.813243e+01 8.736901e+00 -1 -1 1 -8.057761e-01 4.179179e-02 -5.792018e-01 -1.162046e-01
126 2 2 3.318613e+00 1.784916e+01 8.884420e+00 -1 -1 1 -7.474897e-01 -1.758126e-01 -4.877001e-01 -4.153285e-01
127 2 4 3.945452e+00 1.809473e+01 1.004290e+01 -1 -1 1 -7.603514e-01 -2.709050e-01 3.600093e-01 -4.678350e-01
128 2 4 3.957211e+00 1.770733e+01 1.036871e+01 -1 -1 1 5.603210e-01 3.003311e-02 -4.489401e-01 6.954072e-01
129 2 1 3.983466e+00 1.765508e+01 1.084949e+01 -1 -1 1 1.199159e-01 -9.341671e-02 -4.587197e-01 8.754825e-01
130 2 2 3.575796e+00 1.684890e+01 1.113445e+01 -1 -1 1 -2.601312e-01 -1.807122e-02 -9.469228e-01 1.879959e-01
131 2 3 5.024749e+00 1.740763e+01 1.165357e+01 -1 -1 1 9.043324e-01 2.176901e-01 -3.237094e-01 1.732232e-01
132 2 4 5.867145e+00 1.740103e+01 1.142843e+01 -1 -1 1 -8.532653e-01 2.381939e-01 -8.726931e-02 -4.556161e-01
133 2 4 6.107725e+00 1.759202e+01 1.176119e+01 -1 -1 1 4.917076e-01 -2.271781e-01 1.024197e-02 8.405408e-01
134 2 3 7.015701e+00 1.635585e+01 1.216684e+01 -1 -1 1 6.559878e-01 4.844507e-01 -5.679090e-01 1.116556e-01
135 2 4 7.821606e+00 1.645430e+01 1.203575e+01 -1 -1 1 8.190937e-01 -3.911083e-01 3.977953e-01 1.337115e-01
136 2 3 7.897478e+00 1.741551e+01 1.176283e+01 -1 -1 1 -7.472408e-01 -1.125513e-01 -4.853255e-01 -4.397983e-01
137 2 1 8.422406e+00 1.756045e+01 1.196719e+01 -1 -1 1 -5.440860e-01 -1.258897e-01 -5.162276e-01 -6.493314e-01
138 2 3 8.803562e+00 1.778207e+01 1.179425e+01 -1 -1 1 -3.225493e-01 -3.437260e-01 -5.784294e-01 -6.657581e-01
139 2 2 9.206614e+00 1.814199e+01 1.158910e+01 -1 -1 1 -8.229202e-02 -4.535794e-01 -3.631449e-01 -8.097033e-01
140 2 3 9.438857e+00 1.858878e+01 1.164763e+01 -1 -1 1 2.141461e-01 -4.809263e-01 -2.535127e-01 -8.115311e-01
141 2 1 9.563117e+00 1.901758e+01 1.197425e+01 -1 -1 1 -3.940098e-01 3.795385e-01 2.650163e-01 7.940234e-01
142 2 2 9.529314e+00 1.936028e+01 1.237632e+01 -1 -1 1 -6.920694e-01 3.421655e-01 9.838785e-02 6.279193e-01
143 2 4 9.384635e+00 1.951508e+01 1.295797e+01 -1 -1 1 -8.525259e-01 3.554688e-01 -1.177967e-01 3.646444e-01
144 2 4 9.563344e+00 1.964601e+01 1.343004e+01 -1 -1 1 -9.002151e-01 2.448655e-01 -2.243226e-01 2.816612e-01
145 2 1 9.779341e+00 1.953027e+01 1.390917e+01 -1 -1 1 9.486679e-01 -1.222617e-01 2.900261e-01 -3.108226e-02
146 2 1 1.013691e+01 1.938709e+01 1.426244e+01 -1 -1 1 8.858021e-01 3.217495e-02 3.406675e-01 3.134726e-01
147 2 1 1.068726e+01 1.934640e+01 1.444125e+01 -1 -1 1 7.240315e-01 1.713352e-01 4.126751e-01 5.254730e-01
148 2 2 1.123305e+01 1.947439e+01 1.438333e+01 -1 -1 1 5.296082e-01 2.661817e-01 3.860737e-01 7.068306e-01
149 2 4 1.174457e+01 1.971953e+01 1.443046e+01 -1 -1 1 -2.678049e-01 -3.186016e-01 -2.883196e-01 -8.623487e-01
150 2 1 1.199495e+01 2.011584e+01 1.455592e+01 -1 -1 1 1.109836e-01 -4.653632e-01 -2.537620e-01 -8.406691e-01
151 2 1 1.224979e+01 -1.949859e+01 1.481526e+01 -1 0 1 3.167065e-01 -4.245436e-01 -1.051324e-01 -8.416691e-01
152 2 1 1.241277e+01 -1.914100e+01 1.517940e+01 -1 0 1 5.529193e-01 -4.299927e-01 6.618965e-02 -7.106373e-01
153 2 4 1.240741e+01 -1.896632e+01 1.574373e+01 -1 0 1 7.262195e-01 -3.311052e-01 8.800738e-02 -5.960112e-01
154 2 1 1.262568e+01 -1.885320e+01 1.622352e+01 -1 0 1 8.451706e-01 -1.539804e-01 2.296050e-01 -4.574475e-01
155 2 2 1.271829e+01 -1.897327e+01 1.672443e+01 -1 0 1 9.136211e-01 -5.873899e-02 2.792272e-01 -2.896178e-01
156 2 4 1.290497e+01 -1.929650e+01 1.712050e+01 -1 0 1 9.438226e-01 5.269613e-02 3.242532e-01 3.580379e-02
157 2 3 1.332156e+01 -1.958769e+01 1.726261e+01 -1 0 1 8.242574e-01 2.227226e-01 3.321226e-01 4.008602e-01
158 2 2 1.380270e+01 -1.973638e+01 1.734362e+01 -1 0 1 6.862662e-01 3.236030e-01 3.588751e-01 5.436253e-01
159 2 1 1.428875e+01 -1.974000e+01 1.731894e+01 -1 0 1 4.889642e-01 4.878876e-01 3.354034e-01 6.406124e-01
160 2 3 1.474354e+01 -1.962199e+01 1.724598e+01 -1 0 1 -2.325025e-01 -5.654645e-01 -2.398186e-01 -7.541084e-01
161 2 1 1.516983e+01 -1.925545e+01 1.730435e+01 -1 0 1 -1.180273e-02 -5.486257e-01 -1.564551e-01 -8.212140e-01
162 2 1 1.541174e+01 -1.881809e+01 1.753562e+01 -1 0 1 2.802169e-01 -5.842206e-01 6.316871e-02 -7.590615e-01
163 2 4 1.564357e+01 -1.849625e+01 1.788669e+01 -1 0 1 5.426546e-01 -5.461021e-01 1.807162e-01 -6.120786e-01
164 2 4 1.597921e+01 -1.840794e+01 1.824731e+01 -1 0 1 6.650705e-01 -4.192133e-01 3.295858e-01 -5.227950e-01
165 2 3 1.648011e+01 -1.846159e+01 1.859611e+01 -1 0 1 6.621203e-01 -3.406147e-01 3.546979e-01 -5.654800e-01
166 2 3 1.669201e+01 -1.855684e+01 1.900589e+01 -1 0 1 8.300293e-01 -1.373659e-01 4.423596e-01 -3.106444e-01
167 2 4 1.690548e+01 -1.895284e+01 1.932442e+01 -1 0 1 8.894304e-01 2.098779e-01 3.881339e-01 -1.192343e-01
168 2 2 1.711128e+01 -1.937513e+01 1.949402e+01 -1 0 1 8.408134e-01 3.920948e-01 3.613103e-01 9.353841e-02
169 2 2 1.754161e+01 -1.979608e+01 1.939636e+01 -1 0 1 7.644014e-01 4.546045e-01 2.701449e-01 3.688454e-01
170 2 1 1.792191e+01 -2.006492e+01 1.940558e+01 -1 0 1 6.149461e-01 5.518080e-01 2.644217e-01 4.974237e-01
171 2 1 1.840080e+01 -2.017359e+01 1.933558e+01 -1 0 1 -4.120883e-01 -5.867453e-01 -2.208827e-01 -6.611536e-01
172 2 4 1.892433e+01 2.006428e+01 1.923430e+01 -1 -1 1 -1.109806e-01 -6.057825e-01 4.206680e-02 -7.867282e-01
173 2 4 1.938151e+01 -1.975612e+01 1.937865e+01 -1 0 1 6.814546e-02 -5.366202e-01 1.176943e-01 -8.327923e-01
174 2 1 1.971086e+01 -1.953164e+01 1.969397e+01 -1 0 1 3.237387e-01 -5.206584e-01 1.435730e-01 -7.768493e-01
175 2 1 -1.991535e+01 -1.938142e+01 -1.985584e+01 0 0 2 4.605634e-01 -3.432870e-01 3.154673e-01 -7.553249e-01
176 2 2 -1.961168e+01 -1.936458e+01 -1.938708e+01 0 0 2 6.010580e-01 -2.197258e-01 4.469821e-01 -6.250255e-01
177 2 2 -1.945352e+01 -1.968491e+01 -1.885810e+01 0 0 2 7.811020e-01 -1.214248e-01 5.021549e-01 -3.506794e-01
178 2 1 -1.917169e+01 1.996003e+01 -1.862215e+01 0 -1 2 8.573968e-01 9.877645e-02 5.048132e-01 1.665718e-02
179 2 4 -1.862178e+01 1.960099e+01 -1.855444e+01 0 -1 2 8.106310e-01 1.517102e-01 5.139385e-01 2.360691e-01
180 2 1 -1.815031e+01 1.939537e+01 -1.868249e+01 0 -1 2 6.675141e-01 4.037206e-01 4.466815e-01 4.380757e-01
181 2 4 -1.760744e+01 1.941395e+01 -1.885586e+01 0 -1 2 -4.339853e-01 -5.209467e-01 -4.374463e-01 -5.906878e-01
182 2 2 -1.711369e+01 1.963337e+01 -1.907299e+01 0 -1 2 -2.101245e-01 -5.790092e-01 -3.340309e-01 -7.134559e-01
183 2 3 -1.674618e+01 1.996083e+01 -1.918240e+01 0 -1 2 8.326149e-02 -6.444539e-01 -2.291556e-01 -7.247306e-01
184 2 4 -1.644291e+01 -1.958730e+01 -1.908290e+01 0 0 2 2.243886e-01 -6.147520e-01 -6.367576e-03 -7.561013e-01
185 2 3 -1.610596e+01 -1.927524e+01 -1.879308e+01 0 0 2 -4.721001e-01 5.275918e-01 -8.849038e-02 7.006696e-01
186 2 1 -1.595386e+01 -1.903373e+01 -1.840770e+01 0 0 2 -6.829542e-01 4.586817e-01 -2.382890e-01 5.161424e-01
187 2 1 -1.580661e+01 -1.901429e+01 -1.795271e+01 0 0 2 8.333353e-01 -3.611460e-01 3.625204e-01 -2.090570e-01
188 2 2 -1.540533e+01 -1.890081e+01 -1.764401e+01 0 0 2 -8.361134e-01 2.644902e-01 -4.671143e-01 1.129758e-01
189 2 4 -1.484858e+01 -1.908527e+01 -1.742285e+01 0 0 2 -7.564991e-01 2.524726e-01 -5.557688e-01 -2.347079e-01
190 2 4 -1.439720e+01 -1.912113e+01 -1.736407e+01 0 0 2 -6.571932e-01 -5.405697e-02 -6.024718e-01 -4.496696e-01
191 2 1 -1.386463e+01 -1.902339e+01 -1.744407e+01 0 0 2 4.949211e-01 1.809050e-01 6.575654e-01 5.384555e-01
192 2 4 -1.343020e+01 -1.876619e+01 -1.759506e+01 0 0 2 -2.738282e-01 -2.825568e-01 -6.135157e-01 -6.846739e-01
193 2 4 -1.317528e+01 -1.843075e+01 -1.779615e+01 0 0 2 3.433286e-02 5.228598e-01 3.967347e-01 7.536846e-01
194 2 1 -1.287754e+01 -1.788132e+01 -1.775334e+01 0 0 2 1.955539e-01 -4.652670e-01 -2.854368e-01 -8.147461e-01
195 2 3 -1.288304e+01 -1.737706e+01 -1.757316e+01 0 0 2 -5.234129e-01 5.331942e-01 1.040263e-01 6.564460e-01
196 2 4 -1.267311e+01 -1.705474e+01 -1.725439e+01 0 0 2 6.671798e-01 -4.655750e-01 5.584849e-02 -5.787849e-01
197 2 2 -1.242422e+01 -1.690882e+01 -1.669097e+01 0 0 2 -7.908661e-01 3.348896e-01 -2.699220e-01 4.353411e-01
198 2 4 -1.217956e+01 -1.697534e+01 -1.623897e+01 0 0 2 -8.956767e-01 1.591769e-01 -3.929261e-01 1.342947e-01
199 2 3 -1.253401e+01 -1.636904e+01 -1.484435e+01 0 0 2 6.935958e-01 -2.893782e-01 -6.313732e-01 1.911883e-01
200 2 4 -1.297819e+01 -1.648313e+01 -1.461807e+01 0 0 2 -4.232076e-01 6.097054e-01 4.943533e-01 -4.525145e-01
