ITEM: TIMESTEP
393000000
ITEM: NUMBER OF ATOMS
200
ITEM: BOX BOUNDS pp pp pp
-2.0000000000000000e+01 2.0000000000000000e+01
-2.0000000000000000e+01 2.0000000000000000e+01
-2.0000000000000000e+01 2.0000000000000000e+01
ITEM: ATOMS id mol type x y z ix iy iz c_quat[1] c_quat[2] c_quat[3] c_quat[4]
1 1 1 -8.600599e+00 4.455125e+00 -1.065677e+01 -1 -1 2 -4.560570e-01 -4.662327e-02 -7.625842e-01 -4.564029e-01
2 1 2 -8.184737e+00 4.676969e+00 -1.084134e+01 -1 -1 2 2.746847e-01 1.666230e-01 8.512633e-01 4.148926e-01
3 1 1 -8.065295e+00 4.763702e+00 -1.131785e+01 -1 -1 2 -1.317412e-01 -5.184806e-01 -7.180655e-01 -4.452012e-01
4 1 3 -7.927197e+00 5.025237e+00 -1.176833e+01 -1 -1 2 4.267903e-02 -6.539473e-01 -5.730340e-01 -4.921011e-01
5 1 1 -7.942205e+00 5.521698e+00 -1.194216e+01 -1 -1 2 2.387028e-01 -7.950306e-01 -2.693704e-01 -4.882489e-01
6 1 2 -7.786794e+00 5.961525e+00 -1.203325e+01 -1 -1 2 4.116973e-01 -8.127426e-01 -1.530708e-02 -4.119715e-01
7 1 4 -7.448345e+00 6.414255e+00 -1.197514e+01 -1 -1 2 4.443890e-01 -7.893480e-01 2.378669e-01 -3.505245e-01
8 1 1 -6.965283e+00 6.657540e+00 -1.178483e+01 -1 -1 2 5.543054e-01 -6.383398e-01 4.823160e-01 -2.294321e-01
9 1 1 -6.501995e+00 6.751582e+00 -1.155010e+01 -1 -1 2 -6.335759e-01 3.751296e-01 -6.636897e-01 1.318158e-01
10 1 4 -5.983264e+00 6.721362e+00 -1.147929e+01 -1 -1 2 6.267792e-01 -1.476737e-01 7.602453e-01 8.583308e-02
11 1 1 -5.442562e+00 6.692196e+00 -1.170113e+01 -1 -1 2 5.388697e-01 -2.074942e-03 8.182228e-01 2.003163e-01
12 1 1 -4.980119e+00 6.710632e+00 -1.198534e+01 -1 -1 2 -3.562607e-01 -1.875357e-01 -8.236034e-01 -3.994824e-01
13 1 3 -4.735745e+00 6.709848e+00 -1.248094e+01 -1 -1 2 2.224312e-01 4.414611e-01 8.042285e-01 3.299287e-01
14 1 4 -4.632754e+00 6.901229e+00 -1.299734e+01 -1 -1 2 2.294119e-02 -6.297102e-01 -7.053258e-01 -3.247374e-01
15 1 4 -4.793975e+00 7.237461e+00 -1.345106e+01 -1 -1 2 1.378675e-01 -7.965050e-01 -4.927673e-01 -3.221066e-01
16 1 2 -4.816938e+00 7.621156e+00 -1.375156e+01 -1 -1 2 -2.125114e-01 8.976746e-01 2.393586e-01 3.028643e-01
17 1 1 -4.760080e+00 8.183913e+00 -1.390992e+01 -1 -1 2 -3.045197e-01 9.280582e-01 -5.263110e-02 2.078599e-01
18 1 2 -4.473407e+00 8.609907e+00 -1.395056e+01 -1 -1 2 3.685288e-01 -8.504320e-01 3.316472e-01 -1.759603e-01
19 1 3 -4.059500e+00 8.906972e+00 -1.409936e+01 -1 -1 2 4.502885e-01 -7.354649e-01 4.877555e-01 -1.357434e-01
20 1 1 -3.587431e+00 9.113543e+00 -1.425464e+01 -1 -1 2 3.901527e-01 -5.773283e-01 7.147905e-01 -5.956087e-02
21 1 4 -3.135537e+00 9.192357e+00 -1.444875e+01 -1 -1 2 -3.657225e-01 3.428760e-01 -8.652462e-01 -5.674364e-03
22 1 1 -2.765181e+00 9.045788e+00 -1.485289e+01 -1 -1 2 -2.780668e-01 3.875300e-02 -9.334182e-01 -2.233997e-01
23 1 4 -2.586386e+00 8.987639e+00 -1.538574e+01 -1 -1 2 -1.633133e-01 -2.411412e-01 -9.189520e-01 -2.659077e-01
24 1 3 -2.612911e+00 9.013072e+00 -1.593939e+01 -1 -1 2 3.515111e-03 -5.199741e-01 -8.345790e-01 -1.819133e-01
25 1 3 -2.730563e+00 9.165350e+00 -1.645290e+01 -1 -1 2 1.590284e-01 -6.541625e-01 -7.248880e-01 -1.460097e-01
26 1 4 -3.082903e+00 9.433743e+00 -1.681020e+01 -1 -1 2 2.999225e-01 -8.023237e-01 -5.109509e-01 -7.247246e-02
27 1 4 -3.417819e+00 9.825279e+00 -1.691715e+01 -1 -1 2 3.009286e-01 -9.256261e-01 -2.101954e-01 9.206590e-02
28 1 1 -3.598570e+00 1.023876e+01 -1.705653e+01 -1 -1 2 4.139415e-01 -8.886671e-01 4.015696e-02 1.931597e-01
29 1 1 -3.559600e+00 1.073892e+01 -1.739997e+01 -1 -1 2 3.565383e-01 -8.826000e-01 2.901174e-01 9.863893e-02
30 1 4 -3.239478e+00 1.116376e+01 -1.769131e+01 -1 -1 2 -2.728248e-01 7.567126e-01 -5.756109e-01 -1.470536e-01
31 1 4 -2.842818e+00 1.134387e+01 -1.796408e+01 -1 -1 2 -2.063371e-01 4.772274e-01 -8.073295e-01 -2.791022e-01
32 1 3 -2.642058e+00 1.157636e+01 -1.846053e+01 -1 -1 2 -1.743122e-01 3.481608e-01 -9.156225e-01 -1.001732e-01
33 1 3 -2.508322e+00 1.158026e+01 -1.907251e+01 -1 -1 2 3.185805e-02 2.054429e-01 -9.712437e-01 -1.160343e-01
34 1 1 -2.576518e+00 1.138727e+01 -1.950336e+01 -1 -1 2 5.876413e-02 -2.521137e-01 -9.620109e-01 -8.672113e-02
35 1 2 -2.887782e+00 1.122746e+01 -1.991002e+01 -1 -1 2 8.355219e-02 -5.179317e-01 -8.380788e-01 -1.496319e-01
36 1 2 -3.223464e+00 1.139616e+01 1.959576e+01 -1 -1 1 2.161547e-01 -6.973051e-01 -6.670599e-01 -1.485726e-01
37 1 1 -3.546881e+00 1.174083e+01 1.933148e+01 -1 -1 1 2.183748e-01 -9.080043e-01 -3.366026e-01 -1.205792e-01
38 1 1 -3.595670e+00 1.226172e+01 1.897855e+01 -1 -1 1 3.045262e-01 -9.152655e-01 -1.377978e-01 -2.248658e-01
39 1 4 -3.502217e+00 1.279641e+01 1.888465e+01 -1 -1 1 -3.935306e-01 8.956851e-01 -1.683852e-01 1.205331e-01
40 1 4 -3.196803e+00 1.320772e+01 1.871524e+01 -1 -1 1 -4.947215e-01 7.360773e-01 -4.501117e-01 1.041163e-01
41 1 2 -2.654971e+00 1.338981e+01 1.852763e+01 -1 -1 1 -4.501081e-01 5.462130e-01 -7.015043e-01 8.334079e-02
42 1 4 -2.194419e+00 1.340020e+01 1.819512e+01 -1 -1 1 3.035123e-01 -3.776222e-01 8.747722e-01 -7.437336e-03
43 1 3 -1.879010e+00 1.322166e+01 1.794105e+01 -1 -1 1 -2.925337e-01 5.834496e-02 -9.539022e-01 -3.302162e-02
44 1 2 -1.670900e+00 1.302890e+01 1.747917e+01 -1 -1 1 -2.147417e-01 -2.532937e-01 -9.325975e-01 -1.413870e-01
45 1 1 -1.575019e+00 1.291481e+01 1.697520e+01 -1 -1 1 -1.221668e-01 -4.003570e-01 -8.765470e-01 -2.376025e-01
46 1 3 -1.811949e+00 1.285369e+01 1.653781e+01 -1 -1 1 -4.309708e-02 -7.372213e-01 -6.628349e-01 -1.236822e-01
47 1 4 -1.981405e+00 1.303549e+01 1.608851e+01 -1 -1 1 1.493390e-01 -8.794856e-01 -4.419104e-01 -9.443559e-02
48 1 1 -2.028623e+00 1.339261e+01 1.572915e+01 -1 -1 1 -2.442997e-01 9.414195e-01 1.657678e-01 1.629969e-01
49 1 4 -1.967136e+00 1.384975e+01 1.544998e+01 -1 -1 1 -2.102030e-01 9.472315e-01 -2.382179e-01 4.265484e-02
50 1 4 -1.722169e+00 1.419534e+01 1.514725e+01 -1 -1 1 -1.476178e-01 8.981137e-01 -4.031175e-01 9.537859e-02
51 1 4 -1.315236e+00 1.443316e+01 1.492358e+01 -1 -1 1 -2.685159e-01 6.991327e-01 -6.516009e-01 1.205359e-01
52 1 1 -8.724144e-01 1.442497e+01 1.468023e+01 -1 -1 1 -3.448770e-01 4.211007e-01 -8.251558e-01 1.511687e-01
53 1 3 -3.693883e-01 1.419759e+01 1.426872e+01 -1 -1 1 1.485825e-01 -1.773628e-01 9.727257e-01 1.644282e-02
54 1 4 -2.476433e-01 1.383136e+01 1.387854e+01 -1 -1 1 2.142202e-01 1.830670e-01 9.521237e-01 -1.185610e-01
55 1 4 -2.702715e-01 1.351897e+01 1.339191e+01 -1 -1 1 -1.251164e-01 -4.599434e-01 -8.766933e-01 -6.485995e-02
56 1 4 -5.084304e-01 1.351135e+01 1.277940e+01 -1 -1 1 -8.327096e-02 -6.977725e-01 -6.951800e-01 -1.513418e-01
57 1 1 -6.541363e-01 1.371028e+01 1.237725e+01 -1 -1 1 -5.331402e-02 8.943747e-01 4.319496e-01 1.033009e-01
58 1 1 -7.418326e-01 1.394616e+01 1.194127e+01 -1 -1 1 1.254295e-01 -9.435773e-01 -2.508947e-01 -1.760146e-01
59 1 3 -8.065816e-01 1.433225e+01 1.172301e+01 -1 -1 1 -1.613308e-01 9.777661e-01 -1.335248e-01 1.081728e-02
60 1 4 -6.990717e-01 1.467914e+01 1.131906e+01 -1 -1 1 -1.469512e-01 9.132666e-01 -3.798661e-01 7.157165e-03
61 1 2 -3.625901e-01 1.486621e+01 1.105660e+01 -1 -1 1 2.565317e-01 -6.845137e-01 6.815356e-01 3.378862e-02
62 1 3 9.256530e-02 1.497900e+01 1.074674e+01 -1 -1 1 -1.890926e-01 4.847243e-01 -8.472067e-01 -1.073648e-01
63 1 2 3.238787e-01 1.485798e+01 1.026697e+01 -1 -1 1 1.522043e-01 -1.310610e-01 9.794336e-01 1.914735e-02
64 1 4 4.345460e-01 1.469308e+01 9.715333e+00 -1 -1 1 6.347286e-03 3.067678e-02 9.975889e-01 6.192703e-02
65 1 2 3.254360e-01 1.445879e+01 9.278334e+00 -1 -1 1 -2.873299e-02 3.821125e-01 9.231052e-01 -3.226718e-02
66 1 1 6.103092e-02 1.427622e+01 8.883883e+00 -1 -1 1 -7.070681e-02 5.742297e-01 8.147699e-01 -3.756154e-02
67 1 2 -2.566902e-01 1.428564e+01 8.490407e+00 -1 -1 1 1.675129e-01 -7.141298e-01 -6.765042e-01 6.557553e-02
68 1 1 -6.594634e-01 1.439024e+01 8.172359e+00 -1 -1 1 -6.295986e-02 9.003116e-01 4.306650e-01 -1.641617e-03
69 1 1 -8.159657e-01 1.474748e+01 7.854931e+00 -1 -1 1 -1.336291e-01 9.850976e-01 9.752004e-02 -4.707349e-02
70 1 2 -8.196859e-01 1.515465e+01 7.593772e+00 -1 -1 1 1.485168e-01 -9.627740e-01 1.997815e-01 1.053391e-01
71 1 3 -2.354402e+00 1.474976e+01 7.478077e+00 -1 -1 1 2.625412e-01 5.813895e-01 7.668787e-01 -7.039487e-02
72 1 4 -2.470620e+00 1.462551e+01 6.998121e+00 -1 -1 1 -1.432675e-01 -8.616964e-01 -4.861436e-01 2.486148e-02
73 1 1 -2.430391e+00 1.518660e+01 6.717110e+00 -1 -1 1 3.837814e-02 -5.343306e-01 -3.207790e-01 -7.811010e-01
74 1 1 -2.548502e+00 1.570121e+01 6.950119e+00 -1 -1 1 3.273873e-01 -6.743293e-01 -1.547575e-01 -6.435431e-01
75 1 3 -2.475779e+00 1.619843e+01 7.170448e+00 -1 -1 1 -6.143016e-01 6.458374e-01 -1.673971e-01 4.213145e-01
76 1 1 -2.080355e+00 1.633960e+01 7.539589e+00 -1 -1 1 -7.499672e-01 4.657837e-01 -4.393397e-01 1.660584e-01
77 1 4 -3.023310e+00 1.725883e+01 7.379934e+00 -1 -1 1 -5.388983e-01 1.637312e-01 1.014577e-02 8.262432e-01
78 1 1 -2.173860e+00 1.836121e+01 7.456013e+00 -1 -1 1 -3.094200e-01 -7.619250e-01 2.933072e-01 -4.875454e-01
79 1 4 -3.186924e+00 1.776724e+01 6.711632e+00 -1 -1 1 -1.393214e-01 7.145419e-02 -9.052824e-01 3.949020e-01
80 1 2 -1.933544e+00 1.843147e+01 6.857816e+00 -1 -1 1 -7.795422e-01 6.171538e-01 -1.052137e-01 -1.911068e-02
81 1 4 -1.395671e+00 1.867023e+01 6.784044e+00 -1 -1 1 3.218339e-01 -9.287069e-01 -1.825031e-01 -2.487944e-02
82 1 4 -2.141094e+00 1.741575e+01 6.173857e+00 -1 -1 1 1.977023e-01 4.359532e-01 -7.673155e-01 -4.267147e-01
83 1 4 -2.241703e+00 1.753192e+01 5.723114e+00 -1 -1 1 -3.416174e-01 -9.587967e-02 9.096723e-01 2.158724e-01
84 1 4 -1.123566e+00 1.810784e+01 6.072413e+00 -1 -1 1 3.266721e-02 -7.494221e-01 2.953832e-01 -5.916486e-01
85 1 1 -1.267188e+00 1.784138e+01 5.271446e+00 -1 -1 1 3.376700e-01 -5.183171e-01 -1.555053e-01 -7.701587e-01
86 1 1 -6.064433e-01 1.723557e+01 3.908429e+00 -1 -1 1 -8.142399e-01 -4.794414e-01 1.325158e-01 2.993141e-01
87 1 3 3.144815e-01 1.789341e+01 4.489869e+00 -1 -1 1 -5.434330e-01 -7.282747e-01 -1.141425e-01 -4.015820e-01
88 1 2 8.980344e-01 1.771452e+01 4.531684e+00 -1 -1 1 -5.044446e-01 -5.745673e-01 -2.542719e-01 -5.922448e-01
89 1 2 1.448746e+00 1.789745e+01 5.013219e+00 -1 -1 1 2.294769e-01 -8.821965e-01 4.000634e-01 9.496804e-02
90 1 3 1.687638e+00 1.806529e+01 4.503145e+00 -1 -1 1 -8.547502e-02 6.739043e-01 -7.325970e-01 -4.299593e-02
91 1 3 2.017923e+00 1.807653e+01 4.138554e+00 -1 -1 1 7.495295e-02 -3.166082e-01 9.167406e-01 2.317928e-01
92 1 2 2.650008e+00 1.862948e+01 4.156779e+00 -1 -1 1 4.433077e-01 4.599754e-01 -6.393913e-01 -4.278782e-01
93 1 1 2.301612e+00 1.906316e+01 3.877990e+00 -1 -1 1 6.675640e-01 -2.709560e-01 6.917859e-01 4.871769e-02
94 1 2 2.368221e+00 1.950124e+01 3.540586e+00 -1 -1 1 1.080686e-01 5.856158e-01 6.225306e-01 5.077705e-01
95 1 3 2.751231e+00 1.848091e+01 3.208424e+00 -1 -1 1 -3.788753e-01 2.614020e-01 -5.364441e-01 -7.073544e-01
96 1 2 1.614227e+00 1.803840e+01 3.728471e+00 -1 -1 1 -2.455874e-01 4.982462e-02 -4.385025e-01 8.630874e-01
97 1 2 1.961887e+00 1.903214e+01 2.936932e+00 -1 -1 1 2.783725e-01 -6.494787e-01 -2.699451e-01 6.540763e-01
98 1 4 1.592074e+00 1.941877e+01 3.058286e+00 -1 -1 1 -3.130778e-03 6.310381e-01 3.635138e-02 -7.748933e-01
99 1 2 1.461082e+00 1.948010e+01 3.231117e+00 -1 -1 1 5.353463e-01 -6.638883e-01 5.101521e-03 -5.221404e-01
100 1 1 9.750059e-01 1.967705e+01 2.363689e+00 -1 -1 1 -7.386137e-01 -2.533128e-02 -6.436694e-01 1.987403e-01
101 2 4 6.978687e+00 1.199765e+01 -1.719809e+00 -1 -1 1 7.706789e-01 -1.088725e-02 -3.668169e-02 -6.360739e-01
102 2 3 6.720990e+00 1.178168e+01 -1.281813e+00 -1 -1 1 9.366721e-01 1.112360e-01 -1.206333e-02 -3.318530e-01
103 2 1 6.680415e+00 1.136488e+01 -9.233472e-01 -1 -1 1 -9.945662e-01 -3.135275e-02 4.080052e-03 -9.918863e-02
104 2 3 6.829955e+00 1.123436e+01 -4.515021e-01 -1 -1 1 9.451565e-01 1.066614e-01 7.883143e-02 2.984762e-01
105 2 3 7.183181e+00 1.095571e+01 -1.556363e-01 -1 -1 1 7.626925e-01 2.356963e-01 1.003213e-01 5.938712e-01
106 2 2 7.613373e+00 1.078999e+01 -1.126474e-01 -1 -1 1 -3.617171e-01 -3.673048e-01 1.300913e-01 -8.469499e-01
107 2 3 7.787624e+00 1.087187e+01 3.480658e-01 -1 -1 1 -2.182503e-01 3.061407e-01 -3.218791e-01 8.689295e-01
108 2 4 7.933034e+00 1.081436e+01 8.419427e-01 -1 -1 1 5.625142e-01 -2.101916e-01 4.441621e-01 -6.649190e-01
109 2 3 8.455318e+00 1.143445e+01 8.448840e-01 -1 -1 1 6.078000e-02 7.931237e-01 -4.871687e-01 -3.604542e-01
110 2 2 8.447279e+00 1.270046e+01 9.387533e-01 -1 -1 1 6.256331e-01 4.131482e-03 -6.594831e-02 7.773139e-01
111 2 2 7.988992e+00 1.219189e+01 1.309652e+00 -1 -1 1 -6.301009e-01 -5.961001e-01 1.960970e-01 -4.573659e-01
112 2 3 7.404001e+00 1.266792e+01 2.213293e+00 -1 -1 1 -4.266140e-01 5.175820e-01 6.602051e-01 -3.379921e-01
113 2 3 6.919847e+00 1.266953e+01 2.136736e+00 -1 -1 1 4.237803e-01 -6.620468e-01 -4.271372e-01 4.468312e-01
114 2 2 6.573245e+00 1.298145e+01 2.183924e+00 -1 -1 1 1.852436e-01 -7.375101e-01 5.609988e-03 6.494091e-01
115 2 4 6.290063e+00 1.333409e+01 2.089218e+00 -1 -1 1 1.657429e-01 6.384305e-01 -3.261796e-01 -6.771578e-01
116 2 4 5.878077e+00 1.335840e+01 1.762879e+00 -1 -1 1 -4.955449e-01 -4.799303e-01 5.629159e-01 4.552228e-01
117 2 1 5.003049e+00 1.396015e+01 2.580317e+00 -1 -1 1 -4.207756e-01 2.762051e-01 5.508806e-01 -6.657246e-01
118 2 1 4.710384e+00 1.372716e+01 2.950725e+00 -1 -1 1 -1.403906e-01 4.788694e-01 4.465925e-01 -7.426505e-01
119 2 1 4.349753e+00 1.381362e+01 3.017107e+00 -1 -1 1 2.825971e-01 5.928631e-01 2.320172e-02 -7.537333e-01
120 2 1 4.225788e+00 1.389534e+01 3.779554e+00 -1 -1 1 3.246339e-01 -7.459775e-01 4.606984e-02 5.796620e-01
121 2 3 4.124902e+00 1.438322e+01 3.785880e+00 -1 -1 1 1.137110e-01 -6.045070e-01 3.360554e-01 7.132376e-01
122 2 1 3.765133e+00 1.495979e+01 3.873041e+00 -1 -1 1 -2.718046e-02 7.412014e-01 1.965869e-01 6.412763e-01
123 2 4 3.108549e+00 1.521742e+01 3.561106e+00 -1 -1 1 -4.376254e-01 3.428242e-02 3.003011e-01 8.468341e-01
124 2 1 3.492392e+00 1.567023e+01 4.332563e+00 -1 -1 1 -5.395404e-01 -5.141567e-01 -1.132225e-01 -6.570538e-01
125 2 4 3.166450e+00 1.568161e+01 5.132567e+00 -1 -1 1 8.290588e-01 -1.918041e-01 -2.176071e-01 4.780376e-01
126 2 2 2.384711e+00 1.515297e+01 4.811302e+00 -1 -1 1 -9.750024e-01 1.037308e-01 -1.231473e-01 -1.531177e-01
127 2 4 1.347929e+00 1.609453e+01 5.543817e+00 -1 -1 1 -2.267681e-01 6.989575e-01 5.406256e-01 -4.095835e-01
128 2 4 1.123148e+00 1.506175e+01 5.867244e+00 -1 -1 1 1.011521e-01 3.635325e-01 9.112281e-01 -1.651537e-01
129 2 1 1.918390e+00 1.495655e+01 6.272656e+00 -1 -1 1 2.198008e-01 9.361676e-01 -2.173427e-01 -1.674516e-01
130 2 2 8.426557e-01 1.397147e+01 6.439159e+00 -1 -1 1 5.431881e-01 3.795459e-01 -5.716327e-01 -4.838674e-01
131 2 3 2.512555e-01 1.485925e+01 7.335571e+00 -1 -1 1 -2.189643e-01 -6.759862e-02 5.732111e-02 -9.716992e-01
132 2 4 3.260939e-01 1.512878e+01 7.774197e+00 -1 -1 1 1.865281e-01 -4.688126e-02 5.855014e-02 -9.795822e-01
133 2 4 2.272345e-01 1.526175e+01 8.238692e+00 -1 -1 1 3.629859e-01 7.492184e-02 -3.050148e-02 -9.282767e-01
134 2 3 -3.320279e-02 1.545597e+01 8.685867e+00 -1 -1 1 -6.128003e-01 -9.417138e-02 -9.527269e-03 7.845488e-01
135 2 4 -3.668862e-01 1.541822e+01 9.025163e+00 -1 -1 1 8.032912e-01 1.291534e-01 -1.809724e-02 -5.811327e-01
136 2 3 -6.396349e-01 1.524194e+01 9.412789e+00 -1 -1 1 -9.230693e-01 -1.714391e-01 -3.721542e-02 3.422961e-01
137 2 1 -7.160895e-01 1.491026e+01 9.742010e+00 -1 -1 1 -9.603062e-01 -2.542370e-01 -2.762776e-02 1.114106e-01
138 2 3 -6.793446e-01 1.444991e+01 9.907865e+00 -1 -1 1 -9.227722e-01 -2.653576e-01 8.834300e-02 -2.650893e-01
139 2 2 -4.838314e-01 1.404308e+01 1.028050e+01 -1 -1 1 -8.066774e-01 -2.259617e-01 7.828437e-02 -5.404484e-01
140 2 3 -1.546125e-01 1.385224e+01 1.060292e+01 -1 -1 1 -5.652658e-01 -1.996149e-01 1.331684e-01 -7.892367e-01
141 2 1 1.467226e-01 1.382942e+01 1.119732e+01 -1 -1 1 3.926235e-01 4.129221e-02 -7.162330e-02 9.159759e-01
142 2 2 3.463636e-01 1.411751e+01 1.170561e+01 -1 -1 1 1.066845e-01 1.099882e-02 5.169558e-03 9.942186e-01
143 2 4 3.005530e-01 1.439621e+01 1.228614e+01 -1 -1 1 -1.436862e-01 -1.390528e-01 8.492284e-03 9.797686e-01
144 2 4 -4.475750e-02 1.465173e+01 1.268947e+01 -1 -1 1 -4.416002e-01 -2.137296e-01 9.365608e-02 8.663356e-01
145 2 1 -5.523868e-01 1.469409e+01 1.294011e+01 -1 -1 1 6.639411e-01 2.121253e-01 -9.000473e-02 -7.113960e-01
146 2 1 -9.164687e-01 1.450054e+01 1.318742e+01 -1 -1 1 8.706674e-01 1.743974e-01 -2.526569e-01 -3.843023e-01
147 2 1 -1.291406e+00 1.418216e+01 1.346445e+01 -1 -1 1 9.593729e-01 1.414636e-01 -1.700202e-01 -1.751708e-01
148 2 2 -1.427185e+00 1.378388e+01 1.384102e+01 -1 -1 1 9.661948e-01 1.082587e-01 -1.743845e-01 1.560052e-01
149 2 4 -1.374475e+00 1.342155e+01 1.417404e+01 -1 -1 1 -8.394490e-01 -5.779450e-02 1.988966e-01 -5.024195e-01
150 2 1 -1.293176e+00 1.321837e+01 1.468588e+01 -1 -1 1 -7.282802e-01 -7.456695e-02 5.411625e-02 -6.790575e-01
151 2 1 -9.690310e-01 1.321531e+01 1.511034e+01 -1 -1 1 -4.468331e-01 -1.141859e-02 7.818341e-02 -8.911213e-01
152 2 1 -8.471323e-01 1.331443e+01 1.562007e+01 -1 -1 1 -2.294061e-01 1.138252e-01 2.336663e-02 -9.663698e-01
153 2 4 -9.412184e-01 1.371110e+01 1.607864e+01 -1 -1 1 1.737817e-01 1.242306e-01 1.030783e-02 -9.768626e-01
154 2 1 -1.261298e+00 1.386300e+01 1.647955e+01 -1 -1 1 3.696057e-01 2.668487e-01 -5.372313e-02 -8.884240e-01
155 2 2 -1.752966e+00 1.404363e+01 1.670234e+01 -1 -1 1 6.021117e-01 2.736660e-01 -1.895019e-01 -7.257117e-01
156 2 4 -2.284373e+00 1.391373e+01 1.692193e+01 -1 -1 1 8.228595e-01 2.271359e-01 -1.704650e-01 -4.921922e-01
157 2 3 -2.666646e+00 1.360498e+01 1.702218e+01 -1 -1 1 8.881459e-01 3.389535e-01 -2.732338e-01 -1.471415e-01
158 2 2 -2.785646e+00 1.304662e+01 1.719360e+01 -1 -1 1 8.905552e-01 2.747718e-01 -3.171437e-01 1.755897e-01
159 2 1 -2.816466e+00 1.267411e+01 1.751800e+01 -1 -1 1 8.552195e-01 1.924796e-01 -2.748991e-01 3.949452e-01
160 2 3 -2.702696e+00 1.240560e+01 1.790335e+01 -1 -1 1 -7.465052e-01 -1.367159e-01 1.929551e-01 -6.219381e-01
161 2 1 -2.505415e+00 1.229401e+01 1.839054e+01 -1 -1 1 -4.841200e-01 -5.207381e-02 2.043807e-01 -8.492024e-01
162 2 1 -2.385290e+00 1.238828e+01 1.882989e+01 -1 -1 1 -9.726084e-02 -3.392473e-02 1.189682e-01 -9.875404e-01
163 2 4 -2.430553e+00 1.239664e+01 1.937702e+01 -1 -1 1 5.296250e-02 1.094068e-01 1.884958e-01 -9.745227e-01
164 2 4 -2.701561e+00 1.243517e+01 1.981703e+01 -1 -1 1 3.351046e-01 2.231027e-01 6.640957e-02 -9.129731e-01
165 2 3 -3.134858e+00 1.242976e+01 -1.985623e+01 -1 -1 2 6.287562e-01 2.340390e-01 7.759508e-02 -7.374757e-01
166 2 3 -3.493529e+00 1.222132e+01 -1.956548e+01 -1 -1 2 8.459464e-01 2.625744e-01 2.747574e-02 -4.633299e-01
167 2 4 -3.643926e+00 1.180307e+01 -1.928069e+01 -1 -1 2 8.820332e-01 3.971357e-01 3.754861e-02 -2.507804e-01
168 2 2 -3.618097e+00 1.130112e+01 -1.912195e+01 -1 -1 2 9.194043e-01 3.832378e-01 -5.703393e-02 6.761429e-02
169 2 2 -3.413749e+00 1.085862e+01 -1.897807e+01 -1 -1 2 8.471845e-01 2.695342e-01 -1.980039e-01 4.128246e-01
170 2 1 -3.203355e+00 1.051932e+01 -1.867271e+01 -1 -1 2 7.110617e-01 2.653045e-01 -2.154772e-01 6.144708e-01
171 2 1 -2.945780e+00 1.019296e+01 -1.830448e+01 -1 -1 2 -5.715739e-01 -2.459144e-01 1.057390e-01 -7.756602e-01
172 2 4 -2.584222e+00 1.015429e+01 -1.790788e+01 -1 -1 2 -2.522831e-01 -1.438392e-01 2.106102e-01 -9.334382e-01
173 2 4 -2.408393e+00 1.024918e+01 -1.742665e+01 -1 -1 2 1.221201e-02 -9.269527e-02 1.537013e-01 -9.836841e-01
174 2 1 -2.320470e+00 1.031763e+01 -1.694526e+01 -1 -1 2 1.967190e-01 -3.805863e-02 1.044152e-01 -9.741410e-01
175 2 1 -2.470237e+00 1.035743e+01 -1.640330e+01 -1 -1 2 4.856938e-01 8.913883e-02 1.251594e-01 -8.605178e-01
176 2 2 -2.739358e+00 1.027608e+01 -1.588285e+01 -1 -1 2 5.646990e-01 2.673949e-01 1.106511e-01 -7.728980e-01
177 2 2 -3.171737e+00 1.000036e+01 -1.567957e+01 -1 -1 2 7.512587e-01 3.456868e-01 -5.615682e-02 -5.594259e-01
178 2 1 -3.559405e+00 9.657588e+00 -1.560082e+01 -1 -1 2 8.599219e-01 3.866472e-01 -1.985780e-01 -2.675913e-01
179 2 4 -3.686710e+00 9.176076e+00 -1.553630e+01 -1 -1 2 8.317366e-01 4.059542e-01 -3.485023e-01 1.481942e-01
180 2 1 -3.661486e+00 8.614372e+00 -1.534329e+01 -1 -1 2 7.806364e-01 1.840064e-01 -4.108211e-01 4.335603e-01
181 2 4 -3.692569e+00 8.178920e+00 -1.503539e+01 -1 -1 2 -7.165161e-01 -1.974491e-01 2.624093e-01 -6.154348e-01
182 2 2 -3.536590e+00 7.909373e+00 -1.452493e+01 -1 -1 2 -4.848182e-01 1.424156e-02 3.074650e-01 -8.186658e-01
183 2 3 -3.652168e+00 7.695773e+00 -1.396522e+01 -1 -1 2 -3.957003e-01 1.086728e-01 2.448673e-01 -8.784369e-01
184 2 4 -3.699114e+00 7.832946e+00 -1.341272e+01 -1 -1 2 -1.392380e-01 2.262715e-01 1.633515e-01 -9.501212e-01
185 2 3 -3.952587e+00 8.036954e+00 -1.296612e+01 -1 -1 2 -2.659146e-01 -3.316941e-01 -1.626225e-01 8.904058e-01
186 2 1 -4.359316e+00 7.994533e+00 -1.269550e+01 -1 -1 2 -4.259474e-01 -4.480273e-01 1.477484e-01 7.720173e-01
187 2 1 -4.841630e+00 7.867897e+00 -1.241838e+01 -1 -1 2 5.022570e-01 5.544514e-01 -1.236174e-01 -6.519511e-01
188 2 2 -5.276325e+00 7.753626e+00 -1.252808e+01 -1 -1 2 7.163563e-01 4.539486e-01 -3.349561e-01 -4.105712e-01
189 2 4 -5.752447e+00 7.494920e+00 -1.258165e+01 -1 -1 2 -7.338874e-01 -4.805287e-01 4.596288e-01 1.387182e-01
190 2 4 -5.927243e+00 7.002952e+00 -1.266914e+01 -1 -1 2 -7.718056e-01 -3.213046e-01 5.408143e-01 -9.273282e-02
191 2 1 -6.154802e+00 6.463205e+00 -1.266073e+01 -1 -1 2 7.476009e-01 2.014893e-01 -5.397110e-01 3.304647e-01
192 2 4 -6.259257e+00 6.020081e+00 -1.247329e+01 -1 -1 2 -5.716407e-01 -9.764266e-03 5.705929e-01 -5.895382e-01
193 2 4 -6.474397e+00 5.633189e+00 -1.214085e+01 -1 -1 2 5.060487e-01 -1.514026e-01 -4.790748e-01 7.010558e-01
194 2 1 -6.720062e+00 5.529491e+00 -1.161717e+01 -1 -1 2 -2.982697e-01 3.089700e-01 3.429199e-01 -8.354512e-01
195 2 3 -6.955472e+00 5.641767e+00 -1.118416e+01 -1 -1 2 -1.778582e-02 -3.767059e-01 -1.970123e-01 9.049655e-01
196 2 4 -7.451505e+00 5.741926e+00 -1.088720e+01 -1 -1 2 -1.523118e-01 -5.355771e-01 -7.892196e-02 8.268794e-01
197 2 2 -8.003544e+00 5.893291e+00 -1.089170e+01 -1 -1 2 4.286222e-01 5.932645e-01 -1.812221e-01 -6.568705e-01
198 2 4 -8.580098e+00 5.745138e+00 -1.104778e+01 -1 -1 2 -6.337263e-01 -5.295870e-01 1.902532e-01 5.307845e-01
199 2 3 -9.079058e+00 5.513975e+00 -1.107154e+01 -1 -1 2 -7.312738e-01 -5.481429e-01 2.599023e-01 3.118153e-01
200 2 4 -9.385098e+00 5.166120e+00 -1.118680e+01 -1 -1 2 -8.464970e-01 -3.368354e-01 4.117863e-01 2.041449e-02
