ITEM: TIMESTEP
307000000
ITEM: NUMBER OF ATOMS
200
ITEM: BOX BOUNDS pp pp pp
-2.0000000000000000e+01 2.0000000000000000e+01
-2.0000000000000000e+01 2.0000000000000000e+01
-2.0000000000000000e+01 2.0000000000000000e+01
ITEM: ATOMS id mol type x y z ix iy iz c_quat[1] c_quat[2] c_quat[3] c_quat[4]
1 1 1 1.469855e+01 -1.541417e+01 1.497897e+01 -1 0 1 5.016555e-01 -2.947097e-01 -6.840323e-01 4.399861e-01
2 1 2 1.431889e+01 -1.528756e+01 1.520843e+01 -1 0 1 2.190774e-01 4.714303e-01 3.895633e-01 7.602624e-01
3 1 1 1.500951e+01 -1.507572e+01 1.544139e+01 -1 0 1 -1.066975e-01 7.055611e-01 6.018896e-01 -3.585081e-01
4 1 3 1.616045e+01 -1.472237e+01 1.576544e+01 -1 0 1 -6.496182e-01 6.060260e-01 2.021365e-03 -4.590475e-01
5 1 1 1.652981e+01 -1.571603e+01 1.558865e+01 -1 0 1 -6.748056e-01 -7.181850e-01 1.617532e-01 5.180361e-02
6 1 2 1.651594e+01 -1.619412e+01 1.533902e+01 -1 0 1 -6.618990e-01 -5.877040e-01 3.956953e-01 -2.447835e-01
7 1 4 1.667384e+01 -1.672605e+01 1.529488e+01 -1 0 1 -5.541862e-01 -4.717341e-01 4.972618e-01 -4.723085e-01
8 1 1 1.697557e+01 -1.718115e+01 1.537822e+01 -1 0 1 -4.201991e-01 -2.752926e-01 6.339726e-01 -5.879842e-01
9 1 1 1.697766e+01 -1.767258e+01 1.561280e+01 -1 0 1 3.472036e-01 8.318028e-02 -5.990401e-01 7.167158e-01
10 1 4 1.690589e+01 -1.807227e+01 1.607848e+01 -1 0 1 -6.915001e-02 1.482219e-01 6.285638e-01 -7.603658e-01
11 1 1 1.657219e+01 -1.834248e+01 1.634527e+01 -1 0 1 1.834874e-01 4.134298e-01 4.533943e-01 -7.680115e-01
12 1 1 1.623453e+01 -1.861577e+01 1.662201e+01 -1 0 1 -1.667753e-01 -5.380360e-01 -2.572517e-01 7.851909e-01
13 1 3 1.577938e+01 -1.862203e+01 1.676620e+01 -1 0 1 3.073432e-01 6.257521e-01 -3.375070e-02 -7.161252e-01
14 1 4 1.520537e+01 -1.859674e+01 1.667918e+01 -1 0 1 -4.929603e-01 -6.633081e-01 1.858285e-01 5.314887e-01
15 1 4 1.475424e+01 -1.881536e+01 1.638055e+01 -1 0 1 -5.752333e-01 -6.415163e-01 4.235862e-01 2.795322e-01
16 1 2 1.440264e+01 -1.938799e+01 1.619764e+01 -1 0 1 7.253352e-01 6.113479e-01 -3.088913e-01 -6.876617e-02
17 1 1 1.440781e+01 -1.978078e+01 1.601854e+01 -1 0 1 6.660117e-01 4.601992e-01 -5.641832e-01 1.623035e-01
18 1 2 1.439093e+01 1.970741e+01 1.595405e+01 -1 -1 1 -5.953057e-01 -1.940991e-01 6.657083e-01 -4.059176e-01
19 1 3 1.431487e+01 1.917688e+01 1.620559e+01 -1 -1 1 -4.588122e-01 9.766644e-03 6.481306e-01 -6.077192e-01
20 1 1 1.412834e+01 1.877572e+01 1.653518e+01 -1 -1 1 -3.303641e-01 2.988222e-01 5.457367e-01 -7.097439e-01
21 1 4 1.372207e+01 1.858409e+01 1.689564e+01 -1 -1 1 2.014043e-01 -4.639435e-01 -4.563600e-01 7.320712e-01
22 1 1 1.325917e+01 1.857415e+01 1.715765e+01 -1 -1 1 -5.037385e-02 -5.999960e-01 -2.692079e-01 7.516611e-01
23 1 4 1.270293e+01 1.859601e+01 1.719338e+01 -1 -1 1 -2.815290e-01 -6.817849e-01 -1.312756e-01 6.623274e-01
24 1 3 1.214492e+01 1.842828e+01 1.706481e+01 -1 -1 1 -4.607201e-01 -7.062164e-01 9.708280e-03 5.374953e-01
25 1 3 1.173347e+01 1.823771e+01 1.681503e+01 -1 -1 1 -6.645039e-01 -6.348981e-01 2.296100e-01 3.203406e-01
26 1 4 1.139601e+01 1.784685e+01 1.659041e+01 -1 -1 1 -7.424130e-01 -5.686714e-01 3.371810e-01 1.083734e-01
27 1 4 1.123615e+01 1.738044e+01 1.654915e+01 -1 -1 1 -7.655658e-01 -3.617485e-01 4.680764e-01 -2.528863e-01
28 1 1 1.098445e+01 1.693607e+01 1.672728e+01 -1 -1 1 -7.682542e-01 -4.179884e-01 3.700571e-01 -3.132554e-01
29 1 1 1.108695e+01 1.651706e+01 1.686435e+01 -1 -1 1 -5.728691e-01 -1.681464e-01 5.592481e-01 -5.751429e-01
30 1 4 1.105890e+01 1.607265e+01 1.723437e+01 -1 -1 1 4.638759e-01 3.763380e-02 -5.346170e-01 7.053988e-01
31 1 4 1.096367e+01 1.588799e+01 1.769620e+01 -1 -1 1 2.247798e-01 -1.388196e-01 -3.746822e-01 8.887162e-01
32 1 3 1.072763e+01 1.560601e+01 1.819491e+01 -1 -1 1 1.383978e-01 -3.253140e-01 -2.587784e-01 8.989163e-01
33 1 3 1.035323e+01 1.559184e+01 1.854689e+01 -1 -1 1 -2.318040e-02 -4.992197e-01 -1.863327e-01 8.458857e-01
34 1 1 9.837620e+00 1.560433e+01 1.870351e+01 -1 -1 1 -3.635587e-01 -6.038626e-01 -4.021920e-02 7.082072e-01
35 1 2 9.285220e+00 1.553949e+01 1.858753e+01 -1 -1 1 -5.182261e-01 -6.415970e-01 1.399087e-01 5.479238e-01
36 1 2 8.864192e+00 1.539896e+01 1.839796e+01 -1 -1 1 -6.006693e-01 -6.304069e-01 3.482497e-01 3.471394e-01
37 1 1 8.537015e+00 1.505362e+01 1.810596e+01 -1 -1 1 -7.186293e-01 -4.259406e-01 5.313675e-01 1.406953e-01
38 1 1 8.270273e+00 1.458285e+01 1.800108e+01 -1 -1 1 -7.427589e-01 -2.793301e-01 5.900726e-01 -1.486550e-01
39 1 4 8.158837e+00 1.410765e+01 1.804858e+01 -1 -1 1 6.343544e-01 1.315183e-01 -6.458529e-01 4.039449e-01
40 1 4 8.003682e+00 1.367953e+01 1.826100e+01 -1 -1 1 5.084627e-01 -5.699609e-02 -6.385483e-01 5.748680e-01
41 1 2 7.637340e+00 1.336924e+01 1.856364e+01 -1 -1 1 3.470030e-01 -3.454526e-01 -5.622136e-01 6.664587e-01
42 1 4 7.179567e+00 1.318059e+01 1.879564e+01 -1 -1 1 -3.197747e-01 4.995270e-01 4.444109e-01 -6.713537e-01
43 1 3 6.688513e+00 1.325901e+01 1.909636e+01 -1 -1 1 1.940890e-01 -6.618055e-01 -2.721394e-01 6.710314e-01
44 1 2 6.286393e+00 1.347467e+01 1.927632e+01 -1 -1 1 1.001640e-01 -6.652421e-01 4.093838e-02 7.387450e-01
45 1 1 5.882474e+00 1.381580e+01 1.907418e+01 -1 -1 1 -2.514993e-01 -6.526548e-01 2.067322e-01 6.841429e-01
46 1 3 5.355379e+00 1.386727e+01 1.886934e+01 -1 -1 1 -4.228889e-01 -6.618418e-01 3.183976e-01 5.308044e-01
47 1 4 4.986980e+00 1.385959e+01 1.849704e+01 -1 -1 1 -6.087142e-01 -4.450396e-01 5.345911e-01 3.816007e-01
48 1 1 4.685193e+00 1.365399e+01 1.818260e+01 -1 -1 1 6.231831e-01 2.539664e-01 -7.212224e-01 -1.642623e-01
49 1 4 4.273514e+00 1.329573e+01 1.798170e+01 -1 -1 1 6.799140e-01 1.055238e-01 -7.231581e-01 6.019966e-02
50 1 4 3.915785e+00 1.296959e+01 1.804468e+01 -1 -1 1 6.731090e-01 -3.450188e-02 -6.576715e-01 3.364551e-01
51 1 4 3.544426e+00 1.267447e+01 1.823471e+01 -1 -1 1 5.792901e-01 -2.209816e-01 -5.672100e-01 5.420913e-01
52 1 1 3.153450e+00 1.243637e+01 1.863747e+01 -1 -1 1 4.871316e-01 -4.182380e-01 -4.799389e-01 5.978615e-01
53 1 3 2.813226e+00 1.247892e+01 1.891667e+01 -1 -1 1 -2.082629e-01 4.778494e-01 3.015583e-01 -7.983415e-01
54 1 4 2.355258e+00 1.251071e+01 1.915874e+01 -1 -1 1 -1.052312e-01 5.794693e-01 1.494796e-01 -7.942277e-01
55 1 4 1.959590e+00 1.276978e+01 1.939453e+01 -1 -1 1 -4.783356e-02 -6.032276e-01 1.046046e-01 7.892314e-01
56 1 4 1.516256e+00 1.303029e+01 1.934345e+01 -1 -1 1 -3.429213e-01 -5.680651e-01 3.028334e-01 6.841045e-01
57 1 1 1.020860e+00 1.309268e+01 1.913055e+01 -1 -1 1 5.516992e-01 4.619475e-01 -4.706012e-01 -5.106534e-01
58 1 1 5.189839e-01 1.295160e+01 1.887926e+01 -1 -1 1 -6.833952e-01 -4.003886e-01 5.427592e-01 2.794143e-01
59 1 3 1.012178e-01 1.257051e+01 1.873657e+01 -1 -1 1 7.765996e-01 2.082964e-01 -5.945553e-01 -3.106583e-03
60 1 4 -1.953935e-01 1.218127e+01 1.881649e+01 -1 -1 1 7.324752e-01 -1.009856e-01 -6.288695e-01 2.404272e-01
61 1 2 -6.018048e-01 1.203608e+01 1.917278e+01 -1 -1 1 -7.114443e-01 1.776403e-01 5.014247e-01 -4.591995e-01
62 1 3 -9.276939e-01 1.200203e+01 1.964640e+01 -1 -1 1 5.407497e-01 -5.088192e-01 -3.696717e-01 5.586016e-01
63 1 2 -1.436392e+00 1.205328e+01 1.983071e+01 -1 -1 1 -5.803715e-01 5.916011e-01 2.636844e-01 -4.936067e-01
64 1 4 -1.631769e+00 1.239822e+01 -1.984974e+01 -1 -1 2 -3.782545e-01 5.874297e-01 -5.097903e-03 -7.154187e-01
65 1 2 -1.846412e+00 1.282572e+01 -1.971298e+01 -1 -1 2 -1.894475e-01 5.551637e-01 -1.849083e-01 -7.884870e-01
66 1 1 -2.068655e+00 1.331546e+01 -1.968360e+01 -1 -1 2 4.204794e-02 4.827911e-01 -3.623009e-01 -7.961675e-01
67 1 2 -2.303525e+00 1.380023e+01 -1.992333e+01 -1 -1 2 -2.670680e-01 -3.590541e-01 5.440257e-01 7.097823e-01
68 1 1 -3.073315e+00 1.452744e+01 -1.908488e+01 -1 -1 2 3.578618e-02 1.619026e-01 7.857506e-01 -5.959051e-01
69 1 1 -3.454488e+00 1.414009e+01 -1.905003e+01 -1 -1 2 3.122525e-01 5.422432e-01 5.866619e-01 -5.140998e-01
70 1 2 -3.704310e+00 1.386336e+01 -1.914787e+01 -1 -1 2 5.600316e-01 7.698701e-01 1.383883e-01 -2.729712e-01
71 1 3 -4.722526e+00 1.396831e+01 -1.821012e+01 -1 -1 2 3.407787e-02 6.209989e-01 7.520274e-01 -2.182976e-01
72 1 4 -4.245262e+00 1.458383e+01 -1.840875e+01 -1 -1 2 5.398306e-02 9.638026e-01 -2.226818e-01 -1.363202e-01
73 1 1 -5.170793e+00 1.349679e+01 -1.864270e+01 -1 -1 2 7.182002e-01 8.110437e-02 -5.590036e-01 -4.063565e-01
74 1 1 -5.678234e+00 1.336718e+01 -1.852041e+01 -1 -1 2 8.682684e-01 -1.452668e-01 -4.580636e-01 -1.232290e-01
75 1 3 -5.877849e+00 1.365668e+01 -1.793456e+01 -1 -1 2 -4.254990e-01 -4.746721e-01 2.162789e-01 -7.395001e-01
76 1 1 -5.948634e+00 1.261785e+01 -1.754385e+01 -1 -1 2 -4.874671e-01 1.000394e-01 7.830957e-01 -3.730001e-01
77 1 4 -6.444721e+00 1.231031e+01 -1.752630e+01 -1 -1 2 4.735843e-01 -3.141294e-01 -7.122181e-01 4.120510e-01
78 1 1 -6.844574e+00 1.229117e+01 -1.726867e+01 -1 -1 2 2.230981e-01 -5.850380e-01 -5.024349e-01 5.962524e-01
79 1 4 -7.226041e+00 1.250243e+01 -1.713318e+01 -1 -1 2 2.226776e-01 6.280934e-01 1.864459e-01 -7.219081e-01
80 1 2 -7.720154e+00 1.242082e+01 -1.711509e+01 -1 -1 2 5.058718e-01 6.771039e-01 -5.143447e-02 -5.319572e-01
81 1 4 -8.105045e+00 1.214183e+01 -1.727433e+01 -1 -1 2 8.496418e-01 4.218056e-01 -2.448363e-01 -2.006091e-01
82 1 4 -8.278725e+00 1.163957e+01 -1.708368e+01 -1 -1 2 -9.091380e-01 -2.148624e-01 2.941853e-01 -2.018842e-01
83 1 4 -9.075204e+00 1.142022e+01 -1.711606e+01 -1 -1 2 -4.102665e-01 -6.893843e-01 2.085173e-01 5.594204e-01
84 1 4 -9.389661e+00 1.139466e+01 -1.663184e+01 -1 -1 2 -1.689271e-01 7.682120e-01 -3.079733e-01 -5.352256e-01
85 1 1 -9.567148e+00 1.178069e+01 -1.697599e+01 -1 -1 2 4.613190e-02 6.682504e-01 -5.755944e-01 -4.690463e-01
86 1 1 -9.456148e+00 1.290634e+01 -1.675004e+01 -1 -1 2 -6.661806e-01 6.213044e-01 1.140052e-01 -3.964683e-01
87 1 3 -9.856586e+00 1.331893e+01 -1.677660e+01 -1 -1 2 3.788314e-01 -6.941685e-01 1.529395e-01 -5.926436e-01
88 1 2 -9.986000e+00 1.443644e+01 -1.730374e+01 -1 -1 2 -2.245133e-01 -1.500819e-02 -1.291899e-01 -9.657528e-01
89 1 2 -9.840037e+00 1.488998e+01 -1.700028e+01 -1 -1 2 -1.767724e-01 5.924642e-02 6.314375e-02 9.804357e-01
90 1 3 -9.935176e+00 1.517303e+01 -1.664252e+01 -1 -1 2 -6.193662e-01 1.149608e-01 1.460143e-02 7.765026e-01
91 1 3 -9.630349e+00 1.558170e+01 -1.580471e+01 -1 -1 2 6.584886e-01 -2.924716e-01 -3.753032e-01 5.830957e-01
92 1 2 -9.721168e+00 1.555603e+01 -1.539553e+01 -1 -1 2 -2.305640e-01 3.461444e-01 2.865490e-01 -8.630840e-01
93 1 1 -9.916913e+00 1.591946e+01 -1.479965e+01 -1 -1 2 -3.442603e-01 8.065628e-01 3.271531e-01 -3.520115e-01
94 1 2 -1.031347e+01 1.616110e+01 -1.469927e+01 -1 -1 2 1.116191e-01 -8.260182e-01 -6.915862e-03 5.524376e-01
95 1 3 -1.063674e+01 1.646386e+01 -1.506477e+01 -1 -1 2 1.051168e-01 8.282720e-01 -3.009987e-01 -4.607773e-01
96 1 2 -1.044154e+01 1.721031e+01 -1.444914e+01 -1 -1 2 5.206054e-01 -7.927224e-01 -1.367356e-01 -2.861200e-01
97 1 2 -1.020977e+01 1.823204e+01 -1.480946e+01 -1 -1 2 -1.175398e-01 -7.629038e-01 -5.088024e-02 -6.336982e-01
98 1 4 -9.685398e+00 1.831637e+01 -1.483341e+01 -1 -1 2 -4.106595e-02 5.985020e-01 -1.448959e-01 7.868380e-01
99 1 2 -9.245608e+00 1.814656e+01 -1.436279e+01 -1 -1 2 1.933265e-01 -2.912092e-01 3.348483e-01 -8.750421e-01
100 1 1 -8.259234e+00 1.775532e+01 -1.510303e+01 -1 -1 2 -8.012494e-02 7.499640e-01 -2.431414e-01 -6.099313e-01
101 2 4 3.680966e+00 1.586913e+01 1.222835e+01 -1 -1 1 1.076177e-01 -9.158047e-01 -2.862214e-01 2.603797e-01
102 2 3 3.506721e+00 1.610187e+01 1.214574e+01 -1 -1 1 -5.555591e-01 -7.743603e-01 1.438231e-01 -2.665240e-01
103 2 1 2.531312e+00 1.532198e+01 1.290702e+01 -1 -1 1 -3.596711e-01 5.331519e-02 7.679653e-01 -5.272794e-01
104 2 3 2.223794e+00 1.493361e+01 1.308618e+01 -1 -1 1 1.977195e-02 4.189275e-01 6.906228e-01 -5.891935e-01
105 2 3 1.724803e+00 1.472958e+01 1.307159e+01 -1 -1 1 -4.675332e-01 -6.624261e-01 -3.778263e-01 4.470477e-01
106 2 2 1.498842e+00 1.433556e+01 1.282571e+01 -1 -1 1 -5.676168e-01 -7.977929e-01 -9.416346e-02 1.801966e-01
107 2 3 8.597412e-01 1.462907e+01 1.308016e+01 -1 -1 1 -3.974991e-01 1.252401e-01 -6.493042e-01 6.361710e-01
108 2 4 1.234788e+00 1.501860e+01 1.226035e+01 -1 -1 1 -5.133126e-01 -3.104283e-01 6.800836e-01 4.214625e-01
109 2 3 7.008304e-01 1.495623e+01 1.219354e+01 -1 -1 1 7.036837e-01 -7.166173e-02 -7.019804e-01 -8.317041e-02
110 2 2 3.350855e-01 1.468398e+01 1.225483e+01 -1 -1 1 -6.397401e-01 1.653324e-01 6.663511e-01 -3.455055e-01
111 2 2 -1.558123e-02 1.447318e+01 1.259319e+01 -1 -1 1 3.522256e-01 -4.560452e-01 -5.559954e-01 5.990233e-01
112 2 3 -5.398540e-01 1.453187e+01 1.278502e+01 -1 -1 1 1.538359e-01 -6.939623e-01 -2.858561e-01 6.426796e-01
113 2 3 -9.520705e-01 1.470220e+01 1.327693e+01 -1 -1 1 -5.790351e-01 2.639653e-01 1.243106e-01 -7.613064e-01
114 2 2 -1.047491e+00 1.489472e+01 1.373650e+01 -1 -1 1 3.344140e-01 -3.142840e-01 5.815024e-02 8.865729e-01
115 2 4 -5.882587e-01 1.342866e+01 1.352366e+01 -1 -1 1 9.432676e-01 7.768518e-02 3.106904e-01 8.765159e-02
116 2 4 -2.750489e-01 1.312466e+01 1.370545e+01 -1 -1 1 -8.160458e-01 -2.567036e-01 -2.436809e-01 -4.569378e-01
117 2 1 -8.371679e-01 1.323990e+01 1.295337e+01 -1 -1 1 -4.162158e-01 -7.811605e-01 -4.077322e-01 -2.242925e-01
118 2 1 -1.509823e+00 1.267077e+01 1.406540e+01 -1 -1 1 -8.048943e-01 2.262335e-01 5.202286e-01 1.741430e-01
119 2 1 -1.888895e+00 1.263285e+01 1.438571e+01 -1 -1 1 -7.453907e-01 4.926876e-01 3.712375e-01 -2.526546e-01
120 2 1 -2.873800e+00 1.248504e+01 1.443186e+01 -1 -1 1 5.073963e-01 3.059292e-01 6.035751e-01 -5.335292e-01
121 2 3 -3.299361e+00 1.250701e+01 1.462194e+01 -1 -1 1 3.412480e-01 -3.701042e-01 6.427138e-01 -5.774873e-01
122 2 1 -4.312535e+00 1.278079e+01 1.423341e+01 -1 -1 1 -2.888616e-01 6.850358e-02 -2.907606e-01 9.095738e-01
123 2 4 -4.350013e+00 1.254281e+01 1.470350e+01 -1 -1 1 -6.654231e-01 -1.728711e-01 -3.431520e-01 6.399800e-01
124 2 1 -4.464157e+00 1.310634e+01 1.552354e+01 -1 -1 1 -6.859098e-01 3.276730e-01 -2.835571e-01 5.845969e-01
125 2 4 -4.190028e+00 1.322219e+01 1.595532e+01 -1 -1 1 7.870618e-01 -2.614455e-01 4.328174e-01 -3.533399e-01
126 2 2 -3.902310e+00 1.285534e+01 1.624147e+01 -1 -1 1 -8.599923e-01 2.987058e-02 -5.080639e-01 -3.731002e-02
127 2 4 -3.389978e+00 1.267024e+01 1.642507e+01 -1 -1 1 7.832595e-01 1.239955e-01 5.444202e-01 2.733796e-01
128 2 4 -2.844873e+00 1.265356e+01 1.639908e+01 -1 -1 1 5.933629e-01 2.483459e-01 5.697645e-01 5.114814e-01
129 2 1 -2.931341e+00 1.237306e+01 1.732099e+01 -1 -1 1 2.511745e-01 -9.253433e-01 9.047111e-02 2.691954e-01
130 2 2 -3.594285e+00 1.278998e+01 1.768674e+01 -1 -1 1 -6.588219e-01 2.400652e-01 -9.585394e-02 -7.064944e-01
131 2 3 -3.943598e+00 1.157626e+01 1.757374e+01 -1 -1 1 -4.919443e-01 -7.105457e-01 2.167308e-01 4.540301e-01
132 2 4 -4.085788e+00 1.233086e+01 1.889348e+01 -1 -1 1 4.081179e-01 -5.197186e-01 -4.000466e-01 6.350552e-01
133 2 4 -3.615877e+00 1.195763e+01 1.883130e+01 -1 -1 1 6.475595e-01 1.788256e-01 6.738386e-01 3.076193e-01
134 2 3 -2.957866e+00 1.284125e+01 1.955972e+01 -1 -1 1 -4.393148e-01 -7.153974e-01 -2.770238e-01 -4.674044e-01
135 2 4 -2.556742e+00 1.292989e+01 1.929150e+01 -1 -1 1 -2.194008e-01 -7.905824e-01 -2.352381e-02 -5.712175e-01
136 2 3 -2.129983e+00 1.302532e+01 1.914908e+01 -1 -1 1 1.162448e-01 -7.848398e-01 1.025404e-01 -5.999993e-01
137 2 1 -1.584705e+00 1.313472e+01 1.916679e+01 -1 -1 1 2.104938e-01 -6.830582e-01 3.065727e-01 -6.285993e-01
138 2 3 -1.087851e+00 1.310563e+01 1.920187e+01 -1 -1 1 -1.969310e-01 5.862834e-01 -2.312279e-01 7.510150e-01
139 2 2 -7.615131e-01 1.318095e+01 1.953668e+01 -1 -1 1 -4.197103e-01 5.017308e-01 -5.008105e-01 5.668318e-01
140 2 3 -3.298344e-01 1.305969e+01 1.979130e+01 -1 -1 1 -5.419179e-01 2.745483e-01 -6.442777e-01 4.646015e-01
141 2 1 -2.873421e-02 1.264812e+01 1.993407e+01 -1 -1 1 6.479842e-01 5.766798e-02 6.928961e-01 -3.109436e-01
142 2 2 3.473911e-01 1.221749e+01 1.986243e+01 -1 -1 1 6.206625e-01 2.932659e-01 7.261862e-01 -3.777188e-02
143 2 4 8.290441e-01 1.195360e+01 1.951518e+01 -1 -1 1 4.396363e-01 4.200446e-01 7.562632e-01 2.415542e-01
144 2 4 1.067672e+00 1.192838e+01 1.903007e+01 -1 -1 1 3.184792e-01 6.214610e-01 5.736425e-01 4.281256e-01
145 2 1 1.382399e+00 1.212619e+01 1.857792e+01 -1 -1 1 -1.055141e-01 -7.466969e-01 -3.990658e-01 -5.215909e-01
146 2 1 1.675896e+00 1.239151e+01 1.828772e+01 -1 -1 1 7.371024e-02 -7.569249e-01 -3.823585e-01 -5.248176e-01
147 2 1 1.896117e+00 1.290064e+01 1.808106e+01 -1 -1 1 2.808166e-01 -7.619700e-01 -1.141251e-01 -5.722929e-01
148 2 2 2.409773e+00 1.333008e+01 1.821189e+01 -1 -1 1 3.606601e-01 -6.977505e-01 2.041691e-01 -5.842803e-01
149 2 4 2.818037e+00 1.358104e+01 1.858344e+01 -1 -1 1 -6.052743e-01 5.754798e-01 -3.373755e-01 4.343315e-01
150 2 1 3.301624e+00 1.360353e+01 1.892855e+01 -1 -1 1 -6.565392e-01 4.367432e-01 -5.928096e-01 1.636715e-01
151 2 1 3.798907e+00 1.351269e+01 1.914322e+01 -1 -1 1 -7.076509e-01 1.877279e-01 -6.608426e-01 1.651528e-01
152 2 1 4.279625e+00 1.321614e+01 1.917299e+01 -1 -1 1 -6.932924e-01 -4.158602e-02 -7.193570e-01 -1.190547e-02
153 2 4 4.653155e+00 1.282454e+01 1.909016e+01 -1 -1 1 -6.769061e-01 -2.556026e-01 -6.411125e-01 -2.558128e-01
154 2 1 5.160760e+00 1.271136e+01 1.885034e+01 -1 -1 1 -5.463575e-01 -3.648986e-01 -6.236754e-01 -4.235227e-01
155 2 2 5.535644e+00 1.278787e+01 1.851021e+01 -1 -1 1 -3.421148e-01 -5.403686e-01 -5.817306e-01 -5.025423e-01
156 2 4 5.876675e+00 1.298085e+01 1.812226e+01 -1 -1 1 -1.584870e-01 -6.747641e-01 -2.619232e-01 -6.715441e-01
157 2 3 6.200164e+00 1.340494e+01 1.804510e+01 -1 -1 1 1.197235e-01 -7.125384e-01 -1.757663e-01 -6.686266e-01
158 2 2 6.493564e+00 1.384743e+01 1.808045e+01 -1 -1 1 2.898091e-01 -7.173704e-01 5.100651e-02 -6.314972e-01
159 2 1 6.768491e+00 1.416849e+01 1.824898e+01 -1 -1 1 4.820136e-01 -6.729356e-01 1.863998e-01 -5.292217e-01
160 2 3 7.066574e+00 1.441522e+01 1.859014e+01 -1 -1 1 -6.434387e-01 5.595731e-01 -4.080377e-01 3.261439e-01
161 2 1 7.480146e+00 1.446643e+01 1.896952e+01 -1 -1 1 -7.215202e-01 4.054171e-01 -5.373210e-01 1.622704e-01
162 2 1 8.031040e+00 1.447018e+01 1.918003e+01 -1 -1 1 -6.870989e-01 2.850011e-01 -6.656845e-01 -5.944384e-02
163 2 4 8.615281e+00 1.437687e+01 1.913564e+01 -1 -1 1 -6.053488e-01 2.480215e-02 -7.769011e-01 -1.713547e-01
164 2 4 9.058744e+00 1.431640e+01 1.883905e+01 -1 -1 1 -4.438116e-01 -2.359871e-01 -7.879415e-01 -3.556536e-01
165 2 3 9.398972e+00 1.432361e+01 1.843180e+01 -1 -1 1 -3.229225e-01 -4.298573e-01 -6.686736e-01 -5.136335e-01
166 2 3 9.675564e+00 1.462249e+01 1.793332e+01 -1 -1 1 -1.194784e-01 -5.854597e-01 -5.565030e-01 -5.772922e-01
167 2 4 9.888624e+00 1.495914e+01 1.767729e+01 -1 -1 1 1.431103e-01 -6.796383e-01 -4.813384e-01 -5.347192e-01
168 2 2 9.821667e+00 1.539868e+01 1.749193e+01 -1 -1 1 3.514566e-01 -8.312693e-01 -2.236717e-01 -3.680225e-01
169 2 2 9.788858e+00 1.594449e+01 1.748134e+01 -1 -1 1 5.111162e-01 -7.947830e-01 -7.556214e-02 -3.183874e-01
170 2 1 9.942244e+00 1.649913e+01 1.760411e+01 -1 -1 1 5.939912e-01 -7.576517e-01 2.060278e-01 -1.751883e-01
171 2 1 1.030682e+01 1.691866e+01 1.773969e+01 -1 -1 1 -6.116782e-01 6.331259e-01 -4.513494e-01 1.458940e-01
172 2 4 1.074886e+01 1.710038e+01 1.786216e+01 -1 -1 1 -6.299794e-01 4.223730e-01 -6.458124e-01 -8.748384e-02
173 2 4 1.129730e+01 1.733421e+01 1.778031e+01 -1 -1 1 -5.454287e-01 3.256996e-01 -7.670523e-01 -8.976709e-02
174 2 1 1.185876e+01 1.723506e+01 1.764871e+01 -1 -1 1 -5.122294e-01 3.021311e-02 -8.467499e-01 -1.404376e-01
175 2 1 1.227373e+01 1.733408e+01 1.727006e+01 -1 -1 1 -3.184746e-01 -1.216880e-01 -8.863784e-01 -3.132082e-01
176 2 2 1.252619e+01 1.738876e+01 1.670697e+01 -1 -1 1 -2.240213e-01 -3.604039e-01 -7.440978e-01 -5.159864e-01
177 2 2 1.288538e+01 1.777781e+01 1.646010e+01 -1 -1 1 1.545075e-03 -3.485693e-01 -7.478520e-01 -5.649906e-01
178 2 1 1.286011e+01 1.822611e+01 1.611872e+01 -1 -1 1 1.716587e-01 -5.862201e-01 -4.965828e-01 -6.166724e-01
179 2 4 1.292655e+01 1.887133e+01 1.606581e+01 -1 -1 1 3.662334e-01 -6.804612e-01 -2.560961e-01 -5.807413e-01
180 2 1 1.307848e+01 1.934856e+01 1.623550e+01 -1 -1 1 5.496507e-01 -6.927411e-01 3.865631e-02 -4.652951e-01
181 2 4 1.336152e+01 1.973008e+01 1.659297e+01 -1 -1 1 -7.277679e-01 5.549692e-01 -2.830614e-01 2.867741e-01
182 2 2 1.366978e+01 1.981512e+01 1.697929e+01 -1 -1 1 -7.533016e-01 4.361307e-01 -4.867779e-01 7.330753e-02
183 2 3 1.417273e+01 1.984523e+01 1.713355e+01 -1 -1 1 -7.188199e-01 2.138669e-01 -6.527550e-01 -1.070973e-01
184 2 4 1.472479e+01 1.991464e+01 1.709307e+01 -1 -1 1 -5.739728e-01 7.874432e-02 -7.504248e-01 -3.181466e-01
185 2 3 1.522537e+01 -1.996709e+01 1.690271e+01 -1 0 1 3.896544e-01 8.194743e-02 7.549570e-01 5.210508e-01
186 2 1 1.544589e+01 -1.972661e+01 1.650065e+01 -1 0 1 2.102540e-01 3.305476e-01 7.891853e-01 4.729884e-01
187 2 1 1.555806e+01 -1.952510e+01 1.604077e+01 -1 0 1 -6.800487e-04 -5.855377e-01 -6.272552e-01 -5.135135e-01
188 2 2 1.570785e+01 -1.906815e+01 1.559563e+01 -1 0 1 -1.625208e-01 6.874046e-01 4.080015e-01 5.784433e-01
189 2 4 1.581191e+01 -1.863088e+01 1.551558e+01 -1 0 1 -3.897017e-01 6.826151e-01 3.295535e-01 5.230332e-01
190 2 4 1.571652e+01 -1.818126e+01 1.554686e+01 -1 0 1 -5.450654e-01 7.724892e-01 1.076112e-01 3.075450e-01
191 2 1 1.582606e+01 -1.764476e+01 1.579638e+01 -1 0 1 6.603426e-01 -6.978332e-01 2.883770e-02 -2.759436e-01
192 2 4 1.600269e+01 -1.725909e+01 1.610947e+01 -1 0 1 -7.450754e-01 6.032241e-01 -2.808288e-01 4.602792e-02
193 2 4 1.640846e+01 -1.707613e+01 1.641421e+01 -1 0 1 6.445243e-01 -5.434775e-01 4.295901e-01 3.235320e-01
194 2 1 1.682504e+01 -1.665672e+01 1.643640e+01 -1 0 1 -5.175433e-01 4.052954e-01 -6.478650e-01 -3.849098e-01
195 2 3 1.724564e+01 -1.645624e+01 1.630007e+01 -1 0 1 3.167771e-01 -8.135463e-02 7.662319e-01 5.531025e-01
196 2 4 1.744160e+01 -1.604256e+01 1.597535e+01 -1 0 1 -6.870377e-02 1.046031e-01 6.341942e-01 7.629782e-01
197 2 2 1.807690e+01 -1.627918e+01 1.610121e+01 -1 0 1 -1.244641e-01 -8.120918e-01 -5.525778e-01 -1.402620e-01
198 2 4 1.862481e+01 -1.661045e+01 1.620614e+01 -1 0 1 3.414115e-01 4.069705e-01 -5.905022e-01 -6.075528e-01
199 2 3 1.927267e+01 -1.671937e+01 1.669089e+01 -1 0 1 6.731517e-01 -3.965052e-01 3.129300e-03 -6.242120e-01
200 2 4 1.939277e+01 -1.656840e+01 1.720303e+01 -1 0 1 -8.281580e-01 2.935197e-01 -3.034519e-01 3.686700e-01
