ITEM: TIMESTEP
397000000
ITEM: NUMBER OF ATOMS
200
ITEM: BOX BOUNDS pp pp pp
-2.0000000000000000e+01 2.0000000000000000e+01
-2.0000000000000000e+01 2.0000000000000000e+01
-2.0000000000000000e+01 2.0000000000000000e+01
ITEM: ATOMS id mol type x y z ix iy iz c_quat[1] c_quat[2] c_quat[3] c_quat[4]
1 1 1 -1.096371e+01 -1.990214e+01 -1.326487e+01 -1 0 2 6.677126e-01 1.568707e-01 6.752382e-01 -2.713023e-01
2 1 2 -1.074471e+01 1.961347e+01 -1.340155e+01 -1 -1 2 -6.555066e-01 -4.477635e-01 -6.079803e-01 -1.337152e-02
3 1 1 -1.060250e+01 1.913894e+01 -1.366086e+01 -1 -1 2 -5.411324e-01 -6.899423e-01 -4.800823e-01 -2.600543e-02
4 1 3 -1.040299e+01 1.887967e+01 -1.415543e+01 -1 -1 2 -4.666724e-01 -7.607284e-01 -3.456763e-01 -2.898569e-01
5 1 1 -1.011792e+01 1.887250e+01 -1.458037e+01 -1 -1 2 -2.052453e-01 -8.895692e-01 -1.598426e-01 -3.754881e-01
6 1 2 -9.729855e+00 1.901056e+01 -1.486586e+01 -1 -1 2 3.733221e-02 -8.516242e-01 8.613215e-02 -5.156780e-01
7 1 4 -9.236788e+00 1.921681e+01 -1.500534e+01 -1 -1 2 1.389133e-01 -7.669370e-01 2.524785e-01 -5.733807e-01
8 1 1 -8.699561e+00 1.937548e+01 -1.485293e+01 -1 -1 2 3.273670e-01 -6.249034e-01 4.794407e-01 -5.219801e-01
9 1 1 -8.264911e+00 1.950260e+01 -1.462515e+01 -1 -1 2 -4.370779e-01 5.309912e-01 -6.413801e-01 3.400628e-01
10 1 4 -7.722358e+00 1.956278e+01 -1.465090e+01 -1 -1 2 4.884471e-01 -3.396715e-01 7.034399e-01 -3.888637e-01
11 1 1 -7.340169e+00 1.917779e+01 -1.457198e+01 -1 -1 2 5.380986e-01 2.043991e-02 8.281365e-01 -1.556343e-01
12 1 1 -6.971441e+00 1.875116e+01 -1.465682e+01 -1 -1 2 -5.124577e-01 -2.752742e-01 -8.020060e-01 1.356382e-01
13 1 3 -6.883566e+00 1.832334e+01 -1.493774e+01 -1 -1 2 4.799036e-01 5.203310e-01 7.061164e-01 -1.865039e-02
14 1 4 -6.809491e+00 1.807718e+01 -1.544114e+01 -1 -1 2 -3.466263e-01 -7.333863e-01 -5.741949e-01 -1.108824e-01
15 1 4 -6.775522e+00 1.813729e+01 -1.597445e+01 -1 -1 2 -2.450735e-01 -9.040683e-01 -2.791842e-01 -2.113187e-01
16 1 2 -6.550990e+00 1.824858e+01 -1.644963e+01 -1 -1 2 1.446260e-01 9.237962e-01 7.373692e-02 3.467660e-01
17 1 1 -6.143560e+00 1.849454e+01 -1.676249e+01 -1 -1 2 -6.262103e-02 8.950899e-01 -1.366791e-01 4.197756e-01
18 1 2 -5.531951e+00 1.858833e+01 -1.696992e+01 -1 -1 2 1.040652e-01 -7.480075e-01 4.230397e-01 -5.006921e-01
19 1 3 -4.933538e+00 1.852513e+01 -1.701670e+01 -1 -1 2 1.089652e-01 -5.574200e-01 7.319517e-01 -3.763725e-01
20 1 1 -4.514714e+00 1.816960e+01 -1.717581e+01 -1 -1 2 1.595320e-01 -2.735171e-01 8.524535e-01 -4.160060e-01
21 1 4 -4.311369e+00 1.768838e+01 -1.715476e+01 -1 -1 2 -3.125614e-01 -6.676201e-02 -8.782685e-01 3.556580e-01
22 1 1 -4.207011e+00 1.716410e+01 -1.743831e+01 -1 -1 2 -2.899908e-01 -3.313428e-01 -8.724904e-01 2.118437e-01
23 1 4 -4.228946e+00 1.678150e+01 -1.774777e+01 -1 -1 2 -1.849609e-01 -5.691707e-01 -7.667767e-01 2.321370e-01
24 1 3 -4.511459e+00 1.655462e+01 -1.818211e+01 -1 -1 2 -1.853806e-01 -8.304190e-01 -4.972274e-01 1.697151e-01
25 1 3 -4.637929e+00 1.649119e+01 -1.881145e+01 -1 -1 2 -2.058199e-01 -9.280788e-01 -2.798649e-01 -1.341026e-01
26 1 4 -4.533260e+00 1.668579e+01 -1.934217e+01 -1 -1 2 -1.040825e-01 -9.579619e-01 6.161973e-02 -2.601514e-01
27 1 4 -4.209957e+00 1.669124e+01 -1.981693e+01 -1 -1 2 -3.401763e-02 -9.060124e-01 1.422368e-01 -3.971813e-01
28 1 1 -3.773593e+00 1.691601e+01 2.005741e+01 -1 -1 1 1.091489e-01 -7.758906e-01 5.017800e-01 -3.664659e-01
29 1 1 -3.254434e+00 1.687168e+01 2.002311e+01 -1 -1 1 2.739678e-01 -5.577381e-01 7.024966e-01 -3.469415e-01
30 1 4 -2.772394e+00 1.657937e+01 2.001762e+01 -1 -1 1 -3.090049e-01 2.483726e-01 -8.522524e-01 3.413105e-01
31 1 4 -2.464320e+00 1.613490e+01 2.000900e+01 -1 -1 1 -3.903580e-01 -1.194899e-02 -8.794280e-01 2.721842e-01
32 1 3 -2.236597e+00 1.571540e+01 1.982013e+01 -1 -1 1 -4.345651e-01 -2.876876e-01 -8.380042e-01 1.616726e-01
33 1 3 -2.158730e+00 1.536807e+01 1.934900e+01 -1 -1 1 -3.150861e-01 -5.407574e-01 -7.706950e-01 1.197142e-01
34 1 1 -2.178653e+00 1.511933e+01 1.883754e+01 -1 -1 1 -2.832292e-01 -7.500127e-01 -5.972193e-01 -2.431590e-02
35 1 2 -2.200124e+00 1.505453e+01 1.832911e+01 -1 -1 1 -3.204832e-01 -8.875484e-01 -2.619717e-01 -2.022849e-01
36 1 2 -1.943442e+00 1.515017e+01 1.780686e+01 -1 -1 1 -1.684907e-01 -9.294180e-01 -8.299230e-02 -3.176561e-01
37 1 1 -1.610957e+00 1.523566e+01 1.733641e+01 -1 -1 1 -1.340585e-01 -9.029449e-01 5.520357e-02 -4.045632e-01
38 1 1 -1.222974e+00 1.538592e+01 1.706067e+01 -1 -1 1 7.883809e-04 -8.385455e-01 3.330650e-01 -4.311712e-01
39 1 4 -7.177222e-01 1.538803e+01 1.694284e+01 -1 -1 1 -1.644181e-01 6.897336e-01 -4.529922e-01 5.404001e-01
40 1 4 -1.480932e-01 1.537930e+01 1.704611e+01 -1 -1 1 -2.584762e-01 4.776563e-01 -6.434456e-01 5.394556e-01
41 1 2 2.569697e-01 1.502681e+01 1.722530e+01 -1 -1 1 -4.429409e-01 1.825443e-01 -8.055712e-01 3.486202e-01
42 1 4 5.536212e-01 1.469489e+01 1.731977e+01 -1 -1 1 4.637421e-01 6.616082e-02 7.913807e-01 -3.927883e-01
43 1 3 7.730519e-01 1.423690e+01 1.718953e+01 -1 -1 1 -4.798719e-01 -2.622967e-01 -7.766862e-01 3.125410e-01
44 1 2 6.738625e-01 1.376488e+01 1.693469e+01 -1 -1 1 -5.531631e-01 -5.500583e-01 -6.086370e-01 1.449395e-01
45 1 1 7.679360e-01 1.333724e+01 1.643201e+01 -1 -1 1 -4.085902e-01 -7.345449e-01 -5.415589e-01 -1.455315e-02
46 1 3 7.645352e-01 1.320892e+01 1.593798e+01 -1 -1 1 -3.398163e-01 -8.926193e-01 -2.284923e-01 -1.885389e-01
47 1 4 1.091190e+00 1.319196e+01 1.545746e+01 -1 -1 1 -2.177518e-01 -8.972030e-01 -1.389993e-01 -3.581761e-01
48 1 1 1.399343e+00 1.346452e+01 1.509369e+01 -1 -1 1 -8.219756e-02 9.139811e-01 -1.442998e-01 3.702156e-01
49 1 4 1.802589e+00 1.363620e+01 1.486708e+01 -1 -1 1 -2.635206e-01 8.013928e-01 -2.842889e-01 4.555286e-01
50 1 4 2.341817e+00 1.377251e+01 1.484525e+01 -1 -1 1 -3.050599e-01 5.960620e-01 -6.328044e-01 3.888537e-01
51 1 4 2.912349e+00 1.361557e+01 1.478736e+01 -1 -1 1 -2.482033e-01 3.879646e-01 -8.724258e-01 1.635597e-01
52 1 1 3.254948e+00 1.336684e+01 1.462146e+01 -1 -1 1 -2.595813e-01 9.781825e-02 -9.436503e-01 1.804804e-01
53 1 3 3.498820e+00 1.306438e+01 1.432017e+01 -1 -1 1 2.557186e-01 1.684488e-01 9.288949e-01 -2.082960e-01
54 1 4 3.485381e+00 1.270590e+01 1.396335e+01 -1 -1 1 2.045604e-01 4.267449e-01 8.625837e-01 -1.788663e-01
55 1 4 3.305222e+00 1.245438e+01 1.349628e+01 -1 -1 1 -1.822370e-01 -7.039096e-01 -6.823107e-01 7.584885e-02
56 1 4 3.087362e+00 1.237072e+01 1.302454e+01 -1 -1 1 -1.165843e-01 -8.825235e-01 -4.545641e-01 3.052616e-02
57 1 1 2.911131e+00 1.259934e+01 1.257580e+01 -1 -1 1 2.127938e-02 9.906472e-01 1.305162e-01 -3.362918e-02
58 1 1 2.914220e+00 1.290998e+01 1.209732e+01 -1 -1 1 -1.567917e-01 -9.664765e-01 2.024264e-01 -1.905267e-02
59 1 3 3.093031e+00 1.293809e+01 1.159914e+01 -1 -1 1 4.063032e-03 9.166431e-01 -3.319044e-01 2.226846e-01
60 1 4 3.400058e+00 1.307458e+01 1.126081e+01 -1 -1 1 -1.780264e-01 8.134287e-01 -4.630422e-01 3.036977e-01
61 1 2 3.924006e+00 1.312436e+01 1.111891e+01 -1 -1 1 2.567115e-01 -5.618546e-01 7.489454e-01 -2.397902e-01
62 1 3 4.385194e+00 1.289263e+01 1.095804e+01 -1 -1 1 -2.578705e-01 2.515420e-01 -9.124681e-01 1.939882e-01
63 1 2 4.662912e+00 1.254687e+01 1.063788e+01 -1 -1 1 1.995800e-01 4.386954e-03 9.771726e-01 -7.267931e-02
64 1 4 4.762309e+00 1.201024e+01 1.034253e+01 -1 -1 1 2.461894e-01 2.207182e-01 9.368704e-01 -1.137898e-01
65 1 2 4.693015e+00 1.158414e+01 9.912930e+00 -1 -1 1 2.418372e-01 5.537184e-01 7.963406e-01 -2.742910e-02
66 1 1 4.540087e+00 1.146871e+01 9.435590e+00 -1 -1 1 1.333330e-01 7.826727e-01 6.077263e-01 1.773444e-02
67 1 2 4.321415e+00 1.150151e+01 8.971312e+00 -1 -1 1 -1.293980e-01 -9.483495e-01 -2.648545e-01 -1.172241e-01
68 1 1 4.431573e+00 1.157270e+01 8.541591e+00 -1 -1 1 5.787780e-02 9.612626e-01 -1.014085e-01 2.496814e-01
69 1 1 4.736659e+00 1.175588e+01 8.227864e+00 -1 -1 1 -2.437483e-01 8.120235e-01 -4.311785e-01 3.086901e-01
70 1 2 4.259332e+00 1.099979e+01 7.193292e+00 -1 -1 1 -2.286737e-01 -8.748534e-02 8.166021e-01 5.227003e-01
71 1 3 4.806029e+00 1.070655e+01 6.790653e+00 -1 -1 1 2.991159e-01 4.189264e-02 -9.165523e-01 -2.621192e-01
72 1 4 4.317258e+00 1.067936e+01 6.620055e+00 -1 -1 1 -4.093745e-01 3.303794e-01 8.486859e-01 5.471870e-02
73 1 1 3.820133e+00 1.068649e+01 6.488755e+00 -1 -1 1 -3.388086e-01 7.187862e-01 6.027653e-01 -7.231263e-02
74 1 1 3.385665e+00 1.092798e+01 6.375942e+00 -1 -1 1 3.141500e-01 -9.061719e-01 -2.106591e-01 1.891691e-01
75 1 3 3.210403e+00 1.130901e+01 6.266408e+00 -1 -1 1 1.995836e-01 -8.865100e-01 2.473000e-01 3.363171e-01
76 1 1 1.822049e+00 1.091239e+01 6.464769e+00 -1 -1 1 -1.476367e-01 -2.455365e-01 1.303019e-01 9.491768e-01
77 1 4 1.533557e+00 1.112733e+01 6.714713e+00 -1 -1 1 6.163863e-01 1.338111e-01 -1.766398e-01 -7.556196e-01
78 1 1 1.722461e+00 1.102040e+01 7.322570e+00 -1 -1 1 -8.501434e-01 -3.989130e-01 2.500205e-01 2.358269e-01
79 1 4 8.325136e-01 1.148913e+01 8.084001e+00 -1 -1 1 -7.157513e-01 -4.390213e-02 1.062028e-02 6.968930e-01
80 1 2 2.604492e-01 1.216168e+01 8.358793e+00 -1 -1 1 -3.749432e-01 2.342762e-01 8.821406e-01 -1.623581e-01
81 1 4 8.547935e-01 1.272363e+01 6.993049e+00 -1 -1 1 4.239891e-01 -8.942911e-02 1.480948e-01 8.889902e-01
82 1 4 8.640046e-01 1.282443e+01 6.017395e+00 -1 -1 1 4.256152e-02 6.694748e-01 -8.348051e-02 -7.369009e-01
83 1 4 4.817807e-01 1.307463e+01 5.813283e+00 -1 -1 1 3.662885e-01 5.456788e-01 -3.898118e-01 -6.450691e-01
84 1 4 -4.895113e-01 1.351639e+01 5.811533e+00 -1 -1 1 -5.229903e-01 -3.381023e-01 -6.008171e-01 5.011854e-01
85 1 1 -4.293772e-01 1.397025e+01 5.271707e+00 -1 -1 1 -6.147951e-01 -3.298592e-01 -3.664643e-02 7.154558e-01
86 1 1 -6.169198e-01 1.486488e+01 5.130104e+00 -1 -1 1 3.941928e-01 -4.592411e-01 2.660251e-01 7.502935e-01
87 1 3 -5.789921e-01 1.535333e+01 5.091844e+00 -1 -1 1 -9.622991e-02 2.478218e-01 -5.236459e-01 -8.093943e-01
88 1 2 -6.447869e-01 1.585876e+01 5.169644e+00 -1 -1 1 -1.409273e-02 -2.494775e-01 5.971071e-01 7.622503e-01
89 1 2 -7.901979e-01 1.632407e+01 4.999062e+00 -1 -1 1 3.522669e-01 -4.368185e-03 -6.559956e-01 -6.675019e-01
90 1 3 -1.163792e+00 1.647813e+01 4.754613e+00 -1 -1 1 -5.134304e-01 3.788827e-01 6.754714e-01 3.695613e-01
91 1 3 -1.502447e+00 1.690510e+01 4.689814e+00 -1 -1 1 -6.688926e-01 5.601237e-01 4.229194e-01 2.449149e-01
92 1 2 -1.712047e+00 1.734234e+01 4.936745e+00 -1 -1 1 7.044237e-01 -7.046150e-01 -8.543679e-02 2.336267e-03
93 1 1 -1.718134e+00 1.782591e+01 5.275402e+00 -1 -1 1 6.950906e-01 -6.862597e-01 2.054831e-01 6.060840e-02
94 1 2 -2.178972e+00 1.902594e+01 5.701682e+00 -1 -1 1 2.052129e-01 3.267544e-01 -1.415087e-01 9.116439e-01
95 1 3 -2.019375e+00 1.933934e+01 5.561175e+00 -1 -1 1 4.145205e-02 4.575557e-01 8.648330e-01 2.024559e-01
96 1 2 -2.221033e+00 -2.053795e+01 6.030590e+00 -1 0 1 1.769765e-01 1.196015e-01 9.753729e-01 -5.497712e-02
97 1 2 -1.864205e+00 -1.957640e+01 6.277941e+00 -1 0 1 -8.279619e-02 2.117192e-01 -3.791084e-01 -8.969931e-01
98 1 4 -1.173625e+00 1.990586e+01 7.679188e+00 -1 -1 1 -8.446783e-01 5.349043e-01 1.293240e-02 -1.512042e-02
99 1 2 -1.410549e+00 1.983837e+01 7.523028e+00 -1 -1 1 -4.196236e-02 8.060931e-01 5.472352e-01 2.213293e-01
100 1 1 -1.182581e+00 1.820410e+01 7.536415e+00 -1 -1 1 -6.953342e-01 3.222782e-01 -5.312795e-01 3.610944e-01
101 2 4 1.545560e+01 1.088553e+01 1.523453e+01 -1 -1 1 -5.940444e-01 7.351894e-01 2.483194e-01 -2.120030e-01
102 2 3 1.546077e+01 1.161622e+01 1.553199e+01 -1 -1 1 1.497643e-02 9.333120e-01 1.795742e-01 3.105761e-01
103 2 1 1.448265e+01 1.078287e+01 1.538718e+01 -1 -1 1 -2.593375e-01 -4.841104e-01 -2.600255e-01 7.942090e-01
104 2 3 1.397712e+01 1.058416e+01 1.554729e+01 -1 -1 1 -5.767863e-01 -5.685453e-01 -1.863579e-01 5.561875e-01
105 2 3 1.361179e+01 1.025887e+01 1.557114e+01 -1 -1 1 -6.745514e-01 -6.833244e-01 -9.795145e-02 2.616365e-01
106 2 2 1.355769e+01 9.863037e+00 1.524048e+01 -1 -1 1 5.897696e-01 7.947326e-01 -1.409989e-01 2.629183e-02
107 2 3 1.364035e+01 9.562590e+00 1.495711e+01 -1 -1 1 4.881006e-01 6.719718e-01 -4.943234e-01 2.566244e-01
108 2 4 1.332716e+01 1.013436e+01 1.399066e+01 -1 -1 1 7.189239e-02 1.705772e-01 7.504973e-01 6.344200e-01
109 2 3 1.335073e+01 1.046923e+01 1.363484e+01 -1 -1 1 -1.655063e-01 5.014039e-01 6.798548e-01 5.089196e-01
110 2 2 1.330941e+01 1.044588e+01 1.371195e+01 -1 -1 1 -8.201620e-01 2.792698e-01 -1.547442e-01 4.747598e-01
111 2 2 1.367675e+01 1.177249e+01 1.355156e+01 -1 -1 1 3.106880e-01 -5.193155e-01 -6.445896e-01 4.672138e-01
112 2 3 1.418758e+01 1.152328e+01 1.248836e+01 -1 -1 1 -1.479236e-01 -9.388930e-01 -3.043663e-01 6.292616e-02
113 2 3 1.330352e+01 1.147942e+01 1.226089e+01 -1 -1 1 4.262798e-01 -1.618778e-02 -4.529247e-01 -7.828682e-01
114 2 2 1.280690e+01 1.169542e+01 1.231362e+01 -1 -1 1 6.934355e-01 -2.121377e-01 -5.055737e-01 -4.674828e-01
115 2 4 1.274844e+01 1.252852e+01 1.182419e+01 -1 -1 1 5.030736e-01 -4.403898e-01 -6.872261e-01 -2.840672e-01
116 2 4 1.234317e+01 1.277086e+01 1.168497e+01 -1 -1 1 -5.126867e-01 6.813158e-01 5.036045e-01 1.390811e-01
117 2 1 1.194896e+01 1.187935e+01 1.042820e+01 -1 -1 1 -3.099896e-01 -8.588457e-02 -8.225758e-01 -4.689342e-01
118 2 1 1.255970e+01 1.117194e+01 1.050825e+01 -1 -1 1 2.644221e-01 6.934461e-01 -6.107005e-01 2.761493e-01
119 2 1 1.215188e+01 1.182322e+01 9.391772e+00 -1 -1 1 -2.215569e-01 -7.289179e-01 4.380178e-01 4.772124e-01
120 2 1 1.145608e+01 1.220544e+01 8.671258e+00 -1 -1 1 3.551748e-01 4.637873e-01 1.091696e-01 -8.042600e-01
121 2 3 1.137012e+01 1.150890e+01 8.662873e+00 -1 -1 1 8.717552e-01 -4.968306e-02 -3.729915e-01 -3.137703e-01
122 2 1 1.070072e+01 1.197701e+01 8.829808e+00 -1 -1 1 6.463983e-01 2.808712e-01 -1.320086e-01 -6.970325e-01
123 2 4 1.030278e+01 1.183594e+01 8.943003e+00 -1 -1 1 -9.059983e-01 -7.850039e-02 3.004968e-01 2.875873e-01
124 2 1 1.003833e+01 1.156374e+01 9.257783e+00 -1 -1 1 -9.423629e-01 7.425183e-02 3.120824e-01 -9.509674e-02
125 2 4 8.867684e+00 1.146501e+01 8.481344e+00 -1 -1 1 -5.002338e-01 9.643861e-02 -8.929218e-02 8.558579e-01
126 2 2 8.412416e+00 1.126505e+01 8.989621e+00 -1 -1 1 3.298497e-01 -2.648561e-01 -2.639628e-01 -8.668183e-01
127 2 4 8.234755e+00 1.165678e+01 9.258843e+00 -1 -1 1 6.705716e-01 -3.316702e-01 -2.060181e-01 -6.307814e-01
128 2 4 7.572422e+00 1.256707e+01 9.226343e+00 -1 -1 1 -4.828773e-02 -1.123419e-01 2.232148e-01 -9.670691e-01
129 2 1 6.975947e+00 1.240515e+01 8.836097e+00 -1 -1 1 7.729462e-02 1.935254e-05 -9.390035e-01 3.351090e-01
130 2 2 6.686729e+00 1.198182e+01 8.640119e+00 -1 -1 1 -1.947976e-01 3.403519e-01 8.215974e-01 -4.137537e-01
131 2 3 6.280263e+00 1.168951e+01 8.599026e+00 -1 -1 1 5.022084e-02 6.637786e-01 6.199518e-01 -4.153740e-01
132 2 4 5.737695e+00 1.196843e+01 8.358856e+00 -1 -1 1 -1.258551e-01 2.221132e-01 8.808612e-02 -9.628432e-01
133 2 4 5.553752e+00 1.205153e+01 8.933177e+00 -1 -1 1 -6.466431e-02 2.814066e-01 1.375485e-02 -9.573085e-01
134 2 3 5.259161e+00 1.240122e+01 9.134041e+00 -1 -1 1 -3.060714e-01 -1.924456e-01 1.747702e-01 9.158277e-01
135 2 4 4.853177e+00 1.260433e+01 9.259091e+00 -1 -1 1 5.863416e-01 1.351707e-01 -3.225633e-01 -7.306745e-01
136 2 3 4.316373e+00 1.266119e+01 9.400573e+00 -1 -1 1 -8.184664e-01 -4.305769e-02 3.090509e-01 4.824379e-01
137 2 1 3.896742e+00 1.252956e+01 9.715410e+00 -1 -1 1 -9.217839e-01 6.738274e-03 2.852410e-01 2.625005e-01
138 2 3 3.621471e+00 1.230480e+01 1.010168e+01 -1 -1 1 -9.639657e-01 1.520320e-02 2.483853e-01 -9.404098e-02
139 2 2 3.619218e+00 1.202340e+01 1.055930e+01 -1 -1 1 -8.620684e-01 1.232200e-01 2.405734e-01 -4.286950e-01
140 2 3 3.655926e+00 1.190091e+01 1.103622e+01 -1 -1 1 -7.539514e-01 1.379829e-01 1.263008e-01 -6.297350e-01
141 2 1 3.782228e+00 1.195954e+01 1.154174e+01 -1 -1 1 5.694608e-01 -1.106449e-01 -1.869093e-02 8.143235e-01
142 2 2 3.866680e+00 1.214963e+01 1.202909e+01 -1 -1 1 4.205678e-01 -1.063581e-01 1.563745e-01 8.873318e-01
143 2 4 4.057114e+00 1.253760e+01 1.229472e+01 -1 -1 1 1.679113e-01 -7.949066e-02 1.718808e-01 9.674420e-01
144 2 4 4.019403e+00 1.297758e+01 1.262934e+01 -1 -1 1 -1.569002e-01 -1.259600e-01 2.401163e-01 9.496634e-01
145 2 1 3.767682e+00 1.334964e+01 1.285552e+01 -1 -1 1 4.919414e-01 5.799071e-02 -2.628194e-01 -8.279835e-01
146 2 1 3.282653e+00 1.352607e+01 1.309616e+01 -1 -1 1 7.158200e-01 1.828214e-02 -2.753231e-01 -6.414551e-01
147 2 1 2.794276e+00 1.351198e+01 1.331665e+01 -1 -1 1 8.926454e-01 -4.998626e-02 -2.545141e-01 -3.686572e-01
148 2 2 2.512918e+00 1.345571e+01 1.372316e+01 -1 -1 1 9.448084e-01 1.059423e-01 -2.431354e-01 -1.923499e-01
149 2 4 2.278897e+00 1.303962e+01 1.397855e+01 -1 -1 1 -9.465621e-01 -8.185544e-02 2.531319e-01 -1.823297e-01
150 2 1 2.288764e+00 1.264841e+01 1.444525e+01 -1 -1 1 -8.286566e-01 1.829099e-01 2.849850e-01 -4.457083e-01
151 2 1 2.195986e+00 1.261356e+01 1.495631e+01 -1 -1 1 -7.165208e-01 2.489269e-01 1.784285e-01 -6.267348e-01
152 2 1 2.088620e+00 1.268146e+01 1.547611e+01 -1 -1 1 -5.182136e-01 3.909967e-01 1.945527e-02 -7.603932e-01
153 2 4 2.113555e+00 1.301035e+01 1.590043e+01 -1 -1 1 -2.606488e-01 3.602957e-01 -1.692225e-01 -8.795527e-01
154 2 1 2.011869e+00 1.349087e+01 1.609604e+01 -1 -1 1 -1.866959e-02 3.118291e-01 -3.749429e-01 -8.728298e-01
155 2 2 1.767775e+00 1.390905e+01 1.604015e+01 -1 -1 1 2.570291e-01 1.829277e-01 -5.576497e-01 -7.677893e-01
156 2 4 1.378707e+00 1.429478e+01 1.607346e+01 -1 -1 1 4.555451e-01 1.629654e-01 -5.385100e-01 -6.898753e-01
157 2 3 8.629463e-01 1.450944e+01 1.603996e+01 -1 -1 1 6.975517e-01 9.543783e-03 -5.226964e-01 -4.900195e-01
158 2 2 3.849331e-01 1.445163e+01 1.608770e+01 -1 -1 1 7.756758e-01 -8.307622e-02 -5.832508e-01 -2.263711e-01
159 2 1 -6.423558e-02 1.436045e+01 1.621132e+01 -1 -1 1 8.435649e-01 -1.332457e-01 -5.185373e-01 4.198736e-02
160 2 3 -4.371205e-01 1.428859e+01 1.664677e+01 -1 -1 1 -8.659851e-01 2.888762e-01 3.373038e-01 -2.298837e-01
161 2 1 -5.439201e-01 1.423341e+01 1.717050e+01 -1 -1 1 -7.113834e-01 3.944280e-01 2.859921e-01 -5.065261e-01
162 2 1 -7.540424e-01 1.438150e+01 1.758198e+01 -1 -1 1 -5.896145e-01 4.458096e-01 7.792148e-02 -6.689819e-01
163 2 4 -6.687389e-01 1.476967e+01 1.798079e+01 -1 -1 1 -3.415668e-01 4.287837e-01 -6.332509e-02 -8.339464e-01
164 2 4 -9.076680e-01 1.513379e+01 1.826215e+01 -1 -1 1 -1.899108e-01 4.382872e-01 -2.041181e-01 -8.545022e-01
165 2 3 -1.011460e+00 1.554963e+01 1.838352e+01 -1 -1 1 1.265015e-01 2.739502e-01 -3.712432e-01 -8.781384e-01
166 2 3 -1.386613e+00 1.595185e+01 1.837846e+01 -1 -1 1 3.411735e-01 2.044676e-01 -4.734985e-01 -7.858707e-01
167 2 4 -1.857241e+00 1.622696e+01 1.846217e+01 -1 -1 1 6.404308e-01 5.907710e-02 -3.093884e-01 -7.004549e-01
168 2 2 -2.423454e+00 1.630296e+01 1.865516e+01 -1 -1 1 7.390658e-01 6.684796e-02 -4.232007e-01 -5.198214e-01
169 2 2 -2.883234e+00 1.621176e+01 1.889218e+01 -1 -1 1 9.044828e-01 1.166150e-02 -3.700364e-01 -2.117735e-01
170 2 1 -3.233883e+00 1.592899e+01 1.909222e+01 -1 -1 1 8.783926e-01 -1.430341e-01 -4.442323e-01 1.030789e-01
171 2 1 -3.556803e+00 1.578718e+01 1.954917e+01 -1 -1 1 -8.872848e-01 1.996794e-01 2.996873e-01 -2.881691e-01
172 2 4 -3.654066e+00 1.571998e+01 -1.989938e+01 -1 -1 2 -7.696998e-01 3.272148e-01 1.773061e-01 -5.187053e-01
173 2 4 -3.612827e+00 1.584749e+01 -1.941938e+01 -1 -1 2 -6.239738e-01 2.948959e-01 -2.065926e-03 -7.236635e-01
174 2 1 -3.567459e+00 1.617880e+01 -1.899886e+01 -1 -1 2 -4.353350e-01 3.607091e-01 -1.681854e-01 -8.075185e-01
175 2 1 -3.460859e+00 1.664523e+01 -1.880776e+01 -1 -1 2 -4.696097e-02 1.907371e-01 -2.157486e-01 -9.564866e-01
176 2 2 -3.580396e+00 1.710300e+01 -1.866706e+01 -1 -1 2 2.651349e-01 1.204418e-01 -4.006139e-01 -8.687380e-01
177 2 2 -3.951781e+00 1.750307e+01 -1.857675e+01 -1 -1 2 5.186711e-01 1.164223e-01 -4.464213e-01 -7.198153e-01
178 2 1 -4.432723e+00 1.763387e+01 -1.851107e+01 -1 -1 2 7.594092e-01 -7.050732e-03 -4.784617e-01 -4.408201e-01
179 2 4 -4.817426e+00 1.777600e+01 -1.821458e+01 -1 -1 2 8.424521e-01 2.131479e-02 -3.990435e-01 -3.613647e-01
180 2 1 -5.259694e+00 1.761071e+01 -1.787106e+01 -1 -1 2 9.387521e-01 -1.388072e-01 -3.132003e-01 -3.718266e-02
181 2 4 -5.414164e+00 1.749695e+01 -1.738857e+01 -1 -1 2 -9.113987e-01 1.911080e-01 1.976041e-01 -3.062398e-01
182 2 2 -5.450057e+00 1.752448e+01 -1.669216e+01 -1 -1 2 -7.841358e-01 4.044279e-01 8.923101e-02 -4.621763e-01
183 2 3 -5.366577e+00 1.772384e+01 -1.621679e+01 -1 -1 2 -5.550402e-01 3.980290e-01 6.835288e-03 -7.303812e-01
184 2 4 -5.511739e+00 1.815039e+01 -1.585699e+01 -1 -1 2 -2.338272e-01 4.603016e-01 -1.265014e-01 -8.470211e-01
185 2 3 -5.625516e+00 1.857183e+01 -1.572824e+01 -1 -1 2 -8.454232e-02 -3.645802e-01 3.329520e-01 8.654923e-01
186 2 1 -5.962038e+00 1.892703e+01 -1.565032e+01 -1 -1 2 -3.263884e-01 -3.196593e-01 4.192353e-01 7.845574e-01
187 2 1 -6.443963e+00 1.916743e+01 -1.561764e+01 -1 -1 2 5.842805e-01 2.593959e-01 -4.352114e-01 -6.339724e-01
188 2 2 -6.895570e+00 1.923172e+01 -1.573855e+01 -1 -1 2 6.893744e-01 2.094582e-01 -5.789420e-01 -3.817282e-01
189 2 4 -7.323604e+00 1.895504e+01 -1.574332e+01 -1 -1 2 -7.789081e-01 -4.783532e-03 6.261353e-01 3.512816e-02
190 2 4 -7.697520e+00 1.875407e+01 -1.560848e+01 -1 -1 2 -7.833670e-01 1.973603e-03 5.782126e-01 -2.280403e-01
191 2 1 -8.004510e+00 1.849742e+01 -1.529608e+01 -1 -1 2 7.450795e-01 -1.569110e-01 -4.707219e-01 4.457089e-01
192 2 4 -8.328379e+00 1.833030e+01 -1.484804e+01 -1 -1 2 -7.050611e-01 2.480861e-01 3.777454e-01 -5.464892e-01
193 2 4 -8.635631e+00 1.827564e+01 -1.436621e+01 -1 -1 2 4.778771e-01 -4.711263e-01 -2.148993e-01 7.095716e-01
194 2 1 -8.954883e+00 1.856714e+01 -1.395791e+01 -1 -1 2 -3.055275e-01 5.760546e-01 -2.261145e-02 -7.578276e-01
195 2 3 -9.253411e+00 1.895133e+01 -1.381384e+01 -1 -1 2 1.952765e-01 -5.586481e-01 2.320542e-01 7.719652e-01
196 2 4 -9.330246e+00 1.942984e+01 -1.390866e+01 -1 -1 2 -3.853758e-02 -3.911211e-01 4.324927e-01 8.114735e-01
197 2 2 -9.678701e+00 1.980628e+01 -1.393139e+01 -1 -1 2 2.169792e-01 4.120649e-01 -5.871624e-01 -6.620898e-01
198 2 4 -9.974767e+00 -1.996606e+01 -1.418692e+01 -1 0 2 -4.366859e-01 -1.860174e-01 7.193759e-01 5.071502e-01
199 2 3 -1.046209e+01 -1.983021e+01 -1.436582e+01 -1 0 2 -5.842381e-01 -1.080468e-01 7.343880e-01 3.281250e-01
200 2 4 -1.095452e+01 -1.998536e+01 -1.444343e+01 -1 0 2 -6.929478e-01 1.122178e-01 7.048066e-01 1.023627e-01
