ITEM: TIMESTEP
351000000
ITEM: NUMBER OF ATOMS
200
ITEM: BOX BOUNDS pp pp pp
-2.0000000000000000e+01 2.0000000000000000e+01
-2.0000000000000000e+01 2.0000000000000000e+01
-2.0000000000000000e+01 2.0000000000000000e+01
ITEM: ATOMS id mol type x y z ix iy iz c_quat[1] c_quat[2] c_quat[3] c_quat[4]
1 1 1 -1.214654e+01 -1.651493e+01 -1.721742e+01 0 0 2 -7.632256e-01 -4.505714e-01 4.595788e-01 -5.709197e-02
2 1 2 -1.314369e+01 -1.651513e+01 -1.738918e+01 0 0 2 -1.965386e-01 1.932355e-01 6.921647e-01 -6.670387e-01
3 1 1 -1.356540e+01 -1.684764e+01 -1.725774e+01 0 0 2 1.558903e-01 -4.040097e-01 -5.442453e-01 7.185203e-01
4 1 3 -1.401873e+01 -1.703483e+01 -1.707552e+01 0 0 2 -1.245975e-01 5.600629e-01 3.869094e-01 -7.218768e-01
5 1 1 -1.454035e+01 -1.694093e+01 -1.705964e+01 0 0 2 -2.115731e-01 -7.282623e-01 -1.734249e-01 6.283269e-01
6 1 2 -1.501522e+01 -1.690879e+01 -1.724469e+01 0 0 2 -3.546943e-01 -7.425106e-01 8.921617e-02 5.611688e-01
7 1 4 -1.543269e+01 -1.680019e+01 -1.753252e+01 0 0 2 -4.785405e-01 -6.957766e-01 2.878098e-01 4.517294e-01
8 1 1 -1.582467e+01 -1.698742e+01 -1.790179e+01 0 0 2 -5.565170e-01 -6.883531e-01 3.589444e-01 2.960030e-01
9 1 1 -1.604609e+01 -1.722573e+01 -1.834499e+01 0 0 2 5.481365e-01 5.817744e-01 -5.994672e-01 -4.152142e-02
10 1 4 -1.624131e+01 -1.764140e+01 -1.857373e+01 0 0 2 -5.429801e-01 -3.808484e-01 7.067451e-01 -2.462489e-01
11 1 1 -1.629624e+01 -1.819762e+01 -1.872299e+01 0 0 2 -4.851944e-01 -2.227472e-01 7.437601e-01 -4.022324e-01
12 1 1 -1.640899e+01 -1.871984e+01 -1.865671e+01 0 0 2 3.915641e-01 -8.360256e-03 -7.187774e-01 5.744273e-01
13 1 3 -1.663479e+01 -1.911887e+01 -1.835731e+01 0 0 2 -1.695117e-01 2.600661e-01 6.713825e-01 -6.729613e-01
14 1 4 -1.706185e+01 -1.941046e+01 -1.809112e+01 0 0 2 1.447869e-01 -4.537533e-01 -5.224934e-01 7.072096e-01
15 1 4 -1.745643e+01 -1.962233e+01 -1.787557e+01 0 0 2 -9.692627e-02 -6.126286e-01 -3.407689e-01 7.065183e-01
16 1 2 -1.803686e+01 -1.980458e+01 -1.806146e+01 0 0 2 1.781100e-01 7.485835e-01 2.206701e-01 -5.993365e-01
17 1 1 -1.850151e+01 -1.976680e+01 -1.823300e+01 0 0 2 2.378565e-01 8.083136e-01 -7.961036e-02 -5.326497e-01
18 1 2 -1.889766e+01 -1.972842e+01 -1.859035e+01 0 0 2 -4.507035e-01 -7.398306e-01 2.880690e-01 4.080849e-01
19 1 3 -1.918684e+01 -1.985149e+01 -1.902485e+01 0 0 2 -4.841620e-01 -6.639194e-01 5.374816e-01 1.895038e-01
20 1 1 -1.932810e+01 1.970085e+01 -1.937865e+01 0 -1 2 -5.713329e-01 -4.520915e-01 6.799440e-01 -8.287440e-02
21 1 4 -1.949883e+01 1.919194e+01 -1.949219e+01 0 -1 2 5.766263e-01 1.338862e-01 -7.639075e-01 2.569473e-01
22 1 1 -1.957911e+01 1.869904e+01 -1.943596e+01 0 -1 2 4.983294e-01 2.734599e-02 -7.376837e-01 4.546897e-01
23 1 4 -1.978340e+01 1.824144e+01 -1.924034e+01 0 -1 2 4.333257e-01 -1.572139e-01 -6.250996e-01 6.298913e-01
24 1 3 1.991102e+01 1.797068e+01 -1.894394e+01 -1 -1 2 2.602522e-01 -3.753044e-01 -5.248304e-01 7.183095e-01
25 1 3 1.945623e+01 1.773974e+01 -1.877868e+01 -1 -1 2 1.577128e-01 -5.420898e-01 -3.942968e-01 7.251175e-01
26 1 4 1.896296e+01 1.775039e+01 -1.854603e+01 -1 -1 2 -5.142179e-02 -6.468466e-01 -2.975203e-01 7.003049e-01
27 1 4 1.840424e+01 1.774024e+01 -1.856408e+01 -1 -1 2 -2.108758e-01 -7.786464e-01 -1.040974e-01 5.817258e-01
28 1 1 1.790995e+01 1.786379e+01 -1.876004e+01 -1 -1 2 -2.903438e-01 -8.042580e-01 2.387282e-01 4.603025e-01
29 1 1 1.740744e+01 1.776767e+01 -1.910891e+01 -1 -1 2 -3.808748e-01 -8.333678e-01 2.921521e-01 2.740066e-01
30 1 4 1.722771e+01 1.759260e+01 -1.959653e+01 -1 -1 2 5.524256e-01 6.910595e-01 -4.614477e-01 -6.579341e-02
31 1 4 1.732493e+01 1.725374e+01 -1.999927e+01 -1 -1 2 5.704673e-01 3.840507e-01 -7.229518e-01 -6.642878e-02
32 1 3 1.706038e+01 1.681635e+01 1.983117e+01 -1 -1 1 5.566601e-01 2.388320e-01 -7.679870e-01 2.080500e-01
33 1 3 1.690577e+01 1.627702e+01 1.990716e+01 -1 -1 1 4.451848e-01 -1.138376e-01 -7.927537e-01 4.004910e-01
34 1 1 1.656715e+01 1.588301e+01 2.004239e+01 -1 -1 1 2.756670e-01 -3.769881e-01 -7.174511e-01 5.168671e-01
35 1 2 1.615454e+01 1.568242e+01 -1.979318e+01 -1 -1 2 1.859629e-01 -5.525265e-01 -5.214822e-01 6.230478e-01
36 1 2 1.563813e+01 1.576412e+01 -1.965780e+01 -1 -1 2 -5.520710e-02 -7.248414e-01 -3.035191e-01 6.159816e-01
37 1 1 1.505364e+01 1.570067e+01 -1.972296e+01 -1 -1 2 -3.394698e-02 -8.000481e-01 -1.792653e-01 5.715195e-01
38 1 1 1.460526e+01 1.589212e+01 2.002950e+01 -1 -1 1 -1.636990e-01 -8.548531e-01 1.731190e-01 4.609323e-01
39 1 4 1.421709e+01 1.604348e+01 1.964317e+01 -1 -1 1 3.240939e-01 8.249465e-01 -3.502207e-01 -3.029387e-01
40 1 4 1.405990e+01 1.599841e+01 1.909025e+01 -1 -1 1 3.526573e-01 7.556586e-01 -5.430830e-01 -9.835581e-02
41 1 2 1.417614e+01 1.573415e+01 1.858755e+01 -1 -1 1 3.601619e-01 4.911708e-01 -7.926148e-01 2.822194e-02
42 1 4 1.401387e+01 1.535981e+01 1.820329e+01 -1 -1 1 -3.818996e-01 -2.819972e-01 8.426009e-01 -2.542715e-01
43 1 3 1.373224e+01 1.486417e+01 1.808910e+01 -1 -1 1 4.037155e-01 -3.551116e-02 -8.613842e-01 3.062191e-01
44 1 2 1.346113e+01 1.446619e+01 1.796761e+01 -1 -1 1 3.290666e-01 -2.574747e-01 -8.085575e-01 4.143147e-01
45 1 1 1.296575e+01 1.416555e+01 1.797634e+01 -1 -1 1 2.991486e-01 -4.841297e-01 -6.829220e-01 4.579805e-01
46 1 3 1.238135e+01 1.409330e+01 1.809147e+01 -1 -1 1 1.907569e-01 -6.832150e-01 -5.005263e-01 4.962887e-01
47 1 4 1.183332e+01 1.427173e+01 1.816768e+01 -1 -1 1 -6.548692e-03 -7.913172e-01 -2.114554e-01 5.736383e-01
48 1 1 1.139744e+01 1.438817e+01 1.802744e+01 -1 -1 1 1.717806e-01 8.390046e-01 -3.037620e-02 -5.154027e-01
49 1 4 1.097632e+01 1.448783e+01 1.765124e+01 -1 -1 1 2.571120e-01 8.664828e-01 -2.076123e-01 -3.741631e-01
50 1 4 1.080373e+01 1.464255e+01 1.718907e+01 -1 -1 1 3.247055e-01 7.229106e-01 -5.030050e-01 -3.448949e-01
51 1 4 1.058142e+01 1.447286e+01 1.671906e+01 -1 -1 1 4.765656e-01 4.975036e-01 -7.175423e-01 -1.025107e-01
52 1 1 1.040172e+01 1.407962e+01 1.635381e+01 -1 -1 1 5.206687e-01 3.056546e-01 -7.935791e-01 7.557548e-02
53 1 3 1.016969e+01 1.359319e+01 1.627792e+01 -1 -1 1 -5.434334e-01 5.206360e-02 8.070952e-01 -2.248705e-01
54 1 4 9.829534e+00 1.314187e+01 1.639458e+01 -1 -1 1 -5.107589e-01 2.274312e-01 7.015917e-01 -4.417799e-01
55 1 4 9.464689e+00 1.283771e+01 1.662276e+01 -1 -1 1 4.031283e-01 -4.245037e-01 -5.173021e-01 6.242458e-01
56 1 4 8.957193e+00 1.278917e+01 1.680430e+01 -1 -1 1 3.770162e-01 -5.279946e-01 -3.933374e-01 6.514340e-01
57 1 1 8.493617e+00 1.288399e+01 1.708395e+01 -1 -1 1 -8.876704e-02 6.711108e-01 2.535976e-01 -6.909551e-01
58 1 1 7.955807e+00 1.301375e+01 1.714307e+01 -1 -1 1 -4.755480e-02 -7.254713e-01 -2.975791e-02 6.859624e-01
59 1 3 7.471206e+00 1.324728e+01 1.698604e+01 -1 -1 1 2.050468e-01 7.142650e-01 -1.834357e-01 -6.435313e-01
60 1 4 6.959513e+00 1.333182e+01 1.676080e+01 -1 -1 1 4.275890e-01 6.801059e-01 -3.246748e-01 -4.992092e-01
61 1 2 6.570168e+00 1.322612e+01 1.643130e+01 -1 -1 1 -6.067891e-01 -5.725599e-01 4.425642e-01 3.288146e-01
62 1 3 6.270547e+00 1.300059e+01 1.603029e+01 -1 -1 1 6.398843e-01 4.430005e-01 -5.897522e-01 -2.156179e-01
63 1 2 5.914053e+00 1.270034e+01 1.575656e+01 -1 -1 1 -6.800047e-01 -3.387590e-01 6.496208e-01 2.878775e-02
64 1 4 5.805960e+00 1.223085e+01 1.574141e+01 -1 -1 1 -5.389494e-01 -2.549184e-01 7.436737e-01 -3.024889e-01
65 1 2 5.628199e+00 1.176063e+01 1.575503e+01 -1 -1 1 -4.587452e-01 5.403755e-02 7.770328e-01 -4.276128e-01
66 1 1 5.329991e+00 1.135372e+01 1.595107e+01 -1 -1 1 -3.760157e-01 2.125595e-01 6.405170e-01 -6.349556e-01
67 1 2 5.895258e+00 1.008954e+01 1.517954e+01 -1 -1 1 5.183658e-02 -6.272305e-01 7.185007e-01 2.960603e-01
68 1 1 5.961151e+00 1.016633e+01 1.474248e+01 -1 -1 1 2.163370e-02 3.171352e-01 -8.987140e-01 -3.021099e-01
69 1 1 6.004978e+00 1.011685e+01 1.432659e+01 -1 -1 1 -1.595170e-01 2.300303e-01 9.216979e-01 2.685392e-01
70 1 2 5.645239e+00 1.046898e+01 1.424489e+01 -1 -1 1 3.809691e-01 -6.281779e-01 -6.738377e-01 -7.872644e-02
71 1 3 5.513838e+00 1.035093e+01 1.326051e+01 -1 -1 1 2.518725e-01 -5.262479e-01 6.766597e-01 4.491715e-01
72 1 4 5.408791e+00 1.032501e+01 1.272682e+01 -1 -1 1 1.357927e-01 -3.629182e-01 9.018887e-01 1.909123e-01
73 1 1 5.545762e+00 1.128901e+01 1.268378e+01 -1 -1 1 9.586832e-02 -8.670214e-01 2.733702e-01 -4.054035e-01
74 1 1 6.215266e+00 1.039076e+01 1.214556e+01 -1 -1 1 1.732464e-01 7.478719e-01 -6.394094e-01 4.276674e-02
75 1 3 6.118119e+00 9.932701e+00 1.207404e+01 -1 -1 1 -6.430378e-01 1.270536e-01 -6.371782e-01 -4.054179e-01
76 1 1 6.560329e+00 1.030475e+01 1.219196e+01 -1 -1 1 5.004477e-01 -1.064742e-01 7.333395e-01 4.476924e-01
77 1 4 6.955720e+00 1.056350e+01 1.187083e+01 -1 -1 1 -2.353924e-01 -1.809843e-01 -7.091463e-01 -6.394893e-01
78 1 1 8.016554e+00 9.836200e+00 1.279711e+01 -1 -1 1 3.708965e-01 4.267520e-01 -7.993832e-01 2.032366e-01
79 1 4 8.484252e+00 1.024846e+01 1.252016e+01 -1 -1 1 4.489302e-01 -6.914497e-01 -4.927014e-01 2.785755e-01
80 1 2 7.953874e+00 9.480329e+00 1.113171e+01 -1 -1 1 -2.275224e-01 1.077232e-01 -9.403394e-01 -2.288909e-01
81 1 4 9.010194e+00 1.009536e+01 1.110293e+01 -1 -1 1 -8.221677e-01 -2.931074e-01 -4.206363e-01 -2.473731e-01
82 1 4 8.576479e+00 1.089627e+01 1.093454e+01 -1 -1 1 1.501640e-02 6.054920e-01 3.196036e-01 7.287026e-01
83 1 4 8.846290e+00 1.156840e+01 1.052496e+01 -1 -1 1 -1.633322e-01 -7.863095e-01 -1.109922e-01 5.854236e-01
84 1 4 8.668924e+00 1.174694e+01 1.046568e+01 -1 -1 1 -2.534440e-01 6.204657e-01 5.762983e-01 4.676204e-01
85 1 1 8.477608e+00 1.219361e+01 1.024081e+01 -1 -1 1 -4.351559e-01 7.474583e-01 3.375105e-01 3.715267e-01
86 1 1 8.578504e+00 1.275558e+01 1.019639e+01 -1 -1 1 5.789672e-01 -5.817401e-01 -3.339570e-01 -4.635172e-01
87 1 3 9.084419e+00 1.301789e+01 9.553778e+00 -1 -1 1 -8.816574e-01 3.218690e-01 1.373484e-01 3.165692e-01
88 1 2 8.812696e+00 1.371045e+01 9.006840e+00 -1 -1 1 -8.685362e-01 1.779509e-01 -4.101139e-02 -4.607563e-01
89 1 2 7.695472e+00 1.402873e+01 8.074423e+00 -1 -1 1 -4.356209e-01 -4.097246e-01 -7.851772e-01 -1.608011e-01
90 1 3 8.409155e+00 1.468110e+01 9.081857e+00 -1 -1 1 7.896587e-03 6.416173e-01 -3.800871e-01 6.661822e-01
91 1 3 9.171441e+00 1.441021e+01 8.140118e+00 -1 -1 1 -7.757375e-01 -4.046980e-01 4.825909e-01 3.945637e-02
92 1 2 9.521609e+00 1.555093e+01 7.449423e+00 -1 -1 1 4.789522e-01 8.211745e-01 1.448670e-01 2.743917e-01
93 1 1 9.988643e+00 1.549050e+01 7.199745e+00 -1 -1 1 2.791616e-01 7.761976e-01 -2.640316e-01 4.998733e-01
94 1 2 8.559503e+00 1.517184e+01 7.002338e+00 -1 -1 1 -1.173385e-01 5.398785e-01 7.753731e-01 -3.058750e-01
95 1 3 1.001538e+01 1.465556e+01 6.635490e+00 -1 -1 1 7.281840e-01 4.997431e-01 1.756745e-02 4.687177e-01
96 1 2 1.043423e+01 1.441579e+01 6.671423e+00 -1 -1 1 -4.374330e-01 -4.785849e-01 1.436998e-01 -7.476358e-01
97 1 2 9.948121e+00 1.362218e+01 6.483072e+00 -1 -1 1 3.425807e-01 -3.805902e-01 6.517173e-01 5.595124e-01
98 1 4 9.926969e+00 1.249890e+01 7.044464e+00 -1 -1 1 -2.268900e-01 6.609237e-01 -7.128858e-01 -5.911541e-02
99 1 2 1.022527e+01 1.259399e+01 6.739046e+00 -1 -1 1 1.178200e-01 -3.435754e-01 9.073417e-01 2.116732e-01
100 1 1 1.052036e+01 1.330461e+01 6.934027e+00 -1 -1 1 2.496415e-01 3.320806e-01 -5.117020e-01 -7.520390e-01
101 2 4 -6.552713e+00 1.290906e+01 1.117386e+01 -1 -1 1 -7.068370e-01 -5.381161e-01 3.693244e-01 2.727856e-01
102 2 3 -6.460960e+00 1.389764e+01 1.179030e+01 -1 -1 1 2.020515e-01 6.725316e-01 5.497787e-01 4.523493e-01
103 2 1 -6.161727e+00 1.416446e+01 1.148541e+01 -1 -1 1 -1.122006e-02 -7.669176e-01 -3.721705e-01 -5.226859e-01
104 2 3 -5.227634e+00 1.370891e+01 1.155287e+01 -1 -1 1 6.435750e-01 1.395538e-01 2.223537e-01 7.189540e-01
105 2 3 -4.810207e+00 1.384626e+01 1.169677e+01 -1 -1 1 -2.956570e-01 -2.736992e-01 -1.567832e-01 -9.017176e-01
106 2 2 -4.588599e+00 1.416882e+01 1.204636e+01 -1 -1 1 3.347848e-02 -3.073397e-01 -8.428767e-02 -9.472682e-01
107 2 3 -3.989306e+00 1.302381e+01 1.162052e+01 -1 -1 1 2.602966e-02 5.214378e-01 -7.840500e-01 3.356943e-01
108 2 4 -4.240604e+00 1.283599e+01 1.170103e+01 -1 -1 1 2.330833e-01 1.412831e-01 5.007461e-01 -8.215623e-01
109 2 3 -3.854892e+00 1.223969e+01 1.111953e+01 -1 -1 1 -8.657207e-01 -1.152025e-01 -2.629961e-01 -4.099867e-01
110 2 2 -3.356009e+00 1.220759e+01 1.128801e+01 -1 -1 1 6.087549e-01 1.732791e-01 2.953574e-01 7.156506e-01
111 2 2 -3.018945e+00 1.244639e+01 1.132569e+01 -1 -1 1 1.468956e-01 5.424433e-01 2.097773e-01 8.001065e-01
112 2 3 -2.536874e+00 1.131664e+01 1.061814e+01 -1 -1 1 -7.514020e-01 -3.727215e-01 -5.097895e-01 1.912813e-01
113 2 3 -1.536651e+00 1.108116e+01 1.091192e+01 -1 -1 1 8.834637e-01 4.182767e-01 2.045717e-01 5.183500e-02
114 2 2 -2.026259e+00 1.175136e+01 1.228879e+01 -1 -1 1 -5.788528e-01 3.323699e-01 6.689589e-01 -3.270376e-01
115 2 4 -1.193297e+00 1.194013e+01 1.223501e+01 -1 -1 1 7.484624e-01 4.855972e-01 -4.359257e-01 1.181869e-01
116 2 4 -1.207894e+00 1.202155e+01 1.254870e+01 -1 -1 1 3.102129e-01 -9.544191e-02 -1.911291e-01 9.263522e-01
117 2 1 -1.491080e-01 1.204826e+01 1.229291e+01 -1 -1 1 5.779190e-01 6.474174e-01 -3.819560e-01 3.177576e-01
118 2 1 6.888805e-02 1.160299e+01 1.219325e+01 -1 -1 1 3.907800e-01 3.189960e-01 -6.890698e-01 5.203031e-01
119 2 1 2.049430e-01 1.119852e+01 1.233937e+01 -1 -1 1 -3.462092e-02 -2.404368e-02 -8.195701e-01 5.714264e-01
120 2 1 2.962981e-02 1.076737e+01 1.236873e+01 -1 -1 1 -3.430657e-01 -3.772298e-01 -7.502969e-01 4.207828e-01
121 2 3 1.157909e+00 1.143808e+01 1.269489e+01 -1 -1 1 -2.433363e-01 -1.925831e-01 2.851511e-01 -9.068561e-01
122 2 1 1.328928e+00 1.125228e+01 1.314611e+01 -1 -1 1 1.534171e-02 4.602306e-02 3.253479e-01 -9.443491e-01
123 2 4 1.283409e+00 1.101663e+01 1.367417e+01 -1 -1 1 1.203141e-01 2.067305e-01 3.156465e-01 -9.182343e-01
124 2 1 2.412279e+00 1.134691e+01 1.407374e+01 -1 -1 1 -4.459262e-01 2.150850e-01 5.325669e-01 -6.864844e-01
125 2 4 2.054102e+00 1.110681e+01 1.444812e+01 -1 -1 1 -2.093859e-01 4.231123e-01 4.864184e-01 -7.352079e-01
126 2 2 1.814218e+00 1.016379e+01 1.523647e+01 -1 -1 1 5.486864e-01 -5.492942e-01 1.071325e-01 -6.210811e-01
127 2 4 2.052721e+00 1.034046e+01 1.565996e+01 -1 -1 1 7.372477e-01 -4.931688e-01 3.922871e-01 -2.436414e-01
128 2 4 2.385359e+00 1.032290e+01 1.601341e+01 -1 -1 1 7.929721e-01 -3.274289e-01 5.099426e-01 6.280260e-02
129 2 1 2.867355e+00 1.034654e+01 1.615242e+01 -1 -1 1 6.611222e-01 -9.867691e-02 6.383739e-01 3.816531e-01
130 2 2 3.329057e+00 1.053075e+01 1.598461e+01 -1 -1 1 4.724587e-01 1.355515e-01 7.046638e-01 5.117201e-01
131 2 3 3.601151e+00 1.078656e+01 1.560725e+01 -1 -1 1 1.796076e-01 4.424509e-01 5.527578e-01 6.829621e-01
132 2 4 3.779337e+00 1.122784e+01 1.546244e+01 -1 -1 1 -1.183962e-01 6.752362e-01 1.506527e-01 7.122796e-01
133 2 4 4.053357e+00 1.165709e+01 1.557210e+01 -1 -1 1 3.958950e-01 -6.568724e-01 9.950062e-02 -6.339443e-01
134 2 3 4.464505e+00 1.207361e+01 1.576408e+01 -1 -1 1 -5.076022e-01 5.230404e-01 -4.013888e-02 6.834893e-01
135 2 4 4.605096e+00 1.226437e+01 1.622346e+01 -1 -1 1 -7.324947e-01 5.007497e-01 -3.234922e-01 3.287158e-01
136 2 3 4.984696e+00 1.227698e+01 1.661591e+01 -1 -1 1 -8.173142e-01 2.626905e-01 -5.064127e-01 8.085421e-02
137 2 1 5.459766e+00 1.222139e+01 1.687088e+01 -1 -1 1 -7.861495e-01 1.123857e-01 -5.946557e-01 -1.253914e-01
138 2 3 5.989096e+00 1.215640e+01 1.689989e+01 -1 -1 1 -6.845426e-01 -1.130832e-02 -6.611843e-01 -3.067717e-01
139 2 2 6.495682e+00 1.206888e+01 1.672711e+01 -1 -1 1 -5.682842e-01 -2.469556e-01 -6.513169e-01 -4.380094e-01
140 2 3 7.030820e+00 1.218015e+01 1.662277e+01 -1 -1 1 -4.030544e-01 -3.359530e-01 -7.042578e-01 -4.782298e-01
141 2 1 7.241796e+00 1.232689e+01 1.615758e+01 -1 -1 1 1.870353e-01 6.176444e-01 4.831085e-01 5.917257e-01
142 2 2 7.586147e+00 1.257873e+01 1.597928e+01 -1 -1 1 3.389436e-02 6.789258e-01 3.443017e-01 6.475857e-01
143 2 4 7.947025e+00 1.297938e+01 1.595305e+01 -1 -1 1 -1.847161e-01 6.884425e-01 1.618626e-01 6.824422e-01
144 2 4 8.428786e+00 1.347874e+01 1.605137e+01 -1 -1 1 -2.713727e-01 6.705979e-01 -6.392275e-02 6.874367e-01
145 2 1 8.812074e+00 1.383937e+01 1.627820e+01 -1 -1 1 4.805502e-01 -5.372248e-01 1.957842e-01 -6.649283e-01
146 2 1 9.065389e+00 1.402400e+01 1.662654e+01 -1 -1 1 6.769240e-01 -4.453964e-01 3.886832e-01 -4.385446e-01
147 2 1 9.333727e+00 1.399348e+01 1.705553e+01 -1 -1 1 7.907931e-01 -2.732313e-01 4.696501e-01 -2.818150e-01
148 2 2 9.724113e+00 1.390531e+01 1.735056e+01 -1 -1 1 7.961454e-01 -1.079096e-01 5.936296e-01 -4.595457e-02
149 2 4 1.012226e+01 1.362690e+01 1.739743e+01 -1 -1 1 -7.766169e-01 -1.652695e-01 -5.826924e-01 -1.732677e-01
150 2 1 1.057724e+01 1.347924e+01 1.729270e+01 -1 -1 1 -6.038971e-01 -4.267603e-01 -5.293745e-01 -4.158686e-01
151 2 1 1.113586e+01 1.344093e+01 1.716312e+01 -1 -1 1 -4.964474e-01 -3.841837e-01 -5.498736e-01 -5.509826e-01
152 2 1 1.158420e+01 1.374388e+01 1.698122e+01 -1 -1 1 -1.900972e-01 -4.981129e-01 -4.022786e-01 -7.442570e-01
153 2 4 1.190945e+01 1.417246e+01 1.697551e+01 -1 -1 1 7.289382e-02 -5.304410e-01 -2.223060e-01 -8.147999e-01
154 2 1 1.220154e+01 1.468923e+01 1.709574e+01 -1 -1 1 2.197172e-01 -5.298387e-01 -9.398653e-02 -8.137333e-01
155 2 2 1.243615e+01 1.511525e+01 1.746102e+01 -1 -1 1 4.961772e-01 -4.782893e-01 1.179367e-01 -7.149395e-01
156 2 4 1.249203e+01 1.528164e+01 1.793695e+01 -1 -1 1 7.796528e-01 -3.528422e-01 2.605294e-01 -4.469546e-01
157 2 3 1.270910e+01 1.523993e+01 1.850011e+01 -1 -1 1 8.612060e-01 -2.640619e-01 3.770172e-01 -2.155307e-01
158 2 2 1.298391e+01 1.517958e+01 1.890694e+01 -1 -1 1 8.877117e-01 -1.148133e-01 4.453431e-01 -2.134098e-02
159 2 1 1.345257e+01 1.500520e+01 1.919288e+01 -1 -1 1 8.444309e-01 -2.035767e-02 5.028439e-01 1.834939e-01
160 2 3 1.388042e+01 1.481406e+01 1.931903e+01 -1 -1 1 -7.605466e-01 -9.798109e-02 -4.516704e-01 -4.560290e-01
161 2 1 1.443124e+01 1.488948e+01 1.935693e+01 -1 -1 1 -5.225616e-01 -2.330556e-01 -4.357143e-01 -6.948147e-01
162 2 1 1.482948e+01 1.505821e+01 1.929671e+01 -1 -1 1 -3.114885e-01 -4.465921e-01 -4.857786e-01 -6.837759e-01
163 2 4 1.520347e+01 1.547152e+01 1.910310e+01 -1 -1 1 -2.641061e-02 -5.098364e-01 -3.084181e-01 -8.026503e-01
164 2 4 1.548748e+01 1.592566e+01 1.913420e+01 -1 -1 1 2.035100e-01 -5.219670e-01 -1.952545e-01 -8.049905e-01
165 2 3 1.572893e+01 1.639367e+01 1.934505e+01 -1 -1 1 3.777923e-01 -4.919877e-01 2.873537e-02 -7.838338e-01
166 2 3 1.571895e+01 1.671370e+01 1.974947e+01 -1 -1 1 6.769332e-01 -4.597086e-01 1.627630e-01 -5.513054e-01
167 2 4 1.585021e+01 1.682196e+01 -1.979247e+01 -1 -1 2 8.746188e-01 -2.957400e-01 2.792207e-01 -2.638478e-01
168 2 2 1.626134e+01 1.686756e+01 -1.936722e+01 -1 -1 2 8.557431e-01 -1.724483e-01 4.729486e-01 -1.195194e-01
169 2 2 1.672673e+01 1.672118e+01 -1.903155e+01 -1 -1 2 7.983311e-01 -1.625096e-01 5.778027e-01 4.901156e-02
170 2 1 1.722421e+01 1.660497e+01 -1.894557e+01 -1 -1 2 7.264398e-01 6.137643e-02 6.038004e-01 3.224024e-01
171 2 1 1.779339e+01 1.664497e+01 -1.902117e+01 -1 -1 2 -5.313545e-01 -1.632959e-01 -6.069662e-01 -5.679690e-01
172 2 4 1.824839e+01 1.683484e+01 -1.927066e+01 -1 -1 2 -3.390927e-01 -3.008834e-01 -5.748069e-01 -6.812359e-01
173 2 4 1.851666e+01 1.717655e+01 -1.954049e+01 -1 -1 2 -3.825408e-02 -5.042764e-01 -4.672371e-01 -7.252113e-01
174 2 1 1.871132e+01 1.758144e+01 -1.972345e+01 -1 -1 2 2.316627e-01 -6.067615e-01 -3.749577e-01 -6.614980e-01
175 2 1 1.880887e+01 1.806306e+01 -1.970760e+01 -1 -1 2 3.701374e-01 -6.636158e-01 -1.614672e-01 -6.297148e-01
176 2 2 1.890487e+01 1.852168e+01 -1.950116e+01 -1 -1 2 5.433987e-01 -7.029449e-01 1.212442e-01 -4.425903e-01
177 2 2 1.915397e+01 1.886865e+01 -1.915701e+01 -1 -1 2 6.555562e-01 -6.206722e-01 2.307625e-01 -3.629887e-01
178 2 1 1.949985e+01 1.911895e+01 -1.880655e+01 -1 -1 2 7.567823e-01 -4.763078e-01 3.719468e-01 -2.491325e-01
179 2 4 1.981136e+01 1.909566e+01 -1.846371e+01 -1 -1 2 8.334343e-01 -2.413047e-01 4.961247e-01 3.192962e-02
180 2 1 -1.969008e+01 1.921585e+01 -1.830227e+01 0 -1 2 7.378738e-01 -1.753429e-01 6.506573e-01 3.797585e-02
181 2 4 -1.915171e+01 1.916278e+01 -1.836525e+01 0 -1 2 -6.098653e-01 -6.017957e-02 -7.437955e-01 -2.668539e-01
182 2 2 -1.869470e+01 1.908360e+01 -1.874358e+01 0 -1 2 -4.621211e-01 -3.060254e-01 -6.185612e-01 -5.569331e-01
183 2 3 -1.830706e+01 1.932195e+01 -1.897580e+01 0 -1 2 -2.208578e-01 -4.240824e-01 -5.090270e-01 -7.157286e-01
184 2 4 -1.794213e+01 1.979434e+01 -1.917855e+01 0 -1 2 -3.864410e-02 -4.821793e-01 -4.121652e-01 -7.720943e-01
185 2 3 -1.780672e+01 -1.971606e+01 -1.920172e+01 0 0 2 -3.031360e-01 6.081456e-01 1.905146e-01 7.084996e-01
186 2 1 -1.758383e+01 -1.925536e+01 -1.901239e+01 0 0 2 -4.816779e-01 5.726685e-01 1.757365e-01 6.396514e-01
187 2 1 -1.767830e+01 -1.876956e+01 -1.878761e+01 0 0 2 6.985711e-01 -5.430991e-01 -7.929469e-02 -4.590796e-01
188 2 2 -1.754524e+01 -1.836088e+01 -1.841452e+01 0 0 2 -7.895461e-01 5.249713e-01 -1.736019e-01 2.662414e-01
189 2 4 -1.729578e+01 -1.821141e+01 -1.801804e+01 0 0 2 -8.317666e-01 4.405367e-01 -3.261712e-01 8.777328e-02
190 2 4 -1.686616e+01 -1.806555e+01 -1.771944e+01 0 0 2 -8.267327e-01 3.013843e-01 -4.651154e-01 -9.668612e-02
191 2 1 -1.636352e+01 -1.810564e+01 -1.744421e+01 0 0 2 7.596794e-01 -5.179231e-02 5.675484e-01 3.131991e-01
192 2 4 -1.586242e+01 -1.806266e+01 -1.753601e+01 0 0 2 -6.252641e-01 -1.929784e-01 -6.385455e-01 -4.050479e-01
193 2 4 -1.537612e+01 -1.801756e+01 -1.777503e+01 0 0 2 4.431921e-01 3.387161e-01 6.057514e-01 5.673777e-01
194 2 1 -1.490286e+01 -1.778924e+01 -1.796786e+01 0 0 2 -1.916417e-01 -4.933450e-01 -5.111829e-01 -6.771825e-01
195 2 3 -1.457986e+01 -1.745859e+01 -1.819758e+01 0 0 2 -5.325704e-02 5.798684e-01 4.349115e-01 6.868540e-01
196 2 4 -1.440013e+01 -1.698616e+01 -1.824968e+01 0 0 2 3.033596e-01 -5.920427e-01 -3.271150e-01 -6.711588e-01
197 2 2 -1.437725e+01 -1.647516e+01 -1.811596e+01 0 0 2 -5.261071e-01 6.273470e-01 1.425894e-01 5.561613e-01
198 2 4 -1.421013e+01 -1.605293e+01 -1.787836e+01 0 0 2 -6.282945e-01 6.132662e-01 -8.487967e-02 4.711115e-01
199 2 3 -1.412347e+01 -1.575808e+01 -1.746008e+01 0 0 2 8.396196e-01 -4.392754e-01 1.988102e-01 -2.501010e-01
200 2 4 -1.389365e+01 -1.569404e+01 -1.701499e+01 0 0 2 8.707919e-01 -3.251292e-01 3.528729e-01 1.072064e-01
