ITEM: TIMESTEP
312000000
ITEM: NUMBER OF ATOMS
200
ITEM: BOX BOUNDS pp pp pp
-2.0000000000000000e+01 2.0000000000000000e+01
-2.0000000000000000e+01 2.0000000000000000e+01
-2.0000000000000000e+01 2.0000000000000000e+01
ITEM: ATOMS id mol type x y z ix iy iz c_quat[1] c_quat[2] c_quat[3] c_quat[4]
1 1 1 1.748079e+01 1.808554e+01 1.654734e+01 -1 -1 1 -6.406498e-01 6.756974e-01 -1.253442e-01 3.424758e-01
2 1 2 1.690161e+01 1.841097e+01 1.622217e+01 -1 -1 1 -6.577250e-01 6.011603e-01 3.796788e-01 -2.486928e-01
3 1 1 1.583168e+01 1.837771e+01 1.507971e+01 -1 -1 1 3.502248e-01 1.724507e-01 -3.012357e-01 -8.699773e-01
4 1 3 1.694642e+01 1.900449e+01 1.493126e+01 -1 -1 1 -4.091093e-01 7.953418e-01 2.648097e-01 -3.604674e-01
5 1 1 1.672913e+01 1.947524e+01 1.499030e+01 -1 -1 1 1.896532e-01 -8.078276e-01 2.329046e-04 5.580736e-01
6 1 2 1.643363e+01 1.991222e+01 1.477517e+01 -1 -1 1 -1.245586e-01 -7.657145e-01 2.604166e-01 5.747606e-01
7 1 4 1.605279e+01 -1.987473e+01 1.448002e+01 -1 0 1 -8.661442e-02 -7.879854e-01 4.471422e-01 4.142955e-01
8 1 1 1.590589e+01 -1.963535e+01 1.409781e+01 -1 0 1 -5.332167e-02 -6.956856e-01 6.499439e-01 3.012496e-01
9 1 1 1.591019e+01 -1.954088e+01 1.360915e+01 -1 0 1 1.769863e-01 3.895650e-01 -8.758879e-01 -2.230144e-01
10 1 4 1.577284e+01 -1.967228e+01 1.316448e+01 -1 0 1 -2.594910e-01 -2.350682e-01 9.332625e-01 8.017788e-02
11 1 1 1.555030e+01 -1.987181e+01 1.266312e+01 -1 0 1 -3.036798e-01 -1.385502e-02 9.525321e-01 1.640592e-02
12 1 1 1.523899e+01 1.987522e+01 1.242592e+01 -1 -1 1 3.149526e-01 -2.834056e-01 -8.941747e-01 1.446986e-01
13 1 3 1.482392e+01 1.968168e+01 1.222452e+01 -1 -1 1 -3.733317e-01 4.696895e-01 7.135466e-01 -3.617547e-01
14 1 4 1.425910e+01 1.961223e+01 1.215770e+01 -1 -1 1 3.105107e-01 -6.703462e-01 -5.349466e-01 4.099406e-01
15 1 4 1.375476e+01 1.976063e+01 1.234528e+01 -1 -1 1 2.572753e-01 -7.491049e-01 -2.826221e-01 5.410879e-01
16 1 2 1.337133e+01 -1.995894e+01 1.240813e+01 -1 0 1 -1.411534e-01 7.664793e-01 6.223466e-02 -6.234678e-01
17 1 1 1.299479e+01 -1.962862e+01 1.238974e+01 -1 0 1 1.504006e-02 7.808831e-01 -1.444884e-01 -6.075512e-01
18 1 2 1.267736e+01 -1.927719e+01 1.213640e+01 -1 0 1 -2.157011e-01 -7.131793e-01 3.566511e-01 5.636029e-01
19 1 3 1.242683e+01 -1.914589e+01 1.163760e+01 -1 0 1 -3.950205e-01 -5.601357e-01 5.997725e-01 4.128919e-01
20 1 1 1.203143e+01 -1.915737e+01 1.128660e+01 -1 0 1 -4.809398e-01 -5.608929e-01 6.265197e-01 2.481315e-01
21 1 4 1.193712e+01 -1.943209e+01 1.082886e+01 -1 0 1 4.827347e-01 3.306713e-01 -8.013154e-01 -1.245682e-01
22 1 1 1.169923e+01 -1.980094e+01 1.052617e+01 -1 0 1 4.781049e-01 5.174655e-02 -8.627663e-01 1.561164e-01
23 1 4 1.129531e+01 1.979381e+01 1.043239e+01 -1 -1 1 4.777659e-01 -2.031325e-01 -7.879440e-01 3.310909e-01
24 1 3 1.085108e+01 1.949734e+01 1.055913e+01 -1 -1 1 3.899318e-01 -4.669389e-01 -6.682945e-01 4.281399e-01
25 1 3 1.039123e+01 1.948504e+01 1.081144e+01 -1 -1 1 2.051610e-01 -6.167822e-01 -4.344237e-01 6.235100e-01
26 1 4 9.835939e+00 1.968741e+01 1.095230e+01 -1 -1 1 1.429679e-01 -7.442090e-01 -1.644740e-01 6.313965e-01
27 1 4 9.382409e+00 1.998937e+01 1.083896e+01 -1 -1 1 -8.312818e-02 -7.882957e-01 6.261375e-02 6.064315e-01
28 1 1 9.009135e+00 -1.970832e+01 1.057364e+01 -1 0 1 -2.126114e-01 -7.494914e-01 3.687899e-01 5.070040e-01
29 1 1 8.652397e+00 -1.964014e+01 1.014938e+01 -1 0 1 -3.882420e-01 -6.935933e-01 4.839491e-01 3.660459e-01
30 1 4 8.418850e+00 -1.984908e+01 9.681904e+00 -1 0 1 4.705650e-01 5.689462e-01 -6.600548e-01 -1.385510e-01
31 1 4 8.295426e+00 1.981912e+01 9.285625e+00 -1 -1 1 5.206204e-01 2.858734e-01 -8.044161e-01 1.206698e-02
32 1 3 8.078297e+00 1.931516e+01 9.078986e+00 -1 -1 1 4.860939e-01 2.229927e-02 -8.301030e-01 2.722947e-01
33 1 3 7.661536e+00 1.894191e+01 9.079060e+00 -1 -1 1 5.561579e-01 -8.104120e-02 -7.083713e-01 4.270021e-01
34 1 1 7.296909e+00 1.862194e+01 9.365071e+00 -1 -1 1 4.715687e-01 -2.292538e-01 -5.785795e-01 6.247491e-01
35 1 2 6.998129e+00 1.843834e+01 9.713901e+00 -1 -1 1 4.193005e-01 -2.519648e-01 -4.042304e-01 7.728510e-01
36 1 2 6.733179e+00 1.848889e+01 1.012435e+01 -1 -1 1 1.230109e-01 -3.943472e-01 -2.549434e-01 8.742783e-01
37 1 1 6.327951e+00 1.857497e+01 1.051257e+01 -1 -1 1 -8.975501e-02 -5.196975e-01 -1.828249e-01 8.297190e-01
38 1 1 5.814659e+00 1.859215e+01 1.071141e+01 -1 -1 1 -2.924742e-01 -6.113420e-01 -3.566674e-02 7.344710e-01
39 1 4 5.314397e+00 1.863787e+01 1.057618e+01 -1 -1 1 4.682297e-01 6.351027e-01 -2.726946e-01 -5.504936e-01
40 1 4 4.820679e+00 1.849353e+01 1.031495e+01 -1 -1 1 6.169291e-01 5.733732e-01 -3.780798e-01 -3.843141e-01
41 1 2 4.487879e+00 1.824659e+01 1.012608e+01 -1 -1 1 7.344589e-01 3.718617e-01 -5.492601e-01 -1.435352e-01
42 1 4 4.133112e+00 1.781144e+01 1.016490e+01 -1 -1 1 -8.093512e-01 -1.665472e-01 5.582570e-01 -7.457769e-02
43 1 3 3.788196e+00 1.746250e+01 1.032406e+01 -1 -1 1 8.316394e-01 4.905761e-02 -5.120611e-01 2.091952e-01
44 1 2 3.518933e+00 1.719249e+01 1.073916e+01 -1 -1 1 6.871064e-01 -2.187061e-01 -4.198116e-01 5.511902e-01
45 1 1 3.369572e+00 1.714057e+01 1.121697e+01 -1 -1 1 4.664829e-01 -3.832538e-01 -2.883263e-01 7.432215e-01
46 1 3 2.895568e+00 1.723432e+01 1.150811e+01 -1 -1 1 4.502747e-01 -5.016357e-01 -1.238903e-01 7.281933e-01
47 1 4 2.585563e+00 1.761935e+01 1.180312e+01 -1 -1 1 1.405044e-01 -5.929420e-01 2.982598e-02 7.923312e-01
48 1 1 2.228356e+00 1.796864e+01 1.189713e+01 -1 -1 1 9.848801e-02 6.086977e-01 -2.319095e-01 -7.523332e-01
49 1 4 1.852658e+00 1.828534e+01 1.167059e+01 -1 -1 1 3.993696e-01 4.794196e-01 -3.753390e-01 -6.854061e-01
50 1 4 1.268315e+00 1.831389e+01 1.164163e+01 -1 -1 1 5.650662e-01 4.731967e-01 -3.832110e-01 -5.567176e-01
51 1 4 8.225197e-01 1.818480e+01 1.137894e+01 -1 -1 1 7.137357e-01 2.987454e-01 -5.279568e-01 -3.501344e-01
52 1 1 4.376764e-01 1.786095e+01 1.120789e+01 -1 -1 1 7.466232e-01 2.128846e-01 -6.284167e-01 -4.823264e-02
53 1 3 2.179073e-01 1.731333e+01 1.129055e+01 -1 -1 1 -7.095710e-01 3.462716e-02 6.908140e-01 -1.344840e-01
54 1 4 -2.243411e-01 1.702589e+01 1.147894e+01 -1 -1 1 -6.685164e-01 1.930021e-01 5.874877e-01 -4.131515e-01
55 1 4 -5.448987e-01 1.675282e+01 1.182721e+01 -1 -1 1 5.475717e-01 -3.361306e-01 -4.795121e-01 5.977036e-01
56 1 4 -9.917383e-01 1.669752e+01 1.207844e+01 -1 -1 1 4.379021e-01 -4.675387e-01 -3.368879e-01 6.900405e-01
57 1 1 -1.380905e+00 1.697164e+01 1.250505e+01 -1 -1 1 -2.625589e-01 5.506520e-01 1.181464e-01 -7.835092e-01
58 1 1 -1.712455e+00 1.732712e+01 1.272269e+01 -1 -1 1 7.197217e-02 -6.199808e-01 8.316900e-02 7.768698e-01
59 1 3 -2.083171e+00 1.765293e+01 1.262478e+01 -1 -1 1 2.536500e-01 5.481539e-01 -2.950003e-01 -7.403809e-01
60 1 4 -2.641550e+00 1.779575e+01 1.262292e+01 -1 -1 1 4.189367e-01 5.896259e-01 -3.374735e-01 -6.024491e-01
61 1 2 -3.092385e+00 1.782804e+01 1.242379e+01 -1 -1 1 -6.443838e-01 -4.420242e-01 4.677853e-01 4.129904e-01
62 1 3 -3.520800e+00 1.756965e+01 1.234359e+01 -1 -1 1 7.607974e-01 3.710927e-01 -5.278668e-01 -6.952826e-02
63 1 2 -3.845305e+00 1.717748e+01 1.231434e+01 -1 -1 1 -7.388267e-01 -3.306568e-01 5.781155e-01 -1.028769e-01
64 1 4 -3.966937e+00 1.664487e+01 1.242423e+01 -1 -1 1 -6.731354e-01 -1.372536e-01 6.650054e-01 -2.929473e-01
65 1 2 -4.089508e+00 1.613853e+01 1.269527e+01 -1 -1 1 -4.994682e-01 1.023760e-01 6.746261e-01 -5.337886e-01
66 1 1 -4.404969e+00 1.582110e+01 1.297555e+01 -1 -1 1 -2.879769e-01 3.689147e-01 6.275044e-01 -6.222615e-01
67 1 2 -4.898469e+00 1.511744e+01 1.251124e+01 -1 -1 1 1.582899e-01 -4.137020e-01 -4.433552e-01 -7.792503e-01
68 1 1 -4.320253e+00 1.412015e+01 1.225331e+01 -1 -1 1 5.735584e-01 -9.357253e-02 8.071922e-02 -8.097897e-01
69 1 1 -3.777543e+00 1.361622e+01 1.229643e+01 -1 -1 1 6.047830e-01 7.071008e-01 -2.323741e-01 2.832813e-01
70 1 2 -3.900302e+00 1.315870e+01 1.311294e+01 -1 -1 1 6.565810e-01 -4.825018e-01 5.521204e-01 -1.767954e-01
71 1 3 -4.893805e+00 1.328369e+01 1.311575e+01 -1 -1 1 6.520394e-02 2.479841e-01 -7.927185e-01 -5.530368e-01
72 1 4 -4.458156e+00 1.348449e+01 1.390932e+01 -1 -1 1 2.930139e-01 2.524310e-01 7.803461e-01 -4.914075e-01
73 1 1 -4.412549e+00 1.379013e+01 1.439142e+01 -1 -1 1 -6.645490e-02 -5.127039e-01 -9.254907e-03 8.559397e-01
74 1 1 -4.838729e+00 1.405450e+01 1.439839e+01 -1 -1 1 2.071475e-01 5.147105e-01 -1.910435e-01 -8.097317e-01
75 1 3 -4.929790e+00 1.419543e+01 1.606101e+01 -1 -1 1 -2.351930e-01 3.076427e-02 8.222929e-01 -5.172738e-01
76 1 1 -4.211513e+00 1.463095e+01 1.666712e+01 -1 -1 1 6.475223e-01 2.555835e-01 -3.048869e-01 6.499507e-01
77 1 4 -4.044886e+00 1.431218e+01 1.712006e+01 -1 -1 1 3.477489e-01 1.361457e-01 -2.421573e-01 8.954858e-01
78 1 1 -4.060262e+00 1.399915e+01 1.760855e+01 -1 -1 1 -4.378641e-01 -1.332018e-01 1.662364e-01 -8.734402e-01
79 1 4 -4.066240e+00 1.382887e+01 1.809141e+01 -1 -1 1 -6.295432e-01 -9.026134e-02 -5.716467e-02 -7.695846e-01
80 1 2 -3.866234e+00 1.395828e+01 1.859317e+01 -1 -1 1 4.417675e-01 1.266998e-01 1.052647e-01 8.818775e-01
81 1 4 -4.308465e+00 1.266708e+01 1.846660e+01 -1 -1 1 -3.566125e-01 -1.555665e-01 -8.858534e-01 -2.527654e-01
82 1 4 -3.529389e+00 1.215907e+01 1.814008e+01 -1 -1 1 -1.517179e-02 6.053626e-01 -4.178160e-01 -6.773003e-01
83 1 4 -3.396029e+00 1.111804e+01 1.893294e+01 -1 -1 1 7.679353e-01 4.623606e-01 -4.410426e-01 4.449117e-02
84 1 4 -3.520529e+00 1.057395e+01 1.902410e+01 -1 -1 1 7.746287e-01 1.130314e-01 -5.309741e-01 3.244084e-01
85 1 1 -3.454078e+00 9.695153e+00 1.878475e+01 -1 -1 1 -9.944721e-01 4.108498e-02 -1.058191e-02 -9.604842e-02
86 1 1 -3.512957e+00 8.839620e+00 1.937155e+01 -1 -1 1 3.632503e-01 -6.379596e-01 6.380994e-01 -2.321334e-01
87 1 3 -4.487392e+00 8.546973e+00 1.871506e+01 -1 -1 1 -3.842120e-01 1.903218e-01 4.058244e-01 8.071340e-01
88 1 2 -4.167881e+00 8.250042e+00 1.822445e+01 -1 -1 1 -6.133776e-02 9.262712e-01 -5.829486e-02 -3.672343e-01
89 1 2 -5.156521e+00 8.084684e+00 1.829714e+01 -1 -1 1 3.243453e-01 -8.503897e-01 -3.515499e-01 -2.192033e-01
90 1 3 -5.225361e+00 8.026861e+00 1.698730e+01 -1 -1 1 -3.828888e-02 -8.739849e-01 -2.163844e-01 4.334307e-01
91 1 3 -5.505404e+00 8.190058e+00 1.654036e+01 -1 -1 1 -2.727141e-01 -8.958892e-01 2.235409e-01 2.702573e-01
92 1 2 -5.397730e+00 8.783343e+00 1.724322e+01 -1 -1 1 4.921983e-01 -5.489408e-02 -7.293495e-01 4.719923e-01
93 1 1 -5.156887e+00 8.966647e+00 1.677756e+01 -1 -1 1 4.748337e-01 -9.253388e-03 7.804295e-01 -4.066658e-01
94 1 2 -4.395076e+00 9.570110e+00 1.671884e+01 -1 -1 1 3.319041e-01 -4.021373e-01 8.200907e-01 2.357467e-01
95 1 3 -4.143637e+00 9.856746e+00 1.626576e+01 -1 -1 1 -2.264997e-01 4.850899e-02 -9.434294e-01 -2.372460e-01
96 1 2 -3.786724e+00 9.879175e+00 1.592772e+01 -1 -1 1 6.941802e-02 1.783428e-01 9.370793e-01 2.919887e-01
97 1 2 -2.608167e+00 1.050928e+01 1.548920e+01 -1 -1 1 3.309352e-01 -6.652904e-01 1.499820e-01 6.522086e-01
98 1 4 -3.729759e+00 1.026161e+01 1.548231e+01 -1 -1 1 -1.494863e-01 3.412317e-01 5.390888e-01 -7.553794e-01
99 1 2 -4.075116e+00 9.186696e+00 1.525773e+01 -1 -1 1 8.499210e-01 -3.020224e-01 -1.071346e-01 -4.182570e-01
100 1 1 -3.600411e+00 1.004456e+01 1.440572e+01 -1 -1 1 -9.275791e-01 -2.695121e-01 -2.511850e-01 -6.218077e-02
101 2 4 -1.012428e+00 9.379311e+00 6.116085e+00 -1 -1 1 -5.712098e-01 3.791673e-01 -6.707459e-01 2.829337e-01
102 2 3 -6.157041e-01 9.184112e+00 6.247980e+00 -1 -1 1 6.591086e-01 -1.012003e-01 7.451839e-01 5.946232e-03
103 2 1 2.160074e-02 1.015435e+01 6.758077e+00 -1 -1 1 1.740983e-01 -7.226829e-01 3.484495e-01 -5.709660e-01
104 2 3 -4.147339e-01 1.021325e+01 5.897139e+00 -1 -1 1 -6.103533e-01 3.673066e-01 -1.252936e-02 7.017106e-01
105 2 3 3.067713e-01 1.063772e+01 4.780301e+00 -1 -1 1 -7.760415e-02 -6.042280e-01 3.582580e-02 7.922138e-01
106 2 2 -3.562778e-02 1.092873e+01 4.851315e+00 -1 -1 1 -3.828812e-01 -5.017419e-01 2.615767e-01 7.302292e-01
107 2 3 -5.071190e-01 1.104935e+01 4.849827e+00 -1 -1 1 6.890383e-01 3.025134e-01 -3.533121e-01 -5.557719e-01
108 2 4 -4.712276e-01 1.213206e+01 5.446788e+00 -1 -1 1 3.941309e-01 -3.498333e-01 -8.399620e-01 1.293881e-01
109 2 3 2.629511e-01 1.271567e+01 5.160970e+00 -1 -1 1 -7.709717e-02 5.291343e-01 -4.357369e-01 -7.240209e-01
110 2 2 -2.116602e-01 1.222309e+01 5.750689e+00 -1 -1 1 7.209851e-01 6.076104e-01 3.167604e-02 -3.316424e-01
111 2 2 -1.075016e+00 1.181174e+01 6.268614e+00 -1 -1 1 -5.114784e-01 -2.628970e-01 -8.138350e-01 8.335201e-02
112 2 3 -1.217203e+00 1.219590e+01 6.638234e+00 -1 -1 1 -7.231705e-01 -5.328754e-01 -9.558674e-02 4.288722e-01
113 2 3 -2.641512e-01 1.307937e+01 6.653809e+00 -1 -1 1 -4.541311e-01 7.246978e-01 -1.885714e-01 -4.827203e-01
114 2 2 -2.662820e-01 1.361889e+01 6.593985e+00 -1 -1 1 2.500952e-01 -6.136772e-01 4.866634e-01 5.692200e-01
115 2 4 -2.318854e-01 1.400564e+01 6.377772e+00 -1 -1 1 5.057118e-02 3.252111e-01 -5.826788e-01 -7.430785e-01
116 2 4 -3.813551e-01 1.443714e+01 6.229902e+00 -1 -1 1 3.757783e-01 9.985854e-02 -5.835094e-01 -7.129767e-01
117 2 1 2.763283e-01 1.549551e+01 6.105498e+00 -1 -1 1 3.563571e-01 7.840405e-01 -2.059146e-01 -4.646389e-01
118 2 1 1.279080e-01 1.537336e+01 5.706824e+00 -1 -1 1 -5.507727e-01 -5.014082e-01 6.092101e-01 2.722175e-01
119 2 1 -1.043342e+00 1.621440e+01 6.280401e+00 -1 -1 1 -6.886154e-02 2.164308e-01 7.982045e-01 -5.579296e-01
120 2 1 -1.193687e+00 1.664765e+01 6.678771e+00 -1 -1 1 5.372554e-01 -2.786667e-01 -4.102493e-01 -6.822001e-01
121 2 3 -6.107772e-01 1.676967e+01 6.812023e+00 -1 -1 1 6.090780e-01 5.802634e-01 1.242192e-01 -5.262014e-01
122 2 1 -1.283050e+00 1.701796e+01 8.235784e+00 -1 -1 1 1.315248e-01 -2.451069e-01 -7.754174e-01 5.668789e-01
123 2 4 -1.643624e+00 1.671430e+01 8.328839e+00 -1 -1 1 -1.946930e-01 -4.904876e-01 -6.911847e-01 4.937410e-01
124 2 1 -2.007461e+00 1.651650e+01 8.185401e+00 -1 -1 1 5.162113e-01 6.773103e-01 3.580372e-01 -3.828655e-01
125 2 4 -2.297497e+00 1.638365e+01 7.978779e+00 -1 -1 1 5.028866e-01 8.292638e-01 -1.836446e-01 -1.603163e-01
126 2 2 -2.380743e+00 1.601347e+01 7.611746e+00 -1 -1 1 4.864564e-01 8.470783e-01 -2.030791e-01 -6.765627e-02
127 2 4 -3.361613e+00 1.673665e+01 7.835163e+00 -1 -1 1 3.741562e-01 -3.343249e-01 1.924023e-02 8.647912e-01
128 2 4 -4.098892e+00 1.619695e+01 8.430780e+00 -1 -1 1 5.597082e-01 1.621861e-01 -2.470600e-01 -7.741988e-01
129 2 1 -4.355514e+00 1.621460e+01 8.900882e+00 -1 -1 1 -4.483843e-01 -3.148577e-01 2.171417e-01 8.078772e-01
130 2 2 -4.782503e+00 1.630439e+01 9.181305e+00 -1 -1 1 4.858004e-01 5.100092e-01 -1.693007e-01 -6.893663e-01
131 2 3 -4.802300e+00 1.704418e+01 1.038538e+01 -1 -1 1 3.581630e-01 6.962786e-01 -1.079070e-01 6.125941e-01
132 2 4 -5.193100e+00 1.704016e+01 1.108425e+01 -1 -1 1 6.549353e-03 -4.366212e-02 1.165557e-01 -9.922023e-01
133 2 4 -4.793002e+00 1.657219e+01 1.154503e+01 -1 -1 1 -3.699753e-01 6.202397e-01 -6.881291e-01 6.999486e-02
134 2 3 -5.271461e+00 1.667465e+01 1.265107e+01 -1 -1 1 3.008687e-01 -6.802207e-01 1.474649e-01 -6.519448e-01
135 2 4 -4.971179e+00 1.685006e+01 1.301349e+01 -1 -1 1 6.605539e-01 -5.227283e-01 2.663691e-01 -4.684776e-01
136 2 3 -4.620123e+00 1.696343e+01 1.337883e+01 -1 -1 1 -7.379548e-01 4.205737e-01 -4.884455e-01 1.999036e-01
137 2 1 -3.932792e+00 1.699354e+01 1.352598e+01 -1 -1 1 6.062196e-01 -3.054313e-01 7.328274e-01 4.662174e-02
138 2 3 -3.446993e+00 1.687939e+01 1.340995e+01 -1 -1 1 -5.488167e-01 -2.892444e-02 -8.104128e-01 -2.029648e-01
139 2 2 -2.993909e+00 1.687550e+01 1.312312e+01 -1 -1 1 -4.193602e-01 -2.764043e-01 -8.207812e-01 -2.721322e-01
140 2 3 -2.810069e+00 1.667342e+01 1.269237e+01 -1 -1 1 -3.211203e-01 -5.332616e-01 -7.184169e-01 -3.104691e-01
141 2 1 -2.603507e+00 1.667115e+01 1.222271e+01 -1 -1 1 1.502582e-01 6.989444e-01 5.837367e-01 3.849035e-01
142 2 2 -2.376140e+00 1.685587e+01 1.180085e+01 -1 -1 1 6.838051e-02 7.842922e-01 3.765762e-01 4.882624e-01
143 2 4 -2.060264e+00 1.711867e+01 1.146292e+01 -1 -1 1 -5.223556e-02 7.979907e-01 1.379971e-01 5.843279e-01
144 2 4 -1.603690e+00 1.747318e+01 1.147758e+01 -1 -1 1 -2.568895e-01 7.089493e-01 3.940599e-03 6.567976e-01
145 2 1 -1.208675e+00 1.781763e+01 1.176073e+01 -1 -1 1 4.462781e-01 -6.525686e-01 3.680786e-01 -4.893958e-01
146 2 1 -7.302962e-01 1.792006e+01 1.208700e+01 -1 -1 1 5.808157e-01 -5.230454e-01 4.356205e-01 -4.464430e-01
147 2 1 -2.932152e-01 1.783141e+01 1.237018e+01 -1 -1 1 7.209741e-01 -2.529249e-01 5.953321e-01 -2.486061e-01
148 2 2 2.403066e-01 1.769297e+01 1.245380e+01 -1 -1 1 6.814923e-01 -1.492914e-01 7.147965e-01 -4.843839e-02
149 2 4 7.494231e-01 1.753180e+01 1.240612e+01 -1 -1 1 -5.624394e-01 -8.559728e-02 -8.218531e-01 -2.987360e-02
150 2 1 1.030308e+00 1.724417e+01 1.211069e+01 -1 -1 1 -5.190501e-01 -3.709513e-01 -7.448394e-01 -1.954388e-01
151 2 1 1.365923e+00 1.713963e+01 1.161008e+01 -1 -1 1 -4.041715e-01 -5.193539e-01 -6.472388e-01 -3.847063e-01
152 2 1 1.611903e+00 1.715018e+01 1.118680e+01 -1 -1 1 -2.776434e-01 -7.105801e-01 -4.676089e-01 -4.464661e-01
153 2 4 1.889351e+00 1.743044e+01 1.083440e+01 -1 -1 1 -5.108045e-02 -8.115361e-01 -2.386456e-01 -5.308938e-01
154 2 1 2.215255e+00 1.778476e+01 1.065936e+01 -1 -1 1 6.692237e-02 -8.078627e-01 6.590096e-02 -5.818387e-01
155 2 2 2.661291e+00 1.806277e+01 1.070566e+01 -1 -1 1 3.046859e-01 -7.125506e-01 2.533415e-01 -5.790132e-01
156 2 4 3.036661e+00 1.826226e+01 1.094732e+01 -1 -1 1 5.606789e-01 -5.858849e-01 3.759025e-01 -4.484143e-01
157 2 3 3.726502e+00 1.804866e+01 1.131679e+01 -1 -1 1 5.171180e-01 -4.784360e-01 6.122442e-01 -3.589498e-01
158 2 2 4.204623e+00 1.780574e+01 1.142808e+01 -1 -1 1 5.440347e-01 -1.675327e-01 8.219602e-01 1.845375e-02
159 2 1 4.644257e+00 1.765681e+01 1.120564e+01 -1 -1 1 4.846233e-01 3.322530e-02 8.660993e-01 1.179341e-01
160 2 3 4.990164e+00 1.750894e+01 1.089443e+01 -1 -1 1 -4.692794e-01 -2.342405e-01 -8.200168e-01 -2.290868e-01
161 2 1 5.379845e+00 1.744011e+01 1.038659e+01 -1 -1 1 -3.407936e-01 -3.898654e-01 -7.459228e-01 -4.188841e-01
162 2 1 5.706675e+00 1.766584e+01 1.003052e+01 -1 -1 1 -8.442039e-02 -5.314210e-01 -6.546396e-01 -5.309537e-01
163 2 4 5.755578e+00 1.804122e+01 9.666087e+00 -1 -1 1 1.352185e-01 -6.871084e-01 -5.094704e-01 -5.000379e-01
164 2 4 5.778492e+00 1.855536e+01 9.490708e+00 -1 -1 1 2.638882e-01 -8.218900e-01 -2.112127e-01 -4.585292e-01
165 2 3 5.969503e+00 1.902178e+01 9.400686e+00 -1 -1 1 4.489956e-01 -7.906079e-01 1.154838e-02 -4.161835e-01
166 2 3 6.325876e+00 1.944729e+01 9.526222e+00 -1 -1 1 5.547924e-01 -6.803925e-01 2.813998e-01 -3.874087e-01
167 2 4 6.821789e+00 1.964267e+01 9.651059e+00 -1 -1 1 6.271736e-01 -5.489409e-01 4.428421e-01 -3.304664e-01
168 2 2 7.231311e+00 1.962998e+01 9.954021e+00 -1 -1 1 7.297591e-01 -3.574498e-01 5.633001e-01 -1.495805e-01
169 2 2 7.639056e+00 1.952697e+01 1.016176e+01 -1 -1 1 7.468273e-01 -1.571261e-01 6.434328e-01 5.962089e-02
170 2 1 8.015861e+00 1.930659e+01 1.038450e+01 -1 -1 1 7.699093e-01 6.363200e-02 6.036919e-01 1.968421e-01
171 2 1 8.519254e+00 1.907010e+01 1.024315e+01 -1 -1 1 -6.689226e-01 -2.321575e-01 -5.842887e-01 -3.965504e-01
172 2 4 9.043854e+00 1.914911e+01 1.006649e+01 -1 -1 1 -4.090685e-01 -3.741948e-01 -5.201981e-01 -6.496424e-01
173 2 4 9.445711e+00 1.943674e+01 9.885593e+00 -1 -1 1 -1.818516e-01 -4.875459e-01 -4.583739e-01 -7.205015e-01
174 2 1 9.705352e+00 1.974758e+01 9.717252e+00 -1 -1 1 2.286941e-02 -6.224324e-01 -2.090489e-01 -7.538922e-01
175 2 1 9.988270e+00 -1.976882e+01 9.880173e+00 -1 0 1 3.483409e-01 -5.806565e-01 -4.012274e-02 -7.347699e-01
176 2 2 1.023175e+01 -1.948113e+01 1.026689e+01 -1 0 1 4.934371e-01 -5.404254e-01 2.244777e-01 -6.434828e-01
177 2 2 1.045852e+01 -1.932142e+01 1.072656e+01 -1 0 1 7.299647e-01 -3.713277e-01 2.967314e-01 -4.911393e-01
178 2 1 1.075569e+01 -1.938324e+01 1.115582e+01 -1 0 1 8.028169e-01 -2.039916e-01 4.198292e-01 -3.709662e-01
179 2 4 1.106066e+01 -1.970974e+01 1.148953e+01 -1 0 1 8.803482e-01 -2.219442e-02 4.727311e-01 -3.193457e-02
180 2 1 1.143939e+01 -2.005606e+01 1.176722e+01 -1 0 1 8.310454e-01 1.384158e-01 5.037411e-01 1.909174e-01
181 2 4 1.194440e+01 1.974260e+01 1.173630e+01 -1 -1 1 -6.837011e-01 -3.478143e-01 -5.504644e-01 -3.294949e-01
182 2 2 1.237733e+01 1.964140e+01 1.154746e+01 -1 -1 1 -5.224463e-01 -4.819087e-01 -4.064220e-01 -5.741385e-01
183 2 3 1.280506e+01 1.981461e+01 1.137596e+01 -1 -1 1 -2.835417e-01 -5.889685e-01 -3.261835e-01 -6.828796e-01
184 2 4 1.331726e+01 1.997532e+01 1.131757e+01 -1 -1 1 -9.561565e-02 -5.361215e-01 -1.779876e-01 -8.196046e-01
185 2 3 1.362411e+01 -1.958408e+01 1.130155e+01 -1 0 1 -1.682091e-01 6.157470e-01 7.328159e-03 7.697452e-01
186 2 1 1.400155e+01 -1.932885e+01 1.164688e+01 -1 0 1 -3.795639e-01 4.878850e-01 -2.515342e-01 7.447349e-01
187 2 1 1.432757e+01 -1.922781e+01 1.204871e+01 -1 0 1 6.258603e-01 -2.440131e-01 2.272222e-01 -7.050721e-01
188 2 2 1.436488e+01 -1.923932e+01 1.257110e+01 -1 0 1 -8.552238e-01 1.276497e-01 -2.548438e-01 4.328423e-01
189 2 4 1.442974e+01 -1.947119e+01 1.301777e+01 -1 0 1 -9.083957e-01 -4.653757e-02 -2.282465e-01 3.472102e-01
190 2 4 1.451424e+01 -1.991153e+01 1.332117e+01 -1 0 1 -9.664611e-01 -1.129404e-01 -2.305808e-01 5.457970e-03
191 2 1 1.479478e+01 1.979269e+01 1.364679e+01 -1 -1 1 9.145242e-01 1.977192e-01 2.912803e-01 1.992695e-01
192 2 4 1.520187e+01 1.947576e+01 1.368678e+01 -1 -1 1 -7.696264e-01 -4.081590e-01 -1.685012e-01 -4.611819e-01
193 2 4 1.565365e+01 1.924812e+01 1.370015e+01 -1 -1 1 5.814498e-01 5.211849e-01 1.747820e-01 5.997781e-01
194 2 1 1.618031e+01 1.918366e+01 1.384332e+01 -1 -1 1 -3.963486e-01 -5.685144e-01 -2.857839e-01 -6.618358e-01
195 2 3 1.674958e+01 1.929096e+01 1.383089e+01 -1 -1 1 2.009699e-01 5.687706e-01 2.380448e-01 7.612133e-01
196 2 4 1.709577e+01 1.963712e+01 1.388397e+01 -1 -1 1 9.988711e-02 -6.029379e-01 4.004072e-02 -7.904968e-01
197 2 2 1.754738e+01 1.982793e+01 1.412789e+01 -1 -1 1 3.368503e-01 -5.046623e-01 2.916391e-01 -7.394556e-01
198 2 4 1.800830e+01 1.986317e+01 1.460157e+01 -1 -1 1 4.193385e-01 -3.667490e-01 3.853183e-01 -7.356495e-01
199 2 3 1.937802e+01 -1.952261e+01 1.420671e+01 -1 0 1 -6.111199e-01 6.206988e-01 -2.375139e-01 -4.299450e-01
200 2 4 1.917801e+01 -1.964807e+01 1.473399e+01 -1 0 1 9.625650e-01 1.730778e-01 1.160657e-01 -1.733245e-01
