ITEM: TIMESTEP
350000000
ITEM: NUMBER OF ATOMS
200
ITEM: BOX BOUNDS pp pp pp
-2.0000000000000000e+01 2.0000000000000000e+01
-2.0000000000000000e+01 2.0000000000000000e+01
-2.0000000000000000e+01 2.0000000000000000e+01
ITEM: ATOMS id mol type x y z ix iy iz c_quat[1] c_quat[2] c_quat[3] c_quat[4]
1 1 1 -1.469798e+01 -1.594422e+01 -1.854934e+01 0 0 2 -5.336869e-01 5.712188e-01 -4.371888e-01 -4.446946e-01
2 1 2 -1.445795e+01 -1.553218e+01 -1.862676e+01 0 0 2 -2.822682e-01 2.898697e-01 -6.546463e-01 -6.385440e-01
3 1 1 -1.529505e+01 -1.477974e+01 -1.772720e+01 0 0 2 -1.180161e-01 -2.590957e-01 -6.115569e-01 7.382004e-01
4 1 3 -1.563403e+01 -1.515885e+01 -1.765299e+01 0 0 2 2.471145e-01 4.997612e-01 5.487517e-01 -6.229323e-01
5 1 1 -1.594989e+01 -1.553355e+01 -1.767184e+01 0 0 2 -2.162743e-01 -6.462929e-01 -4.505890e-01 5.766284e-01
6 1 2 -1.632379e+01 -1.573702e+01 -1.787649e+01 0 0 2 -2.806274e-01 -7.914808e-01 -1.876954e-01 5.094869e-01
7 1 4 -1.673491e+01 -1.577938e+01 -1.817096e+01 0 0 2 -4.118246e-01 -8.212200e-01 1.254299e-01 3.745204e-01
8 1 1 -1.705887e+01 -1.605544e+01 -1.848954e+01 0 0 2 -4.951128e-01 -8.090487e-01 2.408363e-01 2.056731e-01
9 1 1 -1.718639e+01 -1.632405e+01 -1.901974e+01 0 0 2 4.565006e-01 7.979496e-01 -3.934315e-01 -9.763293e-03
10 1 4 -1.708947e+01 -1.658103e+01 -1.933692e+01 0 0 2 -4.434822e-01 -5.823213e-01 6.717896e-01 -1.136850e-01
11 1 1 -1.700938e+01 -1.708092e+01 -1.959295e+01 0 0 2 -4.480613e-01 -3.204744e-01 8.213878e-01 -1.478491e-01
12 1 1 -1.726893e+01 -1.749409e+01 -1.987366e+01 0 0 2 4.810240e-01 1.166544e-01 -8.292527e-01 2.595141e-01
13 1 3 -1.752965e+01 -1.792753e+01 -1.993594e+01 0 0 2 -4.487551e-01 6.424998e-02 7.670991e-01 -4.539271e-01
14 1 4 -1.780083e+01 -1.833168e+01 -1.978921e+01 0 0 2 3.769861e-01 -1.676244e-01 -6.598867e-01 6.279595e-01
15 1 4 -1.812939e+01 -1.865806e+01 -1.943704e+01 0 0 2 2.503568e-01 -3.700531e-01 -5.311463e-01 7.199068e-01
16 1 2 -1.857880e+01 -1.864964e+01 -1.921061e+01 0 0 2 6.864339e-03 5.270791e-01 2.781060e-01 -8.029929e-01
17 1 1 -1.911151e+01 -1.862597e+01 -1.909303e+01 0 0 2 2.619292e-01 6.557955e-01 1.515787e-01 -6.916280e-01
18 1 2 -1.957456e+01 -1.857278e+01 -1.917579e+01 0 0 2 -3.468998e-01 -6.733786e-01 1.446420e-01 6.366321e-01
19 1 3 1.994562e+01 -1.850696e+01 -1.936593e+01 -1 0 2 -3.805230e-01 -6.784404e-01 3.063248e-01 5.487130e-01
20 1 1 1.957629e+01 -1.859413e+01 -1.973296e+01 -1 0 2 -5.548317e-01 -5.829348e-01 4.942035e-01 3.288034e-01
21 1 4 1.920043e+01 -1.883401e+01 1.980072e+01 -1 0 1 6.350533e-01 4.176017e-01 -6.136141e-01 -2.139951e-01
22 1 1 1.879265e+01 -1.916719e+01 1.962176e+01 -1 0 1 6.959812e-01 3.045580e-01 -6.501068e-01 1.468718e-02
23 1 4 1.853516e+01 -1.964460e+01 1.963836e+01 -1 0 1 6.644437e-01 3.539046e-02 -7.045695e-01 2.466654e-01
24 1 3 1.798405e+01 -1.975667e+01 1.971286e+01 -1 0 1 7.558643e-01 4.743462e-02 -6.011987e-01 2.549102e-01
25 1 3 1.782545e+01 1.986013e+01 -1.999419e+01 -1 -1 2 5.772716e-01 -9.028176e-02 -5.175952e-01 6.250615e-01
26 1 4 1.758040e+01 1.964316e+01 -1.945927e+01 -1 -1 2 3.975904e-01 -3.358653e-01 -4.278059e-01 7.389848e-01
27 1 4 1.722858e+01 1.970846e+01 -1.907582e+01 -1 -1 2 1.010087e-01 -4.930183e-01 -2.652332e-01 8.224242e-01
28 1 1 1.675051e+01 1.973012e+01 -1.882118e+01 -1 -1 2 -2.304691e-02 -6.083788e-01 -7.664090e-02 7.896013e-01
29 1 1 1.615170e+01 1.999542e+01 -1.884067e+01 -1 -1 2 -2.924771e-01 -6.385707e-01 1.007950e-01 7.046453e-01
30 1 4 1.562735e+01 -1.992962e+01 -1.892128e+01 -1 0 2 5.002100e-01 6.293133e-01 -2.006222e-01 -5.599155e-01
31 1 4 1.514603e+01 1.992198e+01 -1.908698e+01 -1 -1 2 5.746702e-01 6.523447e-01 -3.232566e-01 -3.737722e-01
32 1 3 1.479560e+01 1.967727e+01 -1.935786e+01 -1 -1 2 6.382236e-01 5.885812e-01 -4.784235e-01 -1.317334e-01
33 1 3 1.453524e+01 1.931148e+01 -1.962783e+01 -1 -1 2 6.708778e-01 3.800394e-01 -6.310564e-01 8.521029e-02
34 1 1 1.429705e+01 1.881835e+01 -1.961349e+01 -1 -1 2 6.867405e-01 2.414817e-01 -5.913842e-01 3.468988e-01
35 1 2 1.428286e+01 1.827058e+01 -1.945619e+01 -1 -1 2 5.255858e-01 -1.975784e-02 -6.872620e-01 5.010390e-01
36 1 2 1.385462e+01 1.789801e+01 -1.936546e+01 -1 -1 2 5.348252e-01 -2.051321e-01 -5.998156e-01 5.586628e-01
37 1 1 1.347220e+01 1.774612e+01 -1.895663e+01 -1 -1 2 3.471257e-01 -4.356325e-01 -4.796262e-01 6.780020e-01
38 1 1 1.292608e+01 1.773501e+01 -1.871775e+01 -1 -1 2 1.929610e-01 -6.366118e-01 -3.749944e-01 6.456552e-01
39 1 4 1.238463e+01 1.794632e+01 -1.860663e+01 -1 -1 2 9.796725e-02 7.365287e-01 2.076501e-01 -6.362463e-01
40 1 4 1.186541e+01 1.804367e+01 -1.874779e+01 -1 -1 2 3.855398e-01 7.441090e-01 -2.962993e-02 -5.447779e-01
41 1 2 1.142852e+01 1.792165e+01 -1.910973e+01 -1 -1 2 4.738204e-01 7.683109e-01 -2.478161e-01 -3.518235e-01
42 1 4 1.126560e+01 1.780329e+01 -1.951727e+01 -1 -1 2 -5.102969e-01 -5.977547e-01 5.987490e-01 1.542271e-01
43 1 3 1.112373e+01 1.749761e+01 -1.993584e+01 -1 -1 2 5.370277e-01 4.350230e-01 -7.227385e-01 2.307755e-03
44 1 2 1.073738e+01 1.712930e+01 1.983679e+01 -1 -1 1 6.694639e-01 2.232096e-01 -6.921268e-01 1.515125e-01
45 1 1 1.049403e+01 1.661960e+01 1.981224e+01 -1 -1 1 5.980230e-01 7.167065e-02 -7.101166e-01 3.646453e-01
46 1 3 1.029424e+01 1.615148e+01 -1.998843e+01 -1 -1 2 4.836371e-01 -1.775844e-01 -6.351029e-01 5.755026e-01
47 1 4 9.881790e+00 1.595701e+01 -1.961809e+01 -1 -1 2 2.348718e-01 -4.733339e-01 -5.746534e-01 6.249509e-01
48 1 1 9.393665e+00 1.592794e+01 -1.932881e+01 -1 -1 2 -1.004666e-01 6.228091e-01 3.305994e-01 -7.019397e-01
49 1 4 8.847368e+00 1.607824e+01 -1.920496e+01 -1 -1 2 1.240931e-01 6.979620e-01 1.260358e-01 -6.939488e-01
50 1 4 8.335313e+00 1.608874e+01 -1.931017e+01 -1 -1 2 2.658007e-01 7.557104e-01 -7.112883e-02 -5.943000e-01
51 1 4 7.911457e+00 1.609806e+01 -1.967637e+01 -1 -1 2 5.598671e-01 6.758812e-01 -2.614101e-01 -4.017439e-01
52 1 1 7.591142e+00 1.586337e+01 1.991442e+01 -1 -1 1 5.703323e-01 6.159374e-01 -5.215759e-01 -1.526456e-01
53 1 3 7.324030e+00 1.539604e+01 1.975927e+01 -1 -1 1 -5.852373e-01 -6.774963e-01 4.434584e-01 4.290397e-02
54 1 4 7.374840e+00 1.507116e+01 1.940965e+01 -1 -1 1 -5.210854e-01 -4.710809e-01 6.817504e-01 -2.043749e-01
55 1 4 7.356300e+00 1.454382e+01 1.936562e+01 -1 -1 1 4.337101e-01 2.464410e-01 -7.726983e-01 3.925554e-01
56 1 4 7.294726e+00 1.406963e+01 1.950858e+01 -1 -1 1 2.970293e-01 3.017312e-02 -8.025643e-01 5.164821e-01
57 1 1 7.160381e+00 1.356908e+01 1.966375e+01 -1 -1 1 -1.104907e-01 3.402575e-01 8.272055e-01 -4.332987e-01
58 1 1 6.671699e+00 1.325727e+01 1.978774e+01 -1 -1 1 -6.458385e-02 -5.800792e-01 -6.050175e-01 5.415633e-01
59 1 3 6.125895e+00 1.306575e+01 1.954384e+01 -1 -1 1 1.113456e-01 8.039028e-01 4.311281e-01 -3.942981e-01
60 1 4 5.760974e+00 1.296179e+01 1.920086e+01 -1 -1 1 2.321026e-01 9.255009e-01 1.591350e-01 -2.534806e-01
61 1 2 5.631333e+00 1.285383e+01 1.868599e+01 -1 -1 1 -2.840418e-01 -9.525229e-01 9.547984e-02 5.388921e-02
62 1 3 5.759663e+00 1.286749e+01 1.810976e+01 -1 -1 1 2.299568e-01 8.914427e-01 -3.832470e-01 7.464197e-02
63 1 2 6.144034e+00 1.286353e+01 1.772423e+01 -1 -1 1 -1.506311e-01 -6.951486e-01 6.956917e-01 -1.004577e-01
64 1 4 6.331421e+00 1.255887e+01 1.728280e+01 -1 -1 1 -2.555961e-01 -4.520013e-01 8.320473e-01 -1.950969e-01
65 1 2 6.217367e+00 1.213900e+01 1.693870e+01 -1 -1 1 -3.213301e-01 -2.167036e-01 8.814731e-01 -2.697995e-01
66 1 1 6.214549e+00 1.166461e+01 1.671575e+01 -1 -1 1 -2.145927e-01 1.090094e-01 9.019406e-01 -3.585667e-01
67 1 2 6.152653e+00 1.124907e+01 1.674361e+01 -1 -1 1 -2.521000e-02 -4.008225e-01 -8.144499e-01 4.187806e-01
68 1 1 6.798734e+00 1.039939e+01 1.581617e+01 -1 -1 1 -2.442399e-01 3.088063e-02 -9.144581e-01 -3.211846e-01
69 1 1 6.953878e+00 1.035174e+01 1.532067e+01 -1 -1 1 5.252901e-02 4.610393e-01 8.037007e-01 3.724899e-01
70 1 2 6.997520e+00 1.070987e+01 1.489100e+01 -1 -1 1 2.402379e-01 -5.363270e-01 -6.932462e-01 -4.171916e-01
71 1 3 6.801889e+00 1.083057e+01 1.449124e+01 -1 -1 1 -4.061958e-01 6.086438e-01 4.931163e-01 -4.705252e-01
72 1 4 6.934854e+00 1.041911e+01 1.313698e+01 -1 -1 1 -1.474633e-01 -2.972665e-01 5.070287e-01 7.954930e-01
73 1 1 7.778101e+00 1.059075e+01 1.294546e+01 -1 -1 1 -1.142520e-01 -4.749220e-01 3.256123e-01 8.095506e-01
74 1 1 8.746571e+00 1.120123e+01 1.328488e+01 -1 -1 1 -2.835503e-01 9.134141e-01 1.996905e-01 -2.130673e-01
75 1 3 8.655199e+00 1.164061e+01 1.316289e+01 -1 -1 1 -2.195562e-01 8.704512e-01 -1.756422e-01 -4.040539e-01
76 1 1 8.494613e+00 1.208358e+01 1.292712e+01 -1 -1 1 -1.523478e-01 7.959549e-01 -4.050902e-01 -4.232587e-01
77 1 4 8.552088e+00 1.238448e+01 1.262817e+01 -1 -1 1 1.247842e-02 4.936284e-01 -7.212977e-01 -4.857004e-01
78 1 1 8.448726e+00 1.256472e+01 1.220429e+01 -1 -1 1 2.477075e-01 1.231608e-01 -8.369547e-01 -4.722068e-01
79 1 4 8.174346e+00 1.266930e+01 1.185242e+01 -1 -1 1 -4.027495e-01 6.789681e-02 8.652800e-01 2.906431e-01
80 1 2 9.329526e+00 1.379077e+01 1.159168e+01 -1 -1 1 -3.132559e-01 -9.168204e-01 2.293199e-01 -9.339999e-02
81 1 4 9.511281e+00 1.368747e+01 1.110228e+01 -1 -1 1 3.260718e-01 7.828959e-01 -5.026972e-01 1.674716e-01
82 1 4 8.796063e+00 1.491017e+01 1.106521e+01 -1 -1 1 -2.855892e-02 -3.935119e-01 -1.304920e-01 9.095628e-01
83 1 4 9.236873e+00 1.473507e+01 1.073317e+01 -1 -1 1 3.306541e-01 3.328793e-01 6.884035e-01 -5.531363e-01
84 1 4 9.682908e+00 1.518474e+01 1.053132e+01 -1 -1 1 6.871532e-01 3.210266e-01 9.881889e-02 -6.442028e-01
85 1 1 9.628151e+00 1.572527e+01 1.020750e+01 -1 -1 1 -7.708588e-02 1.004101e-01 9.337105e-01 3.349035e-01
86 1 1 1.029984e+01 1.557654e+01 9.857604e+00 -1 -1 1 3.303394e-01 7.291039e-01 5.991854e-01 -1.612957e-02
87 1 3 1.033000e+01 1.552630e+01 9.384809e+00 -1 -1 1 2.121590e-01 9.383007e-01 2.516443e-01 1.060915e-01
88 1 2 1.056226e+01 1.565209e+01 8.943442e+00 -1 -1 1 -4.692517e-02 -9.549547e-01 1.544908e-01 -2.489822e-01
89 1 2 1.067616e+01 1.542321e+01 7.640582e+00 -1 -1 1 -7.929624e-01 -5.561218e-01 -2.481494e-01 1.900064e-02
90 1 3 1.088310e+01 1.497249e+01 7.444460e+00 -1 -1 1 6.950338e-01 6.097538e-01 -6.052724e-02 3.761179e-01
91 1 3 1.133458e+01 1.458377e+01 7.592905e+00 -1 -1 1 6.434570e-01 3.530944e-01 -2.395850e-01 6.355206e-01
92 1 2 1.160043e+01 1.451656e+01 8.008028e+00 -1 -1 1 2.191447e-01 2.632066e-01 -3.403967e-01 8.756871e-01
93 1 1 1.174453e+01 1.437493e+01 8.479704e+00 -1 -1 1 1.983156e-01 -1.079451e-01 4.898953e-01 -8.420340e-01
94 1 2 1.183180e+01 1.343078e+01 8.392941e+00 -1 -1 1 6.973740e-01 7.738647e-02 6.750237e-01 -2.280872e-01
95 1 3 1.133274e+01 1.294685e+01 8.499077e+00 -1 -1 1 7.968969e-01 2.206349e-01 -4.596885e-01 -3.239784e-01
96 1 2 1.095851e+01 1.268761e+01 8.684498e+00 -1 -1 1 -8.931710e-01 -1.907257e-02 4.443581e-01 -6.654085e-02
97 1 2 1.140438e+01 1.213195e+01 8.347534e+00 -1 -1 1 8.822597e-01 3.727056e-01 -1.836348e-01 2.213293e-01
98 1 4 1.145689e+01 1.141766e+01 8.444090e+00 -1 -1 1 -8.653153e-01 1.996433e-01 2.329917e-01 3.963419e-01
99 1 2 1.105957e+01 1.073250e+01 8.360318e+00 -1 -1 1 7.124330e-01 -1.651651e-01 2.960964e-01 -6.143995e-01
100 1 1 1.092725e+01 1.076836e+01 8.410834e+00 -1 -1 1 3.012571e-01 -5.432721e-01 -5.585460e-01 5.496599e-01
101 2 4 -1.721857e+00 1.339643e+01 1.462239e+01 -1 -1 1 4.854586e-01 8.095723e-01 1.792595e-01 2.771076e-01
102 2 3 -1.557088e+00 1.380445e+01 1.537452e+01 -1 -1 1 5.362590e-01 -7.819045e-01 1.458297e-01 -2.824630e-01
103 2 1 -1.578689e+00 1.331131e+01 1.424426e+01 -1 -1 1 9.824082e-01 5.017617e-02 -1.503617e-01 -9.873114e-02
104 2 3 -2.744266e+00 1.391701e+01 1.398664e+01 -1 -1 1 5.168711e-01 4.709811e-02 6.111929e-01 -5.975527e-01
105 2 3 -2.697196e+00 1.475436e+01 1.425687e+01 -1 -1 1 -5.081709e-01 -8.522508e-02 -2.563559e-01 8.177901e-01
106 2 2 -1.737551e+00 1.571304e+01 1.372336e+01 -1 -1 1 4.451880e-01 -1.687845e-02 2.499602e-01 8.596759e-01
107 2 3 -1.345104e+00 1.603923e+01 1.385773e+01 -1 -1 1 1.203502e-01 1.674458e-01 2.992006e-01 9.316420e-01
108 2 4 -1.286680e+00 1.493694e+01 1.360607e+01 -1 -1 1 4.756498e-01 -4.337305e-02 1.394197e-01 -8.674319e-01
109 2 3 -1.162250e+00 1.475475e+01 1.418018e+01 -1 -1 1 -5.205246e-01 -6.661434e-02 -1.435541e-01 8.390524e-01
110 2 2 -9.559947e-02 1.458975e+01 1.405050e+01 -1 -1 1 4.187610e-01 -2.442336e-01 8.487908e-01 -2.110531e-01
111 2 2 2.836105e-01 1.430753e+01 1.381407e+01 -1 -1 1 3.725442e-01 4.332777e-02 8.637897e-01 -3.364533e-01
112 2 3 3.382567e-01 1.384533e+01 1.366234e+01 -1 -1 1 -5.844507e-01 -4.071508e-01 -6.995205e-01 5.759148e-02
113 2 3 7.424303e-01 1.368839e+01 1.396932e+01 -1 -1 1 1.653925e-01 -7.342819e-01 -5.460660e-01 -3.678143e-01
114 2 2 1.747984e+00 1.416141e+01 1.339819e+01 -1 -1 1 -2.280173e-01 6.655525e-01 -4.765633e-02 -7.090676e-01
115 2 4 2.282658e+00 1.386115e+01 1.472981e+01 -1 -1 1 -6.391839e-01 6.709238e-02 5.475064e-01 -5.358911e-01
116 2 4 2.040127e+00 1.365773e+01 1.517486e+01 -1 -1 1 -3.280470e-01 3.286078e-01 4.728254e-01 -7.488913e-01
117 2 1 1.681153e+00 1.357538e+01 1.546396e+01 -1 -1 1 -5.914736e-02 -5.680312e-01 -2.738431e-01 7.738554e-01
118 2 1 2.991248e+00 1.258585e+01 1.605363e+01 -1 -1 1 9.717516e-01 4.319012e-02 -1.975370e-01 1.217070e-01
119 2 1 3.128238e+00 1.219742e+01 1.646674e+01 -1 -1 1 -8.609530e-01 -3.776661e-02 2.679401e-01 -4.307455e-01
120 2 1 3.142229e+00 1.201887e+01 1.698821e+01 -1 -1 1 -5.902215e-01 2.001179e-01 2.414025e-01 -7.438523e-01
121 2 3 3.217558e+00 1.214703e+01 1.749403e+01 -1 -1 1 -3.756018e-01 1.721331e-01 -3.290761e-03 -9.106496e-01
122 2 1 3.688285e+00 1.148245e+01 1.837316e+01 -1 -1 1 -6.983268e-01 -5.847803e-01 3.336833e-01 -2.429550e-01
123 2 4 3.795782e+00 1.098986e+01 1.833188e+01 -1 -1 1 -5.502946e-01 -4.591119e-01 5.598604e-01 -4.158707e-01
124 2 1 4.006875e+00 1.053861e+01 1.831777e+01 -1 -1 1 -3.463625e-01 -2.646632e-01 7.108785e-01 -5.519404e-01
125 2 4 3.980434e+00 9.986117e+00 1.836463e+01 -1 -1 1 3.168950e-01 2.483902e-02 -6.577361e-01 6.828938e-01
126 2 2 4.610873e+00 9.464192e+00 1.709829e+01 -1 -1 1 5.856362e-01 -5.407644e-01 4.740162e-01 3.740491e-01
127 2 4 4.175989e+00 9.583801e+00 1.682379e+01 -1 -1 1 8.855627e-01 -3.831572e-01 5.876533e-02 2.559608e-01
128 2 4 2.620477e+00 9.879516e+00 1.702347e+01 -1 -1 1 -5.011405e-01 2.581771e-01 -7.108310e-02 8.228913e-01
129 2 1 3.474077e+00 1.070921e+01 1.608767e+01 -1 -1 1 -7.096636e-01 -1.029466e-01 -5.825729e-01 -3.826075e-01
130 2 2 3.977010e+00 1.070710e+01 1.605720e+01 -1 -1 1 4.699805e-01 3.670614e-01 4.474161e-01 6.664856e-01
131 2 3 4.473918e+00 1.091181e+01 1.596465e+01 -1 -1 1 1.632716e-01 4.523295e-01 3.624896e-01 7.983368e-01
132 2 4 4.846239e+00 1.130977e+01 1.607655e+01 -1 -1 1 -1.595100e-01 4.979002e-01 2.585121e-02 8.520467e-01
133 2 4 5.024913e+00 1.169196e+01 1.637599e+01 -1 -1 1 -4.517639e-01 4.584838e-01 1.018809e-02 7.652438e-01
134 2 3 5.052005e+00 1.196819e+01 1.675163e+01 -1 -1 1 -7.934493e-01 4.184945e-01 -1.450553e-01 4.174441e-01
135 2 4 5.137291e+00 1.211352e+01 1.719490e+01 -1 -1 1 -9.120615e-01 2.418588e-01 -2.490518e-01 2.182231e-01
136 2 3 5.293778e+00 1.195843e+01 1.761626e+01 -1 -1 1 -9.558918e-01 1.226586e-01 -2.455865e-01 -1.044649e-01
137 2 1 5.739174e+00 1.180441e+01 1.792219e+01 -1 -1 1 -8.898937e-01 6.412800e-02 -2.640392e-01 -3.664152e-01
138 2 3 6.168056e+00 1.176395e+01 1.825890e+01 -1 -1 1 -7.304982e-01 7.535955e-02 -2.798599e-01 -6.183622e-01
139 2 2 6.575302e+00 1.201876e+01 1.848982e+01 -1 -1 1 -3.869178e-01 -2.553663e-02 -3.216859e-01 -8.638059e-01
140 2 3 6.765386e+00 1.256750e+01 1.867093e+01 -1 -1 1 -1.116011e-01 -1.625851e-02 -3.604833e-01 -9.259226e-01
141 2 1 6.717425e+00 1.327463e+01 1.853186e+01 -1 -1 1 -1.447711e-01 1.862316e-01 4.203925e-01 8.761445e-01
142 2 2 6.564122e+00 1.373664e+01 1.870159e+01 -1 -1 1 -5.069188e-01 2.494387e-01 3.403124e-01 7.516656e-01
143 2 4 6.267273e+00 1.405089e+01 1.900271e+01 -1 -1 1 -7.270905e-01 3.896272e-01 1.884415e-01 5.329351e-01
144 2 4 6.215030e+00 1.437901e+01 1.945719e+01 -1 -1 1 -8.322701e-01 4.258689e-01 -6.021578e-02 3.497660e-01
145 2 1 6.362945e+00 1.456290e+01 1.992278e+01 -1 -1 1 8.983805e-01 -3.351826e-01 2.554193e-01 -1.237985e-01
146 2 1 6.750643e+00 1.468883e+01 -1.964732e+01 -1 -1 2 8.388074e-01 -2.580924e-01 4.752936e-01 -6.234122e-02
147 2 1 7.251394e+00 1.468128e+01 -1.946286e+01 -1 -1 2 7.466997e-01 -1.350686e-01 5.775847e-01 3.009851e-01
148 2 2 7.772313e+00 1.479823e+01 -1.941222e+01 -1 -1 2 5.330881e-01 -3.315336e-03 7.309051e-01 4.261265e-01
149 2 4 8.154633e+00 1.491609e+01 -1.973242e+01 -1 -1 2 -3.898632e-01 -2.797249e-01 -7.360745e-01 -4.774463e-01
150 2 1 8.564200e+00 1.515499e+01 1.992946e+01 -1 -1 1 -1.812656e-01 -4.174936e-01 -6.351375e-01 -6.240531e-01
151 2 1 8.676619e+00 1.556509e+01 1.965709e+01 -1 -1 1 2.847487e-02 -5.856589e-01 -4.282519e-01 -6.875995e-01
152 2 1 8.810461e+00 1.606376e+01 1.956063e+01 -1 -1 1 2.681606e-01 -6.912936e-01 -2.236625e-01 -6.325963e-01
153 2 4 9.090788e+00 1.657315e+01 1.974305e+01 -1 -1 1 3.971113e-01 -6.770252e-01 5.131403e-03 -6.196073e-01
154 2 1 9.412911e+00 1.694222e+01 -1.999180e+01 -1 -1 2 6.303747e-01 -5.157377e-01 2.822050e-01 -5.069543e-01
155 2 2 9.690732e+00 1.704763e+01 -1.956185e+01 -1 -1 2 7.366305e-01 -4.406885e-01 3.979362e-01 -3.237529e-01
156 2 4 1.009998e+01 1.702828e+01 -1.916689e+01 -1 -1 2 7.882185e-01 -2.424951e-01 5.611522e-01 -7.082312e-02
157 2 3 1.065042e+01 1.694294e+01 -1.898639e+01 -1 -1 2 7.215331e-01 -4.351087e-02 6.738309e-01 1.531297e-01
158 2 2 1.109551e+01 1.668003e+01 -1.908067e+01 -1 -1 2 7.140765e-01 1.736711e-01 5.772515e-01 3.559689e-01
159 2 1 1.173001e+01 1.673387e+01 -1.927291e+01 -1 -1 2 4.600401e-01 2.754793e-01 5.796705e-01 6.135604e-01
160 2 3 1.219965e+01 1.701171e+01 -1.939475e+01 -1 -1 2 -1.976406e-01 -3.722529e-01 -6.619898e-01 -6.197867e-01
161 2 1 1.242348e+01 1.743460e+01 -1.967903e+01 -1 -1 2 5.289230e-02 -5.162515e-01 -5.121794e-01 -6.843676e-01
162 2 1 1.243884e+01 1.798408e+01 -1.975534e+01 -1 -1 2 2.347622e-01 -6.700279e-01 -2.515702e-01 -6.577703e-01
163 2 4 1.280445e+01 1.843346e+01 -1.963400e+01 -1 -1 2 4.826133e-01 -5.958052e-01 -4.769690e-02 -6.401762e-01
164 2 4 1.299898e+01 1.874718e+01 -1.927861e+01 -1 -1 2 6.126660e-01 -5.880890e-01 2.567554e-01 -4.613765e-01
165 2 3 1.345930e+01 1.895305e+01 -1.898554e+01 -1 -1 2 6.403780e-01 -4.817159e-01 4.566631e-01 -3.864254e-01
166 2 3 1.386342e+01 1.891132e+01 -1.854597e+01 -1 -1 2 7.383345e-01 -3.538675e-01 5.561690e-01 -1.425345e-01
167 2 4 1.437527e+01 1.893625e+01 -1.840346e+01 -1 -1 2 6.588055e-01 -2.335656e-01 7.130780e-01 5.424319e-02
168 2 2 1.484503e+01 1.893037e+01 -1.852729e+01 -1 -1 2 5.878860e-01 2.083563e-03 7.811352e-01 2.102702e-01
169 2 2 1.535105e+01 1.881703e+01 -1.871006e+01 -1 -1 2 5.331391e-01 1.420804e-01 7.411885e-01 3.823814e-01
170 2 1 1.571331e+01 1.883619e+01 -1.903564e+01 -1 -1 2 3.637162e-01 4.035236e-01 6.859364e-01 4.841183e-01
171 2 1 1.594892e+01 1.907153e+01 -1.947527e+01 -1 -1 2 -1.283602e-01 -6.026141e-01 -5.299872e-01 -5.826607e-01
172 2 4 1.614318e+01 1.945191e+01 -1.984286e+01 -1 -1 2 8.564161e-02 -7.131372e-01 -3.470707e-01 -6.030280e-01
173 2 4 1.639362e+01 1.991436e+01 -1.996626e+01 -1 -1 2 2.412245e-01 -7.808174e-01 -9.857878e-02 -5.678179e-01
174 2 1 1.663947e+01 -1.962634e+01 -1.996894e+01 -1 0 2 4.328493e-01 -7.250778e-01 1.216156e-01 -5.216448e-01
175 2 1 1.702287e+01 -1.928915e+01 -1.965097e+01 -1 0 2 5.533529e-01 -6.591742e-01 2.748440e-01 -4.286616e-01
176 2 2 1.741018e+01 -1.916129e+01 -1.936716e+01 -1 0 2 6.466075e-01 -4.740800e-01 5.633668e-01 -1.994110e-01
177 2 2 1.799483e+01 -1.909212e+01 -1.933838e+01 -1 0 2 5.967659e-01 -4.046247e-01 6.606805e-01 -2.089272e-01
178 2 1 1.848725e+01 -1.920780e+01 -1.927672e+01 -1 0 2 6.991309e-01 -1.896141e-01 6.794790e-01 -1.164935e-01
179 2 4 1.900204e+01 -1.947621e+01 -1.921771e+01 -1 0 2 6.423417e-01 1.107735e-02 7.573120e-01 1.172729e-01
180 2 1 1.940668e+01 -1.969897e+01 -1.942564e+01 -1 0 2 6.005431e-01 2.453826e-01 6.666174e-01 3.670922e-01
181 2 4 1.983613e+01 -1.974161e+01 -1.974542e+01 -1 0 2 -4.413110e-01 -4.400617e-01 -5.430216e-01 -5.627769e-01
182 2 2 -1.964799e+01 -1.954442e+01 -1.993304e+01 0 0 2 -2.283062e-01 -4.997337e-01 -5.201827e-01 -6.538750e-01
183 2 3 -1.932861e+01 -1.926266e+01 1.989593e+01 0 0 1 -1.332456e-02 -5.819001e-01 -4.684571e-01 -6.646523e-01
184 2 4 -1.920868e+01 -1.881906e+01 1.975870e+01 0 0 1 2.236078e-01 -7.152233e-01 -2.738388e-01 -6.028826e-01
185 2 3 -1.897438e+01 -1.830177e+01 1.977701e+01 0 0 1 -5.030959e-01 6.397800e-01 1.804119e-01 5.522931e-01
186 2 1 -1.877642e+01 -1.781311e+01 -1.990929e+01 0 0 2 -6.029305e-01 6.128333e-01 -8.362771e-02 5.039014e-01
187 2 1 -1.859946e+01 -1.750569e+01 -1.959253e+01 0 0 2 7.575168e-01 -5.250573e-01 2.883875e-01 -2.594528e-01
188 2 2 -1.829569e+01 -1.738026e+01 -1.919617e+01 0 0 2 -8.531559e-01 3.571112e-01 -3.656812e-01 1.042778e-01
189 2 4 -1.787157e+01 -1.733716e+01 -1.888284e+01 0 0 2 -8.610180e-01 1.188333e-01 -4.932726e-01 3.476663e-02
190 2 4 -1.742419e+01 -1.752613e+01 -1.857530e+01 0 0 2 -8.251723e-01 6.839935e-02 -5.105701e-01 -2.317981e-01
191 2 1 -1.693564e+01 -1.741748e+01 -1.851763e+01 0 0 2 6.180973e-01 8.667576e-02 5.152998e-01 5.872896e-01
192 2 4 -1.639828e+01 -1.706026e+01 -1.851087e+01 0 0 2 -4.396628e-01 -3.422543e-02 -6.300870e-01 -6.391522e-01
193 2 4 -1.613866e+01 -1.674396e+01 -1.872921e+01 0 0 2 2.042137e-01 2.739445e-01 6.390115e-01 6.891411e-01
194 2 1 -1.595083e+01 -1.632084e+01 -1.894620e+01 0 0 2 8.095577e-02 -3.918073e-01 -5.247939e-01 -7.513485e-01
195 2 3 -1.578412e+01 -1.572543e+01 -1.892345e+01 0 0 2 -2.369820e-01 4.401303e-01 4.922161e-01 7.126347e-01
196 2 4 -1.583097e+01 -1.521143e+01 -1.885014e+01 0 0 2 5.342647e-01 -4.112812e-01 -4.338563e-01 -5.976434e-01
197 2 2 -1.617528e+01 -1.488768e+01 -1.874389e+01 0 0 2 -6.481473e-01 5.645133e-01 2.951578e-01 4.172668e-01
198 2 4 -1.634392e+01 -1.450150e+01 -1.837869e+01 0 0 2 -8.153784e-01 5.350855e-01 1.076869e-01 1.929899e-01
199 2 3 -1.647234e+01 -1.423486e+01 -1.795340e+01 0 0 2 8.479971e-01 -4.947247e-01 8.393440e-02 1.705970e-01
200 2 4 -1.681680e+01 -1.309379e+01 -1.808311e+01 0 0 2 6.192152e-01 -2.044876e-01 -3.811553e-01 6.553457e-01
