ITEM: TIMESTEP
50000000
ITEM: NUMBER OF ATOMS
200
ITEM: BOX BOUNDS pp pp pp
-2.0000000000000000e+01 2.0000000000000000e+01
-2.0000000000000000e+01 2.0000000000000000e+01
-2.0000000000000000e+01 2.0000000000000000e+01
ITEM: ATOMS id mol type x y z ix iy iz c_quat[1] c_quat[2] c_quat[3] c_quat[4]
1 1 1 1.059495e+01 4.759176e+00 5.215847e+00 -1 -1 0 2.394010e-01 -1.820831e-01 5.372929e-01 7.879399e-01
2 1 2 1.012775e+01 4.822006e+00 6.341922e+00 -1 -1 0 -4.685918e-02 -1.171020e-01 -1.735135e-01 -9.767212e-01
3 1 1 1.017300e+01 5.285391e+00 6.617066e+00 -1 -1 0 -3.208742e-01 2.484565e-01 8.394744e-02 9.100890e-01
4 1 3 1.013605e+01 5.547593e+00 7.038264e+00 -1 -1 0 6.212026e-01 -2.820352e-01 3.409911e-02 -7.303429e-01
5 1 1 9.963550e+00 5.629032e+00 7.533172e+00 -1 -1 0 8.407031e-01 -2.166088e-01 8.044036e-02 -4.897227e-01
6 1 2 1.007320e+01 5.632824e+00 8.025231e+00 -1 -1 0 8.866132e-01 -9.242526e-02 9.032579e-02 -4.440899e-01
7 1 4 1.009165e+01 5.435249e+00 8.464658e+00 -1 -1 0 -9.864090e-01 6.544501e-02 -1.487772e-01 2.407574e-02
8 1 1 1.032140e+01 5.239312e+00 8.928386e+00 -1 -1 0 -9.555930e-01 -5.288792e-02 -2.082839e-01 -2.016501e-01
9 1 1 1.081311e+01 5.027121e+00 9.272530e+00 -1 -1 0 -8.223862e-01 -2.210382e-02 -2.364918e-01 -5.169758e-01
10 1 4 1.126464e+01 4.994947e+00 9.548445e+00 -1 -1 0 6.371161e-01 3.694152e-02 2.633731e-01 7.234314e-01
11 1 1 1.165757e+01 5.279806e+00 9.809740e+00 -1 -1 0 3.915245e-01 6.502825e-02 3.316215e-01 8.558663e-01
12 1 1 1.194883e+01 5.635377e+00 9.965556e+00 -1 -1 0 -1.210253e-01 -1.946427e-01 -3.073923e-01 -9.235676e-01
13 1 3 1.205608e+01 6.091467e+00 1.024096e+01 -1 -1 0 1.942521e-01 -1.880929e-01 -2.127856e-01 -9.389406e-01
14 1 4 1.196215e+01 6.500019e+00 1.060815e+01 -1 -1 0 4.169659e-01 -1.200513e-01 -1.707848e-01 -8.846240e-01
15 1 4 1.174504e+01 6.727943e+00 1.099368e+01 -1 -1 0 -6.846586e-01 1.727416e-01 3.922548e-02 7.070108e-01
16 1 2 1.154317e+01 6.758338e+00 1.149290e+01 -1 -1 0 -8.846464e-01 5.554502e-02 3.440557e-02 4.616619e-01
17 1 1 1.143451e+01 6.692528e+00 1.204212e+01 -1 -1 0 9.701129e-01 -5.294000e-02 1.361214e-01 -1.937766e-01
18 1 2 1.161005e+01 6.468879e+00 1.259645e+01 -1 -1 0 9.697901e-01 5.283699e-02 2.380959e-01 -5.082148e-03
19 1 3 1.200237e+01 6.310789e+00 1.300500e+01 -1 -1 0 8.779018e-01 1.673544e-01 4.283261e-01 1.334827e-01
20 1 1 1.245511e+01 6.073684e+00 1.318151e+01 -1 -1 0 7.829633e-01 2.953132e-01 4.435930e-01 3.209109e-01
21 1 4 1.294989e+01 5.896934e+00 1.309273e+01 -1 -1 0 -5.822855e-01 -4.186876e-01 -2.665209e-01 -6.439028e-01
22 1 1 1.352411e+01 6.030073e+00 1.301621e+01 -1 -1 0 -3.462846e-01 -4.632147e-01 -2.067281e-01 -7.891658e-01
23 1 4 1.394068e+01 6.248005e+00 1.310752e+01 -1 -1 0 -4.806542e-02 -5.325676e-01 -1.981927e-01 -8.214506e-01
24 1 3 1.426116e+01 6.680803e+00 1.319366e+01 -1 -1 0 2.372122e-01 -5.679309e-01 -5.677857e-02 -7.861050e-01
25 1 3 1.455123e+01 7.102906e+00 1.345712e+01 -1 -1 0 3.905494e-01 -4.382840e-01 1.072451e-02 -8.094834e-01
26 1 4 1.468904e+01 7.407166e+00 1.386824e+01 -1 -1 0 6.114443e-01 -4.115744e-01 1.843445e-01 -6.501996e-01
27 1 4 1.482933e+01 7.548971e+00 1.433740e+01 -1 -1 0 7.999502e-01 -3.254136e-01 2.957629e-01 -4.083013e-01
28 1 1 1.507793e+01 7.548857e+00 1.477061e+01 -1 -1 0 8.840878e-01 -1.873731e-01 4.141807e-01 -1.083255e-01
29 1 1 1.550191e+01 7.292575e+00 1.513959e+01 -1 -1 0 8.624963e-01 5.301194e-02 5.025676e-01 2.675386e-02
30 1 4 1.603346e+01 7.086568e+00 1.518995e+01 -1 -1 0 -7.169963e-01 -1.762932e-01 -5.965279e-01 -3.146292e-01
31 1 4 1.657659e+01 7.037511e+00 1.506366e+01 -1 -1 0 -5.597025e-01 -3.002505e-01 -5.874287e-01 -5.015080e-01
32 1 3 1.709637e+01 7.271401e+00 1.489977e+01 -1 -1 0 -2.484281e-01 -4.171552e-01 -5.244396e-01 -6.994484e-01
33 1 3 1.741120e+01 7.758340e+00 1.483285e+01 -1 -1 0 5.415911e-02 -4.831898e-01 -2.988089e-01 -8.211623e-01
34 1 1 1.758915e+01 8.232417e+00 1.475259e+01 -1 -1 0 2.595101e-01 -5.224707e-01 -2.372859e-01 -7.767717e-01
35 1 2 1.781874e+01 8.698684e+00 1.495823e+01 -1 -1 0 4.622569e-01 -3.537158e-01 -2.303308e-01 -7.798407e-01
36 1 2 1.763581e+01 8.988465e+00 1.530176e+01 -1 -1 0 7.726943e-01 -4.400120e-01 -4.901097e-02 -4.548966e-01
37 1 1 1.765108e+01 9.249455e+00 1.574838e+01 -1 -1 0 8.634271e-01 -4.038941e-01 1.101730e-01 -2.814696e-01
38 1 1 1.789644e+01 9.251015e+00 1.629918e+01 -1 -1 0 9.218176e-01 -2.965534e-01 2.479592e-01 -2.871717e-02
39 1 4 1.825375e+01 9.292087e+00 1.670221e+01 -1 -1 0 -8.671432e-01 1.280199e-01 -4.353571e-01 -2.052749e-01
40 1 4 1.878289e+01 9.260779e+00 1.699350e+01 -1 -1 0 -7.677482e-01 -7.711978e-03 -5.176309e-01 -3.775732e-01
41 1 2 1.924964e+01 9.227978e+00 1.705883e+01 -1 -1 0 -5.939396e-01 -1.870885e-01 -3.897293e-01 -6.784871e-01
42 1 4 1.972614e+01 9.480503e+00 1.708246e+01 -1 -1 0 -3.263431e-01 -2.604957e-01 -4.516917e-01 -7.884268e-01
43 1 3 -1.997315e+01 9.936509e+00 1.707304e+01 0 -1 0 -1.076594e-01 -3.361654e-01 -4.425181e-01 -8.243664e-01
44 1 2 -1.980078e+01 1.045731e+01 1.708577e+01 0 -1 0 1.959290e-01 -4.150058e-01 -2.722941e-01 -8.457174e-01
45 1 1 -1.962732e+01 1.092006e+01 1.733590e+01 0 -1 0 4.499139e-01 -3.910863e-01 -2.732940e-01 -7.549433e-01
46 1 3 -1.974300e+01 1.132223e+01 1.765979e+01 0 -1 0 7.179933e-01 -4.151562e-01 -1.662503e-02 -5.584393e-01
47 1 4 -1.978930e+01 1.150614e+01 1.811727e+01 0 -1 0 8.860326e-01 -3.397614e-01 1.543283e-01 -2.751203e-01
48 1 1 -1.956860e+01 1.157458e+01 1.870621e+01 0 -1 0 -8.829994e-01 3.462990e-01 -3.034923e-01 9.100300e-02
49 1 4 -1.924320e+01 1.145665e+01 1.906092e+01 0 -1 0 -8.999707e-01 1.241983e-01 -3.852480e-01 -1.618998e-01
50 1 4 -1.877704e+01 1.141744e+01 1.932231e+01 0 -1 0 -7.937333e-01 -1.852911e-02 -4.262059e-01 -4.335812e-01
51 1 4 -1.825309e+01 1.137544e+01 1.935760e+01 0 -1 0 -6.017818e-01 -2.399611e-01 -5.279568e-01 -5.491256e-01
52 1 1 -1.775333e+01 1.148743e+01 1.921809e+01 0 -1 0 -3.756955e-01 -4.047291e-01 -4.916432e-01 -6.733010e-01
53 1 3 -1.731527e+01 1.182506e+01 1.912536e+01 0 -1 0 -8.593084e-02 -4.671317e-01 -4.135987e-01 -7.767497e-01
54 1 4 -1.713296e+01 1.235544e+01 1.915894e+01 0 -1 0 2.526585e-01 -5.499713e-01 -1.691803e-01 -7.778646e-01
55 1 4 -1.697412e+01 1.283866e+01 1.938565e+01 0 -1 0 5.008218e-01 -4.312061e-01 -1.376892e-01 -7.377537e-01
56 1 4 -1.709102e+01 1.310634e+01 1.980513e+01 0 -1 0 7.825869e-01 -5.185278e-01 5.395339e-02 -3.402582e-01
57 1 1 -1.668073e+01 1.348328e+01 -1.980421e+01 0 -1 1 6.852845e-01 -4.874681e-01 2.532864e-01 -4.781277e-01
58 1 1 -1.646500e+01 1.357881e+01 -1.930817e+01 0 -1 1 8.460402e-01 -2.204993e-01 3.762031e-01 -3.067040e-01
59 1 3 -1.620787e+01 1.356989e+01 -1.881937e+01 0 -1 1 -8.939132e-01 1.490691e-01 -3.992155e-01 1.390129e-01
60 1 4 -1.576012e+01 1.345635e+01 -1.855305e+01 0 -1 1 -8.489630e-01 -1.379727e-02 -5.260253e-01 -4.866980e-02
61 1 2 -1.534721e+01 1.311272e+01 -1.855406e+01 0 -1 1 -8.136342e-01 -2.182083e-01 -4.649369e-01 -2.724302e-01
62 1 3 -1.492330e+01 1.290005e+01 -1.871022e+01 0 -1 1 -6.359159e-01 -3.937426e-01 -3.201475e-01 -5.814493e-01
63 1 2 -1.438496e+01 1.294718e+01 -1.881823e+01 0 -1 1 -4.110904e-01 -4.694550e-01 -3.421007e-01 -7.025552e-01
64 1 4 -1.382943e+01 1.314362e+01 -1.879050e+01 0 -1 1 -2.358381e-01 -5.130920e-01 -3.236477e-01 -7.591898e-01
65 1 2 -1.343021e+01 1.348243e+01 -1.880617e+01 0 -1 1 6.266046e-02 -5.566011e-01 -3.193902e-02 -8.277975e-01
66 1 1 -1.316268e+01 1.392925e+01 -1.862703e+01 0 -1 1 3.631342e-01 -5.295307e-01 -1.713019e-02 -7.664446e-01
67 1 2 -1.304112e+01 1.433137e+01 -1.821194e+01 0 -1 1 4.927887e-01 -5.197794e-01 1.733547e-01 -6.759710e-01
68 1 1 -1.277045e+01 1.450952e+01 -1.777912e+01 0 -1 1 7.051602e-01 -4.315621e-01 3.601067e-01 -4.322342e-01
69 1 1 -1.236842e+01 1.457403e+01 -1.742019e+01 0 -1 1 7.736514e-01 -1.975086e-01 4.831342e-01 -3.592146e-01
70 1 2 -1.203966e+01 1.428995e+01 -1.701583e+01 0 -1 1 -8.117991e-01 4.385812e-02 -5.177233e-01 2.664981e-01
71 1 3 -1.160182e+01 1.393449e+01 -1.687008e+01 0 -1 1 -7.717330e-01 -1.309244e-01 -6.179138e-01 -7.395606e-02
72 1 4 -1.120363e+01 1.354221e+01 -1.701212e+01 0 -1 1 -7.271738e-01 -3.608704e-01 -4.679638e-01 -3.492860e-01
73 1 1 -1.070362e+01 1.344504e+01 -1.708454e+01 0 -1 1 -6.004457e-01 -4.407954e-01 -4.632399e-01 -4.801804e-01
74 1 1 -1.011323e+01 1.357949e+01 -1.714046e+01 0 -1 1 -4.056688e-01 -4.376004e-01 -3.451069e-01 -7.244584e-01
75 1 3 -9.638460e+00 1.387836e+01 -1.726575e+01 0 -1 1 -1.747455e-01 -4.869867e-01 -3.751570e-01 -7.691328e-01
76 1 1 -9.300805e+00 1.428782e+01 -1.721025e+01 0 -1 1 1.056146e-01 -5.702355e-01 -1.297561e-01 -8.042639e-01
77 1 4 -8.898061e+00 1.463542e+01 -1.698348e+01 0 -1 1 2.766357e-01 -5.295861e-01 4.093874e-02 -8.008341e-01
78 1 1 -8.663670e+00 1.493599e+01 -1.664455e+01 0 -1 1 5.575339e-01 -4.568781e-01 9.038911e-02 -6.872032e-01
79 1 4 -8.482466e+00 1.507264e+01 -1.614677e+01 0 -1 1 7.284551e-01 -2.858852e-01 2.836437e-01 -5.542283e-01
80 1 2 -8.468185e+00 1.497537e+01 -1.563140e+01 0 -1 1 -8.949696e-01 1.480509e-01 -2.933769e-01 3.017289e-01
81 1 4 -8.300657e+00 1.472951e+01 -1.516796e+01 0 -1 1 -9.409061e-01 -2.263854e-02 -3.201878e-01 1.079955e-01
82 1 4 -7.974454e+00 1.432164e+01 -1.487120e+01 0 -1 1 -8.986031e-01 -1.174236e-01 -3.735089e-01 -1.980286e-01
83 1 4 -7.454939e+00 1.407730e+01 -1.473624e+01 0 -1 1 -7.450578e-01 -2.587848e-01 -3.948641e-01 -4.711705e-01
84 1 4 -6.951710e+00 1.396334e+01 -1.463405e+01 0 -1 1 -5.961807e-01 -3.754490e-01 -4.064874e-01 -5.816998e-01
85 1 1 -6.402863e+00 1.405780e+01 -1.468894e+01 0 -1 1 -3.445948e-01 -4.098943e-01 -2.841737e-01 -7.952901e-01
86 1 1 -6.039867e+00 1.442866e+01 -1.463497e+01 0 -1 1 -8.674977e-02 -4.529943e-01 -8.254866e-02 -8.834344e-01
87 1 3 -5.737167e+00 1.477746e+01 -1.442320e+01 0 -1 1 2.038054e-01 -4.781480e-01 -2.743566e-02 -8.538648e-01
88 1 2 -5.569822e+00 1.514060e+01 -1.418623e+01 0 -1 1 4.885762e-01 -5.325908e-01 1.558930e-01 -6.733036e-01
89 1 2 -5.233440e+00 1.529156e+01 -1.381777e+01 0 -1 1 -5.832918e-01 4.180522e-01 -3.861027e-01 5.795928e-01
90 1 3 -4.829822e+00 1.522190e+01 -1.338182e+01 0 -1 1 6.342140e-01 -2.557627e-01 5.668078e-01 -4.594421e-01
91 1 3 -4.617365e+00 1.495721e+01 -1.308802e+01 0 -1 1 -7.596639e-01 -4.885181e-02 -6.095045e-01 2.214241e-01
92 1 2 -4.270580e+00 1.458525e+01 -1.310618e+01 0 -1 1 -8.026737e-01 -2.266093e-01 -4.927023e-01 -2.482086e-01
93 1 1 -3.911706e+00 1.504965e+01 -1.221632e+01 0 -1 1 7.473099e-01 -4.965025e-02 2.091154e-01 6.287555e-01
94 1 2 -3.501257e+00 1.518788e+01 -1.193682e+01 0 -1 1 -5.257473e-01 3.326174e-02 -2.818219e-01 -8.019101e-01
95 1 3 -3.330895e+00 1.559105e+01 -1.170318e+01 0 -1 1 1.074744e-01 -4.534260e-02 3.762133e-01 9.191610e-01
96 1 2 -2.418434e+00 1.491471e+01 -1.059830e+01 0 -1 1 8.376709e-01 -2.206813e-01 -4.019939e-01 2.966618e-01
97 1 2 -2.118763e+00 1.445669e+01 -1.113293e+01 0 -1 1 -6.687324e-02 -1.145626e-01 9.468659e-01 2.929989e-01
98 1 4 -1.965906e+00 1.531027e+01 -1.061422e+01 0 -1 1 7.364403e-01 -6.368657e-01 -1.880222e-02 -2.273856e-01
99 1 2 -1.749753e+00 1.576416e+01 -1.055938e+01 0 -1 1 -8.098432e-01 4.751143e-01 -5.331768e-02 3.399671e-01
100 1 1 -1.856584e+00 1.619665e+01 -1.063534e+01 0 -1 1 -3.581681e-01 6.853370e-01 -5.571065e-01 -3.027560e-01
101 2 4 -1.430350e+00 1.358880e+01 -1.722874e+01 0 -1 1 8.474063e-01 2.142570e-01 2.862566e-01 -3.924967e-01
102 2 3 -1.540547e+00 1.309436e+01 -1.700992e+01 0 -1 1 -9.262818e-01 -3.207128e-01 -1.977110e-01 -7.456418e-03
103 2 1 -2.857103e+00 1.287091e+01 -1.668833e+01 0 -1 1 -6.353274e-01 2.755605e-01 3.108865e-01 6.509801e-01
104 2 3 -2.899617e+00 1.305774e+01 -1.665226e+01 0 -1 1 -6.748771e-01 -5.124533e-01 2.465942e-01 4.702380e-01
105 2 3 -2.801496e+00 1.332573e+01 -1.509599e+01 0 -1 1 -3.964222e-01 -2.161026e-01 7.105239e-01 -5.397267e-01
106 2 2 -2.978336e+00 1.275991e+01 -1.485594e+01 0 -1 1 -2.818460e-01 1.391651e-01 7.301568e-01 -6.066853e-01
107 2 3 -3.846759e+00 1.209451e+01 -1.535738e+01 0 -1 1 4.275077e-01 -2.790327e-01 -3.625532e-01 -7.797006e-01
108 2 4 -3.960425e+00 1.250684e+01 -1.500175e+01 0 -1 1 -6.947995e-01 4.262286e-01 3.591887e-02 5.781806e-01
109 2 3 -3.807063e+00 1.276836e+01 -1.459842e+01 0 -1 1 -8.155553e-01 3.712629e-01 -1.586483e-01 4.145651e-01
110 2 2 -3.976393e+00 1.399737e+01 -1.471268e+01 0 -1 1 -5.595564e-01 -5.721406e-01 5.374982e-02 -5.972125e-01
111 2 2 -4.813721e+00 1.423274e+01 -1.396137e+01 0 -1 1 -5.705434e-01 2.907707e-01 7.359316e-01 -2.198575e-01
112 2 3 -5.301313e+00 1.410707e+01 -1.377312e+01 0 -1 1 4.459789e-01 -5.844204e-01 -5.514875e-01 3.942298e-01
113 2 3 -5.730957e+00 1.423111e+01 -1.347806e+01 0 -1 1 2.991795e-01 -7.006651e-01 -3.224969e-01 5.617435e-01
114 2 2 -6.266559e+00 1.440656e+01 -1.344888e+01 0 -1 1 1.978300e-01 -8.414840e-01 -1.413606e-01 4.824781e-01
115 2 4 -6.744655e+00 1.464967e+01 -1.368391e+01 0 -1 1 1.039816e-01 -8.713432e-01 1.710237e-01 4.479951e-01
116 2 4 -6.964885e+00 1.500797e+01 -1.410381e+01 0 -1 1 -3.538926e-02 -8.509544e-01 4.095288e-01 3.269714e-01
117 2 1 -6.989795e+00 1.521726e+01 -1.461763e+01 0 -1 1 -2.079881e-01 -6.794771e-01 6.736144e-01 2.032128e-01
118 2 1 -7.070333e+00 1.516975e+01 -1.515803e+01 0 -1 1 -2.918315e-01 -4.842251e-01 8.143029e-01 1.314201e-01
119 2 1 -7.172834e+00 1.486239e+01 -1.557844e+01 0 -1 1 -3.336492e-01 -2.182259e-01 9.170505e-01 -8.604312e-03
120 2 1 -7.336402e+00 1.455737e+01 -1.598622e+01 0 -1 1 -3.720880e-01 8.520866e-03 9.227633e-01 -9.992918e-02
121 2 3 -7.633679e+00 1.415878e+01 -1.614466e+01 0 -1 1 2.779031e-01 -2.915067e-01 -8.680822e-01 2.902188e-01
122 2 1 -8.210862e+00 1.394189e+01 -1.623923e+01 0 -1 1 3.737379e-01 -4.460776e-01 -6.958714e-01 4.208298e-01
123 2 4 -8.695483e+00 1.381837e+01 -1.611162e+01 0 -1 1 3.372974e-01 -6.141474e-01 -4.622546e-01 5.434833e-01
124 2 1 -9.264419e+00 1.391069e+01 -1.610643e+01 0 -1 1 2.750507e-01 -7.534165e-01 -2.623593e-01 5.365429e-01
125 2 4 -9.676420e+00 1.424544e+01 -1.607302e+01 0 -1 1 -3.784918e-04 -8.128069e-01 2.187529e-02 5.821223e-01
126 2 2 -1.013081e+01 1.454868e+01 -1.639490e+01 0 -1 1 -2.069762e-01 -7.973306e-01 2.177073e-01 5.234771e-01
127 2 4 -1.053062e+01 1.458740e+01 -1.671942e+01 0 -1 1 -2.808768e-01 -7.950325e-01 3.656862e-01 3.940877e-01
128 2 4 -1.057818e+01 1.463444e+01 -1.718674e+01 0 -1 1 -3.389086e-01 -5.869116e-01 6.731357e-01 2.959122e-01
129 2 1 -1.078516e+01 1.450572e+01 -1.761844e+01 0 -1 1 -4.475955e-01 -3.706967e-01 7.984625e-01 1.571615e-01
130 2 2 -1.126380e+01 1.422480e+01 -1.795185e+01 0 -1 1 -5.834213e-01 -8.483837e-02 8.066658e-01 4.138006e-02
131 2 3 -1.167719e+01 1.388242e+01 -1.808642e+01 0 -1 1 -6.128056e-01 2.418471e-03 7.807732e-01 -1.218883e-01
132 2 4 -1.201025e+01 1.358181e+01 -1.798034e+01 0 -1 1 4.648176e-01 -3.056591e-01 -7.506758e-01 3.563748e-01
133 2 4 -1.244111e+01 1.340419e+01 -1.775836e+01 0 -1 1 3.604999e-01 -4.984362e-01 -5.837084e-01 5.299864e-01
134 2 3 -1.299876e+01 1.331360e+01 -1.762596e+01 0 -1 1 2.603099e-01 -6.475555e-01 -4.838440e-01 5.280205e-01
135 2 4 -1.349816e+01 1.342000e+01 -1.759936e+01 0 -1 1 -3.572036e-02 8.072347e-01 2.199314e-01 -5.465587e-01
136 2 3 -1.390039e+01 1.354994e+01 -1.769938e+01 0 -1 1 3.403926e-02 8.380506e-01 -8.615813e-02 -5.376703e-01
137 2 1 -1.427639e+01 1.380900e+01 -1.795204e+01 0 -1 1 -8.800911e-02 -8.173346e-01 3.048085e-01 4.809473e-01
138 2 3 -1.465246e+01 1.399549e+01 -1.831591e+01 0 -1 1 -1.360851e-01 -7.726178e-01 5.024499e-01 3.634373e-01
139 2 2 -1.476988e+01 1.412547e+01 -1.873384e+01 0 -1 1 -3.019658e-01 -6.041659e-01 7.017747e-01 2.265224e-01
140 2 3 -1.498682e+01 1.395763e+01 -1.927773e+01 0 -1 1 -4.887602e-01 -3.668734e-01 7.829235e-01 1.163968e-01
141 2 1 -1.529839e+01 1.365371e+01 -1.960873e+01 0 -1 1 -5.000473e-01 -2.310170e-01 8.239185e-01 -1.331999e-01
142 2 2 -1.552218e+01 1.320736e+01 -1.978703e+01 0 -1 1 -4.812889e-01 -6.744876e-02 8.308007e-01 -2.712596e-01
143 2 4 -1.574194e+01 1.270827e+01 -1.985393e+01 0 -1 1 3.737427e-01 -2.333095e-01 -7.968992e-01 4.133216e-01
144 2 4 -1.613176e+01 1.239343e+01 -1.971969e+01 0 -1 1 -3.415208e-01 4.230519e-01 6.028790e-01 -5.838900e-01
145 2 1 -1.656316e+01 1.236521e+01 -1.955693e+01 0 -1 1 1.976925e-02 6.817805e-01 3.262856e-01 -6.544633e-01
146 2 1 -1.712704e+01 1.212160e+01 -1.969379e+01 0 -1 1 -5.224394e-02 7.423236e-01 4.238938e-01 -5.162754e-01
147 2 1 -1.763516e+01 1.213312e+01 -1.978075e+01 0 -1 1 2.105126e-02 8.471458e-01 1.765734e-01 -5.007221e-01
148 2 2 -1.799836e+01 1.244845e+01 1.993888e+01 0 -1 0 1.876469e-01 8.445968e-01 -1.648349e-01 -4.735761e-01
149 2 4 -1.829145e+01 1.251871e+01 1.943722e+01 0 -1 0 -3.789891e-01 -8.006547e-01 3.655316e-01 2.858426e-01
150 2 1 -1.842468e+01 1.250476e+01 1.896012e+01 0 -1 0 -3.341551e-01 -6.825474e-01 6.369734e-01 1.293614e-01
151 2 1 -1.851628e+01 1.227330e+01 1.849103e+01 0 -1 0 -3.756751e-01 -4.923374e-01 7.821864e-01 -6.823908e-02
152 2 1 -1.848910e+01 1.174696e+01 1.816909e+01 0 -1 0 -3.681323e-01 -2.189666e-01 8.612802e-01 -2.733655e-01
153 2 4 -1.864790e+01 1.128601e+01 1.804663e+01 0 -1 0 -3.413256e-01 1.354822e-02 8.612948e-01 -3.761444e-01
154 2 1 -1.882411e+01 1.085156e+01 1.817715e+01 0 -1 0 -2.323011e-02 3.580882e-01 7.505191e-01 -5.549363e-01
155 2 2 -1.932120e+01 1.037055e+01 1.827836e+01 0 -1 0 -9.596570e-02 5.485716e-01 6.020298e-01 -5.722062e-01
156 2 4 -1.991264e+01 1.029930e+01 1.824201e+01 0 -1 0 8.733405e-03 7.620157e-01 4.206476e-01 -4.922513e-01
157 2 3 1.960999e+01 1.045571e+01 1.811611e+01 -1 -1 0 2.046939e-01 8.240559e-01 6.496400e-02 -5.242251e-01
158 2 2 1.916283e+01 1.052961e+01 1.765746e+01 -1 -1 0 3.139193e-01 8.741806e-01 -1.423542e-01 -3.420501e-01
159 2 1 1.897844e+01 1.047846e+01 1.723388e+01 -1 -1 0 3.023373e-01 8.167027e-01 -4.395290e-01 -2.200071e-01
160 2 3 1.897559e+01 1.037295e+01 1.663450e+01 -1 -1 0 -3.665124e-01 -6.933486e-01 6.202030e-01 1.687177e-02
161 2 1 1.893507e+01 1.002075e+01 1.609344e+01 -1 -1 0 -4.356567e-01 -5.071017e-01 7.389156e-01 -8.399268e-02
162 2 1 1.901298e+01 9.537763e+00 1.575957e+01 -1 -1 0 -3.590732e-01 -3.034905e-01 8.265591e-01 -3.094510e-01
163 2 4 1.891742e+01 9.004056e+00 1.569997e+01 -1 -1 0 -2.755023e-01 -3.307158e-02 8.524502e-01 -4.430953e-01
164 2 4 1.861214e+01 8.542336e+00 1.583178e+01 -1 -1 0 -1.348863e-01 2.799423e-01 8.003327e-01 -5.127432e-01
165 2 3 1.820038e+01 8.224966e+00 1.596337e+01 -1 -1 0 -5.700041e-02 5.034551e-01 6.194189e-01 -5.996700e-01
166 2 3 1.773047e+01 8.023234e+00 1.596042e+01 -1 -1 0 9.991037e-02 7.134294e-01 3.728644e-01 -5.848150e-01
167 2 4 1.721286e+01 8.063564e+00 1.586993e+01 -1 -1 0 6.010902e-02 8.047496e-01 8.562396e-02 -5.843231e-01
168 2 2 1.674033e+01 8.124713e+00 1.571428e+01 -1 -1 0 1.605028e-01 8.603677e-01 -1.529846e-01 -4.589138e-01
169 2 2 1.644181e+01 8.164655e+00 1.525818e+01 -1 -1 0 2.130145e-01 8.817235e-01 -3.166133e-01 -2.773887e-01
170 2 1 1.625089e+01 8.185434e+00 1.475353e+01 -1 -1 0 4.446999e-01 6.774812e-01 -5.474289e-01 -2.087652e-01
171 2 1 1.612255e+01 7.876804e+00 1.427596e+01 -1 -1 0 -5.274611e-01 -5.379316e-01 6.574149e-01 -1.483539e-02
172 2 4 1.598011e+01 7.413196e+00 1.406328e+01 -1 -1 0 -5.389116e-01 -1.981789e-01 8.000863e-01 -1.736701e-01
173 2 4 1.579299e+01 7.027692e+00 1.396403e+01 -1 -1 0 -4.399341e-01 5.113657e-02 8.007341e-01 -4.033211e-01
174 2 1 1.545014e+01 6.617673e+00 1.403779e+01 -1 -1 0 -4.026085e-01 3.196722e-01 6.873984e-01 -5.130297e-01
175 2 1 1.492423e+01 6.319495e+00 1.422851e+01 -1 -1 0 -2.777174e-01 5.067060e-01 6.010624e-01 -5.521287e-01
176 2 2 1.437804e+01 6.227137e+00 1.424775e+01 -1 -1 0 -1.871199e-01 7.104138e-01 4.178545e-01 -5.345054e-01
177 2 2 1.389115e+01 6.290066e+00 1.427606e+01 -1 -1 0 -1.137766e-01 8.107561e-01 1.389848e-01 -5.571469e-01
178 2 1 1.341952e+01 6.622931e+00 1.410911e+01 -1 -1 0 -2.021619e-02 8.405578e-01 -1.923749e-01 -5.060097e-01
179 2 4 1.322145e+01 6.961504e+00 1.373853e+01 -1 -1 0 1.333995e-01 7.332268e-01 -4.765217e-01 -4.663798e-01
180 2 1 1.299507e+01 7.078469e+00 1.328596e+01 -1 -1 0 1.848280e-01 7.025860e-01 -6.207267e-01 -2.948049e-01
181 2 4 1.290839e+01 7.039427e+00 1.277323e+01 -1 -1 0 -2.728195e-01 -4.872602e-01 8.042217e-01 2.034069e-01
182 2 2 1.269281e+01 6.914778e+00 1.232242e+01 -1 -1 0 -2.690257e-01 -3.620835e-01 8.924727e-01 3.639110e-03
183 2 3 1.268798e+01 6.649946e+00 1.198901e+01 -1 -1 0 -2.389456e-01 -1.621023e-01 9.449396e-01 -1.540029e-01
184 2 4 1.254657e+01 6.215334e+00 1.170419e+01 -1 -1 0 -1.906481e-01 1.127107e-01 9.369310e-01 -2.703885e-01
185 2 3 1.226347e+01 5.826970e+00 1.156279e+01 -1 -1 0 -1.752143e-01 4.002456e-01 8.341165e-01 -3.366794e-01
186 2 1 1.178178e+01 5.599451e+00 1.135580e+01 -1 -1 0 -1.857862e-02 7.013353e-01 6.695370e-01 -2.439341e-01
187 2 1 1.135266e+01 5.597500e+00 1.109995e+01 -1 -1 0 1.304229e-01 8.718196e-01 4.369837e-01 -1.787894e-01
188 2 2 1.103515e+01 5.764440e+00 1.078725e+01 -1 -1 0 7.189388e-02 9.528119e-01 1.817828e-01 -2.322408e-01
189 2 4 1.083865e+01 6.011900e+00 1.031604e+01 -1 -1 0 1.655791e-01 9.546009e-01 -1.700641e-01 -1.799969e-01
190 2 4 1.080607e+01 6.140492e+00 9.765893e+00 -1 -1 0 -1.421314e-01 -9.378969e-01 3.061118e-01 8.027284e-02
191 2 1 1.097284e+01 6.186871e+00 9.213430e+00 -1 -1 0 1.663346e-01 7.906014e-01 -5.857579e-01 6.457480e-02
192 2 4 1.118580e+01 6.045368e+00 8.781511e+00 -1 -1 0 -1.835307e-01 -5.916966e-01 7.703442e-01 -1.509352e-01
193 2 4 1.135635e+01 5.695370e+00 8.505490e+00 -1 -1 0 -1.770984e-01 -1.982939e-01 9.605622e-01 -8.146135e-02
194 2 1 1.119288e+01 5.366685e+00 8.115299e+00 -1 -1 0 -1.583659e-01 -2.265082e-02 9.559636e-01 -2.460504e-01
195 2 3 1.089934e+01 4.894132e+00 7.890648e+00 -1 -1 0 -1.327598e-01 2.485463e-01 9.100347e-01 -3.040335e-01
196 2 4 1.047246e+01 4.569704e+00 7.658002e+00 -1 -1 0 1.950272e-01 -5.009236e-01 -7.903250e-01 2.939835e-01
197 2 2 1.003002e+01 4.458164e+00 7.411061e+00 -1 -1 0 2.427293e-03 8.028952e-01 5.683745e-01 -1.797326e-01
198 2 4 9.705392e+00 4.582927e+00 7.037814e+00 -1 -1 0 -5.390378e-02 -9.648908e-01 -2.379516e-01 9.725847e-02
199 2 3 1.005325e+01 3.159099e+00 6.654001e+00 -1 -1 0 3.899622e-01 6.774482e-01 -6.182926e-01 -8.190011e-02
200 2 4 1.003619e+01 2.847585e+00 6.233349e+00 -1 -1 0 -4.354481e-01 -2.896178e-01 8.515508e-01 -3.698327e-02
