ITEM: TIMESTEP
56000000
ITEM: NUMBER OF ATOMS
200
ITEM: BOX BOUNDS pp pp pp
-2.0000000000000000e+01 2.0000000000000000e+01
-2.0000000000000000e+01 2.0000000000000000e+01
-2.0000000000000000e+01 2.0000000000000000e+01
ITEM: ATOMS id mol type x y z ix iy iz c_quat[1] c_quat[2] c_quat[3] c_quat[4]
1 1 1 8.406364e+00 2.411266e+00 9.968136e+00 -1 -1 0 6.793043e-02 5.720204e-01 8.168935e-01 2.937816e-02
2 1 2 8.350634e+00 1.971758e+00 1.110350e+01 -1 -1 0 7.494398e-01 -4.617058e-01 -1.544900e-02 -4.742668e-01
3 1 1 8.461144e+00 2.196778e+00 1.154837e+01 -1 -1 0 -8.582284e-01 3.166776e-01 -1.182820e-01 3.862237e-01
4 1 3 8.622487e+00 2.204029e+00 1.213018e+01 -1 -1 0 9.080546e-01 -2.578445e-01 3.206406e-01 -7.837524e-02
5 1 1 8.930198e+00 2.120195e+00 1.252096e+01 -1 -1 0 9.169780e-01 -1.162322e-01 3.613652e-01 1.227055e-01
6 1 2 9.415688e+00 2.020199e+00 1.273732e+01 -1 -1 0 8.083030e-01 -1.933688e-02 4.351879e-01 3.960857e-01
7 1 4 9.956000e+00 2.057932e+00 1.275253e+01 -1 -1 0 -5.872290e-01 -1.652285e-01 -4.511751e-01 -6.513852e-01
8 1 1 1.045477e+01 2.331187e+00 1.269355e+01 -1 -1 0 -3.656772e-01 -2.565659e-01 -3.611765e-01 -8.185388e-01
9 1 1 1.076250e+01 2.703780e+00 1.270083e+01 -1 -1 0 -3.104089e-02 -4.044840e-01 -3.085064e-01 -8.603796e-01
10 1 4 1.099132e+01 3.162373e+00 1.284783e+01 -1 -1 0 -1.632701e-01 4.156782e-01 3.620357e-01 8.182204e-01
11 1 1 1.103933e+01 3.689035e+00 1.287722e+01 -1 -1 0 -4.130908e-01 4.976724e-01 2.219889e-01 7.296568e-01
12 1 1 1.093706e+01 4.228767e+00 1.317380e+01 -1 -1 0 6.363242e-01 -4.854528e-01 -1.563635e-01 -5.787724e-01
13 1 3 1.094727e+01 4.624267e+00 1.361576e+01 -1 -1 0 7.819423e-01 -4.164676e-01 9.889296e-03 -4.637060e-01
14 1 4 1.089821e+01 4.849833e+00 1.405645e+01 -1 -1 0 8.939613e-01 -3.485958e-01 1.465831e-01 -2.404738e-01
15 1 4 1.092574e+01 4.862487e+00 1.457269e+01 -1 -1 0 -9.287566e-01 2.836439e-01 -2.386377e-01 -3.065279e-03
16 1 2 1.130555e+01 4.922418e+00 1.497853e+01 -1 -1 0 -8.844887e-01 2.253946e-01 -3.720117e-01 -1.687728e-01
17 1 1 1.170128e+01 4.856351e+00 1.523701e+01 -1 -1 0 8.080623e-01 4.716716e-02 4.465368e-01 3.813338e-01
18 1 2 1.224195e+01 4.931544e+00 1.537682e+01 -1 -1 0 6.746050e-01 9.462750e-02 5.026094e-01 5.322945e-01
19 1 3 1.273067e+01 5.072135e+00 1.527236e+01 -1 -1 0 4.254580e-01 2.754331e-01 4.761184e-01 7.186330e-01
20 1 1 1.313590e+01 5.346844e+00 1.523836e+01 -1 -1 0 2.335832e-01 3.619921e-01 3.045278e-01 8.495078e-01
21 1 4 1.340511e+01 5.807978e+00 1.529050e+01 -1 -1 0 8.779796e-02 -4.248446e-01 -1.879134e-01 -8.811851e-01
22 1 1 1.363069e+01 6.209076e+00 1.559455e+01 -1 -1 0 2.681949e-01 -4.071114e-01 -9.014100e-03 -8.730696e-01
23 1 4 1.372479e+01 6.577377e+00 1.605978e+01 -1 -1 0 5.765390e-01 -3.216941e-01 1.536999e-01 -7.351816e-01
24 1 3 1.379463e+01 6.747798e+00 1.666831e+01 -1 -1 0 7.625172e-01 -2.234329e-01 2.133835e-01 -5.684301e-01
25 1 3 1.392374e+01 6.647851e+00 1.719176e+01 -1 -1 0 8.735737e-01 -1.829815e-01 3.930063e-01 -2.212076e-01
26 1 4 1.427294e+01 6.426861e+00 1.757380e+01 -1 -1 0 8.614565e-01 -8.161983e-03 4.976491e-01 -1.008538e-01
27 1 4 1.464615e+01 6.122346e+00 1.782245e+01 -1 -1 0 8.333228e-01 9.555180e-02 5.086592e-01 1.941874e-01
28 1 1 1.510626e+01 5.916278e+00 1.785728e+01 -1 -1 0 6.877990e-01 3.689773e-01 4.878569e-01 3.908759e-01
29 1 1 1.568723e+01 5.889513e+00 1.776657e+01 -1 -1 0 5.313937e-01 4.107830e-01 5.897693e-01 4.483862e-01
30 1 4 1.622215e+01 5.939828e+00 1.759248e+01 -1 -1 0 -3.241408e-01 -5.108667e-01 -5.640042e-01 -5.620029e-01
31 1 4 1.660829e+01 6.258178e+00 1.743972e+01 -1 -1 0 -8.040453e-02 -6.179673e-01 -3.116885e-01 -7.172878e-01
32 1 3 1.695938e+01 6.641319e+00 1.745862e+01 -1 -1 0 1.300724e-01 -6.263698e-01 -2.050443e-01 -7.407421e-01
33 1 3 1.730567e+01 7.039033e+00 1.752915e+01 -1 -1 0 3.616083e-01 -5.941617e-01 4.125764e-03 -7.184666e-01
34 1 1 1.743290e+01 7.436505e+00 1.786359e+01 -1 -1 0 6.362608e-01 -4.839237e-01 6.235883e-02 -5.975796e-01
35 1 2 1.762589e+01 7.717900e+00 1.833248e+01 -1 -1 0 7.815747e-01 -4.087212e-01 2.700132e-01 -3.862393e-01
36 1 2 1.796416e+01 7.618215e+00 1.869768e+01 -1 -1 0 8.743118e-01 -9.876792e-02 3.921865e-01 -2.683532e-01
37 1 1 1.826318e+01 7.341079e+00 1.906566e+01 -1 -1 0 8.647688e-01 6.972304e-02 4.972552e-01 -7.132859e-03
38 1 1 1.877968e+01 7.187897e+00 1.926304e+01 -1 -1 0 7.765896e-01 1.096874e-01 5.727397e-01 2.384249e-01
39 1 4 1.929058e+01 6.968167e+00 1.920408e+01 -1 -1 0 -6.448720e-01 -2.755992e-01 -5.449253e-01 -4.596103e-01
40 1 4 1.986940e+01 6.992036e+00 1.904405e+01 -1 -1 0 -4.754854e-01 -3.863660e-01 -4.652920e-01 -6.388570e-01
41 1 2 -1.973162e+01 7.181745e+00 1.888468e+01 0 -1 0 -1.573832e-01 -5.673169e-01 -4.056172e-01 -6.991829e-01
42 1 4 -1.942399e+01 7.664220e+00 1.880534e+01 0 -1 0 9.394563e-02 -5.937594e-01 -2.499916e-01 -7.590311e-01
43 1 3 -1.919447e+01 8.092944e+00 1.890856e+01 0 -1 0 2.995445e-01 -5.888336e-01 -6.532634e-02 -7.478506e-01
44 1 2 -1.901119e+01 8.545898e+00 1.928127e+01 0 -1 0 5.231139e-01 -5.407978e-01 1.573550e-01 -6.396319e-01
45 1 1 -1.878850e+01 8.747654e+00 1.969676e+01 0 -1 0 7.177030e-01 -4.252743e-01 2.975727e-01 -4.642141e-01
46 1 3 -1.856400e+01 8.748672e+00 -1.984988e+01 0 -1 1 8.125874e-01 -3.490522e-01 4.002910e-01 -2.400652e-01
47 1 4 -1.814325e+01 8.742040e+00 -1.945591e+01 0 -1 1 8.114778e-01 -1.965297e-01 5.204539e-01 -1.789068e-01
48 1 1 -1.785383e+01 8.531554e+00 -1.919687e+01 0 -1 1 -8.506319e-01 2.010494e-02 -5.030136e-01 -1.516523e-01
49 1 4 -1.733167e+01 8.485317e+00 -1.906165e+01 0 -1 1 -7.445705e-01 -6.503211e-02 -5.423467e-01 -3.837260e-01
50 1 4 -1.680110e+01 8.503381e+00 -1.918915e+01 0 -1 1 -5.436089e-01 -2.367469e-01 -5.165847e-01 -6.177220e-01
51 1 4 -1.640960e+01 8.596158e+00 -1.929074e+01 0 -1 1 -3.628903e-01 -3.987119e-01 -3.032511e-01 -7.857342e-01
52 1 1 -1.587070e+01 8.899761e+00 -1.912352e+01 0 -1 1 -1.657294e-01 -3.418759e-01 -2.367071e-01 -8.942172e-01
53 1 3 -1.569323e+01 9.355573e+00 -1.901622e+01 0 -1 1 1.501209e-01 -4.364089e-01 -2.973274e-01 -8.358274e-01
54 1 4 -1.563095e+01 9.872737e+00 -1.881829e+01 0 -1 1 4.537181e-01 -4.606568e-01 -2.120861e-01 -7.327719e-01
55 1 4 -1.550123e+01 1.035313e+01 -1.844500e+01 0 -1 1 5.727833e-01 -3.709760e-01 -1.429478e-02 -7.308158e-01
56 1 4 -1.562402e+01 1.044975e+01 -1.800240e+01 0 -1 1 8.283596e-01 -3.064852e-01 3.308677e-02 -4.677526e-01
57 1 1 -1.557740e+01 1.053165e+01 -1.750489e+01 0 -1 1 9.029846e-01 -3.261071e-01 2.441042e-01 -1.366975e-01
58 1 1 -1.530132e+01 1.060421e+01 -1.706957e+01 0 -1 1 9.194529e-01 -1.849091e-01 3.176342e-01 -1.397267e-01
59 1 3 -1.495967e+01 1.038048e+01 -1.676000e+01 0 -1 1 -8.928927e-01 2.547312e-02 -3.979110e-01 -2.091906e-01
60 1 4 -1.445753e+01 1.023357e+01 -1.648583e+01 0 -1 1 -7.736681e-01 -3.096828e-02 -4.360710e-01 -4.586075e-01
61 1 2 -1.399065e+01 1.031317e+01 -1.636299e+01 0 -1 1 -6.016501e-01 -1.932877e-01 -4.754150e-01 -6.120765e-01
62 1 3 -1.353779e+01 1.058046e+01 -1.632844e+01 0 -1 1 -3.301712e-01 -2.362273e-01 -4.861764e-01 -7.738321e-01
63 1 2 -1.327829e+01 1.103425e+01 -1.637608e+01 0 -1 1 -6.310337e-02 -3.350742e-01 -4.308805e-01 -8.355149e-01
64 1 4 -1.305399e+01 1.152489e+01 -1.629409e+01 0 -1 1 2.624492e-01 -3.525362e-01 -2.998245e-01 -8.467254e-01
65 1 2 -1.311365e+01 1.202759e+01 -1.604469e+01 0 -1 1 5.198295e-01 -4.214718e-01 -1.655704e-01 -7.243793e-01
66 1 1 -1.318431e+01 1.234637e+01 -1.564362e+01 0 -1 1 7.108875e-01 -4.581380e-01 -3.464667e-02 -5.324924e-01
67 1 2 -1.316902e+01 1.256167e+01 -1.506620e+01 0 -1 1 8.226854e-01 -4.025074e-01 1.344997e-01 -3.782676e-01
68 1 1 -1.298885e+01 1.254570e+01 -1.457573e+01 0 -1 1 9.102492e-01 -3.069710e-01 2.778315e-01 -4.995611e-03
69 1 1 -1.249751e+01 1.250425e+01 -1.421782e+01 0 -1 1 8.173469e-01 -2.136641e-01 4.413955e-01 3.024263e-01
70 1 2 -1.194681e+01 1.268258e+01 -1.396446e+01 0 -1 1 -6.479827e-01 1.899802e-01 -5.317179e-01 -5.111772e-01
71 1 3 -1.148995e+01 1.296527e+01 -1.392611e+01 0 -1 1 -4.729347e-01 5.755016e-02 -6.441603e-01 -5.983964e-01
72 1 4 -1.115600e+01 1.330053e+01 -1.409787e+01 0 -1 1 -2.715763e-01 -1.289804e-01 -6.350492e-01 -7.115637e-01
73 1 1 -1.095753e+01 1.368994e+01 -1.430451e+01 0 -1 1 -2.433751e-02 -3.585224e-01 -5.251321e-01 -7.714309e-01
74 1 1 -1.074017e+01 1.418928e+01 -1.426988e+01 0 -1 1 1.706087e-01 -3.258077e-01 -5.538892e-01 -7.469597e-01
75 1 3 -1.091287e+01 1.468075e+01 -1.430470e+01 0 -1 1 4.624430e-01 -5.753374e-01 -3.684217e-01 -5.651538e-01
76 1 1 -1.115204e+01 1.510925e+01 -1.422666e+01 0 -1 1 6.563015e-01 -6.019875e-01 -2.433197e-01 -3.842851e-01
77 1 4 -1.118089e+01 1.558033e+01 -1.403872e+01 0 -1 1 7.686089e-01 -5.138552e-01 -1.709285e-01 -3.405534e-01
78 1 1 -1.117359e+01 1.593931e+01 -1.354861e+01 0 -1 1 7.847689e-01 -6.092254e-01 1.138432e-01 -4.688462e-03
79 1 4 -1.102171e+01 1.632629e+01 -1.319374e+01 0 -1 1 7.332421e-01 -5.734283e-01 3.346041e-01 1.468880e-01
80 1 2 -1.068583e+01 1.660899e+01 -1.300611e+01 0 -1 1 -7.252787e-01 3.466433e-01 -5.070278e-01 -3.110178e-01
81 1 4 -1.015810e+01 1.668163e+01 -1.293505e+01 0 -1 1 -6.243298e-01 8.196589e-02 -5.872452e-01 -5.085636e-01
82 1 4 -9.693494e+00 1.677454e+01 -1.300932e+01 0 -1 1 -5.045178e-01 -1.540124e-01 -6.093789e-01 -5.919454e-01
83 1 4 -9.260075e+00 1.700715e+01 -1.328664e+01 0 -1 1 -3.114370e-01 -2.831224e-01 -5.441626e-01 -7.257657e-01
84 1 4 -8.914264e+00 1.739599e+01 -1.345378e+01 0 -1 1 -6.142561e-02 -4.044493e-01 -4.729852e-01 -7.803414e-01
85 1 1 -8.828172e+00 1.789549e+01 -1.357438e+01 0 -1 1 2.304346e-01 -5.462458e-01 -3.600343e-01 -7.203407e-01
86 1 1 -8.710079e+00 1.839329e+01 -1.347693e+01 0 -1 1 4.465236e-01 -5.459634e-01 -1.814479e-01 -6.852863e-01
87 1 3 -8.669861e+00 1.879195e+01 -1.306390e+01 0 -1 1 7.056564e-01 -5.018248e-01 1.659833e-02 -4.999454e-01
88 1 2 -8.652124e+00 1.904045e+01 -1.257872e+01 0 -1 1 8.394729e-01 -4.590794e-01 1.282059e-01 -2.609493e-01
89 1 2 -8.426806e+00 1.915239e+01 -1.210706e+01 0 -1 1 -8.583367e-01 3.967596e-01 -3.252556e-01 6.976053e-03
90 1 3 -9.958886e+00 1.975354e+01 -1.253029e+01 0 -1 1 -3.686429e-01 -3.261502e-01 -6.860762e-01 5.357498e-01
91 1 3 -9.478770e+00 -1.923266e+01 -1.220746e+01 0 0 1 7.040453e-01 -2.152717e-01 1.721368e-02 6.765220e-01
92 1 2 -9.355023e+00 -1.902560e+01 -1.177153e+01 0 0 1 3.395830e-01 -2.712574e-01 7.427040e-02 8.975448e-01
93 1 1 -9.327456e+00 -1.877485e+01 -1.139573e+01 0 0 1 -1.097209e-01 -2.160078e-01 4.841358e-02 9.689985e-01
94 1 2 -9.652805e+00 -1.860473e+01 -1.107873e+01 0 0 1 -5.113712e-01 -2.697081e-01 7.637711e-02 8.123568e-01
95 1 3 -9.908029e+00 -1.800703e+01 -1.104019e+01 0 0 1 -3.694510e-01 4.714285e-01 3.637537e-01 -7.134034e-01
96 1 2 -9.826135e+00 -1.754068e+01 -1.153657e+01 0 0 1 -1.701976e-01 -9.627625e-01 1.058161e-01 1.814499e-01
97 1 2 -1.026309e+01 -1.699276e+01 -1.113331e+01 0 0 1 5.096854e-01 -8.597709e-01 1.414944e-02 2.854009e-02
98 1 4 -1.107582e+01 -1.690786e+01 -1.102085e+01 0 0 1 1.731865e-01 -3.849423e-02 9.831319e-01 -4.445563e-02
99 1 2 -1.032786e+01 -1.688575e+01 -1.057853e+01 0 0 1 -5.934443e-01 -1.802756e-01 5.649171e-01 5.442364e-01
100 1 1 -1.012423e+01 -1.755581e+01 -9.793551e+00 0 0 1 4.820982e-01 -4.105135e-01 6.998772e-01 -3.305026e-01
101 2 4 -5.416915e+00 1.484537e+01 -1.292521e+01 0 -1 1 -2.999689e-01 2.388569e-01 7.462847e-01 -5.440819e-01
102 2 3 -4.394733e+00 1.535244e+01 -1.264599e+01 0 -1 1 8.261611e-01 2.246701e-02 -2.288494e-01 5.143744e-01
103 2 1 -4.679732e+00 1.605940e+01 -1.290481e+01 0 -1 1 -1.464750e-01 -6.301596e-01 -5.749229e-01 5.009068e-01
104 2 3 -4.156493e+00 1.648788e+01 -1.273119e+01 0 -1 1 6.462389e-01 4.457207e-01 -3.585045e-01 5.051564e-01
105 2 3 -3.809809e+00 1.713177e+01 -1.333858e+01 0 -1 1 1.953408e-01 -9.732162e-01 1.195809e-01 1.981284e-02
106 2 2 -4.954014e+00 1.701805e+01 -1.341506e+01 0 -1 1 5.886118e-01 -5.723070e-01 -5.698728e-01 -3.529585e-02
107 2 3 -5.349827e+00 1.725724e+01 -1.329857e+01 0 -1 1 3.916426e-01 -8.524120e-01 -2.124883e-01 2.736030e-01
108 2 4 -5.520009e+00 1.774992e+01 -1.335620e+01 0 -1 1 -1.999896e-01 8.085566e-01 -1.753762e-01 -5.248652e-01
109 2 3 -5.698237e+00 1.817699e+01 -1.348680e+01 0 -1 1 -2.860600e-02 6.489810e-01 -5.116466e-01 -5.623372e-01
110 2 2 -6.675170e+00 1.847335e+01 -1.227425e+01 0 -1 1 -3.597055e-01 8.128413e-01 4.076518e-01 2.090956e-01
111 2 2 -6.744069e+00 1.893560e+01 -1.234313e+01 0 -1 1 -3.319175e-01 9.400055e-01 -7.886669e-02 6.958158e-04
112 2 3 -7.506118e+00 1.863688e+01 -1.273217e+01 0 -1 1 -4.285827e-01 3.135273e-02 7.328587e-01 -5.274960e-01
113 2 3 -7.767788e+00 1.822875e+01 -1.257654e+01 0 -1 1 3.414584e-01 -2.169562e-01 -6.893758e-01 6.009137e-01
114 2 2 -8.135981e+00 1.803312e+01 -1.234485e+01 0 -1 1 6.342501e-02 -4.660500e-01 -5.297341e-01 7.058020e-01
115 2 4 -8.758250e+00 1.792033e+01 -1.237494e+01 0 -1 1 -4.051147e-02 -7.110229e-01 -3.389794e-01 6.147342e-01
116 2 4 -9.329887e+00 1.802300e+01 -1.249394e+01 0 -1 1 -2.984243e-01 -8.061856e-01 -1.277266e-01 4.946652e-01
117 2 1 -9.760963e+00 1.798720e+01 -1.284140e+01 0 -1 1 -5.238109e-01 -7.640195e-01 1.381696e-01 3.504360e-01
118 2 1 -1.007458e+01 1.789148e+01 -1.319532e+01 0 -1 1 -4.351980e-01 -7.869347e-01 3.497368e-01 2.627177e-01
119 2 1 -1.025399e+01 1.777798e+01 -1.366264e+01 0 -1 1 -4.669197e-01 -6.691670e-01 5.767120e-01 4.005908e-02
120 2 1 -1.040042e+01 1.728459e+01 -1.393577e+01 0 -1 1 -4.967545e-01 -6.354012e-01 5.494823e-01 -2.181041e-01
121 2 3 -1.016588e+01 1.665005e+01 -1.401575e+01 0 -1 1 4.102618e-01 3.719825e-01 -7.225662e-01 4.137782e-01
122 2 1 -1.004724e+01 1.612093e+01 -1.391257e+01 0 -1 1 2.562856e-01 1.047258e-01 -7.535806e-01 5.962100e-01
123 2 4 -1.002093e+01 1.574574e+01 -1.362974e+01 0 -1 1 5.106328e-03 -9.749710e-02 -6.591650e-01 7.456338e-01
124 2 1 -1.019302e+01 1.521320e+01 -1.333820e+01 0 -1 1 -8.953610e-02 -2.801626e-01 -7.152441e-01 6.339701e-01
125 2 4 -1.050073e+01 1.487175e+01 -1.315600e+01 0 -1 1 -2.143552e-01 -4.776251e-01 -5.237020e-01 6.720583e-01
126 2 2 -1.098429e+01 1.455278e+01 -1.315276e+01 0 -1 1 -3.625984e-01 -6.534707e-01 -4.034968e-01 5.279098e-01
127 2 4 -1.149632e+01 1.440838e+01 -1.339664e+01 0 -1 1 -3.640108e-01 -8.016213e-01 -1.478856e-01 4.505877e-01
128 2 4 -1.189984e+01 1.430881e+01 -1.377089e+01 0 -1 1 -4.769032e-01 -8.169103e-01 1.550412e-01 2.849265e-01
129 2 1 -1.208960e+01 1.405491e+01 -1.423647e+01 0 -1 1 -5.430796e-01 -7.457340e-01 3.764852e-01 8.487768e-02
130 2 2 -1.215334e+01 1.369156e+01 -1.467812e+01 0 -1 1 -5.269180e-01 -7.053092e-01 4.680386e-01 -7.639550e-02
131 2 3 -1.205783e+01 1.323636e+01 -1.502870e+01 0 -1 1 -4.661913e-01 -5.575502e-01 6.315728e-01 -2.700357e-01
132 2 4 -1.192748e+01 1.275156e+01 -1.519822e+01 0 -1 1 4.081932e-01 3.132660e-01 -7.438979e-01 4.264488e-01
133 2 4 -1.198866e+01 1.222934e+01 -1.521940e+01 0 -1 1 3.077064e-01 -8.203505e-03 -8.118661e-01 4.961078e-01
134 2 3 -1.224294e+01 1.177129e+01 -1.506607e+01 0 -1 1 1.476061e-01 -3.287873e-01 -7.415886e-01 5.658248e-01
135 2 4 -1.269846e+01 1.142373e+01 -1.502847e+01 0 -1 1 -3.797616e-02 5.986396e-01 5.980307e-01 -5.315522e-01
136 2 3 -1.326079e+01 1.124733e+01 -1.514153e+01 0 -1 1 -5.524961e-02 7.648527e-01 3.911161e-01 -5.088968e-01
137 2 1 -1.374211e+01 1.128855e+01 -1.535189e+01 0 -1 1 -2.208452e-02 -9.102346e-01 -1.279726e-01 3.932026e-01
138 2 3 -1.419681e+01 1.141680e+01 -1.572122e+01 0 -1 1 -2.169180e-01 -9.198469e-01 8.618369e-02 3.152786e-01
139 2 2 -1.423512e+01 1.150746e+01 -1.618973e+01 0 -1 1 -2.186752e-01 -8.354362e-01 4.427298e-01 2.412838e-01
140 2 3 -1.429718e+01 1.140333e+01 -1.674594e+01 0 -1 1 -2.799016e-01 -7.289540e-01 6.246612e-01 8.917539e-03
141 2 1 -1.416360e+01 1.120518e+01 -1.717141e+01 0 -1 1 -2.685945e-01 -5.532381e-01 7.854878e-01 -6.923510e-02
142 2 2 -1.425965e+01 1.087092e+01 -1.760812e+01 0 -1 1 -3.256033e-01 -3.002856e-01 8.733705e-01 -2.025709e-01
143 2 4 -1.433217e+01 1.036628e+01 -1.778702e+01 0 -1 1 3.341749e-01 9.206010e-02 -8.701997e-01 3.501493e-01
144 2 4 -1.454076e+01 9.935480e+00 -1.781957e+01 0 -1 1 -1.923511e-01 1.806692e-01 8.001030e-01 -5.386974e-01
145 2 1 -1.492175e+01 9.474256e+00 -1.783152e+01 0 -1 1 -2.557115e-01 3.897401e-01 7.630810e-01 -4.476847e-01
146 2 1 -1.539369e+01 9.284548e+00 -1.781737e+01 0 -1 1 -6.636917e-02 6.455113e-01 6.160090e-01 -4.465907e-01
147 2 1 -1.583714e+01 9.303100e+00 -1.784057e+01 0 -1 1 1.640293e-02 7.866875e-01 3.003532e-01 -5.391120e-01
148 2 2 -1.638282e+01 9.350597e+00 -1.803459e+01 0 -1 1 8.445567e-02 8.750129e-01 1.853357e-02 -4.763151e-01
149 2 4 -1.671184e+01 9.517271e+00 -1.846261e+01 0 -1 1 -1.640073e-01 -9.057261e-01 2.247346e-01 3.197753e-01
150 2 1 -1.688614e+01 9.648237e+00 -1.896837e+01 0 -1 1 -1.903038e-01 -8.346580e-01 4.580265e-01 2.394622e-01
151 2 1 -1.699442e+01 9.625160e+00 -1.948959e+01 0 -1 1 -3.304430e-01 -6.188200e-01 6.955315e-01 1.552583e-01
152 2 1 -1.728758e+01 9.284158e+00 -1.996474e+01 0 -1 1 -5.211950e-01 -5.123891e-01 6.824538e-01 8.369030e-03
153 2 4 -1.730814e+01 8.900827e+00 1.973596e+01 0 -1 0 -4.711804e-01 -1.772697e-01 8.544731e-01 -1.282198e-01
154 2 1 -1.760961e+01 8.431808e+00 1.951258e+01 0 -1 0 -5.009467e-01 -3.990714e-02 8.448059e-01 -1.837466e-01
155 2 2 -1.786696e+01 7.939083e+00 1.951827e+01 0 -1 0 -4.214725e-01 2.053324e-01 7.942679e-01 -3.864429e-01
156 2 4 -1.833544e+01 7.628202e+00 1.964749e+01 0 -1 0 -3.738619e-01 4.247396e-01 6.578815e-01 -4.970065e-01
157 2 3 -1.878606e+01 7.617110e+00 1.991508e+01 0 -1 0 -2.533450e-01 5.651034e-01 4.073002e-01 -6.712533e-01
158 2 2 -1.931278e+01 7.640843e+00 -1.991780e+01 0 -1 1 -2.041571e-02 7.276926e-01 2.351365e-01 -6.440167e-01
159 2 1 -1.987487e+01 7.804870e+00 1.989728e+01 0 -1 0 7.262504e-02 8.406337e-01 7.836995e-02 -5.309601e-01
160 2 3 1.983543e+01 8.083711e+00 1.961164e+01 -1 -1 0 -2.653497e-01 -7.701795e-01 2.958353e-01 4.988934e-01
161 2 1 1.948543e+01 8.110874e+00 1.923146e+01 -1 -1 0 -3.300150e-01 -7.485723e-01 4.753378e-01 3.237029e-01
162 2 1 1.930761e+01 8.025429e+00 1.870081e+01 -1 -1 0 -4.456255e-01 -5.301568e-01 6.966606e-01 1.871247e-01
163 2 4 1.909014e+01 7.802932e+00 1.830820e+01 -1 -1 0 -5.178438e-01 -3.323062e-01 7.871987e-01 4.157543e-02
164 2 4 1.891006e+01 7.413245e+00 1.800873e+01 -1 -1 0 -4.753273e-01 -1.094493e-01 8.463681e-01 -2.138826e-01
165 2 3 1.862216e+01 6.968967e+00 1.793749e+01 -1 -1 0 -4.384389e-01 1.572836e-01 8.192379e-01 -3.344882e-01
166 2 3 1.823820e+01 6.630993e+00 1.818603e+01 -1 -1 0 -3.988995e-01 3.210097e-01 6.796650e-01 -5.252499e-01
167 2 4 1.780993e+01 6.487300e+00 1.844890e+01 -1 -1 0 -2.150312e-01 5.342493e-01 4.815745e-01 -6.606249e-01
168 2 2 1.729218e+01 6.515172e+00 1.860550e+01 -1 -1 0 -5.765420e-02 6.690722e-01 2.626658e-01 -6.928384e-01
169 2 2 1.678863e+01 6.697226e+00 1.859221e+01 -1 -1 0 1.144239e-01 7.329253e-01 9.396599e-02 -6.640016e-01
170 2 1 1.632034e+01 6.858482e+00 1.840838e+01 -1 -1 0 2.040117e-01 7.859049e-01 -2.203995e-01 -5.405153e-01
171 2 1 1.600085e+01 7.039386e+00 1.794599e+01 -1 -1 0 -3.041351e-01 -6.866871e-01 4.375398e-01 4.944912e-01
172 2 4 1.573154e+01 7.151271e+00 1.752473e+01 -1 -1 0 -4.007271e-01 -5.638969e-01 6.401258e-01 3.341810e-01
173 2 4 1.547127e+01 6.968761e+00 1.716605e+01 -1 -1 0 -4.585763e-01 -3.535207e-01 8.092787e-01 9.898896e-02
174 2 1 1.514166e+01 6.620851e+00 1.682437e+01 -1 -1 0 -4.525206e-01 -3.050500e-01 8.378868e-01 -1.073604e-02
175 2 1 1.491614e+01 6.323927e+00 1.653123e+01 -1 -1 0 -4.550001e-01 -8.315227e-02 8.552214e-01 -2.337883e-01
176 2 2 1.463132e+01 5.933461e+00 1.656781e+01 -1 -1 0 -3.794271e-01 2.358975e-01 8.262472e-01 -3.430788e-01
177 2 2 1.413145e+01 5.603810e+00 1.651997e+01 -1 -1 0 -3.475969e-01 4.807344e-01 7.210802e-01 -3.579303e-01
178 2 1 1.358092e+01 5.517164e+00 1.651964e+01 -1 -1 0 -2.144794e-01 6.944275e-01 5.479177e-01 -4.141922e-01
179 2 4 1.308879e+01 5.597949e+00 1.648822e+01 -1 -1 0 -5.711616e-02 8.320005e-01 2.904174e-01 -4.692235e-01
180 2 1 1.266295e+01 5.842427e+00 1.621697e+01 -1 -1 0 4.301580e-02 9.170073e-01 -1.548224e-02 -3.962417e-01
181 2 4 1.231768e+01 5.993721e+00 1.578548e+01 -1 -1 0 -1.673394e-01 -9.137985e-01 2.318271e-01 2.884894e-01
182 2 2 1.216111e+01 6.085439e+00 1.520438e+01 -1 -1 0 -3.448926e-01 -7.943362e-01 4.567414e-01 2.036328e-01
183 2 3 1.197203e+01 5.912751e+00 1.477005e+01 -1 -1 0 -3.959830e-01 -6.970140e-01 5.973902e-01 2.222334e-02
184 2 4 1.209151e+01 5.597676e+00 1.434028e+01 -1 -1 0 -3.444475e-01 -4.693221e-01 7.975599e-01 -1.580851e-01
185 2 3 1.206784e+01 5.112077e+00 1.410420e+01 -1 -1 0 -3.308679e-01 -2.131523e-01 8.699986e-01 -2.969764e-01
186 2 1 1.208272e+01 4.629591e+00 1.402814e+01 -1 -1 0 -2.231895e-01 -2.638156e-03 8.458194e-01 -4.845297e-01
187 2 1 1.189251e+01 4.199732e+00 1.406941e+01 -1 -1 0 -1.026613e-01 2.872918e-01 7.970677e-01 -5.211595e-01
188 2 2 1.162016e+01 3.731352e+00 1.409384e+01 -1 -1 0 -4.324011e-02 4.452987e-01 7.197438e-01 -5.308561e-01
189 2 4 1.123740e+01 3.440661e+00 1.401786e+01 -1 -1 0 -2.829666e-02 6.160556e-01 5.575439e-01 -5.557154e-01
190 2 4 1.078485e+01 3.373548e+00 1.398434e+01 -1 -1 0 -2.264984e-01 -7.449854e-01 -2.889702e-01 5.569483e-01
191 2 1 1.030378e+01 3.402530e+00 1.381377e+01 -1 -1 0 3.739339e-01 8.007870e-01 -1.221781e-01 -4.516482e-01
192 2 4 9.878739e+00 3.254619e+00 1.345496e+01 -1 -1 0 -2.424823e-01 -8.740532e-01 2.551377e-01 3.348703e-01
193 2 4 9.628720e+00 3.251414e+00 1.290776e+01 -1 -1 0 -2.488277e-01 -8.934520e-01 3.208735e-01 1.920116e-01
194 2 1 9.684608e+00 3.154790e+00 1.239468e+01 -1 -1 0 -2.993513e-01 -6.968134e-01 6.501426e-01 4.641658e-02
195 2 3 9.663442e+00 2.810533e+00 1.188257e+01 -1 -1 0 -4.103606e-01 -5.187912e-01 7.414032e-01 -1.130541e-01
196 2 4 9.669970e+00 2.334534e+00 1.165976e+01 -1 -1 0 3.624708e-01 2.635837e-01 -8.519493e-01 2.707783e-01
197 2 2 9.610053e+00 1.858889e+00 1.162882e+01 -1 -1 0 -1.943479e-01 1.125174e-01 8.812863e-01 -4.158162e-01
198 2 4 9.350093e+00 1.373717e+00 1.159654e+01 -1 -1 0 1.591166e-01 -2.849795e-01 -8.120013e-01 4.838621e-01
199 2 3 8.956896e+00 1.071745e+00 1.165438e+01 -1 -1 0 7.443265e-02 5.479729e-01 7.523527e-01 -3.579817e-01
200 2 4 8.609258e+00 9.476843e-01 1.145843e+01 -1 -1 0 -2.814971e-01 -8.450330e-01 -3.340498e-01 3.083655e-01
