ITEM: TIMESTEP
63000000
ITEM: NUMBER OF ATOMS
200
ITEM: BOX BOUNDS pp pp pp
-2.0000000000000000e+01 2.0000000000000000e+01
-2.0000000000000000e+01 2.0000000000000000e+01
-2.0000000000000000e+01 2.0000000000000000e+01
ITEM: ATOMS id mol type x y z ix iy iz c_quat[1] c_quat[2] c_quat[3] c_quat[4]
1 1 1 1.302307e+01 6.944144e-02 5.715472e+00 -1 -1 0 2.423495e-01 -1.722960e-01 -5.178484e-02 -9.533620e-01
2 1 2 1.290076e+01 3.117860e-01 6.131214e+00 -1 -1 0 6.038070e-01 -2.045651e-01 2.621096e-02 -7.699891e-01
3 1 1 1.271327e+01 3.331274e-01 6.530665e+00 -1 -1 0 -8.389416e-01 1.703287e-01 1.340038e-02 5.167065e-01
4 1 3 1.272806e+01 2.983048e-01 7.115843e+00 -1 -1 0 9.346936e-01 -7.218455e-02 7.375992e-02 -3.401421e-01
5 1 1 1.270315e+01 -2.970715e-02 7.567412e+00 -1 -1 0 9.961602e-01 -3.011161e-02 5.490990e-02 6.118007e-02
6 1 2 1.288258e+01 -5.183472e-02 8.107564e+00 -1 -1 0 9.664129e-01 -3.373619e-02 1.691117e-01 1.905496e-01
7 1 4 1.318835e+01 -3.138737e-01 8.427987e+00 -1 -1 0 -8.382838e-01 -8.669597e-02 -1.865644e-01 -5.049335e-01
8 1 1 1.356839e+01 -2.593514e-01 8.765684e+00 -1 -1 0 -6.853384e-01 -1.514887e-01 -2.253881e-01 -6.756941e-01
9 1 1 1.402126e+01 -7.343395e-02 9.025553e+00 -1 -1 0 -4.144717e-01 -6.112545e-02 -1.676465e-01 -8.923965e-01
10 1 4 1.437308e+01 2.116280e-01 9.270893e+00 -1 -1 0 8.820198e-02 1.245893e-01 1.931492e-01 9.692220e-01
11 1 1 1.445008e+01 6.230484e-01 9.624723e+00 -1 -1 0 -2.043871e-01 1.188053e-01 1.406224e-01 9.614242e-01
12 1 1 1.432572e+01 9.270637e-01 1.009490e+01 -1 -1 0 3.811688e-01 -3.007856e-02 -9.722952e-02 -9.188863e-01
13 1 3 1.406578e+01 1.187519e+00 1.037698e+01 -1 -1 0 6.584685e-01 -1.947503e-02 -1.799300e-01 -7.305239e-01
14 1 4 1.370487e+01 1.230992e+00 1.082396e+01 -1 -1 0 8.894795e-01 -5.516311e-02 -5.084314e-02 -4.507752e-01
15 1 4 1.352513e+01 1.123915e+00 1.124492e+01 -1 -1 0 -9.735817e-01 3.618094e-02 5.086173e-02 2.196422e-01
16 1 2 1.350254e+01 8.635381e-01 1.175426e+01 -1 -1 0 -9.858253e-01 4.132549e-02 -4.943517e-02 -1.549090e-01
17 1 1 1.380335e+01 6.489901e-01 1.214000e+01 -1 -1 0 9.002392e-01 3.124146e-02 1.200132e-01 4.173609e-01
18 1 2 1.417205e+01 5.303648e-01 1.253135e+01 -1 -1 0 7.705982e-01 7.748942e-02 1.906586e-01 6.031775e-01
19 1 3 1.462135e+01 7.150596e-01 1.287883e+01 -1 -1 0 5.102928e-01 6.829477e-02 2.641799e-01 8.155649e-01
20 1 1 1.494954e+01 1.072869e+00 1.309900e+01 -1 -1 0 2.117993e-01 1.544011e-01 2.283304e-01 9.376388e-01
21 1 4 1.511940e+01 1.326435e+00 1.349104e+01 -1 -1 0 -6.624122e-02 -5.384397e-02 -2.688411e-01 -9.593943e-01
22 1 1 1.514773e+01 1.773276e+00 1.376190e+01 -1 -1 0 2.676594e-01 -1.515084e-01 -2.011640e-01 -9.300197e-01
23 1 4 1.496960e+01 2.140404e+00 1.403018e+01 -1 -1 0 5.482167e-01 -1.622474e-01 -2.754828e-01 -7.728153e-01
24 1 3 1.472804e+01 2.310617e+00 1.450589e+01 -1 -1 0 7.472047e-01 -1.103833e-01 -1.749488e-01 -6.315802e-01
25 1 3 1.445075e+01 2.359133e+00 1.492604e+01 -1 -1 0 9.332897e-01 -1.336716e-01 -9.354077e-02 -3.199255e-01
26 1 4 1.443037e+01 2.359799e+00 1.560387e+01 -1 -1 0 9.507792e-01 -2.705554e-01 9.040318e-02 -1.210208e-01
27 1 4 1.457455e+01 2.304942e+00 1.605728e+01 -1 -1 0 9.668490e-01 -7.447159e-02 1.628229e-01 1.820596e-01
28 1 1 1.489959e+01 2.184861e+00 1.655351e+01 -1 -1 0 8.800840e-01 6.451971e-03 3.041705e-01 3.645418e-01
29 1 1 1.539830e+01 2.143807e+00 1.685009e+01 -1 -1 0 7.298409e-01 2.686750e-02 2.340871e-01 6.417271e-01
30 1 4 1.581532e+01 2.197974e+00 1.713949e+01 -1 -1 0 -6.044865e-01 -7.573214e-02 -2.528177e-01 -7.516275e-01
31 1 4 1.616975e+01 2.453345e+00 1.733828e+01 -1 -1 0 -2.927983e-01 -1.773060e-01 -2.652941e-01 -9.013605e-01
32 1 3 1.642171e+01 2.897949e+00 1.736730e+01 -1 -1 0 1.490953e-02 -3.284769e-01 -4.140582e-01 -8.487853e-01
33 1 3 1.649904e+01 3.426271e+00 1.737706e+01 -1 -1 0 2.701989e-01 -4.055879e-01 -4.367867e-01 -7.561140e-01
34 1 1 1.650554e+01 3.992896e+00 1.759363e+01 -1 -1 0 4.553328e-01 -4.359998e-01 -2.496979e-01 -7.350015e-01
35 1 2 1.644795e+01 4.456786e+00 1.796614e+01 -1 -1 0 6.830369e-01 -3.342377e-01 -1.806718e-01 -6.237815e-01
36 1 2 1.623624e+01 4.628473e+00 1.840768e+01 -1 -1 0 8.420126e-01 -3.718074e-01 -1.677475e-02 -3.905032e-01
37 1 1 1.626595e+01 4.713095e+00 1.894284e+01 -1 -1 0 9.369431e-01 -2.933753e-01 1.744209e-01 -7.513891e-02
38 1 1 1.657528e+01 4.766438e+00 1.941175e+01 -1 -1 0 9.016253e-01 -1.767910e-01 3.256304e-01 2.231179e-01
39 1 4 1.702487e+01 4.750188e+00 1.980489e+01 -1 -1 0 -7.945357e-01 1.195734e-01 -3.910026e-01 -4.489234e-01
40 1 4 1.755185e+01 4.918374e+00 1.997966e+01 -1 -1 0 -5.902115e-01 6.318126e-02 -4.642573e-01 -6.573611e-01
41 1 2 1.788848e+01 5.331907e+00 2.005630e+01 -1 -1 0 -3.504932e-01 -4.506339e-02 -5.532834e-01 -7.543218e-01
42 1 4 1.808493e+01 5.722967e+00 1.992127e+01 -1 -1 0 -7.926047e-02 -2.301809e-01 -5.990025e-01 -7.628437e-01
43 1 3 1.812343e+01 6.241546e+00 1.968065e+01 -1 -1 0 1.493842e-01 -4.100856e-01 -4.729081e-01 -7.654228e-01
44 1 2 1.816886e+01 6.839035e+00 1.978288e+01 -1 -1 0 3.889075e-01 -4.623351e-01 -2.661804e-01 -7.510960e-01
45 1 1 1.816278e+01 7.229618e+00 2.012601e+01 -1 -1 0 5.926284e-01 -4.622629e-01 -1.490368e-01 -6.425673e-01
46 1 3 1.809069e+01 7.460273e+00 -1.933678e+01 -1 -1 1 8.194684e-01 -4.577665e-01 6.150758e-02 -3.393201e-01
47 1 4 1.819785e+01 7.563199e+00 -1.890003e+01 -1 -1 1 8.978851e-01 -3.809326e-01 2.021908e-01 -8.838279e-02
48 1 1 1.861426e+01 7.575292e+00 -1.854456e+01 -1 -1 1 -8.872140e-01 2.240175e-01 -3.914493e-01 -9.713400e-02
49 1 4 1.900938e+01 7.633058e+00 -1.833493e+01 -1 -1 1 -8.294500e-01 -1.553926e-02 -5.040722e-01 -2.401718e-01
50 1 4 1.952917e+01 7.485392e+00 -1.838824e+01 -1 -1 1 -6.814540e-01 -2.219552e-01 -4.053649e-01 -5.674818e-01
51 1 4 -1.987978e+01 7.555567e+00 -1.829017e+01 0 -1 1 -5.011094e-01 -2.809246e-01 -4.537167e-01 -6.812576e-01
52 1 1 -1.945613e+01 7.976960e+00 -1.820795e+01 0 -1 1 -2.769823e-01 -3.021282e-01 -4.628200e-01 -7.860007e-01
53 1 3 -1.914287e+01 8.417626e+00 -1.826117e+01 0 -1 1 1.289732e-02 -3.758215e-01 -3.714001e-01 -8.489133e-01
54 1 4 -1.897421e+01 8.915988e+00 -1.820709e+01 0 -1 1 3.179425e-01 -4.549321e-01 -2.614676e-01 -7.896734e-01
55 1 4 -1.885979e+01 9.472978e+00 -1.790603e+01 0 -1 1 4.360630e-01 -4.033999e-01 -7.121516e-02 -8.012777e-01
56 1 4 -1.892107e+01 9.790016e+00 -1.744392e+01 0 -1 1 7.648560e-01 -3.130191e-01 6.097570e-02 -5.597288e-01
57 1 1 -1.893816e+01 9.882819e+00 -1.686200e+01 0 -1 1 8.660828e-01 -3.368522e-01 2.063531e-01 -3.063490e-01
58 1 1 -1.874021e+01 9.822650e+00 -1.637470e+01 0 -1 1 9.282331e-01 -1.959750e-01 3.103975e-01 -6.025353e-02
59 1 3 -1.842241e+01 9.763068e+00 -1.594845e+01 0 -1 1 -9.003133e-01 1.043258e-01 -3.857061e-01 -1.725772e-01
60 1 4 -1.799767e+01 9.602043e+00 -1.572795e+01 0 -1 1 -7.982371e-01 -7.280710e-02 -3.773659e-01 -4.638012e-01
61 1 2 -1.753633e+01 9.730774e+00 -1.540180e+01 0 -1 1 -6.623908e-01 -1.064613e-02 -3.889893e-01 -6.401659e-01
62 1 3 -1.710242e+01 9.959582e+00 -1.526898e+01 0 -1 1 -4.628444e-01 -1.299090e-01 -4.634535e-01 -7.443854e-01
63 1 2 -1.676128e+01 1.042312e+01 -1.529386e+01 0 -1 1 -1.480213e-01 -2.345260e-01 -3.998221e-01 -8.736301e-01
64 1 4 -1.654279e+01 1.089906e+01 -1.521818e+01 0 -1 1 1.064944e-01 -2.976477e-01 -3.775416e-01 -8.703603e-01
65 1 2 -1.645180e+01 1.138070e+01 -1.514021e+01 0 -1 1 3.036684e-01 -3.052382e-01 -3.446486e-01 -8.341658e-01
66 1 1 -1.650571e+01 1.187592e+01 -1.495809e+01 0 -1 1 5.557612e-01 -3.508626e-01 -2.328722e-01 -7.167953e-01
67 1 2 -1.668377e+01 1.222929e+01 -1.457649e+01 0 -1 1 7.731723e-01 -4.068769e-01 -9.422401e-02 -4.772605e-01
68 1 1 -1.670689e+01 1.252204e+01 -1.407921e+01 0 -1 1 9.018895e-01 -2.509641e-01 -4.195529e-02 -3.490731e-01
69 1 1 -1.668593e+01 1.261689e+01 -1.354935e+01 0 -1 1 9.664807e-01 -1.841452e-01 1.263784e-01 -1.266260e-01
70 1 2 -1.638940e+01 1.256518e+01 -1.304139e+01 0 -1 1 -8.636597e-01 3.200918e-01 -3.303647e-01 -2.061366e-01
71 1 3 -1.579811e+01 1.229306e+01 -1.284220e+01 0 -1 1 -9.142022e-01 6.421717e-02 -2.508570e-01 -3.117391e-01
72 1 4 -1.541496e+01 1.246158e+01 -1.243050e+01 0 -1 1 -7.670198e-01 4.438831e-02 -4.153950e-01 -4.869880e-01
73 1 1 -1.487518e+01 1.257528e+01 -1.237245e+01 0 -1 1 -5.813470e-01 -1.774340e-01 -4.179690e-01 -6.751702e-01
74 1 1 -1.439880e+01 1.276181e+01 -1.232475e+01 0 -1 1 -3.224758e-01 -2.796343e-01 -3.610919e-01 -8.291120e-01
75 1 3 -1.403784e+01 1.318184e+01 -1.219557e+01 0 -1 1 -5.115535e-02 -3.354751e-01 -2.646724e-01 -9.026561e-01
76 1 1 -1.382421e+01 1.360596e+01 -1.197105e+01 0 -1 1 1.883366e-01 -3.572409e-01 -2.434724e-01 -8.818330e-01
77 1 4 -1.377344e+01 1.408919e+01 -1.167434e+01 0 -1 1 4.695558e-01 -3.865743e-01 -2.947631e-02 -7.932268e-01
78 1 1 -1.372939e+01 1.448363e+01 -1.123214e+01 0 -1 1 6.940103e-01 -3.624432e-01 1.603352e-02 -6.218742e-01
79 1 4 -1.374504e+01 1.454008e+01 -1.063642e+01 0 -1 1 8.690388e-01 -3.131635e-01 1.651822e-01 -3.455648e-01
80 1 2 -1.362186e+01 1.448886e+01 -1.013944e+01 0 -1 1 -9.356518e-01 2.412627e-01 -2.355508e-01 1.042303e-01
81 1 4 -1.336515e+01 1.432405e+01 -9.701543e+00 0 -1 1 -9.458584e-01 -9.098335e-04 -3.066006e-01 -1.065231e-01
82 1 4 -1.296351e+01 1.417185e+01 -9.427812e+00 0 -1 1 -8.595078e-01 -5.034402e-02 -3.078050e-01 -4.049294e-01
83 1 4 -1.253550e+01 1.409509e+01 -9.226116e+00 0 -1 1 -6.254876e-01 -2.435237e-01 -3.605749e-01 -6.476475e-01
84 1 4 -1.205576e+01 1.421927e+01 -9.109413e+00 0 -1 1 -4.916400e-01 -3.088670e-01 -4.624107e-01 -6.701250e-01
85 1 1 -1.153239e+01 1.454729e+01 -8.886765e+00 0 -1 1 -1.798792e-01 -2.562896e-01 -2.030009e-01 -9.277660e-01
86 1 1 -1.117561e+01 1.486484e+01 -8.666272e+00 0 -1 1 5.136574e-02 -2.163993e-01 -1.871542e-01 -9.568209e-01
87 1 3 -1.120332e+01 1.530742e+01 -8.439716e+00 0 -1 1 3.701159e-01 -3.316405e-01 -1.842106e-01 -8.479948e-01
88 1 2 -1.127782e+01 1.567202e+01 -8.084395e+00 0 -1 1 6.028205e-01 -3.311297e-01 -7.605614e-02 -7.219252e-01
89 1 2 -1.131422e+01 1.589601e+01 -7.515011e+00 0 -1 1 -7.516908e-01 2.259761e-01 -3.642294e-02 6.185218e-01
90 1 3 -1.018899e+01 1.631202e+01 -7.681251e+00 0 -1 1 -1.143551e-01 -8.671957e-01 2.598630e-01 4.091036e-01
91 1 3 -9.869238e+00 1.610912e+01 -7.356204e+00 0 -1 1 -2.980370e-01 3.036793e-01 -8.963952e-01 1.242117e-01
92 1 2 -9.517953e+00 1.697347e+01 -7.885021e+00 0 -1 1 1.435767e-01 9.022594e-01 -2.344073e-01 3.322152e-01
93 1 1 -9.032793e+00 1.708948e+01 -8.184348e+00 0 -1 1 1.471442e-02 7.305545e-01 -5.947464e-01 3.351870e-01
94 1 2 -8.638644e+00 1.683440e+01 -8.223833e+00 0 -1 1 1.542465e-01 -3.935709e-01 8.874536e-01 -1.836737e-01
95 1 3 -8.427733e+00 1.647292e+01 -8.543133e+00 0 -1 1 -1.862181e-01 -5.499113e-02 -9.780614e-01 7.546315e-02
96 1 2 -7.841847e+00 1.721572e+01 -9.109244e+00 0 -1 1 2.342167e-01 5.932008e-01 7.681289e-01 -5.686117e-02
97 1 2 -7.294389e+00 1.633113e+01 -9.488566e+00 0 -1 1 -4.817883e-01 -3.872209e-01 2.590908e-01 7.421671e-01
98 1 4 -6.757346e+00 1.720843e+01 -1.004116e+01 0 -1 1 -1.644113e-01 4.883919e-01 -1.686532e-01 -8.402371e-01
99 1 2 -5.940863e+00 1.681591e+01 -1.003552e+01 0 -1 1 -2.657387e-02 -6.118373e-01 7.793741e-01 -1.323822e-01
100 1 1 -5.641642e+00 1.650223e+01 -1.043833e+01 0 -1 1 1.999228e-02 -3.778042e-01 9.124602e-01 -1.558225e-01
101 2 4 -9.526414e+00 1.140430e+01 -4.749024e+00 0 -1 1 4.126434e-01 -7.192370e-01 -3.630600e-01 -4.249836e-01
102 2 3 -1.050422e+01 1.126669e+01 -4.822727e+00 0 -1 1 -3.116791e-01 4.342328e-01 7.967601e-02 8.413975e-01
103 2 1 -1.034950e+01 1.153164e+01 -4.392700e+00 0 -1 1 -6.439206e-01 4.461236e-01 -3.233291e-01 5.308468e-01
104 2 3 -9.707166e+00 1.274798e+01 -5.258747e+00 0 -1 1 -5.000269e-01 -8.363323e-01 -2.234740e-01 -2.409782e-02
105 2 3 -9.657389e+00 1.260872e+01 -5.719155e+00 0 -1 1 -4.345558e-01 -8.608236e-01 1.879595e-01 -1.865884e-01
106 2 2 -9.310017e+00 1.232114e+01 -6.148278e+00 0 -1 1 -4.003960e-01 -6.958374e-01 5.103093e-01 -3.083468e-01
107 2 3 -9.936519e+00 1.314778e+01 -7.270353e+00 0 -1 1 5.224889e-01 5.580694e-01 5.494312e-01 3.371784e-01
108 2 4 -9.794978e+00 1.302502e+01 -6.380023e+00 0 -1 1 4.085409e-01 9.068217e-02 6.475628e-01 -6.368152e-01
109 2 3 -9.460241e+00 1.338059e+01 -6.978548e+00 0 -1 1 -9.282504e-01 -2.905030e-02 -3.361435e-01 1.565722e-01
110 2 2 -1.037435e+01 1.404579e+01 -6.193436e+00 0 -1 1 1.472158e-01 1.411692e-01 -9.237047e-01 3.242969e-01
111 2 2 -1.060353e+01 1.365443e+01 -6.602822e+00 0 -1 1 -3.110311e-01 -8.699314e-02 8.646007e-01 -3.849123e-01
112 2 3 -1.095422e+01 1.473208e+01 -7.250035e+00 0 -1 1 -1.696426e-01 5.628485e-01 7.244564e-01 -3.599804e-01
113 2 3 -1.142401e+01 1.473130e+01 -7.430352e+00 0 -1 1 4.623097e-02 -7.774627e-01 -4.944734e-01 3.858892e-01
114 2 2 -1.189357e+01 1.476607e+01 -7.631385e+00 0 -1 1 -3.561329e-02 -9.044121e-01 -2.250652e-01 3.607162e-01
115 2 4 -1.222089e+01 1.478776e+01 -8.097600e+00 0 -1 1 3.089004e-02 -9.600213e-01 -3.991695e-02 2.753390e-01
116 2 4 -1.241081e+01 1.517260e+01 -8.465841e+00 0 -1 1 -1.477165e-01 -9.038596e-01 3.327227e-01 2.247514e-01
117 2 1 -1.246178e+01 1.531593e+01 -8.925675e+00 0 -1 1 -1.419261e-01 -7.729146e-01 5.939489e-01 1.722923e-01
118 2 1 -1.253480e+01 1.521871e+01 -9.544251e+00 0 -1 1 -2.419443e-01 -6.749714e-01 6.970388e-01 -3.653748e-03
119 2 1 -1.245090e+01 1.500799e+01 -1.007341e+01 0 -1 1 -3.432495e-01 -3.842180e-01 8.545007e-01 -6.621764e-02
120 2 1 -1.243017e+01 1.462847e+01 -1.036654e+01 0 -1 1 -2.725741e-01 -1.916351e-01 9.014154e-01 -2.764590e-01
121 2 3 -1.260629e+01 1.409280e+01 -1.060639e+01 0 -1 1 2.425774e-01 -9.616742e-02 -9.293843e-01 2.610611e-01
122 2 1 -1.294719e+01 1.365353e+01 -1.057745e+01 0 -1 1 1.174132e-01 -3.997613e-01 -7.448615e-01 5.211395e-01
123 2 4 -1.353929e+01 1.338337e+01 -1.071087e+01 0 -1 1 1.232261e-01 -6.187401e-01 -6.265246e-01 4.576494e-01
124 2 1 -1.417614e+01 1.326312e+01 -1.091345e+01 0 -1 1 8.721768e-03 -7.839648e-01 -4.773204e-01 3.968480e-01
125 2 4 -1.463514e+01 1.334261e+01 -1.115617e+01 0 -1 1 -9.450984e-02 -9.033417e-01 -1.482306e-01 3.912409e-01
126 2 2 -1.495261e+01 1.352149e+01 -1.155800e+01 0 -1 1 -9.650227e-02 -9.384555e-01 1.046165e-01 3.147125e-01
127 2 4 -1.507691e+01 1.370975e+01 -1.209203e+01 0 -1 1 -2.366316e-01 -8.545429e-01 3.765922e-01 2.682167e-01
128 2 4 -1.517119e+01 1.368406e+01 -1.257439e+01 0 -1 1 -2.302226e-01 -7.479832e-01 6.168129e-01 8.402682e-02
129 2 1 -1.542495e+01 1.341893e+01 -1.309213e+01 0 -1 1 -2.850873e-01 -6.500558e-01 7.043165e-01 -9.539490e-03
130 2 2 -1.533079e+01 1.304281e+01 -1.345882e+01 0 -1 1 -2.508967e-01 -3.453197e-01 8.932380e-01 -1.411776e-01
131 2 3 -1.553285e+01 1.282714e+01 -1.387194e+01 0 -1 1 -3.736968e-01 -3.463339e-01 8.168682e-01 -2.704254e-01
132 2 4 -1.553527e+01 1.233860e+01 -1.391301e+01 0 -1 1 2.253519e-01 5.026904e-02 -8.663131e-01 4.429347e-01
133 2 4 -1.569644e+01 1.183171e+01 -1.396885e+01 0 -1 1 1.367720e-01 -2.054153e-01 -8.351636e-01 4.915279e-01
134 2 3 -1.604891e+01 1.140852e+01 -1.391414e+01 0 -1 1 2.349644e-02 -4.822753e-01 -7.067978e-01 5.170061e-01
135 2 4 -1.655457e+01 1.108864e+01 -1.403959e+01 0 -1 1 1.454397e-02 6.711239e-01 4.949566e-01 -5.517237e-01
136 2 3 -1.710865e+01 1.109112e+01 -1.415880e+01 0 -1 1 2.134247e-01 8.152612e-01 2.377431e-01 -4.829879e-01
137 2 1 -1.747227e+01 1.092585e+01 -1.455750e+01 0 -1 1 -1.970291e-01 -9.167614e-01 -1.078659e-01 3.302923e-01
138 2 3 -1.775063e+01 1.105242e+01 -1.501637e+01 0 -1 1 -3.941594e-01 -8.712319e-01 1.924830e-01 2.203262e-01
139 2 2 -1.776909e+01 1.094971e+01 -1.553103e+01 0 -1 1 -3.713758e-01 -7.954055e-01 4.666573e-01 1.078939e-01
140 2 3 -1.773243e+01 1.070989e+01 -1.601103e+01 0 -1 1 -3.442677e-01 -6.816168e-01 6.390995e-01 -9.181548e-02
141 2 1 -1.756045e+01 1.047903e+01 -1.644353e+01 0 -1 1 -3.164337e-01 -4.808237e-01 8.121588e-01 -9.527016e-02
142 2 2 -1.771188e+01 1.005082e+01 -1.686703e+01 0 -1 1 -3.667613e-01 -2.642767e-01 8.640630e-01 -2.214476e-01
143 2 4 -1.772587e+01 9.545127e+00 -1.700503e+01 0 -1 1 2.910500e-01 7.396642e-03 -8.958652e-01 3.356498e-01
144 2 4 -1.800543e+01 9.102369e+00 -1.701816e+01 0 -1 1 -1.539291e-01 2.917449e-01 8.390448e-01 -4.326598e-01
145 2 1 -1.845726e+01 8.716340e+00 -1.704962e+01 0 -1 1 -1.041193e-01 5.506186e-01 6.909804e-01 -4.566448e-01
146 2 1 -1.901631e+01 8.610373e+00 -1.711970e+01 0 -1 1 -8.778143e-02 7.076920e-01 5.122576e-01 -4.786007e-01
147 2 1 -1.948994e+01 8.729703e+00 -1.715163e+01 0 -1 1 1.006507e-01 8.315488e-01 1.477841e-01 -5.258858e-01
148 2 2 2.001338e+01 8.820287e+00 -1.751130e+01 -1 -1 1 2.082266e-01 8.984875e-01 -9.459327e-02 -3.747186e-01
149 2 4 1.973248e+01 8.828748e+00 -1.788425e+01 -1 -1 1 -2.487297e-01 -8.793176e-01 3.085116e-01 2.641109e-01
150 2 1 1.957635e+01 8.826777e+00 -1.838863e+01 -1 -1 1 -3.110664e-01 -7.750423e-01 5.206660e-01 1.773528e-01
151 2 1 1.951358e+01 8.566686e+00 -1.882968e+01 -1 -1 1 -3.450678e-01 -6.654121e-01 6.615144e-01 2.352888e-02
152 2 1 1.948508e+01 8.156023e+00 -1.928980e+01 -1 -1 1 -4.013055e-01 -3.614864e-01 8.281995e-01 -1.495562e-01
153 2 4 1.942807e+01 7.673381e+00 -1.947837e+01 -1 -1 1 -3.709400e-01 -2.310196e-01 8.017689e-01 -4.076764e-01
154 2 1 1.928188e+01 7.166326e+00 -1.940727e+01 -1 -1 1 -2.807675e-01 2.746780e-02 7.545901e-01 -5.924600e-01
155 2 2 1.900867e+01 6.688981e+00 -1.916099e+01 -1 -1 1 -1.574175e-01 3.113808e-01 7.096621e-01 -6.120795e-01
156 2 4 1.849811e+01 6.423997e+00 -1.916322e+01 -1 -1 1 -1.165069e-01 5.858389e-01 5.818066e-01 -5.520146e-01
157 2 3 1.800821e+01 6.401920e+00 -1.915998e+01 -1 -1 1 8.509436e-02 7.173743e-01 3.527017e-01 -5.947559e-01
158 2 2 1.738817e+01 6.340788e+00 -1.934085e+01 -1 -1 1 3.679187e-01 8.012838e-01 1.816946e-01 -4.353932e-01
159 2 1 1.699834e+01 6.145753e+00 -1.971799e+01 -1 -1 1 4.347771e-01 8.701872e-01 -2.961606e-02 -2.299261e-01
160 2 3 1.688876e+01 6.005598e+00 1.976272e+01 -1 -1 0 -3.899665e-01 -8.815452e-01 2.660106e-01 -6.522351e-03
161 2 1 1.711202e+01 5.778506e+00 1.932033e+01 -1 -1 0 -2.990986e-01 -7.818558e-01 5.246136e-01 -1.549905e-01
162 2 1 1.729540e+01 5.483822e+00 1.893262e+01 -1 -1 0 -2.565528e-01 -5.812924e-01 7.152936e-01 -2.909206e-01
163 2 4 1.743803e+01 4.977524e+00 1.867261e+01 -1 -1 0 -2.722344e-01 -2.561695e-01 8.508276e-01 -3.692668e-01
164 2 4 1.736760e+01 4.366239e+00 1.867564e+01 -1 -1 0 -1.729224e-01 7.066148e-02 8.937671e-01 -4.077807e-01
165 2 3 1.712417e+01 3.936318e+00 1.873900e+01 -1 -1 0 -2.264447e-02 3.852214e-01 7.744677e-01 -5.012898e-01
166 2 3 1.669364e+01 3.596508e+00 1.878576e+01 -1 -1 0 8.650908e-03 6.091928e-01 5.617733e-01 -5.596607e-01
167 2 4 1.620343e+01 3.484148e+00 1.865946e+01 -1 -1 0 2.189240e-01 7.943514e-01 3.606912e-01 -4.370126e-01
168 2 2 1.581129e+01 3.423840e+00 1.832030e+01 -1 -1 0 2.737815e-01 8.862968e-01 3.470002e-02 -3.719106e-01
169 2 2 1.545043e+01 3.341556e+00 1.792883e+01 -1 -1 0 2.578487e-01 9.334890e-01 -7.289981e-02 -2.383230e-01
170 2 1 1.533884e+01 3.302903e+00 1.741854e+01 -1 -1 0 2.021563e-01 9.173660e-01 -3.191157e-01 -1.254496e-01
171 2 1 1.544680e+01 3.346214e+00 1.693277e+01 -1 -1 0 -2.053754e-01 -7.857968e-01 5.822996e-01 3.565887e-02
172 2 4 1.558088e+01 3.264541e+00 1.646372e+01 -1 -1 0 -1.983631e-01 -5.382114e-01 8.178998e-01 -4.494993e-02
173 2 4 1.545321e+01 3.088179e+00 1.595468e+01 -1 -1 0 -1.973937e-01 -5.254361e-01 8.111373e-01 -1.643436e-01
174 2 1 1.561868e+01 2.645738e+00 1.565900e+01 -1 -1 0 -1.412258e-01 -1.748778e-01 9.275044e-01 -2.986781e-01
175 2 1 1.555861e+01 2.033578e+00 1.548737e+01 -1 -1 0 -4.844032e-02 1.742351e-01 9.436763e-01 -2.770754e-01
176 2 2 1.531649e+01 1.577246e+00 1.525404e+01 -1 -1 0 2.062913e-02 4.326048e-01 8.638726e-01 -2.571995e-01
177 2 2 1.496649e+01 1.258178e+00 1.496771e+01 -1 -1 0 2.958721e-02 6.537965e-01 7.052714e-01 -2.725197e-01
178 2 1 1.455275e+01 1.125918e+00 1.454135e+01 -1 -1 0 -5.556784e-02 7.619233e-01 6.163809e-01 -1.909442e-01
179 2 4 1.415426e+01 1.306346e+00 1.420823e+01 -1 -1 0 8.055133e-02 9.448667e-01 2.652783e-01 -1.742579e-01
180 2 1 1.398032e+01 1.393122e+00 1.367228e+01 -1 -1 0 7.986261e-02 9.898492e-01 8.337892e-02 -8.287607e-02
181 2 4 1.392087e+01 1.562514e+00 1.324576e+01 -1 -1 0 -3.197127e-02 -9.732704e-01 2.177725e-01 6.555738e-02
182 2 2 1.396203e+01 1.667750e+00 1.270935e+01 -1 -1 0 -1.274410e-01 -9.059552e-01 3.979021e-01 -6.839588e-02
183 2 3 1.421564e+01 1.695303e+00 1.232294e+01 -1 -1 0 1.576819e-02 -7.399986e-01 6.579463e-01 -1.387811e-01
184 2 4 1.454084e+01 1.532996e+00 1.194856e+01 -1 -1 0 -3.087105e-02 -4.626023e-01 8.719535e-01 -1.573001e-01
185 2 3 1.467929e+01 1.100637e+00 1.162811e+01 -1 -1 0 -3.406025e-02 -6.334621e-02 9.794421e-01 -1.884682e-01
186 2 1 1.461499e+01 6.493427e-01 1.131557e+01 -1 -1 0 -6.189756e-02 1.555985e-01 9.434639e-01 -2.860658e-01
187 2 1 1.436776e+01 2.699249e-01 1.100080e+01 -1 -1 0 -2.563455e-02 4.711263e-01 8.548431e-01 -2.159307e-01
188 2 2 1.393535e+01 5.953968e-02 1.073897e+01 -1 -1 0 2.672294e-02 7.369689e-01 6.384845e-01 -2.202280e-01
189 2 4 1.367196e+01 -1.085186e-02 1.027896e+01 -1 -1 0 -8.002280e-02 8.512016e-01 4.990273e-01 -1.415061e-01
190 2 4 1.336094e+01 2.224956e-01 9.938313e+00 -1 -1 0 1.731825e-01 -9.545458e-01 -1.594493e-01 1.828281e-01
191 2 1 1.323466e+01 6.507520e-01 9.539955e+00 -1 -1 0 -6.768373e-02 9.677423e-01 -1.816709e-01 -1.609020e-01
192 2 4 1.337333e+01 9.094404e-01 9.042142e+00 -1 -1 0 -3.821189e-02 -8.692979e-01 4.895788e-01 5.633587e-02
193 2 4 1.352992e+01 9.563172e-01 8.540757e+00 -1 -1 0 -1.250830e-01 -6.913364e-01 7.116231e-01 8.648059e-04
194 2 1 1.383575e+01 6.817739e-01 8.086553e+00 -1 -1 0 -1.571792e-01 -5.028763e-01 8.491627e-01 -3.650788e-02
195 2 3 1.396675e+01 2.865697e-01 7.673752e+00 -1 -1 0 -1.538651e-01 -1.323502e-01 9.765258e-01 -7.215477e-02
196 2 4 1.384933e+01 -1.143735e-01 7.310770e+00 -1 -1 0 1.402351e-01 -7.178533e-02 -9.632822e-01 2.174128e-01
197 2 2 1.358842e+01 -5.150944e-01 7.031383e+00 -1 -1 0 -1.353526e-01 3.313316e-01 8.961821e-01 -2.622148e-01
198 2 4 1.320424e+01 -6.909887e-01 6.734999e+00 -1 -1 0 1.160821e-01 -5.389105e-01 -7.862827e-01 2.790340e-01
199 2 3 1.270697e+01 -8.624196e-01 6.381509e+00 -1 -1 0 8.497053e-02 -7.699407e-01 -6.056384e-01 1.821357e-01
200 2 4 1.221852e+01 -7.215437e-01 6.139414e+00 -1 -1 0 -9.639734e-02 9.056304e-01 3.312878e-01 -2.465555e-01
