ITEM: TIMESTEP
60000000
ITEM: NUMBER OF ATOMS
200
ITEM: BOX BOUNDS pp pp pp
-2.0000000000000000e+01 2.0000000000000000e+01
-2.0000000000000000e+01 2.0000000000000000e+01
-2.0000000000000000e+01 2.0000000000000000e+01
ITEM: ATOMS id mol type x y z ix iy iz c_quat[1] c_quat[2] c_quat[3] c_quat[4]
1 1 1 1.486447e+01 1.920324e+00 5.753297e+00 -1 -1 0 -4.432171e-01 2.023513e-01 9.884001e-02 8.676654e-01
2 1 2 1.463820e+01 2.229001e+00 6.159431e+00 -1 -1 0 7.296737e-01 -1.881840e-01 -4.294244e-02 -6.559870e-01
3 1 1 1.437211e+01 2.224653e+00 6.602202e+00 -1 -1 0 -8.763552e-01 9.159395e-02 1.213950e-01 4.570289e-01
4 1 3 1.411833e+01 2.028850e+00 7.071336e+00 -1 -1 0 9.801940e-01 -1.058090e-01 3.009879e-03 -1.673775e-01
5 1 1 1.412834e+01 1.798237e+00 7.565190e+00 -1 -1 0 9.760872e-01 -1.219614e-01 8.419590e-02 1.590288e-01
6 1 2 1.436983e+01 1.705380e+00 8.045250e+00 -1 -1 0 8.599381e-01 -5.058131e-02 1.963570e-01 4.683930e-01
7 1 4 1.483466e+01 1.708527e+00 8.424787e+00 -1 -1 0 -7.192808e-01 -2.614667e-03 -2.534512e-01 -6.468314e-01
8 1 1 1.531448e+01 1.909498e+00 8.664048e+00 -1 -1 0 -4.695266e-01 -6.222017e-02 -3.413795e-01 -8.118703e-01
9 1 1 1.563144e+01 2.316444e+00 8.870002e+00 -1 -1 0 -1.039245e-01 -8.586394e-02 -2.593276e-01 -9.563348e-01
10 1 4 1.557751e+01 2.868163e+00 9.094463e+00 -1 -1 0 -2.808146e-01 5.679133e-02 2.863489e-01 9.142878e-01
11 1 1 1.529993e+01 3.236216e+00 9.408332e+00 -1 -1 0 -5.707153e-01 1.115124e-01 2.248990e-01 7.818373e-01
12 1 1 1.498563e+01 3.496330e+00 9.702300e+00 -1 -1 0 7.547769e-01 -1.179593e-01 -2.796703e-01 -5.815341e-01
13 1 3 1.461758e+01 3.463904e+00 1.010793e+01 -1 -1 0 9.282365e-01 -1.524698e-01 -2.151154e-01 -2.624029e-01
14 1 4 1.436358e+01 3.468231e+00 1.060807e+01 -1 -1 0 9.695059e-01 -2.183255e-01 -8.449005e-02 -7.248292e-02
15 1 4 1.423773e+01 3.474622e+00 1.121840e+01 -1 -1 0 -9.934926e-01 1.022799e-01 -8.520483e-03 -4.938391e-02
16 1 2 1.434065e+01 3.314482e+00 1.167965e+01 -1 -1 0 -9.239163e-01 1.193255e-02 -1.200807e-01 -3.630660e-01
17 1 1 1.460492e+01 3.207722e+00 1.214273e+01 -1 -1 0 7.904857e-01 -3.274406e-02 1.248114e-01 5.987339e-01
18 1 2 1.490892e+01 3.280941e+00 1.255013e+01 -1 -1 0 5.775060e-01 2.503597e-02 2.039325e-01 7.901085e-01
19 1 3 1.525915e+01 3.547790e+00 1.284983e+01 -1 -1 0 3.520671e-01 5.451164e-02 1.517795e-01 9.219763e-01
20 1 1 1.537451e+01 3.755624e+00 1.332652e+01 -1 -1 0 2.620266e-01 -3.717512e-02 2.335601e-01 9.356333e-01
21 1 4 1.544998e+01 4.249429e+00 1.358769e+01 -1 -1 0 9.070728e-02 -1.124184e-02 -2.408395e-01 -9.662516e-01
22 1 1 1.532791e+01 4.686377e+00 1.389854e+01 -1 -1 0 4.226646e-01 -1.388354e-02 -2.826150e-01 -8.609824e-01
23 1 4 1.500256e+01 4.950491e+00 1.424799e+01 -1 -1 0 6.259438e-01 6.989931e-03 -1.953826e-01 -7.549643e-01
24 1 3 1.471419e+01 4.985774e+00 1.468520e+01 -1 -1 0 7.926868e-01 1.019842e-01 -1.809175e-01 -5.731629e-01
25 1 3 1.432459e+01 4.874234e+00 1.504661e+01 -1 -1 0 9.474295e-01 -4.418590e-02 -1.541245e-01 -2.768944e-01
26 1 4 1.410298e+01 4.673945e+00 1.556003e+01 -1 -1 0 9.908201e-01 -1.345898e-01 3.715563e-03 -1.213602e-02
27 1 4 1.421083e+01 4.626855e+00 1.609978e+01 -1 -1 0 9.345849e-01 -1.146634e-01 1.403484e-01 3.061139e-01
28 1 1 1.460809e+01 4.655734e+00 1.639499e+01 -1 -1 0 7.207682e-01 6.598231e-04 2.601148e-01 6.425208e-01
29 1 1 1.500578e+01 4.943848e+00 1.671457e+01 -1 -1 0 4.736085e-01 2.863965e-02 3.397518e-01 8.120612e-01
30 1 4 1.535650e+01 5.303279e+00 1.682297e+01 -1 -1 0 -2.713156e-01 -1.284035e-01 -3.561143e-01 -8.849198e-01
31 1 4 1.551526e+01 5.780674e+00 1.708176e+01 -1 -1 0 -1.161348e-01 -3.566151e-02 -3.448042e-01 -9.307798e-01
32 1 3 1.546396e+01 6.322497e+00 1.713538e+01 -1 -1 0 2.625276e-01 -1.847566e-01 -3.256133e-01 -8.893369e-01
33 1 3 1.532215e+01 6.757443e+00 1.728707e+01 -1 -1 0 5.396758e-01 -2.746972e-01 -2.628908e-01 -7.511191e-01
34 1 1 1.504565e+01 7.081949e+00 1.761987e+01 -1 -1 0 7.553565e-01 -2.369405e-01 -2.068928e-01 -5.748835e-01
35 1 2 1.470651e+01 7.247907e+00 1.808138e+01 -1 -1 0 8.774664e-01 -3.785700e-01 -3.234187e-02 -2.927311e-01
36 1 2 1.483120e+01 7.433145e+00 1.869271e+01 -1 -1 0 9.358859e-01 -2.223900e-01 4.652595e-02 -2.692503e-01
37 1 1 1.486200e+01 7.515506e+00 1.919071e+01 -1 -1 0 9.360231e-01 -2.560979e-01 2.372178e-01 4.474638e-02
38 1 1 1.516319e+01 7.403238e+00 1.959345e+01 -1 -1 0 8.910390e-01 -1.011506e-01 3.445753e-01 2.776435e-01
39 1 4 1.556581e+01 7.588545e+00 -1.997749e+01 -1 -1 1 -7.747562e-01 5.497172e-02 -4.874053e-01 -3.989573e-01
40 1 4 1.604778e+01 7.780135e+00 -1.995309e+01 -1 -1 1 -5.476459e-01 -7.610371e-02 -4.131108e-01 -7.236240e-01
41 1 2 1.645302e+01 8.102048e+00 -1.994862e+01 -1 -1 1 -3.688903e-01 -1.706311e-01 -5.173945e-01 -7.530656e-01
42 1 4 1.678005e+01 8.497084e+00 1.997906e+01 -1 -1 0 -9.924810e-02 -2.434560e-01 -4.608602e-01 -8.476360e-01
43 1 3 1.684420e+01 8.987267e+00 1.993762e+01 -1 -1 0 2.179420e-01 -4.171612e-01 -3.480407e-01 -8.107685e-01
44 1 2 1.680692e+01 9.481143e+00 -1.994394e+01 -1 -1 1 4.604735e-01 -3.703955e-01 -4.205472e-01 -6.884122e-01
45 1 1 1.666889e+01 9.949193e+00 -1.972260e+01 -1 -1 1 6.682691e-01 -4.891183e-01 -1.561708e-01 -5.383219e-01
46 1 3 1.673010e+01 1.037350e+01 -1.931342e+01 -1 -1 1 7.301702e-01 -4.738012e-01 8.348998e-02 -4.851734e-01
47 1 4 1.680143e+01 1.055819e+01 -1.891266e+01 -1 -1 1 9.090246e-01 -2.882877e-01 2.047655e-01 -2.205346e-01
48 1 1 1.693898e+01 1.058281e+01 -1.842497e+01 -1 -1 1 -9.382426e-01 1.685051e-01 -2.859359e-01 9.771112e-02
49 1 4 1.724180e+01 1.044691e+01 -1.800988e+01 -1 -1 1 -8.739155e-01 1.490181e-01 -3.450130e-01 -3.082716e-01
50 1 4 1.767698e+01 1.058186e+01 -1.775982e+01 -1 -1 1 -7.389170e-01 5.013605e-02 -4.927963e-01 -4.567711e-01
51 1 4 1.815308e+01 1.077533e+01 -1.767617e+01 -1 -1 1 -5.420224e-01 -8.726862e-02 -5.060481e-01 -6.652152e-01
52 1 1 1.855189e+01 1.110202e+01 -1.747917e+01 -1 -1 1 -4.220370e-01 -5.378850e-02 -6.660245e-01 -6.127013e-01
53 1 3 1.886240e+01 1.141027e+01 -1.765795e+01 -1 -1 1 -1.610238e-01 -2.677462e-01 -5.155786e-01 -7.978484e-01
54 1 4 1.907266e+01 1.185995e+01 -1.779901e+01 -1 -1 1 9.592666e-02 -4.043749e-01 -5.114166e-01 -7.521517e-01
55 1 4 1.898999e+01 1.234033e+01 -1.791256e+01 -1 -1 1 3.998302e-01 -5.442774e-01 -4.373367e-01 -5.938304e-01
56 1 4 1.904076e+01 1.294752e+01 -1.781118e+01 -1 -1 1 5.793193e-01 -5.031125e-01 -2.910608e-01 -5.714460e-01
57 1 1 1.894553e+01 1.333141e+01 -1.734810e+01 -1 -1 1 7.660024e-01 -5.028327e-01 -5.123523e-02 -3.972085e-01
58 1 1 1.899862e+01 1.366451e+01 -1.694168e+01 -1 -1 1 8.321565e-01 -4.819670e-01 1.007146e-01 -2.551077e-01
59 1 3 1.919032e+01 1.384891e+01 -1.643673e+01 -1 -1 1 -8.648580e-01 4.236574e-01 -2.657599e-01 4.366628e-02
60 1 4 1.946712e+01 1.394520e+01 -1.611832e+01 -1 -1 1 -8.713592e-01 1.725511e-01 -3.738480e-01 -2.668276e-01
61 1 2 -1.998115e+01 1.413276e+01 -1.575672e+01 0 -1 1 -7.444309e-01 2.220217e-01 -5.064656e-01 -3.741946e-01
62 1 3 -1.941286e+01 1.421797e+01 -1.570962e+01 0 -1 1 -6.353041e-01 -5.733652e-02 -6.069465e-01 -4.740435e-01
63 1 2 -1.888892e+01 1.440307e+01 -1.581441e+01 0 -1 1 -4.032403e-01 -2.055774e-01 -5.652898e-01 -6.896250e-01
64 1 4 -1.845201e+01 1.464835e+01 -1.583185e+01 0 -1 1 -2.242846e-01 -3.129223e-01 -6.175361e-01 -6.858755e-01
65 1 2 -1.827399e+01 1.504397e+01 -1.607531e+01 0 -1 1 4.066027e-02 -4.990112e-01 -4.900564e-01 -7.135680e-01
66 1 1 -1.811790e+01 1.550523e+01 -1.621162e+01 0 -1 1 2.377926e-01 -6.059418e-01 -3.357538e-01 -6.808514e-01
67 1 2 -1.791575e+01 1.603818e+01 -1.616099e+01 0 -1 1 3.558781e-01 -6.609346e-01 -7.597704e-02 -6.563107e-01
68 1 1 -1.777179e+01 1.649344e+01 -1.589665e+01 0 -1 1 5.588865e-01 -6.105840e-01 1.748152e-01 -5.331723e-01
69 1 1 -1.740977e+01 1.673499e+01 -1.564810e+01 0 -1 1 6.729901e-01 -4.453183e-01 1.980414e-01 -5.563771e-01
70 1 2 -1.716575e+01 1.681952e+01 -1.513109e+01 0 -1 1 -8.483778e-01 2.525589e-01 -3.752613e-01 2.750420e-01
71 1 3 -1.682482e+01 1.670789e+01 -1.473409e+01 0 -1 1 -8.697171e-01 1.320149e-01 -4.688316e-01 7.975671e-02
72 1 4 -1.632483e+01 1.656065e+01 -1.449300e+01 0 -1 1 -7.888969e-01 -3.052067e-03 -6.050692e-01 -1.073483e-01
73 1 1 -1.576210e+01 1.628641e+01 -1.453821e+01 0 -1 1 -6.622781e-01 -2.170083e-01 -6.635625e-01 -2.719923e-01
74 1 1 -1.533468e+01 1.619944e+01 -1.478546e+01 0 -1 1 -5.445619e-01 -4.433504e-01 -5.181474e-01 -4.882787e-01
75 1 3 -1.484464e+01 1.624608e+01 -1.498220e+01 0 -1 1 -3.884244e-01 -5.410508e-01 -4.078240e-01 -6.245559e-01
76 1 1 -1.434663e+01 1.641098e+01 -1.505866e+01 0 -1 1 -2.488789e-01 -5.298192e-01 -2.452643e-01 -7.727848e-01
77 1 4 -1.392091e+01 1.679817e+01 -1.502885e+01 0 -1 1 -2.704681e-02 -5.515341e-01 -1.055528e-01 -8.270050e-01
78 1 1 -1.368723e+01 1.722378e+01 -1.486175e+01 0 -1 1 2.798237e-01 -5.879839e-01 4.920126e-02 -7.573327e-01
79 1 4 -1.329070e+01 1.753112e+01 -1.441997e+01 0 -1 1 4.296737e-01 -4.897132e-01 2.043115e-01 -7.306287e-01
80 1 2 -1.295457e+01 1.766076e+01 -1.411437e+01 0 -1 1 -5.510057e-01 3.228784e-01 -3.660497e-01 6.768677e-01
81 1 4 -1.287987e+01 1.756734e+01 -1.361834e+01 0 -1 1 -8.013649e-01 1.673399e-01 -4.098365e-01 4.023005e-01
82 1 4 -1.265070e+01 1.729975e+01 -1.326039e+01 0 -1 1 -9.165021e-01 -6.870592e-03 -3.786666e-01 1.287957e-01
83 1 4 -1.230098e+01 1.703642e+01 -1.295125e+01 0 -1 1 -8.909018e-01 -1.570649e-01 -4.244434e-01 -3.837289e-02
84 1 4 -1.185810e+01 1.664307e+01 -1.293427e+01 0 -1 1 -8.095783e-01 -3.267006e-01 -4.139345e-01 -2.578912e-01
85 1 1 -1.141230e+01 1.642754e+01 -1.297344e+01 0 -1 1 -6.409095e-01 -4.688366e-01 -3.448125e-01 -5.005313e-01
86 1 1 -1.094809e+01 1.646338e+01 -1.316553e+01 0 -1 1 -3.684357e-01 -6.226964e-01 -3.408652e-01 -6.002626e-01
87 1 3 -1.044244e+01 1.666826e+01 -1.337940e+01 0 -1 1 -2.262096e-01 -6.160494e-01 -2.258533e-01 -7.199324e-01
88 1 2 -1.002776e+01 1.696295e+01 -1.345438e+01 0 -1 1 4.144749e-02 -6.529811e-01 -6.889040e-03 -7.562079e-01
89 1 2 -9.548797e+00 1.640570e+01 -1.455194e+01 0 -1 1 -6.070760e-01 5.430826e-01 -5.768039e-01 6.178392e-02
90 1 3 -1.003503e+01 1.734426e+01 -1.425544e+01 0 -1 1 -1.352662e-01 -2.518932e-01 7.699823e-01 -5.704211e-01
91 1 3 -1.059346e+01 1.780049e+01 -1.544265e+01 0 -1 1 3.281669e-01 1.808847e-01 9.265839e-01 3.208533e-02
92 1 2 -9.998962e+00 1.858217e+01 -1.599329e+01 0 -1 1 6.330482e-01 3.220800e-01 6.948503e-01 1.126831e-01
93 1 1 -9.773804e+00 1.838483e+01 -1.617652e+01 0 -1 1 -2.641670e-01 -1.683757e-01 9.436775e-01 1.064808e-01
94 1 2 -9.298275e+00 1.816276e+01 -1.690545e+01 0 -1 1 5.206752e-01 8.080378e-01 3.246445e-02 -2.737122e-01
95 1 3 -9.386384e+00 1.784359e+01 -1.734206e+01 0 -1 1 6.273084e-01 6.364953e-01 -4.483061e-01 -1.947974e-02
96 1 2 -9.860201e+00 1.902852e+01 -1.788398e+01 0 -1 1 2.170344e-01 7.780921e-01 5.691210e-01 -1.535250e-01
97 1 2 -1.004025e+01 1.899167e+01 -1.840397e+01 0 -1 1 3.310729e-01 9.360694e-01 1.109227e-01 4.313968e-02
98 1 4 -1.000401e+01 1.852772e+01 -1.870051e+01 0 -1 1 3.047832e-01 2.079963e-01 -9.283855e-01 4.410370e-02
99 1 2 -1.026538e+01 1.823511e+01 -1.914326e+01 0 -1 1 -2.977994e-01 -7.707865e-02 9.301971e-01 -2.002694e-01
100 1 1 -1.062096e+01 1.851237e+01 1.958212e+01 0 -1 0 -3.298509e-02 4.408867e-01 -3.259552e-01 -8.356340e-01
101 2 4 -1.233328e+01 1.524566e+01 -7.909860e+00 0 -1 1 4.786593e-01 -1.620281e-01 -4.547704e-01 7.333594e-01
102 2 3 -1.252596e+01 1.458225e+01 -8.184615e+00 0 -1 1 -6.235764e-01 -6.617966e-01 -1.707070e-01 -3.795218e-01
103 2 1 -1.208826e+01 1.436969e+01 -8.326395e+00 0 -1 1 -4.387321e-01 -6.114486e-01 4.897116e-02 -6.566937e-01
104 2 3 -1.201007e+01 1.365239e+01 -8.995767e+00 0 -1 1 5.097579e-01 2.144633e-01 5.497045e-01 6.260810e-01
105 2 3 -1.170820e+01 1.394415e+01 -9.143269e+00 0 -1 1 1.344039e-01 5.142753e-01 4.155118e-01 7.381101e-01
106 2 2 -1.143587e+01 1.439231e+01 -9.221980e+00 0 -1 1 9.965416e-02 -6.209115e-01 -7.257229e-02 -7.741261e-01
107 2 3 -1.028755e+01 1.450805e+01 -9.736690e+00 0 -1 1 -5.082214e-01 7.339114e-01 -4.209068e-01 -1.610048e-01
108 2 4 -9.973639e+00 1.478755e+01 -9.878197e+00 0 -1 1 4.412555e-01 -3.571475e-01 7.519113e-01 3.352144e-01
109 2 3 -1.022082e+01 1.565198e+01 -1.017478e+01 0 -1 1 -1.949875e-01 -1.993787e-01 -8.928882e-01 -3.535233e-01
110 2 2 -1.028768e+01 1.580554e+01 -1.054852e+01 0 -1 1 -3.508867e-02 7.061496e-01 6.271246e-01 3.268580e-01
111 2 2 -9.484642e+00 1.559456e+01 -1.139871e+01 0 -1 1 2.453320e-01 5.056692e-01 -6.302203e-01 -5.356615e-01
112 2 3 -9.720635e+00 1.563869e+01 -1.182120e+01 0 -1 1 -3.092241e-01 -3.246772e-01 8.559537e-01 2.575042e-01
113 2 3 -1.020296e+01 1.698914e+01 -1.222605e+01 0 -1 1 -4.265701e-02 7.702039e-01 9.280874e-02 -6.295656e-01
114 2 2 -1.056337e+01 1.729217e+01 -1.237640e+01 0 -1 1 -3.210045e-02 -7.514509e-01 2.355835e-01 6.154604e-01
115 2 4 -1.098810e+01 1.744710e+01 -1.256550e+01 0 -1 1 -1.380839e-01 -7.812647e-01 4.202092e-01 4.404345e-01
116 2 4 -1.112471e+01 1.757603e+01 -1.303923e+01 0 -1 1 -2.712055e-01 -5.993098e-01 6.612524e-01 3.605838e-01
117 2 1 -1.137217e+01 1.758344e+01 -1.352889e+01 0 -1 1 -4.604571e-01 -4.026109e-01 7.601351e-01 2.192675e-01
118 2 1 -1.155331e+01 1.727909e+01 -1.387399e+01 0 -1 1 -4.319051e-01 -8.031448e-02 8.980722e-01 -2.176917e-02
119 2 1 -1.188166e+01 1.697700e+01 -1.408662e+01 0 -1 1 -4.165999e-01 1.486532e-01 8.744264e-01 -1.993116e-01
120 2 1 -1.235091e+01 1.670820e+01 -1.416684e+01 0 -1 1 -4.483557e-01 2.803798e-01 7.642731e-01 -3.691219e-01
121 2 3 -1.270800e+01 1.660928e+01 -1.387944e+01 0 -1 1 2.210051e-01 -4.771394e-01 -5.733924e-01 6.282641e-01
122 2 1 -1.339867e+01 1.648039e+01 -1.398028e+01 0 -1 1 3.628124e-01 -6.218997e-01 -5.015476e-01 4.796436e-01
123 2 4 -1.387225e+01 1.663816e+01 -1.387836e+01 0 -1 1 8.821099e-02 -7.640224e-01 -2.891713e-01 5.699724e-01
124 2 1 -1.429242e+01 1.692789e+01 -1.390623e+01 0 -1 1 -1.071755e-01 -7.826263e-01 -2.202340e-02 6.128005e-01
125 2 4 -1.473092e+01 1.711313e+01 -1.408908e+01 0 -1 1 -1.215360e-01 -7.966224e-01 2.431378e-01 5.399128e-01
126 2 2 -1.511397e+01 1.729953e+01 -1.449772e+01 0 -1 1 -2.493281e-01 -7.509677e-01 4.386053e-01 4.260380e-01
127 2 4 -1.541081e+01 1.732973e+01 -1.497306e+01 0 -1 1 -4.903133e-01 -5.533254e-01 6.075575e-01 2.903407e-01
128 2 4 -1.570195e+01 1.713426e+01 -1.537379e+01 0 -1 1 -4.981995e-01 -3.520217e-01 7.912111e-01 4.316290e-02
129 2 1 -1.607513e+01 1.681938e+01 -1.564667e+01 0 -1 1 -6.219376e-01 -2.649310e-01 7.312591e-01 -9.091421e-02
130 2 2 -1.626197e+01 1.634384e+01 -1.569019e+01 0 -1 1 -4.588619e-01 5.635569e-02 8.217693e-01 -3.331142e-01
131 2 3 -1.654106e+01 1.592620e+01 -1.566271e+01 0 -1 1 -4.215927e-01 2.461138e-01 7.277693e-01 -4.817047e-01
132 2 4 -1.692305e+01 1.565299e+01 -1.547522e+01 0 -1 1 3.225738e-01 -4.290354e-01 -6.052912e-01 5.877902e-01
133 2 4 -1.738150e+01 1.560461e+01 -1.523591e+01 0 -1 1 2.562935e-01 -5.377022e-01 -4.292362e-01 6.789302e-01
134 2 3 -1.779716e+01 1.564989e+01 -1.502790e+01 0 -1 1 -8.068318e-04 -6.737034e-01 -2.155007e-01 7.068823e-01
135 2 4 -1.836586e+01 1.575875e+01 -1.507932e+01 0 -1 1 1.991683e-01 7.524922e-01 2.355844e-02 -6.273216e-01
136 2 3 -1.891705e+01 1.563727e+01 -1.526366e+01 0 -1 1 3.542198e-01 7.920636e-01 -1.036785e-01 -4.862246e-01
137 2 1 -1.937468e+01 1.542678e+01 -1.557754e+01 0 -1 1 -3.595995e-01 -8.675599e-01 2.017830e-01 2.780498e-01
138 2 3 -1.951327e+01 1.536868e+01 -1.605179e+01 0 -1 1 -4.022464e-01 -7.748305e-01 4.719715e-01 1.227939e-01
139 2 2 -1.962257e+01 1.505045e+01 -1.654315e+01 0 -1 1 -4.534944e-01 -5.983082e-01 6.570479e-01 -6.825145e-02
140 2 3 -1.966195e+01 1.456998e+01 -1.679871e+01 0 -1 1 -3.942312e-01 -4.416653e-01 7.457285e-01 -3.056181e-01
141 2 1 -1.968055e+01 1.405302e+01 -1.699828e+01 0 -1 1 -3.541588e-01 -1.902113e-01 7.884900e-01 -4.654834e-01
142 2 2 -1.976896e+01 1.351718e+01 -1.687008e+01 0 -1 1 -2.151250e-01 3.812911e-02 8.371327e-01 -5.014741e-01
143 2 4 -1.998783e+01 1.306622e+01 -1.674191e+01 0 -1 1 3.762261e-02 -3.063549e-01 -7.324133e-01 6.068789e-01
144 2 4 1.967548e+01 1.265007e+01 -1.668724e+01 -1 -1 1 6.390663e-02 4.740157e-01 6.790383e-01 -5.568950e-01
145 2 1 1.925647e+01 1.230171e+01 -1.677929e+01 -1 -1 1 6.850556e-03 6.134688e-01 5.268540e-01 -5.882465e-01
146 2 1 1.871495e+01 1.234705e+01 -1.679629e+01 -1 -1 1 2.476170e-01 7.524186e-01 2.223486e-01 -5.684304e-01
147 2 1 1.823070e+01 1.227723e+01 -1.703701e+01 -1 -1 1 4.492757e-01 7.969010e-01 -6.791823e-02 -3.981044e-01
148 2 2 1.787904e+01 1.198315e+01 -1.736565e+01 -1 -1 1 4.547344e-01 8.561730e-01 -8.080346e-02 -2.316362e-01
149 2 4 1.771481e+01 1.190242e+01 -1.790294e+01 -1 -1 1 -3.842805e-01 -8.462606e-01 3.680027e-01 2.730514e-02
150 2 1 1.787907e+01 1.167759e+01 -1.833239e+01 -1 -1 1 -3.177914e-01 -6.565729e-01 6.664451e-01 -1.541802e-01
151 2 1 1.791351e+01 1.127381e+01 -1.869812e+01 -1 -1 1 -3.511500e-01 -4.446536e-01 7.772419e-01 -2.736272e-01
152 2 1 1.799020e+01 1.079978e+01 -1.888789e+01 -1 -1 1 -2.894990e-01 -2.877403e-01 7.884812e-01 -4.601014e-01
153 2 4 1.799322e+01 1.036451e+01 -1.885803e+01 -1 -1 1 -7.555489e-02 1.144582e-01 8.604240e-01 -4.907763e-01
154 2 1 1.786374e+01 9.895747e+00 -1.908036e+01 -1 -1 1 -1.837473e-01 2.037846e-01 8.027807e-01 -5.293882e-01
155 2 2 1.747577e+01 9.522651e+00 -1.889639e+01 -1 -1 1 -1.096770e-01 3.488493e-01 6.985399e-01 -6.150750e-01
156 2 4 1.711403e+01 9.299538e+00 -1.877758e+01 -1 -1 1 6.063240e-02 5.664931e-01 5.146127e-01 -6.407675e-01
157 2 3 1.657611e+01 9.011119e+00 -1.886166e+01 -1 -1 1 1.989636e-01 7.425093e-01 4.160265e-01 -4.858141e-01
158 2 2 1.611728e+01 8.912727e+00 -1.911570e+01 -1 -1 1 1.875574e-01 8.606024e-01 2.030343e-01 -4.277415e-01
159 2 1 1.580789e+01 9.013075e+00 -1.952572e+01 -1 -1 1 3.039397e-01 8.771414e-01 -1.920318e-01 -3.183825e-01
160 2 3 1.567379e+01 9.023440e+00 1.996485e+01 -1 -1 0 -3.684734e-01 -8.090992e-01 4.287567e-01 1.604793e-01
161 2 1 1.559548e+01 8.756128e+00 1.954209e+01 -1 -1 0 -3.551036e-01 -8.036614e-01 4.774970e-01 5.148755e-03
162 2 1 1.570821e+01 8.492836e+00 1.904005e+01 -1 -1 0 -4.195249e-01 -6.021433e-01 6.578436e-01 -1.693047e-01
163 2 4 1.587658e+01 7.997533e+00 1.879789e+01 -1 -1 0 -2.645602e-01 -4.134280e-01 8.093457e-01 -3.225597e-01
164 2 4 1.597859e+01 7.509285e+00 1.868501e+01 -1 -1 0 -1.277515e-01 -1.107597e-01 9.148513e-01 -3.666865e-01
165 2 3 1.591736e+01 7.018073e+00 1.870169e+01 -1 -1 0 -2.376809e-02 1.189496e-01 8.554071e-01 -5.035521e-01
166 2 3 1.573087e+01 6.537403e+00 1.841587e+01 -1 -1 0 -8.051450e-02 2.567666e-01 8.362017e-01 -4.778651e-01
167 2 4 1.525098e+01 6.222228e+00 1.837419e+01 -1 -1 0 8.905781e-02 6.154737e-01 6.451166e-01 -4.439430e-01
168 2 2 1.484525e+01 6.066701e+00 1.811106e+01 -1 -1 0 2.470882e-01 8.119709e-01 4.351734e-01 -3.004577e-01
169 2 2 1.449312e+01 5.997326e+00 1.766868e+01 -1 -1 0 1.269827e-01 9.432840e-01 2.136756e-01 -2.200760e-01
170 2 1 1.433992e+01 6.110950e+00 1.714381e+01 -1 -1 0 2.380743e-01 9.624101e-01 -1.056104e-01 -7.703165e-02
171 2 1 1.436688e+01 5.800499e+00 1.669097e+01 -1 -1 0 -1.754836e-01 -9.707830e-01 1.189074e-01 -1.124582e-01
172 2 4 1.454426e+01 5.945150e+00 1.631206e+01 -1 -1 0 -1.215759e-01 -7.891882e-01 5.957881e-01 -8.624304e-02
173 2 4 1.476860e+01 5.694916e+00 1.590207e+01 -1 -1 0 -3.540879e-02 -6.176252e-01 7.494459e-01 -2.358306e-01
174 2 1 1.512281e+01 5.292405e+00 1.574593e+01 -1 -1 0 2.317737e-03 -3.805227e-01 8.665309e-01 -3.229879e-01
175 2 1 1.533050e+01 4.793386e+00 1.564484e+01 -1 -1 0 4.820261e-02 -9.018213e-02 9.543314e-01 -2.807051e-01
176 2 2 1.526450e+01 4.300589e+00 1.542993e+01 -1 -1 0 1.525961e-01 2.834533e-01 9.108600e-01 -2.582687e-01
177 2 2 1.506113e+01 3.871632e+00 1.501655e+01 -1 -1 0 9.924740e-02 5.913955e-01 7.957197e-01 -8.503849e-02
178 2 1 1.479478e+01 3.786696e+00 1.453838e+01 -1 -1 0 3.916024e-03 7.628008e-01 6.348222e-01 -1.229650e-01
179 2 4 1.448444e+01 3.921511e+00 1.420938e+01 -1 -1 0 6.323844e-02 9.466655e-01 2.965668e-01 -1.089653e-01
180 2 1 1.430710e+01 3.994154e+00 1.375277e+01 -1 -1 0 -8.065801e-03 9.941377e-01 1.948403e-03 -1.078026e-01
181 2 4 1.427848e+01 4.163560e+00 1.325496e+01 -1 -1 0 -9.859891e-03 -9.933698e-01 1.109536e-01 -2.843520e-02
182 2 2 1.444216e+01 4.477807e+00 1.284582e+01 -1 -1 0 4.395106e-02 -8.931626e-01 4.471567e-01 -1.948656e-02
183 2 3 1.456224e+01 4.364330e+00 1.223022e+01 -1 -1 0 -1.198235e-01 -8.316513e-01 5.223806e-01 -1.453169e-01
184 2 4 1.492735e+01 4.350237e+00 1.188099e+01 -1 -1 0 -1.518425e-02 -5.998069e-01 7.831433e-01 -1.633634e-01
185 2 3 1.524392e+01 4.120144e+00 1.152706e+01 -1 -1 0 -2.990111e-02 -3.961371e-01 9.054354e-01 -1.495596e-01
186 2 1 1.537327e+01 3.774288e+00 1.123287e+01 -1 -1 0 5.731404e-02 -1.448514e-01 9.454874e-01 -2.859840e-01
187 2 1 1.550038e+01 3.311209e+00 1.087985e+01 -1 -1 0 7.420696e-02 9.846120e-02 9.173796e-01 -3.784355e-01
188 2 2 1.544380e+01 2.817049e+00 1.066862e+01 -1 -1 0 9.642816e-02 3.788063e-01 8.571545e-01 -3.354007e-01
189 2 4 1.514239e+01 2.500587e+00 1.033136e+01 -1 -1 0 8.693011e-02 6.111734e-01 7.219711e-01 -3.125189e-01
190 2 4 1.477551e+01 2.338713e+00 9.918921e+00 -1 -1 0 -1.919242e-01 -8.440508e-01 -4.605235e-01 1.966252e-01
191 2 1 1.444419e+01 2.520807e+00 9.423616e+00 -1 -1 0 1.824888e-01 9.621918e-01 1.401436e-01 -1.457548e-01
192 2 4 1.449075e+01 2.720238e+00 8.951099e+00 -1 -1 0 -1.241842e-01 -9.765568e-01 1.593462e-01 7.432297e-02
193 2 4 1.460046e+01 2.883951e+00 8.425985e+00 -1 -1 0 -1.900360e-01 -8.876420e-01 4.179032e-01 -3.653766e-02
194 2 1 1.483032e+01 2.767220e+00 7.946414e+00 -1 -1 0 -2.169344e-01 -6.735236e-01 6.977178e-01 -1.117822e-01
195 2 3 1.500139e+01 2.571859e+00 7.509445e+00 -1 -1 0 -1.692938e-01 -5.087311e-01 8.095622e-01 -2.390424e-01
196 2 4 1.525660e+01 2.171594e+00 7.323845e+00 -1 -1 0 9.498078e-02 2.233408e-01 -9.452701e-01 2.180872e-01
197 2 2 1.525911e+01 1.739257e+00 7.102807e+00 -1 -1 0 1.166579e-03 1.499208e-01 9.446789e-01 -2.917261e-01
198 2 4 1.504447e+01 1.298573e+00 6.899109e+00 -1 -1 0 -4.296229e-02 -4.811387e-01 -8.486118e-01 2.156800e-01
199 2 3 1.466246e+01 1.046875e+00 6.549997e+00 -1 -1 0 -1.555160e-02 6.820641e-01 7.000422e-01 -2.109208e-01
200 2 4 1.423499e+01 1.072074e+00 6.290979e+00 -1 -1 0 -1.250008e-01 -8.720937e-01 -4.127973e-01 2.311399e-01
