ITEM: TIMESTEP
78000000
ITEM: NUMBER OF ATOMS
200
ITEM: BOX BOUNDS pp pp pp
-2.0000000000000000e+01 2.0000000000000000e+01
-2.0000000000000000e+01 2.0000000000000000e+01
-2.0000000000000000e+01 2.0000000000000000e+01
ITEM: ATOMS id mol type x y z ix iy iz c_quat[1] c_quat[2] c_quat[3] c_quat[4]
1 1 1 1.443270e+01 -7.873154e+00 8.570719e+00 -1 -1 0 -3.718083e-01 -1.124673e-01 -4.511216e-01 -8.034917e-01
2 1 2 1.469098e+01 -7.482139e+00 8.498096e+00 -1 -1 0 -4.842664e-02 -3.401898e-01 -4.653781e-01 -8.156893e-01
3 1 1 1.478460e+01 -6.970647e+00 8.492755e+00 -1 -1 0 2.470805e-01 -4.455580e-01 -3.910595e-01 -7.664866e-01
4 1 3 1.468377e+01 -6.468685e+00 8.581389e+00 -1 -1 0 -4.894005e-01 5.486520e-01 2.568914e-01 6.272758e-01
5 1 1 1.474003e+01 -5.983547e+00 8.849899e+00 -1 -1 0 -6.074857e-01 4.606238e-01 2.420374e-01 6.001706e-01
6 1 2 1.479840e+01 -5.644250e+00 9.339248e+00 -1 -1 0 -7.452548e-01 5.235856e-01 -8.838822e-02 4.032875e-01
7 1 4 1.494152e+01 -5.409764e+00 9.786327e+00 -1 -1 0 8.442558e-01 -4.320340e-01 1.958058e-01 -2.494773e-01
8 1 1 1.520565e+01 -5.384933e+00 1.027989e+01 -1 -1 0 9.077972e-01 -2.750729e-01 3.103713e-01 6.252030e-02
9 1 1 1.561273e+01 -5.364323e+00 1.056823e+01 -1 -1 0 7.887189e-01 -2.406814e-01 4.222040e-01 3.764821e-01
10 1 4 1.611697e+01 -5.253048e+00 1.072684e+01 -1 -1 0 -6.794039e-01 5.431220e-02 -5.263169e-01 -5.083808e-01
11 1 1 1.653131e+01 -5.068469e+00 1.080918e+01 -1 -1 0 -4.591984e-01 -1.244115e-01 -6.070287e-01 -6.365334e-01
12 1 1 1.688972e+01 -4.634035e+00 1.086591e+01 -1 -1 0 2.624848e-01 9.026659e-02 6.740972e-01 6.845046e-01
13 1 3 1.701540e+01 -4.091467e+00 1.068907e+01 -1 -1 0 -8.766549e-02 2.133083e-01 5.298468e-01 8.161352e-01
14 1 4 1.699947e+01 -3.565373e+00 1.067678e+01 -1 -1 0 -3.001149e-01 3.445918e-01 3.583763e-01 8.140970e-01
15 1 4 1.682195e+01 -3.054692e+00 1.090667e+01 -1 -1 0 5.723073e-01 -4.076114e-01 -1.806935e-01 -6.882349e-01
16 1 2 1.673301e+01 -2.706367e+00 1.127487e+01 -1 -1 0 7.767302e-01 -3.884197e-01 -3.635710e-02 -4.944680e-01
17 1 1 1.683053e+01 -2.439978e+00 1.180258e+01 -1 -1 0 -8.418521e-01 3.582567e-01 -1.130702e-01 3.874948e-01
18 1 2 1.693763e+01 -2.370706e+00 1.234187e+01 -1 -1 0 -9.066830e-01 2.909399e-01 -2.948687e-01 7.957569e-02
19 1 3 1.724811e+01 -2.499003e+00 1.273057e+01 -1 -1 0 -9.087188e-01 3.762837e-02 -3.542906e-01 -2.174682e-01
20 1 1 1.769031e+01 -2.783467e+00 1.297690e+01 -1 -1 0 -8.360039e-01 -1.846085e-01 -3.967117e-01 -3.311148e-01
21 1 4 1.819222e+01 -2.920667e+00 1.302781e+01 -1 -1 0 6.541523e-01 2.737301e-01 3.288750e-01 6.236969e-01
22 1 1 1.867787e+01 -2.785712e+00 1.306630e+01 -1 -1 0 3.809152e-01 3.344663e-01 3.750128e-01 7.761451e-01
23 1 4 1.910794e+01 -2.488351e+00 1.316335e+01 -1 -1 0 1.285986e-01 3.950319e-01 2.951531e-01 8.604050e-01
24 1 3 1.936649e+01 -2.019154e+00 1.332685e+01 -1 -1 0 -1.325948e-01 4.116422e-01 2.056592e-01 8.778802e-01
25 1 3 1.956092e+01 -1.690772e+00 1.370132e+01 -1 -1 0 -4.221550e-01 3.852567e-01 -2.157545e-02 8.203030e-01
26 1 4 1.969459e+01 -1.394364e+00 1.411749e+01 -1 -1 0 -5.234174e-01 2.437193e-01 -2.709464e-02 8.160276e-01
27 1 4 1.967039e+01 -1.226515e+00 1.462341e+01 -1 -1 0 -7.864398e-01 1.653381e-01 -1.405504e-01 5.782918e-01
28 1 1 1.959171e+01 -1.269602e+00 1.518380e+01 -1 -1 0 -8.796878e-01 2.491005e-02 -1.356594e-01 4.551104e-01
29 1 1 1.955770e+01 -1.564909e+00 1.559158e+01 -1 -1 0 -9.776095e-01 -1.182002e-01 -1.730703e-01 1.884288e-02
30 1 4 1.978037e+01 -1.991027e+00 1.579721e+01 -1 -1 0 9.186077e-01 2.834878e-01 1.278051e-01 2.438451e-01
31 1 4 -1.994921e+01 -2.288283e+00 1.617240e+01 0 -1 0 8.775809e-01 1.435778e-01 1.147562e-01 4.427958e-01
32 1 3 -1.953626e+01 -2.379625e+00 1.647778e+01 0 -1 0 6.785968e-01 2.369641e-01 1.105410e-01 6.863927e-01
33 1 3 -1.913008e+01 -2.355372e+00 1.683820e+01 0 -1 0 4.582769e-01 2.034152e-01 1.610069e-01 8.501067e-01
34 1 1 -1.876743e+01 -2.114275e+00 1.714362e+01 0 -1 0 2.264867e-01 2.619521e-01 1.419462e-01 9.273274e-01
35 1 2 -1.849788e+01 -1.790594e+00 1.740602e+01 0 -1 0 -4.984916e-02 2.581586e-01 2.040481e-01 9.429918e-01
36 1 2 -1.854290e+01 -1.308258e+00 1.764845e+01 0 -1 0 -4.389776e-01 3.675641e-01 9.380499e-02 8.144912e-01
37 1 1 -1.851867e+01 -1.034755e+00 1.809208e+01 0 -1 0 -7.116331e-01 2.381402e-01 8.681338e-02 6.552336e-01
38 1 1 -1.865407e+01 -8.127177e-01 1.871339e+01 0 -1 0 -7.833739e-01 2.034011e-01 -8.601315e-02 5.809949e-01
39 1 4 -1.872709e+01 -9.224013e-01 1.917086e+01 0 -1 0 9.482361e-01 -8.353918e-02 1.103947e-01 -2.858014e-01
40 1 4 -1.865692e+01 -1.250393e+00 1.962997e+01 0 -1 0 9.723032e-01 3.035607e-02 1.977234e-01 1.208740e-01
41 1 2 -1.824622e+01 -1.469877e+00 -2.005477e+01 0 -1 1 8.862494e-01 1.350696e-01 2.540047e-01 3.630426e-01
42 1 4 -1.783742e+01 -1.702330e+00 -1.974915e+01 0 -1 1 7.635152e-01 8.895264e-02 2.042521e-01 6.061461e-01
43 1 3 -1.731611e+01 -1.614905e+00 -1.952552e+01 0 -1 1 4.966774e-01 2.131793e-01 2.238362e-01 8.110262e-01
44 1 2 -1.686869e+01 -1.343538e+00 -1.922561e+01 0 -1 1 3.378269e-01 1.370378e-01 2.071570e-01 9.078434e-01
45 1 1 -1.664009e+01 -8.787200e-01 -1.898006e+01 0 -1 1 -5.121255e-02 2.282356e-01 5.608783e-02 9.706389e-01
46 1 3 -1.660039e+01 -6.082963e-01 -1.844103e+01 0 -1 1 -3.073162e-01 1.788283e-01 -9.067656e-02 9.302446e-01
47 1 4 -1.675994e+01 -4.764236e-01 -1.792622e+01 0 -1 1 -6.398823e-01 7.641419e-02 -9.989225e-02 7.581115e-01
48 1 1 -1.687910e+01 -6.237466e-01 -1.742948e+01 0 -1 1 7.362235e-01 1.763589e-01 6.098146e-02 -6.505027e-01
49 1 4 -1.717585e+01 -8.398550e-01 -1.713039e+01 0 -1 1 9.145256e-01 1.330422e-01 2.513113e-02 -3.811969e-01
50 1 4 -1.729846e+01 -1.302289e+00 -1.680222e+01 0 -1 1 9.874667e-01 1.438126e-01 -2.632617e-02 5.945075e-02
51 1 4 -1.716537e+01 -1.632467e+00 -1.631014e+01 0 -1 1 9.419207e-01 1.195562e-01 1.178983e-01 2.908464e-01
52 1 1 -1.679189e+01 -1.883203e+00 -1.601371e+01 0 -1 1 8.130853e-01 1.763056e-01 9.603913e-02 5.464295e-01
53 1 3 -1.640029e+01 -1.940488e+00 -1.566057e+01 0 -1 1 5.805491e-01 1.506429e-01 8.991933e-02 7.951000e-01
54 1 4 -1.602768e+01 -1.861515e+00 -1.537400e+01 0 -1 1 3.640772e-01 2.269209e-01 9.159548e-02 8.986462e-01
55 1 4 -1.568271e+01 -1.692216e+00 -1.495242e+01 0 -1 1 2.152658e-01 1.523689e-01 1.636151e-01 9.506179e-01
56 1 4 -1.551352e+01 -1.275754e+00 -1.453679e+01 0 -1 1 -1.365976e-01 4.946960e-02 6.729655e-03 9.893678e-01
57 1 1 -1.558531e+01 -1.031806e+00 -1.409180e+01 0 -1 1 -4.668085e-01 4.371098e-02 6.491854e-02 8.808886e-01
58 1 1 -1.590517e+01 -9.640601e-01 -1.361350e+01 0 -1 1 -7.370833e-01 1.428136e-02 -4.551073e-02 6.741165e-01
59 1 3 -1.617110e+01 -1.113928e+00 -1.312605e+01 0 -1 1 8.316194e-01 1.206669e-01 4.825334e-02 -5.399262e-01
60 1 4 -1.641939e+01 -1.469251e+00 -1.287263e+01 0 -1 1 9.515691e-01 2.261425e-01 -7.289763e-02 -1.950942e-01
61 1 2 -1.644904e+01 -1.971391e+00 -1.260592e+01 0 -1 1 9.595523e-01 1.890504e-01 -1.529752e-01 1.418377e-01
62 1 3 -1.637910e+01 -2.355676e+00 -1.214259e+01 0 -1 1 9.160101e-01 1.194983e-01 -8.177352e-03 3.828561e-01
63 1 2 -1.605719e+01 -2.656147e+00 -1.176409e+01 0 -1 1 7.634382e-01 1.173058e-01 1.904713e-02 6.348533e-01
64 1 4 -1.571590e+01 -2.760341e+00 -1.136509e+01 0 -1 1 5.083496e-01 8.955628e-02 -6.401404e-02 8.540858e-01
65 1 2 -1.553428e+01 -2.679102e+00 -1.090965e+01 0 -1 1 2.760215e-01 -2.102929e-04 6.878947e-02 9.586867e-01
66 1 1 -1.548244e+01 -2.362315e+00 -1.054231e+01 0 -1 1 -2.594676e-02 -2.306492e-02 1.491446e-01 9.882058e-01
67 1 2 -1.562735e+01 -2.012911e+00 -1.019378e+01 0 -1 1 -3.258778e-01 -2.229725e-02 1.250881e-01 9.368348e-01
68 1 1 -1.590603e+01 -1.798712e+00 -9.865821e+00 0 -1 1 -6.419811e-01 9.682450e-03 1.160626e-01 7.578232e-01
69 1 1 -1.615895e+01 -1.824002e+00 -9.343296e+00 0 -1 1 -6.488226e-01 -7.444889e-02 2.267967e-02 7.569493e-01
70 1 2 -1.649413e+01 -1.933167e+00 -8.994079e+00 0 -1 1 9.126094e-01 1.993162e-03 -3.584518e-02 -4.072533e-01
71 1 3 -1.661906e+01 -2.128117e+00 -8.507594e+00 0 -1 1 9.746615e-01 9.907227e-02 1.324756e-02 -2.001105e-01
72 1 4 -1.660495e+01 -2.531183e+00 -8.167429e+00 0 -1 1 9.757598e-01 1.176721e-01 2.531102e-02 1.827714e-01
73 1 1 -1.641031e+01 -2.892654e+00 -7.806925e+00 0 -1 1 8.715795e-01 1.225202e-01 2.608229e-02 4.739806e-01
74 1 1 -1.596478e+01 -2.980352e+00 -7.377142e+00 0 -1 1 6.480352e-01 6.238860e-02 1.009501e-01 7.523078e-01
75 1 3 -1.563057e+01 -2.755140e+00 -6.957493e+00 0 -1 1 4.432460e-01 5.640904e-02 1.492993e-01 8.820775e-01
76 1 1 -1.533072e+01 -2.421712e+00 -6.613667e+00 0 -1 1 2.052915e-01 7.249977e-02 2.880163e-01 9.325480e-01
77 1 4 -1.530027e+01 -1.952395e+00 -6.375919e+00 0 -1 1 -1.972325e-01 1.314441e-01 2.776155e-01 9.309948e-01
78 1 1 -1.545868e+01 -1.550501e+00 -6.160074e+00 0 -1 1 -5.260287e-01 1.922254e-01 2.072133e-01 8.021258e-01
79 1 4 -1.564187e+01 -1.297904e+00 -5.686225e+00 0 -1 1 -7.250807e-01 1.411429e-01 1.161184e-01 6.639678e-01
80 1 2 -1.593870e+01 -1.218283e+00 -5.281877e+00 0 -1 1 8.810832e-01 -1.422873e-01 -1.200711e-01 -4.347754e-01
81 1 4 -1.625130e+01 -1.374494e+00 -4.921499e+00 0 -1 1 9.618079e-01 -2.390899e-01 -8.302840e-02 -1.042490e-01
82 1 4 -1.623007e+01 -1.407984e+00 -4.426127e+00 0 -1 1 9.485061e-01 -2.955708e-01 5.148305e-02 1.016045e-01
83 1 4 -1.613182e+01 -1.373139e+00 -3.903999e+00 0 -1 1 8.206091e-01 -2.817588e-01 9.696406e-02 4.876584e-01
84 1 4 -1.682189e+01 -1.440383e+00 -3.172185e+00 0 -1 1 -4.435102e-02 4.893129e-01 -8.443545e-01 2.137085e-01
85 1 1 -1.646339e+01 -2.424509e-01 -3.747042e+00 0 -1 1 -1.799518e-01 -5.512493e-01 -2.595396e-01 -7.722570e-01
86 1 1 -1.608111e+01 1.500865e-01 -3.596347e+00 0 -1 1 1.551221e-01 -5.427438e-01 -1.373637e-01 -8.139395e-01
87 1 3 -1.591554e+01 4.800918e-01 -3.348752e+00 0 -1 1 4.953149e-01 -5.889299e-01 1.405206e-01 -6.229596e-01
88 1 2 -1.570254e+01 6.208741e-01 -2.879690e+00 0 -1 1 -7.542644e-01 4.033275e-01 -3.313464e-01 3.982735e-01
89 1 2 -1.510349e+01 6.592881e-01 -2.651385e+00 0 -1 1 7.857734e-01 -2.757307e-01 3.778403e-01 -4.046844e-01
90 1 3 -1.470050e+01 6.087139e-01 -2.193625e+00 0 -1 1 -8.477679e-01 1.297651e-01 -4.712088e-01 2.059438e-01
91 1 3 -1.478385e+01 1.572795e+00 -1.771382e+00 0 -1 1 -3.921698e-01 5.320053e-01 -4.045996e-01 6.320383e-01
92 1 2 -1.455009e+01 1.741995e+00 -1.869513e+00 0 -1 1 -7.750868e-01 -3.948119e-01 1.455602e-01 4.713557e-01
93 1 1 -1.477316e+01 2.785172e+00 -1.737209e+00 0 -1 1 3.317060e-01 2.842300e-01 -2.660447e-01 -8.593047e-01
94 1 2 -1.525783e+01 2.936116e+00 -1.626070e+00 0 -1 1 6.434460e-01 1.669303e-01 -3.388296e-01 -6.658123e-01
95 1 3 -1.568461e+01 3.250764e+00 -2.264645e+00 0 -1 1 2.427639e-01 1.549959e-01 5.084827e-01 8.114723e-01
96 1 2 -1.533824e+01 3.148561e+00 -3.105354e+00 0 -1 1 -2.700426e-01 -9.204955e-01 1.035899e-01 2.627434e-01
97 1 2 -1.559151e+01 3.135777e+00 -3.657916e+00 0 -1 1 -6.702318e-01 -3.479014e-01 2.319194e-02 6.551459e-01
98 1 4 -1.592913e+01 2.884856e+00 -3.593058e+00 0 -1 1 -8.833939e-01 -2.919258e-01 2.805512e-01 2.359780e-01
99 1 2 -1.683583e+01 3.684036e+00 -3.654638e+00 0 -1 1 2.524813e-01 7.889676e-01 3.564283e-01 4.321368e-01
100 1 1 -1.775152e+01 2.917958e+00 -2.972584e+00 0 -1 1 3.410143e-02 -2.390820e-01 5.704029e-01 -7.850589e-01
101 2 4 -8.194929e+00 3.750029e+00 -5.190340e+00 0 -1 1 -1.701531e-01 4.485914e-01 -4.072908e-01 -7.771279e-01
102 2 3 -8.294659e+00 4.230845e+00 -5.338450e+00 0 -1 1 8.696408e-02 2.871034e-01 -5.997982e-01 -7.417891e-01
103 2 1 -8.512854e+00 4.494358e+00 -5.635855e+00 0 -1 1 -3.802596e-01 1.496567e-01 6.569220e-01 6.336079e-01
104 2 3 -8.909061e+00 4.724905e+00 -5.749401e+00 0 -1 1 -5.690090e-01 4.136904e-01 6.083646e-01 3.673983e-01
105 2 3 -9.087938e+00 4.334960e+00 -6.556491e+00 0 -1 1 -1.124896e-01 -3.317314e-01 2.211112e-01 9.101704e-01
106 2 2 -9.790244e+00 4.511635e+00 -5.910257e+00 0 -1 1 3.550407e-01 -3.174158e-01 -8.735889e-01 1.001784e-01
107 2 3 -1.027788e+01 4.397674e+00 -6.019190e+00 0 -1 1 -2.294399e-01 6.577727e-01 6.898191e-01 -1.970839e-01
108 2 4 -1.058503e+01 3.820614e+00 -6.201598e+00 0 -1 1 -1.727382e-01 -5.950142e-01 -1.037097e-01 -7.780514e-01
109 2 3 -1.134539e+01 3.109312e+00 -6.964163e+00 0 -1 1 1.108702e-01 -2.414569e-01 9.174695e-01 2.960677e-01
110 2 2 -1.176176e+01 3.143743e+00 -6.885438e+00 0 -1 1 -7.374633e-01 -3.370076e-01 5.849991e-01 1.870500e-02
111 2 2 -1.206212e+01 2.646048e+00 -6.865368e+00 0 -1 1 -7.535608e-01 -3.632479e-02 5.872176e-01 -2.932612e-01
112 2 3 -1.225115e+01 2.303344e+00 -6.524751e+00 0 -1 1 5.581198e-01 -1.764039e-01 -5.063154e-01 6.332683e-01
113 2 3 -1.290331e+01 1.356561e+00 -7.481476e+00 0 -1 1 -5.195898e-01 -5.113908e-01 -3.512879e-01 5.874545e-01
114 2 2 -1.325547e+01 9.455503e-01 -7.579551e+00 0 -1 1 7.238709e-01 5.516389e-01 2.125952e-01 -3.556807e-01
115 2 4 -1.432496e+01 6.923750e-01 -7.049375e+00 0 -1 1 4.750086e-01 2.254865e-01 -5.039581e-01 -6.852364e-01
116 2 4 -1.434789e+01 1.396685e-01 -6.578991e+00 0 -1 1 1.836481e-01 -2.347815e-01 -8.263655e-01 -4.777772e-01
117 2 1 -1.395360e+01 -3.079318e-01 -5.482857e+00 0 -1 1 -2.792584e-01 -3.558281e-01 6.798739e-01 -5.772110e-01
118 2 1 -1.439575e+01 -8.515217e-01 -4.910328e+00 0 -1 1 3.188430e-01 2.296506e-01 -8.728188e-01 2.894598e-01
119 2 1 -1.512178e+01 -1.169649e+00 -4.544649e+00 0 -1 1 1.072880e-01 2.424902e-01 -9.057103e-01 3.307215e-01
120 2 1 -1.512357e+01 -1.675100e+00 -4.712021e+00 0 -1 1 -1.862345e-03 -1.669739e-01 -9.458317e-01 2.784218e-01
121 2 3 -1.534606e+01 -2.124404e+00 -4.855033e+00 0 -1 1 9.100013e-02 4.267373e-01 8.572065e-01 -2.735165e-01
122 2 1 -1.563269e+01 -2.357968e+00 -5.145067e+00 0 -1 1 7.336153e-02 7.123843e-01 6.280009e-01 -3.045349e-01
123 2 4 -1.610489e+01 -2.413148e+00 -5.611433e+00 0 -1 1 1.025691e-01 8.733855e-01 4.252092e-01 -2.141834e-01
124 2 1 -1.641367e+01 -2.272331e+00 -5.969245e+00 0 -1 1 -2.045479e-02 9.725685e-01 1.724774e-01 -1.547376e-01
125 2 4 -1.655682e+01 -2.066570e+00 -6.444607e+00 0 -1 1 7.499989e-02 9.894633e-01 -9.517706e-02 -7.923860e-02
126 2 2 -1.649274e+01 -1.906044e+00 -6.945277e+00 0 -1 1 4.458079e-02 9.227447e-01 -3.827926e-01 4.963403e-03
127 2 4 -1.616110e+01 -1.710244e+00 -7.395059e+00 0 -1 1 1.298267e-02 7.809134e-01 -6.238305e-01 2.900336e-02
128 2 4 -1.576521e+01 -1.891027e+00 -7.787598e+00 0 -1 1 -2.994155e-02 5.339586e-01 -8.387924e-01 1.020734e-01
129 2 1 -1.548970e+01 -2.141924e+00 -8.066139e+00 0 -1 1 -1.136239e-01 1.637187e-01 -9.704369e-01 1.361547e-01
130 2 2 -1.544992e+01 -2.484860e+00 -8.574670e+00 0 -1 1 5.665840e-02 -1.093172e-01 -9.881616e-01 9.152137e-02
131 2 3 -1.566006e+01 -2.839931e+00 -8.892290e+00 0 -1 1 5.798551e-03 -4.573880e-01 -8.835417e-01 1.005814e-01
132 2 4 -1.595789e+01 -2.924407e+00 -9.382339e+00 0 -1 1 -6.986016e-02 5.629083e-01 8.109936e-01 -1.433287e-01
133 2 4 -1.628697e+01 -2.906407e+00 -9.725572e+00 0 -1 1 -1.352069e-02 8.675547e-01 4.944193e-01 -5.211073e-02
134 2 3 -1.658916e+01 -2.669090e+00 -1.005196e+01 0 -1 1 -5.847081e-02 9.768200e-01 1.823948e-01 -9.558269e-02
135 2 4 -1.667917e+01 -2.331784e+00 -1.047902e+01 0 -1 1 6.283740e-02 -9.831815e-01 1.528476e-01 7.773843e-02
136 2 3 -1.657678e+01 -1.948735e+00 -1.088533e+01 0 -1 1 1.442849e-01 -9.228001e-01 3.567008e-01 -1.965594e-02
137 2 1 -1.621348e+01 -1.654713e+00 -1.118863e+01 0 -1 1 -2.437852e-01 8.090426e-01 -5.347570e-01 7.334814e-03
138 2 3 -1.586400e+01 -1.490064e+00 -1.151919e+01 0 -1 1 -1.931319e-01 6.436170e-01 -7.405671e-01 4.185408e-03
139 2 2 -1.551967e+01 -1.556596e+00 -1.188976e+01 0 -1 1 -1.273160e-01 3.343107e-01 -9.337864e-01 -8.360706e-03
140 2 3 -1.529873e+01 -1.769584e+00 -1.226685e+01 0 -1 1 -1.144907e-01 5.440081e-02 -9.918568e-01 -1.234962e-02
141 2 1 -1.530478e+01 -1.993443e+00 -1.282385e+01 0 -1 1 -1.239463e-02 -2.183442e-01 -9.757807e-01 4.917327e-03
142 2 2 -1.549094e+01 -2.104655e+00 -1.332294e+01 0 -1 1 8.614846e-02 -4.237839e-01 -9.007816e-01 -3.972540e-02
143 2 4 -1.587021e+01 -2.164895e+00 -1.362545e+01 0 -1 1 -9.134959e-02 7.275387e-01 6.744952e-01 -8.601757e-02
144 2 4 -1.630148e+01 -1.967278e+00 -1.394751e+01 0 -1 1 1.947583e-01 -8.669323e-01 -4.339689e-01 1.488911e-01
145 2 1 -1.656984e+01 -1.673833e+00 -1.428626e+01 0 -1 1 1.592290e-01 -9.597938e-01 -1.398015e-01 1.841131e-01
146 2 1 -1.670108e+01 -1.214186e+00 -1.455215e+01 0 -1 1 4.889943e-02 -9.539776e-01 1.872894e-01 2.290376e-01
147 2 1 -1.672465e+01 -9.748497e-01 -1.500412e+01 0 -1 1 7.666365e-02 -8.874176e-01 4.351094e-01 1.315008e-01
148 2 2 -1.664083e+01 -7.549470e-01 -1.545310e+01 0 -1 1 5.640919e-02 -7.583424e-01 6.458372e-01 6.803748e-02
149 2 4 -1.644713e+01 -7.579483e-01 -1.595324e+01 0 -1 1 -1.285689e-02 5.843237e-01 -8.114186e-01 -6.615090e-04
150 2 1 -1.621867e+01 -9.246342e-01 -1.645444e+01 0 -1 1 1.827647e-02 3.388867e-01 -9.378257e-01 7.283316e-02
151 2 1 -1.606741e+01 -1.310721e+00 -1.680499e+01 0 -1 1 9.261186e-03 -2.917573e-02 -9.945926e-01 9.924013e-02
152 2 1 -1.629451e+01 -1.635772e+00 -1.730148e+01 0 -1 1 1.024110e-01 -3.939761e-01 -9.132760e-01 1.488913e-02
153 2 4 -1.658189e+01 -1.711431e+00 -1.765049e+01 0 -1 1 1.772199e-01 -5.862181e-01 -7.768673e-01 1.463512e-01
154 2 1 -1.703022e+01 -1.585472e+00 -1.785616e+01 0 -1 1 1.971171e-01 -7.768460e-01 -5.510557e-01 2.323635e-01
155 2 2 -1.742734e+01 -1.335847e+00 -1.814662e+01 0 -1 1 1.495977e-01 -9.061896e-01 -3.086210e-01 2.473744e-01
156 2 4 -1.769495e+01 -1.001018e+00 -1.847802e+01 0 -1 1 -1.064473e-02 -9.734376e-01 -2.637945e-02 2.271784e-01
157 2 3 -1.780350e+01 -6.574282e-01 -1.895261e+01 0 -1 1 -1.394198e-01 -9.428288e-01 2.358031e-01 1.898231e-01
158 2 2 -1.784504e+01 -5.569737e-01 -1.947613e+01 0 -1 1 -1.574978e-01 -8.481087e-01 4.929164e-01 1.137522e-01
159 2 1 -1.778585e+01 -5.499550e-01 -2.001300e+01 0 -1 1 -1.993046e-01 -6.822420e-01 7.031956e-01 -1.842540e-02
160 2 3 -1.754195e+01 -6.668417e-01 1.957016e+01 0 -1 0 1.709365e-01 3.746830e-01 -9.078257e-01 7.903027e-02
161 2 1 -1.756846e+01 -1.115568e+00 1.924133e+01 0 -1 0 1.629051e-01 -2.174124e-02 -9.753810e-01 1.470414e-01
162 2 1 -1.775105e+01 -1.524876e+00 1.896614e+01 0 -1 0 2.132064e-01 -1.856517e-01 -9.199991e-01 2.714371e-01
163 2 4 -1.813685e+01 -1.899729e+00 1.885027e+01 0 -1 0 1.319524e-01 -5.337890e-01 -7.504007e-01 3.668196e-01
164 2 4 -1.862831e+01 -1.992500e+00 1.874504e+01 0 -1 0 2.164337e-02 -7.796368e-01 -4.690638e-01 4.143394e-01
165 2 3 -1.915418e+01 -1.989334e+00 1.841863e+01 0 -1 0 -3.625561e-02 -9.153615e-01 -2.503922e-01 3.132132e-01
166 2 3 -1.945549e+01 -1.746484e+00 1.808798e+01 0 -1 0 -2.659935e-02 -9.402507e-01 2.418154e-02 3.385799e-01
167 2 4 -1.966594e+01 -1.488103e+00 1.763587e+01 0 -1 0 -3.066018e-02 -9.220301e-01 2.905885e-01 2.539266e-01
168 2 2 -1.971528e+01 -1.370558e+00 1.705632e+01 0 -1 0 -3.808895e-02 -8.797382e-01 4.594734e-01 1.161639e-01
169 2 2 -1.959044e+01 -1.216470e+00 1.661421e+01 0 -1 0 2.149660e-02 -7.532806e-01 6.566773e-01 2.968407e-02
170 2 1 -1.933023e+01 -1.245624e+00 1.608060e+01 0 -1 0 5.276652e-04 -5.608139e-01 8.277018e-01 -1.992961e-02
171 2 1 -1.918189e+01 -1.415394e+00 1.563559e+01 0 -1 0 1.215897e-01 1.582929e-01 -9.777428e-01 -6.464059e-02
172 2 4 -1.931738e+01 -1.667502e+00 1.514624e+01 0 -1 0 1.959292e-01 -5.502445e-02 -9.719585e-01 1.178166e-01
173 2 4 -1.954251e+01 -2.082620e+00 1.501018e+01 0 -1 0 1.563290e-01 -2.862008e-01 -8.953003e-01 3.034594e-01
174 2 1 -1.995142e+01 -2.365998e+00 1.472001e+01 0 -1 0 1.103274e-01 -5.762720e-01 -7.652314e-01 2.648760e-01
175 2 1 1.954090e+01 -2.460056e+00 1.461363e+01 -1 -1 0 1.463642e-01 -6.738076e-01 -6.097173e-01 3.909036e-01
176 2 2 1.906750e+01 -2.469655e+00 1.444563e+01 -1 -1 0 1.038002e-01 -8.419582e-01 -3.486448e-01 3.984706e-01
177 2 2 1.866124e+01 -2.306668e+00 1.422621e+01 -1 -1 0 7.655481e-02 -9.047470e-01 -1.262289e-01 3.995479e-01
178 2 1 1.831270e+01 -2.018147e+00 1.391350e+01 -1 -1 0 -1.398003e-01 -9.004150e-01 1.698811e-01 3.752988e-01
179 2 4 1.813944e+01 -1.788578e+00 1.347186e+01 -1 -1 0 -3.266323e-02 -8.629580e-01 4.195712e-01 2.796366e-01
180 2 1 1.823929e+01 -1.725035e+00 1.289412e+01 -1 -1 0 -2.430664e-01 -6.675415e-01 6.658358e-01 2.279687e-01
181 2 4 1.824007e+01 -1.889135e+00 1.234853e+01 -1 -1 0 2.912129e-01 4.102545e-01 -8.642247e-01 1.379681e-03
182 2 2 1.805616e+01 -2.209813e+00 1.191639e+01 -1 -1 0 3.755421e-01 1.200935e-01 -9.039902e-01 1.653707e-01
183 2 3 1.788697e+01 -2.724576e+00 1.179556e+01 -1 -1 0 2.414205e-01 -4.739601e-02 -9.027527e-01 3.528560e-01
184 2 4 1.763378e+01 -3.235714e+00 1.181410e+01 -1 -1 0 2.009540e-01 -2.490042e-01 -8.238652e-01 4.678253e-01
185 2 3 1.729602e+01 -3.582824e+00 1.185977e+01 -1 -1 0 1.056946e-02 -5.195218e-01 -6.954551e-01 4.963140e-01
186 2 1 1.679767e+01 -3.809656e+00 1.187087e+01 -1 -1 0 -7.258683e-02 -6.866182e-01 -5.434491e-01 4.774408e-01
187 2 1 1.631613e+01 -3.823780e+00 1.161834e+01 -1 -1 0 -2.958605e-01 -8.620360e-01 -2.108036e-01 3.534436e-01
188 2 2 1.597392e+01 -4.011689e+00 1.126982e+01 -1 -1 0 -3.389428e-01 -9.122883e-01 -7.090932e-02 2.186772e-01
189 2 4 1.589474e+01 -4.017290e+00 1.073834e+01 -1 -1 0 -4.070535e-01 -8.738937e-01 2.471788e-01 9.756968e-02
190 2 4 1.595549e+01 -4.194987e+00 1.021023e+01 -1 -1 0 4.721754e-01 7.003695e-01 -5.342338e-01 3.357227e-02
191 2 1 1.598889e+01 -4.533933e+00 9.821729e+00 -1 -1 0 -4.157040e-01 -6.077395e-01 6.432160e-01 -2.100381e-01
192 2 4 1.607220e+01 -4.985504e+00 9.518009e+00 -1 -1 0 4.452374e-01 3.609938e-01 -7.625568e-01 2.999237e-01
193 2 4 1.603465e+01 -5.521917e+00 9.497486e+00 -1 -1 0 3.943785e-01 1.118695e-01 -8.054864e-01 4.279515e-01
194 2 1 1.591046e+01 -6.045913e+00 9.648813e+00 -1 -1 0 1.797411e-01 -1.855813e-01 -8.170673e-01 5.154160e-01
195 2 3 1.554685e+01 -6.476834e+00 9.671777e+00 -1 -1 0 1.082069e-01 -4.447326e-01 -7.073595e-01 5.386527e-01
196 2 4 1.504141e+01 -6.719109e+00 9.773929e+00 -1 -1 0 1.782934e-02 6.066766e-01 5.500485e-01 -5.736482e-01
197 2 2 1.455317e+01 -6.756644e+00 9.799779e+00 -1 -1 0 -2.114377e-01 -7.540171e-01 -2.326327e-01 5.767447e-01
198 2 4 1.417551e+01 -6.937977e+00 9.521132e+00 -1 -1 0 -2.222676e-01 -8.460255e-01 -1.025551e-01 4.736248e-01
199 2 3 1.380576e+01 -7.052897e+00 9.144266e+00 -1 -1 0 2.437612e-01 8.936192e-01 -4.968740e-02 -3.735725e-01
200 2 4 1.368918e+01 -6.951991e+00 8.613730e+00 -1 -1 0 -2.701140e-01 -8.105797e-01 4.669174e-01 2.280067e-01
