ITEM: TIMESTEP
75000000
ITEM: NUMBER OF ATOMS
200
ITEM: BOX BOUNDS pp pp pp
-2.0000000000000000e+01 2.0000000000000000e+01
-2.0000000000000000e+01 2.0000000000000000e+01
-2.0000000000000000e+01 2.0000000000000000e+01
ITEM: ATOMS id mol type x y z ix iy iz c_quat[1] c_quat[2] c_quat[3] c_quat[4]
1 1 1 -2.010627e+01 -9.154246e-01 4.025414e+00 0 -1 0 9.226177e-01 1.447095e-01 -5.478971e-02 3.533182e-01
2 1 2 -1.984135e+01 -1.135312e+00 4.459258e+00 0 -1 0 7.023392e-01 2.449274e-01 -1.564846e-01 6.498021e-01
3 1 1 -1.952157e+01 -1.369944e+00 4.856995e+00 0 -1 0 -4.561958e-01 -6.384165e-02 2.325708e-01 -8.565748e-01
4 1 3 -1.944993e+01 -1.476546e+00 5.341603e+00 0 -1 0 3.063798e-01 -1.446292e-02 -1.051356e-01 9.459750e-01
5 1 1 -1.942208e+01 -1.326060e+00 5.910193e+00 0 -1 0 -4.611950e-02 -1.059817e-01 -2.226987e-01 9.680115e-01
6 1 2 -1.966495e+01 -1.179527e+00 6.355492e+00 0 -1 0 -3.696894e-01 -1.510746e-01 -3.635634e-02 9.160701e-01
7 1 4 1.989731e+01 -1.159272e+00 6.769351e+00 -1 -1 0 6.071126e-01 2.137345e-01 3.017648e-02 -7.647361e-01
8 1 1 1.950327e+01 -1.267369e+00 7.110642e+00 -1 -1 0 7.516191e-01 3.256443e-01 -9.014259e-02 -5.664794e-01
9 1 1 1.915403e+01 -1.592550e+00 7.313059e+00 -1 -1 0 9.096159e-01 2.771136e-01 -1.199719e-01 -2.853308e-01
10 1 4 1.886255e+01 -2.034367e+00 7.506570e+00 -1 -1 0 -9.487554e-01 -2.658077e-01 1.625590e-01 5.276379e-02
11 1 1 1.876509e+01 -2.480306e+00 7.856822e+00 -1 -1 0 -9.488774e-01 -1.216169e-01 1.419385e-01 -2.543509e-01
12 1 1 1.884644e+01 -2.813897e+00 8.217324e+00 -1 -1 0 8.580222e-01 6.420968e-02 -1.331604e-01 4.918773e-01
13 1 3 1.898458e+01 -2.956559e+00 8.769234e+00 -1 -1 0 7.240575e-01 7.177013e-02 -9.830756e-03 6.859250e-01
14 1 4 1.932187e+01 -2.959058e+00 9.236012e+00 -1 -1 0 4.781895e-01 3.969699e-02 5.210135e-02 8.758107e-01
15 1 4 1.967907e+01 -2.682707e+00 9.589631e+00 -1 -1 0 -2.043789e-01 -9.567140e-02 1.842222e-02 -9.740312e-01
16 1 2 1.978687e+01 -2.354494e+00 1.010206e+01 -1 -1 0 8.588119e-02 -9.117739e-03 5.304577e-02 -9.948505e-01
17 1 1 1.965025e+01 -2.096035e+00 1.045963e+01 -1 -1 0 -4.354994e-01 -8.809644e-03 1.134883e-01 8.929631e-01
18 1 2 1.938824e+01 -1.912765e+00 1.089548e+01 -1 -1 0 -5.644376e-01 -1.366681e-01 1.343401e-01 8.029226e-01
19 1 3 1.901550e+01 -1.973394e+00 1.130404e+01 -1 -1 0 -7.829630e-01 -1.914982e-01 1.037713e-01 5.826911e-01
20 1 1 1.858954e+01 -2.198126e+00 1.155319e+01 -1 -1 0 -9.529214e-01 -7.447834e-02 1.030802e-01 2.752603e-01
21 1 4 1.846624e+01 -2.589276e+00 1.191144e+01 -1 -1 0 9.881785e-01 1.310163e-01 -6.622451e-02 -4.418478e-02
22 1 1 1.845095e+01 -2.968419e+00 1.227588e+01 -1 -1 0 9.422823e-01 1.256805e-02 -1.028715e-01 3.183766e-01
23 1 4 1.866795e+01 -3.254218e+00 1.258814e+01 -1 -1 0 7.308954e-01 3.200080e-02 -1.536212e-01 6.642051e-01
24 1 3 1.878839e+01 -3.374862e+00 1.304485e+01 -1 -1 0 5.807817e-01 -4.402217e-02 -1.190300e-01 8.041061e-01
25 1 3 1.893519e+01 -3.293863e+00 1.349966e+01 -1 -1 0 3.782151e-01 -8.115415e-03 8.119778e-02 9.221141e-01
26 1 4 1.913041e+01 -3.006475e+00 1.388955e+01 -1 -1 0 9.956178e-02 -4.508015e-02 1.680904e-01 9.796943e-01
27 1 4 1.908918e+01 -2.551729e+00 1.416392e+01 -1 -1 0 -2.872615e-01 -1.141616e-02 1.820949e-01 9.403148e-01
28 1 1 1.879654e+01 -2.307516e+00 1.456616e+01 -1 -1 0 -5.716732e-01 -3.381113e-02 1.124482e-01 8.120357e-01
29 1 1 1.841577e+01 -2.308412e+00 1.491098e+01 -1 -1 0 -7.934984e-01 -5.707915e-02 1.117205e-01 5.955005e-01
30 1 4 1.810778e+01 -2.393090e+00 1.540168e+01 -1 -1 0 9.203521e-01 7.946469e-02 -3.202209e-02 -3.815913e-01
31 1 4 1.804431e+01 -2.741844e+00 1.585940e+01 -1 -1 0 9.981743e-01 4.691723e-02 3.803666e-02 -1.587782e-04
32 1 3 1.815115e+01 -2.940178e+00 1.634186e+01 -1 -1 0 9.776295e-01 3.370654e-03 8.631735e-02 1.917773e-01
33 1 3 1.831187e+01 -3.159403e+00 1.674859e+01 -1 -1 0 9.016134e-01 3.917404e-02 9.059907e-02 4.211301e-01
34 1 1 1.852760e+01 -3.246067e+00 1.725335e+01 -1 -1 0 8.096187e-01 3.299396e-02 2.204387e-01 5.429878e-01
35 1 2 1.895559e+01 -3.143690e+00 1.756561e+01 -1 -1 0 5.428438e-01 9.367658e-02 2.184861e-01 8.054869e-01
36 1 2 1.935427e+01 -2.998666e+00 1.787280e+01 -1 -1 0 2.660134e-01 1.781499e-01 3.369871e-01 8.854034e-01
37 1 1 1.964712e+01 -2.508623e+00 1.794862e+01 -1 -1 0 4.837922e-02 1.742983e-01 3.467713e-01 9.203419e-01
38 1 1 1.955340e+01 -1.962407e+00 1.808039e+01 -1 -1 0 -3.122305e-01 3.006550e-01 1.817150e-01 8.826654e-01
39 1 4 1.948331e+01 -1.595493e+00 1.848617e+01 -1 -1 0 5.791191e-01 -3.471093e-01 -6.296027e-02 -7.349641e-01
40 1 4 1.948379e+01 -1.335923e+00 1.895139e+01 -1 -1 0 7.211166e-01 -2.682731e-01 6.440107e-02 -6.355100e-01
41 1 2 1.937202e+01 -1.344781e+00 1.946131e+01 -1 -1 0 8.855665e-01 -1.402939e-01 7.829537e-02 -4.358433e-01
42 1 4 1.935850e+01 -1.572537e+00 -2.004395e+01 -1 -1 1 9.841586e-01 -7.865691e-02 1.458969e-01 -6.292013e-02
43 1 3 1.948474e+01 -1.759111e+00 -1.950838e+01 -1 -1 1 9.627232e-01 1.663524e-02 2.480600e-01 1.065532e-01
44 1 2 1.984255e+01 -2.152482e+00 -1.930651e+01 -1 -1 1 8.809899e-01 9.645973e-02 1.299163e-01 4.446055e-01
45 1 1 -1.966380e+01 -2.170251e+00 -1.900356e+01 0 -1 1 6.545330e-01 1.237320e-01 1.276026e-01 7.348432e-01
46 1 3 -1.928530e+01 -2.098273e+00 -1.859249e+01 0 -1 1 4.724058e-01 1.309848e-01 2.614574e-01 8.314540e-01
47 1 4 -1.894488e+01 -1.724647e+00 -1.835616e+01 0 -1 1 1.380901e-01 1.234241e-01 1.242602e-01 9.748113e-01
48 1 1 -1.876248e+01 -1.342236e+00 -1.801858e+01 0 -1 1 1.229235e-01 -1.527458e-01 -1.776538e-01 -9.643639e-01
49 1 4 -1.879671e+01 -9.570983e-01 -1.772459e+01 0 -1 1 4.141349e-01 -1.809569e-01 -1.457008e-01 -8.800671e-01
50 1 4 -1.903050e+01 -7.157849e-01 -1.730532e+01 0 -1 1 7.178722e-01 -1.374743e-01 -7.658380e-02 -6.781558e-01
51 1 4 -1.918210e+01 -6.551800e-01 -1.674201e+01 0 -1 1 8.625699e-01 -2.398135e-02 -2.541464e-02 -5.047297e-01
52 1 1 -1.936614e+01 -8.601774e-01 -1.627875e+01 0 -1 1 9.753766e-01 -3.222207e-02 6.278776e-02 -2.089496e-01
53 1 3 -1.928917e+01 -9.509108e-01 -1.564559e+01 0 -1 1 9.709036e-01 -2.032663e-02 2.101780e-01 -1.129521e-01
54 1 4 -1.904408e+01 -1.242406e+00 -1.526525e+01 0 -1 1 9.408351e-01 5.294818e-03 2.208505e-01 2.569559e-01
55 1 4 -1.866736e+01 -1.457639e+00 -1.488915e+01 0 -1 1 7.996797e-01 1.501092e-01 2.378399e-01 5.304827e-01
56 1 4 -1.817198e+01 -1.427634e+00 -1.463287e+01 0 -1 1 5.890815e-01 1.735581e-01 2.312857e-01 7.545644e-01
57 1 1 -1.766112e+01 -1.321789e+00 -1.451633e+01 0 -1 1 3.437952e-01 2.934948e-01 2.038413e-01 8.683976e-01
58 1 1 -1.725767e+01 -1.177069e+00 -1.414599e+01 0 -1 1 1.555650e-01 2.015798e-01 2.137590e-01 9.431184e-01
59 1 3 -1.714311e+01 -8.009693e-01 -1.383873e+01 0 -1 1 2.429091e-01 -1.944291e-01 -1.758702e-01 -9.339498e-01
60 1 4 -1.714950e+01 -4.639885e-01 -1.334164e+01 0 -1 1 4.114597e-01 -2.554225e-02 -1.740008e-01 -8.942999e-01
61 1 2 -1.743012e+01 -3.174576e-01 -1.281153e+01 0 -1 1 6.274310e-01 6.621326e-02 -1.334082e-01 -7.642960e-01
62 1 3 -1.784916e+01 -3.821751e-01 -1.242089e+01 0 -1 1 8.988798e-01 -2.422879e-02 -1.050086e-01 -4.247368e-01
63 1 2 -1.801319e+01 -5.156174e-01 -1.191534e+01 0 -1 1 9.820673e-01 5.630629e-02 -7.192734e-02 -1.649236e-01
64 1 4 -1.802865e+01 -6.873385e-01 -1.131677e+01 0 -1 1 9.929973e-01 -5.651687e-02 8.412028e-02 6.071245e-02
65 1 2 -1.789208e+01 -9.009314e-01 -1.083823e+01 0 -1 1 9.456758e-01 -2.162738e-02 1.821127e-01 2.684483e-01
66 1 1 -1.749606e+01 -1.049465e+00 -1.058338e+01 0 -1 1 7.579576e-01 1.233781e-01 1.199593e-01 6.291962e-01
67 1 2 -1.710765e+01 -9.979650e-01 -1.032782e+01 0 -1 1 5.359504e-01 1.420461e-01 1.505805e-01 8.184776e-01
68 1 1 -1.671503e+01 -8.289235e-01 -9.976484e+00 0 -1 1 3.856937e-01 1.018988e-01 1.826964e-01 8.985983e-01
69 1 1 -1.646600e+01 -4.011752e-01 -9.708451e+00 0 -1 1 1.287479e-01 1.458640e-01 2.058400e-01 9.590503e-01
70 1 2 -1.638275e+01 3.706294e-02 -9.494078e+00 0 -1 1 1.703307e-01 -2.547325e-01 -2.135468e-01 -9.276295e-01
71 1 3 -1.646189e+01 4.720326e-01 -9.228920e+00 0 -1 1 5.352891e-01 -2.839460e-01 -2.230944e-01 -7.635896e-01
72 1 4 -1.674723e+01 8.124893e-01 -8.949573e+00 0 -1 1 7.501259e-01 -2.617199e-01 -2.161120e-01 -5.675469e-01
73 1 1 -1.705649e+01 1.001027e+00 -8.582855e+00 0 -1 1 8.851293e-01 -2.514364e-01 -1.676737e-01 -3.538522e-01
74 1 1 -1.719382e+01 1.013712e+00 -8.116098e+00 0 -1 1 9.671844e-01 -2.360487e-01 -1.240981e-02 -9.317379e-02
75 1 3 -1.711114e+01 9.625091e-01 -7.605198e+00 0 -1 1 9.499623e-01 -2.096472e-01 1.030857e-01 2.073475e-01
76 1 1 -1.684200e+01 9.969808e-01 -7.067508e+00 0 -1 1 8.116469e-01 -2.793377e-01 2.051420e-01 4.702303e-01
77 1 4 -1.654613e+01 1.179474e+00 -6.745105e+00 0 -1 1 7.381195e-01 -4.360385e-03 3.404968e-01 5.824281e-01
78 1 1 -1.609735e+01 1.360961e+00 -6.480469e+00 0 -1 1 5.128941e-01 1.687285e-02 3.591341e-01 7.795369e-01
79 1 4 -1.567653e+01 1.696615e+00 -6.412372e+00 0 -1 1 2.763846e-01 1.276849e-01 4.362808e-01 8.467391e-01
80 1 2 -1.540348e+01 2.098085e+00 -6.356516e+00 0 -1 1 9.193111e-04 -2.446356e-01 -4.667842e-01 -8.498618e-01
81 1 4 -1.528338e+01 2.669819e+00 -6.419006e+00 0 -1 1 2.304944e-01 -3.067627e-01 -4.067331e-01 -8.290580e-01
82 1 4 -1.537589e+01 3.135266e+00 -6.326962e+00 0 -1 1 4.858570e-01 -3.469436e-01 -3.629981e-01 -7.154058e-01
83 1 4 -1.559871e+01 3.585319e+00 -6.119339e+00 0 -1 1 6.433687e-01 -4.847378e-01 -1.837076e-01 -5.633449e-01
84 1 4 -1.575337e+01 3.873442e+00 -5.695885e+00 0 -1 1 8.852443e-01 -3.897971e-01 -4.381734e-02 -2.499616e-01
85 1 1 -1.674722e+01 4.449985e+00 -6.086301e+00 0 -1 1 6.497040e-01 4.366358e-01 4.576151e-01 -4.216899e-01
86 1 1 -1.738208e+01 5.217742e+00 -6.162579e+00 0 -1 1 -5.823048e-02 -7.718849e-01 -6.323468e-01 3.066572e-02
87 1 3 -1.803128e+01 5.033109e+00 -6.540026e+00 0 -1 1 -5.760529e-02 -7.435010e-01 -6.438549e-01 1.712858e-01
88 1 2 -1.747544e+01 4.872186e+00 -7.185502e+00 0 -1 1 -4.395717e-01 6.442663e-01 -6.066309e-01 -1.539368e-01
89 1 2 -1.873950e+01 5.989110e+00 -7.056316e+00 0 -1 1 3.111847e-01 -4.104150e-01 -4.493383e-01 -7.299444e-01
90 1 3 -1.882761e+01 6.525899e+00 -7.051084e+00 0 -1 1 -5.182485e-01 6.145003e-01 1.081777e-01 5.848978e-01
91 1 3 -1.793970e+01 7.349711e+00 -7.423020e+00 0 -1 1 7.977006e-01 -1.247516e-01 -1.945492e-01 5.570111e-01
92 1 2 -1.818825e+01 7.903451e+00 -7.081870e+00 0 -1 1 -8.148854e-01 4.332713e-01 1.844952e-01 -3.379339e-01
93 1 1 -1.865076e+01 8.419596e+00 -7.217988e+00 0 -1 1 7.796532e-01 -3.874845e-01 -4.874438e-01 6.629595e-02
94 1 2 -1.903206e+01 8.614587e+00 -6.813698e+00 0 -1 1 -6.982012e-01 5.579949e-01 2.958718e-01 -3.370709e-01
95 1 3 -1.927410e+01 8.916881e+00 -6.468288e+00 0 -1 1 -5.670255e-01 6.179949e-01 1.370093e-02 -5.444048e-01
96 1 2 1.924594e+01 9.055634e+00 -6.406459e+00 -1 -1 1 2.568486e-01 3.627751e-01 7.038398e-01 -5.541052e-01
97 1 2 1.939138e+01 8.459708e+00 -5.812198e+00 -1 -1 1 5.225118e-01 -5.512568e-01 -6.390275e-01 1.214132e-01
98 1 4 1.900203e+01 8.664710e+00 -5.596924e+00 -1 -1 1 3.351555e-01 -7.621919e-01 -3.750567e-01 4.075129e-01
99 1 2 1.866757e+01 8.994342e+00 -5.578539e+00 -1 -1 1 -1.296426e-01 8.182133e-01 -8.805796e-02 -5.531416e-01
100 1 1 1.838000e+01 9.388986e+00 -5.792744e+00 -1 -1 1 -1.225913e-01 -7.203661e-01 3.695820e-01 5.739802e-01
101 2 4 -1.564547e+01 7.300038e+00 -7.039968e+00 0 -1 1 -4.457424e-01 -4.461049e-01 -2.603083e-01 7.311249e-01
102 2 3 -1.450692e+01 8.097657e+00 -6.262774e+00 0 -1 1 -3.267717e-01 8.582806e-01 5.603611e-02 -3.917074e-01
103 2 1 -1.369579e+01 7.601020e+00 -6.011415e+00 0 -1 1 7.519631e-01 3.490608e-01 7.645316e-02 5.539521e-01
104 2 3 -1.343554e+01 7.177688e+00 -5.968352e+00 0 -1 1 -3.231921e-01 3.330010e-01 -8.846182e-01 -4.591205e-02
105 2 3 -1.256687e+01 7.528331e+00 -5.969171e+00 0 -1 1 7.679682e-01 1.759622e-01 -5.299671e-01 3.136829e-01
106 2 2 -1.285848e+01 7.044304e+00 -5.735209e+00 0 -1 1 7.487851e-01 3.751459e-03 -4.585539e-01 4.785761e-01
107 2 3 -1.295831e+01 6.788735e+00 -5.252821e+00 0 -1 1 -4.845298e-01 2.570955e-01 4.813443e-01 -6.836961e-01
108 2 4 -1.243029e+01 6.522518e+00 -4.797591e+00 0 -1 1 7.123601e-01 -5.806612e-01 3.049469e-01 -2.497660e-01
109 2 3 -1.205543e+01 6.170701e+00 -5.190118e+00 0 -1 1 5.945294e-01 -6.386532e-01 2.133848e-01 4.394585e-01
110 2 2 -1.293136e+01 6.018216e+00 -4.513074e+00 0 -1 1 2.400240e-01 7.458250e-01 -5.017540e-02 6.193674e-01
111 2 2 -1.229450e+01 5.483043e+00 -4.410410e+00 0 -1 1 4.679728e-03 -9.708366e-01 1.774773e-01 1.611094e-01
112 2 3 -1.274948e+01 4.970948e+00 -4.471682e+00 0 -1 1 -1.376570e-01 5.590755e-01 6.129007e-01 5.411450e-01
113 2 3 -1.312674e+01 4.430759e+00 -5.179673e+00 0 -1 1 -1.064922e-01 2.418113e-01 9.524828e-01 -1.515360e-01
114 2 2 -1.303855e+01 3.645652e+00 -6.076913e+00 0 -1 1 -1.762390e-01 2.471080e-01 -8.810115e-01 -3.628996e-01
115 2 4 -1.329763e+01 3.176187e+00 -5.458482e+00 0 -1 1 9.602923e-01 -1.205359e-02 -2.743478e-01 -4.926112e-02
116 2 4 -1.350684e+01 2.983293e+00 -5.045726e+00 0 -1 1 9.764011e-01 -2.844655e-02 -1.385605e-01 1.631955e-01
117 2 1 -1.474998e+01 3.337134e+00 -5.385608e+00 0 -1 1 1.304918e-01 -2.193219e-01 -7.882734e-01 5.599062e-01
118 2 1 -1.517191e+01 2.953854e+00 -5.185584e+00 0 -1 1 -1.665475e-01 -5.588950e-01 -6.387454e-01 5.018990e-01
119 2 1 -1.567176e+01 2.683474e+00 -5.294232e+00 0 -1 1 -2.331740e-01 -7.126524e-01 -4.841652e-01 4.509329e-01
120 2 1 -1.611632e+01 2.406874e+00 -5.585373e+00 0 -1 1 -2.081998e-01 -8.681945e-01 -2.592683e-01 3.683355e-01
121 2 3 -1.647495e+01 2.403768e+00 -5.921914e+00 0 -1 1 2.866983e-01 9.402713e-01 -1.537759e-02 -1.829140e-01
122 2 1 -1.661629e+01 2.441759e+00 -6.398308e+00 0 -1 1 2.834897e-01 9.028060e-01 -2.955231e-01 -1.313051e-01
123 2 4 -1.659996e+01 2.375638e+00 -6.895422e+00 0 -1 1 2.350139e-01 7.886071e-01 -5.661401e-01 4.850490e-02
124 2 1 -1.639991e+01 2.207358e+00 -7.321405e+00 0 -1 1 1.410559e-01 6.215669e-01 -7.477913e-01 1.859194e-01
125 2 4 -1.618584e+01 1.735777e+00 -7.741159e+00 0 -1 1 2.119498e-01 3.921112e-01 -8.650908e-01 2.300956e-01
126 2 2 -1.603165e+01 1.341616e+00 -7.879359e+00 0 -1 1 -2.141128e-02 9.371900e-02 -8.951751e-01 4.352240e-01
127 2 4 -1.601248e+01 8.102556e-01 -8.053223e+00 0 -1 1 2.047869e-02 -3.850928e-02 -8.537364e-01 5.188755e-01
128 2 4 -1.625705e+01 3.019422e-01 -8.028444e+00 0 -1 1 -8.902325e-02 -3.993421e-01 -7.997975e-01 4.392319e-01
129 2 1 -1.646657e+01 -1.358944e-01 -8.199183e+00 0 -1 1 -8.037209e-02 -6.056024e-01 -6.967985e-01 3.758430e-01
130 2 2 -1.692931e+01 -2.927334e-01 -8.512881e+00 0 -1 1 -2.118614e-01 -8.658506e-01 -4.044407e-01 2.045608e-01
131 2 3 -1.734316e+01 -2.227970e-01 -8.917468e+00 0 -1 1 -1.043015e-01 -9.629599e-01 -1.339621e-01 2.094840e-01
132 2 4 -1.759138e+01 -1.199491e-01 -9.401530e+00 0 -1 1 6.002126e-02 9.859146e-01 -6.793436e-02 -1.405514e-01
133 2 4 -1.767173e+01 -6.019781e-02 -9.898353e+00 0 -1 1 5.258045e-02 9.579988e-01 -2.812885e-01 -1.872074e-02
134 2 3 -1.746004e+01 8.866698e-02 -1.036919e+01 0 -1 1 7.099110e-02 8.180452e-01 -5.693774e-01 3.964451e-02
135 2 4 -1.711373e+01 1.259302e-01 -1.079903e+01 0 -1 1 -9.586397e-02 -5.209132e-01 8.458790e-01 -6.283547e-02
136 2 3 -1.695540e+01 -2.046154e-01 -1.118960e+01 0 -1 1 -9.295085e-02 -3.356223e-01 9.240892e-01 -1.574071e-01
137 2 1 -1.685828e+01 -6.476538e-01 -1.133965e+01 0 -1 1 -5.748501e-02 -3.174626e-02 -9.841733e-01 1.645922e-01
138 2 3 -1.691154e+01 -9.896427e-01 -1.189573e+01 0 -1 1 7.001156e-02 -1.536071e-01 -9.735532e-01 1.539394e-01
139 2 2 -1.714122e+01 -1.335897e+00 -1.218425e+01 0 -1 1 -7.485240e-04 -4.723552e-01 -8.650131e-01 1.692108e-01
140 2 3 -1.745532e+01 -1.507522e+00 -1.267104e+01 0 -1 1 1.791884e-01 -6.495278e-01 -7.048751e-01 2.217123e-01
141 2 1 -1.786479e+01 -1.401476e+00 -1.304116e+01 0 -1 1 6.703646e-02 -8.922087e-01 -4.080724e-01 1.815124e-01
142 2 2 -1.816624e+01 -1.089535e+00 -1.340290e+01 0 -1 1 -6.875315e-02 -9.790983e-01 -6.044234e-02 1.816210e-01
143 2 4 -1.832141e+01 -7.318336e-01 -1.372192e+01 0 -1 1 -5.155800e-02 9.525102e-01 -2.184644e-01 -2.057654e-01
144 2 4 -1.828269e+01 -3.927255e-01 -1.404407e+01 0 -1 1 8.062293e-02 -7.941246e-01 5.716941e-01 1.898210e-01
145 2 1 -1.836391e+01 -2.643121e-01 -1.470298e+01 0 -1 1 -1.244626e-01 -7.672214e-01 6.289252e-01 1.826206e-02
146 2 1 -1.812608e+01 -4.012725e-01 -1.521045e+01 0 -1 1 -1.409880e-01 -3.872586e-01 9.107793e-01 2.518381e-02
147 2 1 -1.821625e+01 -6.003809e-01 -1.580727e+01 0 -1 1 -2.401462e-01 -3.124067e-01 9.151351e-01 -8.520378e-02
148 2 2 -1.820116e+01 -1.103500e+00 -1.606079e+01 0 -1 1 -1.269076e-01 7.392586e-02 9.754194e-01 -1.642755e-01
149 2 4 -1.837570e+01 -1.409973e+00 -1.641857e+01 0 -1 1 1.575479e-01 -1.599697e-01 -9.408065e-01 2.539124e-01
150 2 1 -1.871914e+01 -1.729139e+00 -1.667079e+01 0 -1 1 1.230805e-01 -4.695092e-01 -8.328230e-01 2.661167e-01
151 2 1 -1.909183e+01 -1.874263e+00 -1.697023e+01 0 -1 1 1.092643e-01 -7.270037e-01 -6.204412e-01 2.730927e-01
152 2 1 -1.953288e+01 -1.735918e+00 -1.718397e+01 0 -1 1 8.532137e-02 -9.180815e-01 -2.512524e-01 2.944806e-01
153 2 4 -1.989868e+01 -1.568447e+00 -1.758822e+01 0 -1 1 8.395088e-03 -9.842094e-01 -6.181258e-02 1.656521e-01
154 2 1 -1.993844e+01 -1.225799e+00 -1.796813e+01 0 -1 1 9.901201e-03 -9.209744e-01 3.389818e-01 1.918318e-01
155 2 2 -1.985189e+01 -1.043491e+00 -1.856554e+01 0 -1 1 -3.155621e-02 -8.250507e-01 5.497683e-01 1.266903e-01
156 2 4 -1.981705e+01 -9.625198e-01 -1.907394e+01 0 -1 1 -1.837878e-02 -7.730959e-01 6.292774e-01 -7.742687e-02
157 2 3 -1.951938e+01 -1.114651e+00 -1.946277e+01 0 -1 1 -7.413079e-02 -4.455962e-01 8.897096e-01 6.607158e-02
158 2 2 -1.940592e+01 -1.411622e+00 2.004162e+01 0 -1 0 -1.245468e-01 -1.361141e-01 9.825591e-01 -2.321053e-02
159 2 1 -1.949143e+01 -1.843449e+00 1.963405e+01 0 -1 0 -1.830906e-01 8.778995e-02 9.604393e-01 -1.905970e-01
160 2 3 -1.982753e+01 -2.263797e+00 1.946930e+01 0 -1 0 1.127730e-01 -3.574693e-01 -8.688284e-01 3.234737e-01
161 2 1 1.986439e+01 -2.480777e+00 1.908734e+01 -1 -1 0 2.834102e-01 -4.153817e-01 -7.451542e-01 4.380432e-01
162 2 1 1.936668e+01 -2.564583e+00 1.917752e+01 -1 -1 0 6.286554e-02 -7.223615e-01 -5.229977e-01 4.480126e-01
163 2 4 1.885119e+01 -2.470165e+00 1.883853e+01 -1 -1 0 -9.301857e-02 -9.142086e-01 -2.384336e-01 3.141967e-01
164 2 4 1.857646e+01 -2.249644e+00 1.845549e+01 -1 -1 0 -4.815403e-02 -9.544173e-01 6.572339e-02 2.871399e-01
165 2 3 1.837589e+01 -2.149832e+00 1.800967e+01 -1 -1 0 -1.137411e-01 -9.264134e-01 3.410903e-01 1.117076e-01
166 2 3 1.836414e+01 -2.132013e+00 1.747472e+01 -1 -1 0 -1.226203e-01 -8.853746e-01 4.481682e-01 1.487707e-02
167 2 4 1.863333e+01 -2.155151e+00 1.699485e+01 -1 -1 0 -9.260641e-02 -7.356421e-01 6.697309e-01 -4.141485e-02
168 2 2 1.905350e+01 -2.205817e+00 1.664015e+01 -1 -1 0 4.016304e-02 -4.519545e-01 8.834947e-01 -1.164525e-01
169 2 2 1.919644e+01 -2.460476e+00 1.613083e+01 -1 -1 0 -5.977551e-02 -2.135194e-01 9.653978e-01 -1.372713e-01
170 2 1 1.926039e+01 -2.815966e+00 1.574194e+01 -1 -1 0 -6.479610e-02 6.724540e-02 9.940707e-01 -5.570460e-02
171 2 1 1.907547e+01 -3.188757e+00 1.539267e+01 -1 -1 0 4.752178e-02 -3.820744e-01 -9.068973e-01 1.711669e-01
172 2 4 1.876692e+01 -3.451071e+00 1.510232e+01 -1 -1 0 -3.264757e-03 -6.088327e-01 -7.864907e-01 1.036550e-01
173 2 4 1.839569e+01 -3.486332e+00 1.461828e+01 -1 -1 0 5.958286e-02 -8.055553e-01 -5.852909e-01 7.046282e-02
174 2 1 1.803114e+01 -3.236740e+00 1.420477e+01 -1 -1 0 4.671643e-02 -9.537063e-01 -2.967943e-01 -1.322575e-02
175 2 1 1.792451e+01 -2.934791e+00 1.382319e+01 -1 -1 0 3.234547e-02 -9.972017e-01 6.716029e-02 -5.658103e-03
176 2 2 1.805696e+01 -2.532657e+00 1.347236e+01 -1 -1 0 4.221799e-02 -9.277632e-01 3.698164e-01 -2.662513e-02
177 2 2 1.840955e+01 -2.294929e+00 1.325327e+01 -1 -1 0 3.030531e-01 -7.911063e-01 5.241446e-01 -8.707551e-02
178 2 1 1.884687e+01 -2.088945e+00 1.294583e+01 -1 -1 0 2.393669e-01 -5.733080e-01 7.817195e-01 -5.418571e-02
179 2 4 1.930978e+01 -2.224995e+00 1.255727e+01 -1 -1 0 1.641582e-01 -3.045558e-01 9.373971e-01 -3.980559e-02
180 2 1 1.962433e+01 -2.584604e+00 1.215048e+01 -1 -1 0 1.188341e-01 7.422187e-04 9.927185e-01 -1.969371e-02
181 2 4 1.957224e+01 -2.905199e+00 1.176971e+01 -1 -1 0 -1.294482e-01 -3.190900e-01 -9.387012e-01 1.626950e-02
182 2 2 1.943054e+01 -3.088355e+00 1.128807e+01 -1 -1 0 -1.691389e-02 -5.770788e-01 -8.165081e-01 2.918426e-03
183 2 3 1.916053e+01 -3.072417e+00 1.084046e+01 -1 -1 0 1.020770e-01 -7.694700e-01 -6.278968e-01 5.693710e-02
184 2 4 1.879074e+01 -2.840271e+00 1.052228e+01 -1 -1 0 2.346714e-01 -9.169089e-01 -2.957335e-01 1.294183e-01
185 2 3 1.857931e+01 -2.508485e+00 1.014835e+01 -1 -1 0 7.454707e-02 -9.960315e-01 -3.056710e-02 3.780967e-02
186 2 1 1.867825e+01 -2.117398e+00 9.803613e+00 -1 -1 0 1.593173e-01 -9.506632e-01 2.651200e-01 2.385325e-02
187 2 1 1.886074e+01 -1.851746e+00 9.332219e+00 -1 -1 0 8.516485e-02 -8.334494e-01 5.451415e-01 3.049099e-02
188 2 2 1.911590e+01 -1.760992e+00 8.998217e+00 -1 -1 0 1.451434e-01 -6.488048e-01 7.469647e-01 -5.430208e-03
189 2 4 1.935788e+01 -1.906189e+00 8.546052e+00 -1 -1 0 1.365154e-01 -5.768733e-01 7.874722e-01 -1.687256e-01
190 2 4 1.972833e+01 -2.017656e+00 8.271844e+00 -1 -1 0 -2.135465e-01 2.570424e-01 -9.371664e-01 1.002309e-01
191 2 1 1.994752e+01 -2.304379e+00 7.842936e+00 -1 -1 0 1.371447e-01 1.533158e-01 9.780759e-01 3.245325e-02
192 2 4 1.998934e+01 -2.436175e+00 7.301672e+00 -1 -1 0 -3.177606e-02 -3.845753e-01 -9.102624e-01 -1.500485e-01
193 2 4 1.987332e+01 -2.370953e+00 6.808412e+00 -1 -1 0 7.225999e-02 -6.368970e-01 -7.441924e-01 -1.879317e-01
194 2 1 1.963299e+01 -2.244748e+00 6.339560e+00 -1 -1 0 1.083427e-01 -8.279861e-01 -5.262913e-01 -1.603696e-01
195 2 3 1.943813e+01 -1.883523e+00 5.943543e+00 -1 -1 0 1.747147e-01 -9.165329e-01 -3.305470e-01 -1.420596e-01
196 2 4 1.942307e+01 -1.383013e+00 5.630427e+00 -1 -1 0 -2.681333e-01 9.577430e-01 1.624842e-02 1.028046e-01
197 2 2 1.953405e+01 -8.430180e-01 5.383765e+00 -1 -1 0 3.277584e-01 -9.187108e-01 2.022424e-01 -8.742403e-02
198 2 4 1.985028e+01 -4.878485e-01 5.262104e+00 -1 -1 0 3.704624e-01 -7.951243e-01 4.797768e-01 -1.868500e-02
199 2 3 -1.973871e+01 -1.718239e-01 5.114414e+00 0 -1 0 3.671590e-01 -5.965300e-01 7.122593e-01 4.508813e-02
200 2 4 -1.936858e+01 -1.346489e-01 4.819383e+00 0 -1 0 -2.375905e-01 2.616826e-01 -9.301230e-01 -9.972100e-02
