ITEM: TIMESTEP
76000000
ITEM: NUMBER OF ATOMS
200
ITEM: BOX BOUNDS pp pp pp
-2.0000000000000000e+01 2.0000000000000000e+01
-2.0000000000000000e+01 2.0000000000000000e+01
-2.0000000000000000e+01 2.0000000000000000e+01
ITEM: ATOMS id mol type x y z ix iy iz c_quat[1] c_quat[2] c_quat[3] c_quat[4]
1 1 1 1.979549e+01 -1.333703e+00 6.206403e+00 -1 -1 0 3.915107e-01 -3.247126e-01 -2.074371e-01 8.356141e-01
2 1 2 1.945113e+01 -1.390414e+00 6.630409e+00 -1 -1 0 5.218522e-01 -2.866946e-01 -9.647288e-02 7.976023e-01
3 1 1 1.857136e+01 -2.562709e+00 6.306875e+00 -1 -1 0 3.966790e-01 1.374921e-01 -2.747109e-01 -8.650293e-01
4 1 3 1.818622e+01 -2.388818e+00 6.617711e+00 -1 -1 0 -6.771441e-01 -7.260444e-02 2.362476e-01 6.931028e-01
5 1 1 1.769482e+01 -2.419729e+00 6.821062e+00 -1 -1 0 -8.606119e-01 -1.310663e-02 2.754852e-01 4.281160e-01
6 1 2 1.737084e+01 -2.599688e+00 7.248194e+00 -1 -1 0 -9.613489e-01 1.649337e-02 2.109259e-01 1.762001e-01
7 1 4 1.723565e+01 -2.762285e+00 7.778562e+00 -1 -1 0 9.891379e-01 -8.560958e-02 -1.048137e-01 5.736953e-02
8 1 1 1.715367e+01 -2.813085e+00 8.261773e+00 -1 -1 0 9.275792e-01 -7.961215e-02 -1.706509e-02 3.646471e-01
9 1 1 1.732044e+01 -2.765360e+00 8.781746e+00 -1 -1 0 8.082788e-01 -1.131095e-01 1.106797e-01 5.671346e-01
10 1 4 1.753621e+01 -2.660808e+00 9.181415e+00 -1 -1 0 -6.880991e-01 3.906800e-03 -3.003352e-01 -6.605324e-01
11 1 1 1.790611e+01 -2.480786e+00 9.327294e+00 -1 -1 0 -4.287014e-01 -1.848705e-01 -3.295963e-01 -8.206121e-01
12 1 1 1.830968e+01 -2.109360e+00 9.436331e+00 -1 -1 0 1.372957e-01 1.824526e-01 3.305182e-01 9.157612e-01
13 1 3 1.848428e+01 -1.605606e+00 9.563770e+00 -1 -1 0 -1.811401e-01 2.585240e-01 1.442313e-01 9.378438e-01
14 1 4 1.855259e+01 -1.253381e+00 9.927599e+00 -1 -1 0 -3.916850e-01 2.281421e-01 1.451810e-01 8.794638e-01
15 1 4 1.843009e+01 -9.621421e-01 1.035725e+01 -1 -1 0 6.680464e-01 -2.367889e-01 -5.444020e-02 -7.033359e-01
16 1 2 1.825661e+01 -9.932756e-01 1.093302e+01 -1 -1 0 8.562590e-01 -8.039031e-02 4.432569e-02 -5.083238e-01
17 1 1 1.821441e+01 -1.065794e+00 1.147881e+01 -1 -1 0 -9.213622e-01 -7.772605e-02 -1.715511e-01 3.400303e-01
18 1 2 1.823643e+01 -1.494862e+00 1.178910e+01 -1 -1 0 -9.840235e-01 -1.135189e-01 -1.269221e-01 -5.198036e-02
19 1 3 1.850537e+01 -1.829625e+00 1.206843e+01 -1 -1 0 -8.813456e-01 -1.419655e-01 -1.137411e-01 -4.360489e-01
20 1 1 1.891316e+01 -2.010962e+00 1.227915e+01 -1 -1 0 -7.206875e-01 -3.232899e-01 -1.575317e-01 -5.926862e-01
21 1 4 1.937661e+01 -1.984330e+00 1.240027e+01 -1 -1 0 4.474762e-01 3.822987e-01 1.176517e-01 7.998568e-01
22 1 1 1.986400e+01 -1.822547e+00 1.284130e+01 -1 -1 0 2.126738e-01 2.146491e-01 1.367222e-02 9.531572e-01
23 1 4 -1.994621e+01 -1.590668e+00 1.326708e+01 0 -1 0 -1.207608e-01 1.344311e-01 -8.712886e-02 9.796702e-01
24 1 3 -1.988048e+01 -1.390410e+00 1.384908e+01 0 -1 0 -2.732160e-01 4.975619e-02 -1.409977e-01 9.502615e-01
25 1 3 1.993225e+01 -1.239211e+00 1.432611e+01 -1 -1 0 -6.062807e-01 1.380157e-02 -1.505638e-01 7.807456e-01
26 1 4 1.963678e+01 -1.298662e+00 1.475676e+01 -1 -1 0 -8.094474e-01 -7.729553e-02 -7.275958e-02 5.775174e-01
27 1 4 1.934037e+01 -1.568865e+00 1.505343e+01 -1 -1 0 -9.160622e-01 -1.922365e-01 6.636791e-02 3.456451e-01
28 1 1 1.918253e+01 -1.939046e+00 1.530741e+01 -1 -1 0 -9.817568e-01 -1.522600e-01 1.116362e-01 2.253380e-02
29 1 1 1.913812e+01 -2.294191e+00 1.572923e+01 -1 -1 0 -9.629275e-01 -1.615843e-01 4.741971e-02 -2.107429e-01
30 1 4 1.925763e+01 -2.618667e+00 1.618052e+01 -1 -1 0 9.048604e-01 1.223409e-01 -3.235939e-02 4.064644e-01
31 1 4 1.947479e+01 -2.795198e+00 1.666000e+01 -1 -1 0 7.601020e-01 4.622225e-02 2.986920e-02 6.474691e-01
32 1 3 1.981065e+01 -2.810020e+00 1.705234e+01 -1 -1 0 5.615071e-01 5.324093e-02 2.107031e-02 8.254885e-01
33 1 3 -1.990054e+01 -2.665843e+00 1.747166e+01 0 -1 0 3.049839e-01 6.600489e-02 5.261616e-04 9.500673e-01
34 1 1 -1.986634e+01 -2.483599e+00 1.797447e+01 0 -1 0 8.602023e-02 -5.518084e-02 -4.167218e-03 9.947554e-01
35 1 2 -1.995005e+01 -2.136253e+00 1.831071e+01 0 -1 0 -2.538741e-01 -5.126553e-02 9.609419e-02 9.610857e-01
36 1 2 1.970320e+01 -1.943788e+00 1.862227e+01 -1 -1 0 -6.313087e-01 5.298488e-02 4.962246e-02 7.721266e-01
37 1 1 1.958708e+01 -1.970599e+00 1.917752e+01 -1 -1 0 -8.085793e-01 -1.705768e-02 -9.846864e-02 5.798383e-01
38 1 1 1.951734e+01 -2.186789e+00 1.962435e+01 -1 -1 0 -9.270254e-01 -1.068215e-01 -1.573450e-01 3.231961e-01
39 1 4 1.950755e+01 -2.531293e+00 -2.003297e+01 -1 -1 1 9.314232e-01 3.216980e-01 1.169731e-01 -1.236063e-01
40 1 4 1.962213e+01 -2.925518e+00 -1.969853e+01 -1 -1 1 9.086753e-01 3.771690e-01 1.740773e-01 4.183207e-02
41 1 2 1.984073e+01 -3.404894e+00 -1.958144e+01 -1 -1 1 8.634835e-01 2.949757e-01 -8.434611e-03 4.090408e-01
42 1 4 -1.987848e+01 -3.735594e+00 -1.927265e+01 0 -1 1 7.309787e-01 1.942141e-01 -7.576085e-02 6.497779e-01
43 1 3 -1.944316e+01 -3.816523e+00 -1.883923e+01 0 -1 1 5.832565e-01 1.412634e-01 -8.676278e-02 7.951910e-01
44 1 2 -1.909012e+01 -3.763043e+00 -1.843494e+01 0 -1 1 2.733688e-01 1.177956e-01 -9.843372e-02 9.495812e-01
45 1 1 -1.893342e+01 -3.662005e+00 -1.792542e+01 0 -1 1 2.911427e-02 3.493413e-02 -5.465728e-02 9.974691e-01
46 1 3 -1.897293e+01 -3.354481e+00 -1.751415e+01 0 -1 1 -3.151641e-01 8.565933e-03 5.657784e-02 9.473105e-01
47 1 4 -1.912529e+01 -3.058169e+00 -1.711987e+01 0 -1 1 -5.092024e-01 -6.578035e-03 7.826406e-02 8.570556e-01
48 1 1 -1.935776e+01 -2.951612e+00 -1.670149e+01 0 -1 1 7.181120e-01 4.120244e-02 -9.293057e-02 -6.884631e-01
49 1 4 -1.966750e+01 -3.060352e+00 -1.627005e+01 0 -1 1 8.693928e-01 1.387996e-01 -5.399415e-02 -4.711427e-01
50 1 4 -1.985658e+01 -3.345528e+00 -1.593260e+01 0 -1 1 9.815265e-01 1.394107e-01 -2.736383e-02 -1.281465e-01
51 1 4 -1.992713e+01 -3.797781e+00 -1.556334e+01 0 -1 1 9.836695e-01 7.960501e-02 -8.472678e-02 1.373997e-01
52 1 1 -1.995309e+01 -4.026565e+00 -1.512893e+01 0 -1 1 9.044408e-01 1.735055e-01 7.597379e-03 3.896472e-01
53 1 3 -1.957942e+01 -4.329563e+00 -1.464793e+01 0 -1 1 7.814733e-01 1.454277e-01 1.283144e-01 5.930309e-01
54 1 4 -1.910465e+01 -4.279024e+00 -1.430366e+01 0 -1 1 5.374405e-01 1.196936e-01 9.246150e-02 8.296277e-01
55 1 4 -1.869030e+01 -4.126925e+00 -1.406550e+01 0 -1 1 2.507096e-01 1.801910e-01 1.480677e-01 9.395488e-01
56 1 4 -1.840113e+01 -3.811877e+00 -1.367168e+01 0 -1 1 -2.225332e-03 1.649893e-01 9.332741e-02 9.818674e-01
57 1 1 -1.835127e+01 -3.445733e+00 -1.326644e+01 0 -1 1 -2.260138e-01 1.237669e-01 1.152307e-01 9.593338e-01
58 1 1 -1.839856e+01 -3.136744e+00 -1.287970e+01 0 -1 1 -5.096493e-01 7.959945e-02 9.916143e-02 8.509339e-01
59 1 3 -1.870835e+01 -3.084109e+00 -1.246517e+01 0 -1 1 7.838243e-01 -1.162854e-01 -4.899009e-02 -6.080273e-01
60 1 4 -1.890918e+01 -3.111198e+00 -1.204853e+01 0 -1 1 9.225639e-01 -8.584582e-02 -8.277072e-03 -3.760823e-01
61 1 2 -1.898454e+01 -3.239964e+00 -1.156051e+01 0 -1 1 9.944137e-01 -6.161897e-02 7.786215e-02 -3.580615e-02
62 1 3 -1.879363e+01 -3.370521e+00 -1.097897e+01 0 -1 1 9.755215e-01 -5.071931e-02 1.593199e-01 1.428375e-01
63 1 2 -1.846664e+01 -3.522655e+00 -1.062555e+01 0 -1 1 8.836410e-01 4.127503e-02 2.371377e-01 4.015479e-01
64 1 4 -1.800371e+01 -3.524923e+00 -1.029439e+01 0 -1 1 7.057580e-01 1.388442e-01 3.192654e-01 6.170069e-01
65 1 2 -1.754971e+01 -3.329895e+00 -1.006985e+01 0 -1 1 5.144957e-01 1.266758e-01 3.390114e-01 7.773794e-01
66 1 1 -1.721704e+01 -3.006812e+00 -1.008153e+01 0 -1 1 2.046600e-01 2.788578e-01 2.700479e-01 8.985693e-01
67 1 2 -1.699035e+01 -2.496409e+00 -9.846375e+00 0 -1 1 -9.025185e-02 2.933479e-01 1.722832e-01 9.360129e-01
68 1 1 -1.691236e+01 -2.153439e+00 -9.425221e+00 0 -1 1 -3.920449e-01 2.057144e-01 1.166321e-01 8.890328e-01
69 1 1 -1.705825e+01 -1.844815e+00 -9.069017e+00 0 -1 1 -6.410230e-01 2.343066e-01 8.205626e-02 7.262621e-01
70 1 2 -1.715156e+01 -1.715749e+00 -8.576437e+00 0 -1 1 8.090003e-01 -2.557865e-01 1.102561e-01 -5.176247e-01
71 1 3 -1.708889e+01 -1.866041e+00 -8.067171e+00 0 -1 1 9.216132e-01 -2.382145e-01 2.370842e-01 -1.940979e-01
72 1 4 -1.682063e+01 -2.064107e+00 -7.613266e+00 0 -1 1 9.334334e-01 -9.594164e-02 3.168980e-01 1.381047e-01
73 1 1 -1.633530e+01 -2.105617e+00 -7.258874e+00 0 -1 1 8.398872e-01 -1.366620e-01 4.120222e-01 3.258078e-01
74 1 1 -1.582227e+01 -2.086406e+00 -7.118883e+00 0 -1 1 6.650272e-01 3.946892e-02 4.780488e-01 5.724075e-01
75 1 3 -1.533291e+01 -1.807457e+00 -7.126944e+00 0 -1 1 3.844898e-01 1.783561e-01 4.690902e-01 7.747974e-01
76 1 1 -1.501950e+01 -1.413439e+00 -7.183357e+00 0 -1 1 9.840328e-02 3.368364e-01 3.923223e-01 8.502595e-01
77 1 4 -1.486474e+01 -8.751129e-01 -7.014594e+00 0 -1 1 -1.186512e-01 2.710231e-01 3.407118e-01 8.924034e-01
78 1 1 -1.493236e+01 -3.726207e-01 -6.824926e+00 0 -1 1 -4.413969e-01 3.973758e-01 1.934681e-01 7.809170e-01
79 1 4 -1.487624e+01 2.267182e-02 -6.503491e+00 0 -1 1 -6.618874e-01 2.973405e-01 2.225002e-01 6.511431e-01
80 1 2 -1.493636e+01 2.958508e-01 -6.023552e+00 0 -1 1 8.116556e-01 -2.291480e-01 -8.526603e-02 -5.305054e-01
81 1 4 -1.510861e+01 3.585163e-01 -5.522877e+00 0 -1 1 9.370469e-01 -1.873351e-01 2.612359e-02 -2.935409e-01
82 1 4 -1.509688e+01 1.696322e-01 -4.976400e+00 0 -1 1 9.657921e-01 -2.408777e-01 8.395948e-02 4.663067e-02
83 1 4 -1.485242e+01 2.321774e-01 -4.436210e+00 0 -1 1 8.961977e-01 -2.029445e-01 2.471087e-01 3.075396e-01
84 1 4 -1.448390e+01 3.950202e-01 -4.065643e+00 0 -1 1 -6.560409e-01 1.022592e-01 -3.971246e-01 -6.335973e-01
85 1 1 -1.509572e+01 3.552261e-01 -2.985972e+00 0 -1 1 7.188282e-01 -3.518825e-01 1.261761e-01 -5.861265e-01
86 1 1 -1.509657e+01 4.319731e-01 -2.548446e+00 0 -1 1 8.885856e-01 -2.443869e-01 1.418641e-01 -3.613381e-01
87 1 3 -1.576765e+01 5.540989e-01 -1.854181e+00 0 -1 1 7.990721e-01 -2.589649e-01 -4.618886e-01 -2.847454e-01
88 1 2 -1.643946e+01 1.735273e+00 -2.465965e+00 0 -1 1 -1.543865e-01 -4.674913e-01 -7.483150e-01 4.445688e-01
89 1 2 -1.582237e+01 2.496954e+00 -2.581389e+00 0 -1 1 2.133664e-01 -9.629412e-01 7.444636e-02 -1.472301e-01
90 1 3 -1.634260e+01 2.654304e+00 -3.445641e+00 0 -1 1 -7.418994e-03 3.656314e-01 2.970151e-01 8.820661e-01
91 1 3 -1.629430e+01 3.140540e+00 -3.320986e+00 0 -1 1 -4.021086e-01 3.774539e-01 3.279635e-01 7.669923e-01
92 1 2 -1.571522e+01 3.568236e+00 -4.244791e+00 0 -1 1 -1.149443e-01 -7.922736e-01 -5.890376e-01 1.101140e-01
93 1 1 -1.594917e+01 3.653725e+00 -4.681619e+00 0 -1 1 -7.935147e-02 -9.445859e-01 -3.087459e-01 7.833791e-02
94 1 2 -1.604091e+01 3.904871e+00 -5.141832e+00 0 -1 1 -1.085347e-01 -9.927506e-01 4.898868e-02 1.632633e-02
95 1 3 -1.735420e+01 3.856771e+00 -5.654532e+00 0 -1 1 2.600872e-01 6.533946e-01 6.286723e-01 3.319657e-01
96 1 2 -1.731743e+01 4.164620e+00 -6.066728e+00 0 -1 1 8.529916e-02 9.386985e-01 1.310202e-01 3.072506e-01
97 1 2 -1.722752e+01 4.377499e+00 -6.490628e+00 0 -1 1 1.278559e-02 9.380713e-01 -2.068568e-01 2.776129e-01
98 1 4 -1.818200e+01 4.135831e+00 -7.558190e+00 0 -1 1 6.719415e-01 1.627797e-01 5.140365e-01 5.077046e-01
99 1 2 -1.777845e+01 4.311611e+00 -7.587445e+00 0 -1 1 -3.839509e-01 -4.201381e-01 -4.495959e-01 -6.884251e-01
100 1 1 -1.733760e+01 4.694150e+00 -7.614638e+00 0 -1 1 -2.174447e-01 -4.328022e-01 -3.115510e-01 -8.175182e-01
101 2 4 -1.223798e+01 1.006663e+01 -3.298325e+00 0 -1 1 -5.014562e-01 8.558772e-01 4.061292e-02 -1.198599e-01
102 2 3 -1.324662e+01 9.616920e+00 -4.089304e+00 0 -1 1 5.515535e-01 -2.692456e-01 -6.721599e-01 -4.141215e-01
103 2 1 -1.227865e+01 9.980267e+00 -4.947935e+00 0 -1 1 -8.801055e-02 8.856846e-01 1.797408e-01 -4.189393e-01
104 2 3 -1.219013e+01 8.711602e+00 -5.586524e+00 0 -1 1 -7.472132e-01 -5.496807e-01 2.266757e-01 2.968866e-01
105 2 3 -1.241934e+01 8.133704e+00 -5.765723e+00 0 -1 1 7.866479e-01 2.227141e-01 -5.666235e-01 -1.025734e-01
106 2 2 -1.280331e+01 7.804481e+00 -5.640859e+00 0 -1 1 -8.231889e-01 3.587440e-02 5.224932e-01 -2.192577e-01
107 2 3 -1.347966e+01 7.244473e+00 -6.118588e+00 0 -1 1 -8.694887e-01 -1.449216e-01 4.490908e-01 1.459611e-01
108 2 4 -1.367295e+01 6.881358e+00 -5.865945e+00 0 -1 1 8.690993e-01 1.022684e-01 -4.406343e-01 2.001227e-01
109 2 3 -1.386540e+01 6.587593e+00 -5.512439e+00 0 -1 1 -8.099820e-01 9.571228e-02 3.823495e-01 -4.342548e-01
110 2 2 -1.398193e+01 6.380465e+00 -5.075863e+00 0 -1 1 -5.184596e-01 1.318535e-01 2.342463e-01 -8.117530e-01
111 2 2 -1.329237e+01 5.302189e+00 -5.418127e+00 0 -1 1 9.303402e-01 -3.255060e-02 -6.164678e-03 3.651980e-01
112 2 3 -1.400304e+01 4.834381e+00 -4.641638e+00 0 -1 1 8.716825e-02 -9.741891e-02 -9.880078e-01 -8.217000e-02
113 2 3 -1.346511e+01 4.355626e+00 -5.327000e+00 0 -1 1 -6.326918e-01 -3.579613e-01 -6.422448e-01 -2.430771e-01
114 2 2 -1.309467e+01 3.167779e+00 -4.820612e+00 0 -1 1 -7.185951e-01 2.814361e-01 -6.291894e-01 -9.238822e-02
115 2 4 -1.365649e+01 2.705462e+00 -4.381267e+00 0 -1 1 8.316480e-01 2.532096e-01 -4.722019e-01 1.458486e-01
116 2 4 -1.460671e+01 2.047053e+00 -5.155270e+00 0 -1 1 -7.019602e-01 -9.411623e-02 -5.617374e-01 4.276039e-01
117 2 1 -1.421333e+01 1.519636e+00 -5.536716e+00 0 -1 1 7.987408e-01 1.432287e-01 5.678948e-01 1.378193e-01
118 2 1 -1.403902e+01 7.552014e-01 -5.150582e+00 0 -1 1 1.810141e-01 3.088664e-01 -8.923785e-01 2.747653e-01
119 2 1 -1.395512e+01 2.331120e-01 -5.360448e+00 0 -1 1 1.972247e-01 6.326737e-02 -9.075832e-01 3.652292e-01
120 2 1 -1.409186e+01 -2.680475e-01 -5.493964e+00 0 -1 1 1.400286e-01 -2.177972e-01 -8.730760e-01 4.131521e-01
121 2 3 -1.441108e+01 -6.542321e-01 -5.537130e+00 0 -1 1 8.479974e-03 5.448029e-01 7.280214e-01 -4.160562e-01
122 2 1 -1.488129e+01 -8.973739e-01 -5.738114e+00 0 -1 1 9.458427e-02 6.972335e-01 5.848033e-01 -4.036390e-01
123 2 4 -1.544330e+01 -9.544179e-01 -5.969993e+00 0 -1 1 1.138992e-01 8.450442e-01 3.487580e-01 -3.889667e-01
124 2 1 -1.582076e+01 -9.119952e-01 -6.360010e+00 0 -1 1 2.683668e-01 9.052483e-01 1.197890e-01 -3.068473e-01
125 2 4 -1.606475e+01 -8.836678e-01 -6.835403e+00 0 -1 1 2.980223e-01 9.308513e-01 -1.569306e-01 -1.416737e-01
126 2 2 -1.599196e+01 -8.791448e-01 -7.338489e+00 0 -1 1 2.285446e-01 8.428552e-01 -4.868749e-01 1.775831e-02
127 2 4 -1.600278e+01 -1.092091e+00 -7.849802e+00 0 -1 1 3.245097e-01 6.955106e-01 -6.283438e-01 1.270536e-01
128 2 4 -1.588024e+01 -1.472791e+00 -8.163186e+00 0 -1 1 3.254647e-01 4.276610e-01 -8.147380e-01 2.176715e-01
129 2 1 -1.598481e+01 -1.976093e+00 -8.477041e+00 0 -1 1 3.906303e-01 1.069979e-01 -8.666984e-01 2.911927e-01
130 2 2 -1.607776e+01 -2.445927e+00 -8.524746e+00 0 -1 1 2.723329e-01 -1.395499e-01 -8.678784e-01 3.913409e-01
131 2 3 -1.653151e+01 -2.795843e+00 -8.495502e+00 0 -1 1 1.827775e-01 -4.654566e-01 -7.436029e-01 4.438437e-01
132 2 4 -1.710417e+01 -2.965534e+00 -8.485420e+00 0 -1 1 -3.437487e-02 7.411333e-01 5.531100e-01 -3.789580e-01
133 2 4 -1.753439e+01 -2.928299e+00 -8.812569e+00 0 -1 1 5.392776e-03 8.822233e-01 3.363279e-01 -3.294487e-01
134 2 3 -1.797837e+01 -2.669749e+00 -9.143270e+00 0 -1 1 5.540526e-03 9.509067e-01 6.634750e-02 -3.022313e-01
135 2 4 -1.811861e+01 -2.456182e+00 -9.535778e+00 0 -1 1 -1.765482e-01 -9.235019e-01 2.302668e-01 2.509027e-01
136 2 3 -1.811626e+01 -2.290014e+00 -1.008431e+01 0 -1 1 -1.588987e-01 -8.331525e-01 5.050303e-01 1.598517e-01
137 2 1 -1.806992e+01 -2.371447e+00 -1.055501e+01 0 -1 1 1.329448e-01 7.063317e-01 -6.943726e-01 3.560880e-02
138 2 3 -1.780028e+01 -2.600809e+00 -1.102970e+01 0 -1 1 1.493849e-01 4.667589e-01 -8.628156e-01 1.239738e-01
139 2 2 -1.764508e+01 -2.974870e+00 -1.141642e+01 0 -1 1 1.454434e-01 1.783826e-01 -9.622245e-01 1.454300e-01
140 2 3 -1.781157e+01 -3.490962e+00 -1.163295e+01 0 -1 1 1.825596e-02 -9.107628e-02 -9.593053e-01 2.666555e-01
141 2 1 -1.809136e+01 -3.900957e+00 -1.195992e+01 0 -1 1 3.597491e-02 -3.455723e-01 -9.095961e-01 2.278607e-01
142 2 2 -1.837926e+01 -4.180252e+00 -1.225611e+01 0 -1 1 7.705292e-03 -6.014847e-01 -7.780724e-01 1.809976e-01
143 2 4 -1.884569e+01 -4.235838e+00 -1.262586e+01 0 -1 1 2.912407e-02 8.191285e-01 5.508144e-01 -1.574287e-01
144 2 4 -1.923005e+01 -4.082021e+00 -1.288265e+01 0 -1 1 5.865781e-02 -9.345136e-01 -2.469378e-01 2.495303e-01
145 2 1 -1.958431e+01 -3.871908e+00 -1.330486e+01 0 -1 1 7.095284e-02 -9.824732e-01 -5.520840e-02 1.632917e-01
146 2 1 -1.977492e+01 -3.553968e+00 -1.372126e+01 0 -1 1 8.166718e-02 -9.702051e-01 1.935955e-01 1.206373e-01
147 2 1 -1.966444e+01 -3.248882e+00 -1.416274e+01 0 -1 1 5.363303e-02 -8.938103e-01 4.445216e-01 2.504174e-02
148 2 2 -1.934752e+01 -3.184696e+00 -1.460115e+01 0 -1 1 1.172604e-01 -6.584866e-01 7.384309e-01 -8.582070e-02
149 2 4 -1.905837e+01 -3.262839e+00 -1.495348e+01 0 -1 1 -1.284826e-01 3.363485e-01 -9.303011e-01 7.001346e-02
150 2 1 -1.878971e+01 -3.546165e+00 -1.531354e+01 0 -1 1 -1.139985e-01 1.080400e-02 -9.831132e-01 1.427450e-01
151 2 1 -1.871375e+01 -3.772592e+00 -1.589131e+01 0 -1 1 5.272996e-03 -1.815601e-01 -9.765574e-01 1.155152e-01
152 2 1 -1.888974e+01 -4.024418e+00 -1.628427e+01 0 -1 1 3.402536e-02 -4.510457e-01 -8.818712e-01 1.330534e-01
153 2 4 -1.923837e+01 -4.167221e+00 -1.664960e+01 0 -1 1 9.785861e-02 -6.758968e-01 -7.246989e-01 9.164445e-02
154 2 1 -1.956372e+01 -4.179846e+00 -1.695084e+01 0 -1 1 1.214501e-01 -8.300046e-01 -5.006920e-01 2.136580e-01
155 2 2 -1.993094e+01 -4.033491e+00 -1.737641e+01 0 -1 1 1.405793e-01 -9.227887e-01 -3.334066e-01 1.324331e-01
156 2 4 1.983722e+01 -3.689395e+00 -1.773059e+01 -1 -1 1 1.101797e-01 -9.872642e-01 3.270916e-02 1.100001e-01
157 2 3 1.992127e+01 -3.262361e+00 -1.807257e+01 -1 -1 1 2.353850e-01 -9.251360e-01 2.810505e-01 9.862952e-02
158 2 2 -1.998506e+01 -2.894721e+00 -1.850804e+01 0 -1 1 2.774230e-01 -8.602319e-01 4.254536e-01 4.502020e-02
159 2 1 -1.963113e+01 -2.626779e+00 -1.883728e+01 0 -1 1 1.629225e-01 -6.056255e-01 7.735153e-01 9.136786e-02
160 2 3 -1.933352e+01 -2.643474e+00 -1.927322e+01 0 -1 1 -1.031097e-01 3.481820e-01 -9.187439e-01 -1.550719e-01
161 2 1 -1.929104e+01 -2.550984e+00 -1.986666e+01 0 -1 1 4.450600e-02 2.563960e-01 -9.623973e-01 -7.792172e-02
162 2 1 -1.936421e+01 -2.804109e+00 1.964293e+01 0 -1 0 1.058557e-01 -1.326786e-01 -9.829847e-01 -7.022801e-02
163 2 4 -1.965193e+01 -2.930918e+00 1.923867e+01 0 -1 0 2.012544e-01 -3.277742e-01 -9.230461e-01 -6.824804e-03
164 2 4 1.989234e+01 -3.077467e+00 1.893360e+01 -1 -1 0 1.917023e-01 -6.332587e-01 -7.437404e-01 9.530999e-02
165 2 3 1.942162e+01 -3.072897e+00 1.863031e+01 -1 -1 0 2.333759e-01 -7.233651e-01 -6.407689e-01 1.081376e-01
166 2 3 1.898538e+01 -2.781623e+00 1.832120e+01 -1 -1 0 1.449695e-01 -9.526691e-01 -2.624692e-01 5.015251e-02
167 2 4 1.896769e+01 -2.461729e+00 1.782243e+01 -1 -1 0 1.558571e-01 -9.752089e-01 -1.505244e-01 -4.492866e-02
168 2 2 1.906323e+01 -2.050770e+00 1.750600e+01 -1 -1 0 9.831008e-02 -9.598678e-01 2.623805e-01 -1.205587e-02
169 2 2 1.925299e+01 -1.763722e+00 1.709860e+01 -1 -1 0 1.010350e-01 -8.681950e-01 4.846449e-01 -3.389146e-02
170 2 1 1.960189e+01 -1.625670e+00 1.678008e+01 -1 -1 0 1.251410e-01 -6.652481e-01 7.360476e-01 -4.314234e-03
171 2 1 1.991279e+01 -1.631810e+00 1.628645e+01 -1 -1 0 -4.890618e-02 5.718785e-01 -8.109090e-01 1.139728e-01
172 2 4 -1.978553e+01 -1.896559e+00 1.600774e+01 0 -1 0 -1.420984e-01 1.444384e-01 -9.786772e-01 -3.371329e-02
173 2 4 -1.967030e+01 -2.125013e+00 1.542318e+01 0 -1 0 -1.913812e-02 -1.052798e-01 -9.857128e-01 -1.300776e-01
174 2 1 -1.973022e+01 -2.386247e+00 1.497804e+01 0 -1 0 3.457102e-02 -3.561894e-01 -9.337702e-01 2.679103e-03
175 2 1 -1.992090e+01 -2.414098e+00 1.446471e+01 0 -1 0 1.678210e-01 -4.646592e-01 -8.692061e-01 2.021481e-02
176 2 2 1.958361e+01 -2.367747e+00 1.426182e+01 -1 -1 0 1.639356e-01 -7.929263e-01 -5.741349e-01 1.214994e-01
177 2 2 1.922032e+01 -2.146488e+00 1.396234e+01 -1 -1 0 2.568350e-01 -8.986298e-01 -3.127205e-01 1.694290e-01
178 2 1 1.892400e+01 -1.812018e+00 1.368599e+01 -1 -1 0 1.370371e-01 -9.730102e-01 -7.698218e-02 1.689547e-01
179 2 4 1.879641e+01 -1.447048e+00 1.328969e+01 -1 -1 0 2.629037e-01 -9.466995e-01 1.663466e-01 8.348950e-02
180 2 1 1.898494e+01 -9.599610e-01 1.294460e+01 -1 -1 0 1.386290e-01 -8.302907e-01 5.078149e-01 1.830940e-01
181 2 4 1.924294e+01 -8.124066e-01 1.250311e+01 -1 -1 0 -2.934661e-02 5.955089e-01 -7.910021e-01 -1.371990e-01
182 2 2 1.936403e+01 -9.583874e-01 1.199310e+01 -1 -1 0 4.784079e-02 3.754415e-01 -9.256083e-01 2.048246e-03
183 2 3 1.938388e+01 -1.314347e+00 1.146529e+01 -1 -1 0 1.589932e-01 1.420813e-01 -9.768053e-01 -1.963114e-02
184 2 4 1.924296e+01 -1.723832e+00 1.115330e+01 -1 -1 0 8.816353e-02 -2.697882e-01 -9.529775e-01 1.061859e-01
185 2 3 1.888627e+01 -1.948688e+00 1.090750e+01 -1 -1 0 1.559652e-01 -4.649979e-01 -8.362233e-01 2.453210e-01
186 2 1 1.838626e+01 -2.099360e+00 1.079089e+01 -1 -1 0 1.541786e-01 -7.137897e-01 -6.093376e-01 3.089351e-01
187 2 1 1.783972e+01 -1.998575e+00 1.054980e+01 -1 -1 0 6.941792e-02 -8.638673e-01 -3.687331e-01 3.360809e-01
188 2 2 1.742547e+01 -1.809669e+00 1.018100e+01 -1 -1 0 -1.583044e-02 -9.703954e-01 -7.934438e-02 2.275666e-01
189 2 4 1.725118e+01 -1.556382e+00 9.814097e+00 -1 -1 0 -9.596234e-04 -9.704085e-01 1.810757e-01 1.597432e-01
190 2 4 1.725291e+01 -1.451207e+00 9.324118e+00 -1 -1 0 1.787755e-01 8.580670e-01 -4.696494e-01 -1.057814e-01
191 2 1 1.738646e+01 -1.531207e+00 8.844503e+00 -1 -1 0 -1.075179e-01 -7.362887e-01 6.678019e-01 -1.896028e-02
192 2 4 1.757357e+01 -1.655579e+00 8.424002e+00 -1 -1 0 3.001475e-02 6.224788e-01 -7.588554e-01 1.890970e-01
193 2 4 1.795944e+01 -1.987969e+00 8.288164e+00 -1 -1 0 -1.796151e-01 2.622001e-01 -9.215541e-01 2.229969e-01
194 2 1 1.837122e+01 -2.462312e+00 8.094319e+00 -1 -1 0 -2.177776e-01 8.000875e-02 -9.452941e-01 2.293265e-01
195 2 3 1.837950e+01 -2.943510e+00 7.685041e+00 -1 -1 0 -1.436963e-01 -1.065856e-01 -9.493245e-01 2.584064e-01
196 2 4 1.830693e+01 -3.345372e+00 7.318371e+00 -1 -1 0 8.520134e-02 5.240080e-01 8.172727e-01 -2.241017e-01
197 2 2 1.804570e+01 -3.620514e+00 6.864888e+00 -1 -1 0 -5.955437e-02 -7.486085e-01 -6.481519e-01 1.262447e-01
198 2 4 1.779489e+01 -3.460458e+00 6.429931e+00 -1 -1 0 -9.371221e-02 -9.608584e-01 -2.592766e-01 2.729051e-02
199 2 3 1.775293e+01 -3.218755e+00 5.972814e+00 -1 -1 0 3.287034e-02 -9.908484e-01 1.258847e-01 -3.594409e-02
200 2 4 1.794744e+01 -3.018549e+00 5.512123e+00 -1 -1 0 -5.610407e-02 -8.511635e-01 5.212383e-01 -2.614668e-02
