ITEM: TIMESTEP
84000000
ITEM: NUMBER OF ATOMS
200
ITEM: BOX BOUNDS pp pp pp
-2.0000000000000000e+01 2.0000000000000000e+01
-2.0000000000000000e+01 2.0000000000000000e+01
-2.0000000000000000e+01 2.0000000000000000e+01
ITEM: ATOMS id mol type x y z ix iy iz c_quat[1] c_quat[2] c_quat[3] c_quat[4]
1 1 1 1.160469e+01 -4.488124e+00 1.388831e+01 -1 -1 0 -4.121953e-01 2.337763e-01 -8.178575e-01 -3.264244e-01
2 1 2 1.098333e+01 -3.980803e+00 1.335079e+01 -1 -1 0 -4.521962e-01 7.969902e-02 -6.941379e-01 -5.543819e-01
3 1 1 1.121409e+01 -3.565006e+00 1.306782e+01 -1 -1 0 -3.177633e-03 2.480692e-01 6.070782e-01 7.549223e-01
4 1 3 1.109177e+01 -3.069623e+00 1.298317e+01 -1 -1 0 3.244741e-01 -5.207272e-01 -4.727294e-01 -6.325241e-01
5 1 1 1.103443e+01 -3.646870e+00 1.230282e+01 -1 -1 0 -4.403848e-01 3.746932e-01 6.589054e-01 4.811547e-01
6 1 2 1.202498e+01 -2.681629e+00 1.141805e+01 -1 -1 0 -5.468958e-01 -3.529637e-01 -2.532211e-01 -7.156820e-01
7 1 4 1.231367e+01 -2.908257e+00 1.134788e+01 -1 -1 0 8.551384e-01 2.453281e-01 -9.848418e-02 -4.459297e-01
8 1 1 1.334651e+01 -2.102803e+00 1.199077e+01 -1 -1 0 7.130079e-01 -3.972246e-01 4.360071e-02 5.761349e-01
9 1 1 1.352415e+01 -1.886182e+00 1.238047e+01 -1 -1 0 5.654794e-01 -1.920365e-01 2.167768e-01 7.722453e-01
10 1 4 1.373057e+01 -1.502126e+00 1.260899e+01 -1 -1 0 -2.805420e-01 2.662743e-02 -3.614172e-01 -8.887996e-01
11 1 1 1.384067e+01 -1.026847e+00 1.275447e+01 -1 -1 0 -6.414557e-02 -3.755579e-02 -4.675187e-01 -8.808525e-01
12 1 1 1.390144e+01 -4.489235e-01 1.277893e+01 -1 -1 0 -1.746494e-01 1.142244e-01 4.319865e-01 8.774042e-01
13 1 3 1.379312e+01 3.354277e-02 1.286412e+01 -1 -1 0 -4.184846e-01 2.037416e-01 3.684341e-01 8.047461e-01
14 1 4 1.352013e+01 4.493098e-01 1.302045e+01 -1 -1 0 -6.240491e-01 2.959858e-01 3.025782e-01 6.568116e-01
15 1 4 1.315787e+01 7.315200e-01 1.342917e+01 -1 -1 0 7.833417e-01 -2.883078e-01 -1.849335e-01 -5.187041e-01
16 1 2 1.305814e+01 8.352783e-01 1.398925e+01 -1 -1 0 9.199233e-01 -2.794329e-01 -3.863533e-02 -2.723338e-01
17 1 1 1.307090e+01 8.230243e-01 1.456302e+01 -1 -1 0 -9.608127e-01 2.288247e-01 -1.043689e-01 -1.165558e-01
18 1 2 1.333072e+01 8.660840e-01 1.507278e+01 -1 -1 0 -9.313022e-01 1.443395e-01 -2.617057e-01 -2.082123e-01
19 1 3 1.381319e+01 9.260055e-01 1.541547e+01 -1 -1 0 -7.075941e-01 1.541610e-01 -3.116649e-01 -6.151504e-01
20 1 1 1.428826e+01 1.033663e+00 1.555889e+01 -1 -1 0 -5.630705e-01 -3.968599e-02 -3.499688e-01 -7.475951e-01
21 1 4 1.463486e+01 1.482863e+00 1.572860e+01 -1 -1 0 2.962995e-01 6.073899e-02 3.096926e-01 9.014477e-01
22 1 1 1.484911e+01 1.849546e+00 1.601395e+01 -1 -1 0 3.513657e-02 9.917526e-02 2.760085e-01 9.553790e-01
23 1 4 1.485247e+01 2.374799e+00 1.617943e+01 -1 -1 0 -2.671089e-01 1.091140e-01 3.258908e-01 9.003011e-01
24 1 3 1.462413e+01 2.843316e+00 1.647365e+01 -1 -1 0 -5.777171e-01 1.721911e-01 1.719175e-01 7.791262e-01
25 1 3 1.440594e+01 3.093432e+00 1.693137e+01 -1 -1 0 -7.204392e-01 1.293034e-01 1.395204e-01 6.669199e-01
26 1 4 1.413576e+01 3.117448e+00 1.743846e+01 -1 -1 0 -9.204027e-01 1.030171e-01 6.314477e-02 3.718322e-01
27 1 4 1.413884e+01 3.050954e+00 1.797830e+01 -1 -1 0 -9.585651e-01 -1.598538e-01 -2.123073e-02 2.348380e-01
28 1 1 1.416993e+01 2.632267e+00 1.830553e+01 -1 -1 0 -9.597661e-01 -2.741925e-01 -4.428334e-02 -4.130876e-02
29 1 1 1.436259e+01 2.149378e+00 1.865715e+01 -1 -1 0 -9.318885e-01 -1.468339e-01 -5.589153e-02 -3.269552e-01
30 1 4 1.459744e+01 1.858324e+00 1.891544e+01 -1 -1 0 7.858644e-01 2.487515e-01 6.831773e-02 5.620253e-01
31 1 4 1.503465e+01 1.735040e+00 1.913461e+01 -1 -1 0 4.911844e-01 3.152382e-01 4.362793e-02 8.108387e-01
32 1 3 1.541251e+01 1.812137e+00 1.943041e+01 -1 -1 0 2.875603e-01 2.411512e-01 7.257872e-02 9.240604e-01
33 1 3 1.568814e+01 2.076464e+00 1.983960e+01 -1 -1 0 -7.390936e-02 2.120445e-01 -5.990490e-02 9.726181e-01
34 1 1 1.577339e+01 2.318201e+00 -1.971333e+01 -1 -1 1 -3.168020e-01 1.226798e-01 -1.457236e-01 9.291667e-01
35 1 2 1.570461e+01 2.388981e+00 -1.917584e+01 -1 -1 1 -6.113787e-01 1.031662e-01 -1.744243e-01 7.649503e-01
36 1 2 1.559577e+01 2.292304e+00 -1.865301e+01 -1 -1 1 -7.892762e-01 -3.455723e-02 -1.574034e-01 5.925142e-01
37 1 1 1.550165e+01 2.059915e+00 -1.813772e+01 -1 -1 1 -9.042688e-01 -6.200019e-02 -2.090175e-01 3.671043e-01
38 1 1 1.549164e+01 1.611576e+00 -1.781154e+01 -1 -1 1 -9.747594e-01 -1.215839e-01 -1.862469e-01 1.932965e-02
39 1 4 1.570268e+01 1.110836e+00 -1.760445e+01 -1 -1 1 9.290415e-01 1.952889e-01 1.511555e-01 2.754926e-01
40 1 4 1.603255e+01 8.135624e-01 -1.740137e+01 -1 -1 1 7.901222e-01 2.396733e-01 3.711427e-02 5.629264e-01
41 1 2 1.637762e+01 6.397942e-01 -1.705067e+01 -1 -1 1 6.737042e-01 2.954558e-01 1.581969e-01 6.586367e-01
42 1 4 1.689656e+01 6.988372e-01 -1.690068e+01 -1 -1 1 3.841653e-01 3.172498e-01 5.140809e-02 8.655211e-01
43 1 3 1.728546e+01 8.713782e-01 -1.657041e+01 -1 -1 1 2.251938e-01 2.912985e-01 3.758159e-02 9.289890e-01
44 1 2 1.755065e+01 1.049321e+00 -1.609959e+01 -1 -1 1 -4.920600e-02 1.736057e-01 -1.721958e-02 9.834345e-01
45 1 1 1.749090e+01 1.306844e+00 -1.558554e+01 -1 -1 1 -3.783079e-01 1.525782e-01 -8.732256e-02 9.088332e-01
46 1 3 1.728916e+01 1.411406e+00 -1.505341e+01 -1 -1 1 -6.344116e-01 6.339041e-02 -1.303298e-01 7.592876e-01
47 1 4 1.708116e+01 1.276487e+00 -1.457182e+01 -1 -1 1 -8.688372e-01 -4.484191e-02 -1.492551e-01 4.699299e-01
48 1 1 1.704517e+01 1.150214e+00 -1.404112e+01 -1 -1 1 8.888147e-01 2.208015e-01 7.742080e-02 -3.940319e-01
49 1 4 1.692338e+01 7.533663e-01 -1.377000e+01 -1 -1 1 9.562798e-01 2.607265e-01 4.617826e-02 -1.241699e-01
50 1 4 1.696947e+01 3.349967e-01 -1.358244e+01 -1 -1 1 9.403654e-01 2.884348e-01 -9.102140e-03 1.800984e-01
51 1 4 1.709640e+01 -1.022744e-01 -1.345878e+01 -1 -1 1 7.862558e-01 4.885263e-01 -1.858123e-02 3.778871e-01
52 1 1 1.736960e+01 -5.168071e-01 -1.327733e+01 -1 -1 1 6.903066e-01 5.120958e-01 7.817857e-02 5.050969e-01
53 1 3 1.795775e+01 -6.290318e-01 -1.312337e+01 -1 -1 1 3.766613e-01 4.155327e-01 -2.616005e-01 7.855088e-01
54 1 4 1.837726e+01 -7.544243e-01 -1.276182e+01 -1 -1 1 1.387771e-01 2.877575e-01 -2.756028e-01 9.066309e-01
55 1 4 1.864797e+01 -7.537848e-01 -1.239498e+01 -1 -1 1 -1.749496e-01 1.905078e-01 -4.531553e-01 8.530824e-01
56 1 4 1.875603e+01 -9.474558e-01 -1.188248e+01 -1 -1 1 -3.361307e-01 1.123813e-02 -4.385018e-01 8.334303e-01
57 1 1 1.847832e+01 -1.134719e+00 -1.144376e+01 -1 -1 1 -6.760297e-01 -9.807656e-02 -3.438822e-01 6.442902e-01
58 1 1 1.833272e+01 -1.430509e+00 -1.109564e+01 -1 -1 1 -8.330936e-01 -1.725338e-01 -2.671486e-01 4.525691e-01
59 1 3 1.840899e+01 -1.770736e+00 -1.076570e+01 -1 -1 1 8.212740e-01 3.624886e-01 2.659202e-01 -3.512797e-01
60 1 4 1.833681e+01 -2.256404e+00 -1.067413e+01 -1 -1 1 8.727015e-01 4.740288e-01 9.783083e-02 -6.417139e-02
61 1 2 1.838168e+01 -2.749108e+00 -1.076431e+01 -1 -1 1 8.318204e-01 5.112024e-01 -3.436292e-02 2.134622e-01
62 1 3 1.871944e+01 -3.154948e+00 -1.083866e+01 -1 -1 1 6.958242e-01 4.646978e-01 -2.046296e-01 5.079482e-01
63 1 2 1.908418e+01 -3.523737e+00 -1.065002e+01 -1 -1 1 5.994450e-01 4.583506e-01 -1.586818e-01 6.367107e-01
64 1 4 1.950828e+01 -3.723223e+00 -1.045579e+01 -1 -1 1 3.205337e-01 3.112688e-01 -3.411281e-01 8.270439e-01
65 1 2 1.981458e+01 -3.846327e+00 -1.005125e+01 -1 -1 1 1.002058e-01 1.999426e-01 -3.629936e-01 9.045537e-01
66 1 1 1.989518e+01 -3.942805e+00 -9.559351e+00 -1 -1 1 -2.355457e-01 6.141944e-02 -3.752134e-01 8.944053e-01
67 1 2 1.990108e+01 -4.153743e+00 -9.050461e+00 -1 -1 1 -3.672732e-01 -1.048995e-01 -3.619953e-01 8.503328e-01
68 1 1 1.959527e+01 -4.378562e+00 -8.629969e+00 -1 -1 1 -6.309300e-01 -2.728324e-01 -2.625918e-01 6.771523e-01
69 1 1 1.934188e+01 -4.821127e+00 -8.262691e+00 -1 -1 1 -7.010116e-01 -3.679435e-01 -2.209858e-01 5.695311e-01
70 1 2 1.916668e+01 -5.329464e+00 -8.109523e+00 -1 -1 1 7.990212e-01 4.599908e-01 2.500942e-01 -2.956797e-01
71 1 3 1.901491e+01 -5.849694e+00 -8.062386e+00 -1 -1 1 8.176693e-01 5.430703e-01 1.466605e-01 -1.224022e-01
72 1 4 1.905217e+01 -6.449456e+00 -8.148514e+00 -1 -1 1 8.058140e-01 5.673553e-01 6.247631e-02 1.576976e-01
73 1 1 1.936122e+01 -6.836226e+00 -8.253586e+00 -1 -1 1 7.050776e-01 5.125726e-01 -1.783438e-01 4.564301e-01
74 1 1 1.973318e+01 -7.175137e+00 -8.189497e+00 -1 -1 1 5.208599e-01 4.322868e-01 -2.430539e-01 6.948078e-01
75 1 3 -1.998855e+01 -7.447598e+00 -7.912861e+00 0 -1 1 3.647986e-01 3.017409e-01 -2.734470e-01 8.373178e-01
76 1 1 -1.972951e+01 -7.490110e+00 -7.446774e+00 0 -1 1 8.161751e-02 1.844298e-01 -3.547249e-01 9.129592e-01
77 1 4 -1.967978e+01 -7.628372e+00 -6.970545e+00 0 -1 1 -2.029475e-01 -3.424057e-02 -3.763716e-01 9.033185e-01
78 1 1 -1.978407e+01 -7.725274e+00 -6.518952e+00 0 -1 1 -4.339038e-01 -1.682587e-01 -2.573634e-01 8.468651e-01
79 1 4 2.001415e+01 -7.994070e+00 -6.084175e+00 -1 -1 1 -7.212885e-01 -2.266760e-01 -3.190882e-01 5.714399e-01
80 1 2 -1.989650e+01 -7.304814e+00 -5.216829e+00 0 -1 1 -3.319585e-01 9.006269e-01 -2.360469e-01 1.515147e-01
81 1 4 1.973714e+01 -7.426086e+00 -4.370124e+00 -1 -1 1 8.635518e-01 -3.763306e-01 -5.530299e-02 -3.310515e-01
82 1 4 1.981113e+01 -7.338893e+00 -3.867744e+00 -1 -1 1 9.328273e-01 -3.272232e-01 1.508580e-01 3.268635e-04
83 1 4 -1.992178e+01 -7.202733e+00 -3.388631e+00 0 -1 1 -8.585834e-01 2.414964e-01 -2.275108e-01 -3.908362e-01
84 1 4 1.905386e+01 -7.245749e+00 -2.384642e+00 -1 -1 1 5.509050e-01 -2.471575e-01 -5.097025e-01 6.128787e-01
85 1 1 1.894238e+01 -7.402620e+00 -1.914880e+00 -1 -1 1 -1.462903e-01 3.392233e-01 4.117600e-01 -8.330548e-01
86 1 1 1.851004e+01 -7.472155e+00 -1.612850e+00 -1 -1 1 1.466903e-01 5.622110e-01 2.859026e-01 -7.620108e-01
87 1 3 1.997494e+01 -7.525464e+00 -1.050394e+00 -1 -1 1 -4.996703e-01 8.515346e-01 -8.819075e-02 -1.320636e-01
88 1 2 1.965968e+01 -6.689663e+00 -1.480052e+00 -1 -1 1 4.932121e-01 7.149179e-01 4.839207e-01 1.070283e-01
89 1 2 -1.944421e+01 -6.571567e+00 -1.271744e+00 0 -1 1 -9.633333e-01 8.350854e-03 -1.134267e-01 -2.430095e-01
90 1 3 -1.896143e+01 -6.151600e+00 -5.012361e-01 0 -1 1 -8.966418e-01 3.616260e-01 6.823655e-02 -2.461787e-01
91 1 3 -1.953550e+01 -6.198228e+00 -3.117998e-01 0 -1 1 7.640133e-01 3.718636e-01 2.015027e-02 5.268729e-01
92 1 2 -1.908277e+01 -6.358891e+00 -1.213549e-01 0 -1 1 5.643412e-01 3.379966e-01 -1.167860e-01 7.440687e-01
93 1 1 -1.960778e+01 -7.241993e+00 5.813769e-01 0 -1 1 -3.011610e-01 1.784603e-01 7.387884e-01 -5.758869e-01
94 1 2 -1.994588e+01 -7.524726e+00 7.288276e-01 0 -1 1 1.691632e-01 -4.006036e-01 -5.577557e-01 7.069718e-01
95 1 3 -1.949381e+01 -6.964081e+00 1.181095e+00 0 -1 1 4.514924e-01 -5.791648e-01 -1.921986e-01 6.509858e-01
96 1 2 -1.976842e+01 -6.616824e+00 1.359651e+00 0 -1 1 7.342768e-02 -5.635518e-01 1.184221e-01 8.142444e-01
97 1 2 -1.935922e+01 -7.516109e+00 2.061531e+00 0 -1 1 -2.119341e-01 4.288668e-02 -9.756441e-01 3.692280e-02
98 1 4 -1.970646e+01 -7.622197e+00 2.989025e+00 0 -1 1 6.948471e-03 -3.390662e-01 8.846168e-01 -3.200607e-01
99 1 2 -1.968952e+01 -8.103142e+00 2.766562e+00 0 -1 1 7.786044e-02 -1.993608e-02 9.289600e-01 -3.613496e-01
100 1 1 -1.942988e+01 -8.124524e+00 2.358437e+00 0 -1 1 2.627166e-01 -9.544957e-01 -1.362743e-01 -3.670625e-02
101 2 4 -1.980752e+01 -1.058997e+01 -1.175967e+01 0 -1 1 -1.212784e-01 2.287972e-01 8.204225e-01 5.097552e-01
102 2 3 -1.919983e+01 -1.034617e+01 -1.048625e+01 0 -1 1 6.701386e-01 -7.342728e-01 -1.065982e-01 1.986064e-02
103 2 1 -1.865399e+01 -1.058568e+01 -1.147309e+01 0 -1 1 -3.499733e-01 3.840041e-01 -6.321648e-01 -5.748280e-01
104 2 3 -1.848276e+01 -9.982181e+00 -1.162758e+01 0 -1 1 2.881469e-02 -3.617876e-01 7.731120e-01 5.201704e-01
105 2 3 -1.853938e+01 -9.230610e+00 -1.139110e+01 0 -1 1 2.474124e-01 8.904080e-01 -3.803926e-01 3.552736e-02
106 2 2 -1.823463e+01 -9.228692e+00 -1.083677e+01 0 -1 1 -8.325306e-01 3.595937e-01 -2.872841e-01 3.083068e-01
107 2 3 -1.798929e+01 -9.357653e+00 -1.038039e+01 0 -1 1 -8.932709e-01 1.565191e-01 -3.972873e-01 -1.404696e-01
108 2 4 -1.750658e+01 -9.400025e+00 -1.013230e+01 0 -1 1 -7.125169e-01 5.363738e-02 -4.282761e-01 -5.531928e-01
109 2 3 -1.717702e+01 -1.022993e+01 -9.904295e+00 0 -1 1 -8.028639e-01 -4.115258e-01 -4.177742e-01 1.073346e-01
110 2 2 -1.672919e+01 -1.007815e+01 -9.299873e+00 0 -1 1 3.128834e-01 -2.371443e-02 -5.985158e-02 9.476072e-01
111 2 2 -1.660948e+01 -9.899105e+00 -8.861377e+00 0 -1 1 -5.683188e-02 1.939581e-02 -2.023797e-02 -9.979902e-01
112 2 3 -1.686565e+01 -9.854271e+00 -8.577546e+00 0 -1 1 4.543846e-01 3.799378e-01 3.746651e-01 -7.133078e-01
113 2 3 -1.670629e+01 -9.078620e+00 -7.700549e+00 0 -1 1 6.391229e-01 -7.511048e-01 -1.636668e-01 -2.401421e-02
114 2 2 -1.724178e+01 -9.520326e+00 -8.185301e+00 0 -1 1 2.694231e-01 8.384144e-01 -3.628850e-02 -4.723934e-01
115 2 4 -1.764538e+01 -1.021234e+01 -8.180929e+00 0 -1 1 2.578385e-01 4.762892e-01 7.430581e-01 3.931063e-01
116 2 4 -1.837363e+01 -1.091527e+01 -7.649341e+00 0 -1 1 -1.321748e-01 -1.979677e-01 -9.702875e-01 -4.336835e-02
117 2 1 -1.802366e+01 -1.011030e+01 -6.598580e+00 0 -1 1 7.874175e-02 -6.695828e-01 1.928089e-01 -7.129399e-01
118 2 1 -1.842492e+01 -1.025632e+01 -6.848735e+00 0 -1 1 6.943899e-01 4.833747e-01 -3.681904e-01 -3.854963e-01
119 2 1 -1.882452e+01 -9.796319e+00 -7.163586e+00 0 -1 1 5.167276e-01 8.423349e-01 2.879573e-02 1.504504e-01
120 2 1 -1.888996e+01 -8.938589e+00 -6.753955e+00 0 -1 1 -4.517931e-01 7.976897e-01 4.184303e-02 -3.972698e-01
121 2 3 -1.973597e+01 -8.821960e+00 -6.794347e+00 0 -1 1 -3.332579e-01 1.203854e-01 8.467897e-01 3.967289e-01
122 2 1 1.982516e+01 -8.714581e+00 -6.932818e+00 -1 -1 1 -4.833065e-01 4.134297e-01 7.610169e-01 1.278438e-01
123 2 4 1.944899e+01 -8.471688e+00 -7.072846e+00 -1 -1 1 -4.247246e-01 7.876388e-01 4.364349e-01 9.358853e-02
124 2 1 1.914066e+01 -8.028739e+00 -7.104929e+00 -1 -1 1 -5.580013e-01 8.135784e-01 1.516607e-01 -6.102304e-02
125 2 4 1.916506e+01 -7.439495e+00 -6.995588e+00 -1 -1 1 -4.582411e-01 8.370733e-01 -2.144360e-01 -2.081840e-01
126 2 2 1.925288e+01 -6.960194e+00 -7.123277e+00 -1 -1 1 -4.448827e-01 8.072329e-01 -3.474085e-01 -1.725163e-01
127 2 4 1.958697e+01 -6.497710e+00 -7.210658e+00 -1 -1 1 -3.788210e-01 6.948916e-01 -5.456303e-01 -2.755140e-01
128 2 4 1.995002e+01 -6.178547e+00 -7.466361e+00 -1 -1 1 -2.104129e-01 4.784765e-01 -7.730942e-01 -3.593216e-01
129 2 1 -1.983260e+01 -6.067833e+00 -7.994165e+00 0 -1 1 -2.838289e-02 1.692764e-01 -9.004265e-01 -3.997150e-01
130 2 2 -1.980625e+01 -5.903740e+00 -8.506568e+00 0 -1 1 1.167531e-01 -8.100341e-02 -8.822613e-01 -4.488007e-01
131 2 3 1.998678e+01 -5.676635e+00 -8.918610e+00 -1 -1 1 2.636672e-01 -3.096321e-01 -8.610640e-01 -3.052480e-01
132 2 4 1.965351e+01 -5.536199e+00 -9.181771e+00 -1 -1 1 -3.299551e-01 6.070925e-01 7.064525e-01 1.532748e-01
133 2 4 1.937915e+01 -5.148469e+00 -9.492125e+00 -1 -1 1 -4.601307e-01 6.109391e-01 6.169121e-01 1.856138e-01
134 2 3 1.903824e+01 -4.811578e+00 -9.628378e+00 -1 -1 1 -5.274962e-01 7.544482e-01 3.894748e-01 2.941272e-02
135 2 4 1.877302e+01 -4.356680e+00 -9.553273e+00 -1 -1 1 4.757402e-01 -8.643467e-01 -9.368927e-02 1.334107e-01
136 2 3 1.870553e+01 -3.846031e+00 -9.564061e+00 -1 -1 1 5.213675e-01 -8.278003e-01 1.273867e-01 1.633868e-01
137 2 1 1.880757e+01 -3.317933e+00 -9.538945e+00 -1 -1 1 -4.115728e-01 7.707351e-01 -3.993512e-01 -2.776579e-01
138 2 3 1.901505e+01 -2.902290e+00 -9.694448e+00 -1 -1 1 -3.393836e-01 6.023526e-01 -6.541872e-01 -3.066419e-01
139 2 2 1.930070e+01 -2.550489e+00 -9.994382e+00 -1 -1 1 -2.560202e-01 4.494488e-01 -7.880759e-01 -3.337453e-01
140 2 3 1.952680e+01 -2.387951e+00 -1.043733e+01 -1 -1 1 -1.016248e-01 1.870198e-01 -9.162914e-01 -3.392729e-01
141 2 1 1.950189e+01 -2.412592e+00 -1.099991e+01 -1 -1 1 7.294465e-02 -1.329274e-01 -9.486545e-01 -2.776042e-01
142 2 2 1.919336e+01 -2.297717e+00 -1.146836e+01 -1 -1 1 2.351839e-01 -4.312374e-01 -8.496552e-01 -1.918567e-01
143 2 4 1.877485e+01 -2.287618e+00 -1.184433e+01 -1 -1 1 -3.115847e-01 4.865618e-01 8.059180e-01 1.291072e-01
144 2 4 1.818803e+01 -2.113272e+00 -1.209306e+01 -1 -1 1 3.885045e-01 -6.791960e-01 -6.211726e-01 -4.360683e-02
145 2 1 1.780782e+01 -1.715331e+00 -1.218822e+01 -1 -1 1 4.933191e-01 -7.768350e-01 -3.836239e-01 7.743651e-02
146 2 1 1.758374e+01 -1.265934e+00 -1.209413e+01 -1 -1 1 5.582772e-01 -7.759140e-01 -8.115633e-02 2.823078e-01
147 2 1 1.748190e+01 -6.661961e-01 -1.201816e+01 -1 -1 1 5.017438e-01 -7.820563e-01 2.196848e-01 2.972871e-01
148 2 2 1.762229e+01 -9.150176e-02 -1.212552e+01 -1 -1 1 3.950830e-01 -6.342515e-01 5.651779e-01 3.495832e-01
149 2 4 1.793528e+01 2.437674e-01 -1.251989e+01 -1 -1 1 -2.075457e-01 4.653147e-01 -7.348493e-01 -4.476646e-01
150 2 1 1.799485e+01 5.628963e-01 -1.295569e+01 -1 -1 1 -1.320456e-01 3.551392e-01 -8.520001e-01 -3.612976e-01
151 2 1 1.804917e+01 6.911827e-01 -1.346105e+01 -1 -1 1 6.217841e-02 1.328176e-01 -9.306880e-01 -3.351315e-01
152 2 1 1.809227e+01 5.896701e-01 -1.402973e+01 -1 -1 1 1.065423e-01 5.743171e-02 -9.877970e-01 -9.801772e-02
153 2 4 1.785700e+01 4.075550e-01 -1.445713e+01 -1 -1 1 1.800943e-01 -3.265763e-01 -9.265490e-01 4.920230e-02
154 2 1 1.764222e+01 2.398659e-01 -1.497148e+01 -1 -1 1 2.597177e-01 -4.639789e-01 -8.427864e-01 8.355495e-02
155 2 2 1.719818e+01 2.246659e-01 -1.518607e+01 -1 -1 1 2.371681e-01 -6.979426e-01 -6.589674e-01 1.496306e-01
156 2 4 1.669042e+01 4.100777e-01 -1.532090e+01 -1 -1 1 1.297935e-01 -8.966355e-01 -3.593665e-01 2.237279e-01
157 2 3 1.639899e+01 7.965728e-01 -1.572474e+01 -1 -1 1 4.880396e-02 -9.759452e-01 -1.373263e-01 1.621436e-01
158 2 2 1.631981e+01 1.228112e+00 -1.598771e+01 -1 -1 1 1.293270e-01 -9.413514e-01 2.077798e-01 2.322920e-01
159 2 1 1.625003e+01 1.624852e+00 -1.634578e+01 -1 -1 1 9.360733e-02 -8.880324e-01 4.174466e-01 1.684471e-01
160 2 3 1.650801e+01 1.794766e+00 -1.677403e+01 -1 -1 1 -3.062920e-02 6.641949e-01 -7.325277e-01 -1.459798e-01
161 2 1 1.669256e+01 1.799010e+00 -1.725993e+01 -1 -1 1 1.224545e-02 3.765228e-01 -9.160713e-01 -1.374552e-01
162 2 1 1.667657e+01 1.747882e+00 -1.776028e+01 -1 -1 1 9.028788e-02 2.123449e-01 -9.680555e-01 -9.811384e-02
163 2 4 1.657965e+01 1.612783e+00 -1.828375e+01 -1 -1 1 2.157127e-01 5.344377e-02 -9.748718e-01 1.538904e-02
164 2 4 1.632133e+01 1.340121e+00 -1.865973e+01 -1 -1 1 2.433777e-01 -3.090015e-01 -9.144843e-01 9.488809e-02
165 2 3 1.580198e+01 1.153519e+00 -1.890748e+01 -1 -1 1 2.142078e-01 -6.234510e-01 -7.428657e-01 1.165094e-01
166 2 3 1.530370e+01 1.308609e+00 -1.921960e+01 -1 -1 1 2.687658e-01 -7.895914e-01 -5.316240e-01 1.472630e-01
167 2 4 1.490901e+01 1.537885e+00 -1.953081e+01 -1 -1 1 1.965175e-01 -9.340369e-01 -2.491807e-01 1.639051e-01
168 2 2 1.459225e+01 1.877609e+00 -1.978768e+01 -1 -1 1 2.253713e-01 -9.625228e-01 -5.216750e-02 1.415495e-01
169 2 2 1.448092e+01 2.379181e+00 1.999731e+01 -1 -1 0 1.299662e-01 -9.252077e-01 3.042797e-01 1.857778e-01
170 2 1 1.463148e+01 2.722443e+00 1.963157e+01 -1 -1 0 1.669123e-01 -8.187368e-01 5.382184e-01 1.101424e-01
171 2 1 1.491342e+01 2.991294e+00 1.921238e+01 -1 -1 0 -1.021345e-01 6.201818e-01 -7.737335e-01 -7.924439e-02
172 2 4 1.522574e+01 2.943118e+00 1.874324e+01 -1 -1 0 -2.313887e-02 3.657035e-01 -9.219087e-01 -1.257375e-01
173 2 4 1.534104e+01 2.765293e+00 1.827557e+01 -1 -1 0 3.328083e-02 3.172591e-02 -9.914428e-01 -1.221760e-01
174 2 1 1.527679e+01 2.639770e+00 1.781457e+01 -1 -1 0 9.220436e-02 -5.371256e-02 -9.891826e-01 1.006537e-01
175 2 1 1.505120e+01 2.354508e+00 1.756496e+01 -1 -1 0 1.062633e-01 -3.326246e-01 -8.822691e-01 3.157060e-01
176 2 2 1.469423e+01 2.019728e+00 1.732421e+01 -1 -1 0 6.879310e-02 -5.794180e-01 -7.501409e-01 3.111765e-01
177 2 2 1.427094e+01 1.848357e+00 1.712709e+01 -1 -1 0 -8.882915e-02 -7.892970e-01 -5.301296e-01 2.967865e-01
178 2 1 1.394228e+01 1.847529e+00 1.670789e+01 -1 -1 0 -1.604734e-01 -9.252665e-01 -2.520401e-01 2.336793e-01
179 2 4 1.368621e+01 1.888518e+00 1.621287e+01 -1 -1 0 -7.132321e-02 -9.890948e-01 -6.410613e-02 1.117805e-01
180 2 1 1.362059e+01 2.099658e+00 1.571113e+01 -1 -1 0 -2.502366e-01 -9.404150e-01 2.057785e-01 1.032306e-01
181 2 4 1.378235e+01 2.071028e+00 1.514366e+01 -1 -1 0 2.906264e-01 7.894982e-01 -5.390694e-01 4.041067e-02
182 2 2 1.389458e+01 1.812052e+00 1.464646e+01 -1 -1 0 2.342670e-01 7.077046e-01 -6.326019e-01 2.099713e-01
183 2 3 1.415587e+01 1.382510e+00 1.439905e+01 -1 -1 0 1.852675e-01 3.622486e-01 -8.612705e-01 3.044092e-01
184 2 4 1.427476e+01 8.999461e-01 1.427438e+01 -1 -1 0 8.556550e-02 6.987918e-02 -9.069167e-01 4.065680e-01
185 2 3 1.408887e+01 3.446520e-01 1.419169e+01 -1 -1 0 5.897679e-02 -2.570382e-01 -8.386696e-01 4.765359e-01
186 2 1 1.375396e+01 -1.643597e-02 1.417173e+01 -1 -1 0 -7.080282e-02 -4.874973e-01 -6.865849e-01 5.347285e-01
187 2 1 1.344992e+01 -3.030567e-01 1.400108e+01 -1 -1 0 -1.697106e-01 -7.472765e-01 -4.712895e-01 4.366490e-01
188 2 2 1.302050e+01 -4.403165e-01 1.368593e+01 -1 -1 0 -2.821924e-01 -8.840935e-01 -2.413457e-01 2.837222e-01
189 2 4 1.276836e+01 -8.206577e-01 1.326948e+01 -1 -1 0 -2.432576e-01 -9.239144e-01 -2.636437e-01 1.330408e-01
190 2 4 1.269748e+01 -7.880263e-01 1.277633e+01 -1 -1 0 2.581545e-01 9.612064e-01 -7.302044e-02 -6.408173e-02
191 2 1 1.278218e+01 -9.011170e-01 1.219924e+01 -1 -1 0 -1.812532e-01 -9.322771e-01 2.727788e-01 -1.536177e-01
192 2 4 1.304235e+01 -9.635273e-01 1.173077e+01 -1 -1 0 1.696357e-01 8.060871e-01 -5.271411e-01 2.087333e-01
193 2 4 1.343206e+01 -1.120322e+00 1.143006e+01 -1 -1 0 2.777310e-02 6.041840e-01 -7.361466e-01 3.037739e-01
194 2 1 1.377995e+01 -1.372136e+00 1.121621e+01 -1 -1 0 7.998735e-02 -3.338917e-01 8.924580e-01 -2.926382e-01
195 2 3 1.314611e+01 -1.069448e+00 1.014886e+01 -1 -1 0 -3.963826e-01 -4.454811e-01 -4.990464e-01 6.287925e-01
196 2 4 1.436873e+01 -1.192992e+00 1.064756e+01 -1 -1 0 2.963883e-01 -9.143257e-01 -2.580611e-01 -9.781075e-02
197 2 2 1.442096e+01 -2.636431e+00 1.041161e+01 -1 -1 0 -3.840634e-01 -7.177296e-01 5.689443e-01 1.168841e-01
198 2 4 1.504133e+01 -2.519372e+00 1.009481e+01 -1 -1 0 7.411380e-01 5.737706e-01 -1.568768e-01 -3.112738e-01
199 2 3 1.479848e+01 -2.713794e+00 9.765078e+00 -1 -1 0 -7.469346e-01 -4.542853e-01 4.854533e-01 6.972481e-03
200 2 4 1.458276e+01 -3.122225e+00 9.761161e+00 -1 -1 0 -7.447785e-01 -3.377417e-01 5.297996e-01 -2.248288e-01
