ITEM: TIMESTEP
87000000
ITEM: NUMBER OF ATOMS
200
ITEM: BOX BOUNDS pp pp pp
-2.0000000000000000e+01 2.0000000000000000e+01
-2.0000000000000000e+01 2.0000000000000000e+01
-2.0000000000000000e+01 2.0000000000000000e+01
ITEM: ATOMS id mol type x y z ix iy iz c_quat[1] c_quat[2] c_quat[3] c_quat[4]
1 1 1 5.841266e+00 3.176292e+00 1.507383e+01 -1 -1 0 8.180723e-01 3.443336e-01 4.355258e-01 1.500314e-01
2 1 2 6.375585e+00 3.030858e+00 1.513635e+01 -1 -1 0 6.103309e-01 2.445909e-01 3.619697e-01 6.607945e-01
3 1 1 6.862504e+00 3.141836e+00 1.514908e+01 -1 -1 0 -2.901094e-01 -4.616966e-01 -3.539456e-01 -7.598653e-01
4 1 3 7.226637e+00 3.440447e+00 1.525061e+01 -1 -1 0 -2.188293e-02 4.787670e-01 1.372252e-01 8.668751e-01
5 1 1 7.360804e+00 3.761695e+00 1.548867e+01 -1 -1 0 -4.732273e-01 5.343248e-01 -8.531618e-02 6.951792e-01
6 1 2 8.002594e+00 4.285681e+00 1.486966e+01 -1 -1 0 -3.360430e-02 -4.705050e-01 -3.074934e-01 -8.264040e-01
7 1 4 8.255523e+00 4.740804e+00 1.502644e+01 -1 -1 0 -3.385257e-01 4.649430e-01 -2.117466e-02 8.177897e-01
8 1 1 8.642168e+00 4.894780e+00 1.355864e+01 -1 -1 0 -5.165236e-01 -3.554391e-01 -7.163171e-01 -3.061964e-01
9 1 1 9.750183e+00 4.426531e+00 1.373569e+01 -1 -1 0 -7.953452e-01 -5.073507e-01 -2.277877e-01 -2.411102e-01
10 1 4 1.012343e+01 4.073023e+00 1.358171e+01 -1 -1 0 -6.618816e-01 -5.599365e-01 -1.255126e-01 -4.823179e-01
11 1 1 1.053752e+01 3.951993e+00 1.344008e+01 -1 -1 0 -4.964145e-01 -5.449005e-01 2.379189e-01 -6.324956e-01
12 1 1 1.093642e+01 3.682813e+00 1.358803e+01 -1 -1 0 2.982924e-01 5.223847e-01 -2.105010e-01 7.706006e-01
13 1 3 1.138475e+01 3.640433e+00 1.387306e+01 -1 -1 0 6.218600e-02 3.542626e-01 -3.374549e-01 8.699167e-01
14 1 4 1.164644e+01 3.608144e+00 1.441174e+01 -1 -1 0 -2.165293e-01 1.690016e-01 -3.721266e-01 8.866089e-01
15 1 4 1.158121e+01 3.538790e+00 1.488495e+01 -1 -1 0 4.840997e-01 -1.589143e-03 2.606392e-01 -8.352917e-01
16 1 2 1.148465e+01 3.358816e+00 1.535690e+01 -1 -1 0 6.481989e-01 1.223251e-01 2.841923e-01 -6.957798e-01
17 1 1 1.129985e+01 3.128231e+00 1.573179e+01 -1 -1 0 -7.344883e-01 -2.717159e-01 -1.804407e-01 5.950954e-01
18 1 2 1.094174e+01 2.740505e+00 1.600708e+01 -1 -1 0 -8.977646e-01 -3.021064e-01 -7.646858e-02 3.112925e-01
19 1 3 1.076890e+01 2.235092e+00 1.613922e+01 -1 -1 0 -9.350120e-01 -3.488313e-01 2.666669e-02 5.794967e-02
20 1 1 1.083118e+01 1.684473e+00 1.641264e+01 -1 -1 0 -8.853909e-01 -4.329756e-01 -2.710251e-02 -1.669747e-01
21 1 4 1.111935e+01 1.207566e+00 1.647627e+01 -1 -1 0 7.681075e-01 3.580502e-01 -1.699784e-01 5.029098e-01
22 1 1 1.157225e+01 9.621243e-01 1.664925e+01 -1 -1 0 5.452218e-01 4.033856e-01 -1.687221e-01 7.152245e-01
23 1 4 1.201223e+01 8.505611e-01 1.695232e+01 -1 -1 0 2.374519e-01 2.593500e-01 -2.697188e-01 8.964407e-01
24 1 3 1.233000e+01 9.148329e-01 1.739298e+01 -1 -1 0 -1.074431e-02 2.129539e-01 -2.133256e-01 9.534293e-01
25 1 3 1.249371e+01 8.635565e-01 1.794133e+01 -1 -1 0 -1.812120e-01 -5.908259e-03 -2.217610e-01 9.580967e-01
26 1 4 1.234736e+01 7.800470e-01 1.848171e+01 -1 -1 0 -4.022923e-01 -1.564109e-01 -2.941668e-01 8.527382e-01
27 1 4 1.201832e+01 6.664467e-01 1.884696e+01 -1 -1 0 -7.017333e-01 -2.291594e-01 -2.135284e-01 6.398922e-01
28 1 1 1.177166e+01 3.163470e-01 1.910413e+01 -1 -1 0 -8.982665e-01 -2.665536e-01 -1.066551e-01 3.327029e-01
29 1 1 1.166070e+01 -1.419285e-01 1.942683e+01 -1 -1 0 -9.230098e-01 -3.414900e-01 -1.634630e-01 6.868301e-02
30 1 4 1.188033e+01 -7.456558e-01 1.958541e+01 -1 -1 0 9.074678e-01 3.323166e-01 7.434807e-02 2.460493e-01
31 1 4 1.207949e+01 -1.072402e+00 1.992157e+01 -1 -1 0 8.185975e-01 4.187212e-01 1.835447e-01 3.476810e-01
32 1 3 1.250177e+01 -1.321361e+00 -2.007798e+01 -1 -1 1 6.345702e-01 4.700049e-01 3.763102e-02 6.123723e-01
33 1 3 1.298925e+01 -1.445692e+00 -1.977614e+01 -1 -1 1 3.758678e-01 3.805579e-01 -8.317555e-02 8.408215e-01
34 1 1 1.336641e+01 -1.407952e+00 -1.946552e+01 -1 -1 1 9.767470e-02 2.884970e-01 -1.424413e-01 9.417747e-01
35 1 2 1.370670e+01 -1.212834e+00 -1.901523e+01 -1 -1 1 -2.086238e-01 2.020425e-01 -5.586864e-02 9.552663e-01
36 1 2 1.380231e+01 -9.805073e-01 -1.859696e+01 -1 -1 1 -5.477569e-01 1.552225e-01 -6.520416e-02 8.195222e-01
37 1 1 1.381357e+01 -9.617208e-01 -1.796871e+01 -1 -1 1 -7.011032e-01 5.704384e-02 -2.219880e-01 6.752197e-01
38 1 1 1.368917e+01 -1.201617e+00 -1.746714e+01 -1 -1 1 -8.899538e-01 -4.824870e-03 -2.540370e-01 3.787138e-01
39 1 4 1.376455e+01 -1.598030e+00 -1.708476e+01 -1 -1 1 9.498972e-01 5.400443e-02 2.979905e-01 -7.733300e-02
40 1 4 1.407305e+01 -1.883128e+00 -1.679892e+01 -1 -1 1 9.199313e-01 1.786443e-01 3.234142e-01 1.312093e-01
41 1 2 1.442660e+01 -2.183262e+00 -1.661909e+01 -1 -1 1 8.470253e-01 2.339933e-01 2.837541e-01 3.837692e-01
42 1 4 1.496827e+01 -2.343021e+00 -1.640769e+01 -1 -1 1 6.858489e-01 2.189374e-01 2.078884e-01 6.621632e-01
43 1 3 1.541738e+01 -2.240846e+00 -1.624282e+01 -1 -1 1 4.606107e-01 3.371052e-01 2.455059e-01 7.835335e-01
44 1 2 1.585878e+01 -2.035121e+00 -1.594633e+01 -1 -1 1 2.785055e-01 2.427129e-01 2.217638e-01 9.024112e-01
45 1 1 1.623251e+01 -1.741922e+00 -1.562356e+01 -1 -1 1 1.108458e-03 2.109786e-01 1.008094e-01 9.722779e-01
46 1 3 1.628660e+01 -1.398601e+00 -1.522711e+01 -1 -1 1 -2.675042e-01 1.531310e-01 6.585268e-02 9.490289e-01
47 1 4 1.611413e+01 -1.114173e+00 -1.479469e+01 -1 -1 1 -6.532270e-01 1.974851e-01 -9.311097e-03 7.308950e-01
48 1 1 1.602879e+01 -1.008549e+00 -1.430224e+01 -1 -1 1 8.186847e-01 -1.095878e-01 1.100342e-01 -5.528456e-01
49 1 4 1.605981e+01 -1.050614e+00 -1.371490e+01 -1 -1 1 8.834923e-01 -1.166412e-01 2.632320e-01 -3.695200e-01
50 1 4 1.621861e+01 -1.260139e+00 -1.328392e+01 -1 -1 1 9.460582e-01 2.652673e-02 3.075990e-01 -9.825016e-02
51 1 4 1.641818e+01 -1.511305e+00 -1.290251e+01 -1 -1 1 9.311534e-01 1.440570e-01 3.274794e-01 -7.041362e-02
52 1 1 1.676616e+01 -1.908871e+00 -1.263823e+01 -1 -1 1 8.696251e-01 1.951032e-01 3.397006e-01 3.004837e-01
53 1 3 1.715615e+01 -2.143352e+00 -1.257999e+01 -1 -1 1 7.096724e-01 3.733999e-01 2.528868e-01 5.412817e-01
54 1 4 1.770129e+01 -2.076587e+00 -1.239123e+01 -1 -1 1 4.559046e-01 3.205986e-01 1.526743e-01 8.161238e-01
55 1 4 1.813784e+01 -1.810116e+00 -1.221594e+01 -1 -1 1 1.906630e-01 3.425463e-01 4.855772e-02 9.186685e-01
56 1 4 1.838032e+01 -1.471017e+00 -1.192106e+01 -1 -1 1 -4.042734e-02 3.315324e-01 1.436912e-01 9.315604e-01
57 1 1 1.853701e+01 -1.069783e+00 -1.162439e+01 -1 -1 1 -3.593951e-01 2.780950e-01 9.194454e-02 8.860274e-01
58 1 1 1.853301e+01 -7.767164e-01 -1.116810e+01 -1 -1 1 -6.229590e-01 2.451884e-01 -6.382527e-02 7.400886e-01
59 1 3 1.869247e+01 -5.952101e-01 -1.062597e+01 -1 -1 1 7.644599e-01 -1.500236e-01 1.997606e-01 -5.942976e-01
60 1 4 1.871684e+01 -7.298997e-01 -1.014843e+01 -1 -1 1 8.943200e-01 -1.129976e-01 3.017558e-01 -3.104300e-01
61 1 2 1.899847e+01 -9.796878e-01 -9.735952e+00 -1 -1 1 9.309700e-01 3.994846e-02 3.627111e-01 -1.181455e-02
62 1 3 1.929780e+01 -1.215407e+00 -9.435421e+00 -1 -1 1 9.001742e-01 1.783031e-01 3.784128e-01 1.212362e-01
63 1 2 1.977027e+01 -1.507723e+00 -9.394936e+00 -1 -1 1 7.991592e-01 3.184015e-01 3.442004e-01 3.761530e-01
64 1 4 -1.965304e+01 -1.674888e+00 -9.411475e+00 0 -1 1 6.041317e-01 3.384091e-01 2.963200e-01 6.577983e-01
65 1 2 -1.912397e+01 -1.598842e+00 -9.373810e+00 0 -1 1 4.005211e-01 3.901716e-01 1.789858e-01 8.095140e-01
66 1 1 -1.866187e+01 -1.320742e+00 -9.216774e+00 0 -1 1 5.806123e-02 4.351388e-01 1.482365e-01 8.861766e-01
67 1 2 -1.836544e+01 -1.038664e+00 -8.835524e+00 0 -1 1 -1.727288e-01 3.651376e-01 -1.932534e-03 9.147872e-01
68 1 1 -1.821171e+01 -6.733795e-01 -8.381410e+00 0 -1 1 -4.409910e-01 3.484034e-01 -1.433100e-01 8.146191e-01
69 1 1 -1.807117e+01 -5.729868e-01 -7.869693e+00 0 -1 1 -6.228662e-01 1.884746e-01 -1.014834e-01 7.524734e-01
70 1 2 -1.809837e+01 -6.342501e-01 -7.292122e+00 0 -1 1 8.264970e-01 -6.346138e-02 1.495529e-01 -5.389891e-01
71 1 3 -1.812330e+01 -8.046682e-01 -6.803854e+00 0 -1 1 9.280787e-01 5.467146e-02 2.498237e-01 -2.706827e-01
72 1 4 -1.794432e+01 -1.220274e+00 -6.377955e+00 0 -1 1 9.477093e-01 1.222343e-01 2.817300e-01 -8.679950e-02
73 1 1 -1.776992e+01 -1.640825e+00 -6.145216e+00 0 -1 1 9.349776e-01 1.857209e-01 2.171004e-01 2.102190e-01
74 1 1 -1.737174e+01 -1.876735e+00 -5.908166e+00 0 -1 1 8.063378e-01 3.503729e-01 2.379757e-01 4.128265e-01
75 1 3 -1.681200e+01 -2.005965e+00 -5.970635e+00 0 -1 1 4.996495e-01 4.840517e-01 1.322515e-01 7.060834e-01
76 1 1 -1.632493e+01 -1.949587e+00 -5.756396e+00 0 -1 1 3.381518e-01 4.261577e-01 1.556668e-01 8.245064e-01
77 1 4 -1.594836e+01 -1.649566e+00 -5.546845e+00 0 -1 1 1.782597e-02 4.225814e-01 -4.142040e-02 9.052025e-01
78 1 1 -1.564606e+01 -1.515435e+00 -5.193075e+00 0 -1 1 -1.967163e-01 3.707845e-01 -7.396543e-02 9.046274e-01
79 1 4 -1.549204e+01 -1.276314e+00 -4.705727e+00 0 -1 1 -4.169399e-01 2.878568e-01 -1.380118e-01 8.510302e-01
80 1 2 -1.473446e+01 -6.116307e-01 -5.041998e+00 0 -1 1 7.288457e-01 6.217850e-01 2.297563e-01 -1.714041e-01
81 1 4 -1.380285e+01 -3.553510e-01 -5.110097e+00 0 -1 1 8.686738e-01 5.698211e-02 3.962672e-01 2.917724e-01
82 1 4 -1.313407e+01 -2.252729e-01 -4.137566e+00 0 -1 1 9.350766e-01 -1.963055e-02 -3.043135e-01 1.806643e-01
83 1 4 -1.320858e+01 -3.656285e-01 -3.689231e+00 0 -1 1 -6.469218e-01 2.833871e-01 3.586294e-01 -6.103842e-01
84 1 4 -1.273181e+01 -1.157829e+00 -4.435466e+00 0 -1 1 -6.210857e-01 -6.050557e-01 -1.964143e-01 4.578008e-01
85 1 1 -1.172354e+01 -1.355471e+00 -4.303721e+00 0 -1 1 1.856197e-01 -7.762438e-01 2.338536e-01 5.552507e-01
86 1 1 -1.228217e+01 -2.703213e+00 -3.908629e+00 0 -1 1 -5.297343e-02 5.798959e-02 9.859546e-01 1.473926e-01
87 1 3 -1.141622e+01 -2.846036e+00 -4.160658e+00 0 -1 1 -3.921853e-01 -8.369454e-02 8.262905e-01 3.955122e-01
88 1 2 -1.050280e+01 -2.767930e+00 -4.875126e+00 0 -1 1 -8.399384e-01 -1.705776e-01 -1.922870e-01 -4.779461e-01
89 1 2 -1.005162e+01 -2.855172e+00 -4.650876e+00 0 -1 1 5.166208e-01 1.666500e-01 -7.473755e-02 8.365077e-01
90 1 3 -9.686876e+00 -2.770122e+00 -4.329773e+00 0 -1 1 -1.053842e-01 -1.711683e-01 1.679945e-01 -9.650769e-01
91 1 3 -9.524050e+00 -2.684420e+00 -3.890467e+00 0 -1 1 -3.857384e-01 9.323461e-02 -7.172094e-02 9.150788e-01
92 1 2 -8.823652e+00 -1.557623e+00 -3.994875e+00 0 -1 1 -1.704216e-01 8.707148e-01 2.591510e-01 3.816450e-01
93 1 1 -8.857196e+00 -2.004064e+00 -3.580426e+00 0 -1 1 2.873357e-01 5.654375e-01 -7.714253e-01 5.120299e-02
94 1 2 -1.014167e+01 -1.484170e+00 -3.036513e+00 0 -1 1 3.660290e-01 -5.124607e-01 -7.596560e-01 -1.622639e-01
95 1 3 -1.015546e+01 -4.449646e-01 -3.835288e+00 0 -1 1 1.299337e-01 -6.741305e-01 -4.692320e-01 5.554157e-01
96 1 2 -9.107990e+00 -3.505117e-01 -3.433964e+00 0 -1 1 4.626813e-01 -7.565704e-01 2.322324e-01 3.994939e-01
97 1 2 -8.960882e+00 1.472645e-01 -3.469491e+00 0 -1 1 2.907496e-01 -5.196450e-01 5.459673e-01 5.893670e-01
98 1 4 -8.851823e+00 5.615888e-01 -3.814285e+00 0 -1 1 -1.084561e-03 -2.740798e-01 7.299806e-01 6.261049e-01
99 1 2 -8.853733e+00 1.330718e+00 -3.244955e+00 0 -1 1 6.980165e-01 -4.372695e-01 -5.663854e-01 2.785521e-02
100 1 1 -8.815412e+00 5.185908e-01 -4.607217e+00 0 -1 1 5.815044e-01 5.769916e-01 -2.048872e-01 -5.356814e-01
101 2 4 -1.863529e+01 -9.827738e+00 -4.746209e+00 0 -1 1 -8.667209e-02 3.536663e-01 8.941169e-01 -2.606973e-01
102 2 3 -1.831131e+01 -1.063741e+01 -4.744586e+00 0 -1 1 -4.639036e-01 -2.141765e-01 -5.874631e-01 6.275420e-01
103 2 1 -1.845409e+01 -1.110823e+01 -4.613465e+00 0 -1 1 6.570473e-01 4.533597e-01 4.002655e-01 -4.500459e-01
104 2 3 -1.790462e+01 -1.114939e+01 -3.534052e+00 0 -1 1 5.813061e-01 -6.282561e-01 5.067476e-01 1.028804e-01
105 2 3 -1.750465e+01 -1.092623e+01 -3.508245e+00 0 -1 1 5.077781e-01 -3.671934e-01 6.960912e-01 3.504103e-01
106 2 2 -1.782337e+01 -1.015448e+01 -3.835458e+00 0 -1 1 -7.829763e-01 -3.845598e-01 -4.885417e-01 1.972188e-02
107 2 3 -1.749211e+01 -8.948355e+00 -3.286012e+00 0 -1 1 3.834536e-01 -8.305531e-01 -1.722364e-01 3.653483e-01
108 2 4 -1.778423e+01 -8.568100e+00 -3.530416e+00 0 -1 1 3.382944e-01 -8.995627e-01 2.169472e-02 2.754510e-01
109 2 3 -1.772965e+01 -8.167881e+00 -3.684854e+00 0 -1 1 -1.923905e-01 7.476984e-01 -4.538338e-01 -4.449358e-01
110 2 2 -1.860362e+01 -7.534165e+00 -2.993997e+00 0 -1 1 2.704153e-01 -3.267227e-01 -6.551289e-01 -6.252471e-01
111 2 2 -1.878442e+01 -6.985572e+00 -3.085409e+00 0 -1 1 -4.726539e-01 5.404546e-01 3.615334e-01 5.948115e-01
112 2 3 -1.805387e+01 -6.585527e+00 -3.991195e+00 0 -1 1 2.972340e-01 5.963695e-01 -5.512757e-01 -5.020861e-01
113 2 3 -1.787467e+01 -5.497213e+00 -3.117816e+00 0 -1 1 -4.129088e-01 7.858599e-01 2.937623e-02 -4.594209e-01
114 2 2 -1.809214e+01 -5.074641e+00 -3.173301e+00 0 -1 1 -1.996333e-01 7.757644e-01 -2.492204e-01 -5.442658e-01
115 2 4 -1.726913e+01 -5.269500e+00 -3.117824e+00 0 -1 1 -5.443492e-01 5.168407e-01 -3.073155e-01 -5.849075e-01
116 2 4 -1.769947e+01 -4.817151e+00 -2.626957e+00 0 -1 1 4.864109e-01 -4.506844e-01 -1.515487e-01 -7.330218e-01
117 2 1 -1.767273e+01 -4.384308e+00 -2.280828e+00 0 -1 1 6.884874e-01 -3.276216e-01 -8.655413e-02 -6.412157e-01
118 2 1 -1.792498e+01 -3.727462e+00 -2.330651e+00 0 -1 1 -6.071050e-01 1.990818e-01 6.210041e-01 4.540306e-01
119 2 1 -1.750507e+01 -3.086446e+00 -2.987904e+00 0 -1 1 6.011024e-03 -6.538083e-01 5.406973e-02 -7.547019e-01
120 2 1 -1.727156e+01 -3.514481e+00 -4.525687e+00 0 -1 1 -5.304857e-01 3.936875e-02 -6.715369e-01 -5.158229e-01
121 2 3 -1.687625e+01 -3.108042e+00 -4.697571e+00 0 -1 1 2.576517e-01 1.408383e-01 6.364617e-01 7.132297e-01
122 2 1 -1.607138e+01 -2.331331e+00 -4.476287e+00 0 -1 1 -4.561393e-01 7.491906e-01 2.986403e-01 -3.761175e-01
123 2 4 -1.637860e+01 -1.906046e+00 -4.386869e+00 0 -1 1 -2.589739e-01 8.527966e-01 5.216301e-02 -4.504991e-01
124 2 1 -1.667104e+01 -1.477352e+00 -4.588189e+00 0 -1 1 -1.504734e-01 8.675447e-01 -2.173685e-01 -4.212776e-01
125 2 4 -1.673164e+01 -1.117911e+00 -4.984716e+00 0 -1 1 -1.463253e-01 7.796526e-01 -4.903676e-01 -3.609299e-01
126 2 2 -1.667361e+01 -8.486169e-01 -5.471888e+00 0 -1 1 4.817707e-02 5.870346e-01 -7.370698e-01 -3.313570e-01
127 2 4 -1.676659e+01 -7.971359e-01 -6.039324e+00 0 -1 1 1.519521e-01 5.037295e-01 -8.245594e-01 -2.080120e-01
128 2 4 -1.685735e+01 -9.553732e-01 -6.564110e+00 0 -1 1 2.428026e-01 3.430386e-01 -8.966717e-01 -1.391086e-01
129 2 1 -1.699888e+01 -1.124907e+00 -7.050241e+00 0 -1 1 3.029378e-01 1.196110e-01 -9.454690e-01 -3.216758e-03
130 2 2 -1.721366e+01 -1.480541e+00 -7.346677e+00 0 -1 1 2.455188e-01 -2.907030e-01 -9.204266e-01 8.959368e-02
131 2 3 -1.768609e+01 -1.719726e+00 -7.525740e+00 0 -1 1 2.105752e-01 -5.519132e-01 -7.822415e-01 1.978589e-01
132 2 4 -1.821562e+01 -1.723161e+00 -7.668166e+00 0 -1 1 -2.822849e-01 7.164213e-01 5.368782e-01 -3.446992e-01
133 2 4 -1.867891e+01 -1.627032e+00 -7.832000e+00 0 -1 1 -2.304625e-01 8.262825e-01 3.388633e-01 -3.864141e-01
134 2 3 -1.913291e+01 -1.377825e+00 -8.006457e+00 0 -1 1 -7.331530e-02 9.038721e-01 1.138975e-01 -4.057924e-01
135 2 4 -1.949484e+01 -1.045177e+00 -8.398960e+00 0 -1 1 7.080207e-02 -9.303737e-01 7.200666e-02 3.524301e-01
136 2 3 -1.964048e+01 -6.510726e-01 -8.779533e+00 0 -1 1 -7.860785e-02 -8.418071e-01 4.165286e-01 3.341938e-01
137 2 1 -1.970865e+01 -4.563401e-01 -9.247189e+00 0 -1 1 2.182790e-01 6.973954e-01 -6.320719e-01 -2.578355e-01
138 2 3 -1.966742e+01 -5.166881e-01 -9.805132e+00 0 -1 1 3.144432e-01 4.225351e-01 -8.243439e-01 -2.074769e-01
139 2 2 -1.986907e+01 -7.729990e-01 -1.018020e+01 0 -1 1 3.248490e-01 1.746033e-01 -9.287379e-01 3.785185e-02
140 2 3 1.986914e+01 -1.133090e+00 -1.052748e+01 -1 -1 1 3.854876e-01 4.144411e-02 -9.071289e-01 1.637035e-01
141 2 1 1.948993e+01 -1.499707e+00 -1.061772e+01 -1 -1 1 3.460187e-01 -2.660182e-01 -8.344545e-01 3.364386e-01
142 2 2 1.901955e+01 -1.742313e+00 -1.077199e+01 -1 -1 1 3.028366e-01 -5.600618e-01 -7.098888e-01 3.011289e-01
143 2 4 1.845057e+01 -1.899131e+00 -1.079879e+01 -1 -1 1 -2.404755e-01 6.720322e-01 5.480426e-01 -4.361119e-01
144 2 4 1.793527e+01 -1.786914e+00 -1.085841e+01 -1 -1 1 7.011304e-02 -8.539024e-01 -2.729209e-01 4.375488e-01
145 2 1 1.749144e+01 -1.753501e+00 -1.121419e+01 -1 -1 1 1.303324e-01 -9.244084e-01 -1.618887e-01 3.198040e-01
146 2 1 1.724560e+01 -1.424141e+00 -1.152318e+01 -1 -1 1 1.125798e-01 -9.455537e-01 1.391456e-01 2.718318e-01
147 2 1 1.722026e+01 -1.088925e+00 -1.199737e+01 -1 -1 1 -2.893966e-02 -8.727871e-01 4.305739e-01 2.280598e-01
148 2 2 1.746398e+01 -1.030388e+00 -1.246372e+01 -1 -1 1 -8.781266e-02 -6.147611e-01 7.530593e-01 2.173925e-01
149 2 4 1.753325e+01 -1.063518e+00 -1.298881e+01 -1 -1 1 1.797108e-01 3.453673e-01 -9.088739e-01 -1.495787e-01
150 2 1 1.738973e+01 -1.092630e+00 -1.357462e+01 -1 -1 1 3.384100e-01 1.802093e-01 -9.208168e-01 -7.141173e-02
151 2 1 1.718370e+01 -1.440211e+00 -1.390524e+01 -1 -1 1 2.436432e-01 -1.257268e-01 -9.473614e-01 1.653396e-01
152 2 1 1.681894e+01 -1.924243e+00 -1.410888e+01 -1 -1 1 1.958736e-01 -3.369323e-01 -8.929761e-01 2.251752e-01
153 2 4 1.643929e+01 -2.135435e+00 -1.442828e+01 -1 -1 1 2.352124e-01 -5.155874e-01 -7.852270e-01 2.495262e-01
154 2 1 1.589092e+01 -2.187333e+00 -1.445562e+01 -1 -1 1 1.061466e-01 -7.914886e-01 -5.276391e-01 2.896130e-01
155 2 2 1.547255e+01 -2.064679e+00 -1.476119e+01 -1 -1 1 1.381663e-01 -9.059773e-01 -2.745562e-01 2.910912e-01
156 2 4 1.513561e+01 -1.757168e+00 -1.507762e+01 -1 -1 1 1.025570e-01 -9.565996e-01 3.496075e-02 2.705127e-01
157 2 3 1.504500e+01 -1.371694e+00 -1.539753e+01 -1 -1 1 8.454398e-02 -8.849060e-01 3.657166e-01 2.757626e-01
158 2 2 1.486072e+01 -1.178104e+00 -1.590202e+01 -1 -1 1 -2.839756e-02 -8.334757e-01 5.316882e-01 1.477141e-01
159 2 1 1.500655e+01 -1.087645e+00 -1.635840e+01 -1 -1 1 -8.101959e-02 -6.411447e-01 7.560112e-01 1.040022e-01
160 2 3 1.508892e+01 -1.243560e+00 -1.688933e+01 -1 -1 1 1.965008e-01 3.950803e-01 -8.956925e-01 -5.508141e-02
161 2 1 1.492490e+01 -1.381278e+00 -1.737991e+01 -1 -1 1 2.876914e-01 2.109814e-01 -9.341934e-01 -1.782692e-03
162 2 1 1.469926e+01 -1.787266e+00 -1.776750e+01 -1 -1 1 3.142537e-01 -1.132883e-01 -9.420828e-01 2.983809e-02
163 2 4 1.433545e+01 -1.997873e+00 -1.808297e+01 -1 -1 1 3.591499e-01 -3.435304e-01 -8.524055e-01 1.624903e-01
164 2 4 1.377377e+01 -2.119432e+00 -1.814491e+01 -1 -1 1 3.260944e-01 -6.522181e-01 -6.145837e-01 3.009334e-01
165 2 3 1.322203e+01 -1.954043e+00 -1.829650e+01 -1 -1 1 2.747164e-01 -8.198844e-01 -4.060203e-01 2.957499e-01
166 2 3 1.278486e+01 -1.668940e+00 -1.842935e+01 -1 -1 1 2.393367e-01 -9.057949e-01 -9.936275e-02 3.352322e-01
167 2 4 1.247731e+01 -1.274041e+00 -1.869124e+01 -1 -1 1 3.314912e-01 -8.818264e-01 1.208004e-01 3.128946e-01
168 2 2 1.235235e+01 -8.135687e-01 -1.900244e+01 -1 -1 1 2.148135e-01 -8.776883e-01 3.473698e-01 2.507045e-01
169 2 2 1.262939e+01 -3.515219e-01 -1.940907e+01 -1 -1 1 1.208876e-01 -7.576405e-01 5.478833e-01 3.334530e-01
170 2 1 1.273708e+01 -1.210409e-01 -1.981555e+01 -1 -1 1 9.853098e-02 -5.155932e-01 8.154687e-01 2.438567e-01
171 2 1 1.291271e+01 -7.923248e-02 1.960337e+01 -1 -1 0 4.429098e-02 2.965482e-01 -9.314827e-01 -2.060036e-01
172 2 4 1.284932e+01 -2.060703e-01 1.909509e+01 -1 -1 0 1.571214e-01 1.139657e-02 -9.759845e-01 -1.504570e-01
173 2 4 1.255810e+01 -3.512579e-01 1.857723e+01 -1 -1 0 2.350062e-01 -3.278773e-01 -9.083459e-01 -1.103463e-01
174 2 1 1.210613e+01 -3.489594e-01 1.822237e+01 -1 -1 0 3.013883e-01 -6.203498e-01 -7.196590e-01 -8.013802e-02
175 2 1 1.171361e+01 -7.559647e-02 1.795625e+01 -1 -1 0 4.206237e-01 -7.813377e-01 -4.602855e-01 -2.691264e-02
176 2 2 1.143616e+01 3.927179e-01 1.788209e+01 -1 -1 0 4.788534e-01 -8.458329e-01 -2.288543e-01 5.377611e-02
177 2 2 1.124807e+01 8.939966e-01 1.788352e+01 -1 -1 0 3.187137e-01 -9.236346e-01 5.706192e-02 2.050969e-01
178 2 1 1.122206e+01 1.383452e+00 1.766211e+01 -1 -1 0 1.201582e-01 -8.941781e-01 3.531306e-01 2.476013e-01
179 2 4 1.154562e+01 1.685457e+00 1.755949e+01 -1 -1 0 2.298036e-01 -6.414198e-01 6.207592e-01 3.878518e-01
180 2 1 1.175803e+01 1.964030e+00 1.718160e+01 -1 -1 0 1.989852e-01 -3.830256e-01 8.523404e-01 2.953170e-01
181 2 4 1.189967e+01 2.141841e+00 1.665972e+01 -1 -1 0 -3.113873e-02 1.988542e-01 -9.302154e-01 -3.068985e-01
182 2 2 1.195552e+01 2.053938e+00 1.610440e+01 -1 -1 0 4.843828e-03 -1.087186e-01 -9.516290e-01 -2.873310e-01
183 2 3 1.194927e+01 2.189392e+00 1.555838e+01 -1 -1 0 1.415149e-01 -2.280730e-01 -9.477890e-01 -1.721981e-01
184 2 4 1.164918e+01 2.125591e+00 1.512138e+01 -1 -1 0 2.426840e-01 -5.320393e-01 -8.035028e-01 -1.114533e-01
185 2 3 1.138872e+01 2.355344e+00 1.475287e+01 -1 -1 0 3.575650e-01 -6.283903e-01 -6.907454e-01 -1.198345e-02
186 2 1 1.093126e+01 2.565580e+00 1.456533e+01 -1 -1 0 3.927008e-01 -8.001692e-01 -4.517173e-01 3.829841e-02
187 2 1 1.063022e+01 3.013182e+00 1.452549e+01 -1 -1 0 5.098128e-01 -8.105356e-01 -2.489507e-01 1.454181e-01
188 2 2 1.046297e+01 3.465118e+00 1.461603e+01 -1 -1 0 4.905631e-01 -8.004262e-01 5.311973e-02 3.403588e-01
189 2 4 1.047771e+01 3.920573e+00 1.468501e+01 -1 -1 0 4.311434e-01 -7.094383e-01 3.614783e-01 4.244363e-01
190 2 4 1.062682e+01 4.421626e+00 1.451813e+01 -1 -1 0 -2.364654e-01 6.033604e-01 -5.928794e-01 -4.780527e-01
191 2 1 1.075395e+01 4.936337e+00 1.412252e+01 -1 -1 0 -8.702724e-03 -4.582837e-01 7.417206e-01 4.896436e-01
192 2 4 1.071070e+01 5.212632e+00 1.367900e+01 -1 -1 0 -2.365576e-01 -2.270385e-01 7.987875e-01 5.044131e-01
193 2 4 1.042733e+01 5.237429e+00 1.326039e+01 -1 -1 0 -3.551085e-01 1.275744e-01 8.262357e-01 4.182791e-01
194 2 1 1.003736e+01 5.565110e+00 1.307112e+01 -1 -1 0 5.274338e-01 -1.644596e-01 -7.470955e-01 -3.696147e-01
195 2 3 1.006083e+01 6.836392e+00 1.338665e+01 -1 -1 0 -4.454349e-01 7.892079e-01 3.387257e-01 -2.529893e-01
196 2 4 1.065965e+01 7.163931e+00 1.401144e+01 -1 -1 0 -2.200097e-02 -8.071534e-01 2.046663e-01 -5.532912e-01
197 2 2 1.099240e+01 7.305326e+00 1.400686e+01 -1 -1 0 -3.875607e-01 7.357978e-01 -5.083306e-01 2.236029e-01
198 2 4 1.145518e+01 7.403865e+00 1.409072e+01 -1 -1 0 5.050247e-01 -4.420943e-01 7.336166e-01 -1.063453e-01
199 2 3 1.104786e+01 8.588609e+00 1.393502e+01 -1 -1 0 2.151854e-01 5.513722e-01 -2.738177e-01 -7.580948e-01
200 2 4 1.157177e+01 8.502161e+00 1.474052e+01 -1 -1 0 -2.966827e-01 6.210289e-01 3.200846e-01 6.510363e-01
