ITEM: TIMESTEP
80000000
ITEM: NUMBER OF ATOMS
200
ITEM: BOX BOUNDS pp pp pp
-2.0000000000000000e+01 2.0000000000000000e+01
-2.0000000000000000e+01 2.0000000000000000e+01
-2.0000000000000000e+01 2.0000000000000000e+01
ITEM: ATOMS id mol type x y z ix iy iz c_quat[1] c_quat[2] c_quat[3] c_quat[4]
1 1 1 1.188541e+01 -3.012960e+00 4.915641e+00 -1 -1 0 6.541179e-01 5.726959e-01 -4.866973e-01 8.529288e-02
2 1 2 1.187357e+01 -2.213910e+00 5.246375e+00 -1 -1 0 4.287442e-01 8.864316e-01 -8.748169e-02 -1.508788e-01
3 1 1 1.221498e+01 -1.830505e+00 5.471943e+00 -1 -1 0 -5.116866e-01 -3.186859e-01 -5.119138e-01 -6.120134e-01
4 1 3 1.271003e+01 -1.556060e+00 5.382185e+00 -1 -1 0 2.218092e-01 3.969110e-01 2.993534e-01 8.388384e-01
5 1 1 1.306967e+01 -1.192042e+00 5.478664e+00 -1 -1 0 -7.660970e-02 4.435950e-01 1.765356e-01 8.753226e-01
6 1 2 1.337091e+01 -8.840714e-01 5.774642e+00 -1 -1 0 -2.208249e-01 3.191083e-01 2.360013e-01 8.909039e-01
7 1 4 1.344562e+01 -4.970049e-01 6.145090e+00 -1 -1 0 5.101817e-01 -3.228688e-01 -3.384643e-02 -7.964451e-01
8 1 1 1.334282e+01 -2.367227e-01 6.573605e+00 -1 -1 0 6.977813e-01 -3.123039e-01 3.564319e-02 -6.436591e-01
9 1 1 1.333368e+01 -1.877495e-01 7.108628e+00 -1 -1 0 8.513940e-01 -1.875830e-01 1.386405e-01 -4.698082e-01
10 1 4 1.331315e+01 -5.138773e-01 7.597934e+00 -1 -1 0 -9.789056e-01 1.260360e-01 -1.578220e-01 3.083809e-02
11 1 1 1.364523e+01 -5.524157e-01 8.084286e+00 -1 -1 0 -9.123960e-01 1.191998e-01 -3.164544e-01 -2.306113e-01
12 1 1 1.405206e+01 -7.166629e-01 8.283168e+00 -1 -1 0 7.643783e-01 1.690445e-01 3.729666e-01 4.980418e-01
13 1 3 1.452444e+01 -5.662842e-01 8.470794e+00 -1 -1 0 5.654895e-01 1.132154e-01 4.321439e-01 6.932932e-01
14 1 4 1.495406e+01 -2.284070e-01 8.526772e+00 -1 -1 0 2.885273e-01 1.912759e-01 4.164168e-01 8.406917e-01
15 1 4 1.519893e+01 2.547026e-01 8.531725e+00 -1 -1 0 4.099257e-02 -3.132351e-01 -3.273389e-01 -8.905350e-01
16 1 2 1.537329e+01 7.219642e-01 8.673352e+00 -1 -1 0 2.865482e-01 -3.443917e-01 -2.809484e-01 -8.487358e-01
17 1 1 1.518747e+01 1.127254e+00 8.997087e+00 -1 -1 0 -6.144517e-01 3.345024e-01 1.622860e-01 6.958595e-01
18 1 2 1.513316e+01 1.345315e+00 9.469123e+00 -1 -1 0 -8.407755e-01 2.976680e-01 1.016507e-02 4.520918e-01
19 1 3 1.516350e+01 1.472229e+00 9.996273e+00 -1 -1 0 -8.838919e-01 2.401952e-01 -1.471515e-01 3.733468e-01
20 1 1 1.525230e+01 1.339759e+00 1.051565e+01 -1 -1 0 -9.499855e-01 8.490785e-03 -2.022490e-01 2.378043e-01
21 1 4 1.547260e+01 1.017626e+00 1.087516e+01 -1 -1 0 9.546071e-01 7.269722e-02 2.654917e-01 1.138179e-01
22 1 1 1.578983e+01 7.746477e-01 1.119182e+01 -1 -1 0 8.684892e-01 1.623250e-01 2.170109e-01 4.150703e-01
23 1 4 1.623829e+01 7.080141e-01 1.145408e+01 -1 -1 0 6.487095e-01 1.581655e-01 2.587650e-01 6.979974e-01
24 1 3 1.671723e+01 9.168709e-01 1.156317e+01 -1 -1 0 3.467585e-01 2.822375e-01 2.020255e-01 8.713703e-01
25 1 3 1.699588e+01 1.221542e+00 1.185131e+01 -1 -1 0 8.885801e-02 2.189161e-01 2.383644e-01 9.419992e-01
26 1 4 1.712977e+01 1.732076e+00 1.208042e+01 -1 -1 0 -2.781447e-01 2.867880e-01 1.006265e-01 9.111874e-01
27 1 4 1.719943e+01 1.976803e+00 1.262829e+01 -1 -1 0 -4.377573e-01 1.444351e-01 4.215290e-02 8.864142e-01
28 1 1 1.700731e+01 2.229081e+00 1.310276e+01 -1 -1 0 -6.654911e-01 7.248944e-02 3.831519e-02 7.418887e-01
29 1 1 1.680001e+01 2.271492e+00 1.353376e+01 -1 -1 0 -8.354175e-01 -1.127043e-02 1.515471e-02 5.492913e-01
30 1 4 1.653047e+01 2.144688e+00 1.396158e+01 -1 -1 0 9.367855e-01 3.286024e-02 -6.121565e-02 -3.429370e-01
31 1 4 1.641111e+01 1.836778e+00 1.440367e+01 -1 -1 0 9.895569e-01 1.416710e-01 -1.568511e-02 -2.146005e-02
32 1 3 1.651325e+01 1.518096e+00 1.492272e+01 -1 -1 0 9.500258e-01 -1.049297e-02 7.765080e-02 3.021774e-01
33 1 3 1.670495e+01 1.372090e+00 1.536471e+01 -1 -1 0 8.322532e-01 3.410167e-02 1.078494e-01 5.427340e-01
34 1 1 1.717884e+01 1.369776e+00 1.573849e+01 -1 -1 0 6.246185e-01 3.385081e-02 1.327447e-01 7.688203e-01
35 1 2 1.751669e+01 1.623671e+00 1.615016e+01 -1 -1 0 4.117280e-01 -6.640407e-02 2.093115e-01 8.844542e-01
36 1 2 1.767936e+01 2.081139e+00 1.631664e+01 -1 -1 0 2.237724e-02 7.552132e-02 2.178245e-01 9.728043e-01
37 1 1 1.771270e+01 2.577457e+00 1.661785e+01 -1 -1 0 -3.065200e-01 1.419016e-01 1.280830e-01 9.324721e-01
38 1 1 1.756693e+01 2.837921e+00 1.711343e+01 -1 -1 0 -4.386147e-01 5.951421e-02 9.392068e-02 8.917702e-01
39 1 4 1.724335e+01 3.016781e+00 1.750377e+01 -1 -1 0 7.215780e-01 -4.003154e-02 -5.885260e-02 -6.886647e-01
40 1 4 1.702260e+01 2.990248e+00 1.797142e+01 -1 -1 0 9.016156e-01 1.313061e-03 -9.981700e-03 -4.324211e-01
41 1 2 1.679186e+01 2.772733e+00 1.841492e+01 -1 -1 0 9.890541e-01 8.660779e-03 4.709521e-02 -1.395670e-01
42 1 4 1.686133e+01 2.427837e+00 1.881599e+01 -1 -1 0 9.738242e-01 1.100958e-01 3.977927e-02 1.948409e-01
43 1 3 1.706362e+01 2.243006e+00 1.925396e+01 -1 -1 0 8.908168e-01 1.112606e-01 1.187656e-01 4.242185e-01
44 1 2 1.744672e+01 2.074058e+00 1.960416e+01 -1 -1 0 7.759633e-01 2.849942e-01 2.234772e-01 5.164467e-01
45 1 1 1.800587e+01 2.019436e+00 1.970064e+01 -1 -1 0 5.138569e-01 3.806412e-01 1.840118e-01 7.464603e-01
46 1 3 1.845416e+01 2.038305e+00 1.993297e+01 -1 -1 0 2.945378e-01 3.329072e-01 1.035895e-01 8.897693e-01
47 1 4 1.886371e+01 2.214273e+00 -1.972884e+01 -1 -1 1 9.343027e-02 2.876195e-01 3.200642e-02 9.526392e-01
48 1 1 1.907652e+01 2.487010e+00 -1.933905e+01 -1 -1 1 2.547063e-01 -2.662479e-01 8.975604e-02 -9.253003e-01
49 1 4 1.915254e+01 2.696339e+00 -1.880051e+01 -1 -1 1 3.846547e-01 -1.505587e-01 1.729215e-01 -8.941314e-01
50 1 4 1.908174e+01 2.741431e+00 -1.826863e+01 -1 -1 1 6.823359e-01 -4.127626e-02 1.859786e-01 -7.057804e-01
51 1 4 1.896982e+01 2.500385e+00 -1.773642e+01 -1 -1 1 8.063252e-01 7.561393e-02 2.991559e-01 -5.046067e-01
52 1 1 1.871496e+01 2.172165e+00 -1.736207e+01 -1 -1 1 9.599716e-01 1.194064e-01 1.884602e-01 -1.693500e-01
53 1 3 1.881575e+01 1.769287e+00 -1.704552e+01 -1 -1 1 9.483800e-01 2.570942e-01 1.816004e-01 3.871974e-02
54 1 4 1.917248e+01 1.256851e+00 -1.681395e+01 -1 -1 1 8.967175e-01 2.660767e-01 1.441838e-01 3.229735e-01
55 1 4 1.950985e+01 9.541937e-01 -1.662381e+01 -1 -1 1 7.951431e-01 3.130771e-01 1.565986e-01 4.951839e-01
56 1 4 1.994859e+01 8.217754e-01 -1.648984e+01 -1 -1 1 5.614346e-01 2.966976e-01 -6.827367e-03 7.724734e-01
57 1 1 -1.963515e+01 7.324976e-01 -1.607249e+01 0 -1 1 4.088220e-01 3.022298e-01 1.922919e-02 8.609018e-01
58 1 1 -1.920972e+01 9.209026e-01 -1.572976e+01 0 -1 1 1.332534e-01 2.145412e-01 4.915269e-02 9.663331e-01
59 1 3 -1.901248e+01 1.139274e+00 -1.534984e+01 0 -1 1 2.206195e-01 -1.761003e-01 1.326746e-01 -9.501122e-01
60 1 4 -1.910450e+01 1.271321e+00 -1.485407e+01 0 -1 1 5.597081e-01 -1.506931e-01 2.076908e-01 -7.879613e-01
61 1 2 -1.917758e+01 1.175007e+00 -1.433896e+01 0 -1 1 7.830001e-01 6.972376e-03 2.050265e-01 -5.872191e-01
62 1 3 -1.920366e+01 8.491432e-01 -1.388616e+01 0 -1 1 8.379299e-01 1.548391e-01 3.000260e-01 -4.288155e-01
63 1 2 -1.921817e+01 4.453580e-01 -1.359074e+01 0 -1 1 8.654072e-01 3.816901e-01 2.127307e-01 -2.452116e-01
64 1 4 -1.922879e+01 -4.776934e-02 -1.351694e+01 0 -1 1 8.297756e-01 5.357974e-01 1.473395e-01 5.181420e-02
65 1 2 -1.892386e+01 -4.524834e-01 -1.369384e+01 0 -1 1 7.249797e-01 5.368044e-01 -1.481369e-01 4.053405e-01
66 1 1 -1.856291e+01 -9.355500e-01 -1.340344e+01 0 -1 1 7.339629e-01 3.923648e-01 -5.018596e-02 5.521138e-01
67 1 2 -1.817215e+01 -1.137995e+00 -1.315090e+01 0 -1 1 5.096945e-01 3.447468e-01 -1.570478e-01 7.724617e-01
68 1 1 -1.780874e+01 -1.290970e+00 -1.258233e+01 0 -1 1 3.244741e-01 1.568884e-01 -2.202728e-01 9.064119e-01
69 1 1 -1.763167e+01 -1.148951e+00 -1.215448e+01 0 -1 1 -8.310211e-02 1.504607e-01 -1.379818e-01 9.754059e-01
70 1 2 -1.765183e+01 -9.006888e-01 -1.166011e+01 0 -1 1 3.082157e-01 -1.017866e-01 1.125647e-01 -9.391335e-01
71 1 3 -1.775346e+01 -8.172918e-01 -1.116726e+01 0 -1 1 5.725212e-01 -2.343761e-02 1.877796e-01 -7.977524e-01
72 1 4 -1.806701e+01 -9.914147e-01 -1.068713e+01 0 -1 1 7.925815e-01 6.081020e-02 1.803384e-01 -5.793054e-01
73 1 1 -1.826391e+01 -1.261701e+00 -1.035286e+01 0 -1 1 9.005156e-01 2.138468e-01 8.829682e-02 -3.681641e-01
74 1 1 -1.835405e+01 -1.738541e+00 -1.006070e+01 0 -1 1 9.195167e-01 3.712543e-01 1.208005e-01 -4.546022e-02
75 1 3 -1.823248e+01 -2.333960e+00 -9.929073e+00 0 -1 1 8.949869e-01 4.038491e-01 9.918424e-02 1.614525e-01
76 1 1 -1.784919e+01 -2.776186e+00 -1.001642e+01 0 -1 1 7.380210e-01 4.408144e-01 -7.433159e-02 5.054528e-01
77 1 4 -1.740843e+01 -3.040622e+00 -9.825527e+00 0 -1 1 4.912862e-01 3.717499e-01 -1.551538e-01 7.722482e-01
78 1 1 -1.699370e+01 -3.079199e+00 -9.626628e+00 0 -1 1 1.892741e-01 2.856785e-01 -2.970981e-01 8.912328e-01
79 1 4 -1.687434e+01 -3.158174e+00 -9.107722e+00 0 -1 1 -1.483951e-01 1.330636e-01 -3.262635e-01 9.240266e-01
80 1 2 -1.689524e+01 -3.204349e+00 -8.579136e+00 0 -1 1 5.244287e-01 9.318469e-03 3.477224e-01 -7.771595e-01
81 1 4 -1.666045e+01 -3.401217e+00 -8.168235e+00 0 -1 1 3.090700e-01 7.045742e-02 2.733755e-01 -9.081725e-01
82 1 4 -1.686026e+01 -3.611591e+00 -7.702541e+00 0 -1 1 5.304905e-01 2.257044e-01 3.101973e-01 -7.559200e-01
83 1 4 -1.713457e+01 -3.763786e+00 -7.426876e+00 0 -1 1 8.221932e-01 2.541946e-01 1.350095e-01 -4.910762e-01
84 1 4 -1.727665e+01 -4.133947e+00 -7.166421e+00 0 -1 1 9.734027e-01 2.230613e-01 2.499595e-02 -4.589130e-02
85 1 1 -1.783025e+01 -3.642381e+00 -6.944580e+00 0 -1 1 -8.988071e-01 8.841641e-02 3.760861e-01 2.070934e-01
86 1 1 -1.818411e+01 -3.814472e+00 -6.582757e+00 0 -1 1 9.311920e-01 -2.281466e-01 -2.480682e-01 1.388985e-01
87 1 3 -1.824569e+01 -3.759800e+00 -6.035673e+00 0 -1 1 -7.608734e-01 2.530718e-01 7.561611e-02 -5.927128e-01
88 1 2 -1.867374e+01 -4.296029e+00 -5.459708e+00 0 -1 1 -4.443981e-01 2.559758e-01 7.759402e-01 3.672922e-01
89 1 2 -1.737651e+01 -4.334190e+00 -5.665363e+00 0 -1 1 -6.272219e-02 -9.978750e-01 1.635662e-02 6.628524e-03
90 1 3 -1.741171e+01 -4.479830e+00 -4.391151e+00 0 -1 1 -6.868142e-01 9.872388e-02 5.237384e-01 -4.942044e-01
91 1 3 -1.751243e+01 -4.265473e+00 -4.550452e+00 0 -1 1 -1.517720e-01 -8.867523e-01 2.122718e-01 3.815447e-01
92 1 2 -1.674711e+01 -4.396497e+00 -3.832262e+00 0 -1 1 -7.721691e-01 4.433337e-01 3.347238e-01 -3.084965e-01
93 1 1 -1.631276e+01 -4.229957e+00 -3.487023e+00 0 -1 1 2.257309e-01 -6.959406e-01 1.490903e-01 -6.651950e-01
94 1 2 -1.665694e+01 -4.078002e+00 -2.887960e+00 0 -1 1 -4.070469e-02 9.638381e-02 6.369964e-01 -7.637335e-01
95 1 3 -1.692541e+01 -4.601843e+00 -2.663675e+00 0 -1 1 -9.692062e-02 -3.535003e-01 -5.906404e-01 7.188795e-01
96 1 2 -1.628185e+01 -4.003660e+00 -2.354699e+00 0 -1 1 9.192022e-03 -8.398111e-01 -4.176904e-01 3.466518e-01
97 1 2 -1.637442e+01 -4.339441e+00 -2.145227e+00 0 -1 1 9.241132e-01 -7.216750e-02 2.784905e-01 2.514948e-01
98 1 4 -1.782836e+01 -3.942301e+00 -1.391078e+00 0 -1 1 -3.532843e-01 3.370911e-01 3.509294e-01 7.990046e-01
99 1 2 -1.802561e+01 -3.558975e+00 -1.050338e+00 0 -1 1 -6.468566e-01 3.619328e-01 2.934222e-01 6.037256e-01
100 1 1 -1.803575e+01 -2.596279e+00 -1.092146e+00 0 -1 1 -4.290587e-01 -6.043599e-01 -5.927134e-01 -3.151959e-01
101 2 4 -1.119587e+01 -9.026222e+00 -6.451136e+00 0 -1 1 4.720618e-01 6.240751e-01 -2.615019e-01 -5.650706e-01
102 2 3 -1.145762e+01 -9.118134e+00 -6.851715e+00 0 -1 1 -6.065825e-01 -3.613136e-01 6.147207e-01 3.516086e-01
103 2 1 -1.254893e+01 -8.593349e+00 -6.307237e+00 0 -1 1 -4.986933e-01 2.491013e-01 7.046490e-01 4.390026e-01
104 2 3 -1.265283e+01 -7.886062e+00 -6.542332e+00 0 -1 1 2.331093e-01 9.205856e-01 7.782135e-02 -3.035226e-01
105 2 3 -1.292964e+01 -7.965118e+00 -6.970415e+00 0 -1 1 3.710116e-01 8.887210e-01 -2.114384e-01 -1.667905e-01
106 2 2 -1.393895e+01 -8.886988e+00 -6.657618e+00 0 -1 1 5.460157e-01 -2.998916e-01 -2.232327e-01 -7.497327e-01
107 2 3 -1.408790e+01 -8.563242e+00 -6.318875e+00 0 -1 1 8.086421e-01 -3.977106e-01 2.509581e-02 -4.327752e-01
108 2 4 -1.457591e+01 -8.087322e+00 -6.455679e+00 0 -1 1 -1.638903e-02 -5.946080e-01 3.517611e-02 8.030787e-01
109 2 3 -1.506530e+01 -7.754942e+00 -6.525964e+00 0 -1 1 -4.070311e-01 -5.217853e-01 2.030280e-01 7.216962e-01
110 2 2 -1.554258e+01 -7.806833e+00 -6.599208e+00 0 -1 1 -7.350599e-01 -2.771100e-01 2.970457e-01 5.428267e-01
111 2 2 -1.542899e+01 -7.198587e+00 -6.545018e+00 0 -1 1 8.212568e-03 5.270425e-01 -5.445128e-01 6.524297e-01
112 2 3 -1.535634e+01 -6.285542e+00 -7.047700e+00 0 -1 1 -3.813886e-04 -5.570719e-01 1.081001e-01 -8.233985e-01
113 2 3 -1.428604e+01 -6.808534e+00 -7.948391e+00 0 -1 1 -5.859895e-01 5.670430e-01 -5.753918e-01 6.326826e-02
114 2 2 -1.429404e+01 -5.706373e+00 -8.706762e+00 0 -1 1 1.859446e-01 -8.143977e-01 3.011534e-01 4.598779e-01
115 2 4 -1.447703e+01 -5.289841e+00 -8.899635e+00 0 -1 1 9.464493e-02 -7.168772e-01 5.854501e-01 3.665755e-01
116 2 4 -1.563216e+01 -5.647290e+00 -8.685302e+00 0 -1 1 -6.486724e-01 2.877346e-01 1.275712e-01 6.929348e-01
117 2 1 -1.585242e+01 -5.362994e+00 -8.319917e+00 0 -1 1 -8.244920e-01 3.768862e-01 9.452868e-02 4.113806e-01
118 2 1 -1.618309e+01 -4.919548e+00 -9.465229e+00 0 -1 1 -5.727604e-01 2.375870e-01 -4.888598e-01 -6.136074e-01
119 2 1 -1.722178e+01 -4.416482e+00 -8.506069e+00 0 -1 1 -4.757322e-01 6.577719e-01 5.768561e-01 9.084162e-02
120 2 1 -1.760787e+01 -4.043315e+00 -8.504581e+00 0 -1 1 5.044472e-01 -8.113054e-01 -2.951072e-01 1.510843e-02
121 2 3 -1.836714e+01 -4.571369e+00 -8.315453e+00 0 -1 1 -1.456751e-01 5.841987e-01 -6.889442e-01 4.035425e-01
122 2 1 -1.797989e+01 -3.339059e+00 -8.877267e+00 0 -1 1 -3.549799e-01 9.307883e-01 3.946958e-02 -7.787541e-02
123 2 4 -1.790199e+01 -2.778488e+00 -8.891751e+00 0 -1 1 -4.566494e-01 8.256238e-01 -2.720875e-01 -1.891696e-01
124 2 1 -1.765839e+01 -2.297110e+00 -8.945632e+00 0 -1 1 -3.301459e-01 6.830441e-01 -5.946603e-01 -2.661459e-01
125 2 4 -1.730575e+01 -1.951691e+00 -9.323144e+00 0 -1 1 -1.764021e-01 5.052505e-01 -7.720887e-01 -3.427585e-01
126 2 2 -1.723061e+01 -1.792001e+00 -9.823942e+00 0 -1 1 -4.123188e-02 2.073228e-01 -9.363729e-01 -2.802194e-01
127 2 4 -1.722776e+01 -1.811069e+00 -1.035309e+01 0 -1 1 1.346709e-01 -1.268624e-01 -9.433627e-01 -2.753843e-01
128 2 4 -1.740562e+01 -2.012581e+00 -1.082548e+01 0 -1 1 1.431733e-01 -3.670396e-01 -9.003526e-01 -1.847932e-01
129 2 1 -1.769653e+01 -2.049257e+00 -1.122004e+01 0 -1 1 2.720471e-01 -5.368951e-01 -7.985703e-01 4.401868e-03
130 2 2 -1.808281e+01 -1.929478e+00 -1.141786e+01 0 -1 1 3.174467e-01 -7.499000e-01 -5.645775e-01 1.346466e-01
131 2 3 -1.854372e+01 -1.618498e+00 -1.155650e+01 0 -1 1 2.629916e-01 -9.014675e-01 -3.213843e-01 1.220814e-01
132 2 4 -1.877794e+01 -1.158819e+00 -1.179294e+01 0 -1 1 -2.358976e-01 9.568458e-01 -5.722420e-02 -1.597617e-01
133 2 4 -1.873217e+01 -7.234114e-01 -1.208717e+01 0 -1 1 -3.241964e-01 9.020511e-01 -2.526575e-01 -1.317749e-01
134 2 3 -1.851159e+01 -3.010401e-01 -1.235759e+01 0 -1 1 -2.834605e-01 7.679772e-01 -5.258640e-01 -2.309291e-01
135 2 4 -1.823140e+01 -6.339392e-02 -1.273986e+01 0 -1 1 2.162653e-01 -4.928568e-01 8.035844e-01 2.541133e-01
136 2 3 -1.800231e+01 2.933502e-02 -1.311463e+01 0 -1 1 1.230406e-01 -1.799623e-01 9.379954e-01 2.695168e-01
137 2 1 -1.805928e+01 1.463194e-01 -1.368459e+01 0 -1 1 5.922521e-02 7.973627e-02 -9.623403e-01 -2.530526e-01
138 2 3 -1.825879e+01 1.675842e-01 -1.425360e+01 0 -1 1 2.666760e-01 -1.515996e-01 -9.431796e-01 -1.277249e-01
139 2 2 -1.863826e+01 1.097632e-01 -1.467133e+01 0 -1 1 3.656055e-01 -3.968144e-01 -8.417020e-01 -2.021535e-02
140 2 3 -1.908712e+01 7.564405e-02 -1.481525e+01 0 -1 1 4.200129e-01 -5.424317e-01 -7.206393e-01 1.001800e-01
141 2 1 -1.963367e+01 1.543116e-01 -1.489754e+01 0 -1 1 3.082488e-01 -8.003885e-01 -4.898558e-01 1.562121e-01
142 2 2 1.998429e+01 5.228260e-01 -1.491983e+01 -1 -1 1 3.196168e-01 -8.880067e-01 -9.997045e-02 3.151113e-01
143 2 4 1.971021e+01 9.538903e-01 -1.518969e+01 -1 -1 1 -3.026573e-01 9.292712e-01 -1.855070e-02 -2.109727e-01
144 2 4 1.975548e+01 1.513224e+00 -1.540252e+01 -1 -1 1 1.365366e-01 -8.753471e-01 3.672726e-01 2.832597e-01
145 2 1 1.986113e+01 1.812333e+00 -1.585299e+01 -1 -1 1 5.193069e-02 -6.929060e-01 6.529998e-01 3.012902e-01
146 2 1 1.995791e+01 2.009853e+00 -1.635158e+01 -1 -1 1 4.124950e-02 -5.571733e-01 8.167639e-01 1.440593e-01
147 2 1 -1.988412e+01 1.930636e+00 -1.687701e+01 0 -1 1 -7.141045e-02 -1.573439e-01 9.617868e-01 2.123902e-01
148 2 2 -1.999713e+01 1.970016e+00 -1.748106e+01 0 -1 1 -2.037616e-01 -1.037023e-01 9.596145e-01 1.639116e-01
149 2 4 1.971090e+01 1.726990e+00 -1.790285e+01 -1 -1 1 2.142212e-01 -2.292446e-01 -9.464315e-01 -7.631247e-02
150 2 1 1.942241e+01 1.547389e+00 -1.831278e+01 -1 -1 1 2.945073e-01 -3.969118e-01 -8.681936e-01 4.434355e-02
151 2 1 1.894714e+01 1.585972e+00 -1.857421e+01 -1 -1 1 3.014918e-01 -6.913983e-01 -6.540531e-01 5.731981e-02
152 2 1 1.847405e+01 1.766271e+00 -1.858464e+01 -1 -1 1 2.699495e-01 -8.217873e-01 -4.377051e-01 2.453714e-01
153 2 4 1.809471e+01 2.033973e+00 -1.869080e+01 -1 -1 1 7.794698e-02 -9.394299e-01 -1.277338e-01 3.083501e-01
154 2 1 1.784215e+01 2.305831e+00 -1.906527e+01 -1 -1 1 1.342017e-01 -9.494350e-01 8.790235e-02 2.698820e-01
155 2 2 1.779289e+01 2.779860e+00 -1.942066e+01 -1 -1 1 1.331348e-01 -9.023069e-01 3.200985e-01 2.562311e-01
156 2 4 1.785528e+01 3.094784e+00 -1.982995e+01 -1 -1 1 -4.911006e-02 -7.309600e-01 6.090128e-01 3.039556e-01
157 2 3 1.777498e+01 3.221518e+00 1.961691e+01 -1 -1 0 -1.487619e-01 -6.284583e-01 7.361567e-01 2.024434e-01
158 2 2 1.785009e+01 3.206748e+00 1.912730e+01 -1 -1 0 -9.257073e-02 -4.361746e-01 8.936766e-01 5.024403e-02
159 2 1 1.794947e+01 2.904380e+00 1.872299e+01 -1 -1 0 -5.028608e-02 -2.728190e-01 9.474120e-01 -1.595358e-01
160 2 3 1.801850e+01 2.532867e+00 1.843596e+01 -1 -1 0 5.871744e-03 -1.177653e-01 -9.757861e-01 1.842235e-01
161 2 1 1.784447e+01 2.167542e+00 1.806186e+01 -1 -1 0 4.565418e-02 -3.561445e-01 -9.066441e-01 2.215246e-01
162 2 1 1.744304e+01 1.876187e+00 1.769528e+01 -1 -1 0 3.565525e-02 -6.318384e-01 -7.540664e-01 1.757634e-01
163 2 4 1.704374e+01 1.800158e+00 1.731627e+01 -1 -1 0 -2.925325e-03 -8.345083e-01 -5.422944e-01 9.748961e-02
164 2 4 1.672836e+01 1.993048e+00 1.693782e+01 -1 -1 0 -2.148148e-03 -9.545593e-01 -2.798580e-01 1.024273e-01
165 2 3 1.658502e+01 2.273188e+00 1.653846e+01 -1 -1 0 5.448933e-02 -9.884858e-01 1.100708e-01 8.838082e-02
166 2 3 1.668861e+01 2.528125e+00 1.604125e+01 -1 -1 0 -5.610794e-02 -9.002742e-01 4.282500e-01 5.440813e-02
167 2 4 1.688709e+01 2.526306e+00 1.558387e+01 -1 -1 0 -2.588144e-02 -8.105439e-01 5.739558e-01 -1.136816e-01
168 2 2 1.722342e+01 2.452861e+00 1.523886e+01 -1 -1 0 -2.337803e-02 -5.317616e-01 8.442985e-01 -6.199236e-02
169 2 2 1.752943e+01 2.167908e+00 1.489373e+01 -1 -1 0 7.613640e-02 -1.793185e-01 9.773007e-01 -8.325577e-02
170 2 1 1.762810e+01 1.838242e+00 1.451227e+01 -1 -1 0 7.470996e-02 3.306129e-02 9.927749e-01 -8.788301e-02
171 2 1 1.755557e+01 1.488990e+00 1.409328e+01 -1 -1 0 -5.087034e-02 -2.875015e-01 -9.514261e-01 9.769126e-02
172 2 4 1.736797e+01 1.194991e+00 1.367176e+01 -1 -1 0 4.515710e-02 -4.302634e-01 -8.822335e-01 1.857373e-01
173 2 4 1.696664e+01 1.033552e+00 1.332179e+01 -1 -1 0 8.506087e-03 -7.175149e-01 -6.754586e-01 1.698698e-01
174 2 1 1.655095e+01 1.021101e+00 1.298359e+01 -1 -1 0 1.109442e-01 -8.580497e-01 -4.625669e-01 1.935818e-01
175 2 1 1.624138e+01 1.262751e+00 1.271340e+01 -1 -1 0 1.483543e-01 -9.429812e-01 -1.541536e-01 2.549787e-01
176 2 2 1.600906e+01 1.675313e+00 1.232387e+01 -1 -1 0 -7.454198e-02 -9.600626e-01 1.422228e-01 2.291199e-01
177 2 2 1.598295e+01 1.824537e+00 1.177248e+01 -1 -1 0 -9.787272e-02 -8.800917e-01 4.385210e-01 1.534893e-01
178 2 1 1.613613e+01 1.927500e+00 1.128367e+01 -1 -1 0 -1.339365e-01 -7.130825e-01 6.876334e-01 2.710370e-02
179 2 4 1.639578e+01 1.746831e+00 1.082458e+01 -1 -1 0 -1.473207e-01 -4.718293e-01 8.673085e-01 -5.873322e-02
180 2 1 1.646181e+01 1.433216e+00 1.034479e+01 -1 -1 0 -1.786004e-01 -1.762346e-01 9.604796e-01 -1.205084e-01
181 2 4 1.628192e+01 9.992011e-01 1.000602e+01 -1 -1 0 2.742474e-01 -9.882104e-02 -9.290663e-01 2.277248e-01
182 2 2 1.599763e+01 6.104759e-01 9.880517e+00 -1 -1 0 1.546226e-01 -4.084466e-01 -8.290247e-01 3.492581e-01
183 2 3 1.564191e+01 3.505280e-01 9.799685e+00 -1 -1 0 1.379931e-01 -6.022884e-01 -6.032066e-01 5.043297e-01
184 2 4 1.503568e+01 3.261273e-01 9.789395e+00 -1 -1 0 1.122471e-01 -7.733258e-01 -3.860180e-01 4.902631e-01
185 2 3 1.453657e+01 5.072547e-01 9.544839e+00 -1 -1 0 -1.580403e-01 -9.145690e-01 -1.262777e-01 3.502009e-01
186 2 1 1.421436e+01 4.952505e-01 9.170901e+00 -1 -1 0 -2.137903e-01 -9.264590e-01 1.434836e-01 2.745538e-01
187 2 1 1.409092e+01 5.543294e-01 8.610653e+00 -1 -1 0 -2.779449e-01 -8.919904e-01 3.256528e-01 1.450858e-01
188 2 2 1.409159e+01 4.899953e-01 8.077864e+00 -1 -1 0 -2.594191e-01 -7.838186e-01 5.632232e-01 -3.331231e-02
189 2 4 1.430621e+01 2.623873e-01 7.655556e+00 -1 -1 0 -2.479780e-01 -6.287111e-01 7.243839e-01 -1.360049e-01
190 2 4 1.446314e+01 -1.248935e-01 7.326803e+00 -1 -1 0 2.171393e-01 3.092431e-01 -8.841442e-01 2.747875e-01
191 2 1 1.442089e+01 -7.045669e-01 7.180519e+00 -1 -1 0 -2.373403e-01 9.605446e-02 9.238151e-01 -2.846206e-01
192 2 4 1.403619e+01 -1.083069e+00 7.020595e+00 -1 -1 0 2.335803e-01 -3.257182e-01 -8.472735e-01 3.485333e-01
193 2 4 1.356042e+01 -1.388582e+00 6.843338e+00 -1 -1 0 1.330433e-01 -6.323919e-01 -6.800150e-01 3.463517e-01
194 2 1 1.307805e+01 -1.402366e+00 6.789189e+00 -1 -1 0 3.019398e-02 -8.253817e-01 -4.441984e-01 3.471615e-01
195 2 3 1.259776e+01 -1.213154e+00 6.612163e+00 -1 -1 0 2.245420e-02 -8.989561e-01 -1.713894e-01 4.024914e-01
196 2 4 1.223944e+01 -9.824952e-01 6.307806e+00 -1 -1 0 5.668683e-02 9.397158e-01 -1.195034e-01 -3.153407e-01
197 2 2 1.201708e+01 -7.086630e-01 5.849435e+00 -1 -1 0 -1.733419e-01 -8.715730e-01 3.755846e-01 2.631526e-01
198 2 4 1.191428e+01 -6.550482e-01 5.356267e+00 -1 -1 0 -3.127264e-01 -6.914766e-01 6.333495e-01 1.514293e-01
199 2 3 1.123050e+01 -4.789104e-01 5.423228e+00 -1 -1 0 1.842846e-01 -9.033011e-01 -2.973470e-01 2.483367e-01
200 2 4 1.083865e+01 -1.015028e+00 4.496993e+00 -1 -1 0 5.995660e-01 7.846443e-01 9.119441e-03 -1.573874e-01
