ITEM: TIMESTEP
97000000
ITEM: NUMBER OF ATOMS
200
ITEM: BOX BOUNDS pp pp pp
-2.0000000000000000e+01 2.0000000000000000e+01
-2.0000000000000000e+01 2.0000000000000000e+01
-2.0000000000000000e+01 2.0000000000000000e+01
ITEM: ATOMS id mol type x y z ix iy iz c_quat[1] c_quat[2] c_quat[3] c_quat[4]
1 1 1 4.443369e+00 3.962376e+00 -1.757400e+01 -1 -1 1 -3.554233e-01 -4.843200e-01 -4.866414e-01 6.342622e-01
2 1 2 5.449118e+00 3.867527e+00 -1.770375e+01 -1 -1 1 -4.838355e-02 -2.441768e-01 5.228777e-01 8.152519e-01
3 1 1 5.707170e+00 3.577880e+00 -1.812793e+01 -1 -1 1 -3.068174e-02 1.837386e-01 9.248957e-01 3.314614e-01
4 1 3 5.528607e+00 2.887522e+00 -1.800260e+01 -1 -1 1 8.941155e-01 -1.830985e-01 -3.703577e-02 -4.070144e-01
5 1 1 4.875218e+00 3.136381e+00 -1.928447e+01 -1 -1 1 -5.695480e-01 -3.718207e-01 -7.255063e-01 1.049047e-01
6 1 2 4.902899e+00 2.050512e+00 -1.917157e+01 -1 -1 1 2.966892e-01 -2.382317e-01 9.025918e-01 2.013682e-01
7 1 4 5.111818e+00 1.981570e+00 -1.959191e+01 -1 -1 1 -2.425694e-01 -1.016848e-01 -9.440758e-01 -1.988494e-01
8 1 1 5.293406e+00 1.958824e+00 1.996876e+01 -1 -1 0 -5.365936e-02 -4.186913e-01 -8.910687e-01 -1.667779e-01
9 1 1 6.494569e+00 1.536624e+00 -1.954457e+01 -1 -1 1 -4.958297e-01 -3.516574e-02 8.264495e-01 -2.643815e-01
10 1 4 6.119605e+00 8.008135e-01 1.958632e+01 -1 -1 0 6.595696e-01 -2.153144e-01 4.926918e-01 -5.252260e-01
11 1 1 6.347800e+00 5.425266e-01 -2.005927e+01 -1 -1 1 7.449133e-01 -4.179646e-02 5.332321e-01 -3.987740e-01
12 1 1 6.488805e+00 1.078589e-01 -1.985793e+01 -1 -1 1 8.884245e-01 1.729050e-01 4.207064e-01 -6.174055e-02
13 1 3 7.026296e+00 -2.456453e-01 -1.968825e+01 -1 -1 1 8.030982e-01 2.264368e-01 5.244214e-01 1.695344e-01
14 1 4 7.412354e+00 -5.065132e-01 -1.989174e+01 -1 -1 1 6.963485e-01 4.164959e-01 3.284453e-01 4.834807e-01
15 1 4 7.907852e+00 -6.743937e-01 -1.983230e+01 -1 -1 1 -5.431807e-01 -4.760838e-01 -3.983697e-01 -5.653322e-01
16 1 2 8.382258e+00 -5.646974e-01 -1.999277e+01 -1 -1 1 -3.165540e-01 -5.551776e-01 -3.706992e-01 -6.739091e-01
17 1 1 8.750459e+00 -2.222087e-01 1.980273e+01 -1 -1 0 5.627459e-02 6.309743e-01 1.790229e-01 7.527651e-01
18 1 2 9.268086e+00 1.776949e-01 1.989678e+01 -1 -1 0 -1.916338e-01 5.514046e-01 -5.073431e-02 8.103428e-01
19 1 3 9.575962e+00 4.044301e-01 -1.976512e+01 -1 -1 1 -4.279233e-01 4.534468e-01 -1.401624e-01 7.691698e-01
20 1 1 9.747089e+00 5.777584e-01 -1.931711e+01 -1 -1 1 -6.716756e-01 3.322516e-01 -2.567724e-01 6.103513e-01
21 1 4 9.902064e+00 5.976374e-01 -1.879039e+01 -1 -1 1 8.057990e-01 -1.537733e-01 3.267093e-01 -4.693643e-01
22 1 1 1.018628e+01 2.266977e-01 -1.834984e+01 -1 -1 1 8.591676e-01 -7.239363e-02 4.824235e-01 -1.544599e-01
23 1 4 1.060839e+01 -1.012083e-01 -1.820823e+01 -1 -1 1 8.391072e-01 1.546883e-01 4.997490e-01 1.490688e-01
24 1 3 1.106204e+01 -6.706796e-01 -1.837531e+01 -1 -1 1 8.285837e-01 1.826977e-01 3.554229e-01 3.921034e-01
25 1 3 1.155908e+01 -7.307542e-01 -1.839829e+01 -1 -1 1 6.098802e-01 3.697244e-01 3.038646e-01 6.316774e-01
26 1 4 1.210227e+01 -5.896903e-01 -1.841653e+01 -1 -1 1 3.370964e-01 4.195482e-01 8.261686e-02 8.387609e-01
27 1 4 1.261260e+01 -3.865513e-01 -1.811997e+01 -1 -1 1 1.738636e-01 3.202248e-01 1.834276e-02 9.310698e-01
28 1 1 1.287307e+01 -2.057649e-01 -1.779604e+01 -1 -1 1 -9.869217e-02 3.213352e-01 8.890626e-02 9.376029e-01
29 1 1 1.300409e+01 1.681405e-01 -1.741778e+01 -1 -1 1 -4.544414e-01 2.832165e-01 -6.383176e-02 8.421383e-01
30 1 4 1.315868e+01 2.972518e-01 -1.697747e+01 -1 -1 1 5.161005e-01 -1.195497e-01 3.968444e-02 -8.472150e-01
31 1 4 1.283957e+01 4.515681e-01 -1.658060e+01 -1 -1 1 8.045189e-01 -1.436201e-01 8.293748e-03 -5.762411e-01
32 1 3 1.270721e+01 3.961935e-01 -1.607313e+01 -1 -1 1 9.129299e-01 -1.882233e-02 1.920849e-02 -4.072293e-01
33 1 3 1.263631e+01 1.788210e-01 -1.554621e+01 -1 -1 1 9.922808e-01 -4.588599e-02 8.955760e-02 -7.247527e-02
34 1 1 1.283119e+01 -9.380985e-02 -1.511202e+01 -1 -1 1 9.445391e-01 2.940911e-02 1.648285e-01 2.825112e-01
35 1 2 1.322981e+01 -2.189344e-01 -1.473108e+01 -1 -1 1 8.532789e-01 1.329203e-01 2.970177e-01 4.074651e-01
36 1 2 1.376768e+01 -4.322946e-01 -1.461217e+01 -1 -1 1 7.580704e-01 1.256499e-01 2.742152e-01 5.782279e-01
37 1 1 1.427905e+01 -3.696404e-01 -1.436562e+01 -1 -1 1 5.184823e-01 1.915990e-01 2.894969e-01 7.814457e-01
38 1 1 1.466213e+01 -1.077570e-01 -1.417559e+01 -1 -1 1 1.969778e-01 2.441598e-01 8.835386e-02 9.453990e-01
39 1 4 1.485012e+01 2.035446e-01 -1.377343e+01 -1 -1 1 1.548381e-01 -2.017223e-01 4.394071e-02 -9.661276e-01
40 1 4 1.489589e+01 4.204678e-01 -1.325827e+01 -1 -1 1 4.627508e-01 -9.035782e-02 1.353317e-01 -8.714255e-01
41 1 2 1.476593e+01 4.395980e-01 -1.272076e+01 -1 -1 1 6.427512e-01 5.414946e-02 8.162945e-02 -7.597864e-01
42 1 4 1.451533e+01 3.889023e-01 -1.228147e+01 -1 -1 1 7.837991e-01 1.893952e-01 9.658614e-03 -5.913503e-01
43 1 3 1.430736e+01 1.191381e-01 -1.189081e+01 -1 -1 1 9.339953e-01 1.721508e-01 6.740211e-02 -3.057348e-01
44 1 2 1.420206e+01 -2.683103e-01 -1.153330e+01 -1 -1 1 9.401923e-01 2.844185e-01 1.508220e-01 -1.113428e-01
45 1 1 1.439439e+01 -8.120320e-01 -1.151641e+01 -1 -1 1 9.312101e-01 2.432964e-01 -7.558730e-02 2.606553e-01
46 1 3 1.451457e+01 -1.117923e+00 -1.106098e+01 -1 -1 1 8.684773e-01 2.617268e-01 -2.066023e-03 4.210012e-01
47 1 4 1.493488e+01 -1.343982e+00 -1.087374e+01 -1 -1 1 6.204833e-01 2.851977e-01 -8.496902e-02 7.255639e-01
48 1 1 1.527470e+01 -1.418224e+00 -1.042750e+01 -1 -1 1 -4.580659e-01 -1.593188e-01 1.316236e-01 -8.645626e-01
49 1 4 1.558865e+01 -1.310868e+00 -1.001387e+01 -1 -1 1 -5.147268e-02 -1.440397e-01 1.234523e-01 -9.804910e-01
50 1 4 1.558502e+01 -1.106576e+00 -9.421825e+00 -1 -1 1 2.170912e-01 -2.134451e-02 1.451605e-01 -9.650618e-01
51 1 4 1.544382e+01 -1.011331e+00 -8.848704e+00 -1 -1 1 3.669376e-01 6.423162e-02 1.288540e-01 -9.190363e-01
52 1 1 1.514663e+01 -9.715363e-01 -8.400087e+00 -1 -1 1 6.596875e-01 1.740022e-01 9.004138e-02 -7.255537e-01
53 1 3 1.478305e+01 -1.134423e+00 -8.071186e+00 -1 -1 1 8.404146e-01 1.597337e-01 8.799283e-02 -5.103388e-01
54 1 4 1.453743e+01 -1.513669e+00 -7.786016e+00 -1 -1 1 9.620800e-01 1.540794e-01 9.330610e-03 -2.248880e-01
55 1 4 1.444646e+01 -1.973957e+00 -7.494140e+00 -1 -1 1 9.812592e-01 1.398603e-01 -1.356776e-02 1.318539e-01
56 1 4 1.461799e+01 -2.313094e+00 -7.105687e+00 -1 -1 1 8.910874e-01 1.762494e-01 5.830564e-02 4.141253e-01
57 1 1 1.497490e+01 -2.568659e+00 -6.765738e+00 -1 -1 1 7.272562e-01 1.753649e-01 2.025005e-02 6.632763e-01
58 1 1 1.528503e+01 -2.598617e+00 -6.321617e+00 -1 -1 1 5.671474e-01 1.642236e-01 1.050417e-01 8.002129e-01
59 1 3 1.565530e+01 -2.423387e+00 -5.978577e+00 -1 -1 1 -3.159004e-01 -1.702247e-01 -1.259937e-01 -9.248546e-01
60 1 4 1.589426e+01 -2.055205e+00 -5.685082e+00 -1 -1 1 -1.855721e-02 -1.588200e-01 -8.995619e-02 -9.830258e-01
61 1 2 1.593505e+01 -1.657925e+00 -5.168315e+00 -1 -1 1 2.966839e-01 -6.116307e-02 -2.620891e-02 -9.526546e-01
62 1 3 1.567268e+01 -1.488641e+00 -4.725173e+00 -1 -1 1 6.262745e-01 -4.510703e-02 -3.590646e-03 -7.782883e-01
63 1 2 1.539752e+01 -1.458713e+00 -4.316378e+00 -1 -1 1 7.915530e-01 4.693987e-02 -8.270321e-02 -6.036561e-01
64 1 4 1.509997e+01 -1.580089e+00 -3.890238e+00 -1 -1 1 9.472145e-01 6.569716e-02 -3.104208e-02 -3.122579e-01
65 1 2 1.503445e+01 -1.906846e+00 -3.487565e+00 -1 -1 1 9.850935e-01 1.502212e-01 -4.944234e-02 -6.767407e-02
66 1 1 1.506317e+01 -2.281090e+00 -3.096305e+00 -1 -1 1 9.620762e-01 1.445153e-01 -1.029242e-03 2.313517e-01
67 1 2 1.531546e+01 -2.580590e+00 -2.646935e+00 -1 -1 1 8.775718e-01 1.440535e-01 5.270320e-02 4.542453e-01
68 1 1 1.573285e+01 -2.745452e+00 -2.267711e+00 -1 -1 1 6.236507e-01 8.461265e-02 3.074624e-02 7.765019e-01
69 1 1 1.606279e+01 -2.614380e+00 -1.851252e+00 -1 -1 1 3.288903e-01 9.560850e-02 1.207543e-01 9.317234e-01
70 1 2 1.635493e+01 -2.272053e+00 -1.674542e+00 -1 -1 1 -6.196547e-03 -1.698694e-01 -2.608651e-02 -9.851018e-01
71 1 3 1.657055e+01 -2.047552e+00 -1.152657e+00 -1 -1 1 1.844243e-01 -7.549710e-02 -5.534334e-02 -9.783788e-01
72 1 4 1.633370e+01 -1.744241e+00 -7.045978e-01 -1 -1 1 4.816589e-01 -5.744395e-02 -4.564804e-03 -8.744621e-01
73 1 1 1.603983e+01 -1.694252e+00 -2.350588e-01 -1 -1 1 7.521975e-01 -1.999337e-02 3.228128e-02 -6.578427e-01
74 1 1 1.580262e+01 -1.804139e+00 1.745246e-01 -1 -1 1 9.431178e-01 -2.893349e-02 6.749096e-02 -3.242477e-01
75 1 3 1.584504e+01 -2.173185e+00 6.940949e-01 -1 -1 1 9.653786e-01 1.337576e-01 1.869744e-01 -1.232623e-01
76 1 1 1.603133e+01 -2.603958e+00 9.937993e-01 -1 -1 1 9.311098e-01 2.671509e-01 2.136120e-01 1.266289e-01
77 1 4 1.636100e+01 -2.997380e+00 1.109788e+00 -1 -1 1 8.166691e-01 4.086381e-01 1.602656e-01 3.746751e-01
78 1 1 1.678186e+01 -3.290342e+00 1.221203e+00 -1 -1 1 6.561449e-01 3.562321e-01 5.237187e-03 6.652406e-01
79 1 4 1.728857e+01 -3.355854e+00 1.386937e+00 -1 -1 1 3.759159e-01 3.122638e-01 -1.123618e-01 8.651898e-01
80 1 2 1.767397e+01 -3.224116e+00 1.654815e+00 -1 -1 1 -6.705805e-02 3.360141e-01 -1.786179e-01 9.223304e-01
81 1 4 1.879793e+01 -2.933560e+00 1.397062e+00 -1 -1 1 -5.444172e-01 -5.660356e-01 4.961895e-01 -3.701481e-01
82 1 4 1.925627e+01 -3.322989e+00 3.820436e-01 -1 -1 1 -8.955218e-01 -3.959846e-01 -1.772768e-01 9.904418e-02
83 1 4 1.955069e+01 -3.342599e+00 9.503494e-01 -1 -1 1 -6.541210e-02 7.116103e-01 -9.137487e-02 6.935291e-01
84 1 4 1.919948e+01 -4.127108e+00 4.446138e-02 -1 -1 1 6.999807e-01 -2.771184e-01 -3.776593e-01 -5.390788e-01
85 1 1 1.886656e+01 -3.961705e+00 3.822272e-01 -1 -1 1 8.766945e-01 -3.750976e-01 -2.191941e-01 -2.065492e-01
86 1 1 1.817751e+01 -4.245472e+00 -5.887273e-01 -1 -1 1 6.230338e-01 5.161675e-02 7.290293e-01 2.787128e-01
87 1 3 1.872661e+01 -4.263139e+00 -8.146050e-01 -1 -1 1 -4.191111e-01 -2.325706e-01 -6.586617e-01 -5.800187e-01
88 1 2 1.929941e+01 -4.964989e+00 -7.325410e-01 -1 -1 1 7.179316e-01 8.031528e-02 1.313070e-01 6.788830e-01
89 1 2 1.966340e+01 -4.829406e+00 -5.024256e-01 -1 -1 1 -4.180073e-01 -1.827648e-01 -1.577645e-01 -8.757724e-01
90 1 3 -1.991248e+01 -4.520989e+00 -2.791769e-01 0 -1 1 9.904951e-04 8.469164e-01 4.724509e-01 2.439708e-01
91 1 3 2.013666e+01 -4.193152e+00 -6.692454e-01 -1 -1 1 -2.285215e-01 9.488904e-01 1.115819e-01 1.869073e-01
92 1 2 1.995830e+01 -4.584900e+00 -1.274612e+00 -1 -1 1 6.645454e-01 2.433743e-01 -5.404758e-01 4.550102e-01
93 1 1 1.996310e+01 -5.217480e+00 -2.117268e+00 -1 -1 1 6.719654e-01 7.359212e-01 7.650060e-02 3.209447e-02
94 1 2 1.962083e+01 -6.299870e+00 -1.750478e+00 -1 -1 1 -3.798625e-01 -5.697343e-01 6.951075e-01 -2.189359e-01
95 1 3 1.975371e+01 -6.734853e+00 -1.995542e+00 -1 -1 1 -3.190992e-01 -3.975893e-01 8.001231e-01 -3.160720e-01
96 1 2 1.981627e+01 -7.190729e+00 -2.121316e+00 -1 -1 1 2.083425e-01 5.480041e-02 -8.978034e-01 3.841086e-01
97 1 2 1.961909e+01 -7.669730e+00 -2.146678e+00 -1 -1 1 -3.735642e-02 1.705559e-01 8.903176e-01 -4.205350e-01
98 1 4 1.924252e+01 -8.115362e+00 -2.300050e+00 -1 -1 1 -1.921315e-02 -5.183667e-01 -7.587966e-01 3.938967e-01
99 1 2 1.866359e+01 -8.747003e+00 -2.153904e+00 -1 -1 1 -2.409090e-01 6.067298e-02 -8.377010e-01 4.863524e-01
100 1 1 1.867030e+01 -8.398063e+00 -1.771601e+00 -1 -1 1 -4.057262e-01 -4.520755e-01 -6.496167e-01 4.571784e-01
101 2 4 1.765423e+01 3.748236e+00 6.503051e+00 -1 -1 1 -3.296611e-01 -1.216276e-01 6.036697e-01 7.156209e-01
102 2 3 1.834985e+01 3.675582e+00 7.704509e+00 -1 -1 1 7.192484e-01 -5.571654e-01 3.634520e-01 -2.003774e-01
103 2 1 1.754333e+01 3.977722e+00 8.181151e+00 -1 -1 1 1.521043e-01 -8.165938e-01 7.891770e-02 -5.511904e-01
104 2 3 1.690534e+01 3.402327e+00 8.201630e+00 -1 -1 1 1.581871e-01 -6.741900e-01 -4.266421e-01 -5.817398e-01
105 2 3 1.794208e+01 2.292675e+00 7.800150e+00 -1 -1 1 8.363197e-01 5.284811e-01 -3.023526e-02 1.426991e-01
106 2 2 1.686969e+01 2.130626e+00 8.124824e+00 -1 -1 1 -2.444898e-01 8.024299e-01 5.431379e-01 3.649892e-02
107 2 3 1.726966e+01 2.137861e+00 6.938876e+00 -1 -1 1 -3.354711e-01 -4.265333e-01 -5.833522e-01 -6.043416e-01
108 2 4 1.820252e+01 1.103930e+00 7.558258e+00 -1 -1 1 -5.566839e-01 -7.413215e-01 2.923845e-01 -2.346418e-01
109 2 3 1.856345e+01 5.765791e-01 7.077659e+00 -1 -1 1 2.839441e-01 -8.496545e-01 4.437599e-01 2.324193e-02
110 2 2 1.760150e+01 9.701888e-01 6.042756e+00 -1 -1 1 4.992352e-01 6.949205e-01 4.669161e-01 2.232465e-01
111 2 2 1.785615e+01 8.308385e-01 5.729315e+00 -1 -1 1 -4.141617e-01 -8.043106e-01 -1.306476e-01 -4.055686e-01
112 2 3 1.811571e+01 -3.516057e-01 5.764484e+00 -1 -1 1 8.421413e-01 3.044652e-01 3.364828e-01 -2.913388e-01
113 2 3 1.807246e+01 -8.470822e-01 5.863510e+00 -1 -1 1 -9.381760e-01 -2.805078e-01 -1.376083e-01 -1.490136e-01
114 2 2 1.836139e+01 -1.218835e+00 6.004917e+00 -1 -1 1 -7.724668e-01 -2.201370e-01 4.354048e-02 -5.940866e-01
115 2 4 1.726330e+01 -1.482318e+00 5.194507e+00 -1 -1 1 1.818794e-01 6.375476e-01 7.281446e-01 1.739494e-01
116 2 4 1.730454e+01 -1.374168e+00 4.673107e+00 -1 -1 1 1.212502e-02 8.886481e-01 3.976180e-01 2.281609e-01
117 2 1 1.749984e+01 -1.680921e+00 4.184988e+00 -1 -1 1 -8.737620e-01 -8.199091e-02 3.818974e-01 -2.897790e-01
118 2 1 1.742959e+01 -1.863267e+00 3.836013e+00 -1 -1 1 4.366324e-01 5.950449e-01 3.985096e-01 5.444849e-01
119 2 1 1.793085e+01 -1.757020e+00 3.668433e+00 -1 -1 1 -1.676855e-01 -6.522391e-01 -2.250963e-01 -7.041288e-01
120 2 1 1.773532e+01 -2.761266e+00 3.502194e+00 -1 -1 1 -8.067196e-01 5.563436e-01 1.992075e-01 1.255099e-03
121 2 3 1.697795e+01 -2.486119e+00 2.893393e+00 -1 -1 1 -6.531172e-01 8.009807e-02 9.221182e-02 -7.473414e-01
122 2 1 1.687315e+01 -2.483302e+00 2.144352e+00 -1 -1 1 8.908415e-02 -8.280872e-01 4.698908e-01 2.924692e-01
123 2 4 1.693035e+01 -2.203070e+00 1.659439e+00 -1 -1 1 2.915865e-02 6.321826e-01 -7.112974e-01 -3.058610e-01
124 2 1 1.707633e+01 -2.003104e+00 1.136369e+00 -1 -1 1 4.494174e-03 5.203381e-01 -8.404292e-01 -1.513500e-01
125 2 4 1.705982e+01 -2.162070e+00 5.827239e-01 -1 -1 1 2.001802e-01 2.344859e-01 -9.416921e-01 -1.347599e-01
126 2 2 1.693299e+01 -2.359173e+00 1.782618e-01 -1 -1 1 2.559936e-01 -5.474133e-02 -9.650791e-01 9.641409e-03
127 2 4 1.663834e+01 -2.731741e+00 2.590386e-02 -1 -1 1 8.682189e-02 -4.273878e-01 -8.987560e-01 4.515792e-02
128 2 4 1.618802e+01 -2.867310e+00 -2.833160e-01 -1 -1 1 1.350695e-01 -6.594410e-01 -7.325015e-01 1.016635e-01
129 2 1 1.576430e+01 -2.813061e+00 -5.988274e-01 -1 -1 1 1.665761e-01 -8.309421e-01 -5.081308e-01 1.535930e-01
130 2 2 1.544820e+01 -2.438120e+00 -8.943730e-01 -1 -1 1 1.487324e-01 -9.721355e-01 -1.073960e-01 1.459363e-01
131 2 3 1.524843e+01 -2.082471e+00 -1.243738e+00 -1 -1 1 1.157566e-01 -9.855448e-01 9.082788e-02 8.397655e-02
132 2 4 1.516576e+01 -1.799789e+00 -1.752479e+00 -1 -1 1 -3.233139e-02 9.225350e-01 -3.841721e-01 -1.719482e-02
133 2 4 1.554407e+01 -1.530289e+00 -2.192563e+00 -1 -1 1 -9.177050e-03 7.556635e-01 -6.548881e-01 3.166079e-03
134 2 3 1.595485e+01 -1.600281e+00 -2.558299e+00 -1 -1 1 1.917273e-02 4.291198e-01 -9.008376e-01 -6.308928e-02
135 2 4 1.618297e+01 -1.780515e+00 -3.034422e+00 -1 -1 1 2.078926e-02 -2.245770e-01 9.707263e-01 -8.260429e-02
136 2 3 1.619271e+01 -2.169623e+00 -3.451064e+00 -1 -1 1 -1.498006e-02 1.183469e-01 9.924439e-01 -2.871659e-02
137 2 1 1.601488e+01 -2.408428e+00 -3.837509e+00 -1 -1 1 5.504272e-02 -3.948510e-01 -9.043765e-01 1.522045e-01
138 2 3 1.561271e+01 -2.646655e+00 -4.240943e+00 -1 -1 1 2.631728e-02 -6.362767e-01 -7.645160e-01 9.987283e-02
139 2 2 1.534577e+01 -2.647188e+00 -4.661093e+00 -1 -1 1 1.029701e-01 -8.039894e-01 -5.723355e-01 1.242183e-01
140 2 3 1.500088e+01 -2.308949e+00 -4.905833e+00 -1 -1 1 1.582296e-01 -9.354624e-01 -1.970192e-01 2.470971e-01
141 2 1 1.478106e+01 -1.889236e+00 -5.231057e+00 -1 -1 1 -7.307222e-03 -9.755433e-01 7.184839e-02 2.076046e-01
142 2 2 1.473004e+01 -1.754083e+00 -5.714852e+00 -1 -1 1 2.510598e-02 -9.630107e-01 2.520237e-01 9.200123e-02
143 2 4 1.480819e+01 -1.520284e+00 -6.135419e+00 -1 -1 1 -1.438072e-02 8.311105e-01 -5.479810e-01 -9.362336e-02
144 2 4 1.508637e+01 -1.387166e+00 -6.506302e+00 -1 -1 1 1.555700e-01 -6.816301e-01 7.148320e-01 -1.391580e-02
145 2 1 1.540462e+01 -1.371252e+00 -6.937183e+00 -1 -1 1 3.748006e-04 -4.139109e-01 9.099085e-01 2.727806e-02
146 2 1 1.561316e+01 -1.709592e+00 -7.433026e+00 -1 -1 1 1.474873e-02 -1.836143e-01 9.816549e-01 4.921362e-02
147 2 1 1.563776e+01 -1.927124e+00 -7.939144e+00 -1 -1 1 -6.875592e-02 1.772983e-01 9.800076e-01 5.850714e-02
148 2 2 1.536281e+01 -2.121282e+00 -8.355161e+00 -1 -1 1 -1.227234e-01 5.038011e-01 8.550357e-01 -6.106239e-03
149 2 4 1.496567e+01 -2.106798e+00 -8.698506e+00 -1 -1 1 2.034582e-01 -7.152638e-01 -6.677527e-01 3.329822e-02
150 2 1 1.462284e+01 -1.839766e+00 -9.025286e+00 -1 -1 1 1.409472e-01 -9.097098e-01 -3.901343e-01 1.889776e-02
151 2 1 1.444360e+01 -1.497076e+00 -9.295083e+00 -1 -1 1 2.284052e-01 -9.575764e-01 -1.291862e-01 1.191197e-01
152 2 1 1.447639e+01 -1.108410e+00 -9.660485e+00 -1 -1 1 2.779530e-01 -9.431799e-01 1.663286e-01 7.408503e-02
153 2 4 1.463413e+01 -5.760425e-01 -9.929153e+00 -1 -1 1 2.989402e-01 -8.436579e-01 4.388361e-01 7.936603e-02
154 2 1 1.497709e+01 -2.789683e-01 -1.020906e+01 -1 -1 1 2.200385e-01 -6.530736e-01 7.007323e-01 1.845324e-01
155 2 2 1.522681e+01 -1.367498e-01 -1.075983e+01 -1 -1 1 1.033847e-01 -5.360238e-01 8.286482e-01 1.238234e-01
156 2 4 1.534480e+01 -1.801578e-01 -1.128208e+01 -1 -1 1 4.948611e-03 -2.614343e-01 9.598354e-01 1.017034e-01
157 2 3 1.542474e+01 -3.985100e-01 -1.178857e+01 -1 -1 1 -3.226075e-02 1.971943e-02 9.989553e-01 2.566486e-02
158 2 2 1.526672e+01 -5.529443e-01 -1.226160e+01 -1 -1 1 -1.666333e-01 2.659609e-01 9.488369e-01 3.473716e-02
159 2 1 1.483239e+01 -6.792109e-01 -1.258138e+01 -1 -1 1 -1.626208e-01 6.033016e-01 7.777359e-01 -6.861889e-02
160 2 3 1.448648e+01 -7.034924e-01 -1.291575e+01 -1 -1 1 2.368505e-01 -7.539978e-01 -6.046666e-01 9.883055e-02
161 2 1 1.404225e+01 -3.731154e-01 -1.307959e+01 -1 -1 1 2.486091e-01 -8.971852e-01 -3.025377e-01 2.042625e-01
162 2 1 1.378359e+01 5.937858e-02 -1.331548e+01 -1 -1 1 1.496626e-01 -9.582606e-01 -4.340896e-02 2.396944e-01
163 2 4 1.371907e+01 4.810634e-01 -1.365718e+01 -1 -1 1 -2.727714e-02 -9.341886e-01 2.719646e-01 2.293096e-01
164 2 4 1.378217e+01 7.198545e-01 -1.416274e+01 -1 -1 1 -1.619956e-02 -8.258404e-01 5.396708e-01 1.627288e-01
165 2 3 1.388610e+01 8.328026e-01 -1.469796e+01 -1 -1 1 -1.139520e-01 -6.436097e-01 7.477859e-01 1.166092e-01
166 2 3 1.390298e+01 6.681926e-01 -1.525281e+01 -1 -1 1 -2.469605e-01 -3.989892e-01 8.830486e-01 6.584979e-03
167 2 4 1.387684e+01 3.341322e-01 -1.562553e+01 -1 -1 1 -2.092430e-01 -1.635515e-01 9.540738e-01 -1.386057e-01
168 2 2 1.375529e+01 -1.348035e-01 -1.576314e+01 -1 -1 1 -1.236955e-01 1.435801e-01 9.495319e-01 -2.499468e-01
169 2 2 1.356417e+01 -4.927337e-01 -1.606381e+01 -1 -1 1 -1.493438e-01 3.830605e-01 8.617705e-01 -2.971745e-01
170 2 1 1.310534e+01 -7.147208e-01 -1.638295e+01 -1 -1 1 -9.751404e-02 6.966157e-01 6.631478e-01 -2.558370e-01
171 2 1 1.266104e+01 -7.010721e-01 -1.656100e+01 -1 -1 1 9.666758e-02 -8.564315e-01 -3.638393e-01 3.532723e-01
172 2 4 1.232546e+01 -6.950535e-01 -1.691758e+01 -1 -1 1 2.472557e-01 -8.458799e-01 -3.891696e-01 2.681397e-01
173 2 4 1.193591e+01 -3.648732e-01 -1.706188e+01 -1 -1 1 1.016169e-01 -9.417098e-01 6.274524e-03 3.206513e-01
174 2 1 1.188500e+01 5.012079e-02 -1.731558e+01 -1 -1 1 4.758864e-02 -8.561148e-01 2.806451e-01 4.313248e-01
175 2 1 1.161991e+01 3.237514e-01 -1.773015e+01 -1 -1 1 -2.141177e-02 -8.283133e-01 4.525955e-01 3.295392e-01
176 2 2 1.153187e+01 5.073324e-01 -1.825260e+01 -1 -1 1 -2.711294e-01 -6.446867e-01 6.615381e-01 2.706200e-01
177 2 2 1.136013e+01 3.832866e-01 -1.885425e+01 -1 -1 1 -4.347817e-01 -4.686211e-01 7.438367e-01 1.951055e-01
178 2 1 1.115128e+01 2.057587e-01 -1.920927e+01 -1 -1 1 -4.916402e-01 -1.567720e-01 8.553572e-01 -4.556924e-02
179 2 4 1.076726e+01 -2.005871e-01 -1.933649e+01 -1 -1 1 -5.023286e-01 1.505829e-01 8.303855e-01 -1.882837e-01
180 2 1 1.034985e+01 -4.639145e-01 -1.927946e+01 -1 -1 1 -4.352310e-01 3.468564e-01 7.377229e-01 -3.821380e-01
181 2 4 9.881900e+00 -6.135047e-01 -1.912313e+01 -1 -1 1 3.363320e-01 -5.690506e-01 -5.556666e-01 5.042786e-01
182 2 2 9.349459e+00 -5.198984e-01 -1.907389e+01 -1 -1 1 3.223037e-01 -7.061597e-01 -3.003380e-01 5.543066e-01
183 2 3 8.937732e+00 -1.488642e-01 -1.900199e+01 -1 -1 1 1.788629e-01 -7.490954e-01 -3.748485e-02 6.367567e-01
184 2 4 8.504445e+00 2.585931e-01 -1.912078e+01 -1 -1 1 -1.211454e-01 -7.937152e-01 2.022673e-01 5.607387e-01
185 2 3 8.157858e+00 4.590578e-01 -1.938305e+01 -1 -1 1 -2.872471e-01 -7.229622e-01 3.943241e-01 4.892068e-01
186 2 1 8.100519e+00 5.688506e-01 -1.988363e+01 -1 -1 1 -4.014371e-01 -4.922157e-01 6.372001e-01 4.365181e-01
187 2 1 7.805246e+00 4.913799e-01 1.973094e+01 -1 -1 0 -4.214252e-01 -4.159872e-01 7.649488e-01 2.533945e-01
188 2 2 7.476397e+00 3.221691e-01 1.938229e+01 -1 -1 0 -5.345589e-01 -1.524430e-01 8.232179e-01 1.154133e-01
189 2 4 7.059994e+00 1.352726e-02 1.914719e+01 -1 -1 0 -5.557240e-01 -3.516166e-02 8.255647e-01 -9.152790e-02
190 2 4 6.595548e+00 -2.773250e-01 1.909447e+01 -1 -1 0 -5.334781e-01 3.192654e-01 7.398949e-01 -2.569557e-01
191 2 1 6.101636e+00 -3.676764e-01 1.906969e+01 -1 -1 0 -5.308621e-01 4.553731e-01 5.980891e-01 -3.912930e-01
192 2 4 5.194851e+00 -4.798892e-01 1.901697e+01 -1 -1 0 4.478630e-01 -8.488874e-02 -8.530521e-01 2.539976e-01
193 2 4 4.378380e+00 -4.793544e-01 1.918978e+01 -1 -1 0 9.178684e-02 1.522204e-01 -6.275936e-01 7.579778e-01
194 2 1 3.613344e+00 -3.157027e-01 1.823728e+01 -1 -1 0 5.520098e-01 2.803032e-01 7.767249e-01 1.158180e-01
195 2 3 3.230464e+00 5.790986e-01 1.916912e+01 -1 -1 0 5.543060e-03 8.496667e-01 4.434599e-01 -2.852703e-01
196 2 4 2.678505e+00 8.900274e-02 1.832951e+01 -1 -1 0 -3.145267e-01 -5.142555e-01 -6.634861e-01 4.431708e-01
197 2 2 2.967928e+00 -3.957013e-01 1.839320e+01 -1 -1 0 5.763357e-01 6.534709e-01 -3.381793e-01 3.555949e-01
198 2 4 3.339409e+00 -7.180504e-01 1.826764e+01 -1 -1 0 -3.997691e-01 -5.116287e-01 5.164636e-01 -5.582885e-01
199 2 3 2.516438e+00 -1.035544e+00 1.717103e+01 -1 -1 0 2.550868e-02 -6.524750e-01 5.469446e-01 5.239059e-01
200 2 4 2.453772e+00 -5.227629e-01 1.632937e+01 -1 -1 0 -6.283033e-01 -1.573209e-01 -6.103238e-01 -4.560592e-01
