ITEM: TIMESTEP
9000000
ITEM: NUMBER OF ATOMS
200
ITEM: BOX BOUNDS pp pp pp
-2.0000000000000000e+01 2.0000000000000000e+01
-2.0000000000000000e+01 2.0000000000000000e+01
-2.0000000000000000e+01 2.0000000000000000e+01
ITEM: ATOMS id mol type x y z ix iy iz c_quat[1] c_quat[2] c_quat[3] c_quat[4]
1 1 1 1.713219e+01 8.661134e+00 -1.762323e+01 -1 -1 1 -3.138355e-01 -2.088395e-01 4.104277e-01 8.303267e-01
2 1 2 1.660521e+01 8.353630e+00 -1.676603e+01 -1 -1 1 2.971435e-01 -4.273988e-01 3.719095e-01 -7.685826e-01
3 1 1 1.623028e+01 7.860920e+00 -1.740540e+01 -1 -1 1 -3.231068e-02 4.065649e-01 7.532611e-01 5.160026e-01
4 1 3 1.602177e+01 8.247772e+00 -1.773089e+01 -1 -1 1 -2.483807e-01 7.709062e-01 4.352045e-01 3.932019e-01
5 1 1 1.580914e+01 8.692470e+00 -1.783474e+01 -1 -1 1 4.222680e-01 -8.842141e-01 -1.553973e-01 -1.253267e-01
6 1 2 1.597456e+01 9.237224e+00 -1.790930e+01 -1 -1 1 2.304519e-01 -9.170120e-01 3.188935e-01 6.548134e-02
7 1 4 1.626042e+01 9.578645e+00 -1.826955e+01 -1 -1 1 4.005122e-02 -7.566997e-01 6.194595e-01 2.051134e-01
8 1 1 1.636489e+01 9.623134e+00 -1.875547e+01 -1 -1 1 8.253890e-02 5.182195e-01 -8.398839e-01 -1.386754e-01
9 1 1 1.646344e+01 9.435212e+00 -1.924867e+01 -1 -1 1 1.415891e-01 8.600430e-02 -9.841702e-01 -6.296673e-02
10 1 4 1.647946e+01 9.164396e+00 -1.958035e+01 -1 -1 1 3.496606e-02 -2.344953e-01 -9.631785e-01 1.267934e-01
11 1 1 1.627140e+01 8.886224e+00 -1.998844e+01 -1 -1 1 1.491704e-01 -4.286224e-01 -8.706181e-01 1.898819e-01
12 1 1 1.586448e+01 8.822235e+00 1.980396e+01 -1 -1 0 -3.049519e-02 8.008865e-01 5.801716e-01 -1.450922e-01
13 1 3 1.557242e+01 8.944076e+00 1.939724e+01 -1 -1 0 7.493719e-02 9.746267e-01 1.827913e-01 -1.052361e-01
14 1 4 1.540323e+01 9.137723e+00 1.889786e+01 -1 -1 0 8.081962e-02 9.934865e-01 -7.537215e-02 -2.778053e-02
15 1 4 1.553482e+01 9.101111e+00 1.837349e+01 -1 -1 0 -6.723067e-04 -9.925760e-01 4.111491e-02 -1.144642e-01
16 1 2 1.578392e+01 9.393570e+00 1.815290e+01 -1 -1 0 1.689699e-01 -8.946339e-01 4.073581e-01 -7.168529e-02
17 1 1 1.603290e+01 9.473198e+00 1.758627e+01 -1 -1 0 -1.070222e-01 8.040028e-01 -5.671096e-01 1.432221e-01
18 1 2 1.639984e+01 9.398553e+00 1.727025e+01 -1 -1 0 -1.077216e-01 5.983053e-01 -7.773813e-01 1.615706e-01
19 1 3 1.679691e+01 9.091491e+00 1.704948e+01 -1 -1 0 -1.843973e-01 2.962203e-01 -9.354918e-01 5.573324e-02
20 1 1 1.705705e+01 8.681208e+00 1.664859e+01 -1 -1 0 -2.007429e-01 -4.927841e-02 -9.779354e-01 -3.026925e-02
21 1 4 1.712849e+01 8.430826e+00 1.626766e+01 -1 -1 0 1.808586e-01 3.341666e-01 9.249450e-01 -9.974401e-03
22 1 1 1.701781e+01 8.178410e+00 1.586248e+01 -1 -1 0 1.421535e-01 6.084065e-01 7.799277e-01 -3.669807e-02
23 1 4 1.694701e+01 8.149979e+00 1.530741e+01 -1 -1 0 1.829453e-02 8.175153e-01 5.719421e-01 6.493219e-02
24 1 3 1.675027e+01 8.461998e+00 1.482330e+01 -1 -1 0 -6.789502e-03 9.551112e-01 2.730210e-01 1.147871e-01
25 1 3 1.685602e+01 8.664924e+00 1.437138e+01 -1 -1 0 -9.596601e-02 9.536415e-01 1.871287e-01 2.152703e-01
26 1 4 1.703296e+01 9.022153e+00 1.407967e+01 -1 -1 0 -2.351493e-01 9.466647e-01 -1.047960e-01 1.937743e-01
27 1 4 1.728238e+01 9.417231e+00 1.391389e+01 -1 -1 0 -3.311709e-01 8.379120e-01 -4.015536e-01 1.642678e-01
28 1 1 1.766597e+01 9.712462e+00 1.379742e+01 -1 -1 0 -4.421910e-01 6.643670e-01 -5.968248e-01 8.296899e-02
29 1 1 1.810873e+01 9.979915e+00 1.368998e+01 -1 -1 0 -4.199879e-01 5.188376e-01 -7.424586e-01 5.632885e-02
30 1 4 1.862326e+01 1.009826e+01 1.338586e+01 -1 -1 0 3.197216e-01 -3.584884e-01 8.757561e-01 -4.811782e-02
31 1 4 1.908093e+01 9.825897e+00 1.311703e+01 -1 -1 0 3.261655e-01 -7.508056e-02 9.274444e-01 1.668109e-01
32 1 3 1.933555e+01 9.743041e+00 1.267533e+01 -1 -1 0 2.340358e-01 1.496364e-01 9.402144e-01 1.970609e-01
33 1 3 1.945759e+01 9.569235e+00 1.213836e+01 -1 -1 0 1.833151e-01 4.692483e-01 8.124691e-01 2.934205e-01
34 1 1 1.944184e+01 9.789300e+00 1.167043e+01 -1 -1 0 9.533105e-02 6.945788e-01 5.738625e-01 4.232661e-01
35 1 2 1.967342e+01 1.005000e+01 1.128474e+01 -1 -1 0 -1.581166e-01 7.427470e-01 4.304236e-01 4.879156e-01
36 1 2 1.967134e+01 1.055987e+01 1.110047e+01 -1 -1 0 -3.282781e-01 8.113072e-01 1.954268e-01 4.425183e-01
37 1 1 1.978738e+01 1.109679e+01 1.107691e+01 -1 -1 0 -4.683550e-01 8.152071e-01 -7.654447e-02 3.319967e-01
38 1 1 -1.987585e+01 1.157105e+01 1.105373e+01 0 -1 0 -5.380943e-01 7.508560e-01 -2.306709e-01 3.057136e-01
39 1 4 -1.953762e+01 1.191013e+01 1.125574e+01 0 -1 0 6.324234e-01 -6.199482e-01 4.336881e-01 -1.661912e-01
40 1 4 -1.899053e+01 1.207177e+01 1.128719e+01 0 -1 0 6.165707e-01 -4.096259e-01 6.708340e-01 -4.504308e-02
41 1 2 -1.844547e+01 1.195640e+01 1.128398e+01 0 -1 0 5.378432e-01 -2.277301e-01 8.039261e-01 1.121001e-01
42 1 4 -1.798465e+01 1.183656e+01 1.098721e+01 0 -1 0 4.911684e-01 1.153339e-01 8.281735e-01 2.440908e-01
43 1 3 -1.762641e+01 1.185002e+01 1.058727e+01 0 -1 0 3.357793e-01 2.620177e-01 8.907074e-01 1.588690e-01
44 1 2 -1.748419e+01 1.178613e+01 1.010016e+01 0 -1 0 2.567428e-01 5.393825e-01 7.080817e-01 3.765236e-01
45 1 1 -1.730036e+01 1.202778e+01 9.647150e+00 0 -1 0 1.606798e-01 7.031396e-01 5.290743e-01 4.470538e-01
46 1 3 -1.703191e+01 1.230050e+01 9.197414e+00 0 -1 0 2.386368e-02 7.721668e-01 2.504890e-01 5.834760e-01
47 1 4 -1.659893e+01 1.262245e+01 9.029339e+00 0 -1 0 -2.156737e-01 7.434136e-01 1.864946e-01 6.050130e-01
48 1 1 -1.639599e+01 1.306761e+01 9.049957e+00 0 -1 0 4.967691e-01 -6.782178e-01 -1.398179e-02 -5.413369e-01
49 1 4 -1.610835e+01 1.349307e+01 9.320968e+00 0 -1 0 6.046867e-01 -6.226657e-01 2.433918e-01 -4.328994e-01
50 1 4 -1.571086e+01 1.365031e+01 9.634672e+00 0 -1 0 7.305079e-01 -4.945164e-01 3.446634e-01 -3.209654e-01
51 1 4 -1.538869e+01 1.366985e+01 1.006590e+01 0 -1 0 7.842402e-01 -3.296224e-01 5.256580e-01 -1.746739e-05
52 1 1 -1.490108e+01 1.359879e+01 1.031073e+01 0 -1 0 7.349843e-01 -1.681001e-01 6.084423e-01 2.476657e-01
53 1 3 -1.442525e+01 1.359599e+01 1.028945e+01 0 -1 0 6.356357e-01 7.570162e-02 6.516722e-01 4.068904e-01
54 1 4 -1.390861e+01 1.363906e+01 1.013086e+01 0 -1 0 4.893049e-01 2.005867e-01 6.601159e-01 5.334723e-01
55 1 4 -1.341165e+01 1.388410e+01 9.883984e+00 0 -1 0 3.249623e-01 3.268219e-01 6.045299e-01 6.497157e-01
56 1 4 -1.319147e+01 1.422736e+01 9.636382e+00 0 -1 0 3.803064e-02 5.320104e-01 5.044999e-01 6.789687e-01
57 1 1 -1.292032e+01 1.475092e+01 9.535166e+00 0 -1 0 -1.698970e-01 5.583237e-01 3.361301e-01 7.392065e-01
58 1 1 -1.302368e+01 1.520689e+01 9.528614e+00 0 -1 0 -5.278657e-01 6.723696e-01 2.069220e-01 4.758783e-01
59 1 3 -1.286617e+01 1.571708e+01 9.714513e+00 0 -1 0 5.863986e-01 -6.677247e-01 5.824766e-02 -4.548490e-01
60 1 4 -1.265135e+01 1.614248e+01 1.013337e+01 0 -1 0 6.540392e-01 -6.216519e-01 3.002944e-01 -3.092005e-01
61 1 2 -1.222688e+01 1.636105e+01 1.047841e+01 0 -1 0 6.727142e-01 -5.214912e-01 5.207367e-01 -6.584725e-02
62 1 3 -1.162579e+01 1.644905e+01 1.060471e+01 0 -1 0 6.614216e-01 -2.413726e-01 7.018422e-01 -1.080661e-01
63 1 2 -1.112515e+01 1.628367e+01 1.057427e+01 0 -1 0 6.275909e-01 -6.254214e-03 7.783826e-01 1.452702e-02
64 1 4 -1.071396e+01 1.599125e+01 1.034507e+01 0 -1 0 5.232426e-01 3.568419e-01 7.371964e-01 2.354199e-01
65 1 2 -1.045938e+01 1.584421e+01 9.868755e+00 0 -1 0 4.535832e-01 5.509988e-01 6.329550e-01 3.000510e-01
66 1 1 -1.010262e+01 1.586771e+01 9.447912e+00 0 -1 0 3.428344e-01 6.879612e-01 4.744513e-01 4.290336e-01
67 1 2 -9.723385e+00 1.598500e+01 9.081020e+00 0 -1 0 1.871281e-01 7.530746e-01 2.323633e-01 5.864034e-01
68 1 1 -9.355978e+00 1.618763e+01 8.897070e+00 0 -1 0 -4.985646e-02 7.782719e-01 7.149906e-02 6.218481e-01
69 1 1 -8.914254e+00 1.648274e+01 8.781146e+00 0 -1 0 -1.714030e-01 7.079611e-01 -8.014860e-02 6.804325e-01
70 1 2 -8.593763e+00 1.679434e+01 9.015510e+00 0 -1 0 4.900651e-01 -6.036896e-01 2.023019e-01 -5.953730e-01
71 1 3 -8.330287e+00 1.707531e+01 9.363890e+00 0 -1 0 6.464491e-01 -4.771476e-01 2.878334e-01 -5.211388e-01
72 1 4 -8.144591e+00 1.713722e+01 9.805642e+00 0 -1 0 8.242061e-01 -3.008603e-01 3.520554e-01 -3.259208e-01
73 1 1 -7.671597e+00 1.711852e+01 1.013162e+01 0 -1 0 8.244969e-01 -1.569191e-01 5.016445e-01 -2.096043e-01
74 1 1 -7.414601e+00 1.686047e+01 1.037387e+01 0 -1 0 8.538070e-01 1.605258e-01 4.931030e-01 4.576573e-02
75 1 3 -6.933531e+00 1.651154e+01 1.046856e+01 0 -1 0 7.664953e-01 2.019964e-01 4.917312e-01 3.603926e-01
76 1 1 -6.439559e+00 1.643704e+01 1.028474e+01 0 -1 0 5.921804e-01 3.931058e-01 4.649494e-01 5.278373e-01
77 1 4 -5.910429e+00 1.661097e+01 1.015048e+01 0 -1 0 2.848655e-01 5.234287e-01 3.611661e-01 7.172399e-01
78 1 1 -5.520030e+00 1.696833e+01 1.010780e+01 0 -1 0 -1.733503e-02 6.057683e-01 3.204082e-01 7.280679e-01
79 1 4 -5.077136e+00 1.737344e+01 1.006695e+01 0 -1 0 -1.385059e-01 4.942987e-01 3.283158e-01 7.929021e-01
80 1 2 -5.032530e+00 1.788843e+01 1.019898e+01 0 -1 0 4.376020e-01 -5.864695e-01 -5.130236e-02 -6.796514e-01
81 1 4 -4.940802e+00 1.818626e+01 1.050228e+01 0 -1 0 6.636317e-01 -5.793739e-01 1.344002e-01 -4.537130e-01
82 1 4 -4.690450e+00 1.840947e+01 1.091591e+01 0 -1 0 8.037726e-01 -4.020494e-01 3.335608e-01 -2.846807e-01
83 1 4 -4.311715e+00 1.848411e+01 1.125360e+01 0 -1 0 8.331864e-01 -2.771219e-01 4.171457e-01 -2.345065e-01
84 1 4 -3.992110e+00 1.825309e+01 1.163240e+01 0 -1 0 8.646757e-01 -1.672772e-01 4.497834e-01 1.484896e-01
85 1 1 -3.631271e+00 1.822778e+01 1.198308e+01 0 -1 0 8.310800e-01 2.205549e-02 4.778599e-01 2.836714e-01
86 1 1 -3.046857e+00 1.820637e+01 1.201215e+01 0 -1 0 6.544518e-01 1.452451e-01 4.830964e-01 5.632180e-01
87 1 3 -2.506108e+00 1.838447e+01 1.209949e+01 0 -1 0 4.766035e-01 4.608393e-02 4.660968e-01 7.439618e-01
88 1 2 -2.104979e+00 1.872500e+01 1.206535e+01 0 -1 0 1.395513e-01 2.152304e-01 3.764089e-01 8.902346e-01
89 1 2 -1.908790e+00 1.924920e+01 1.214635e+01 0 -1 0 1.080022e-01 -2.931122e-01 -3.103930e-01 -8.978179e-01
90 1 3 -1.862190e+00 1.969509e+01 1.236856e+01 0 -1 0 3.778047e-01 -3.633973e-01 -2.004215e-01 -8.276698e-01
91 1 3 -1.851814e+00 2.001260e+01 1.279436e+01 0 -1 0 6.498955e-01 -2.384900e-01 -1.040508e-01 -7.140951e-01
92 1 2 -2.026865e+00 -1.994151e+01 1.328078e+01 0 0 0 8.802581e-01 -1.868165e-01 -2.255922e-02 -4.355873e-01
93 1 1 -2.095924e+00 1.997455e+01 1.384464e+01 0 -1 0 9.602960e-01 -1.926430e-01 1.253331e-01 -1.581517e-01
94 1 2 -1.928640e+00 1.993445e+01 1.435708e+01 0 -1 0 9.518280e-01 -1.409356e-01 2.638615e-01 6.736250e-02
95 1 3 -1.616999e+00 1.978051e+01 1.472116e+01 0 -1 0 8.955802e-01 1.641764e-02 3.417255e-01 2.844121e-01
96 1 2 -1.128959e+00 1.964333e+01 1.495337e+01 0 -1 0 7.711213e-01 1.221785e-01 3.419977e-01 5.229549e-01
97 1 2 -6.203278e-01 1.963767e+01 1.516424e+01 0 -1 0 6.090514e-01 2.359296e-01 3.501109e-01 6.714283e-01
98 1 4 -1.696087e-01 1.993517e+01 1.511196e+01 0 -1 0 -2.677762e-01 -4.199097e-01 -3.880075e-01 -7.755140e-01
99 1 2 1.892628e-01 -1.965839e+01 1.514273e+01 0 0 0 -6.225679e-03 -4.916849e-01 -3.385028e-01 -8.022612e-01
100 1 1 3.779882e-01 -1.919626e+01 1.520556e+01 0 0 0 2.545973e-01 -5.803480e-01 -2.750300e-01 -7.230041e-01
101 2 4 -2.380746e-02 -1.927052e+01 1.627058e+01 0 0 0 -1.561740e-01 -8.112305e-01 -1.359925e-01 5.468279e-01
102 2 3 -4.659433e-01 -1.921544e+01 1.603672e+01 0 0 0 2.856972e-01 8.454581e-01 -1.006968e-01 -4.398157e-01
103 2 1 -7.677066e-01 -1.914239e+01 1.555354e+01 0 0 0 -1.681519e-01 -8.534287e-01 4.010514e-01 2.873015e-01
104 2 3 -8.658806e-01 -1.915082e+01 1.496458e+01 0 0 0 3.120384e-01 7.027499e-01 -6.268172e-01 -1.259951e-01
105 2 3 -9.052478e-01 -1.932173e+01 1.442099e+01 0 0 0 3.102904e-01 5.815206e-01 -7.513708e-01 3.155248e-02
106 2 2 -9.473563e-01 -1.958127e+01 1.399875e+01 0 0 0 2.963868e-01 3.515548e-01 -8.717499e-01 1.691632e-01
107 2 3 -9.237706e-01 1.997648e+01 1.369603e+01 0 -1 0 2.963673e-01 1.941031e-01 -8.764475e-01 3.260831e-01
108 2 4 -9.956541e-01 1.946051e+01 1.362727e+01 0 -1 0 1.938980e-01 -1.415801e-01 -8.740447e-01 4.223795e-01
109 2 3 -1.347585e+00 1.906255e+01 1.357416e+01 0 -1 0 8.272093e-02 -5.050602e-01 -7.567112e-01 4.067672e-01
110 2 2 -1.871119e+00 1.893896e+01 1.334025e+01 0 -1 0 -1.725680e-01 6.917202e-01 5.555048e-01 -4.279694e-01
111 2 2 -2.439150e+00 1.905787e+01 1.320547e+01 0 -1 0 -5.743238e-02 8.825378e-01 2.689303e-01 -3.814512e-01
112 2 3 -2.827497e+00 1.924191e+01 1.290298e+01 0 -1 0 1.121772e-01 9.358296e-01 -4.205285e-02 -3.314678e-01
113 2 3 -3.012383e+00 1.935198e+01 1.236085e+01 0 -1 0 2.528377e-01 8.779938e-01 -3.549297e-01 -1.980528e-01
114 2 2 -3.135134e+00 1.932607e+01 1.183771e+01 0 -1 0 3.033419e-01 7.610017e-01 -5.714220e-01 -4.834156e-02
115 2 4 -3.084159e+00 1.915792e+01 1.135532e+01 0 -1 0 3.724386e-01 5.653448e-01 -7.336588e-01 5.847711e-02
116 2 4 -3.234636e+00 1.871830e+01 1.094213e+01 0 -1 0 5.012783e-01 3.792849e-01 -7.626174e-01 1.525702e-01
117 2 1 -3.354719e+00 1.827673e+01 1.065442e+01 0 -1 0 4.785815e-01 1.470518e-01 -8.103151e-01 3.045078e-01
118 2 1 -3.603456e+00 1.779182e+01 1.058861e+01 0 -1 0 4.350542e-01 -7.029052e-02 -7.483317e-01 4.957689e-01
119 2 1 -3.945711e+00 1.743116e+01 1.066094e+01 0 -1 0 3.789478e-01 -2.555290e-01 -6.620127e-01 5.940056e-01
120 2 1 -4.423050e+00 1.720901e+01 1.096647e+01 0 -1 0 2.564372e-01 -4.834561e-01 -5.259644e-01 6.510543e-01
121 2 3 -4.854318e+00 1.723833e+01 1.121856e+01 0 -1 0 -5.556926e-02 6.531062e-01 3.314179e-01 -6.786211e-01
122 2 1 -5.403771e+00 1.748344e+01 1.122486e+01 0 -1 0 1.033681e-01 7.446368e-01 6.950337e-02 -6.557441e-01
123 2 4 -5.971506e+00 1.743400e+01 1.110796e+01 0 -1 0 1.021144e-01 8.284517e-01 -3.988380e-02 -5.492264e-01
124 2 1 -6.236056e+00 1.762012e+01 1.071324e+01 0 -1 0 2.454037e-01 7.489397e-01 -4.526555e-01 -4.170963e-01
125 2 4 -6.506596e+00 1.763230e+01 1.020484e+01 0 -1 0 3.383298e-01 6.297031e-01 -6.570856e-01 -2.392602e-01
126 2 2 -6.528183e+00 1.736274e+01 9.775080e+00 0 -1 0 3.521804e-01 4.202264e-01 -8.361853e-01 -1.314945e-02
127 2 4 -6.694829e+00 1.700273e+01 9.427870e+00 0 -1 0 4.042091e-01 7.877803e-02 -8.962063e-01 1.649950e-01
128 2 4 -7.133613e+00 1.652668e+01 9.205728e+00 0 -1 0 4.881151e-01 -1.619709e-01 -8.319262e-01 2.083458e-01
129 2 1 -7.505013e+00 1.620620e+01 9.375830e+00 0 -1 0 3.743199e-01 -2.955579e-01 -7.389358e-01 4.759244e-01
130 2 2 -7.889612e+00 1.591515e+01 9.413528e+00 0 -1 0 4.538600e-01 -3.439100e-01 -5.977679e-01 5.642788e-01
131 2 3 -8.306526e+00 1.585538e+01 9.725879e+00 0 -1 0 3.153169e-01 -5.463066e-01 -3.639418e-01 6.853252e-01
132 2 4 -8.791033e+00 1.600822e+01 9.969494e+00 0 -1 0 -1.296378e-01 6.713756e-01 2.050752e-01 -7.002807e-01
133 2 4 -9.175256e+00 1.633703e+01 1.003876e+01 0 -1 0 -1.974842e-02 6.685707e-01 -1.159296e-01 -7.342912e-01
134 2 3 -9.390694e+00 1.676740e+01 9.976393e+00 0 -1 0 1.830876e-01 4.956848e-01 -4.708682e-01 -7.064409e-01
135 2 4 -9.943177e+00 1.701551e+01 9.865450e+00 0 -1 0 -3.519711e-01 -5.786980e-01 4.435417e-01 5.869375e-01
136 2 3 -1.043869e+01 1.700767e+01 9.549584e+00 0 -1 0 -5.555743e-01 -4.435332e-01 5.623500e-01 4.223483e-01
137 2 1 -1.102122e+01 1.677389e+01 9.479839e+00 0 -1 0 7.420533e-01 3.007172e-01 -5.575673e-01 -2.191913e-01
138 2 3 -1.137105e+01 1.641490e+01 9.370699e+00 0 -1 0 7.491184e-01 2.427768e-01 -6.126493e-01 6.739381e-02
139 2 2 -1.164890e+01 1.599069e+01 9.522735e+00 0 -1 0 7.127044e-01 2.051368e-01 -5.748291e-01 3.457496e-01
140 2 3 -1.161789e+01 1.561104e+01 9.784472e+00 0 -1 0 4.466467e-01 -3.291525e-02 -6.295233e-01 6.349202e-01
141 2 1 -1.190097e+01 1.517368e+01 1.010509e+01 0 -1 0 3.654015e-01 -2.658977e-01 -5.106274e-01 7.314642e-01
142 2 2 -1.225472e+01 1.499617e+01 1.043217e+01 0 -1 0 1.650330e-01 -4.594186e-01 -4.015601e-01 7.748859e-01
143 2 4 -1.273577e+01 1.491623e+01 1.068788e+01 0 -1 0 1.048276e-01 6.535044e-01 2.968826e-01 -6.883342e-01
144 2 4 -1.330172e+01 1.489806e+01 1.065186e+01 0 -1 0 -2.832783e-01 -7.513564e-01 -1.107920e-01 5.856125e-01
145 2 1 -1.377504e+01 1.494682e+01 1.043977e+01 0 -1 0 -3.341475e-01 -8.039342e-01 1.444628e-01 4.702826e-01
146 2 1 -1.417651e+01 1.483399e+01 1.004483e+01 0 -1 0 -4.847048e-01 -7.602601e-01 3.060621e-01 3.056007e-01
147 2 1 -1.437622e+01 1.460128e+01 9.570369e+00 0 -1 0 -5.472886e-01 -6.043423e-01 5.695695e-01 1.040972e-01
148 2 2 -1.450269e+01 1.417700e+01 9.255868e+00 0 -1 0 -5.972105e-01 -3.837207e-01 6.872194e-01 -1.543616e-01
149 2 4 -1.471685e+01 1.369754e+01 9.142049e+00 0 -1 0 5.908870e-01 2.646297e-01 -7.050492e-01 2.893602e-01
150 2 1 -1.476875e+01 1.319705e+01 9.171084e+00 0 -1 0 4.680224e-01 5.898212e-02 -7.261426e-01 5.001931e-01
151 2 1 -1.506473e+01 1.275795e+01 9.326975e+00 0 -1 0 4.116720e-01 -1.346510e-01 -6.330251e-01 6.416186e-01
152 2 1 -1.542506e+01 1.253146e+01 9.662488e+00 0 -1 0 2.328373e-01 -3.998424e-01 -4.993678e-01 7.324921e-01
153 2 4 -1.582621e+01 1.248825e+01 9.912265e+00 0 -1 0 7.617824e-02 -5.336014e-01 -2.646759e-01 7.996331e-01
154 2 1 -1.630111e+01 1.256483e+01 1.017670e+01 0 -1 0 -2.453830e-02 -6.089244e-01 -1.065887e-01 7.856512e-01
155 2 2 -1.676515e+01 1.286740e+01 1.019388e+01 0 -1 0 -2.838092e-01 -5.664305e-01 1.226782e-01 7.639103e-01
156 2 4 -1.719767e+01 1.300112e+01 1.025797e+01 0 -1 0 -4.373894e-01 -5.816646e-01 3.065560e-01 6.134983e-01
157 2 3 -1.781049e+01 1.294518e+01 1.014631e+01 0 -1 0 -6.273107e-01 -5.109265e-01 3.894500e-01 4.401865e-01
158 2 2 -1.832175e+01 1.265986e+01 1.013357e+01 0 -1 0 -7.837966e-01 -4.251230e-01 3.505321e-01 2.864622e-01
159 2 1 -1.863202e+01 1.221870e+01 1.004911e+01 0 -1 0 -7.816246e-01 -4.204426e-01 4.585033e-01 -4.544989e-02
160 2 3 -1.876503e+01 1.172785e+01 1.013913e+01 0 -1 0 7.549580e-01 2.158294e-01 -5.394810e-01 3.040006e-01
161 2 1 -1.888826e+01 1.130451e+01 1.039401e+01 0 -1 0 6.799932e-01 1.018102e-01 -4.365892e-01 5.802016e-01
162 2 1 -1.884127e+01 1.095461e+01 1.080862e+01 0 -1 0 4.506939e-01 -8.988577e-02 -4.234419e-01 7.807000e-01
163 2 4 -1.902863e+01 1.073130e+01 1.128314e+01 0 -1 0 3.127057e-01 -2.395375e-01 -3.687056e-01 8.419579e-01
164 2 4 -1.924584e+01 1.085066e+01 1.172101e+01 0 -1 0 -1.037816e-01 -3.191508e-01 -2.247475e-01 9.148009e-01
165 2 3 -1.963919e+01 1.058636e+01 1.207037e+01 0 -1 0 -7.237123e-02 -4.419506e-01 -1.885204e-01 8.740150e-01
166 2 3 1.992532e+01 1.074797e+01 1.228640e+01 -1 -1 0 -3.590685e-01 -5.041686e-01 7.204038e-02 7.821087e-01
167 2 4 1.934434e+01 1.077514e+01 1.232576e+01 -1 -1 0 -4.170415e-01 -6.435330e-01 2.393243e-01 5.955380e-01
168 2 2 1.882048e+01 1.057488e+01 1.216356e+01 -1 -1 0 -6.865225e-01 -5.308981e-01 2.832007e-01 4.082052e-01
169 2 2 1.844777e+01 1.020778e+01 1.212758e+01 -1 -1 0 -8.752497e-01 -3.025087e-01 3.275540e-01 1.874429e-01
170 2 1 1.814034e+01 9.793755e+00 1.237156e+01 -1 -1 0 -9.258672e-01 -1.566406e-01 3.420993e-01 -3.466624e-02
171 2 1 1.800989e+01 9.406229e+00 1.260036e+01 -1 -1 0 8.315805e-01 9.578535e-02 -3.918623e-01 3.817629e-01
172 2 4 1.788595e+01 9.012078e+00 1.298809e+01 -1 -1 0 7.824388e-01 7.106518e-02 -3.070979e-01 5.370570e-01
173 2 4 1.805467e+01 8.684610e+00 1.340452e+01 -1 -1 0 5.562532e-01 -9.733017e-03 -3.015429e-01 7.743123e-01
174 2 1 1.803796e+01 8.483362e+00 1.391513e+01 -1 -1 0 3.480095e-01 -1.461628e-01 -2.178210e-01 9.000444e-01
175 2 1 1.807451e+01 8.563672e+00 1.446055e+01 -1 -1 0 2.107888e-01 -1.890688e-01 -1.481848e-02 9.589586e-01
176 2 2 1.796482e+01 8.834224e+00 1.486052e+01 -1 -1 0 -4.734394e-02 -2.076737e-01 1.120919e-01 9.706006e-01
177 2 2 1.768670e+01 9.155064e+00 1.515074e+01 -1 -1 0 -3.085383e-01 -2.188101e-01 2.000478e-01 9.038292e-01
178 2 1 1.721704e+01 9.283964e+00 1.543558e+01 -1 -1 0 -5.775729e-01 -2.590995e-01 2.303312e-01 7.390701e-01
179 2 4 1.671144e+01 9.240783e+00 1.549342e+01 -1 -1 0 -7.850341e-01 -2.086945e-01 3.875970e-01 4.358172e-01
180 2 1 1.620174e+01 8.979724e+00 1.574819e+01 -1 -1 0 -9.235332e-01 -1.918634e-01 3.118041e-01 1.142498e-01
181 2 4 1.593709e+01 8.758680e+00 1.621060e+01 -1 -1 0 9.604721e-01 1.684306e-01 -2.192607e-01 3.239142e-02
182 2 2 1.583047e+01 8.443328e+00 1.669860e+01 -1 -1 0 9.533164e-01 1.399292e-01 -9.478277e-02 2.502476e-01
183 2 3 1.598632e+01 8.276898e+00 1.733600e+01 -1 -1 0 8.492634e-01 -4.010618e-02 5.721117e-02 5.233260e-01
184 2 4 1.628560e+01 8.289148e+00 1.775009e+01 -1 -1 0 6.441894e-01 -1.326105e-02 7.562242e-02 7.610029e-01
185 2 3 1.658538e+01 8.510424e+00 1.817235e+01 -1 -1 0 3.684839e-01 -2.373235e-02 1.191587e-01 9.216602e-01
186 2 1 1.670919e+01 8.884598e+00 1.857559e+01 -1 -1 0 1.074040e-01 -3.084918e-02 2.751681e-01 9.548797e-01
187 2 1 1.660608e+01 9.384174e+00 1.885264e+01 -1 -1 0 -1.586675e-01 -9.251544e-02 2.360246e-01 9.542316e-01
188 2 2 1.634827e+01 9.733483e+00 1.907674e+01 -1 -1 0 -4.491130e-01 3.175584e-02 2.106457e-01 8.677082e-01
189 2 4 1.605024e+01 9.931209e+00 1.955470e+01 -1 -1 0 -6.485247e-01 -6.762614e-03 1.059955e-01 7.537472e-01
190 2 4 1.556853e+01 9.891502e+00 1.998917e+01 -1 -1 0 8.551172e-01 -3.450252e-02 -5.759198e-02 -5.140693e-01
191 2 1 1.536883e+01 9.772617e+00 -1.960180e+01 -1 -1 1 9.796899e-01 -1.345988e-01 5.501735e-03 -1.485278e-01
192 2 4 1.475924e+01 1.005879e+01 1.929041e+01 -1 -1 0 6.986817e-01 -1.149704e-02 7.114092e-01 7.489021e-02
193 2 4 1.384821e+01 1.091143e+01 1.973875e+01 -1 -1 0 -7.003752e-02 8.526583e-02 6.297381e-01 7.689307e-01
194 2 1 1.349338e+01 1.143687e+01 1.968854e+01 -1 -1 0 -4.147735e-01 4.243670e-01 4.540158e-01 6.646392e-01
195 2 3 1.460121e+01 1.168052e+01 1.936134e+01 -1 -1 0 5.445756e-01 -5.398823e-01 6.115721e-01 -1.947926e-01
196 2 4 1.365464e+01 1.188120e+01 1.871372e+01 -1 -1 0 1.440150e-01 -1.872107e-01 9.572302e-01 -1.670996e-01
197 2 2 1.392009e+01 1.226539e+01 1.793258e+01 -1 -1 0 9.829065e-01 6.345577e-02 3.998295e-02 -1.681355e-01
198 2 4 1.404090e+01 1.210819e+01 1.734615e+01 -1 -1 0 3.663229e-02 -1.764328e-01 7.338348e-01 6.549931e-01
199 2 3 1.384950e+01 1.134933e+01 1.802066e+01 -1 -1 0 5.206146e-01 -6.285471e-01 2.366999e-01 -5.271263e-01
200 2 4 1.419233e+01 1.128098e+01 1.814076e+01 -1 -1 0 3.214360e-01 -9.228195e-01 -1.273783e-01 1.698761e-01
